{
    "cms:/store/data/Run2022C/DoubleMuon/NANOAOD/ReRecoNanoAODv11-v1/2540000/29f4073a-59c9-4f4e-825e-28b8ddaf765c.root": [
        "T1_US_FNAL_Disk: davs://cmsdcadisk.fnal.gov:2880/dcache/uscmsdisk/store/data/Run2022C/DoubleMuon/NANOAOD/ReRecoNanoAODv11-v1/2540000/29f4073a-59c9-4f4e-825e-28b8ddaf765c.root",
        "T1_FR_CCIN2P3_Disk: davs://ccdavcms.in2p3.fr:2880/disk/data/store/data/Run2022C/DoubleMuon/NANOAOD/ReRecoNanoAODv11-v1/2540000/29f4073a-59c9-4f4e-825e-28b8ddaf765c.root",
        "T2_IT_Legnaro: davs://t2-xrdcms.lnl.infn.it:2880/pnfs/lnl.infn.it/data/cms/store/data/Run2022C/DoubleMuon/NANOAOD/ReRecoNanoAODv11-v1/2540000/29f4073a-59c9-4f4e-825e-28b8ddaf765c.root",
        "T2_FR_GRIF: davs://eos.grif.fr:11000/eos/grif/cms/grif/store/data/Run2022C/DoubleMuon/NANOAOD/ReRecoNanoAODv11-v1/2540000/29f4073a-59c9-4f4e-825e-28b8ddaf765c.root",
        "T1_FR_CCIN2P3_Tape: srm://ccsrm.in2p3.fr:8443/srm/managerv2?SFN=/pnfs/in2p3.fr/data/cms/data/store/data/Run2022C/DoubleMuon/NANOAOD/ReRecoNanoAODv11-v1/2540000/29f4073a-59c9-4f4e-825e-28b8ddaf765c.root",
        "T2_CH_CERN: davs://eoscms.cern.ch:443/eos/cms/store/data/Run2022C/DoubleMuon/NANOAOD/ReRecoNanoAODv11-v1/2540000/29f4073a-59c9-4f4e-825e-28b8ddaf765c.root",
        "T2_KR_KISTI: davs://cms-t2-se01.sdfarm.kr:2880/store/data/Run2022C/DoubleMuon/NANOAOD/ReRecoNanoAODv11-v1/2540000/29f4073a-59c9-4f4e-825e-28b8ddaf765c.root",
        "T2_US_Wisconsin: davs://cmsxrootd.hep.wisc.edu:1094/store/data/Run2022C/DoubleMuon/NANOAOD/ReRecoNanoAODv11-v1/2540000/29f4073a-59c9-4f4e-825e-28b8ddaf765c.root"
    ],
    "cms:/store/data/Run2022C/DoubleMuon/NANOAOD/ReRecoNanoAODv11-v1/2540000/d278c568-362e-409c-a7dd-713c1a3c20eb.root": [
        "T1_US_FNAL_Disk: davs://cmsdcadisk.fnal.gov:2880/dcache/uscmsdisk/store/data/Run2022C/DoubleMuon/NANOAOD/ReRecoNanoAODv11-v1/2540000/d278c568-362e-409c-a7dd-713c1a3c20eb.root",
        "T1_FR_CCIN2P3_Disk: davs://ccdavcms.in2p3.fr:2880/disk/data/store/data/Run2022C/DoubleMuon/NANOAOD/ReRecoNanoAODv11-v1/2540000/d278c568-362e-409c-a7dd-713c1a3c20eb.root",
        "T2_IT_Legnaro: davs://t2-xrdcms.lnl.infn.it:2880/pnfs/lnl.infn.it/data/cms/store/data/Run2022C/DoubleMuon/NANOAOD/ReRecoNanoAODv11-v1/2540000/d278c568-362e-409c-a7dd-713c1a3c20eb.root",
        "T2_FR_GRIF: davs://eos.grif.fr:11000/eos/grif/cms/grif/store/data/Run2022C/DoubleMuon/NANOAOD/ReRecoNanoAODv11-v1/2540000/d278c568-362e-409c-a7dd-713c1a3c20eb.root",
        "T1_FR_CCIN2P3_Tape: srm://ccsrm.in2p3.fr:8443/srm/managerv2?SFN=/pnfs/in2p3.fr/data/cms/data/store/data/Run2022C/DoubleMuon/NANOAOD/ReRecoNanoAODv11-v1/2540000/d278c568-362e-409c-a7dd-713c1a3c20eb.root",
        "T2_CH_CERN: davs://eoscms.cern.ch:443/eos/cms/store/data/Run2022C/DoubleMuon/NANOAOD/ReRecoNanoAODv11-v1/2540000/d278c568-362e-409c-a7dd-713c1a3c20eb.root",
        "T2_KR_KISTI: davs://cms-t2-se01.sdfarm.kr:2880/store/data/Run2022C/DoubleMuon/NANOAOD/ReRecoNanoAODv11-v1/2540000/d278c568-362e-409c-a7dd-713c1a3c20eb.root",
        "T2_US_Wisconsin: davs://cmsxrootd.hep.wisc.edu:1094/store/data/Run2022C/DoubleMuon/NANOAOD/ReRecoNanoAODv11-v1/2540000/d278c568-362e-409c-a7dd-713c1a3c20eb.root"
    ],
    "cms:/store/data/Run2022C/DoubleMuon/NANOAOD/ReRecoNanoAODv11-v1/50000/8a349b75-d8fa-4cba-af55-46f15e77092f.root": [
        "T1_US_FNAL_Disk: davs://cmsdcadisk.fnal.gov:2880/dcache/uscmsdisk/store/data/Run2022C/DoubleMuon/NANOAOD/ReRecoNanoAODv11-v1/50000/8a349b75-d8fa-4cba-af55-46f15e77092f.root",
        "T1_FR_CCIN2P3_Disk: davs://ccdavcms.in2p3.fr:2880/disk/data/store/data/Run2022C/DoubleMuon/NANOAOD/ReRecoNanoAODv11-v1/50000/8a349b75-d8fa-4cba-af55-46f15e77092f.root",
        "T2_IT_Legnaro: davs://t2-xrdcms.lnl.infn.it:2880/pnfs/lnl.infn.it/data/cms/store/data/Run2022C/DoubleMuon/NANOAOD/ReRecoNanoAODv11-v1/50000/8a349b75-d8fa-4cba-af55-46f15e77092f.root",
        "T2_FR_GRIF: davs://eos.grif.fr:11000/eos/grif/cms/grif/store/data/Run2022C/DoubleMuon/NANOAOD/ReRecoNanoAODv11-v1/50000/8a349b75-d8fa-4cba-af55-46f15e77092f.root",
        "T1_FR_CCIN2P3_Tape: srm://ccsrm.in2p3.fr:8443/srm/managerv2?SFN=/pnfs/in2p3.fr/data/cms/data/store/data/Run2022C/DoubleMuon/NANOAOD/ReRecoNanoAODv11-v1/50000/8a349b75-d8fa-4cba-af55-46f15e77092f.root",
        "T2_CH_CERN: davs://eoscms.cern.ch:443/eos/cms/store/data/Run2022C/DoubleMuon/NANOAOD/ReRecoNanoAODv11-v1/50000/8a349b75-d8fa-4cba-af55-46f15e77092f.root",
        "T2_KR_KISTI: davs://cms-t2-se01.sdfarm.kr:2880/store/data/Run2022C/DoubleMuon/NANOAOD/ReRecoNanoAODv11-v1/50000/8a349b75-d8fa-4cba-af55-46f15e77092f.root",
        "T2_US_Wisconsin: davs://cmsxrootd.hep.wisc.edu:1094/store/data/Run2022C/DoubleMuon/NANOAOD/ReRecoNanoAODv11-v1/50000/8a349b75-d8fa-4cba-af55-46f15e77092f.root"
    ],
    "cms:/store/data/Run2022C/DoubleMuon/NANOAOD/ReRecoNanoAODv11-v1/2540000/20d7bf11-4b01-4fbd-9001-3d779c98d71e.root": [
        "T1_US_FNAL_Disk: davs://cmsdcadisk.fnal.gov:2880/dcache/uscmsdisk/store/data/Run2022C/DoubleMuon/NANOAOD/ReRecoNanoAODv11-v1/2540000/20d7bf11-4b01-4fbd-9001-3d779c98d71e.root",
        "T1_FR_CCIN2P3_Disk: davs://ccdavcms.in2p3.fr:2880/disk/data/store/data/Run2022C/DoubleMuon/NANOAOD/ReRecoNanoAODv11-v1/2540000/20d7bf11-4b01-4fbd-9001-3d779c98d71e.root",
        "T2_IT_Legnaro: davs://t2-xrdcms.lnl.infn.it:2880/pnfs/lnl.infn.it/data/cms/store/data/Run2022C/DoubleMuon/NANOAOD/ReRecoNanoAODv11-v1/2540000/20d7bf11-4b01-4fbd-9001-3d779c98d71e.root",
        "T2_FR_GRIF: davs://eos.grif.fr:11000/eos/grif/cms/grif/store/data/Run2022C/DoubleMuon/NANOAOD/ReRecoNanoAODv11-v1/2540000/20d7bf11-4b01-4fbd-9001-3d779c98d71e.root",
        "T1_FR_CCIN2P3_Tape: srm://ccsrm.in2p3.fr:8443/srm/managerv2?SFN=/pnfs/in2p3.fr/data/cms/data/store/data/Run2022C/DoubleMuon/NANOAOD/ReRecoNanoAODv11-v1/2540000/20d7bf11-4b01-4fbd-9001-3d779c98d71e.root",
        "T2_CH_CERN: davs://eoscms.cern.ch:443/eos/cms/store/data/Run2022C/DoubleMuon/NANOAOD/ReRecoNanoAODv11-v1/2540000/20d7bf11-4b01-4fbd-9001-3d779c98d71e.root",
        "T2_KR_KISTI: davs://cms-t2-se01.sdfarm.kr:2880/store/data/Run2022C/DoubleMuon/NANOAOD/ReRecoNanoAODv11-v1/2540000/20d7bf11-4b01-4fbd-9001-3d779c98d71e.root",
        "T2_US_Wisconsin: davs://cmsxrootd.hep.wisc.edu:1094/store/data/Run2022C/DoubleMuon/NANOAOD/ReRecoNanoAODv11-v1/2540000/20d7bf11-4b01-4fbd-9001-3d779c98d71e.root"
    ],
    "cms:/store/data/Run2022C/DoubleMuon/NANOAOD/ReRecoNanoAODv11-v1/2540000/b95ae0b1-745f-42cc-848a-6d0858b3ffa8.root": [
        "T1_US_FNAL_Disk: davs://cmsdcadisk.fnal.gov:2880/dcache/uscmsdisk/store/data/Run2022C/DoubleMuon/NANOAOD/ReRecoNanoAODv11-v1/2540000/b95ae0b1-745f-42cc-848a-6d0858b3ffa8.root",
        "T1_FR_CCIN2P3_Disk: davs://ccdavcms.in2p3.fr:2880/disk/data/store/data/Run2022C/DoubleMuon/NANOAOD/ReRecoNanoAODv11-v1/2540000/b95ae0b1-745f-42cc-848a-6d0858b3ffa8.root",
        "T2_IT_Legnaro: davs://t2-xrdcms.lnl.infn.it:2880/pnfs/lnl.infn.it/data/cms/store/data/Run2022C/DoubleMuon/NANOAOD/ReRecoNanoAODv11-v1/2540000/b95ae0b1-745f-42cc-848a-6d0858b3ffa8.root",
        "T2_FR_GRIF: davs://eos.grif.fr:11000/eos/grif/cms/grif/store/data/Run2022C/DoubleMuon/NANOAOD/ReRecoNanoAODv11-v1/2540000/b95ae0b1-745f-42cc-848a-6d0858b3ffa8.root",
        "T1_FR_CCIN2P3_Tape: srm://ccsrm.in2p3.fr:8443/srm/managerv2?SFN=/pnfs/in2p3.fr/data/cms/data/store/data/Run2022C/DoubleMuon/NANOAOD/ReRecoNanoAODv11-v1/2540000/b95ae0b1-745f-42cc-848a-6d0858b3ffa8.root",
        "T2_CH_CERN: davs://eoscms.cern.ch:443/eos/cms/store/data/Run2022C/DoubleMuon/NANOAOD/ReRecoNanoAODv11-v1/2540000/b95ae0b1-745f-42cc-848a-6d0858b3ffa8.root",
        "T2_KR_KISTI: davs://cms-t2-se01.sdfarm.kr:2880/store/data/Run2022C/DoubleMuon/NANOAOD/ReRecoNanoAODv11-v1/2540000/b95ae0b1-745f-42cc-848a-6d0858b3ffa8.root",
        "T2_US_Wisconsin: davs://cmsxrootd.hep.wisc.edu:1094/store/data/Run2022C/DoubleMuon/NANOAOD/ReRecoNanoAODv11-v1/2540000/b95ae0b1-745f-42cc-848a-6d0858b3ffa8.root"
    ],
    "cms:/store/data/Run2022C/DoubleMuon/NANOAOD/ReRecoNanoAODv11-v1/2540000/8d5a45aa-2441-4271-aa27-969ec0c9cab6.root": [
        "T1_US_FNAL_Disk: davs://cmsdcadisk.fnal.gov:2880/dcache/uscmsdisk/store/data/Run2022C/DoubleMuon/NANOAOD/ReRecoNanoAODv11-v1/2540000/8d5a45aa-2441-4271-aa27-969ec0c9cab6.root",
        "T1_FR_CCIN2P3_Disk: davs://ccdavcms.in2p3.fr:2880/disk/data/store/data/Run2022C/DoubleMuon/NANOAOD/ReRecoNanoAODv11-v1/2540000/8d5a45aa-2441-4271-aa27-969ec0c9cab6.root",
        "T2_IT_Legnaro: davs://t2-xrdcms.lnl.infn.it:2880/pnfs/lnl.infn.it/data/cms/store/data/Run2022C/DoubleMuon/NANOAOD/ReRecoNanoAODv11-v1/2540000/8d5a45aa-2441-4271-aa27-969ec0c9cab6.root",
        "T2_FR_GRIF: davs://eos.grif.fr:11000/eos/grif/cms/grif/store/data/Run2022C/DoubleMuon/NANOAOD/ReRecoNanoAODv11-v1/2540000/8d5a45aa-2441-4271-aa27-969ec0c9cab6.root",
        "T1_FR_CCIN2P3_Tape: srm://ccsrm.in2p3.fr:8443/srm/managerv2?SFN=/pnfs/in2p3.fr/data/cms/data/store/data/Run2022C/DoubleMuon/NANOAOD/ReRecoNanoAODv11-v1/2540000/8d5a45aa-2441-4271-aa27-969ec0c9cab6.root",
        "T2_CH_CERN: davs://eoscms.cern.ch:443/eos/cms/store/data/Run2022C/DoubleMuon/NANOAOD/ReRecoNanoAODv11-v1/2540000/8d5a45aa-2441-4271-aa27-969ec0c9cab6.root",
        "T2_KR_KISTI: davs://cms-t2-se01.sdfarm.kr:2880/store/data/Run2022C/DoubleMuon/NANOAOD/ReRecoNanoAODv11-v1/2540000/8d5a45aa-2441-4271-aa27-969ec0c9cab6.root",
        "T2_US_Wisconsin: davs://cmsxrootd.hep.wisc.edu:1094/store/data/Run2022C/DoubleMuon/NANOAOD/ReRecoNanoAODv11-v1/2540000/8d5a45aa-2441-4271-aa27-969ec0c9cab6.root"
    ],
    "cms:/store/data/Run2022C/DoubleMuon/NANOAOD/ReRecoNanoAODv11-v1/2540000/a7084fc5-d33e-4ac1-bb90-5ee95b85a353.root": [
        "T1_US_FNAL_Disk: davs://cmsdcadisk.fnal.gov:2880/dcache/uscmsdisk/store/data/Run2022C/DoubleMuon/NANOAOD/ReRecoNanoAODv11-v1/2540000/a7084fc5-d33e-4ac1-bb90-5ee95b85a353.root",
        "T1_FR_CCIN2P3_Disk: davs://ccdavcms.in2p3.fr:2880/disk/data/store/data/Run2022C/DoubleMuon/NANOAOD/ReRecoNanoAODv11-v1/2540000/a7084fc5-d33e-4ac1-bb90-5ee95b85a353.root",
        "T2_IT_Legnaro: davs://t2-xrdcms.lnl.infn.it:2880/pnfs/lnl.infn.it/data/cms/store/data/Run2022C/DoubleMuon/NANOAOD/ReRecoNanoAODv11-v1/2540000/a7084fc5-d33e-4ac1-bb90-5ee95b85a353.root",
        "T2_FR_GRIF: davs://eos.grif.fr:11000/eos/grif/cms/grif/store/data/Run2022C/DoubleMuon/NANOAOD/ReRecoNanoAODv11-v1/2540000/a7084fc5-d33e-4ac1-bb90-5ee95b85a353.root",
        "T1_FR_CCIN2P3_Tape: srm://ccsrm.in2p3.fr:8443/srm/managerv2?SFN=/pnfs/in2p3.fr/data/cms/data/store/data/Run2022C/DoubleMuon/NANOAOD/ReRecoNanoAODv11-v1/2540000/a7084fc5-d33e-4ac1-bb90-5ee95b85a353.root",
        "T2_CH_CERN: davs://eoscms.cern.ch:443/eos/cms/store/data/Run2022C/DoubleMuon/NANOAOD/ReRecoNanoAODv11-v1/2540000/a7084fc5-d33e-4ac1-bb90-5ee95b85a353.root",
        "T2_KR_KISTI: davs://cms-t2-se01.sdfarm.kr:2880/store/data/Run2022C/DoubleMuon/NANOAOD/ReRecoNanoAODv11-v1/2540000/a7084fc5-d33e-4ac1-bb90-5ee95b85a353.root",
        "T2_US_Wisconsin: davs://cmsxrootd.hep.wisc.edu:1094/store/data/Run2022C/DoubleMuon/NANOAOD/ReRecoNanoAODv11-v1/2540000/a7084fc5-d33e-4ac1-bb90-5ee95b85a353.root"
    ],
    "cms:/store/data/Run2022C/DoubleMuon/NANOAOD/ReRecoNanoAODv11-v1/2540000/4219c6c3-c18e-428d-ba7a-9a38dfb8960a.root": [
        "T1_US_FNAL_Disk: davs://cmsdcadisk.fnal.gov:2880/dcache/uscmsdisk/store/data/Run2022C/DoubleMuon/NANOAOD/ReRecoNanoAODv11-v1/2540000/4219c6c3-c18e-428d-ba7a-9a38dfb8960a.root",
        "T1_FR_CCIN2P3_Disk: davs://ccdavcms.in2p3.fr:2880/disk/data/store/data/Run2022C/DoubleMuon/NANOAOD/ReRecoNanoAODv11-v1/2540000/4219c6c3-c18e-428d-ba7a-9a38dfb8960a.root",
        "T2_IT_Legnaro: davs://t2-xrdcms.lnl.infn.it:2880/pnfs/lnl.infn.it/data/cms/store/data/Run2022C/DoubleMuon/NANOAOD/ReRecoNanoAODv11-v1/2540000/4219c6c3-c18e-428d-ba7a-9a38dfb8960a.root",
        "T2_FR_GRIF: davs://eos.grif.fr:11000/eos/grif/cms/grif/store/data/Run2022C/DoubleMuon/NANOAOD/ReRecoNanoAODv11-v1/2540000/4219c6c3-c18e-428d-ba7a-9a38dfb8960a.root",
        "T1_FR_CCIN2P3_Tape: srm://ccsrm.in2p3.fr:8443/srm/managerv2?SFN=/pnfs/in2p3.fr/data/cms/data/store/data/Run2022C/DoubleMuon/NANOAOD/ReRecoNanoAODv11-v1/2540000/4219c6c3-c18e-428d-ba7a-9a38dfb8960a.root",
        "T2_CH_CERN: davs://eoscms.cern.ch:443/eos/cms/store/data/Run2022C/DoubleMuon/NANOAOD/ReRecoNanoAODv11-v1/2540000/4219c6c3-c18e-428d-ba7a-9a38dfb8960a.root",
        "T2_KR_KISTI: davs://cms-t2-se01.sdfarm.kr:2880/store/data/Run2022C/DoubleMuon/NANOAOD/ReRecoNanoAODv11-v1/2540000/4219c6c3-c18e-428d-ba7a-9a38dfb8960a.root",
        "T2_US_Wisconsin: davs://cmsxrootd.hep.wisc.edu:1094/store/data/Run2022C/DoubleMuon/NANOAOD/ReRecoNanoAODv11-v1/2540000/4219c6c3-c18e-428d-ba7a-9a38dfb8960a.root"
    ]
}