{
    "cms:/store/mc/Run3Summer22NanoAODv12/DYto2Mu_MLL-50to120_TuneCP5_13p6TeV_powheg-pythia8/NANOAODSIM/130X_mcRun3_2022_realistic_v5-v2/50000/3a46f83c-8f3e-464b-b7fa-df5ae342c15e.root": [
        "T2_DE_DESY: davs://dcache-cms-webdav-wan.desy.de:2880/pnfs/desy.de/cms/tier2/store/mc/Run3Summer22NanoAODv12/DYto2Mu_MLL-50to120_TuneCP5_13p6TeV_powheg-pythia8/NANOAODSIM/130X_mcRun3_2022_realistic_v5-v2/50000/3a46f83c-8f3e-464b-b7fa-df5ae342c15e.root",
        "T1_DE_KIT_Disk: davs://cmsdcache-kit-disk.gridka.de:2880/pnfs/gridka.de/cms/disk-only/store/mc/Run3Summer22NanoAODv12/DYto2Mu_MLL-50to120_TuneCP5_13p6TeV_powheg-pythia8/NANOAODSIM/130X_mcRun3_2022_realistic_v5-v2/50000/3a46f83c-8f3e-464b-b7fa-df5ae342c15e.root",
        "T1_DE_KIT_Tape: davs://cmsdcache-kit-tape.gridka.de:2880/pnfs/gridka.de/cms/tape/store/mc/Run3Summer22NanoAODv12/DYto2Mu_MLL-50to120_TuneCP5_13p6TeV_powheg-pythia8/NANOAODSIM/130X_mcRun3_2022_realistic_v5-v2/50000/3a46f83c-8f3e-464b-b7fa-df5ae342c15e.root",
        "T2_CH_CERN: davs://eoscms.cern.ch:443/eos/cms/store/mc/Run3Summer22NanoAODv12/DYto2Mu_MLL-50to120_TuneCP5_13p6TeV_powheg-pythia8/NANOAODSIM/130X_mcRun3_2022_realistic_v5-v2/50000/3a46f83c-8f3e-464b-b7fa-df5ae342c15e.root",
        "T2_US_Florida: davs://cmsio2.rc.ufl.edu:1094/store/mc/Run3Summer22NanoAODv12/DYto2Mu_MLL-50to120_TuneCP5_13p6TeV_powheg-pythia8/NANOAODSIM/130X_mcRun3_2022_realistic_v5-v2/50000/3a46f83c-8f3e-464b-b7fa-df5ae342c15e.root",
        "T2_BE_IIHE: davs://maite.iihe.ac.be:2880/pnfs/iihe/cms/ph/sc4/store/mc/Run3Summer22NanoAODv12/DYto2Mu_MLL-50to120_TuneCP5_13p6TeV_powheg-pythia8/NANOAODSIM/130X_mcRun3_2022_realistic_v5-v2/50000/3a46f83c-8f3e-464b-b7fa-df5ae342c15e.root",
        "T2_US_Purdue: davs://eos.cms.rcac.purdue.edu:9000/store/mc/Run3Summer22NanoAODv12/DYto2Mu_MLL-50to120_TuneCP5_13p6TeV_powheg-pythia8/NANOAODSIM/130X_mcRun3_2022_realistic_v5-v2/50000/3a46f83c-8f3e-464b-b7fa-df5ae342c15e.root",
        "T2_ES_CIEMAT: davs://srm.ciemat.es:2880/pnfs/ciemat.es/data/cms/prod/store/mc/Run3Summer22NanoAODv12/DYto2Mu_MLL-50to120_TuneCP5_13p6TeV_powheg-pythia8/NANOAODSIM/130X_mcRun3_2022_realistic_v5-v2/50000/3a46f83c-8f3e-464b-b7fa-df5ae342c15e.root",
        "T2_DE_RWTH: davs://grid-webdav.physik.rwth-aachen.de:2889/store/mc/Run3Summer22NanoAODv12/DYto2Mu_MLL-50to120_TuneCP5_13p6TeV_powheg-pythia8/NANOAODSIM/130X_mcRun3_2022_realistic_v5-v2/50000/3a46f83c-8f3e-464b-b7fa-df5ae342c15e.root",
        "T2_IN_TIFR: davs://se01.indiacms.res.in:443/dpm/indiacms.res.in/home/cms/store/mc/Run3Summer22NanoAODv12/DYto2Mu_MLL-50to120_TuneCP5_13p6TeV_powheg-pythia8/NANOAODSIM/130X_mcRun3_2022_realistic_v5-v2/50000/3a46f83c-8f3e-464b-b7fa-df5ae342c15e.root"
    ],
    "cms:/store/mc/Run3Summer22NanoAODv12/DYto2Mu_MLL-50to120_TuneCP5_13p6TeV_powheg-pythia8/NANOAODSIM/130X_mcRun3_2022_realistic_v5-v2/50000/c1022549-ceab-4237-a379-49f089dd56fb.root": [
        "T1_DE_KIT_Disk: davs://cmsdcache-kit-disk.gridka.de:2880/pnfs/gridka.de/cms/disk-only/store/mc/Run3Summer22NanoAODv12/DYto2Mu_MLL-50to120_TuneCP5_13p6TeV_powheg-pythia8/NANOAODSIM/130X_mcRun3_2022_realistic_v5-v2/50000/c1022549-ceab-4237-a379-49f089dd56fb.root",
        "T1_DE_KIT_Tape: davs://cmsdcache-kit-tape.gridka.de:2880/pnfs/gridka.de/cms/tape/store/mc/Run3Summer22NanoAODv12/DYto2Mu_MLL-50to120_TuneCP5_13p6TeV_powheg-pythia8/NANOAODSIM/130X_mcRun3_2022_realistic_v5-v2/50000/c1022549-ceab-4237-a379-49f089dd56fb.root",
        "T2_CH_CERN: davs://eoscms.cern.ch:443/eos/cms/store/mc/Run3Summer22NanoAODv12/DYto2Mu_MLL-50to120_TuneCP5_13p6TeV_powheg-pythia8/NANOAODSIM/130X_mcRun3_2022_realistic_v5-v2/50000/c1022549-ceab-4237-a379-49f089dd56fb.root",
        "T2_US_Florida: davs://cmsio2.rc.ufl.edu:1094/store/mc/Run3Summer22NanoAODv12/DYto2Mu_MLL-50to120_TuneCP5_13p6TeV_powheg-pythia8/NANOAODSIM/130X_mcRun3_2022_realistic_v5-v2/50000/c1022549-ceab-4237-a379-49f089dd56fb.root",
        "T2_BE_IIHE: davs://maite.iihe.ac.be:2880/pnfs/iihe/cms/ph/sc4/store/mc/Run3Summer22NanoAODv12/DYto2Mu_MLL-50to120_TuneCP5_13p6TeV_powheg-pythia8/NANOAODSIM/130X_mcRun3_2022_realistic_v5-v2/50000/c1022549-ceab-4237-a379-49f089dd56fb.root",
        "T2_US_Purdue: davs://eos.cms.rcac.purdue.edu:9000/store/mc/Run3Summer22NanoAODv12/DYto2Mu_MLL-50to120_TuneCP5_13p6TeV_powheg-pythia8/NANOAODSIM/130X_mcRun3_2022_realistic_v5-v2/50000/c1022549-ceab-4237-a379-49f089dd56fb.root",
        "T2_ES_CIEMAT: davs://srm.ciemat.es:2880/pnfs/ciemat.es/data/cms/prod/store/mc/Run3Summer22NanoAODv12/DYto2Mu_MLL-50to120_TuneCP5_13p6TeV_powheg-pythia8/NANOAODSIM/130X_mcRun3_2022_realistic_v5-v2/50000/c1022549-ceab-4237-a379-49f089dd56fb.root",
        "T2_UK_London_IC: davs://gfe02.grid.hep.ph.ic.ac.uk:2880/pnfs/hep.ph.ic.ac.uk/data/cms/store/mc/Run3Summer22NanoAODv12/DYto2Mu_MLL-50to120_TuneCP5_13p6TeV_powheg-pythia8/NANOAODSIM/130X_mcRun3_2022_realistic_v5-v2/50000/c1022549-ceab-4237-a379-49f089dd56fb.root",
        "T2_DE_RWTH: davs://grid-webdav.physik.rwth-aachen.de:2889/store/mc/Run3Summer22NanoAODv12/DYto2Mu_MLL-50to120_TuneCP5_13p6TeV_powheg-pythia8/NANOAODSIM/130X_mcRun3_2022_realistic_v5-v2/50000/c1022549-ceab-4237-a379-49f089dd56fb.root",
        "T2_IN_TIFR: davs://se01.indiacms.res.in:443/dpm/indiacms.res.in/home/cms/store/mc/Run3Summer22NanoAODv12/DYto2Mu_MLL-50to120_TuneCP5_13p6TeV_powheg-pythia8/NANOAODSIM/130X_mcRun3_2022_realistic_v5-v2/50000/c1022549-ceab-4237-a379-49f089dd56fb.root"
    ],
    "cms:/store/mc/Run3Summer22NanoAODv12/DYto2Mu_MLL-50to120_TuneCP5_13p6TeV_powheg-pythia8/NANOAODSIM/130X_mcRun3_2022_realistic_v5-v2/40000/185fe6f8-984a-4236-8cc1-7e046c63cdb3.root": [
        "T1_DE_KIT_Disk: davs://cmsdcache-kit-disk.gridka.de:2880/pnfs/gridka.de/cms/disk-only/store/mc/Run3Summer22NanoAODv12/DYto2Mu_MLL-50to120_TuneCP5_13p6TeV_powheg-pythia8/NANOAODSIM/130X_mcRun3_2022_realistic_v5-v2/40000/185fe6f8-984a-4236-8cc1-7e046c63cdb3.root",
        "T1_DE_KIT_Tape: davs://cmsdcache-kit-tape.gridka.de:2880/pnfs/gridka.de/cms/tape/store/mc/Run3Summer22NanoAODv12/DYto2Mu_MLL-50to120_TuneCP5_13p6TeV_powheg-pythia8/NANOAODSIM/130X_mcRun3_2022_realistic_v5-v2/40000/185fe6f8-984a-4236-8cc1-7e046c63cdb3.root",
        "T2_CH_CERN: davs://eoscms.cern.ch:443/eos/cms/store/mc/Run3Summer22NanoAODv12/DYto2Mu_MLL-50to120_TuneCP5_13p6TeV_powheg-pythia8/NANOAODSIM/130X_mcRun3_2022_realistic_v5-v2/40000/185fe6f8-984a-4236-8cc1-7e046c63cdb3.root",
        "T2_US_Florida: davs://cmsio2.rc.ufl.edu:1094/store/mc/Run3Summer22NanoAODv12/DYto2Mu_MLL-50to120_TuneCP5_13p6TeV_powheg-pythia8/NANOAODSIM/130X_mcRun3_2022_realistic_v5-v2/40000/185fe6f8-984a-4236-8cc1-7e046c63cdb3.root",
        "T2_BE_IIHE: davs://maite.iihe.ac.be:2880/pnfs/iihe/cms/ph/sc4/store/mc/Run3Summer22NanoAODv12/DYto2Mu_MLL-50to120_TuneCP5_13p6TeV_powheg-pythia8/NANOAODSIM/130X_mcRun3_2022_realistic_v5-v2/40000/185fe6f8-984a-4236-8cc1-7e046c63cdb3.root",
        "T2_US_Purdue: davs://eos.cms.rcac.purdue.edu:9000/store/mc/Run3Summer22NanoAODv12/DYto2Mu_MLL-50to120_TuneCP5_13p6TeV_powheg-pythia8/NANOAODSIM/130X_mcRun3_2022_realistic_v5-v2/40000/185fe6f8-984a-4236-8cc1-7e046c63cdb3.root",
        "T2_ES_CIEMAT: davs://srm.ciemat.es:2880/pnfs/ciemat.es/data/cms/prod/store/mc/Run3Summer22NanoAODv12/DYto2Mu_MLL-50to120_TuneCP5_13p6TeV_powheg-pythia8/NANOAODSIM/130X_mcRun3_2022_realistic_v5-v2/40000/185fe6f8-984a-4236-8cc1-7e046c63cdb3.root",
        "T1_IT_CNAF_Disk: davs://xfer-cms.cr.cnaf.infn.it:8443/cmsdisk/store/mc/Run3Summer22NanoAODv12/DYto2Mu_MLL-50to120_TuneCP5_13p6TeV_powheg-pythia8/NANOAODSIM/130X_mcRun3_2022_realistic_v5-v2/40000/185fe6f8-984a-4236-8cc1-7e046c63cdb3.root",
        "T2_DE_RWTH: davs://grid-webdav.physik.rwth-aachen.de:2889/store/mc/Run3Summer22NanoAODv12/DYto2Mu_MLL-50to120_TuneCP5_13p6TeV_powheg-pythia8/NANOAODSIM/130X_mcRun3_2022_realistic_v5-v2/40000/185fe6f8-984a-4236-8cc1-7e046c63cdb3.root",
        "T2_IN_TIFR: davs://se01.indiacms.res.in:443/dpm/indiacms.res.in/home/cms/store/mc/Run3Summer22NanoAODv12/DYto2Mu_MLL-50to120_TuneCP5_13p6TeV_powheg-pythia8/NANOAODSIM/130X_mcRun3_2022_realistic_v5-v2/40000/185fe6f8-984a-4236-8cc1-7e046c63cdb3.root"
    ],
    "cms:/store/mc/Run3Summer22NanoAODv12/DYto2Mu_MLL-50to120_TuneCP5_13p6TeV_powheg-pythia8/NANOAODSIM/130X_mcRun3_2022_realistic_v5-v2/2530000/cd587f11-6d99-4809-87b5-e66816af9c57.root": [
        "T1_DE_KIT_Disk: davs://cmsdcache-kit-disk.gridka.de:2880/pnfs/gridka.de/cms/disk-only/store/mc/Run3Summer22NanoAODv12/DYto2Mu_MLL-50to120_TuneCP5_13p6TeV_powheg-pythia8/NANOAODSIM/130X_mcRun3_2022_realistic_v5-v2/2530000/cd587f11-6d99-4809-87b5-e66816af9c57.root",
        "T1_DE_KIT_Tape: davs://cmsdcache-kit-tape.gridka.de:2880/pnfs/gridka.de/cms/tape/store/mc/Run3Summer22NanoAODv12/DYto2Mu_MLL-50to120_TuneCP5_13p6TeV_powheg-pythia8/NANOAODSIM/130X_mcRun3_2022_realistic_v5-v2/2530000/cd587f11-6d99-4809-87b5-e66816af9c57.root",
        "T2_CH_CERN: davs://eoscms.cern.ch:443/eos/cms/store/mc/Run3Summer22NanoAODv12/DYto2Mu_MLL-50to120_TuneCP5_13p6TeV_powheg-pythia8/NANOAODSIM/130X_mcRun3_2022_realistic_v5-v2/2530000/cd587f11-6d99-4809-87b5-e66816af9c57.root",
        "T2_US_Florida: davs://cmsio2.rc.ufl.edu:1094/store/mc/Run3Summer22NanoAODv12/DYto2Mu_MLL-50to120_TuneCP5_13p6TeV_powheg-pythia8/NANOAODSIM/130X_mcRun3_2022_realistic_v5-v2/2530000/cd587f11-6d99-4809-87b5-e66816af9c57.root",
        "T2_BE_IIHE: davs://maite.iihe.ac.be:2880/pnfs/iihe/cms/ph/sc4/store/mc/Run3Summer22NanoAODv12/DYto2Mu_MLL-50to120_TuneCP5_13p6TeV_powheg-pythia8/NANOAODSIM/130X_mcRun3_2022_realistic_v5-v2/2530000/cd587f11-6d99-4809-87b5-e66816af9c57.root",
        "T2_US_Purdue: davs://eos.cms.rcac.purdue.edu:9000/store/mc/Run3Summer22NanoAODv12/DYto2Mu_MLL-50to120_TuneCP5_13p6TeV_powheg-pythia8/NANOAODSIM/130X_mcRun3_2022_realistic_v5-v2/2530000/cd587f11-6d99-4809-87b5-e66816af9c57.root",
        "T2_ES_CIEMAT: davs://srm.ciemat.es:2880/pnfs/ciemat.es/data/cms/prod/store/mc/Run3Summer22NanoAODv12/DYto2Mu_MLL-50to120_TuneCP5_13p6TeV_powheg-pythia8/NANOAODSIM/130X_mcRun3_2022_realistic_v5-v2/2530000/cd587f11-6d99-4809-87b5-e66816af9c57.root",
        "T2_DE_RWTH: davs://grid-webdav.physik.rwth-aachen.de:2889/store/mc/Run3Summer22NanoAODv12/DYto2Mu_MLL-50to120_TuneCP5_13p6TeV_powheg-pythia8/NANOAODSIM/130X_mcRun3_2022_realistic_v5-v2/2530000/cd587f11-6d99-4809-87b5-e66816af9c57.root",
        "T2_IN_TIFR: davs://se01.indiacms.res.in:443/dpm/indiacms.res.in/home/cms/store/mc/Run3Summer22NanoAODv12/DYto2Mu_MLL-50to120_TuneCP5_13p6TeV_powheg-pythia8/NANOAODSIM/130X_mcRun3_2022_realistic_v5-v2/2530000/cd587f11-6d99-4809-87b5-e66816af9c57.root"
    ],
    "cms:/store/mc/Run3Summer22NanoAODv12/DYto2Mu_MLL-50to120_TuneCP5_13p6TeV_powheg-pythia8/NANOAODSIM/130X_mcRun3_2022_realistic_v5-v2/30000/074a9ecd-3c2e-4a0b-916a-093feb942f81.root": [
        "T1_DE_KIT_Disk: davs://cmsdcache-kit-disk.gridka.de:2880/pnfs/gridka.de/cms/disk-only/store/mc/Run3Summer22NanoAODv12/DYto2Mu_MLL-50to120_TuneCP5_13p6TeV_powheg-pythia8/NANOAODSIM/130X_mcRun3_2022_realistic_v5-v2/30000/074a9ecd-3c2e-4a0b-916a-093feb942f81.root",
        "T1_DE_KIT_Tape: davs://cmsdcache-kit-tape.gridka.de:2880/pnfs/gridka.de/cms/tape/store/mc/Run3Summer22NanoAODv12/DYto2Mu_MLL-50to120_TuneCP5_13p6TeV_powheg-pythia8/NANOAODSIM/130X_mcRun3_2022_realistic_v5-v2/30000/074a9ecd-3c2e-4a0b-916a-093feb942f81.root",
        "T2_CH_CERN: davs://eoscms.cern.ch:443/eos/cms/store/mc/Run3Summer22NanoAODv12/DYto2Mu_MLL-50to120_TuneCP5_13p6TeV_powheg-pythia8/NANOAODSIM/130X_mcRun3_2022_realistic_v5-v2/30000/074a9ecd-3c2e-4a0b-916a-093feb942f81.root",
        "T2_US_Florida: davs://cmsio2.rc.ufl.edu:1094/store/mc/Run3Summer22NanoAODv12/DYto2Mu_MLL-50to120_TuneCP5_13p6TeV_powheg-pythia8/NANOAODSIM/130X_mcRun3_2022_realistic_v5-v2/30000/074a9ecd-3c2e-4a0b-916a-093feb942f81.root",
        "T2_BE_IIHE: davs://maite.iihe.ac.be:2880/pnfs/iihe/cms/ph/sc4/store/mc/Run3Summer22NanoAODv12/DYto2Mu_MLL-50to120_TuneCP5_13p6TeV_powheg-pythia8/NANOAODSIM/130X_mcRun3_2022_realistic_v5-v2/30000/074a9ecd-3c2e-4a0b-916a-093feb942f81.root",
        "T2_US_Purdue: davs://eos.cms.rcac.purdue.edu:9000/store/mc/Run3Summer22NanoAODv12/DYto2Mu_MLL-50to120_TuneCP5_13p6TeV_powheg-pythia8/NANOAODSIM/130X_mcRun3_2022_realistic_v5-v2/30000/074a9ecd-3c2e-4a0b-916a-093feb942f81.root",
        "T2_ES_CIEMAT: davs://srm.ciemat.es:2880/pnfs/ciemat.es/data/cms/prod/store/mc/Run3Summer22NanoAODv12/DYto2Mu_MLL-50to120_TuneCP5_13p6TeV_powheg-pythia8/NANOAODSIM/130X_mcRun3_2022_realistic_v5-v2/30000/074a9ecd-3c2e-4a0b-916a-093feb942f81.root",
        "T2_DE_RWTH: davs://grid-webdav.physik.rwth-aachen.de:2889/store/mc/Run3Summer22NanoAODv12/DYto2Mu_MLL-50to120_TuneCP5_13p6TeV_powheg-pythia8/NANOAODSIM/130X_mcRun3_2022_realistic_v5-v2/30000/074a9ecd-3c2e-4a0b-916a-093feb942f81.root",
        "T2_IN_TIFR: davs://se01.indiacms.res.in:443/dpm/indiacms.res.in/home/cms/store/mc/Run3Summer22NanoAODv12/DYto2Mu_MLL-50to120_TuneCP5_13p6TeV_powheg-pythia8/NANOAODSIM/130X_mcRun3_2022_realistic_v5-v2/30000/074a9ecd-3c2e-4a0b-916a-093feb942f81.root"
    ],
    "cms:/store/mc/Run3Summer22NanoAODv12/DYto2Mu_MLL-50to120_TuneCP5_13p6TeV_powheg-pythia8/NANOAODSIM/130X_mcRun3_2022_realistic_v5-v2/2540000/f6ae54ed-687b-40d1-b7a3-e491e6fc1b16.root": [
        "T2_DE_DESY: davs://dcache-cms-webdav-wan.desy.de:2880/pnfs/desy.de/cms/tier2/store/mc/Run3Summer22NanoAODv12/DYto2Mu_MLL-50to120_TuneCP5_13p6TeV_powheg-pythia8/NANOAODSIM/130X_mcRun3_2022_realistic_v5-v2/2540000/f6ae54ed-687b-40d1-b7a3-e491e6fc1b16.root",
        "T1_DE_KIT_Disk: davs://cmsdcache-kit-disk.gridka.de:2880/pnfs/gridka.de/cms/disk-only/store/mc/Run3Summer22NanoAODv12/DYto2Mu_MLL-50to120_TuneCP5_13p6TeV_powheg-pythia8/NANOAODSIM/130X_mcRun3_2022_realistic_v5-v2/2540000/f6ae54ed-687b-40d1-b7a3-e491e6fc1b16.root",
        "T1_DE_KIT_Tape: davs://cmsdcache-kit-tape.gridka.de:2880/pnfs/gridka.de/cms/tape/store/mc/Run3Summer22NanoAODv12/DYto2Mu_MLL-50to120_TuneCP5_13p6TeV_powheg-pythia8/NANOAODSIM/130X_mcRun3_2022_realistic_v5-v2/2540000/f6ae54ed-687b-40d1-b7a3-e491e6fc1b16.root",
        "T2_CH_CERN: davs://eoscms.cern.ch:443/eos/cms/store/mc/Run3Summer22NanoAODv12/DYto2Mu_MLL-50to120_TuneCP5_13p6TeV_powheg-pythia8/NANOAODSIM/130X_mcRun3_2022_realistic_v5-v2/2540000/f6ae54ed-687b-40d1-b7a3-e491e6fc1b16.root",
        "T2_US_Florida: davs://cmsio2.rc.ufl.edu:1094/store/mc/Run3Summer22NanoAODv12/DYto2Mu_MLL-50to120_TuneCP5_13p6TeV_powheg-pythia8/NANOAODSIM/130X_mcRun3_2022_realistic_v5-v2/2540000/f6ae54ed-687b-40d1-b7a3-e491e6fc1b16.root",
        "T2_BE_IIHE: davs://maite.iihe.ac.be:2880/pnfs/iihe/cms/ph/sc4/store/mc/Run3Summer22NanoAODv12/DYto2Mu_MLL-50to120_TuneCP5_13p6TeV_powheg-pythia8/NANOAODSIM/130X_mcRun3_2022_realistic_v5-v2/2540000/f6ae54ed-687b-40d1-b7a3-e491e6fc1b16.root",
        "T2_US_Purdue: davs://eos.cms.rcac.purdue.edu:9000/store/mc/Run3Summer22NanoAODv12/DYto2Mu_MLL-50to120_TuneCP5_13p6TeV_powheg-pythia8/NANOAODSIM/130X_mcRun3_2022_realistic_v5-v2/2540000/f6ae54ed-687b-40d1-b7a3-e491e6fc1b16.root",
        "T2_ES_CIEMAT: davs://srm.ciemat.es:2880/pnfs/ciemat.es/data/cms/prod/store/mc/Run3Summer22NanoAODv12/DYto2Mu_MLL-50to120_TuneCP5_13p6TeV_powheg-pythia8/NANOAODSIM/130X_mcRun3_2022_realistic_v5-v2/2540000/f6ae54ed-687b-40d1-b7a3-e491e6fc1b16.root",
        "T2_DE_RWTH: davs://grid-webdav.physik.rwth-aachen.de:2889/store/mc/Run3Summer22NanoAODv12/DYto2Mu_MLL-50to120_TuneCP5_13p6TeV_powheg-pythia8/NANOAODSIM/130X_mcRun3_2022_realistic_v5-v2/2540000/f6ae54ed-687b-40d1-b7a3-e491e6fc1b16.root",
        "T2_IN_TIFR: davs://se01.indiacms.res.in:443/dpm/indiacms.res.in/home/cms/store/mc/Run3Summer22NanoAODv12/DYto2Mu_MLL-50to120_TuneCP5_13p6TeV_powheg-pythia8/NANOAODSIM/130X_mcRun3_2022_realistic_v5-v2/2540000/f6ae54ed-687b-40d1-b7a3-e491e6fc1b16.root"
    ],
    "cms:/store/mc/Run3Summer22NanoAODv12/DYto2Mu_MLL-50to120_TuneCP5_13p6TeV_powheg-pythia8/NANOAODSIM/130X_mcRun3_2022_realistic_v5-v2/40000/8e201e94-eaee-45e9-a862-0278a5b7b782.root": [
        "T1_DE_KIT_Disk: davs://cmsdcache-kit-disk.gridka.de:2880/pnfs/gridka.de/cms/disk-only/store/mc/Run3Summer22NanoAODv12/DYto2Mu_MLL-50to120_TuneCP5_13p6TeV_powheg-pythia8/NANOAODSIM/130X_mcRun3_2022_realistic_v5-v2/40000/8e201e94-eaee-45e9-a862-0278a5b7b782.root",
        "T1_DE_KIT_Tape: davs://cmsdcache-kit-tape.gridka.de:2880/pnfs/gridka.de/cms/tape/store/mc/Run3Summer22NanoAODv12/DYto2Mu_MLL-50to120_TuneCP5_13p6TeV_powheg-pythia8/NANOAODSIM/130X_mcRun3_2022_realistic_v5-v2/40000/8e201e94-eaee-45e9-a862-0278a5b7b782.root",
        "T2_CH_CERN: davs://eoscms.cern.ch:443/eos/cms/store/mc/Run3Summer22NanoAODv12/DYto2Mu_MLL-50to120_TuneCP5_13p6TeV_powheg-pythia8/NANOAODSIM/130X_mcRun3_2022_realistic_v5-v2/40000/8e201e94-eaee-45e9-a862-0278a5b7b782.root",
        "T2_US_Florida: davs://cmsio2.rc.ufl.edu:1094/store/mc/Run3Summer22NanoAODv12/DYto2Mu_MLL-50to120_TuneCP5_13p6TeV_powheg-pythia8/NANOAODSIM/130X_mcRun3_2022_realistic_v5-v2/40000/8e201e94-eaee-45e9-a862-0278a5b7b782.root",
        "T2_BE_IIHE: davs://maite.iihe.ac.be:2880/pnfs/iihe/cms/ph/sc4/store/mc/Run3Summer22NanoAODv12/DYto2Mu_MLL-50to120_TuneCP5_13p6TeV_powheg-pythia8/NANOAODSIM/130X_mcRun3_2022_realistic_v5-v2/40000/8e201e94-eaee-45e9-a862-0278a5b7b782.root",
        "T2_US_Purdue: davs://eos.cms.rcac.purdue.edu:9000/store/mc/Run3Summer22NanoAODv12/DYto2Mu_MLL-50to120_TuneCP5_13p6TeV_powheg-pythia8/NANOAODSIM/130X_mcRun3_2022_realistic_v5-v2/40000/8e201e94-eaee-45e9-a862-0278a5b7b782.root",
        "T2_ES_CIEMAT: davs://srm.ciemat.es:2880/pnfs/ciemat.es/data/cms/prod/store/mc/Run3Summer22NanoAODv12/DYto2Mu_MLL-50to120_TuneCP5_13p6TeV_powheg-pythia8/NANOAODSIM/130X_mcRun3_2022_realistic_v5-v2/40000/8e201e94-eaee-45e9-a862-0278a5b7b782.root",
        "T2_DE_RWTH: davs://grid-webdav.physik.rwth-aachen.de:2889/store/mc/Run3Summer22NanoAODv12/DYto2Mu_MLL-50to120_TuneCP5_13p6TeV_powheg-pythia8/NANOAODSIM/130X_mcRun3_2022_realistic_v5-v2/40000/8e201e94-eaee-45e9-a862-0278a5b7b782.root",
        "T2_IN_TIFR: davs://se01.indiacms.res.in:443/dpm/indiacms.res.in/home/cms/store/mc/Run3Summer22NanoAODv12/DYto2Mu_MLL-50to120_TuneCP5_13p6TeV_powheg-pythia8/NANOAODSIM/130X_mcRun3_2022_realistic_v5-v2/40000/8e201e94-eaee-45e9-a862-0278a5b7b782.root"
    ],
    "cms:/store/mc/Run3Summer22NanoAODv12/DYto2Mu_MLL-50to120_TuneCP5_13p6TeV_powheg-pythia8/NANOAODSIM/130X_mcRun3_2022_realistic_v5-v2/30000/b23184d6-4fd9-442f-a9a3-156a1619eb8f.root": [
        "T1_DE_KIT_Disk: davs://cmsdcache-kit-disk.gridka.de:2880/pnfs/gridka.de/cms/disk-only/store/mc/Run3Summer22NanoAODv12/DYto2Mu_MLL-50to120_TuneCP5_13p6TeV_powheg-pythia8/NANOAODSIM/130X_mcRun3_2022_realistic_v5-v2/30000/b23184d6-4fd9-442f-a9a3-156a1619eb8f.root",
        "T1_DE_KIT_Tape: davs://cmsdcache-kit-tape.gridka.de:2880/pnfs/gridka.de/cms/tape/store/mc/Run3Summer22NanoAODv12/DYto2Mu_MLL-50to120_TuneCP5_13p6TeV_powheg-pythia8/NANOAODSIM/130X_mcRun3_2022_realistic_v5-v2/30000/b23184d6-4fd9-442f-a9a3-156a1619eb8f.root",
        "T2_CH_CERN: davs://eoscms.cern.ch:443/eos/cms/store/mc/Run3Summer22NanoAODv12/DYto2Mu_MLL-50to120_TuneCP5_13p6TeV_powheg-pythia8/NANOAODSIM/130X_mcRun3_2022_realistic_v5-v2/30000/b23184d6-4fd9-442f-a9a3-156a1619eb8f.root",
        "T2_US_Florida: davs://cmsio2.rc.ufl.edu:1094/store/mc/Run3Summer22NanoAODv12/DYto2Mu_MLL-50to120_TuneCP5_13p6TeV_powheg-pythia8/NANOAODSIM/130X_mcRun3_2022_realistic_v5-v2/30000/b23184d6-4fd9-442f-a9a3-156a1619eb8f.root",
        "T2_BE_IIHE: davs://maite.iihe.ac.be:2880/pnfs/iihe/cms/ph/sc4/store/mc/Run3Summer22NanoAODv12/DYto2Mu_MLL-50to120_TuneCP5_13p6TeV_powheg-pythia8/NANOAODSIM/130X_mcRun3_2022_realistic_v5-v2/30000/b23184d6-4fd9-442f-a9a3-156a1619eb8f.root",
        "T2_US_Purdue: davs://eos.cms.rcac.purdue.edu:9000/store/mc/Run3Summer22NanoAODv12/DYto2Mu_MLL-50to120_TuneCP5_13p6TeV_powheg-pythia8/NANOAODSIM/130X_mcRun3_2022_realistic_v5-v2/30000/b23184d6-4fd9-442f-a9a3-156a1619eb8f.root",
        "T2_ES_CIEMAT: davs://srm.ciemat.es:2880/pnfs/ciemat.es/data/cms/prod/store/mc/Run3Summer22NanoAODv12/DYto2Mu_MLL-50to120_TuneCP5_13p6TeV_powheg-pythia8/NANOAODSIM/130X_mcRun3_2022_realistic_v5-v2/30000/b23184d6-4fd9-442f-a9a3-156a1619eb8f.root",
        "T2_DE_RWTH: davs://grid-webdav.physik.rwth-aachen.de:2889/store/mc/Run3Summer22NanoAODv12/DYto2Mu_MLL-50to120_TuneCP5_13p6TeV_powheg-pythia8/NANOAODSIM/130X_mcRun3_2022_realistic_v5-v2/30000/b23184d6-4fd9-442f-a9a3-156a1619eb8f.root",
        "T2_IN_TIFR: davs://se01.indiacms.res.in:443/dpm/indiacms.res.in/home/cms/store/mc/Run3Summer22NanoAODv12/DYto2Mu_MLL-50to120_TuneCP5_13p6TeV_powheg-pythia8/NANOAODSIM/130X_mcRun3_2022_realistic_v5-v2/30000/b23184d6-4fd9-442f-a9a3-156a1619eb8f.root"
    ],
    "cms:/store/mc/Run3Summer22NanoAODv12/DYto2Mu_MLL-50to120_TuneCP5_13p6TeV_powheg-pythia8/NANOAODSIM/130X_mcRun3_2022_realistic_v5-v2/30000/8442a7b1-a8dc-4dc0-ae9a-7ce7c24a3244.root": [
        "T1_DE_KIT_Disk: davs://cmsdcache-kit-disk.gridka.de:2880/pnfs/gridka.de/cms/disk-only/store/mc/Run3Summer22NanoAODv12/DYto2Mu_MLL-50to120_TuneCP5_13p6TeV_powheg-pythia8/NANOAODSIM/130X_mcRun3_2022_realistic_v5-v2/30000/8442a7b1-a8dc-4dc0-ae9a-7ce7c24a3244.root",
        "T1_DE_KIT_Tape: davs://cmsdcache-kit-tape.gridka.de:2880/pnfs/gridka.de/cms/tape/store/mc/Run3Summer22NanoAODv12/DYto2Mu_MLL-50to120_TuneCP5_13p6TeV_powheg-pythia8/NANOAODSIM/130X_mcRun3_2022_realistic_v5-v2/30000/8442a7b1-a8dc-4dc0-ae9a-7ce7c24a3244.root",
        "T2_CH_CERN: davs://eoscms.cern.ch:443/eos/cms/store/mc/Run3Summer22NanoAODv12/DYto2Mu_MLL-50to120_TuneCP5_13p6TeV_powheg-pythia8/NANOAODSIM/130X_mcRun3_2022_realistic_v5-v2/30000/8442a7b1-a8dc-4dc0-ae9a-7ce7c24a3244.root",
        "T2_US_Florida: davs://cmsio2.rc.ufl.edu:1094/store/mc/Run3Summer22NanoAODv12/DYto2Mu_MLL-50to120_TuneCP5_13p6TeV_powheg-pythia8/NANOAODSIM/130X_mcRun3_2022_realistic_v5-v2/30000/8442a7b1-a8dc-4dc0-ae9a-7ce7c24a3244.root",
        "T2_BE_IIHE: davs://maite.iihe.ac.be:2880/pnfs/iihe/cms/ph/sc4/store/mc/Run3Summer22NanoAODv12/DYto2Mu_MLL-50to120_TuneCP5_13p6TeV_powheg-pythia8/NANOAODSIM/130X_mcRun3_2022_realistic_v5-v2/30000/8442a7b1-a8dc-4dc0-ae9a-7ce7c24a3244.root",
        "T2_US_Purdue: davs://eos.cms.rcac.purdue.edu:9000/store/mc/Run3Summer22NanoAODv12/DYto2Mu_MLL-50to120_TuneCP5_13p6TeV_powheg-pythia8/NANOAODSIM/130X_mcRun3_2022_realistic_v5-v2/30000/8442a7b1-a8dc-4dc0-ae9a-7ce7c24a3244.root",
        "T2_ES_CIEMAT: davs://srm.ciemat.es:2880/pnfs/ciemat.es/data/cms/prod/store/mc/Run3Summer22NanoAODv12/DYto2Mu_MLL-50to120_TuneCP5_13p6TeV_powheg-pythia8/NANOAODSIM/130X_mcRun3_2022_realistic_v5-v2/30000/8442a7b1-a8dc-4dc0-ae9a-7ce7c24a3244.root",
        "T2_DE_RWTH: davs://grid-webdav.physik.rwth-aachen.de:2889/store/mc/Run3Summer22NanoAODv12/DYto2Mu_MLL-50to120_TuneCP5_13p6TeV_powheg-pythia8/NANOAODSIM/130X_mcRun3_2022_realistic_v5-v2/30000/8442a7b1-a8dc-4dc0-ae9a-7ce7c24a3244.root",
        "T2_IN_TIFR: davs://se01.indiacms.res.in:443/dpm/indiacms.res.in/home/cms/store/mc/Run3Summer22NanoAODv12/DYto2Mu_MLL-50to120_TuneCP5_13p6TeV_powheg-pythia8/NANOAODSIM/130X_mcRun3_2022_realistic_v5-v2/30000/8442a7b1-a8dc-4dc0-ae9a-7ce7c24a3244.root"
    ],
    "cms:/store/mc/Run3Summer22NanoAODv12/DYto2Mu_MLL-50to120_TuneCP5_13p6TeV_powheg-pythia8/NANOAODSIM/130X_mcRun3_2022_realistic_v5-v2/40000/d4dca23c-9cba-4492-8178-80383a3e5945.root": [
        "T1_DE_KIT_Disk: davs://cmsdcache-kit-disk.gridka.de:2880/pnfs/gridka.de/cms/disk-only/store/mc/Run3Summer22NanoAODv12/DYto2Mu_MLL-50to120_TuneCP5_13p6TeV_powheg-pythia8/NANOAODSIM/130X_mcRun3_2022_realistic_v5-v2/40000/d4dca23c-9cba-4492-8178-80383a3e5945.root",
        "T1_DE_KIT_Tape: davs://cmsdcache-kit-tape.gridka.de:2880/pnfs/gridka.de/cms/tape/store/mc/Run3Summer22NanoAODv12/DYto2Mu_MLL-50to120_TuneCP5_13p6TeV_powheg-pythia8/NANOAODSIM/130X_mcRun3_2022_realistic_v5-v2/40000/d4dca23c-9cba-4492-8178-80383a3e5945.root",
        "T2_CH_CERN: davs://eoscms.cern.ch:443/eos/cms/store/mc/Run3Summer22NanoAODv12/DYto2Mu_MLL-50to120_TuneCP5_13p6TeV_powheg-pythia8/NANOAODSIM/130X_mcRun3_2022_realistic_v5-v2/40000/d4dca23c-9cba-4492-8178-80383a3e5945.root",
        "T2_US_Florida: davs://cmsio2.rc.ufl.edu:1094/store/mc/Run3Summer22NanoAODv12/DYto2Mu_MLL-50to120_TuneCP5_13p6TeV_powheg-pythia8/NANOAODSIM/130X_mcRun3_2022_realistic_v5-v2/40000/d4dca23c-9cba-4492-8178-80383a3e5945.root",
        "T2_BE_IIHE: davs://maite.iihe.ac.be:2880/pnfs/iihe/cms/ph/sc4/store/mc/Run3Summer22NanoAODv12/DYto2Mu_MLL-50to120_TuneCP5_13p6TeV_powheg-pythia8/NANOAODSIM/130X_mcRun3_2022_realistic_v5-v2/40000/d4dca23c-9cba-4492-8178-80383a3e5945.root",
        "T2_US_Purdue: davs://eos.cms.rcac.purdue.edu:9000/store/mc/Run3Summer22NanoAODv12/DYto2Mu_MLL-50to120_TuneCP5_13p6TeV_powheg-pythia8/NANOAODSIM/130X_mcRun3_2022_realistic_v5-v2/40000/d4dca23c-9cba-4492-8178-80383a3e5945.root",
        "T2_ES_CIEMAT: davs://srm.ciemat.es:2880/pnfs/ciemat.es/data/cms/prod/store/mc/Run3Summer22NanoAODv12/DYto2Mu_MLL-50to120_TuneCP5_13p6TeV_powheg-pythia8/NANOAODSIM/130X_mcRun3_2022_realistic_v5-v2/40000/d4dca23c-9cba-4492-8178-80383a3e5945.root",
        "T2_UK_London_IC: davs://gfe02.grid.hep.ph.ic.ac.uk:2880/pnfs/hep.ph.ic.ac.uk/data/cms/store/mc/Run3Summer22NanoAODv12/DYto2Mu_MLL-50to120_TuneCP5_13p6TeV_powheg-pythia8/NANOAODSIM/130X_mcRun3_2022_realistic_v5-v2/40000/d4dca23c-9cba-4492-8178-80383a3e5945.root",
        "T2_DE_RWTH: davs://grid-webdav.physik.rwth-aachen.de:2889/store/mc/Run3Summer22NanoAODv12/DYto2Mu_MLL-50to120_TuneCP5_13p6TeV_powheg-pythia8/NANOAODSIM/130X_mcRun3_2022_realistic_v5-v2/40000/d4dca23c-9cba-4492-8178-80383a3e5945.root",
        "T2_IN_TIFR: davs://se01.indiacms.res.in:443/dpm/indiacms.res.in/home/cms/store/mc/Run3Summer22NanoAODv12/DYto2Mu_MLL-50to120_TuneCP5_13p6TeV_powheg-pythia8/NANOAODSIM/130X_mcRun3_2022_realistic_v5-v2/40000/d4dca23c-9cba-4492-8178-80383a3e5945.root"
    ],
    "cms:/store/mc/Run3Summer22NanoAODv12/DYto2Mu_MLL-50to120_TuneCP5_13p6TeV_powheg-pythia8/NANOAODSIM/130X_mcRun3_2022_realistic_v5-v2/2540000/de85e8f1-d1e1-49cd-9cc5-6382a3a2701f.root": [
        "T1_DE_KIT_Disk: davs://cmsdcache-kit-disk.gridka.de:2880/pnfs/gridka.de/cms/disk-only/store/mc/Run3Summer22NanoAODv12/DYto2Mu_MLL-50to120_TuneCP5_13p6TeV_powheg-pythia8/NANOAODSIM/130X_mcRun3_2022_realistic_v5-v2/2540000/de85e8f1-d1e1-49cd-9cc5-6382a3a2701f.root",
        "T1_DE_KIT_Tape: davs://cmsdcache-kit-tape.gridka.de:2880/pnfs/gridka.de/cms/tape/store/mc/Run3Summer22NanoAODv12/DYto2Mu_MLL-50to120_TuneCP5_13p6TeV_powheg-pythia8/NANOAODSIM/130X_mcRun3_2022_realistic_v5-v2/2540000/de85e8f1-d1e1-49cd-9cc5-6382a3a2701f.root",
        "T2_CH_CERN: davs://eoscms.cern.ch:443/eos/cms/store/mc/Run3Summer22NanoAODv12/DYto2Mu_MLL-50to120_TuneCP5_13p6TeV_powheg-pythia8/NANOAODSIM/130X_mcRun3_2022_realistic_v5-v2/2540000/de85e8f1-d1e1-49cd-9cc5-6382a3a2701f.root",
        "T2_US_Florida: davs://cmsio2.rc.ufl.edu:1094/store/mc/Run3Summer22NanoAODv12/DYto2Mu_MLL-50to120_TuneCP5_13p6TeV_powheg-pythia8/NANOAODSIM/130X_mcRun3_2022_realistic_v5-v2/2540000/de85e8f1-d1e1-49cd-9cc5-6382a3a2701f.root",
        "T2_IT_Pisa: davs://stwebdav.pi.infn.it:8443/cms/store/mc/Run3Summer22NanoAODv12/DYto2Mu_MLL-50to120_TuneCP5_13p6TeV_powheg-pythia8/NANOAODSIM/130X_mcRun3_2022_realistic_v5-v2/2540000/de85e8f1-d1e1-49cd-9cc5-6382a3a2701f.root",
        "T2_BE_IIHE: davs://maite.iihe.ac.be:2880/pnfs/iihe/cms/ph/sc4/store/mc/Run3Summer22NanoAODv12/DYto2Mu_MLL-50to120_TuneCP5_13p6TeV_powheg-pythia8/NANOAODSIM/130X_mcRun3_2022_realistic_v5-v2/2540000/de85e8f1-d1e1-49cd-9cc5-6382a3a2701f.root",
        "T2_US_Purdue: davs://eos.cms.rcac.purdue.edu:9000/store/mc/Run3Summer22NanoAODv12/DYto2Mu_MLL-50to120_TuneCP5_13p6TeV_powheg-pythia8/NANOAODSIM/130X_mcRun3_2022_realistic_v5-v2/2540000/de85e8f1-d1e1-49cd-9cc5-6382a3a2701f.root",
        "T2_ES_CIEMAT: davs://srm.ciemat.es:2880/pnfs/ciemat.es/data/cms/prod/store/mc/Run3Summer22NanoAODv12/DYto2Mu_MLL-50to120_TuneCP5_13p6TeV_powheg-pythia8/NANOAODSIM/130X_mcRun3_2022_realistic_v5-v2/2540000/de85e8f1-d1e1-49cd-9cc5-6382a3a2701f.root",
        "T2_DE_RWTH: davs://grid-webdav.physik.rwth-aachen.de:2889/store/mc/Run3Summer22NanoAODv12/DYto2Mu_MLL-50to120_TuneCP5_13p6TeV_powheg-pythia8/NANOAODSIM/130X_mcRun3_2022_realistic_v5-v2/2540000/de85e8f1-d1e1-49cd-9cc5-6382a3a2701f.root",
        "T2_IN_TIFR: davs://se01.indiacms.res.in:443/dpm/indiacms.res.in/home/cms/store/mc/Run3Summer22NanoAODv12/DYto2Mu_MLL-50to120_TuneCP5_13p6TeV_powheg-pythia8/NANOAODSIM/130X_mcRun3_2022_realistic_v5-v2/2540000/de85e8f1-d1e1-49cd-9cc5-6382a3a2701f.root"
    ],
    "cms:/store/mc/Run3Summer22NanoAODv12/DYto2Mu_MLL-50to120_TuneCP5_13p6TeV_powheg-pythia8/NANOAODSIM/130X_mcRun3_2022_realistic_v5-v2/2520000/de75fafc-e5fa-4f3d-8c91-634b9e13407b.root": [
        "T1_DE_KIT_Disk: davs://cmsdcache-kit-disk.gridka.de:2880/pnfs/gridka.de/cms/disk-only/store/mc/Run3Summer22NanoAODv12/DYto2Mu_MLL-50to120_TuneCP5_13p6TeV_powheg-pythia8/NANOAODSIM/130X_mcRun3_2022_realistic_v5-v2/2520000/de75fafc-e5fa-4f3d-8c91-634b9e13407b.root",
        "T1_DE_KIT_Tape: davs://cmsdcache-kit-tape.gridka.de:2880/pnfs/gridka.de/cms/tape/store/mc/Run3Summer22NanoAODv12/DYto2Mu_MLL-50to120_TuneCP5_13p6TeV_powheg-pythia8/NANOAODSIM/130X_mcRun3_2022_realistic_v5-v2/2520000/de75fafc-e5fa-4f3d-8c91-634b9e13407b.root",
        "T2_CH_CERN: davs://eoscms.cern.ch:443/eos/cms/store/mc/Run3Summer22NanoAODv12/DYto2Mu_MLL-50to120_TuneCP5_13p6TeV_powheg-pythia8/NANOAODSIM/130X_mcRun3_2022_realistic_v5-v2/2520000/de75fafc-e5fa-4f3d-8c91-634b9e13407b.root",
        "T2_US_Florida: davs://cmsio2.rc.ufl.edu:1094/store/mc/Run3Summer22NanoAODv12/DYto2Mu_MLL-50to120_TuneCP5_13p6TeV_powheg-pythia8/NANOAODSIM/130X_mcRun3_2022_realistic_v5-v2/2520000/de75fafc-e5fa-4f3d-8c91-634b9e13407b.root",
        "T2_BE_IIHE: davs://maite.iihe.ac.be:2880/pnfs/iihe/cms/ph/sc4/store/mc/Run3Summer22NanoAODv12/DYto2Mu_MLL-50to120_TuneCP5_13p6TeV_powheg-pythia8/NANOAODSIM/130X_mcRun3_2022_realistic_v5-v2/2520000/de75fafc-e5fa-4f3d-8c91-634b9e13407b.root",
        "T2_US_Purdue: davs://eos.cms.rcac.purdue.edu:9000/store/mc/Run3Summer22NanoAODv12/DYto2Mu_MLL-50to120_TuneCP5_13p6TeV_powheg-pythia8/NANOAODSIM/130X_mcRun3_2022_realistic_v5-v2/2520000/de75fafc-e5fa-4f3d-8c91-634b9e13407b.root",
        "T2_ES_CIEMAT: davs://srm.ciemat.es:2880/pnfs/ciemat.es/data/cms/prod/store/mc/Run3Summer22NanoAODv12/DYto2Mu_MLL-50to120_TuneCP5_13p6TeV_powheg-pythia8/NANOAODSIM/130X_mcRun3_2022_realistic_v5-v2/2520000/de75fafc-e5fa-4f3d-8c91-634b9e13407b.root",
        "T2_DE_RWTH: davs://grid-webdav.physik.rwth-aachen.de:2889/store/mc/Run3Summer22NanoAODv12/DYto2Mu_MLL-50to120_TuneCP5_13p6TeV_powheg-pythia8/NANOAODSIM/130X_mcRun3_2022_realistic_v5-v2/2520000/de75fafc-e5fa-4f3d-8c91-634b9e13407b.root",
        "T2_IN_TIFR: davs://se01.indiacms.res.in:443/dpm/indiacms.res.in/home/cms/store/mc/Run3Summer22NanoAODv12/DYto2Mu_MLL-50to120_TuneCP5_13p6TeV_powheg-pythia8/NANOAODSIM/130X_mcRun3_2022_realistic_v5-v2/2520000/de75fafc-e5fa-4f3d-8c91-634b9e13407b.root"
    ],
    "cms:/store/mc/Run3Summer22NanoAODv12/DYto2Mu_MLL-50to120_TuneCP5_13p6TeV_powheg-pythia8/NANOAODSIM/130X_mcRun3_2022_realistic_v5-v2/50000/23992434-1c6e-4a1c-b80c-736f53793e70.root": [
        "T1_DE_KIT_Disk: davs://cmsdcache-kit-disk.gridka.de:2880/pnfs/gridka.de/cms/disk-only/store/mc/Run3Summer22NanoAODv12/DYto2Mu_MLL-50to120_TuneCP5_13p6TeV_powheg-pythia8/NANOAODSIM/130X_mcRun3_2022_realistic_v5-v2/50000/23992434-1c6e-4a1c-b80c-736f53793e70.root",
        "T1_DE_KIT_Tape: davs://cmsdcache-kit-tape.gridka.de:2880/pnfs/gridka.de/cms/tape/store/mc/Run3Summer22NanoAODv12/DYto2Mu_MLL-50to120_TuneCP5_13p6TeV_powheg-pythia8/NANOAODSIM/130X_mcRun3_2022_realistic_v5-v2/50000/23992434-1c6e-4a1c-b80c-736f53793e70.root",
        "T2_CH_CERN: davs://eoscms.cern.ch:443/eos/cms/store/mc/Run3Summer22NanoAODv12/DYto2Mu_MLL-50to120_TuneCP5_13p6TeV_powheg-pythia8/NANOAODSIM/130X_mcRun3_2022_realistic_v5-v2/50000/23992434-1c6e-4a1c-b80c-736f53793e70.root",
        "T2_US_Florida: davs://cmsio2.rc.ufl.edu:1094/store/mc/Run3Summer22NanoAODv12/DYto2Mu_MLL-50to120_TuneCP5_13p6TeV_powheg-pythia8/NANOAODSIM/130X_mcRun3_2022_realistic_v5-v2/50000/23992434-1c6e-4a1c-b80c-736f53793e70.root",
        "T2_BE_IIHE: davs://maite.iihe.ac.be:2880/pnfs/iihe/cms/ph/sc4/store/mc/Run3Summer22NanoAODv12/DYto2Mu_MLL-50to120_TuneCP5_13p6TeV_powheg-pythia8/NANOAODSIM/130X_mcRun3_2022_realistic_v5-v2/50000/23992434-1c6e-4a1c-b80c-736f53793e70.root",
        "T2_US_Purdue: davs://eos.cms.rcac.purdue.edu:9000/store/mc/Run3Summer22NanoAODv12/DYto2Mu_MLL-50to120_TuneCP5_13p6TeV_powheg-pythia8/NANOAODSIM/130X_mcRun3_2022_realistic_v5-v2/50000/23992434-1c6e-4a1c-b80c-736f53793e70.root",
        "T2_ES_CIEMAT: davs://srm.ciemat.es:2880/pnfs/ciemat.es/data/cms/prod/store/mc/Run3Summer22NanoAODv12/DYto2Mu_MLL-50to120_TuneCP5_13p6TeV_powheg-pythia8/NANOAODSIM/130X_mcRun3_2022_realistic_v5-v2/50000/23992434-1c6e-4a1c-b80c-736f53793e70.root",
        "T2_DE_RWTH: davs://grid-webdav.physik.rwth-aachen.de:2889/store/mc/Run3Summer22NanoAODv12/DYto2Mu_MLL-50to120_TuneCP5_13p6TeV_powheg-pythia8/NANOAODSIM/130X_mcRun3_2022_realistic_v5-v2/50000/23992434-1c6e-4a1c-b80c-736f53793e70.root",
        "T2_IN_TIFR: davs://se01.indiacms.res.in:443/dpm/indiacms.res.in/home/cms/store/mc/Run3Summer22NanoAODv12/DYto2Mu_MLL-50to120_TuneCP5_13p6TeV_powheg-pythia8/NANOAODSIM/130X_mcRun3_2022_realistic_v5-v2/50000/23992434-1c6e-4a1c-b80c-736f53793e70.root"
    ],
    "cms:/store/mc/Run3Summer22NanoAODv12/DYto2Mu_MLL-50to120_TuneCP5_13p6TeV_powheg-pythia8/NANOAODSIM/130X_mcRun3_2022_realistic_v5-v2/40000/be690fed-a048-4f49-b534-33fbed62f720.root": [
        "T1_DE_KIT_Disk: davs://cmsdcache-kit-disk.gridka.de:2880/pnfs/gridka.de/cms/disk-only/store/mc/Run3Summer22NanoAODv12/DYto2Mu_MLL-50to120_TuneCP5_13p6TeV_powheg-pythia8/NANOAODSIM/130X_mcRun3_2022_realistic_v5-v2/40000/be690fed-a048-4f49-b534-33fbed62f720.root",
        "T1_DE_KIT_Tape: davs://cmsdcache-kit-tape.gridka.de:2880/pnfs/gridka.de/cms/tape/store/mc/Run3Summer22NanoAODv12/DYto2Mu_MLL-50to120_TuneCP5_13p6TeV_powheg-pythia8/NANOAODSIM/130X_mcRun3_2022_realistic_v5-v2/40000/be690fed-a048-4f49-b534-33fbed62f720.root",
        "T2_CH_CERN: davs://eoscms.cern.ch:443/eos/cms/store/mc/Run3Summer22NanoAODv12/DYto2Mu_MLL-50to120_TuneCP5_13p6TeV_powheg-pythia8/NANOAODSIM/130X_mcRun3_2022_realistic_v5-v2/40000/be690fed-a048-4f49-b534-33fbed62f720.root",
        "T2_US_Florida: davs://cmsio2.rc.ufl.edu:1094/store/mc/Run3Summer22NanoAODv12/DYto2Mu_MLL-50to120_TuneCP5_13p6TeV_powheg-pythia8/NANOAODSIM/130X_mcRun3_2022_realistic_v5-v2/40000/be690fed-a048-4f49-b534-33fbed62f720.root",
        "T2_IT_Pisa: davs://stwebdav.pi.infn.it:8443/cms/store/mc/Run3Summer22NanoAODv12/DYto2Mu_MLL-50to120_TuneCP5_13p6TeV_powheg-pythia8/NANOAODSIM/130X_mcRun3_2022_realistic_v5-v2/40000/be690fed-a048-4f49-b534-33fbed62f720.root",
        "T2_BE_IIHE: davs://maite.iihe.ac.be:2880/pnfs/iihe/cms/ph/sc4/store/mc/Run3Summer22NanoAODv12/DYto2Mu_MLL-50to120_TuneCP5_13p6TeV_powheg-pythia8/NANOAODSIM/130X_mcRun3_2022_realistic_v5-v2/40000/be690fed-a048-4f49-b534-33fbed62f720.root",
        "T2_US_Purdue: davs://eos.cms.rcac.purdue.edu:9000/store/mc/Run3Summer22NanoAODv12/DYto2Mu_MLL-50to120_TuneCP5_13p6TeV_powheg-pythia8/NANOAODSIM/130X_mcRun3_2022_realistic_v5-v2/40000/be690fed-a048-4f49-b534-33fbed62f720.root",
        "T2_ES_CIEMAT: davs://srm.ciemat.es:2880/pnfs/ciemat.es/data/cms/prod/store/mc/Run3Summer22NanoAODv12/DYto2Mu_MLL-50to120_TuneCP5_13p6TeV_powheg-pythia8/NANOAODSIM/130X_mcRun3_2022_realistic_v5-v2/40000/be690fed-a048-4f49-b534-33fbed62f720.root",
        "T2_DE_RWTH: davs://grid-webdav.physik.rwth-aachen.de:2889/store/mc/Run3Summer22NanoAODv12/DYto2Mu_MLL-50to120_TuneCP5_13p6TeV_powheg-pythia8/NANOAODSIM/130X_mcRun3_2022_realistic_v5-v2/40000/be690fed-a048-4f49-b534-33fbed62f720.root",
        "T2_IN_TIFR: davs://se01.indiacms.res.in:443/dpm/indiacms.res.in/home/cms/store/mc/Run3Summer22NanoAODv12/DYto2Mu_MLL-50to120_TuneCP5_13p6TeV_powheg-pythia8/NANOAODSIM/130X_mcRun3_2022_realistic_v5-v2/40000/be690fed-a048-4f49-b534-33fbed62f720.root"
    ],
    "cms:/store/mc/Run3Summer22NanoAODv12/DYto2Mu_MLL-50to120_TuneCP5_13p6TeV_powheg-pythia8/NANOAODSIM/130X_mcRun3_2022_realistic_v5-v2/50000/cbdfa9f2-b421-4a9a-ac0a-4c8335e7b83d.root": [
        "T1_DE_KIT_Disk: davs://cmsdcache-kit-disk.gridka.de:2880/pnfs/gridka.de/cms/disk-only/store/mc/Run3Summer22NanoAODv12/DYto2Mu_MLL-50to120_TuneCP5_13p6TeV_powheg-pythia8/NANOAODSIM/130X_mcRun3_2022_realistic_v5-v2/50000/cbdfa9f2-b421-4a9a-ac0a-4c8335e7b83d.root",
        "T1_DE_KIT_Tape: davs://cmsdcache-kit-tape.gridka.de:2880/pnfs/gridka.de/cms/tape/store/mc/Run3Summer22NanoAODv12/DYto2Mu_MLL-50to120_TuneCP5_13p6TeV_powheg-pythia8/NANOAODSIM/130X_mcRun3_2022_realistic_v5-v2/50000/cbdfa9f2-b421-4a9a-ac0a-4c8335e7b83d.root",
        "T2_CH_CERN: davs://eoscms.cern.ch:443/eos/cms/store/mc/Run3Summer22NanoAODv12/DYto2Mu_MLL-50to120_TuneCP5_13p6TeV_powheg-pythia8/NANOAODSIM/130X_mcRun3_2022_realistic_v5-v2/50000/cbdfa9f2-b421-4a9a-ac0a-4c8335e7b83d.root",
        "T2_US_Florida: davs://cmsio2.rc.ufl.edu:1094/store/mc/Run3Summer22NanoAODv12/DYto2Mu_MLL-50to120_TuneCP5_13p6TeV_powheg-pythia8/NANOAODSIM/130X_mcRun3_2022_realistic_v5-v2/50000/cbdfa9f2-b421-4a9a-ac0a-4c8335e7b83d.root",
        "T2_BE_IIHE: davs://maite.iihe.ac.be:2880/pnfs/iihe/cms/ph/sc4/store/mc/Run3Summer22NanoAODv12/DYto2Mu_MLL-50to120_TuneCP5_13p6TeV_powheg-pythia8/NANOAODSIM/130X_mcRun3_2022_realistic_v5-v2/50000/cbdfa9f2-b421-4a9a-ac0a-4c8335e7b83d.root",
        "T2_US_Purdue: davs://eos.cms.rcac.purdue.edu:9000/store/mc/Run3Summer22NanoAODv12/DYto2Mu_MLL-50to120_TuneCP5_13p6TeV_powheg-pythia8/NANOAODSIM/130X_mcRun3_2022_realistic_v5-v2/50000/cbdfa9f2-b421-4a9a-ac0a-4c8335e7b83d.root",
        "T2_ES_CIEMAT: davs://srm.ciemat.es:2880/pnfs/ciemat.es/data/cms/prod/store/mc/Run3Summer22NanoAODv12/DYto2Mu_MLL-50to120_TuneCP5_13p6TeV_powheg-pythia8/NANOAODSIM/130X_mcRun3_2022_realistic_v5-v2/50000/cbdfa9f2-b421-4a9a-ac0a-4c8335e7b83d.root",
        "T2_DE_RWTH: davs://grid-webdav.physik.rwth-aachen.de:2889/store/mc/Run3Summer22NanoAODv12/DYto2Mu_MLL-50to120_TuneCP5_13p6TeV_powheg-pythia8/NANOAODSIM/130X_mcRun3_2022_realistic_v5-v2/50000/cbdfa9f2-b421-4a9a-ac0a-4c8335e7b83d.root",
        "T2_IN_TIFR: davs://se01.indiacms.res.in:443/dpm/indiacms.res.in/home/cms/store/mc/Run3Summer22NanoAODv12/DYto2Mu_MLL-50to120_TuneCP5_13p6TeV_powheg-pythia8/NANOAODSIM/130X_mcRun3_2022_realistic_v5-v2/50000/cbdfa9f2-b421-4a9a-ac0a-4c8335e7b83d.root"
    ],
    "cms:/store/mc/Run3Summer22NanoAODv12/DYto2Mu_MLL-50to120_TuneCP5_13p6TeV_powheg-pythia8/NANOAODSIM/130X_mcRun3_2022_realistic_v5-v2/50000/604b44db-0107-4b03-ab63-0563a5d492d7.root": [
        "T1_DE_KIT_Disk: davs://cmsdcache-kit-disk.gridka.de:2880/pnfs/gridka.de/cms/disk-only/store/mc/Run3Summer22NanoAODv12/DYto2Mu_MLL-50to120_TuneCP5_13p6TeV_powheg-pythia8/NANOAODSIM/130X_mcRun3_2022_realistic_v5-v2/50000/604b44db-0107-4b03-ab63-0563a5d492d7.root",
        "T1_DE_KIT_Tape: davs://cmsdcache-kit-tape.gridka.de:2880/pnfs/gridka.de/cms/tape/store/mc/Run3Summer22NanoAODv12/DYto2Mu_MLL-50to120_TuneCP5_13p6TeV_powheg-pythia8/NANOAODSIM/130X_mcRun3_2022_realistic_v5-v2/50000/604b44db-0107-4b03-ab63-0563a5d492d7.root",
        "T2_CH_CERN: davs://eoscms.cern.ch:443/eos/cms/store/mc/Run3Summer22NanoAODv12/DYto2Mu_MLL-50to120_TuneCP5_13p6TeV_powheg-pythia8/NANOAODSIM/130X_mcRun3_2022_realistic_v5-v2/50000/604b44db-0107-4b03-ab63-0563a5d492d7.root",
        "T2_US_Florida: davs://cmsio2.rc.ufl.edu:1094/store/mc/Run3Summer22NanoAODv12/DYto2Mu_MLL-50to120_TuneCP5_13p6TeV_powheg-pythia8/NANOAODSIM/130X_mcRun3_2022_realistic_v5-v2/50000/604b44db-0107-4b03-ab63-0563a5d492d7.root",
        "T2_BE_IIHE: davs://maite.iihe.ac.be:2880/pnfs/iihe/cms/ph/sc4/store/mc/Run3Summer22NanoAODv12/DYto2Mu_MLL-50to120_TuneCP5_13p6TeV_powheg-pythia8/NANOAODSIM/130X_mcRun3_2022_realistic_v5-v2/50000/604b44db-0107-4b03-ab63-0563a5d492d7.root",
        "T2_US_Purdue: davs://eos.cms.rcac.purdue.edu:9000/store/mc/Run3Summer22NanoAODv12/DYto2Mu_MLL-50to120_TuneCP5_13p6TeV_powheg-pythia8/NANOAODSIM/130X_mcRun3_2022_realistic_v5-v2/50000/604b44db-0107-4b03-ab63-0563a5d492d7.root",
        "T2_ES_CIEMAT: davs://srm.ciemat.es:2880/pnfs/ciemat.es/data/cms/prod/store/mc/Run3Summer22NanoAODv12/DYto2Mu_MLL-50to120_TuneCP5_13p6TeV_powheg-pythia8/NANOAODSIM/130X_mcRun3_2022_realistic_v5-v2/50000/604b44db-0107-4b03-ab63-0563a5d492d7.root",
        "T2_DE_RWTH: davs://grid-webdav.physik.rwth-aachen.de:2889/store/mc/Run3Summer22NanoAODv12/DYto2Mu_MLL-50to120_TuneCP5_13p6TeV_powheg-pythia8/NANOAODSIM/130X_mcRun3_2022_realistic_v5-v2/50000/604b44db-0107-4b03-ab63-0563a5d492d7.root",
        "T2_IN_TIFR: davs://se01.indiacms.res.in:443/dpm/indiacms.res.in/home/cms/store/mc/Run3Summer22NanoAODv12/DYto2Mu_MLL-50to120_TuneCP5_13p6TeV_powheg-pythia8/NANOAODSIM/130X_mcRun3_2022_realistic_v5-v2/50000/604b44db-0107-4b03-ab63-0563a5d492d7.root"
    ],
    "cms:/store/mc/Run3Summer22NanoAODv12/DYto2Mu_MLL-50to120_TuneCP5_13p6TeV_powheg-pythia8/NANOAODSIM/130X_mcRun3_2022_realistic_v5-v2/30000/e31bbc91-6993-4d43-b7c8-4edd29e63b05.root": [
        "T1_DE_KIT_Disk: davs://cmsdcache-kit-disk.gridka.de:2880/pnfs/gridka.de/cms/disk-only/store/mc/Run3Summer22NanoAODv12/DYto2Mu_MLL-50to120_TuneCP5_13p6TeV_powheg-pythia8/NANOAODSIM/130X_mcRun3_2022_realistic_v5-v2/30000/e31bbc91-6993-4d43-b7c8-4edd29e63b05.root",
        "T1_DE_KIT_Tape: davs://cmsdcache-kit-tape.gridka.de:2880/pnfs/gridka.de/cms/tape/store/mc/Run3Summer22NanoAODv12/DYto2Mu_MLL-50to120_TuneCP5_13p6TeV_powheg-pythia8/NANOAODSIM/130X_mcRun3_2022_realistic_v5-v2/30000/e31bbc91-6993-4d43-b7c8-4edd29e63b05.root",
        "T2_CH_CERN: davs://eoscms.cern.ch:443/eos/cms/store/mc/Run3Summer22NanoAODv12/DYto2Mu_MLL-50to120_TuneCP5_13p6TeV_powheg-pythia8/NANOAODSIM/130X_mcRun3_2022_realistic_v5-v2/30000/e31bbc91-6993-4d43-b7c8-4edd29e63b05.root",
        "T2_US_Florida: davs://cmsio2.rc.ufl.edu:1094/store/mc/Run3Summer22NanoAODv12/DYto2Mu_MLL-50to120_TuneCP5_13p6TeV_powheg-pythia8/NANOAODSIM/130X_mcRun3_2022_realistic_v5-v2/30000/e31bbc91-6993-4d43-b7c8-4edd29e63b05.root",
        "T2_BE_IIHE: davs://maite.iihe.ac.be:2880/pnfs/iihe/cms/ph/sc4/store/mc/Run3Summer22NanoAODv12/DYto2Mu_MLL-50to120_TuneCP5_13p6TeV_powheg-pythia8/NANOAODSIM/130X_mcRun3_2022_realistic_v5-v2/30000/e31bbc91-6993-4d43-b7c8-4edd29e63b05.root",
        "T2_US_Purdue: davs://eos.cms.rcac.purdue.edu:9000/store/mc/Run3Summer22NanoAODv12/DYto2Mu_MLL-50to120_TuneCP5_13p6TeV_powheg-pythia8/NANOAODSIM/130X_mcRun3_2022_realistic_v5-v2/30000/e31bbc91-6993-4d43-b7c8-4edd29e63b05.root",
        "T2_ES_CIEMAT: davs://srm.ciemat.es:2880/pnfs/ciemat.es/data/cms/prod/store/mc/Run3Summer22NanoAODv12/DYto2Mu_MLL-50to120_TuneCP5_13p6TeV_powheg-pythia8/NANOAODSIM/130X_mcRun3_2022_realistic_v5-v2/30000/e31bbc91-6993-4d43-b7c8-4edd29e63b05.root",
        "T2_DE_RWTH: davs://grid-webdav.physik.rwth-aachen.de:2889/store/mc/Run3Summer22NanoAODv12/DYto2Mu_MLL-50to120_TuneCP5_13p6TeV_powheg-pythia8/NANOAODSIM/130X_mcRun3_2022_realistic_v5-v2/30000/e31bbc91-6993-4d43-b7c8-4edd29e63b05.root",
        "T2_IN_TIFR: davs://se01.indiacms.res.in:443/dpm/indiacms.res.in/home/cms/store/mc/Run3Summer22NanoAODv12/DYto2Mu_MLL-50to120_TuneCP5_13p6TeV_powheg-pythia8/NANOAODSIM/130X_mcRun3_2022_realistic_v5-v2/30000/e31bbc91-6993-4d43-b7c8-4edd29e63b05.root"
    ],
    "cms:/store/mc/Run3Summer22NanoAODv12/DYto2Mu_MLL-50to120_TuneCP5_13p6TeV_powheg-pythia8/NANOAODSIM/130X_mcRun3_2022_realistic_v5-v2/50000/31258242-891a-4dcf-bc11-fddc9ec653a6.root": [
        "T1_DE_KIT_Disk: davs://cmsdcache-kit-disk.gridka.de:2880/pnfs/gridka.de/cms/disk-only/store/mc/Run3Summer22NanoAODv12/DYto2Mu_MLL-50to120_TuneCP5_13p6TeV_powheg-pythia8/NANOAODSIM/130X_mcRun3_2022_realistic_v5-v2/50000/31258242-891a-4dcf-bc11-fddc9ec653a6.root",
        "T1_DE_KIT_Tape: davs://cmsdcache-kit-tape.gridka.de:2880/pnfs/gridka.de/cms/tape/store/mc/Run3Summer22NanoAODv12/DYto2Mu_MLL-50to120_TuneCP5_13p6TeV_powheg-pythia8/NANOAODSIM/130X_mcRun3_2022_realistic_v5-v2/50000/31258242-891a-4dcf-bc11-fddc9ec653a6.root",
        "T2_CH_CERN: davs://eoscms.cern.ch:443/eos/cms/store/mc/Run3Summer22NanoAODv12/DYto2Mu_MLL-50to120_TuneCP5_13p6TeV_powheg-pythia8/NANOAODSIM/130X_mcRun3_2022_realistic_v5-v2/50000/31258242-891a-4dcf-bc11-fddc9ec653a6.root",
        "T2_US_Florida: davs://cmsio2.rc.ufl.edu:1094/store/mc/Run3Summer22NanoAODv12/DYto2Mu_MLL-50to120_TuneCP5_13p6TeV_powheg-pythia8/NANOAODSIM/130X_mcRun3_2022_realistic_v5-v2/50000/31258242-891a-4dcf-bc11-fddc9ec653a6.root",
        "T2_BE_IIHE: davs://maite.iihe.ac.be:2880/pnfs/iihe/cms/ph/sc4/store/mc/Run3Summer22NanoAODv12/DYto2Mu_MLL-50to120_TuneCP5_13p6TeV_powheg-pythia8/NANOAODSIM/130X_mcRun3_2022_realistic_v5-v2/50000/31258242-891a-4dcf-bc11-fddc9ec653a6.root",
        "T2_US_Purdue: davs://eos.cms.rcac.purdue.edu:9000/store/mc/Run3Summer22NanoAODv12/DYto2Mu_MLL-50to120_TuneCP5_13p6TeV_powheg-pythia8/NANOAODSIM/130X_mcRun3_2022_realistic_v5-v2/50000/31258242-891a-4dcf-bc11-fddc9ec653a6.root",
        "T2_ES_CIEMAT: davs://srm.ciemat.es:2880/pnfs/ciemat.es/data/cms/prod/store/mc/Run3Summer22NanoAODv12/DYto2Mu_MLL-50to120_TuneCP5_13p6TeV_powheg-pythia8/NANOAODSIM/130X_mcRun3_2022_realistic_v5-v2/50000/31258242-891a-4dcf-bc11-fddc9ec653a6.root",
        "T2_DE_RWTH: davs://grid-webdav.physik.rwth-aachen.de:2889/store/mc/Run3Summer22NanoAODv12/DYto2Mu_MLL-50to120_TuneCP5_13p6TeV_powheg-pythia8/NANOAODSIM/130X_mcRun3_2022_realistic_v5-v2/50000/31258242-891a-4dcf-bc11-fddc9ec653a6.root",
        "T2_IN_TIFR: davs://se01.indiacms.res.in:443/dpm/indiacms.res.in/home/cms/store/mc/Run3Summer22NanoAODv12/DYto2Mu_MLL-50to120_TuneCP5_13p6TeV_powheg-pythia8/NANOAODSIM/130X_mcRun3_2022_realistic_v5-v2/50000/31258242-891a-4dcf-bc11-fddc9ec653a6.root"
    ],
    "cms:/store/mc/Run3Summer22NanoAODv12/DYto2Mu_MLL-50to120_TuneCP5_13p6TeV_powheg-pythia8/NANOAODSIM/130X_mcRun3_2022_realistic_v5-v2/40000/1c8893bb-3687-4931-9f2c-c395f255fb6f.root": [
        "T1_DE_KIT_Disk: davs://cmsdcache-kit-disk.gridka.de:2880/pnfs/gridka.de/cms/disk-only/store/mc/Run3Summer22NanoAODv12/DYto2Mu_MLL-50to120_TuneCP5_13p6TeV_powheg-pythia8/NANOAODSIM/130X_mcRun3_2022_realistic_v5-v2/40000/1c8893bb-3687-4931-9f2c-c395f255fb6f.root",
        "T1_DE_KIT_Tape: davs://cmsdcache-kit-tape.gridka.de:2880/pnfs/gridka.de/cms/tape/store/mc/Run3Summer22NanoAODv12/DYto2Mu_MLL-50to120_TuneCP5_13p6TeV_powheg-pythia8/NANOAODSIM/130X_mcRun3_2022_realistic_v5-v2/40000/1c8893bb-3687-4931-9f2c-c395f255fb6f.root",
        "T2_CH_CERN: davs://eoscms.cern.ch:443/eos/cms/store/mc/Run3Summer22NanoAODv12/DYto2Mu_MLL-50to120_TuneCP5_13p6TeV_powheg-pythia8/NANOAODSIM/130X_mcRun3_2022_realistic_v5-v2/40000/1c8893bb-3687-4931-9f2c-c395f255fb6f.root",
        "T2_US_Florida: davs://cmsio2.rc.ufl.edu:1094/store/mc/Run3Summer22NanoAODv12/DYto2Mu_MLL-50to120_TuneCP5_13p6TeV_powheg-pythia8/NANOAODSIM/130X_mcRun3_2022_realistic_v5-v2/40000/1c8893bb-3687-4931-9f2c-c395f255fb6f.root",
        "T2_BE_IIHE: davs://maite.iihe.ac.be:2880/pnfs/iihe/cms/ph/sc4/store/mc/Run3Summer22NanoAODv12/DYto2Mu_MLL-50to120_TuneCP5_13p6TeV_powheg-pythia8/NANOAODSIM/130X_mcRun3_2022_realistic_v5-v2/40000/1c8893bb-3687-4931-9f2c-c395f255fb6f.root",
        "T2_US_Purdue: davs://eos.cms.rcac.purdue.edu:9000/store/mc/Run3Summer22NanoAODv12/DYto2Mu_MLL-50to120_TuneCP5_13p6TeV_powheg-pythia8/NANOAODSIM/130X_mcRun3_2022_realistic_v5-v2/40000/1c8893bb-3687-4931-9f2c-c395f255fb6f.root",
        "T2_ES_CIEMAT: davs://srm.ciemat.es:2880/pnfs/ciemat.es/data/cms/prod/store/mc/Run3Summer22NanoAODv12/DYto2Mu_MLL-50to120_TuneCP5_13p6TeV_powheg-pythia8/NANOAODSIM/130X_mcRun3_2022_realistic_v5-v2/40000/1c8893bb-3687-4931-9f2c-c395f255fb6f.root",
        "T2_UK_London_IC: davs://gfe02.grid.hep.ph.ic.ac.uk:2880/pnfs/hep.ph.ic.ac.uk/data/cms/store/mc/Run3Summer22NanoAODv12/DYto2Mu_MLL-50to120_TuneCP5_13p6TeV_powheg-pythia8/NANOAODSIM/130X_mcRun3_2022_realistic_v5-v2/40000/1c8893bb-3687-4931-9f2c-c395f255fb6f.root",
        "T2_DE_RWTH: davs://grid-webdav.physik.rwth-aachen.de:2889/store/mc/Run3Summer22NanoAODv12/DYto2Mu_MLL-50to120_TuneCP5_13p6TeV_powheg-pythia8/NANOAODSIM/130X_mcRun3_2022_realistic_v5-v2/40000/1c8893bb-3687-4931-9f2c-c395f255fb6f.root",
        "T2_IN_TIFR: davs://se01.indiacms.res.in:443/dpm/indiacms.res.in/home/cms/store/mc/Run3Summer22NanoAODv12/DYto2Mu_MLL-50to120_TuneCP5_13p6TeV_powheg-pythia8/NANOAODSIM/130X_mcRun3_2022_realistic_v5-v2/40000/1c8893bb-3687-4931-9f2c-c395f255fb6f.root"
    ],
    "cms:/store/mc/Run3Summer22NanoAODv12/DYto2Mu_MLL-50to120_TuneCP5_13p6TeV_powheg-pythia8/NANOAODSIM/130X_mcRun3_2022_realistic_v5-v2/40000/4b9b137e-c5be-43e8-b28f-17d9094516b6.root": [
        "T1_DE_KIT_Disk: davs://cmsdcache-kit-disk.gridka.de:2880/pnfs/gridka.de/cms/disk-only/store/mc/Run3Summer22NanoAODv12/DYto2Mu_MLL-50to120_TuneCP5_13p6TeV_powheg-pythia8/NANOAODSIM/130X_mcRun3_2022_realistic_v5-v2/40000/4b9b137e-c5be-43e8-b28f-17d9094516b6.root",
        "T1_DE_KIT_Tape: davs://cmsdcache-kit-tape.gridka.de:2880/pnfs/gridka.de/cms/tape/store/mc/Run3Summer22NanoAODv12/DYto2Mu_MLL-50to120_TuneCP5_13p6TeV_powheg-pythia8/NANOAODSIM/130X_mcRun3_2022_realistic_v5-v2/40000/4b9b137e-c5be-43e8-b28f-17d9094516b6.root",
        "T2_CH_CERN: davs://eoscms.cern.ch:443/eos/cms/store/mc/Run3Summer22NanoAODv12/DYto2Mu_MLL-50to120_TuneCP5_13p6TeV_powheg-pythia8/NANOAODSIM/130X_mcRun3_2022_realistic_v5-v2/40000/4b9b137e-c5be-43e8-b28f-17d9094516b6.root",
        "T2_US_Florida: davs://cmsio2.rc.ufl.edu:1094/store/mc/Run3Summer22NanoAODv12/DYto2Mu_MLL-50to120_TuneCP5_13p6TeV_powheg-pythia8/NANOAODSIM/130X_mcRun3_2022_realistic_v5-v2/40000/4b9b137e-c5be-43e8-b28f-17d9094516b6.root",
        "T2_BE_IIHE: davs://maite.iihe.ac.be:2880/pnfs/iihe/cms/ph/sc4/store/mc/Run3Summer22NanoAODv12/DYto2Mu_MLL-50to120_TuneCP5_13p6TeV_powheg-pythia8/NANOAODSIM/130X_mcRun3_2022_realistic_v5-v2/40000/4b9b137e-c5be-43e8-b28f-17d9094516b6.root",
        "T2_US_Purdue: davs://eos.cms.rcac.purdue.edu:9000/store/mc/Run3Summer22NanoAODv12/DYto2Mu_MLL-50to120_TuneCP5_13p6TeV_powheg-pythia8/NANOAODSIM/130X_mcRun3_2022_realistic_v5-v2/40000/4b9b137e-c5be-43e8-b28f-17d9094516b6.root",
        "T2_ES_CIEMAT: davs://srm.ciemat.es:2880/pnfs/ciemat.es/data/cms/prod/store/mc/Run3Summer22NanoAODv12/DYto2Mu_MLL-50to120_TuneCP5_13p6TeV_powheg-pythia8/NANOAODSIM/130X_mcRun3_2022_realistic_v5-v2/40000/4b9b137e-c5be-43e8-b28f-17d9094516b6.root",
        "T2_DE_RWTH: davs://grid-webdav.physik.rwth-aachen.de:2889/store/mc/Run3Summer22NanoAODv12/DYto2Mu_MLL-50to120_TuneCP5_13p6TeV_powheg-pythia8/NANOAODSIM/130X_mcRun3_2022_realistic_v5-v2/40000/4b9b137e-c5be-43e8-b28f-17d9094516b6.root",
        "T2_IN_TIFR: davs://se01.indiacms.res.in:443/dpm/indiacms.res.in/home/cms/store/mc/Run3Summer22NanoAODv12/DYto2Mu_MLL-50to120_TuneCP5_13p6TeV_powheg-pythia8/NANOAODSIM/130X_mcRun3_2022_realistic_v5-v2/40000/4b9b137e-c5be-43e8-b28f-17d9094516b6.root"
    ],
    "cms:/store/mc/Run3Summer22NanoAODv12/DYto2Mu_MLL-50to120_TuneCP5_13p6TeV_powheg-pythia8/NANOAODSIM/130X_mcRun3_2022_realistic_v5-v2/30000/60a4a553-6f69-4793-b247-8f9998ac8d33.root": [
        "T2_DE_DESY: davs://dcache-cms-webdav-wan.desy.de:2880/pnfs/desy.de/cms/tier2/store/mc/Run3Summer22NanoAODv12/DYto2Mu_MLL-50to120_TuneCP5_13p6TeV_powheg-pythia8/NANOAODSIM/130X_mcRun3_2022_realistic_v5-v2/30000/60a4a553-6f69-4793-b247-8f9998ac8d33.root",
        "T1_DE_KIT_Disk: davs://cmsdcache-kit-disk.gridka.de:2880/pnfs/gridka.de/cms/disk-only/store/mc/Run3Summer22NanoAODv12/DYto2Mu_MLL-50to120_TuneCP5_13p6TeV_powheg-pythia8/NANOAODSIM/130X_mcRun3_2022_realistic_v5-v2/30000/60a4a553-6f69-4793-b247-8f9998ac8d33.root",
        "T1_DE_KIT_Tape: davs://cmsdcache-kit-tape.gridka.de:2880/pnfs/gridka.de/cms/tape/store/mc/Run3Summer22NanoAODv12/DYto2Mu_MLL-50to120_TuneCP5_13p6TeV_powheg-pythia8/NANOAODSIM/130X_mcRun3_2022_realistic_v5-v2/30000/60a4a553-6f69-4793-b247-8f9998ac8d33.root",
        "T2_CH_CERN: davs://eoscms.cern.ch:443/eos/cms/store/mc/Run3Summer22NanoAODv12/DYto2Mu_MLL-50to120_TuneCP5_13p6TeV_powheg-pythia8/NANOAODSIM/130X_mcRun3_2022_realistic_v5-v2/30000/60a4a553-6f69-4793-b247-8f9998ac8d33.root",
        "T2_US_Florida: davs://cmsio2.rc.ufl.edu:1094/store/mc/Run3Summer22NanoAODv12/DYto2Mu_MLL-50to120_TuneCP5_13p6TeV_powheg-pythia8/NANOAODSIM/130X_mcRun3_2022_realistic_v5-v2/30000/60a4a553-6f69-4793-b247-8f9998ac8d33.root",
        "T2_BE_IIHE: davs://maite.iihe.ac.be:2880/pnfs/iihe/cms/ph/sc4/store/mc/Run3Summer22NanoAODv12/DYto2Mu_MLL-50to120_TuneCP5_13p6TeV_powheg-pythia8/NANOAODSIM/130X_mcRun3_2022_realistic_v5-v2/30000/60a4a553-6f69-4793-b247-8f9998ac8d33.root",
        "T2_US_Purdue: davs://eos.cms.rcac.purdue.edu:9000/store/mc/Run3Summer22NanoAODv12/DYto2Mu_MLL-50to120_TuneCP5_13p6TeV_powheg-pythia8/NANOAODSIM/130X_mcRun3_2022_realistic_v5-v2/30000/60a4a553-6f69-4793-b247-8f9998ac8d33.root",
        "T2_ES_CIEMAT: davs://srm.ciemat.es:2880/pnfs/ciemat.es/data/cms/prod/store/mc/Run3Summer22NanoAODv12/DYto2Mu_MLL-50to120_TuneCP5_13p6TeV_powheg-pythia8/NANOAODSIM/130X_mcRun3_2022_realistic_v5-v2/30000/60a4a553-6f69-4793-b247-8f9998ac8d33.root",
        "T2_DE_RWTH: davs://grid-webdav.physik.rwth-aachen.de:2889/store/mc/Run3Summer22NanoAODv12/DYto2Mu_MLL-50to120_TuneCP5_13p6TeV_powheg-pythia8/NANOAODSIM/130X_mcRun3_2022_realistic_v5-v2/30000/60a4a553-6f69-4793-b247-8f9998ac8d33.root",
        "T2_IN_TIFR: davs://se01.indiacms.res.in:443/dpm/indiacms.res.in/home/cms/store/mc/Run3Summer22NanoAODv12/DYto2Mu_MLL-50to120_TuneCP5_13p6TeV_powheg-pythia8/NANOAODSIM/130X_mcRun3_2022_realistic_v5-v2/30000/60a4a553-6f69-4793-b247-8f9998ac8d33.root"
    ],
    "cms:/store/mc/Run3Summer22NanoAODv12/DYto2Mu_MLL-50to120_TuneCP5_13p6TeV_powheg-pythia8/NANOAODSIM/130X_mcRun3_2022_realistic_v5-v2/30000/9740bb40-f821-4b16-8fc0-ced74570e234.root": [
        "T2_DE_DESY: davs://dcache-cms-webdav-wan.desy.de:2880/pnfs/desy.de/cms/tier2/store/mc/Run3Summer22NanoAODv12/DYto2Mu_MLL-50to120_TuneCP5_13p6TeV_powheg-pythia8/NANOAODSIM/130X_mcRun3_2022_realistic_v5-v2/30000/9740bb40-f821-4b16-8fc0-ced74570e234.root",
        "T1_DE_KIT_Disk: davs://cmsdcache-kit-disk.gridka.de:2880/pnfs/gridka.de/cms/disk-only/store/mc/Run3Summer22NanoAODv12/DYto2Mu_MLL-50to120_TuneCP5_13p6TeV_powheg-pythia8/NANOAODSIM/130X_mcRun3_2022_realistic_v5-v2/30000/9740bb40-f821-4b16-8fc0-ced74570e234.root",
        "T1_DE_KIT_Tape: davs://cmsdcache-kit-tape.gridka.de:2880/pnfs/gridka.de/cms/tape/store/mc/Run3Summer22NanoAODv12/DYto2Mu_MLL-50to120_TuneCP5_13p6TeV_powheg-pythia8/NANOAODSIM/130X_mcRun3_2022_realistic_v5-v2/30000/9740bb40-f821-4b16-8fc0-ced74570e234.root",
        "T2_CH_CERN: davs://eoscms.cern.ch:443/eos/cms/store/mc/Run3Summer22NanoAODv12/DYto2Mu_MLL-50to120_TuneCP5_13p6TeV_powheg-pythia8/NANOAODSIM/130X_mcRun3_2022_realistic_v5-v2/30000/9740bb40-f821-4b16-8fc0-ced74570e234.root",
        "T2_US_Florida: davs://cmsio2.rc.ufl.edu:1094/store/mc/Run3Summer22NanoAODv12/DYto2Mu_MLL-50to120_TuneCP5_13p6TeV_powheg-pythia8/NANOAODSIM/130X_mcRun3_2022_realistic_v5-v2/30000/9740bb40-f821-4b16-8fc0-ced74570e234.root",
        "T2_BE_IIHE: davs://maite.iihe.ac.be:2880/pnfs/iihe/cms/ph/sc4/store/mc/Run3Summer22NanoAODv12/DYto2Mu_MLL-50to120_TuneCP5_13p6TeV_powheg-pythia8/NANOAODSIM/130X_mcRun3_2022_realistic_v5-v2/30000/9740bb40-f821-4b16-8fc0-ced74570e234.root",
        "T2_US_Purdue: davs://eos.cms.rcac.purdue.edu:9000/store/mc/Run3Summer22NanoAODv12/DYto2Mu_MLL-50to120_TuneCP5_13p6TeV_powheg-pythia8/NANOAODSIM/130X_mcRun3_2022_realistic_v5-v2/30000/9740bb40-f821-4b16-8fc0-ced74570e234.root",
        "T2_ES_CIEMAT: davs://srm.ciemat.es:2880/pnfs/ciemat.es/data/cms/prod/store/mc/Run3Summer22NanoAODv12/DYto2Mu_MLL-50to120_TuneCP5_13p6TeV_powheg-pythia8/NANOAODSIM/130X_mcRun3_2022_realistic_v5-v2/30000/9740bb40-f821-4b16-8fc0-ced74570e234.root",
        "T2_DE_RWTH: davs://grid-webdav.physik.rwth-aachen.de:2889/store/mc/Run3Summer22NanoAODv12/DYto2Mu_MLL-50to120_TuneCP5_13p6TeV_powheg-pythia8/NANOAODSIM/130X_mcRun3_2022_realistic_v5-v2/30000/9740bb40-f821-4b16-8fc0-ced74570e234.root",
        "T2_IN_TIFR: davs://se01.indiacms.res.in:443/dpm/indiacms.res.in/home/cms/store/mc/Run3Summer22NanoAODv12/DYto2Mu_MLL-50to120_TuneCP5_13p6TeV_powheg-pythia8/NANOAODSIM/130X_mcRun3_2022_realistic_v5-v2/30000/9740bb40-f821-4b16-8fc0-ced74570e234.root"
    ],
    "cms:/store/mc/Run3Summer22NanoAODv12/DYto2Mu_MLL-50to120_TuneCP5_13p6TeV_powheg-pythia8/NANOAODSIM/130X_mcRun3_2022_realistic_v5-v2/30000/7b285faf-4dda-4199-86ca-9002143dfe4a.root": [
        "T1_DE_KIT_Disk: davs://cmsdcache-kit-disk.gridka.de:2880/pnfs/gridka.de/cms/disk-only/store/mc/Run3Summer22NanoAODv12/DYto2Mu_MLL-50to120_TuneCP5_13p6TeV_powheg-pythia8/NANOAODSIM/130X_mcRun3_2022_realistic_v5-v2/30000/7b285faf-4dda-4199-86ca-9002143dfe4a.root",
        "T1_DE_KIT_Tape: davs://cmsdcache-kit-tape.gridka.de:2880/pnfs/gridka.de/cms/tape/store/mc/Run3Summer22NanoAODv12/DYto2Mu_MLL-50to120_TuneCP5_13p6TeV_powheg-pythia8/NANOAODSIM/130X_mcRun3_2022_realistic_v5-v2/30000/7b285faf-4dda-4199-86ca-9002143dfe4a.root",
        "T2_CH_CERN: davs://eoscms.cern.ch:443/eos/cms/store/mc/Run3Summer22NanoAODv12/DYto2Mu_MLL-50to120_TuneCP5_13p6TeV_powheg-pythia8/NANOAODSIM/130X_mcRun3_2022_realistic_v5-v2/30000/7b285faf-4dda-4199-86ca-9002143dfe4a.root",
        "T2_US_Florida: davs://cmsio2.rc.ufl.edu:1094/store/mc/Run3Summer22NanoAODv12/DYto2Mu_MLL-50to120_TuneCP5_13p6TeV_powheg-pythia8/NANOAODSIM/130X_mcRun3_2022_realistic_v5-v2/30000/7b285faf-4dda-4199-86ca-9002143dfe4a.root",
        "T2_BE_IIHE: davs://maite.iihe.ac.be:2880/pnfs/iihe/cms/ph/sc4/store/mc/Run3Summer22NanoAODv12/DYto2Mu_MLL-50to120_TuneCP5_13p6TeV_powheg-pythia8/NANOAODSIM/130X_mcRun3_2022_realistic_v5-v2/30000/7b285faf-4dda-4199-86ca-9002143dfe4a.root",
        "T2_US_Purdue: davs://eos.cms.rcac.purdue.edu:9000/store/mc/Run3Summer22NanoAODv12/DYto2Mu_MLL-50to120_TuneCP5_13p6TeV_powheg-pythia8/NANOAODSIM/130X_mcRun3_2022_realistic_v5-v2/30000/7b285faf-4dda-4199-86ca-9002143dfe4a.root",
        "T2_ES_CIEMAT: davs://srm.ciemat.es:2880/pnfs/ciemat.es/data/cms/prod/store/mc/Run3Summer22NanoAODv12/DYto2Mu_MLL-50to120_TuneCP5_13p6TeV_powheg-pythia8/NANOAODSIM/130X_mcRun3_2022_realistic_v5-v2/30000/7b285faf-4dda-4199-86ca-9002143dfe4a.root",
        "T2_DE_RWTH: davs://grid-webdav.physik.rwth-aachen.de:2889/store/mc/Run3Summer22NanoAODv12/DYto2Mu_MLL-50to120_TuneCP5_13p6TeV_powheg-pythia8/NANOAODSIM/130X_mcRun3_2022_realistic_v5-v2/30000/7b285faf-4dda-4199-86ca-9002143dfe4a.root",
        "T2_IN_TIFR: davs://se01.indiacms.res.in:443/dpm/indiacms.res.in/home/cms/store/mc/Run3Summer22NanoAODv12/DYto2Mu_MLL-50to120_TuneCP5_13p6TeV_powheg-pythia8/NANOAODSIM/130X_mcRun3_2022_realistic_v5-v2/30000/7b285faf-4dda-4199-86ca-9002143dfe4a.root"
    ],
    "cms:/store/mc/Run3Summer22NanoAODv12/DYto2Mu_MLL-50to120_TuneCP5_13p6TeV_powheg-pythia8/NANOAODSIM/130X_mcRun3_2022_realistic_v5-v2/2530000/2bd0703b-c67d-4255-825d-b820498dddfb.root": [
        "T1_DE_KIT_Disk: davs://cmsdcache-kit-disk.gridka.de:2880/pnfs/gridka.de/cms/disk-only/store/mc/Run3Summer22NanoAODv12/DYto2Mu_MLL-50to120_TuneCP5_13p6TeV_powheg-pythia8/NANOAODSIM/130X_mcRun3_2022_realistic_v5-v2/2530000/2bd0703b-c67d-4255-825d-b820498dddfb.root",
        "T1_DE_KIT_Tape: davs://cmsdcache-kit-tape.gridka.de:2880/pnfs/gridka.de/cms/tape/store/mc/Run3Summer22NanoAODv12/DYto2Mu_MLL-50to120_TuneCP5_13p6TeV_powheg-pythia8/NANOAODSIM/130X_mcRun3_2022_realistic_v5-v2/2530000/2bd0703b-c67d-4255-825d-b820498dddfb.root",
        "T2_CH_CERN: davs://eoscms.cern.ch:443/eos/cms/store/mc/Run3Summer22NanoAODv12/DYto2Mu_MLL-50to120_TuneCP5_13p6TeV_powheg-pythia8/NANOAODSIM/130X_mcRun3_2022_realistic_v5-v2/2530000/2bd0703b-c67d-4255-825d-b820498dddfb.root",
        "T2_US_Florida: davs://cmsio2.rc.ufl.edu:1094/store/mc/Run3Summer22NanoAODv12/DYto2Mu_MLL-50to120_TuneCP5_13p6TeV_powheg-pythia8/NANOAODSIM/130X_mcRun3_2022_realistic_v5-v2/2530000/2bd0703b-c67d-4255-825d-b820498dddfb.root",
        "T2_BE_IIHE: davs://maite.iihe.ac.be:2880/pnfs/iihe/cms/ph/sc4/store/mc/Run3Summer22NanoAODv12/DYto2Mu_MLL-50to120_TuneCP5_13p6TeV_powheg-pythia8/NANOAODSIM/130X_mcRun3_2022_realistic_v5-v2/2530000/2bd0703b-c67d-4255-825d-b820498dddfb.root",
        "T2_US_Purdue: davs://eos.cms.rcac.purdue.edu:9000/store/mc/Run3Summer22NanoAODv12/DYto2Mu_MLL-50to120_TuneCP5_13p6TeV_powheg-pythia8/NANOAODSIM/130X_mcRun3_2022_realistic_v5-v2/2530000/2bd0703b-c67d-4255-825d-b820498dddfb.root",
        "T2_ES_CIEMAT: davs://srm.ciemat.es:2880/pnfs/ciemat.es/data/cms/prod/store/mc/Run3Summer22NanoAODv12/DYto2Mu_MLL-50to120_TuneCP5_13p6TeV_powheg-pythia8/NANOAODSIM/130X_mcRun3_2022_realistic_v5-v2/2530000/2bd0703b-c67d-4255-825d-b820498dddfb.root",
        "T1_IT_CNAF_Disk: davs://xfer-cms.cr.cnaf.infn.it:8443/cmsdisk/store/mc/Run3Summer22NanoAODv12/DYto2Mu_MLL-50to120_TuneCP5_13p6TeV_powheg-pythia8/NANOAODSIM/130X_mcRun3_2022_realistic_v5-v2/2530000/2bd0703b-c67d-4255-825d-b820498dddfb.root",
        "T2_DE_RWTH: davs://grid-webdav.physik.rwth-aachen.de:2889/store/mc/Run3Summer22NanoAODv12/DYto2Mu_MLL-50to120_TuneCP5_13p6TeV_powheg-pythia8/NANOAODSIM/130X_mcRun3_2022_realistic_v5-v2/2530000/2bd0703b-c67d-4255-825d-b820498dddfb.root",
        "T2_IN_TIFR: davs://se01.indiacms.res.in:443/dpm/indiacms.res.in/home/cms/store/mc/Run3Summer22NanoAODv12/DYto2Mu_MLL-50to120_TuneCP5_13p6TeV_powheg-pythia8/NANOAODSIM/130X_mcRun3_2022_realistic_v5-v2/2530000/2bd0703b-c67d-4255-825d-b820498dddfb.root"
    ],
    "cms:/store/mc/Run3Summer22NanoAODv12/DYto2Mu_MLL-50to120_TuneCP5_13p6TeV_powheg-pythia8/NANOAODSIM/130X_mcRun3_2022_realistic_v5-v2/40000/1524a943-13e8-43be-ace4-13e4e31220ce.root": [
        "T1_DE_KIT_Disk: davs://cmsdcache-kit-disk.gridka.de:2880/pnfs/gridka.de/cms/disk-only/store/mc/Run3Summer22NanoAODv12/DYto2Mu_MLL-50to120_TuneCP5_13p6TeV_powheg-pythia8/NANOAODSIM/130X_mcRun3_2022_realistic_v5-v2/40000/1524a943-13e8-43be-ace4-13e4e31220ce.root",
        "T1_DE_KIT_Tape: davs://cmsdcache-kit-tape.gridka.de:2880/pnfs/gridka.de/cms/tape/store/mc/Run3Summer22NanoAODv12/DYto2Mu_MLL-50to120_TuneCP5_13p6TeV_powheg-pythia8/NANOAODSIM/130X_mcRun3_2022_realistic_v5-v2/40000/1524a943-13e8-43be-ace4-13e4e31220ce.root",
        "T2_CH_CERN: davs://eoscms.cern.ch:443/eos/cms/store/mc/Run3Summer22NanoAODv12/DYto2Mu_MLL-50to120_TuneCP5_13p6TeV_powheg-pythia8/NANOAODSIM/130X_mcRun3_2022_realistic_v5-v2/40000/1524a943-13e8-43be-ace4-13e4e31220ce.root",
        "T2_US_Florida: davs://cmsio2.rc.ufl.edu:1094/store/mc/Run3Summer22NanoAODv12/DYto2Mu_MLL-50to120_TuneCP5_13p6TeV_powheg-pythia8/NANOAODSIM/130X_mcRun3_2022_realistic_v5-v2/40000/1524a943-13e8-43be-ace4-13e4e31220ce.root",
        "T2_BE_IIHE: davs://maite.iihe.ac.be:2880/pnfs/iihe/cms/ph/sc4/store/mc/Run3Summer22NanoAODv12/DYto2Mu_MLL-50to120_TuneCP5_13p6TeV_powheg-pythia8/NANOAODSIM/130X_mcRun3_2022_realistic_v5-v2/40000/1524a943-13e8-43be-ace4-13e4e31220ce.root",
        "T2_US_Purdue: davs://eos.cms.rcac.purdue.edu:9000/store/mc/Run3Summer22NanoAODv12/DYto2Mu_MLL-50to120_TuneCP5_13p6TeV_powheg-pythia8/NANOAODSIM/130X_mcRun3_2022_realistic_v5-v2/40000/1524a943-13e8-43be-ace4-13e4e31220ce.root",
        "T2_ES_CIEMAT: davs://srm.ciemat.es:2880/pnfs/ciemat.es/data/cms/prod/store/mc/Run3Summer22NanoAODv12/DYto2Mu_MLL-50to120_TuneCP5_13p6TeV_powheg-pythia8/NANOAODSIM/130X_mcRun3_2022_realistic_v5-v2/40000/1524a943-13e8-43be-ace4-13e4e31220ce.root",
        "T2_DE_RWTH: davs://grid-webdav.physik.rwth-aachen.de:2889/store/mc/Run3Summer22NanoAODv12/DYto2Mu_MLL-50to120_TuneCP5_13p6TeV_powheg-pythia8/NANOAODSIM/130X_mcRun3_2022_realistic_v5-v2/40000/1524a943-13e8-43be-ace4-13e4e31220ce.root",
        "T2_IN_TIFR: davs://se01.indiacms.res.in:443/dpm/indiacms.res.in/home/cms/store/mc/Run3Summer22NanoAODv12/DYto2Mu_MLL-50to120_TuneCP5_13p6TeV_powheg-pythia8/NANOAODSIM/130X_mcRun3_2022_realistic_v5-v2/40000/1524a943-13e8-43be-ace4-13e4e31220ce.root"
    ],
    "cms:/store/mc/Run3Summer22NanoAODv12/DYto2Mu_MLL-50to120_TuneCP5_13p6TeV_powheg-pythia8/NANOAODSIM/130X_mcRun3_2022_realistic_v5-v2/40000/8a646917-3ba0-49da-940b-5b758d57c759.root": [
        "T1_DE_KIT_Disk: davs://cmsdcache-kit-disk.gridka.de:2880/pnfs/gridka.de/cms/disk-only/store/mc/Run3Summer22NanoAODv12/DYto2Mu_MLL-50to120_TuneCP5_13p6TeV_powheg-pythia8/NANOAODSIM/130X_mcRun3_2022_realistic_v5-v2/40000/8a646917-3ba0-49da-940b-5b758d57c759.root",
        "T1_DE_KIT_Tape: davs://cmsdcache-kit-tape.gridka.de:2880/pnfs/gridka.de/cms/tape/store/mc/Run3Summer22NanoAODv12/DYto2Mu_MLL-50to120_TuneCP5_13p6TeV_powheg-pythia8/NANOAODSIM/130X_mcRun3_2022_realistic_v5-v2/40000/8a646917-3ba0-49da-940b-5b758d57c759.root",
        "T2_CH_CERN: davs://eoscms.cern.ch:443/eos/cms/store/mc/Run3Summer22NanoAODv12/DYto2Mu_MLL-50to120_TuneCP5_13p6TeV_powheg-pythia8/NANOAODSIM/130X_mcRun3_2022_realistic_v5-v2/40000/8a646917-3ba0-49da-940b-5b758d57c759.root",
        "T2_US_Florida: davs://cmsio2.rc.ufl.edu:1094/store/mc/Run3Summer22NanoAODv12/DYto2Mu_MLL-50to120_TuneCP5_13p6TeV_powheg-pythia8/NANOAODSIM/130X_mcRun3_2022_realistic_v5-v2/40000/8a646917-3ba0-49da-940b-5b758d57c759.root",
        "T2_BE_IIHE: davs://maite.iihe.ac.be:2880/pnfs/iihe/cms/ph/sc4/store/mc/Run3Summer22NanoAODv12/DYto2Mu_MLL-50to120_TuneCP5_13p6TeV_powheg-pythia8/NANOAODSIM/130X_mcRun3_2022_realistic_v5-v2/40000/8a646917-3ba0-49da-940b-5b758d57c759.root",
        "T2_US_Purdue: davs://eos.cms.rcac.purdue.edu:9000/store/mc/Run3Summer22NanoAODv12/DYto2Mu_MLL-50to120_TuneCP5_13p6TeV_powheg-pythia8/NANOAODSIM/130X_mcRun3_2022_realistic_v5-v2/40000/8a646917-3ba0-49da-940b-5b758d57c759.root",
        "T2_ES_CIEMAT: davs://srm.ciemat.es:2880/pnfs/ciemat.es/data/cms/prod/store/mc/Run3Summer22NanoAODv12/DYto2Mu_MLL-50to120_TuneCP5_13p6TeV_powheg-pythia8/NANOAODSIM/130X_mcRun3_2022_realistic_v5-v2/40000/8a646917-3ba0-49da-940b-5b758d57c759.root",
        "T2_DE_RWTH: davs://grid-webdav.physik.rwth-aachen.de:2889/store/mc/Run3Summer22NanoAODv12/DYto2Mu_MLL-50to120_TuneCP5_13p6TeV_powheg-pythia8/NANOAODSIM/130X_mcRun3_2022_realistic_v5-v2/40000/8a646917-3ba0-49da-940b-5b758d57c759.root",
        "T2_IN_TIFR: davs://se01.indiacms.res.in:443/dpm/indiacms.res.in/home/cms/store/mc/Run3Summer22NanoAODv12/DYto2Mu_MLL-50to120_TuneCP5_13p6TeV_powheg-pythia8/NANOAODSIM/130X_mcRun3_2022_realistic_v5-v2/40000/8a646917-3ba0-49da-940b-5b758d57c759.root"
    ],
    "cms:/store/mc/Run3Summer22NanoAODv12/DYto2Mu_MLL-50to120_TuneCP5_13p6TeV_powheg-pythia8/NANOAODSIM/130X_mcRun3_2022_realistic_v5-v2/50000/99ffcb73-6121-425a-aece-6b1b0fd2b153.root": [
        "T1_DE_KIT_Disk: davs://cmsdcache-kit-disk.gridka.de:2880/pnfs/gridka.de/cms/disk-only/store/mc/Run3Summer22NanoAODv12/DYto2Mu_MLL-50to120_TuneCP5_13p6TeV_powheg-pythia8/NANOAODSIM/130X_mcRun3_2022_realistic_v5-v2/50000/99ffcb73-6121-425a-aece-6b1b0fd2b153.root",
        "T1_DE_KIT_Tape: davs://cmsdcache-kit-tape.gridka.de:2880/pnfs/gridka.de/cms/tape/store/mc/Run3Summer22NanoAODv12/DYto2Mu_MLL-50to120_TuneCP5_13p6TeV_powheg-pythia8/NANOAODSIM/130X_mcRun3_2022_realistic_v5-v2/50000/99ffcb73-6121-425a-aece-6b1b0fd2b153.root",
        "T2_CH_CERN: davs://eoscms.cern.ch:443/eos/cms/store/mc/Run3Summer22NanoAODv12/DYto2Mu_MLL-50to120_TuneCP5_13p6TeV_powheg-pythia8/NANOAODSIM/130X_mcRun3_2022_realistic_v5-v2/50000/99ffcb73-6121-425a-aece-6b1b0fd2b153.root",
        "T2_US_Florida: davs://cmsio2.rc.ufl.edu:1094/store/mc/Run3Summer22NanoAODv12/DYto2Mu_MLL-50to120_TuneCP5_13p6TeV_powheg-pythia8/NANOAODSIM/130X_mcRun3_2022_realistic_v5-v2/50000/99ffcb73-6121-425a-aece-6b1b0fd2b153.root",
        "T2_BE_IIHE: davs://maite.iihe.ac.be:2880/pnfs/iihe/cms/ph/sc4/store/mc/Run3Summer22NanoAODv12/DYto2Mu_MLL-50to120_TuneCP5_13p6TeV_powheg-pythia8/NANOAODSIM/130X_mcRun3_2022_realistic_v5-v2/50000/99ffcb73-6121-425a-aece-6b1b0fd2b153.root",
        "T2_US_Purdue: davs://eos.cms.rcac.purdue.edu:9000/store/mc/Run3Summer22NanoAODv12/DYto2Mu_MLL-50to120_TuneCP5_13p6TeV_powheg-pythia8/NANOAODSIM/130X_mcRun3_2022_realistic_v5-v2/50000/99ffcb73-6121-425a-aece-6b1b0fd2b153.root",
        "T2_ES_CIEMAT: davs://srm.ciemat.es:2880/pnfs/ciemat.es/data/cms/prod/store/mc/Run3Summer22NanoAODv12/DYto2Mu_MLL-50to120_TuneCP5_13p6TeV_powheg-pythia8/NANOAODSIM/130X_mcRun3_2022_realistic_v5-v2/50000/99ffcb73-6121-425a-aece-6b1b0fd2b153.root",
        "T2_DE_RWTH: davs://grid-webdav.physik.rwth-aachen.de:2889/store/mc/Run3Summer22NanoAODv12/DYto2Mu_MLL-50to120_TuneCP5_13p6TeV_powheg-pythia8/NANOAODSIM/130X_mcRun3_2022_realistic_v5-v2/50000/99ffcb73-6121-425a-aece-6b1b0fd2b153.root",
        "T2_IN_TIFR: davs://se01.indiacms.res.in:443/dpm/indiacms.res.in/home/cms/store/mc/Run3Summer22NanoAODv12/DYto2Mu_MLL-50to120_TuneCP5_13p6TeV_powheg-pythia8/NANOAODSIM/130X_mcRun3_2022_realistic_v5-v2/50000/99ffcb73-6121-425a-aece-6b1b0fd2b153.root"
    ],
    "cms:/store/mc/Run3Summer22NanoAODv12/DYto2Mu_MLL-50to120_TuneCP5_13p6TeV_powheg-pythia8/NANOAODSIM/130X_mcRun3_2022_realistic_v5-v2/40000/ae63795d-87bf-4bf7-863f-ed98cd65104c.root": [
        "T1_DE_KIT_Disk: davs://cmsdcache-kit-disk.gridka.de:2880/pnfs/gridka.de/cms/disk-only/store/mc/Run3Summer22NanoAODv12/DYto2Mu_MLL-50to120_TuneCP5_13p6TeV_powheg-pythia8/NANOAODSIM/130X_mcRun3_2022_realistic_v5-v2/40000/ae63795d-87bf-4bf7-863f-ed98cd65104c.root",
        "T1_DE_KIT_Tape: davs://cmsdcache-kit-tape.gridka.de:2880/pnfs/gridka.de/cms/tape/store/mc/Run3Summer22NanoAODv12/DYto2Mu_MLL-50to120_TuneCP5_13p6TeV_powheg-pythia8/NANOAODSIM/130X_mcRun3_2022_realistic_v5-v2/40000/ae63795d-87bf-4bf7-863f-ed98cd65104c.root",
        "T2_CH_CERN: davs://eoscms.cern.ch:443/eos/cms/store/mc/Run3Summer22NanoAODv12/DYto2Mu_MLL-50to120_TuneCP5_13p6TeV_powheg-pythia8/NANOAODSIM/130X_mcRun3_2022_realistic_v5-v2/40000/ae63795d-87bf-4bf7-863f-ed98cd65104c.root",
        "T2_US_Florida: davs://cmsio2.rc.ufl.edu:1094/store/mc/Run3Summer22NanoAODv12/DYto2Mu_MLL-50to120_TuneCP5_13p6TeV_powheg-pythia8/NANOAODSIM/130X_mcRun3_2022_realistic_v5-v2/40000/ae63795d-87bf-4bf7-863f-ed98cd65104c.root",
        "T2_BE_IIHE: davs://maite.iihe.ac.be:2880/pnfs/iihe/cms/ph/sc4/store/mc/Run3Summer22NanoAODv12/DYto2Mu_MLL-50to120_TuneCP5_13p6TeV_powheg-pythia8/NANOAODSIM/130X_mcRun3_2022_realistic_v5-v2/40000/ae63795d-87bf-4bf7-863f-ed98cd65104c.root",
        "T2_US_Purdue: davs://eos.cms.rcac.purdue.edu:9000/store/mc/Run3Summer22NanoAODv12/DYto2Mu_MLL-50to120_TuneCP5_13p6TeV_powheg-pythia8/NANOAODSIM/130X_mcRun3_2022_realistic_v5-v2/40000/ae63795d-87bf-4bf7-863f-ed98cd65104c.root",
        "T2_ES_CIEMAT: davs://srm.ciemat.es:2880/pnfs/ciemat.es/data/cms/prod/store/mc/Run3Summer22NanoAODv12/DYto2Mu_MLL-50to120_TuneCP5_13p6TeV_powheg-pythia8/NANOAODSIM/130X_mcRun3_2022_realistic_v5-v2/40000/ae63795d-87bf-4bf7-863f-ed98cd65104c.root",
        "T2_DE_RWTH: davs://grid-webdav.physik.rwth-aachen.de:2889/store/mc/Run3Summer22NanoAODv12/DYto2Mu_MLL-50to120_TuneCP5_13p6TeV_powheg-pythia8/NANOAODSIM/130X_mcRun3_2022_realistic_v5-v2/40000/ae63795d-87bf-4bf7-863f-ed98cd65104c.root",
        "T2_IN_TIFR: davs://se01.indiacms.res.in:443/dpm/indiacms.res.in/home/cms/store/mc/Run3Summer22NanoAODv12/DYto2Mu_MLL-50to120_TuneCP5_13p6TeV_powheg-pythia8/NANOAODSIM/130X_mcRun3_2022_realistic_v5-v2/40000/ae63795d-87bf-4bf7-863f-ed98cd65104c.root"
    ],
    "cms:/store/mc/Run3Summer22NanoAODv12/DYto2Mu_MLL-50to120_TuneCP5_13p6TeV_powheg-pythia8/NANOAODSIM/130X_mcRun3_2022_realistic_v5-v2/2540000/eadaeb59-1b36-4560-b1dc-07cadf9ada77.root": [
        "T1_DE_KIT_Disk: davs://cmsdcache-kit-disk.gridka.de:2880/pnfs/gridka.de/cms/disk-only/store/mc/Run3Summer22NanoAODv12/DYto2Mu_MLL-50to120_TuneCP5_13p6TeV_powheg-pythia8/NANOAODSIM/130X_mcRun3_2022_realistic_v5-v2/2540000/eadaeb59-1b36-4560-b1dc-07cadf9ada77.root",
        "T1_DE_KIT_Tape: davs://cmsdcache-kit-tape.gridka.de:2880/pnfs/gridka.de/cms/tape/store/mc/Run3Summer22NanoAODv12/DYto2Mu_MLL-50to120_TuneCP5_13p6TeV_powheg-pythia8/NANOAODSIM/130X_mcRun3_2022_realistic_v5-v2/2540000/eadaeb59-1b36-4560-b1dc-07cadf9ada77.root",
        "T2_CH_CERN: davs://eoscms.cern.ch:443/eos/cms/store/mc/Run3Summer22NanoAODv12/DYto2Mu_MLL-50to120_TuneCP5_13p6TeV_powheg-pythia8/NANOAODSIM/130X_mcRun3_2022_realistic_v5-v2/2540000/eadaeb59-1b36-4560-b1dc-07cadf9ada77.root",
        "T2_US_Florida: davs://cmsio2.rc.ufl.edu:1094/store/mc/Run3Summer22NanoAODv12/DYto2Mu_MLL-50to120_TuneCP5_13p6TeV_powheg-pythia8/NANOAODSIM/130X_mcRun3_2022_realistic_v5-v2/2540000/eadaeb59-1b36-4560-b1dc-07cadf9ada77.root",
        "T2_BE_IIHE: davs://maite.iihe.ac.be:2880/pnfs/iihe/cms/ph/sc4/store/mc/Run3Summer22NanoAODv12/DYto2Mu_MLL-50to120_TuneCP5_13p6TeV_powheg-pythia8/NANOAODSIM/130X_mcRun3_2022_realistic_v5-v2/2540000/eadaeb59-1b36-4560-b1dc-07cadf9ada77.root",
        "T2_US_Purdue: davs://eos.cms.rcac.purdue.edu:9000/store/mc/Run3Summer22NanoAODv12/DYto2Mu_MLL-50to120_TuneCP5_13p6TeV_powheg-pythia8/NANOAODSIM/130X_mcRun3_2022_realistic_v5-v2/2540000/eadaeb59-1b36-4560-b1dc-07cadf9ada77.root",
        "T2_ES_CIEMAT: davs://srm.ciemat.es:2880/pnfs/ciemat.es/data/cms/prod/store/mc/Run3Summer22NanoAODv12/DYto2Mu_MLL-50to120_TuneCP5_13p6TeV_powheg-pythia8/NANOAODSIM/130X_mcRun3_2022_realistic_v5-v2/2540000/eadaeb59-1b36-4560-b1dc-07cadf9ada77.root",
        "T2_DE_RWTH: davs://grid-webdav.physik.rwth-aachen.de:2889/store/mc/Run3Summer22NanoAODv12/DYto2Mu_MLL-50to120_TuneCP5_13p6TeV_powheg-pythia8/NANOAODSIM/130X_mcRun3_2022_realistic_v5-v2/2540000/eadaeb59-1b36-4560-b1dc-07cadf9ada77.root",
        "T2_IN_TIFR: davs://se01.indiacms.res.in:443/dpm/indiacms.res.in/home/cms/store/mc/Run3Summer22NanoAODv12/DYto2Mu_MLL-50to120_TuneCP5_13p6TeV_powheg-pythia8/NANOAODSIM/130X_mcRun3_2022_realistic_v5-v2/2540000/eadaeb59-1b36-4560-b1dc-07cadf9ada77.root"
    ],
    "cms:/store/mc/Run3Summer22NanoAODv12/DYto2Mu_MLL-50to120_TuneCP5_13p6TeV_powheg-pythia8/NANOAODSIM/130X_mcRun3_2022_realistic_v5-v2/40000/6772c9d1-c028-4b6b-ac1a-1b0e44c4e387.root": [
        "T1_DE_KIT_Disk: davs://cmsdcache-kit-disk.gridka.de:2880/pnfs/gridka.de/cms/disk-only/store/mc/Run3Summer22NanoAODv12/DYto2Mu_MLL-50to120_TuneCP5_13p6TeV_powheg-pythia8/NANOAODSIM/130X_mcRun3_2022_realistic_v5-v2/40000/6772c9d1-c028-4b6b-ac1a-1b0e44c4e387.root",
        "T1_DE_KIT_Tape: davs://cmsdcache-kit-tape.gridka.de:2880/pnfs/gridka.de/cms/tape/store/mc/Run3Summer22NanoAODv12/DYto2Mu_MLL-50to120_TuneCP5_13p6TeV_powheg-pythia8/NANOAODSIM/130X_mcRun3_2022_realistic_v5-v2/40000/6772c9d1-c028-4b6b-ac1a-1b0e44c4e387.root",
        "T2_CH_CERN: davs://eoscms.cern.ch:443/eos/cms/store/mc/Run3Summer22NanoAODv12/DYto2Mu_MLL-50to120_TuneCP5_13p6TeV_powheg-pythia8/NANOAODSIM/130X_mcRun3_2022_realistic_v5-v2/40000/6772c9d1-c028-4b6b-ac1a-1b0e44c4e387.root",
        "T2_US_Florida: davs://cmsio2.rc.ufl.edu:1094/store/mc/Run3Summer22NanoAODv12/DYto2Mu_MLL-50to120_TuneCP5_13p6TeV_powheg-pythia8/NANOAODSIM/130X_mcRun3_2022_realistic_v5-v2/40000/6772c9d1-c028-4b6b-ac1a-1b0e44c4e387.root",
        "T2_BE_IIHE: davs://maite.iihe.ac.be:2880/pnfs/iihe/cms/ph/sc4/store/mc/Run3Summer22NanoAODv12/DYto2Mu_MLL-50to120_TuneCP5_13p6TeV_powheg-pythia8/NANOAODSIM/130X_mcRun3_2022_realistic_v5-v2/40000/6772c9d1-c028-4b6b-ac1a-1b0e44c4e387.root",
        "T2_US_Purdue: davs://eos.cms.rcac.purdue.edu:9000/store/mc/Run3Summer22NanoAODv12/DYto2Mu_MLL-50to120_TuneCP5_13p6TeV_powheg-pythia8/NANOAODSIM/130X_mcRun3_2022_realistic_v5-v2/40000/6772c9d1-c028-4b6b-ac1a-1b0e44c4e387.root",
        "T2_ES_CIEMAT: davs://srm.ciemat.es:2880/pnfs/ciemat.es/data/cms/prod/store/mc/Run3Summer22NanoAODv12/DYto2Mu_MLL-50to120_TuneCP5_13p6TeV_powheg-pythia8/NANOAODSIM/130X_mcRun3_2022_realistic_v5-v2/40000/6772c9d1-c028-4b6b-ac1a-1b0e44c4e387.root",
        "T2_DE_RWTH: davs://grid-webdav.physik.rwth-aachen.de:2889/store/mc/Run3Summer22NanoAODv12/DYto2Mu_MLL-50to120_TuneCP5_13p6TeV_powheg-pythia8/NANOAODSIM/130X_mcRun3_2022_realistic_v5-v2/40000/6772c9d1-c028-4b6b-ac1a-1b0e44c4e387.root",
        "T2_IN_TIFR: davs://se01.indiacms.res.in:443/dpm/indiacms.res.in/home/cms/store/mc/Run3Summer22NanoAODv12/DYto2Mu_MLL-50to120_TuneCP5_13p6TeV_powheg-pythia8/NANOAODSIM/130X_mcRun3_2022_realistic_v5-v2/40000/6772c9d1-c028-4b6b-ac1a-1b0e44c4e387.root"
    ],
    "cms:/store/mc/Run3Summer22NanoAODv12/DYto2Mu_MLL-50to120_TuneCP5_13p6TeV_powheg-pythia8/NANOAODSIM/130X_mcRun3_2022_realistic_v5-v2/2530000/88a0d56e-3874-4df4-a273-5eb4f9272a2a.root": [
        "T1_DE_KIT_Disk: davs://cmsdcache-kit-disk.gridka.de:2880/pnfs/gridka.de/cms/disk-only/store/mc/Run3Summer22NanoAODv12/DYto2Mu_MLL-50to120_TuneCP5_13p6TeV_powheg-pythia8/NANOAODSIM/130X_mcRun3_2022_realistic_v5-v2/2530000/88a0d56e-3874-4df4-a273-5eb4f9272a2a.root",
        "T1_DE_KIT_Tape: davs://cmsdcache-kit-tape.gridka.de:2880/pnfs/gridka.de/cms/tape/store/mc/Run3Summer22NanoAODv12/DYto2Mu_MLL-50to120_TuneCP5_13p6TeV_powheg-pythia8/NANOAODSIM/130X_mcRun3_2022_realistic_v5-v2/2530000/88a0d56e-3874-4df4-a273-5eb4f9272a2a.root",
        "T2_CH_CERN: davs://eoscms.cern.ch:443/eos/cms/store/mc/Run3Summer22NanoAODv12/DYto2Mu_MLL-50to120_TuneCP5_13p6TeV_powheg-pythia8/NANOAODSIM/130X_mcRun3_2022_realistic_v5-v2/2530000/88a0d56e-3874-4df4-a273-5eb4f9272a2a.root",
        "T2_US_Florida: davs://cmsio2.rc.ufl.edu:1094/store/mc/Run3Summer22NanoAODv12/DYto2Mu_MLL-50to120_TuneCP5_13p6TeV_powheg-pythia8/NANOAODSIM/130X_mcRun3_2022_realistic_v5-v2/2530000/88a0d56e-3874-4df4-a273-5eb4f9272a2a.root",
        "T2_BE_IIHE: davs://maite.iihe.ac.be:2880/pnfs/iihe/cms/ph/sc4/store/mc/Run3Summer22NanoAODv12/DYto2Mu_MLL-50to120_TuneCP5_13p6TeV_powheg-pythia8/NANOAODSIM/130X_mcRun3_2022_realistic_v5-v2/2530000/88a0d56e-3874-4df4-a273-5eb4f9272a2a.root",
        "T2_US_Purdue: davs://eos.cms.rcac.purdue.edu:9000/store/mc/Run3Summer22NanoAODv12/DYto2Mu_MLL-50to120_TuneCP5_13p6TeV_powheg-pythia8/NANOAODSIM/130X_mcRun3_2022_realistic_v5-v2/2530000/88a0d56e-3874-4df4-a273-5eb4f9272a2a.root",
        "T2_ES_CIEMAT: davs://srm.ciemat.es:2880/pnfs/ciemat.es/data/cms/prod/store/mc/Run3Summer22NanoAODv12/DYto2Mu_MLL-50to120_TuneCP5_13p6TeV_powheg-pythia8/NANOAODSIM/130X_mcRun3_2022_realistic_v5-v2/2530000/88a0d56e-3874-4df4-a273-5eb4f9272a2a.root",
        "T2_DE_RWTH: davs://grid-webdav.physik.rwth-aachen.de:2889/store/mc/Run3Summer22NanoAODv12/DYto2Mu_MLL-50to120_TuneCP5_13p6TeV_powheg-pythia8/NANOAODSIM/130X_mcRun3_2022_realistic_v5-v2/2530000/88a0d56e-3874-4df4-a273-5eb4f9272a2a.root",
        "T2_IN_TIFR: davs://se01.indiacms.res.in:443/dpm/indiacms.res.in/home/cms/store/mc/Run3Summer22NanoAODv12/DYto2Mu_MLL-50to120_TuneCP5_13p6TeV_powheg-pythia8/NANOAODSIM/130X_mcRun3_2022_realistic_v5-v2/2530000/88a0d56e-3874-4df4-a273-5eb4f9272a2a.root"
    ],
    "cms:/store/mc/Run3Summer22NanoAODv12/DYto2Mu_MLL-50to120_TuneCP5_13p6TeV_powheg-pythia8/NANOAODSIM/130X_mcRun3_2022_realistic_v5-v2/50000/d63ca1ff-9d36-4ab3-9b8b-451737ec0d6e.root": [
        "T1_DE_KIT_Disk: davs://cmsdcache-kit-disk.gridka.de:2880/pnfs/gridka.de/cms/disk-only/store/mc/Run3Summer22NanoAODv12/DYto2Mu_MLL-50to120_TuneCP5_13p6TeV_powheg-pythia8/NANOAODSIM/130X_mcRun3_2022_realistic_v5-v2/50000/d63ca1ff-9d36-4ab3-9b8b-451737ec0d6e.root",
        "T1_DE_KIT_Tape: davs://cmsdcache-kit-tape.gridka.de:2880/pnfs/gridka.de/cms/tape/store/mc/Run3Summer22NanoAODv12/DYto2Mu_MLL-50to120_TuneCP5_13p6TeV_powheg-pythia8/NANOAODSIM/130X_mcRun3_2022_realistic_v5-v2/50000/d63ca1ff-9d36-4ab3-9b8b-451737ec0d6e.root",
        "T2_CH_CERN: davs://eoscms.cern.ch:443/eos/cms/store/mc/Run3Summer22NanoAODv12/DYto2Mu_MLL-50to120_TuneCP5_13p6TeV_powheg-pythia8/NANOAODSIM/130X_mcRun3_2022_realistic_v5-v2/50000/d63ca1ff-9d36-4ab3-9b8b-451737ec0d6e.root",
        "T2_US_Florida: davs://cmsio2.rc.ufl.edu:1094/store/mc/Run3Summer22NanoAODv12/DYto2Mu_MLL-50to120_TuneCP5_13p6TeV_powheg-pythia8/NANOAODSIM/130X_mcRun3_2022_realistic_v5-v2/50000/d63ca1ff-9d36-4ab3-9b8b-451737ec0d6e.root",
        "T2_BE_IIHE: davs://maite.iihe.ac.be:2880/pnfs/iihe/cms/ph/sc4/store/mc/Run3Summer22NanoAODv12/DYto2Mu_MLL-50to120_TuneCP5_13p6TeV_powheg-pythia8/NANOAODSIM/130X_mcRun3_2022_realistic_v5-v2/50000/d63ca1ff-9d36-4ab3-9b8b-451737ec0d6e.root",
        "T2_US_Purdue: davs://eos.cms.rcac.purdue.edu:9000/store/mc/Run3Summer22NanoAODv12/DYto2Mu_MLL-50to120_TuneCP5_13p6TeV_powheg-pythia8/NANOAODSIM/130X_mcRun3_2022_realistic_v5-v2/50000/d63ca1ff-9d36-4ab3-9b8b-451737ec0d6e.root",
        "T2_ES_CIEMAT: davs://srm.ciemat.es:2880/pnfs/ciemat.es/data/cms/prod/store/mc/Run3Summer22NanoAODv12/DYto2Mu_MLL-50to120_TuneCP5_13p6TeV_powheg-pythia8/NANOAODSIM/130X_mcRun3_2022_realistic_v5-v2/50000/d63ca1ff-9d36-4ab3-9b8b-451737ec0d6e.root",
        "T2_UK_London_IC: davs://gfe02.grid.hep.ph.ic.ac.uk:2880/pnfs/hep.ph.ic.ac.uk/data/cms/store/mc/Run3Summer22NanoAODv12/DYto2Mu_MLL-50to120_TuneCP5_13p6TeV_powheg-pythia8/NANOAODSIM/130X_mcRun3_2022_realistic_v5-v2/50000/d63ca1ff-9d36-4ab3-9b8b-451737ec0d6e.root",
        "T2_DE_RWTH: davs://grid-webdav.physik.rwth-aachen.de:2889/store/mc/Run3Summer22NanoAODv12/DYto2Mu_MLL-50to120_TuneCP5_13p6TeV_powheg-pythia8/NANOAODSIM/130X_mcRun3_2022_realistic_v5-v2/50000/d63ca1ff-9d36-4ab3-9b8b-451737ec0d6e.root",
        "T2_IN_TIFR: davs://se01.indiacms.res.in:443/dpm/indiacms.res.in/home/cms/store/mc/Run3Summer22NanoAODv12/DYto2Mu_MLL-50to120_TuneCP5_13p6TeV_powheg-pythia8/NANOAODSIM/130X_mcRun3_2022_realistic_v5-v2/50000/d63ca1ff-9d36-4ab3-9b8b-451737ec0d6e.root"
    ],
    "cms:/store/mc/Run3Summer22NanoAODv12/DYto2Mu_MLL-50to120_TuneCP5_13p6TeV_powheg-pythia8/NANOAODSIM/130X_mcRun3_2022_realistic_v5-v2/40000/6100edae-271c-4628-9ede-c39320c3036e.root": [
        "T1_DE_KIT_Disk: davs://cmsdcache-kit-disk.gridka.de:2880/pnfs/gridka.de/cms/disk-only/store/mc/Run3Summer22NanoAODv12/DYto2Mu_MLL-50to120_TuneCP5_13p6TeV_powheg-pythia8/NANOAODSIM/130X_mcRun3_2022_realistic_v5-v2/40000/6100edae-271c-4628-9ede-c39320c3036e.root",
        "T1_DE_KIT_Tape: davs://cmsdcache-kit-tape.gridka.de:2880/pnfs/gridka.de/cms/tape/store/mc/Run3Summer22NanoAODv12/DYto2Mu_MLL-50to120_TuneCP5_13p6TeV_powheg-pythia8/NANOAODSIM/130X_mcRun3_2022_realistic_v5-v2/40000/6100edae-271c-4628-9ede-c39320c3036e.root",
        "T2_CH_CERN: davs://eoscms.cern.ch:443/eos/cms/store/mc/Run3Summer22NanoAODv12/DYto2Mu_MLL-50to120_TuneCP5_13p6TeV_powheg-pythia8/NANOAODSIM/130X_mcRun3_2022_realistic_v5-v2/40000/6100edae-271c-4628-9ede-c39320c3036e.root",
        "T2_US_Florida: davs://cmsio2.rc.ufl.edu:1094/store/mc/Run3Summer22NanoAODv12/DYto2Mu_MLL-50to120_TuneCP5_13p6TeV_powheg-pythia8/NANOAODSIM/130X_mcRun3_2022_realistic_v5-v2/40000/6100edae-271c-4628-9ede-c39320c3036e.root",
        "T2_BE_IIHE: davs://maite.iihe.ac.be:2880/pnfs/iihe/cms/ph/sc4/store/mc/Run3Summer22NanoAODv12/DYto2Mu_MLL-50to120_TuneCP5_13p6TeV_powheg-pythia8/NANOAODSIM/130X_mcRun3_2022_realistic_v5-v2/40000/6100edae-271c-4628-9ede-c39320c3036e.root",
        "T2_US_Purdue: davs://eos.cms.rcac.purdue.edu:9000/store/mc/Run3Summer22NanoAODv12/DYto2Mu_MLL-50to120_TuneCP5_13p6TeV_powheg-pythia8/NANOAODSIM/130X_mcRun3_2022_realistic_v5-v2/40000/6100edae-271c-4628-9ede-c39320c3036e.root",
        "T2_ES_CIEMAT: davs://srm.ciemat.es:2880/pnfs/ciemat.es/data/cms/prod/store/mc/Run3Summer22NanoAODv12/DYto2Mu_MLL-50to120_TuneCP5_13p6TeV_powheg-pythia8/NANOAODSIM/130X_mcRun3_2022_realistic_v5-v2/40000/6100edae-271c-4628-9ede-c39320c3036e.root",
        "T2_DE_RWTH: davs://grid-webdav.physik.rwth-aachen.de:2889/store/mc/Run3Summer22NanoAODv12/DYto2Mu_MLL-50to120_TuneCP5_13p6TeV_powheg-pythia8/NANOAODSIM/130X_mcRun3_2022_realistic_v5-v2/40000/6100edae-271c-4628-9ede-c39320c3036e.root",
        "T2_IN_TIFR: davs://se01.indiacms.res.in:443/dpm/indiacms.res.in/home/cms/store/mc/Run3Summer22NanoAODv12/DYto2Mu_MLL-50to120_TuneCP5_13p6TeV_powheg-pythia8/NANOAODSIM/130X_mcRun3_2022_realistic_v5-v2/40000/6100edae-271c-4628-9ede-c39320c3036e.root"
    ],
    "cms:/store/mc/Run3Summer22NanoAODv12/DYto2Mu_MLL-50to120_TuneCP5_13p6TeV_powheg-pythia8/NANOAODSIM/130X_mcRun3_2022_realistic_v5-v2/50000/b4e252d2-79a0-4752-928f-f95ed4e8044a.root": [
        "T1_DE_KIT_Disk: davs://cmsdcache-kit-disk.gridka.de:2880/pnfs/gridka.de/cms/disk-only/store/mc/Run3Summer22NanoAODv12/DYto2Mu_MLL-50to120_TuneCP5_13p6TeV_powheg-pythia8/NANOAODSIM/130X_mcRun3_2022_realistic_v5-v2/50000/b4e252d2-79a0-4752-928f-f95ed4e8044a.root",
        "T1_DE_KIT_Tape: davs://cmsdcache-kit-tape.gridka.de:2880/pnfs/gridka.de/cms/tape/store/mc/Run3Summer22NanoAODv12/DYto2Mu_MLL-50to120_TuneCP5_13p6TeV_powheg-pythia8/NANOAODSIM/130X_mcRun3_2022_realistic_v5-v2/50000/b4e252d2-79a0-4752-928f-f95ed4e8044a.root",
        "T2_CH_CERN: davs://eoscms.cern.ch:443/eos/cms/store/mc/Run3Summer22NanoAODv12/DYto2Mu_MLL-50to120_TuneCP5_13p6TeV_powheg-pythia8/NANOAODSIM/130X_mcRun3_2022_realistic_v5-v2/50000/b4e252d2-79a0-4752-928f-f95ed4e8044a.root",
        "T2_US_Florida: davs://cmsio2.rc.ufl.edu:1094/store/mc/Run3Summer22NanoAODv12/DYto2Mu_MLL-50to120_TuneCP5_13p6TeV_powheg-pythia8/NANOAODSIM/130X_mcRun3_2022_realistic_v5-v2/50000/b4e252d2-79a0-4752-928f-f95ed4e8044a.root",
        "T2_BE_IIHE: davs://maite.iihe.ac.be:2880/pnfs/iihe/cms/ph/sc4/store/mc/Run3Summer22NanoAODv12/DYto2Mu_MLL-50to120_TuneCP5_13p6TeV_powheg-pythia8/NANOAODSIM/130X_mcRun3_2022_realistic_v5-v2/50000/b4e252d2-79a0-4752-928f-f95ed4e8044a.root",
        "T2_US_Purdue: davs://eos.cms.rcac.purdue.edu:9000/store/mc/Run3Summer22NanoAODv12/DYto2Mu_MLL-50to120_TuneCP5_13p6TeV_powheg-pythia8/NANOAODSIM/130X_mcRun3_2022_realistic_v5-v2/50000/b4e252d2-79a0-4752-928f-f95ed4e8044a.root",
        "T2_ES_CIEMAT: davs://srm.ciemat.es:2880/pnfs/ciemat.es/data/cms/prod/store/mc/Run3Summer22NanoAODv12/DYto2Mu_MLL-50to120_TuneCP5_13p6TeV_powheg-pythia8/NANOAODSIM/130X_mcRun3_2022_realistic_v5-v2/50000/b4e252d2-79a0-4752-928f-f95ed4e8044a.root",
        "T2_DE_RWTH: davs://grid-webdav.physik.rwth-aachen.de:2889/store/mc/Run3Summer22NanoAODv12/DYto2Mu_MLL-50to120_TuneCP5_13p6TeV_powheg-pythia8/NANOAODSIM/130X_mcRun3_2022_realistic_v5-v2/50000/b4e252d2-79a0-4752-928f-f95ed4e8044a.root",
        "T2_IN_TIFR: davs://se01.indiacms.res.in:443/dpm/indiacms.res.in/home/cms/store/mc/Run3Summer22NanoAODv12/DYto2Mu_MLL-50to120_TuneCP5_13p6TeV_powheg-pythia8/NANOAODSIM/130X_mcRun3_2022_realistic_v5-v2/50000/b4e252d2-79a0-4752-928f-f95ed4e8044a.root"
    ],
    "cms:/store/mc/Run3Summer22NanoAODv12/DYto2Mu_MLL-50to120_TuneCP5_13p6TeV_powheg-pythia8/NANOAODSIM/130X_mcRun3_2022_realistic_v5-v2/2540000/2d87d81c-9012-41ce-9ac5-976255ab29f2.root": [
        "T1_DE_KIT_Disk: davs://cmsdcache-kit-disk.gridka.de:2880/pnfs/gridka.de/cms/disk-only/store/mc/Run3Summer22NanoAODv12/DYto2Mu_MLL-50to120_TuneCP5_13p6TeV_powheg-pythia8/NANOAODSIM/130X_mcRun3_2022_realistic_v5-v2/2540000/2d87d81c-9012-41ce-9ac5-976255ab29f2.root",
        "T1_DE_KIT_Tape: davs://cmsdcache-kit-tape.gridka.de:2880/pnfs/gridka.de/cms/tape/store/mc/Run3Summer22NanoAODv12/DYto2Mu_MLL-50to120_TuneCP5_13p6TeV_powheg-pythia8/NANOAODSIM/130X_mcRun3_2022_realistic_v5-v2/2540000/2d87d81c-9012-41ce-9ac5-976255ab29f2.root",
        "T2_CH_CERN: davs://eoscms.cern.ch:443/eos/cms/store/mc/Run3Summer22NanoAODv12/DYto2Mu_MLL-50to120_TuneCP5_13p6TeV_powheg-pythia8/NANOAODSIM/130X_mcRun3_2022_realistic_v5-v2/2540000/2d87d81c-9012-41ce-9ac5-976255ab29f2.root",
        "T2_US_Florida: davs://cmsio2.rc.ufl.edu:1094/store/mc/Run3Summer22NanoAODv12/DYto2Mu_MLL-50to120_TuneCP5_13p6TeV_powheg-pythia8/NANOAODSIM/130X_mcRun3_2022_realistic_v5-v2/2540000/2d87d81c-9012-41ce-9ac5-976255ab29f2.root",
        "T2_BE_IIHE: davs://maite.iihe.ac.be:2880/pnfs/iihe/cms/ph/sc4/store/mc/Run3Summer22NanoAODv12/DYto2Mu_MLL-50to120_TuneCP5_13p6TeV_powheg-pythia8/NANOAODSIM/130X_mcRun3_2022_realistic_v5-v2/2540000/2d87d81c-9012-41ce-9ac5-976255ab29f2.root",
        "T2_US_Purdue: davs://eos.cms.rcac.purdue.edu:9000/store/mc/Run3Summer22NanoAODv12/DYto2Mu_MLL-50to120_TuneCP5_13p6TeV_powheg-pythia8/NANOAODSIM/130X_mcRun3_2022_realistic_v5-v2/2540000/2d87d81c-9012-41ce-9ac5-976255ab29f2.root",
        "T2_ES_CIEMAT: davs://srm.ciemat.es:2880/pnfs/ciemat.es/data/cms/prod/store/mc/Run3Summer22NanoAODv12/DYto2Mu_MLL-50to120_TuneCP5_13p6TeV_powheg-pythia8/NANOAODSIM/130X_mcRun3_2022_realistic_v5-v2/2540000/2d87d81c-9012-41ce-9ac5-976255ab29f2.root",
        "T2_DE_RWTH: davs://grid-webdav.physik.rwth-aachen.de:2889/store/mc/Run3Summer22NanoAODv12/DYto2Mu_MLL-50to120_TuneCP5_13p6TeV_powheg-pythia8/NANOAODSIM/130X_mcRun3_2022_realistic_v5-v2/2540000/2d87d81c-9012-41ce-9ac5-976255ab29f2.root",
        "T2_IN_TIFR: davs://se01.indiacms.res.in:443/dpm/indiacms.res.in/home/cms/store/mc/Run3Summer22NanoAODv12/DYto2Mu_MLL-50to120_TuneCP5_13p6TeV_powheg-pythia8/NANOAODSIM/130X_mcRun3_2022_realistic_v5-v2/2540000/2d87d81c-9012-41ce-9ac5-976255ab29f2.root"
    ],
    "cms:/store/mc/Run3Summer22NanoAODv12/DYto2Mu_MLL-50to120_TuneCP5_13p6TeV_powheg-pythia8/NANOAODSIM/130X_mcRun3_2022_realistic_v5-v2/2540000/48f3bd5c-d1b5-443d-a7ba-8a0958fabf7b.root": [
        "T1_DE_KIT_Disk: davs://cmsdcache-kit-disk.gridka.de:2880/pnfs/gridka.de/cms/disk-only/store/mc/Run3Summer22NanoAODv12/DYto2Mu_MLL-50to120_TuneCP5_13p6TeV_powheg-pythia8/NANOAODSIM/130X_mcRun3_2022_realistic_v5-v2/2540000/48f3bd5c-d1b5-443d-a7ba-8a0958fabf7b.root",
        "T1_DE_KIT_Tape: davs://cmsdcache-kit-tape.gridka.de:2880/pnfs/gridka.de/cms/tape/store/mc/Run3Summer22NanoAODv12/DYto2Mu_MLL-50to120_TuneCP5_13p6TeV_powheg-pythia8/NANOAODSIM/130X_mcRun3_2022_realistic_v5-v2/2540000/48f3bd5c-d1b5-443d-a7ba-8a0958fabf7b.root",
        "T2_CH_CERN: davs://eoscms.cern.ch:443/eos/cms/store/mc/Run3Summer22NanoAODv12/DYto2Mu_MLL-50to120_TuneCP5_13p6TeV_powheg-pythia8/NANOAODSIM/130X_mcRun3_2022_realistic_v5-v2/2540000/48f3bd5c-d1b5-443d-a7ba-8a0958fabf7b.root",
        "T2_US_Florida: davs://cmsio2.rc.ufl.edu:1094/store/mc/Run3Summer22NanoAODv12/DYto2Mu_MLL-50to120_TuneCP5_13p6TeV_powheg-pythia8/NANOAODSIM/130X_mcRun3_2022_realistic_v5-v2/2540000/48f3bd5c-d1b5-443d-a7ba-8a0958fabf7b.root",
        "T2_BE_IIHE: davs://maite.iihe.ac.be:2880/pnfs/iihe/cms/ph/sc4/store/mc/Run3Summer22NanoAODv12/DYto2Mu_MLL-50to120_TuneCP5_13p6TeV_powheg-pythia8/NANOAODSIM/130X_mcRun3_2022_realistic_v5-v2/2540000/48f3bd5c-d1b5-443d-a7ba-8a0958fabf7b.root",
        "T2_US_Purdue: davs://eos.cms.rcac.purdue.edu:9000/store/mc/Run3Summer22NanoAODv12/DYto2Mu_MLL-50to120_TuneCP5_13p6TeV_powheg-pythia8/NANOAODSIM/130X_mcRun3_2022_realistic_v5-v2/2540000/48f3bd5c-d1b5-443d-a7ba-8a0958fabf7b.root",
        "T1_RU_JINR_Disk: davs://se-wbdv.jinr-t1.ru:2880/pnfs/jinr-t1.ru/data/cms/store/mc/Run3Summer22NanoAODv12/DYto2Mu_MLL-50to120_TuneCP5_13p6TeV_powheg-pythia8/NANOAODSIM/130X_mcRun3_2022_realistic_v5-v2/2540000/48f3bd5c-d1b5-443d-a7ba-8a0958fabf7b.root",
        "T2_ES_CIEMAT: davs://srm.ciemat.es:2880/pnfs/ciemat.es/data/cms/prod/store/mc/Run3Summer22NanoAODv12/DYto2Mu_MLL-50to120_TuneCP5_13p6TeV_powheg-pythia8/NANOAODSIM/130X_mcRun3_2022_realistic_v5-v2/2540000/48f3bd5c-d1b5-443d-a7ba-8a0958fabf7b.root",
        "T2_DE_RWTH: davs://grid-webdav.physik.rwth-aachen.de:2889/store/mc/Run3Summer22NanoAODv12/DYto2Mu_MLL-50to120_TuneCP5_13p6TeV_powheg-pythia8/NANOAODSIM/130X_mcRun3_2022_realistic_v5-v2/2540000/48f3bd5c-d1b5-443d-a7ba-8a0958fabf7b.root",
        "T2_IN_TIFR: davs://se01.indiacms.res.in:443/dpm/indiacms.res.in/home/cms/store/mc/Run3Summer22NanoAODv12/DYto2Mu_MLL-50to120_TuneCP5_13p6TeV_powheg-pythia8/NANOAODSIM/130X_mcRun3_2022_realistic_v5-v2/2540000/48f3bd5c-d1b5-443d-a7ba-8a0958fabf7b.root"
    ],
    "cms:/store/mc/Run3Summer22NanoAODv12/DYto2Mu_MLL-50to120_TuneCP5_13p6TeV_powheg-pythia8/NANOAODSIM/130X_mcRun3_2022_realistic_v5-v2/30000/07b85d75-55dc-4520-9397-c9c22b2d9b22.root": [
        "T1_DE_KIT_Disk: davs://cmsdcache-kit-disk.gridka.de:2880/pnfs/gridka.de/cms/disk-only/store/mc/Run3Summer22NanoAODv12/DYto2Mu_MLL-50to120_TuneCP5_13p6TeV_powheg-pythia8/NANOAODSIM/130X_mcRun3_2022_realistic_v5-v2/30000/07b85d75-55dc-4520-9397-c9c22b2d9b22.root",
        "T1_DE_KIT_Tape: davs://cmsdcache-kit-tape.gridka.de:2880/pnfs/gridka.de/cms/tape/store/mc/Run3Summer22NanoAODv12/DYto2Mu_MLL-50to120_TuneCP5_13p6TeV_powheg-pythia8/NANOAODSIM/130X_mcRun3_2022_realistic_v5-v2/30000/07b85d75-55dc-4520-9397-c9c22b2d9b22.root",
        "T2_CH_CERN: davs://eoscms.cern.ch:443/eos/cms/store/mc/Run3Summer22NanoAODv12/DYto2Mu_MLL-50to120_TuneCP5_13p6TeV_powheg-pythia8/NANOAODSIM/130X_mcRun3_2022_realistic_v5-v2/30000/07b85d75-55dc-4520-9397-c9c22b2d9b22.root",
        "T2_US_Florida: davs://cmsio2.rc.ufl.edu:1094/store/mc/Run3Summer22NanoAODv12/DYto2Mu_MLL-50to120_TuneCP5_13p6TeV_powheg-pythia8/NANOAODSIM/130X_mcRun3_2022_realistic_v5-v2/30000/07b85d75-55dc-4520-9397-c9c22b2d9b22.root",
        "T2_BE_IIHE: davs://maite.iihe.ac.be:2880/pnfs/iihe/cms/ph/sc4/store/mc/Run3Summer22NanoAODv12/DYto2Mu_MLL-50to120_TuneCP5_13p6TeV_powheg-pythia8/NANOAODSIM/130X_mcRun3_2022_realistic_v5-v2/30000/07b85d75-55dc-4520-9397-c9c22b2d9b22.root",
        "T2_US_Purdue: davs://eos.cms.rcac.purdue.edu:9000/store/mc/Run3Summer22NanoAODv12/DYto2Mu_MLL-50to120_TuneCP5_13p6TeV_powheg-pythia8/NANOAODSIM/130X_mcRun3_2022_realistic_v5-v2/30000/07b85d75-55dc-4520-9397-c9c22b2d9b22.root",
        "T2_ES_CIEMAT: davs://srm.ciemat.es:2880/pnfs/ciemat.es/data/cms/prod/store/mc/Run3Summer22NanoAODv12/DYto2Mu_MLL-50to120_TuneCP5_13p6TeV_powheg-pythia8/NANOAODSIM/130X_mcRun3_2022_realistic_v5-v2/30000/07b85d75-55dc-4520-9397-c9c22b2d9b22.root",
        "T2_DE_RWTH: davs://grid-webdav.physik.rwth-aachen.de:2889/store/mc/Run3Summer22NanoAODv12/DYto2Mu_MLL-50to120_TuneCP5_13p6TeV_powheg-pythia8/NANOAODSIM/130X_mcRun3_2022_realistic_v5-v2/30000/07b85d75-55dc-4520-9397-c9c22b2d9b22.root",
        "T2_IN_TIFR: davs://se01.indiacms.res.in:443/dpm/indiacms.res.in/home/cms/store/mc/Run3Summer22NanoAODv12/DYto2Mu_MLL-50to120_TuneCP5_13p6TeV_powheg-pythia8/NANOAODSIM/130X_mcRun3_2022_realistic_v5-v2/30000/07b85d75-55dc-4520-9397-c9c22b2d9b22.root"
    ],
    "cms:/store/mc/Run3Summer22NanoAODv12/DYto2Mu_MLL-50to120_TuneCP5_13p6TeV_powheg-pythia8/NANOAODSIM/130X_mcRun3_2022_realistic_v5-v2/40000/a27b480e-5b82-4030-9263-4c2cb0130832.root": [
        "T1_DE_KIT_Disk: davs://cmsdcache-kit-disk.gridka.de:2880/pnfs/gridka.de/cms/disk-only/store/mc/Run3Summer22NanoAODv12/DYto2Mu_MLL-50to120_TuneCP5_13p6TeV_powheg-pythia8/NANOAODSIM/130X_mcRun3_2022_realistic_v5-v2/40000/a27b480e-5b82-4030-9263-4c2cb0130832.root",
        "T1_DE_KIT_Tape: davs://cmsdcache-kit-tape.gridka.de:2880/pnfs/gridka.de/cms/tape/store/mc/Run3Summer22NanoAODv12/DYto2Mu_MLL-50to120_TuneCP5_13p6TeV_powheg-pythia8/NANOAODSIM/130X_mcRun3_2022_realistic_v5-v2/40000/a27b480e-5b82-4030-9263-4c2cb0130832.root",
        "T2_CH_CERN: davs://eoscms.cern.ch:443/eos/cms/store/mc/Run3Summer22NanoAODv12/DYto2Mu_MLL-50to120_TuneCP5_13p6TeV_powheg-pythia8/NANOAODSIM/130X_mcRun3_2022_realistic_v5-v2/40000/a27b480e-5b82-4030-9263-4c2cb0130832.root",
        "T2_US_Florida: davs://cmsio2.rc.ufl.edu:1094/store/mc/Run3Summer22NanoAODv12/DYto2Mu_MLL-50to120_TuneCP5_13p6TeV_powheg-pythia8/NANOAODSIM/130X_mcRun3_2022_realistic_v5-v2/40000/a27b480e-5b82-4030-9263-4c2cb0130832.root",
        "T2_BE_IIHE: davs://maite.iihe.ac.be:2880/pnfs/iihe/cms/ph/sc4/store/mc/Run3Summer22NanoAODv12/DYto2Mu_MLL-50to120_TuneCP5_13p6TeV_powheg-pythia8/NANOAODSIM/130X_mcRun3_2022_realistic_v5-v2/40000/a27b480e-5b82-4030-9263-4c2cb0130832.root",
        "T2_US_Purdue: davs://eos.cms.rcac.purdue.edu:9000/store/mc/Run3Summer22NanoAODv12/DYto2Mu_MLL-50to120_TuneCP5_13p6TeV_powheg-pythia8/NANOAODSIM/130X_mcRun3_2022_realistic_v5-v2/40000/a27b480e-5b82-4030-9263-4c2cb0130832.root",
        "T2_ES_CIEMAT: davs://srm.ciemat.es:2880/pnfs/ciemat.es/data/cms/prod/store/mc/Run3Summer22NanoAODv12/DYto2Mu_MLL-50to120_TuneCP5_13p6TeV_powheg-pythia8/NANOAODSIM/130X_mcRun3_2022_realistic_v5-v2/40000/a27b480e-5b82-4030-9263-4c2cb0130832.root",
        "T2_DE_RWTH: davs://grid-webdav.physik.rwth-aachen.de:2889/store/mc/Run3Summer22NanoAODv12/DYto2Mu_MLL-50to120_TuneCP5_13p6TeV_powheg-pythia8/NANOAODSIM/130X_mcRun3_2022_realistic_v5-v2/40000/a27b480e-5b82-4030-9263-4c2cb0130832.root",
        "T2_IN_TIFR: davs://se01.indiacms.res.in:443/dpm/indiacms.res.in/home/cms/store/mc/Run3Summer22NanoAODv12/DYto2Mu_MLL-50to120_TuneCP5_13p6TeV_powheg-pythia8/NANOAODSIM/130X_mcRun3_2022_realistic_v5-v2/40000/a27b480e-5b82-4030-9263-4c2cb0130832.root"
    ]
}