+------------------------------------------------------------------------------------------------------------------------------------------------------------------------------------------------+--------+-------------+------------+----------+
| SCOPE:NAME                                                                                                                                                                                     | GUID   | ADLER32     | FILESIZE   | EVENTS   |
|------------------------------------------------------------------------------------------------------------------------------------------------------------------------------------------------+--------+-------------+------------+----------|
| cms:/store/mc/Run3Summer22NanoAODv12/DYto2L-2Jets_MLL-50_1J_TuneCP5_13p6TeV_amcatnloFXFX-pythia8/NANOAODSIM/130X_mcRun3_2022_realistic_v5-v2/30000/3ced3a21-fb18-420f-9665-5a4d94be01f9.root   | (None) | ad:c5768a47 | 1.570 GB   |          |
| cms:/store/mc/Run3Summer22NanoAODv12/DYto2L-2Jets_MLL-50_1J_TuneCP5_13p6TeV_amcatnloFXFX-pythia8/NANOAODSIM/130X_mcRun3_2022_realistic_v5-v2/30000/cda37ced-e8a0-4856-a078-2d92443f006c.root   | (None) | ad:4417882d | 128.572 MB |          |
| cms:/store/mc/Run3Summer22NanoAODv12/DYto2L-2Jets_MLL-50_1J_TuneCP5_13p6TeV_amcatnloFXFX-pythia8/NANOAODSIM/130X_mcRun3_2022_realistic_v5-v2/50000/424e8803-06dd-41f7-a92a-80feffc9a215.root   | (None) | ad:2ddc1ac9 | 686.525 MB |          |
| cms:/store/mc/Run3Summer22NanoAODv12/DYto2L-2Jets_MLL-50_1J_TuneCP5_13p6TeV_amcatnloFXFX-pythia8/NANOAODSIM/130X_mcRun3_2022_realistic_v5-v2/30000/099366b4-0c50-43b9-b7b6-9bcf497f39c6.root   | (None) | ad:8409c6fe | 1.205 GB   |          |
| cms:/store/mc/Run3Summer22NanoAODv12/DYto2L-2Jets_MLL-50_1J_TuneCP5_13p6TeV_amcatnloFXFX-pythia8/NANOAODSIM/130X_mcRun3_2022_realistic_v5-v2/30000/0e283035-45dd-4eea-9ee8-b4ea5c040b20.root   | (None) | ad:934e0fd9 | 949.206 MB |          |
| cms:/store/mc/Run3Summer22NanoAODv12/DYto2L-2Jets_MLL-50_1J_TuneCP5_13p6TeV_amcatnloFXFX-pythia8/NANOAODSIM/130X_mcRun3_2022_realistic_v5-v2/30000/4b23eafc-d7a0-4170-b2ab-f8be219921ad.root   | (None) | ad:9c70035e | 1.483 GB   |          |
| cms:/store/mc/Run3Summer22NanoAODv12/DYto2L-2Jets_MLL-50_1J_TuneCP5_13p6TeV_amcatnloFXFX-pythia8/NANOAODSIM/130X_mcRun3_2022_realistic_v5-v2/30000/4de9777e-2f88-468f-ac91-1cd7756e6aba.root   | (None) | ad:4215b29e | 1.897 GB   |          |
| cms:/store/mc/Run3Summer22NanoAODv12/DYto2L-2Jets_MLL-50_1J_TuneCP5_13p6TeV_amcatnloFXFX-pythia8/NANOAODSIM/130X_mcRun3_2022_realistic_v5-v2/30000/540dc160-2428-40b5-9b4f-c261ae7173d5.root   | (None) | ad:27c715da | 40.486 MB  |          |
| cms:/store/mc/Run3Summer22NanoAODv12/DYto2L-2Jets_MLL-50_1J_TuneCP5_13p6TeV_amcatnloFXFX-pythia8/NANOAODSIM/130X_mcRun3_2022_realistic_v5-v2/30000/7fc42dad-e156-4740-82ad-7345b7d12632.root   | (None) | ad:151809b9 | 1.457 GB   |          |
| cms:/store/mc/Run3Summer22NanoAODv12/DYto2L-2Jets_MLL-50_1J_TuneCP5_13p6TeV_amcatnloFXFX-pythia8/NANOAODSIM/130X_mcRun3_2022_realistic_v5-v2/30000/a30ba7eb-8272-4400-b674-6d40f7ce4b16.root   | (None) | ad:20a434e9 | 1.036 GB   |          |
| cms:/store/mc/Run3Summer22NanoAODv12/DYto2L-2Jets_MLL-50_1J_TuneCP5_13p6TeV_amcatnloFXFX-pythia8/NANOAODSIM/130X_mcRun3_2022_realistic_v5-v2/30000/e241da2b-b71f-4d78-bb79-f59f24590571.root   | (None) | ad:ce0fd48a | 399.251 MB |          |
| cms:/store/mc/Run3Summer22NanoAODv12/DYto2L-2Jets_MLL-50_1J_TuneCP5_13p6TeV_amcatnloFXFX-pythia8/NANOAODSIM/130X_mcRun3_2022_realistic_v5-v2/30000/e5b09d9f-69e4-48a3-9456-4d7bebf95928.root   | (None) | ad:33e7ef6a | 1.272 GB   |          |
| cms:/store/mc/Run3Summer22NanoAODv12/DYto2L-2Jets_MLL-50_1J_TuneCP5_13p6TeV_amcatnloFXFX-pythia8/NANOAODSIM/130X_mcRun3_2022_realistic_v5-v2/2520000/69e268e3-50e4-4479-9265-28b4023f424b.root | (None) | ad:9c8348c7 | 412.242 MB |          |
| cms:/store/mc/Run3Summer22NanoAODv12/DYto2L-2Jets_MLL-50_1J_TuneCP5_13p6TeV_amcatnloFXFX-pythia8/NANOAODSIM/130X_mcRun3_2022_realistic_v5-v2/2520000/775f5c18-95b2-4732-bdeb-133b61ba1d8c.root | (None) | ad:95c3e2c0 | 1.044 GB   |          |
| cms:/store/mc/Run3Summer22NanoAODv12/DYto2L-2Jets_MLL-50_1J_TuneCP5_13p6TeV_amcatnloFXFX-pythia8/NANOAODSIM/130X_mcRun3_2022_realistic_v5-v2/2520000/96a6e33d-0bfd-42e2-ba76-b51ca89b3ee4.root | (None) | ad:bb02a3a0 | 1.048 GB   |          |
| cms:/store/mc/Run3Summer22NanoAODv12/DYto2L-2Jets_MLL-50_1J_TuneCP5_13p6TeV_amcatnloFXFX-pythia8/NANOAODSIM/130X_mcRun3_2022_realistic_v5-v2/30000/eed0b653-3fc9-462b-ba35-f5608e5fd76a.root   | (None) | ad:543d2374 | 850.522 MB |          |
| cms:/store/mc/Run3Summer22NanoAODv12/DYto2L-2Jets_MLL-50_1J_TuneCP5_13p6TeV_amcatnloFXFX-pythia8/NANOAODSIM/130X_mcRun3_2022_realistic_v5-v2/40000/70cff9cc-e7c4-4b5b-9daa-180ca60e6ea8.root   | (None) | ad:a1e1d293 | 11.094 MB  |          |
| cms:/store/mc/Run3Summer22NanoAODv12/DYto2L-2Jets_MLL-50_1J_TuneCP5_13p6TeV_amcatnloFXFX-pythia8/NANOAODSIM/130X_mcRun3_2022_realistic_v5-v2/40000/7d04f330-e789-4b91-a5bc-66f4587ac9b0.root   | (None) | ad:3ced3c97 | 34.604 MB  |          |
| cms:/store/mc/Run3Summer22NanoAODv12/DYto2L-2Jets_MLL-50_1J_TuneCP5_13p6TeV_amcatnloFXFX-pythia8/NANOAODSIM/130X_mcRun3_2022_realistic_v5-v2/40000/08d1b00e-df2c-43b0-8a7e-10eaa1a758fd.root   | (None) | ad:b549882c | 1.054 GB   |          |
| cms:/store/mc/Run3Summer22NanoAODv12/DYto2L-2Jets_MLL-50_1J_TuneCP5_13p6TeV_amcatnloFXFX-pythia8/NANOAODSIM/130X_mcRun3_2022_realistic_v5-v2/40000/0dbb5558-989c-419d-b421-a78eccd42a75.root   | (None) | ad:0594cd2b | 1.708 GB   |          |
| cms:/store/mc/Run3Summer22NanoAODv12/DYto2L-2Jets_MLL-50_1J_TuneCP5_13p6TeV_amcatnloFXFX-pythia8/NANOAODSIM/130X_mcRun3_2022_realistic_v5-v2/40000/4edb988a-7409-4793-b62b-b0495a8f1432.root   | (None) | ad:28d3fe13 | 1.113 GB   |          |
| cms:/store/mc/Run3Summer22NanoAODv12/DYto2L-2Jets_MLL-50_1J_TuneCP5_13p6TeV_amcatnloFXFX-pythia8/NANOAODSIM/130X_mcRun3_2022_realistic_v5-v2/40000/9005ed38-8cda-4b2e-bdc5-9f522fd30e43.root   | (None) | ad:24263ec8 | 165.350 MB |          |
| cms:/store/mc/Run3Summer22NanoAODv12/DYto2L-2Jets_MLL-50_1J_TuneCP5_13p6TeV_amcatnloFXFX-pythia8/NANOAODSIM/130X_mcRun3_2022_realistic_v5-v2/2530000/6a3c6f02-78c3-422d-8f6f-1d8215122044.root | (None) | ad:e0844413 | 509.019 MB |          |
| cms:/store/mc/Run3Summer22NanoAODv12/DYto2L-2Jets_MLL-50_1J_TuneCP5_13p6TeV_amcatnloFXFX-pythia8/NANOAODSIM/130X_mcRun3_2022_realistic_v5-v2/2530000/ba031e5d-cf89-4d3a-9870-cf3b81a70623.root | (None) | ad:f9c55ff9 | 4.010 MB   |          |
| cms:/store/mc/Run3Summer22NanoAODv12/DYto2L-2Jets_MLL-50_1J_TuneCP5_13p6TeV_amcatnloFXFX-pythia8/NANOAODSIM/130X_mcRun3_2022_realistic_v5-v2/2520000/764a1615-10e7-428c-a0ab-5a2fe9db229d.root | (None) | ad:3a095466 | 250.317 MB |          |
| cms:/store/mc/Run3Summer22NanoAODv12/DYto2L-2Jets_MLL-50_1J_TuneCP5_13p6TeV_amcatnloFXFX-pythia8/NANOAODSIM/130X_mcRun3_2022_realistic_v5-v2/30000/588d1c4c-6d63-4ba8-93ee-380eab4a095d.root   | (None) | ad:deaaa1dd | 291.300 MB |          |
| cms:/store/mc/Run3Summer22NanoAODv12/DYto2L-2Jets_MLL-50_1J_TuneCP5_13p6TeV_amcatnloFXFX-pythia8/NANOAODSIM/130X_mcRun3_2022_realistic_v5-v2/30000/6640035f-679f-45e3-82af-8ef6cfadfb1c.root   | (None) | ad:df8bf56c | 33.816 MB  |          |
| cms:/store/mc/Run3Summer22NanoAODv12/DYto2L-2Jets_MLL-50_1J_TuneCP5_13p6TeV_amcatnloFXFX-pythia8/NANOAODSIM/130X_mcRun3_2022_realistic_v5-v2/2520000/9250793b-1ccb-4ab3-8b18-3f1c9b3f5dec.root | (None) | ad:32efb24b | 1.091 GB   |          |
| cms:/store/mc/Run3Summer22NanoAODv12/DYto2L-2Jets_MLL-50_1J_TuneCP5_13p6TeV_amcatnloFXFX-pythia8/NANOAODSIM/130X_mcRun3_2022_realistic_v5-v2/2520000/aa42b7dd-95ec-4889-9224-a34eefb8f722.root | (None) | ad:e6495022 | 66.517 MB  |          |
| cms:/store/mc/Run3Summer22NanoAODv12/DYto2L-2Jets_MLL-50_1J_TuneCP5_13p6TeV_amcatnloFXFX-pythia8/NANOAODSIM/130X_mcRun3_2022_realistic_v5-v2/50000/3ccb2573-c9e4-4f4f-8355-a4e7b2ab3e3c.root   | (None) | ad:88da52c5 | 388.867 MB |          |
| cms:/store/mc/Run3Summer22NanoAODv12/DYto2L-2Jets_MLL-50_1J_TuneCP5_13p6TeV_amcatnloFXFX-pythia8/NANOAODSIM/130X_mcRun3_2022_realistic_v5-v2/40000/48d19ef2-e96e-44eb-9a03-06f9b29fde9c.root   | (None) | ad:dcd849bb | 256.317 MB |          |
| cms:/store/mc/Run3Summer22NanoAODv12/DYto2L-2Jets_MLL-50_1J_TuneCP5_13p6TeV_amcatnloFXFX-pythia8/NANOAODSIM/130X_mcRun3_2022_realistic_v5-v2/40000/d2174c69-c46a-4d70-8176-a44f592d67c8.root   | (None) | ad:96174a83 | 1.038 GB   |          |
| cms:/store/mc/Run3Summer22NanoAODv12/DYto2L-2Jets_MLL-50_1J_TuneCP5_13p6TeV_amcatnloFXFX-pythia8/NANOAODSIM/130X_mcRun3_2022_realistic_v5-v2/40000/0ff608b7-4f2c-4bfc-b3fb-ecc080521659.root   | (None) | ad:2f64cd13 | 129.527 MB |          |
| cms:/store/mc/Run3Summer22NanoAODv12/DYto2L-2Jets_MLL-50_1J_TuneCP5_13p6TeV_amcatnloFXFX-pythia8/NANOAODSIM/130X_mcRun3_2022_realistic_v5-v2/40000/1611a09f-294b-47db-a32e-5bdfd1ce9f63.root   | (None) | ad:7fb2e372 | 1.257 GB   |          |
| cms:/store/mc/Run3Summer22NanoAODv12/DYto2L-2Jets_MLL-50_1J_TuneCP5_13p6TeV_amcatnloFXFX-pythia8/NANOAODSIM/130X_mcRun3_2022_realistic_v5-v2/40000/290e4899-2355-41d4-bfef-b062933a5748.root   | (None) | ad:f96687c5 | 1.708 GB   |          |
| cms:/store/mc/Run3Summer22NanoAODv12/DYto2L-2Jets_MLL-50_1J_TuneCP5_13p6TeV_amcatnloFXFX-pythia8/NANOAODSIM/130X_mcRun3_2022_realistic_v5-v2/40000/4ab03aff-4edf-4ae1-b909-adf18c68a335.root   | (None) | ad:633629d2 | 982.833 MB |          |
| cms:/store/mc/Run3Summer22NanoAODv12/DYto2L-2Jets_MLL-50_1J_TuneCP5_13p6TeV_amcatnloFXFX-pythia8/NANOAODSIM/130X_mcRun3_2022_realistic_v5-v2/30000/7c25475d-d546-4dcb-b82b-5cc5e7634f41.root   | (None) | ad:073d84cb | 192.509 MB |          |
| cms:/store/mc/Run3Summer22NanoAODv12/DYto2L-2Jets_MLL-50_1J_TuneCP5_13p6TeV_amcatnloFXFX-pythia8/NANOAODSIM/130X_mcRun3_2022_realistic_v5-v2/40000/7db99466-10c1-4ddd-a589-18aa8533fd11.root   | (None) | ad:46c6d2a0 | 102.998 MB |          |
| cms:/store/mc/Run3Summer22NanoAODv12/DYto2L-2Jets_MLL-50_1J_TuneCP5_13p6TeV_amcatnloFXFX-pythia8/NANOAODSIM/130X_mcRun3_2022_realistic_v5-v2/40000/0d5c1c2d-248a-4906-9162-b36cc1443246.root   | (None) | ad:023e8301 | 5.458 MB   |          |
| cms:/store/mc/Run3Summer22NanoAODv12/DYto2L-2Jets_MLL-50_1J_TuneCP5_13p6TeV_amcatnloFXFX-pythia8/NANOAODSIM/130X_mcRun3_2022_realistic_v5-v2/30000/28f0a422-56de-478c-9d05-9f2d3be82005.root   | (None) | ad:145f618e | 676.407 MB |          |
| cms:/store/mc/Run3Summer22NanoAODv12/DYto2L-2Jets_MLL-50_1J_TuneCP5_13p6TeV_amcatnloFXFX-pythia8/NANOAODSIM/130X_mcRun3_2022_realistic_v5-v2/30000/3c7a2fc0-91b6-44fc-b49b-4d969ef832ba.root   | (None) | ad:fa99b4ab | 1.050 GB   |          |
| cms:/store/mc/Run3Summer22NanoAODv12/DYto2L-2Jets_MLL-50_1J_TuneCP5_13p6TeV_amcatnloFXFX-pythia8/NANOAODSIM/130X_mcRun3_2022_realistic_v5-v2/30000/6c314df0-4ed9-4d4c-ba1b-6afa208612a7.root   | (None) | ad:b52686cc | 1.132 GB   |          |
| cms:/store/mc/Run3Summer22NanoAODv12/DYto2L-2Jets_MLL-50_1J_TuneCP5_13p6TeV_amcatnloFXFX-pythia8/NANOAODSIM/130X_mcRun3_2022_realistic_v5-v2/40000/187fbdb6-0fce-4b58-be7c-1b89dfe4ea92.root   | (None) | ad:17423a8b | 5.630 MB   |          |
| cms:/store/mc/Run3Summer22NanoAODv12/DYto2L-2Jets_MLL-50_1J_TuneCP5_13p6TeV_amcatnloFXFX-pythia8/NANOAODSIM/130X_mcRun3_2022_realistic_v5-v2/40000/8f6e1462-0279-44e8-84b1-4226bcf3afb3.root   | (None) | ad:29d9a047 | 1.023 GB   |          |
| cms:/store/mc/Run3Summer22NanoAODv12/DYto2L-2Jets_MLL-50_1J_TuneCP5_13p6TeV_amcatnloFXFX-pythia8/NANOAODSIM/130X_mcRun3_2022_realistic_v5-v2/40000/99089b3f-deed-4819-8946-ef7319d4a1e7.root   | (None) | ad:7d5ca16c | 1.028 GB   |          |
| cms:/store/mc/Run3Summer22NanoAODv12/DYto2L-2Jets_MLL-50_1J_TuneCP5_13p6TeV_amcatnloFXFX-pythia8/NANOAODSIM/130X_mcRun3_2022_realistic_v5-v2/40000/eb144340-e9f5-4934-8eba-2443c3b33687.root   | (None) | ad:92d6795f | 985.202 MB |          |
| cms:/store/mc/Run3Summer22NanoAODv12/DYto2L-2Jets_MLL-50_1J_TuneCP5_13p6TeV_amcatnloFXFX-pythia8/NANOAODSIM/130X_mcRun3_2022_realistic_v5-v2/30000/2417d2cb-3e06-4a2f-9f29-741eccf9c827.root   | (None) | ad:f8a5073b | 303.024 MB |          |
| cms:/store/mc/Run3Summer22NanoAODv12/DYto2L-2Jets_MLL-50_1J_TuneCP5_13p6TeV_amcatnloFXFX-pythia8/NANOAODSIM/130X_mcRun3_2022_realistic_v5-v2/40000/482f8f5e-305a-4823-ac5f-8d0a341661ba.root   | (None) | ad:112da17c | 40.997 MB  |          |
| cms:/store/mc/Run3Summer22NanoAODv12/DYto2L-2Jets_MLL-50_1J_TuneCP5_13p6TeV_amcatnloFXFX-pythia8/NANOAODSIM/130X_mcRun3_2022_realistic_v5-v2/40000/ce7def7a-f4c0-44c2-a7e0-1ebdb3a3db8e.root   | (None) | ad:006ec360 | 29.570 MB  |          |
| cms:/store/mc/Run3Summer22NanoAODv12/DYto2L-2Jets_MLL-50_1J_TuneCP5_13p6TeV_amcatnloFXFX-pythia8/NANOAODSIM/130X_mcRun3_2022_realistic_v5-v2/2530000/cf7387a4-b711-4771-b344-f19280b74ad3.root | (None) | ad:d438594f | 6.700 MB   |          |
| cms:/store/mc/Run3Summer22NanoAODv12/DYto2L-2Jets_MLL-50_1J_TuneCP5_13p6TeV_amcatnloFXFX-pythia8/NANOAODSIM/130X_mcRun3_2022_realistic_v5-v2/50000/73085059-e9dc-4e24-8f50-47cc6d4807fa.root   | (None) | ad:8290778c | 446.228 MB |          |
| cms:/store/mc/Run3Summer22NanoAODv12/DYto2L-2Jets_MLL-50_1J_TuneCP5_13p6TeV_amcatnloFXFX-pythia8/NANOAODSIM/130X_mcRun3_2022_realistic_v5-v2/50000/daaf71d1-fe71-4f71-881e-0af337221226.root   | (None) | ad:3d84ac22 | 1.385 GB   |          |
| cms:/store/mc/Run3Summer22NanoAODv12/DYto2L-2Jets_MLL-50_1J_TuneCP5_13p6TeV_amcatnloFXFX-pythia8/NANOAODSIM/130X_mcRun3_2022_realistic_v5-v2/50000/70bdc4cc-fca7-4b38-ad2d-5eca8eb92ea5.root   | (None) | ad:54a6171f | 366.696 MB |          |
| cms:/store/mc/Run3Summer22NanoAODv12/DYto2L-2Jets_MLL-50_1J_TuneCP5_13p6TeV_amcatnloFXFX-pythia8/NANOAODSIM/130X_mcRun3_2022_realistic_v5-v2/50000/7cfc21eb-a2db-4998-8e08-e8f4e1021610.root   | (None) | ad:67b17570 | 815.725 MB |          |
| cms:/store/mc/Run3Summer22NanoAODv12/DYto2L-2Jets_MLL-50_1J_TuneCP5_13p6TeV_amcatnloFXFX-pythia8/NANOAODSIM/130X_mcRun3_2022_realistic_v5-v2/40000/60e45be8-62cd-4eea-9b11-24334ca03cda.root   | (None) | ad:73f88aad | 318.115 MB |          |
| cms:/store/mc/Run3Summer22NanoAODv12/DYto2L-2Jets_MLL-50_1J_TuneCP5_13p6TeV_amcatnloFXFX-pythia8/NANOAODSIM/130X_mcRun3_2022_realistic_v5-v2/2520000/cf29a37e-c7b7-4007-97a8-140f1813d7b8.root | (None) | ad:7c49560e | 394.979 MB |          |
| cms:/store/mc/Run3Summer22NanoAODv12/DYto2L-2Jets_MLL-50_1J_TuneCP5_13p6TeV_amcatnloFXFX-pythia8/NANOAODSIM/130X_mcRun3_2022_realistic_v5-v2/30000/ef45ef14-029b-4179-ab41-ab863267d87e.root   | (None) | ad:5ee35985 | 224.459 MB |          |
| cms:/store/mc/Run3Summer22NanoAODv12/DYto2L-2Jets_MLL-50_1J_TuneCP5_13p6TeV_amcatnloFXFX-pythia8/NANOAODSIM/130X_mcRun3_2022_realistic_v5-v2/2530000/35aa6380-34c7-46fa-8093-457b07c4361e.root | (None) | ad:a1ff120e | 591.495 MB |          |
| cms:/store/mc/Run3Summer22NanoAODv12/DYto2L-2Jets_MLL-50_1J_TuneCP5_13p6TeV_amcatnloFXFX-pythia8/NANOAODSIM/130X_mcRun3_2022_realistic_v5-v2/2530000/a823dbdd-1345-4d78-8d9a-ab96001d203d.root | (None) | ad:5f91c740 | 972.502 MB |          |
| cms:/store/mc/Run3Summer22NanoAODv12/DYto2L-2Jets_MLL-50_1J_TuneCP5_13p6TeV_amcatnloFXFX-pythia8/NANOAODSIM/130X_mcRun3_2022_realistic_v5-v2/40000/5f75802a-e337-47f0-a88c-5d8364cc208b.root   | (None) | ad:d79368e3 | 486.525 MB |          |
| cms:/store/mc/Run3Summer22NanoAODv12/DYto2L-2Jets_MLL-50_1J_TuneCP5_13p6TeV_amcatnloFXFX-pythia8/NANOAODSIM/130X_mcRun3_2022_realistic_v5-v2/2530000/7dfb1e41-04e7-47f6-8766-a6512fd9e3ef.root | (None) | ad:fa1acf1b | 4.064 MB   |          |
| cms:/store/mc/Run3Summer22NanoAODv12/DYto2L-2Jets_MLL-50_1J_TuneCP5_13p6TeV_amcatnloFXFX-pythia8/NANOAODSIM/130X_mcRun3_2022_realistic_v5-v2/2520000/0d4faf66-d3e5-4719-ac42-792c56b0c9f9.root | (None) | ad:6e53765c | 18.699 MB  |          |
| cms:/store/mc/Run3Summer22NanoAODv12/DYto2L-2Jets_MLL-50_1J_TuneCP5_13p6TeV_amcatnloFXFX-pythia8/NANOAODSIM/130X_mcRun3_2022_realistic_v5-v2/40000/17f6dfaa-269b-4a81-8c7f-488697e9de70.root   | (None) | ad:f106dd8c | 985.946 MB |          |
| cms:/store/mc/Run3Summer22NanoAODv12/DYto2L-2Jets_MLL-50_1J_TuneCP5_13p6TeV_amcatnloFXFX-pythia8/NANOAODSIM/130X_mcRun3_2022_realistic_v5-v2/40000/acf6dd6d-30f6-42fc-9478-532103c38a73.root   | (None) | ad:2fda115d | 350.335 MB |          |
| cms:/store/mc/Run3Summer22NanoAODv12/DYto2L-2Jets_MLL-50_1J_TuneCP5_13p6TeV_amcatnloFXFX-pythia8/NANOAODSIM/130X_mcRun3_2022_realistic_v5-v2/40000/822ca7e9-38cc-4ce7-9599-865dcc3149a2.root   | (None) | ad:aa1010f8 | 415.438 MB |          |
| cms:/store/mc/Run3Summer22NanoAODv12/DYto2L-2Jets_MLL-50_1J_TuneCP5_13p6TeV_amcatnloFXFX-pythia8/NANOAODSIM/130X_mcRun3_2022_realistic_v5-v2/40000/86965a52-48a9-4f24-855f-1a3c314a48ff.root   | (None) | ad:0b8f2524 | 1.393 GB   |          |
| cms:/store/mc/Run3Summer22NanoAODv12/DYto2L-2Jets_MLL-50_1J_TuneCP5_13p6TeV_amcatnloFXFX-pythia8/NANOAODSIM/130X_mcRun3_2022_realistic_v5-v2/40000/8c55e550-d618-433c-a3d3-cd0154190527.root   | (None) | ad:eff70ad6 | 1.483 GB   |          |
| cms:/store/mc/Run3Summer22NanoAODv12/DYto2L-2Jets_MLL-50_1J_TuneCP5_13p6TeV_amcatnloFXFX-pythia8/NANOAODSIM/130X_mcRun3_2022_realistic_v5-v2/40000/f75d1ce8-a6ce-425f-b8ad-ee5da5764787.root   | (None) | ad:ab8d4bfc | 1.645 GB   |          |
| cms:/store/mc/Run3Summer22NanoAODv12/DYto2L-2Jets_MLL-50_1J_TuneCP5_13p6TeV_amcatnloFXFX-pythia8/NANOAODSIM/130X_mcRun3_2022_realistic_v5-v2/2540000/28113626-2dc6-4335-9a75-f101d4074ac5.root | (None) | ad:9c45c011 | 497.662 MB |          |
| cms:/store/mc/Run3Summer22NanoAODv12/DYto2L-2Jets_MLL-50_1J_TuneCP5_13p6TeV_amcatnloFXFX-pythia8/NANOAODSIM/130X_mcRun3_2022_realistic_v5-v2/40000/403e0269-1122-4a8f-84e3-70ebdf5b24d3.root   | (None) | ad:55fd09dd | 161.057 MB |          |
| cms:/store/mc/Run3Summer22NanoAODv12/DYto2L-2Jets_MLL-50_1J_TuneCP5_13p6TeV_amcatnloFXFX-pythia8/NANOAODSIM/130X_mcRun3_2022_realistic_v5-v2/40000/81b921af-dcb6-4b41-95ae-05ec1b208b46.root   | (None) | ad:2d5a362a | 1.044 GB   |          |
| cms:/store/mc/Run3Summer22NanoAODv12/DYto2L-2Jets_MLL-50_1J_TuneCP5_13p6TeV_amcatnloFXFX-pythia8/NANOAODSIM/130X_mcRun3_2022_realistic_v5-v2/40000/cbe881f8-fe2b-4864-a2ca-2d346c4cd6c6.root   | (None) | ad:5788db13 | 1.234 GB   |          |
| cms:/store/mc/Run3Summer22NanoAODv12/DYto2L-2Jets_MLL-50_1J_TuneCP5_13p6TeV_amcatnloFXFX-pythia8/NANOAODSIM/130X_mcRun3_2022_realistic_v5-v2/40000/d18013a7-1c76-43c3-b6a7-1c2ffa419761.root   | (None) | ad:0ba695fc | 1.045 GB   |          |
| cms:/store/mc/Run3Summer22NanoAODv12/DYto2L-2Jets_MLL-50_1J_TuneCP5_13p6TeV_amcatnloFXFX-pythia8/NANOAODSIM/130X_mcRun3_2022_realistic_v5-v2/40000/6b28dfd7-725f-4b59-8ada-e490d7b949de.root   | (None) | ad:0b23a18c | 97.373 MB  |          |
| cms:/store/mc/Run3Summer22NanoAODv12/DYto2L-2Jets_MLL-50_1J_TuneCP5_13p6TeV_amcatnloFXFX-pythia8/NANOAODSIM/130X_mcRun3_2022_realistic_v5-v2/40000/d9b09ba2-0fe1-4269-b6d1-41b9c01643ef.root   | (None) | ad:b42409f0 | 35.340 MB  |          |
| cms:/store/mc/Run3Summer22NanoAODv12/DYto2L-2Jets_MLL-50_1J_TuneCP5_13p6TeV_amcatnloFXFX-pythia8/NANOAODSIM/130X_mcRun3_2022_realistic_v5-v2/30000/20432844-ac43-4317-84e5-1ba0a09209f4.root   | (None) | ad:b241da22 | 207.362 MB |          |
| cms:/store/mc/Run3Summer22NanoAODv12/DYto2L-2Jets_MLL-50_1J_TuneCP5_13p6TeV_amcatnloFXFX-pythia8/NANOAODSIM/130X_mcRun3_2022_realistic_v5-v2/30000/231d9853-70cb-45bf-a6be-87660b1b60b6.root   | (None) | ad:30073dc3 | 1.092 GB   |          |
| cms:/store/mc/Run3Summer22NanoAODv12/DYto2L-2Jets_MLL-50_1J_TuneCP5_13p6TeV_amcatnloFXFX-pythia8/NANOAODSIM/130X_mcRun3_2022_realistic_v5-v2/30000/abcfc2f2-e163-4ce8-b692-43f78b91b846.root   | (None) | ad:c2675281 | 383.087 MB |          |
| cms:/store/mc/Run3Summer22NanoAODv12/DYto2L-2Jets_MLL-50_1J_TuneCP5_13p6TeV_amcatnloFXFX-pythia8/NANOAODSIM/130X_mcRun3_2022_realistic_v5-v2/30000/102e84e7-e755-4f03-9545-3ae890a0d63d.root   | (None) | ad:123793c7 | 1.112 GB   |          |
| cms:/store/mc/Run3Summer22NanoAODv12/DYto2L-2Jets_MLL-50_1J_TuneCP5_13p6TeV_amcatnloFXFX-pythia8/NANOAODSIM/130X_mcRun3_2022_realistic_v5-v2/30000/12e34c07-a91f-4e1f-9409-aafaf67e6063.root   | (None) | ad:7b847ad5 | 1.364 GB   |          |
| cms:/store/mc/Run3Summer22NanoAODv12/DYto2L-2Jets_MLL-50_1J_TuneCP5_13p6TeV_amcatnloFXFX-pythia8/NANOAODSIM/130X_mcRun3_2022_realistic_v5-v2/30000/61977231-d0a0-4cf8-b4aa-67e74b4ba6f9.root   | (None) | ad:c4d91816 | 1.544 GB   |          |
| cms:/store/mc/Run3Summer22NanoAODv12/DYto2L-2Jets_MLL-50_1J_TuneCP5_13p6TeV_amcatnloFXFX-pythia8/NANOAODSIM/130X_mcRun3_2022_realistic_v5-v2/30000/b8f56a52-77e4-41a0-9638-6f2843f7a0fb.root   | (None) | ad:ac03f8a7 | 34.558 MB  |          |
| cms:/store/mc/Run3Summer22NanoAODv12/DYto2L-2Jets_MLL-50_1J_TuneCP5_13p6TeV_amcatnloFXFX-pythia8/NANOAODSIM/130X_mcRun3_2022_realistic_v5-v2/30000/be8578cd-b04d-413b-a228-68acd5b48ea7.root   | (None) | ad:bd597b02 | 5.545 MB   |          |
| cms:/store/mc/Run3Summer22NanoAODv12/DYto2L-2Jets_MLL-50_1J_TuneCP5_13p6TeV_amcatnloFXFX-pythia8/NANOAODSIM/130X_mcRun3_2022_realistic_v5-v2/30000/cfd58faf-49ee-4b2d-aa4e-1085ee3931ad.root   | (None) | ad:d2533dad | 1.076 GB   |          |
| cms:/store/mc/Run3Summer22NanoAODv12/DYto2L-2Jets_MLL-50_1J_TuneCP5_13p6TeV_amcatnloFXFX-pythia8/NANOAODSIM/130X_mcRun3_2022_realistic_v5-v2/2530000/1e594a1a-9552-4ab8-affc-7699b8484ec9.root | (None) | ad:9d1ca975 | 97.866 MB  |          |
| cms:/store/mc/Run3Summer22NanoAODv12/DYto2L-2Jets_MLL-50_1J_TuneCP5_13p6TeV_amcatnloFXFX-pythia8/NANOAODSIM/130X_mcRun3_2022_realistic_v5-v2/2530000/30bc2857-edc8-438c-8a47-27d540807e54.root | (None) | ad:5a4a5ceb | 1.073 GB   |          |
| cms:/store/mc/Run3Summer22NanoAODv12/DYto2L-2Jets_MLL-50_1J_TuneCP5_13p6TeV_amcatnloFXFX-pythia8/NANOAODSIM/130X_mcRun3_2022_realistic_v5-v2/2530000/eafe3faf-977c-4662-a723-b98aa790c2bc.root | (None) | ad:a5d337b3 | 1.075 GB   |          |
| cms:/store/mc/Run3Summer22NanoAODv12/DYto2L-2Jets_MLL-50_1J_TuneCP5_13p6TeV_amcatnloFXFX-pythia8/NANOAODSIM/130X_mcRun3_2022_realistic_v5-v2/40000/b857cbbf-347b-4401-8d1c-1179a4116f41.root   | (None) | ad:4d44ccd9 | 919.175 MB |          |
| cms:/store/mc/Run3Summer22NanoAODv12/DYto2L-2Jets_MLL-50_1J_TuneCP5_13p6TeV_amcatnloFXFX-pythia8/NANOAODSIM/130X_mcRun3_2022_realistic_v5-v2/50000/0170ca59-e961-4c3d-ae2f-620ca06c70c1.root   | (None) | ad:05c77895 | 97.974 MB  |          |
| cms:/store/mc/Run3Summer22NanoAODv12/DYto2L-2Jets_MLL-50_1J_TuneCP5_13p6TeV_amcatnloFXFX-pythia8/NANOAODSIM/130X_mcRun3_2022_realistic_v5-v2/50000/99621164-7a73-4370-89c1-754df36be0b7.root   | (None) | ad:a78108c7 | 1.895 GB   |          |
| cms:/store/mc/Run3Summer22NanoAODv12/DYto2L-2Jets_MLL-50_1J_TuneCP5_13p6TeV_amcatnloFXFX-pythia8/NANOAODSIM/130X_mcRun3_2022_realistic_v5-v2/50000/dd8a370a-d8da-4b6a-870c-77378a72152b.root   | (None) | ad:5fc559a3 | 1.902 GB   |          |
| cms:/store/mc/Run3Summer22NanoAODv12/DYto2L-2Jets_MLL-50_1J_TuneCP5_13p6TeV_amcatnloFXFX-pythia8/NANOAODSIM/130X_mcRun3_2022_realistic_v5-v2/2540000/234acdae-3436-4709-8b0e-dfb32b922b4a.root | (None) | ad:1249b376 | 32.650 MB  |          |
| cms:/store/mc/Run3Summer22NanoAODv12/DYto2L-2Jets_MLL-50_1J_TuneCP5_13p6TeV_amcatnloFXFX-pythia8/NANOAODSIM/130X_mcRun3_2022_realistic_v5-v2/2540000/f6458d97-0c9a-4338-9a34-6e262af478a1.root | (None) | ad:5b7f5fae | 471.693 MB |          |
| cms:/store/mc/Run3Summer22NanoAODv12/DYto2L-2Jets_MLL-50_1J_TuneCP5_13p6TeV_amcatnloFXFX-pythia8/NANOAODSIM/130X_mcRun3_2022_realistic_v5-v2/40000/1ce6a8c4-62e9-4720-9e01-4d7feab6e36d.root   | (None) | ad:d849a517 | 1.900 GB   |          |
| cms:/store/mc/Run3Summer22NanoAODv12/DYto2L-2Jets_MLL-50_1J_TuneCP5_13p6TeV_amcatnloFXFX-pythia8/NANOAODSIM/130X_mcRun3_2022_realistic_v5-v2/40000/8d6cc14b-30fc-4211-b798-b1766891780c.root   | (None) | ad:a85d2549 | 577.454 MB |          |
| cms:/store/mc/Run3Summer22NanoAODv12/DYto2L-2Jets_MLL-50_1J_TuneCP5_13p6TeV_amcatnloFXFX-pythia8/NANOAODSIM/130X_mcRun3_2022_realistic_v5-v2/30000/2798ef2a-ca24-4b20-a5e7-035ed6b14c27.root   | (None) | ad:4b13cfc7 | 415.549 MB |          |
| cms:/store/mc/Run3Summer22NanoAODv12/DYto2L-2Jets_MLL-50_1J_TuneCP5_13p6TeV_amcatnloFXFX-pythia8/NANOAODSIM/130X_mcRun3_2022_realistic_v5-v2/30000/48bad4cb-d9e5-4f85-8b2a-949281dd3ff6.root   | (None) | ad:20585e28 | 976.854 MB |          |
| cms:/store/mc/Run3Summer22NanoAODv12/DYto2L-2Jets_MLL-50_1J_TuneCP5_13p6TeV_amcatnloFXFX-pythia8/NANOAODSIM/130X_mcRun3_2022_realistic_v5-v2/30000/5c3565e4-553b-491b-b816-3865c9ffd2c2.root   | (None) | ad:7c2898da | 1.554 GB   |          |
| cms:/store/mc/Run3Summer22NanoAODv12/DYto2L-2Jets_MLL-50_1J_TuneCP5_13p6TeV_amcatnloFXFX-pythia8/NANOAODSIM/130X_mcRun3_2022_realistic_v5-v2/30000/822748b4-2227-44f2-9953-29ec89c21393.root   | (None) | ad:bfe50de1 | 953.704 MB |          |
| cms:/store/mc/Run3Summer22NanoAODv12/DYto2L-2Jets_MLL-50_1J_TuneCP5_13p6TeV_amcatnloFXFX-pythia8/NANOAODSIM/130X_mcRun3_2022_realistic_v5-v2/30000/b8f057bf-0cc5-445d-b5a6-aa77bdc5f08b.root   | (None) | ad:c65853d5 | 1.893 GB   |          |
| cms:/store/mc/Run3Summer22NanoAODv12/DYto2L-2Jets_MLL-50_1J_TuneCP5_13p6TeV_amcatnloFXFX-pythia8/NANOAODSIM/130X_mcRun3_2022_realistic_v5-v2/30000/dd65bd71-6e18-4e60-9374-5a5193ff5b8a.root   | (None) | ad:4bee0cb5 | 982.106 MB |          |
| cms:/store/mc/Run3Summer22NanoAODv12/DYto2L-2Jets_MLL-50_1J_TuneCP5_13p6TeV_amcatnloFXFX-pythia8/NANOAODSIM/130X_mcRun3_2022_realistic_v5-v2/30000/fda74244-db90-4d0c-9f17-13a6c8e6c918.root   | (None) | ad:7d1cba40 | 1.327 GB   |          |
| cms:/store/mc/Run3Summer22NanoAODv12/DYto2L-2Jets_MLL-50_1J_TuneCP5_13p6TeV_amcatnloFXFX-pythia8/NANOAODSIM/130X_mcRun3_2022_realistic_v5-v2/30000/da7c227e-123b-487b-8064-93f282861357.root   | (None) | ad:e0717308 | 639.315 MB |          |
| cms:/store/mc/Run3Summer22NanoAODv12/DYto2L-2Jets_MLL-50_1J_TuneCP5_13p6TeV_amcatnloFXFX-pythia8/NANOAODSIM/130X_mcRun3_2022_realistic_v5-v2/40000/1ad46b98-7e7c-4e23-b3ec-60286c049999.root   | (None) | ad:f79f6b5a | 1.206 GB   |          |
| cms:/store/mc/Run3Summer22NanoAODv12/DYto2L-2Jets_MLL-50_1J_TuneCP5_13p6TeV_amcatnloFXFX-pythia8/NANOAODSIM/130X_mcRun3_2022_realistic_v5-v2/40000/8db3df49-1899-49de-af7c-4a4242266d72.root   | (None) | ad:cf0d7083 | 1.415 GB   |          |
| cms:/store/mc/Run3Summer22NanoAODv12/DYto2L-2Jets_MLL-50_1J_TuneCP5_13p6TeV_amcatnloFXFX-pythia8/NANOAODSIM/130X_mcRun3_2022_realistic_v5-v2/40000/cb80d067-a54a-4dd4-a15c-a1692015acfb.root   | (None) | ad:f990bfac | 592.921 MB |          |
| cms:/store/mc/Run3Summer22NanoAODv12/DYto2L-2Jets_MLL-50_1J_TuneCP5_13p6TeV_amcatnloFXFX-pythia8/NANOAODSIM/130X_mcRun3_2022_realistic_v5-v2/50000/05613b48-1a25-4598-a03c-ca8fa40ce542.root   | (None) | ad:730eb0a4 | 663.887 MB |          |
| cms:/store/mc/Run3Summer22NanoAODv12/DYto2L-2Jets_MLL-50_1J_TuneCP5_13p6TeV_amcatnloFXFX-pythia8/NANOAODSIM/130X_mcRun3_2022_realistic_v5-v2/30000/4848bb52-7499-44f4-abcb-5961a2d7023b.root   | (None) | ad:4db203ee | 186.304 MB |          |
| cms:/store/mc/Run3Summer22NanoAODv12/DYto2L-2Jets_MLL-50_1J_TuneCP5_13p6TeV_amcatnloFXFX-pythia8/NANOAODSIM/130X_mcRun3_2022_realistic_v5-v2/30000/50131cd5-64ff-498d-a2d8-be495cf539bb.root   | (None) | ad:9f1d6116 | 1.035 GB   |          |
| cms:/store/mc/Run3Summer22NanoAODv12/DYto2L-2Jets_MLL-50_1J_TuneCP5_13p6TeV_amcatnloFXFX-pythia8/NANOAODSIM/130X_mcRun3_2022_realistic_v5-v2/50000/11a2aa7d-2869-4f94-bed4-aa397a98cbc7.root   | (None) | ad:c24da200 | 1.489 GB   |          |
| cms:/store/mc/Run3Summer22NanoAODv12/DYto2L-2Jets_MLL-50_1J_TuneCP5_13p6TeV_amcatnloFXFX-pythia8/NANOAODSIM/130X_mcRun3_2022_realistic_v5-v2/50000/e49ff8d1-0c8c-48b8-ba72-202a398d41d0.root   | (None) | ad:9d4af958 | 960.963 MB |          |
| cms:/store/mc/Run3Summer22NanoAODv12/DYto2L-2Jets_MLL-50_1J_TuneCP5_13p6TeV_amcatnloFXFX-pythia8/NANOAODSIM/130X_mcRun3_2022_realistic_v5-v2/50000/ec216cba-00a0-4a9a-8120-1e6117524023.root   | (None) | ad:538e5803 | 794.513 MB |          |
| cms:/store/mc/Run3Summer22NanoAODv12/DYto2L-2Jets_MLL-50_1J_TuneCP5_13p6TeV_amcatnloFXFX-pythia8/NANOAODSIM/130X_mcRun3_2022_realistic_v5-v2/40000/d412dc16-0f61-4f53-a827-737a33665580.root   | (None) | ad:9efce5ed | 1.142 GB   |          |
| cms:/store/mc/Run3Summer22NanoAODv12/DYto2L-2Jets_MLL-50_1J_TuneCP5_13p6TeV_amcatnloFXFX-pythia8/NANOAODSIM/130X_mcRun3_2022_realistic_v5-v2/40000/d694252e-e49b-490e-88ba-a0cb6481734e.root   | (None) | ad:453a899f | 128.764 MB |          |
| cms:/store/mc/Run3Summer22NanoAODv12/DYto2L-2Jets_MLL-50_1J_TuneCP5_13p6TeV_amcatnloFXFX-pythia8/NANOAODSIM/130X_mcRun3_2022_realistic_v5-v2/40000/f9cc9597-8b9b-4cef-9830-b6114f4c9e5a.root   | (None) | ad:90102622 | 165.043 MB |          |
| cms:/store/mc/Run3Summer22NanoAODv12/DYto2L-2Jets_MLL-50_1J_TuneCP5_13p6TeV_amcatnloFXFX-pythia8/NANOAODSIM/130X_mcRun3_2022_realistic_v5-v2/2530000/0204b519-8185-4a98-8fbb-558eaf939bc6.root | (None) | ad:7e6d79d2 | 110.542 MB |          |
| cms:/store/mc/Run3Summer22NanoAODv12/DYto2L-2Jets_MLL-50_1J_TuneCP5_13p6TeV_amcatnloFXFX-pythia8/NANOAODSIM/130X_mcRun3_2022_realistic_v5-v2/50000/358a64d9-c455-4fb8-b318-0d79752be793.root   | (None) | ad:3071c8ff | 601.088 MB |          |
| cms:/store/mc/Run3Summer22NanoAODv12/DYto2L-2Jets_MLL-50_1J_TuneCP5_13p6TeV_amcatnloFXFX-pythia8/NANOAODSIM/130X_mcRun3_2022_realistic_v5-v2/50000/a38ec1d2-5485-4cad-b06a-e8cc86e590a8.root   | (None) | ad:e75329c1 | 1.633 GB   |          |
| cms:/store/mc/Run3Summer22NanoAODv12/DYto2L-2Jets_MLL-50_1J_TuneCP5_13p6TeV_amcatnloFXFX-pythia8/NANOAODSIM/130X_mcRun3_2022_realistic_v5-v2/50000/ce54f7a9-bc58-4156-be7f-67fab6b65641.root   | (None) | ad:a0c9b303 | 1.079 GB   |          |
| cms:/store/mc/Run3Summer22NanoAODv12/DYto2L-2Jets_MLL-50_1J_TuneCP5_13p6TeV_amcatnloFXFX-pythia8/NANOAODSIM/130X_mcRun3_2022_realistic_v5-v2/50000/d8a0bed4-e2dd-4d40-9cec-705fb25a109c.root   | (None) | ad:f77bcf6a | 1.362 GB   |          |
| cms:/store/mc/Run3Summer22NanoAODv12/DYto2L-2Jets_MLL-50_1J_TuneCP5_13p6TeV_amcatnloFXFX-pythia8/NANOAODSIM/130X_mcRun3_2022_realistic_v5-v2/40000/03e00114-5fd7-4466-8600-8ff49b66010c.root   | (None) | ad:4bc8f316 | 1.271 GB   |          |
| cms:/store/mc/Run3Summer22NanoAODv12/DYto2L-2Jets_MLL-50_1J_TuneCP5_13p6TeV_amcatnloFXFX-pythia8/NANOAODSIM/130X_mcRun3_2022_realistic_v5-v2/40000/6d7e0378-6ecb-45b3-b460-8fe387feb9e1.root   | (None) | ad:2557c2c4 | 1.050 GB   |          |
| cms:/store/mc/Run3Summer22NanoAODv12/DYto2L-2Jets_MLL-50_1J_TuneCP5_13p6TeV_amcatnloFXFX-pythia8/NANOAODSIM/130X_mcRun3_2022_realistic_v5-v2/40000/c0fb70e0-d0a9-4df2-b8e1-27a7ce8634b7.root   | (None) | ad:2d6afc5e | 634.351 MB |          |
| cms:/store/mc/Run3Summer22NanoAODv12/DYto2L-2Jets_MLL-50_1J_TuneCP5_13p6TeV_amcatnloFXFX-pythia8/NANOAODSIM/130X_mcRun3_2022_realistic_v5-v2/2520000/871a51c9-295c-4f47-815d-6368a7a3006f.root | (None) | ad:5ff0882b | 1.414 GB   |          |
| cms:/store/mc/Run3Summer22NanoAODv12/DYto2L-2Jets_MLL-50_1J_TuneCP5_13p6TeV_amcatnloFXFX-pythia8/NANOAODSIM/130X_mcRun3_2022_realistic_v5-v2/2520000/cee35ef4-93a0-49f1-9a0d-0973b70ed8c9.root | (None) | ad:aa449f93 | 98.909 MB  |          |
| cms:/store/mc/Run3Summer22NanoAODv12/DYto2L-2Jets_MLL-50_1J_TuneCP5_13p6TeV_amcatnloFXFX-pythia8/NANOAODSIM/130X_mcRun3_2022_realistic_v5-v2/2520000/f08fc3b8-92f4-4112-bdd3-0e34bbffce12.root | (None) | ad:00097b5b | 1.116 GB   |          |
| cms:/store/mc/Run3Summer22NanoAODv12/DYto2L-2Jets_MLL-50_1J_TuneCP5_13p6TeV_amcatnloFXFX-pythia8/NANOAODSIM/130X_mcRun3_2022_realistic_v5-v2/50000/3e0b150e-9cf0-413c-a209-43c5890c780a.root   | (None) | ad:a1bf812d | 844.576 MB |          |
| cms:/store/mc/Run3Summer22NanoAODv12/DYto2L-2Jets_MLL-50_1J_TuneCP5_13p6TeV_amcatnloFXFX-pythia8/NANOAODSIM/130X_mcRun3_2022_realistic_v5-v2/40000/0308c399-797a-4eed-b901-c84af152519f.root   | (None) | ad:bb3e798f | 1.233 GB   |          |
| cms:/store/mc/Run3Summer22NanoAODv12/DYto2L-2Jets_MLL-50_1J_TuneCP5_13p6TeV_amcatnloFXFX-pythia8/NANOAODSIM/130X_mcRun3_2022_realistic_v5-v2/40000/35888b73-9abb-4f0b-893a-b7e1b988871a.root   | (None) | ad:4783047b | 986.509 MB |          |
| cms:/store/mc/Run3Summer22NanoAODv12/DYto2L-2Jets_MLL-50_1J_TuneCP5_13p6TeV_amcatnloFXFX-pythia8/NANOAODSIM/130X_mcRun3_2022_realistic_v5-v2/40000/4da5b2a7-f09c-4fa3-b35c-455dcfdc1615.root   | (None) | ad:2ae0576a | 1.556 GB   |          |
| cms:/store/mc/Run3Summer22NanoAODv12/DYto2L-2Jets_MLL-50_1J_TuneCP5_13p6TeV_amcatnloFXFX-pythia8/NANOAODSIM/130X_mcRun3_2022_realistic_v5-v2/40000/82a78b4d-fe6b-4dfa-a23e-87f52e4eab6c.root   | (None) | ad:996694a4 | 1.039 GB   |          |
| cms:/store/mc/Run3Summer22NanoAODv12/DYto2L-2Jets_MLL-50_1J_TuneCP5_13p6TeV_amcatnloFXFX-pythia8/NANOAODSIM/130X_mcRun3_2022_realistic_v5-v2/40000/ef7e67ef-13d9-4ea8-a0ee-3662422e1800.root   | (None) | ad:483b2184 | 35.408 MB  |          |
| cms:/store/mc/Run3Summer22NanoAODv12/DYto2L-2Jets_MLL-50_1J_TuneCP5_13p6TeV_amcatnloFXFX-pythia8/NANOAODSIM/130X_mcRun3_2022_realistic_v5-v2/30000/4dd4b86e-050a-4998-a7f1-b3f8c9f2c8a1.root   | (None) | ad:c662c496 | 476.481 MB |          |
| cms:/store/mc/Run3Summer22NanoAODv12/DYto2L-2Jets_MLL-50_1J_TuneCP5_13p6TeV_amcatnloFXFX-pythia8/NANOAODSIM/130X_mcRun3_2022_realistic_v5-v2/30000/f3d25635-1f31-4470-8ea8-3cb22f4c8445.root   | (None) | ad:409ed34a | 1.529 GB   |          |
| cms:/store/mc/Run3Summer22NanoAODv12/DYto2L-2Jets_MLL-50_1J_TuneCP5_13p6TeV_amcatnloFXFX-pythia8/NANOAODSIM/130X_mcRun3_2022_realistic_v5-v2/2530000/769ad886-3682-407b-af92-14ca8cc5f05f.root | (None) | ad:ffbdb861 | 510.151 MB |          |
| cms:/store/mc/Run3Summer22NanoAODv12/DYto2L-2Jets_MLL-50_1J_TuneCP5_13p6TeV_amcatnloFXFX-pythia8/NANOAODSIM/130X_mcRun3_2022_realistic_v5-v2/2530000/96cec7fa-8e24-4d40-9c0a-f44819c9cf62.root | (None) | ad:a98408c7 | 1.489 GB   |          |
| cms:/store/mc/Run3Summer22NanoAODv12/DYto2L-2Jets_MLL-50_1J_TuneCP5_13p6TeV_amcatnloFXFX-pythia8/NANOAODSIM/130X_mcRun3_2022_realistic_v5-v2/2530000/a11c1c0a-308d-4028-9ca7-cffaf70804d4.root | (None) | ad:395c75d0 | 1.638 GB   |          |
| cms:/store/mc/Run3Summer22NanoAODv12/DYto2L-2Jets_MLL-50_1J_TuneCP5_13p6TeV_amcatnloFXFX-pythia8/NANOAODSIM/130X_mcRun3_2022_realistic_v5-v2/2530000/e7632060-4829-4518-9ebc-cbcc77ee1416.root | (None) | ad:f6133c6a | 1.459 GB   |          |
| cms:/store/mc/Run3Summer22NanoAODv12/DYto2L-2Jets_MLL-50_1J_TuneCP5_13p6TeV_amcatnloFXFX-pythia8/NANOAODSIM/130X_mcRun3_2022_realistic_v5-v2/2530000/e9a6df78-f69b-4256-b716-a0e91f283437.root | (None) | ad:d770025f | 1.384 GB   |          |
| cms:/store/mc/Run3Summer22NanoAODv12/DYto2L-2Jets_MLL-50_1J_TuneCP5_13p6TeV_amcatnloFXFX-pythia8/NANOAODSIM/130X_mcRun3_2022_realistic_v5-v2/2530000/edbcedb0-14d2-40b5-b6e1-8b68ee5b687e.root | (None) | ad:ae3e6a70 | 34.690 MB  |          |
| cms:/store/mc/Run3Summer22NanoAODv12/DYto2L-2Jets_MLL-50_1J_TuneCP5_13p6TeV_amcatnloFXFX-pythia8/NANOAODSIM/130X_mcRun3_2022_realistic_v5-v2/2530000/f75d870d-6962-4dc4-a2ff-1d29bded4390.root | (None) | ad:84fc3dfc | 1.873 GB   |          |
| cms:/store/mc/Run3Summer22NanoAODv12/DYto2L-2Jets_MLL-50_1J_TuneCP5_13p6TeV_amcatnloFXFX-pythia8/NANOAODSIM/130X_mcRun3_2022_realistic_v5-v2/40000/a9303403-e674-47b7-b7dc-604d512ceb60.root   | (None) | ad:544a8b8f | 33.818 MB  |          |
| cms:/store/mc/Run3Summer22NanoAODv12/DYto2L-2Jets_MLL-50_1J_TuneCP5_13p6TeV_amcatnloFXFX-pythia8/NANOAODSIM/130X_mcRun3_2022_realistic_v5-v2/2520000/29eaf311-8ca6-47ea-bd2f-c8424e8a2d60.root | (None) | ad:d9dea603 | 1.010 GB   |          |
| cms:/store/mc/Run3Summer22NanoAODv12/DYto2L-2Jets_MLL-50_1J_TuneCP5_13p6TeV_amcatnloFXFX-pythia8/NANOAODSIM/130X_mcRun3_2022_realistic_v5-v2/2520000/a65c9233-fa10-45d3-a29d-27cd5da6c1db.root | (None) | ad:1d14f247 | 194.471 MB |          |
| cms:/store/mc/Run3Summer22NanoAODv12/DYto2L-2Jets_MLL-50_1J_TuneCP5_13p6TeV_amcatnloFXFX-pythia8/NANOAODSIM/130X_mcRun3_2022_realistic_v5-v2/2520000/b4377810-5df9-4777-b618-2945a700ccbc.root | (None) | ad:4aff83b3 | 1.042 GB   |          |
| cms:/store/mc/Run3Summer22NanoAODv12/DYto2L-2Jets_MLL-50_1J_TuneCP5_13p6TeV_amcatnloFXFX-pythia8/NANOAODSIM/130X_mcRun3_2022_realistic_v5-v2/40000/11b80c1f-ae0e-48e5-a5c6-2d674fa3c9d7.root   | (None) | ad:6d823acc | 79.200 MB  |          |
| cms:/store/mc/Run3Summer22NanoAODv12/DYto2L-2Jets_MLL-50_1J_TuneCP5_13p6TeV_amcatnloFXFX-pythia8/NANOAODSIM/130X_mcRun3_2022_realistic_v5-v2/40000/3814b572-a41c-4611-9d8c-00a6d8ed9384.root   | (None) | ad:e3b94b61 | 286.704 MB |          |
| cms:/store/mc/Run3Summer22NanoAODv12/DYto2L-2Jets_MLL-50_1J_TuneCP5_13p6TeV_amcatnloFXFX-pythia8/NANOAODSIM/130X_mcRun3_2022_realistic_v5-v2/40000/49775b9c-146a-4008-ada3-5ce1bd81c49d.root   | (None) | ad:a74b2adb | 996.932 MB |          |
| cms:/store/mc/Run3Summer22NanoAODv12/DYto2L-2Jets_MLL-50_1J_TuneCP5_13p6TeV_amcatnloFXFX-pythia8/NANOAODSIM/130X_mcRun3_2022_realistic_v5-v2/40000/bc241a78-bdec-4144-b469-33834ed93cb9.root   | (None) | ad:12c9ab71 | 549.883 MB |          |
| cms:/store/mc/Run3Summer22NanoAODv12/DYto2L-2Jets_MLL-50_1J_TuneCP5_13p6TeV_amcatnloFXFX-pythia8/NANOAODSIM/130X_mcRun3_2022_realistic_v5-v2/50000/54194316-d3e1-4b9a-ac12-18843df5ddba.root   | (None) | ad:f170446a | 508.820 MB |          |
| cms:/store/mc/Run3Summer22NanoAODv12/DYto2L-2Jets_MLL-50_1J_TuneCP5_13p6TeV_amcatnloFXFX-pythia8/NANOAODSIM/130X_mcRun3_2022_realistic_v5-v2/50000/5c6c306a-6093-4a3b-ad71-50cf20da4797.root   | (None) | ad:d12c1e68 | 1.201 GB   |          |
| cms:/store/mc/Run3Summer22NanoAODv12/DYto2L-2Jets_MLL-50_1J_TuneCP5_13p6TeV_amcatnloFXFX-pythia8/NANOAODSIM/130X_mcRun3_2022_realistic_v5-v2/50000/d3cb8f3b-d413-439f-8592-41dbc6ec0ab0.root   | (None) | ad:ce083994 | 1.016 GB   |          |
| cms:/store/mc/Run3Summer22NanoAODv12/DYto2L-2Jets_MLL-50_1J_TuneCP5_13p6TeV_amcatnloFXFX-pythia8/NANOAODSIM/130X_mcRun3_2022_realistic_v5-v2/50000/d65bf86b-146f-4d48-be35-88af96098998.root   | (None) | ad:aa561d52 | 139.527 MB |          |
| cms:/store/mc/Run3Summer22NanoAODv12/DYto2L-2Jets_MLL-50_1J_TuneCP5_13p6TeV_amcatnloFXFX-pythia8/NANOAODSIM/130X_mcRun3_2022_realistic_v5-v2/2520000/eb780107-5b8b-48bc-b3b3-4471ff1a16b5.root | (None) | ad:2636f91b | 686.643 MB |          |
| cms:/store/mc/Run3Summer22NanoAODv12/DYto2L-2Jets_MLL-50_1J_TuneCP5_13p6TeV_amcatnloFXFX-pythia8/NANOAODSIM/130X_mcRun3_2022_realistic_v5-v2/30000/51588c03-93e8-4106-8a97-d90c2c82dbe9.root   | (None) | ad:81633283 | 79.471 MB  |          |
| cms:/store/mc/Run3Summer22NanoAODv12/DYto2L-2Jets_MLL-50_1J_TuneCP5_13p6TeV_amcatnloFXFX-pythia8/NANOAODSIM/130X_mcRun3_2022_realistic_v5-v2/2520000/011660df-3597-4f83-b17a-b06bbd3c4838.root | (None) | ad:63e95adb | 787.873 MB |          |
| cms:/store/mc/Run3Summer22NanoAODv12/DYto2L-2Jets_MLL-50_1J_TuneCP5_13p6TeV_amcatnloFXFX-pythia8/NANOAODSIM/130X_mcRun3_2022_realistic_v5-v2/40000/695534cf-55c6-4791-83d1-e28191358101.root   | (None) | ad:491746e1 | 413.645 MB |          |
| cms:/store/mc/Run3Summer22NanoAODv12/DYto2L-2Jets_MLL-50_1J_TuneCP5_13p6TeV_amcatnloFXFX-pythia8/NANOAODSIM/130X_mcRun3_2022_realistic_v5-v2/40000/b1ede755-6cc1-4540-a717-1842267017d6.root   | (None) | ad:3ae9603d | 1.414 GB   |          |
| cms:/store/mc/Run3Summer22NanoAODv12/DYto2L-2Jets_MLL-50_1J_TuneCP5_13p6TeV_amcatnloFXFX-pythia8/NANOAODSIM/130X_mcRun3_2022_realistic_v5-v2/40000/6992b2fa-7075-4a70-88df-e667ae77a309.root   | (None) | ad:895390eb | 40.606 MB  |          |
| cms:/store/mc/Run3Summer22NanoAODv12/DYto2L-2Jets_MLL-50_1J_TuneCP5_13p6TeV_amcatnloFXFX-pythia8/NANOAODSIM/130X_mcRun3_2022_realistic_v5-v2/40000/a10d9ae8-628c-404f-bb66-802f9b98a15e.root   | (None) | ad:fb0e34ed | 421.950 MB |          |
| cms:/store/mc/Run3Summer22NanoAODv12/DYto2L-2Jets_MLL-50_1J_TuneCP5_13p6TeV_amcatnloFXFX-pythia8/NANOAODSIM/130X_mcRun3_2022_realistic_v5-v2/40000/13e34107-b468-4ac3-a6cc-0ae77e43f7f6.root   | (None) | ad:19bf65d9 | 415.884 MB |          |
| cms:/store/mc/Run3Summer22NanoAODv12/DYto2L-2Jets_MLL-50_1J_TuneCP5_13p6TeV_amcatnloFXFX-pythia8/NANOAODSIM/130X_mcRun3_2022_realistic_v5-v2/2540000/14842d0d-87f5-4d0a-851a-9ffad30fd7b0.root | (None) | ad:7247bbdd | 34.471 MB  |          |
| cms:/store/mc/Run3Summer22NanoAODv12/DYto2L-2Jets_MLL-50_1J_TuneCP5_13p6TeV_amcatnloFXFX-pythia8/NANOAODSIM/130X_mcRun3_2022_realistic_v5-v2/2540000/9890d2c2-4e55-4318-b408-aac4348fe42e.root | (None) | ad:d5fb019a | 976.670 MB |          |
| cms:/store/mc/Run3Summer22NanoAODv12/DYto2L-2Jets_MLL-50_1J_TuneCP5_13p6TeV_amcatnloFXFX-pythia8/NANOAODSIM/130X_mcRun3_2022_realistic_v5-v2/2520000/f97ae7bf-acec-4e1e-9e9d-c67fa645423b.root | (None) | ad:634b2e98 | 494.593 MB |          |
| cms:/store/mc/Run3Summer22NanoAODv12/DYto2L-2Jets_MLL-50_1J_TuneCP5_13p6TeV_amcatnloFXFX-pythia8/NANOAODSIM/130X_mcRun3_2022_realistic_v5-v2/2530000/56dad210-7ea5-4d83-b724-4c9c5ad0152f.root | (None) | ad:59f4792d | 1.013 GB   |          |
| cms:/store/mc/Run3Summer22NanoAODv12/DYto2L-2Jets_MLL-50_1J_TuneCP5_13p6TeV_amcatnloFXFX-pythia8/NANOAODSIM/130X_mcRun3_2022_realistic_v5-v2/2530000/ae7ebb1b-f582-4591-b5d2-b3e566888c42.root | (None) | ad:62be9b70 | 66.265 MB  |          |
| cms:/store/mc/Run3Summer22NanoAODv12/DYto2L-2Jets_MLL-50_1J_TuneCP5_13p6TeV_amcatnloFXFX-pythia8/NANOAODSIM/130X_mcRun3_2022_realistic_v5-v2/2530000/d56cfc1b-5b2b-43a0-b8da-6663c17b46cb.root | (None) | ad:a0f04506 | 956.459 MB |          |
| cms:/store/mc/Run3Summer22NanoAODv12/DYto2L-2Jets_MLL-50_1J_TuneCP5_13p6TeV_amcatnloFXFX-pythia8/NANOAODSIM/130X_mcRun3_2022_realistic_v5-v2/30000/c97398cf-e31e-489a-a7af-4db1e694df8f.root   | (None) | ad:a86a51e9 | 233.080 MB |          |
| cms:/store/mc/Run3Summer22NanoAODv12/DYto2L-2Jets_MLL-50_1J_TuneCP5_13p6TeV_amcatnloFXFX-pythia8/NANOAODSIM/130X_mcRun3_2022_realistic_v5-v2/30000/d62d9520-7d27-49b2-8cc3-6901803e64ec.root   | (None) | ad:f68c2289 | 236.823 MB |          |
| cms:/store/mc/Run3Summer22NanoAODv12/DYto2L-2Jets_MLL-50_1J_TuneCP5_13p6TeV_amcatnloFXFX-pythia8/NANOAODSIM/130X_mcRun3_2022_realistic_v5-v2/50000/ed052294-2476-4a0f-b91d-0fefb46c7c74.root   | (None) | ad:f005e798 | 4.064 MB   |          |
| cms:/store/mc/Run3Summer22NanoAODv12/DYto2L-2Jets_MLL-50_1J_TuneCP5_13p6TeV_amcatnloFXFX-pythia8/NANOAODSIM/130X_mcRun3_2022_realistic_v5-v2/40000/5b738f08-452f-4ce6-9fb0-dd0364be604d.root   | (None) | ad:f289defc | 1.740 GB   |          |
| cms:/store/mc/Run3Summer22NanoAODv12/DYto2L-2Jets_MLL-50_1J_TuneCP5_13p6TeV_amcatnloFXFX-pythia8/NANOAODSIM/130X_mcRun3_2022_realistic_v5-v2/40000/5d9d141b-b890-4c3d-b407-25a5a0a95cb3.root   | (None) | ad:c5669030 | 446.867 MB |          |
| cms:/store/mc/Run3Summer22NanoAODv12/DYto2L-2Jets_MLL-50_1J_TuneCP5_13p6TeV_amcatnloFXFX-pythia8/NANOAODSIM/130X_mcRun3_2022_realistic_v5-v2/40000/6de2a7a5-8eed-42d6-bcb6-334d753f7bbb.root   | (None) | ad:14acd0a4 | 1.788 GB   |          |
| cms:/store/mc/Run3Summer22NanoAODv12/DYto2L-2Jets_MLL-50_1J_TuneCP5_13p6TeV_amcatnloFXFX-pythia8/NANOAODSIM/130X_mcRun3_2022_realistic_v5-v2/40000/838f94e1-73be-4930-8c14-cfc35bb7fd65.root   | (None) | ad:42185c72 | 1.171 GB   |          |
| cms:/store/mc/Run3Summer22NanoAODv12/DYto2L-2Jets_MLL-50_1J_TuneCP5_13p6TeV_amcatnloFXFX-pythia8/NANOAODSIM/130X_mcRun3_2022_realistic_v5-v2/40000/b4ac9e57-55cf-4e20-a643-02696393c857.root   | (None) | ad:3678ae26 | 1.110 GB   |          |
| cms:/store/mc/Run3Summer22NanoAODv12/DYto2L-2Jets_MLL-50_1J_TuneCP5_13p6TeV_amcatnloFXFX-pythia8/NANOAODSIM/130X_mcRun3_2022_realistic_v5-v2/50000/420f889b-9907-4307-8e63-aa40d80c173d.root   | (None) | ad:a768d993 | 415.474 MB |          |
| cms:/store/mc/Run3Summer22NanoAODv12/DYto2L-2Jets_MLL-50_1J_TuneCP5_13p6TeV_amcatnloFXFX-pythia8/NANOAODSIM/130X_mcRun3_2022_realistic_v5-v2/50000/740c8bdd-f209-4302-834d-0f81f5357dbe.root   | (None) | ad:36f09e4c | 1.199 GB   |          |
| cms:/store/mc/Run3Summer22NanoAODv12/DYto2L-2Jets_MLL-50_1J_TuneCP5_13p6TeV_amcatnloFXFX-pythia8/NANOAODSIM/130X_mcRun3_2022_realistic_v5-v2/50000/8273c275-8ad1-43b9-9902-5dc9b67a5cf8.root   | (None) | ad:d753b826 | 402.614 MB |          |
| cms:/store/mc/Run3Summer22NanoAODv12/DYto2L-2Jets_MLL-50_1J_TuneCP5_13p6TeV_amcatnloFXFX-pythia8/NANOAODSIM/130X_mcRun3_2022_realistic_v5-v2/40000/052deb96-e353-46bb-b750-26f94a7481f2.root   | (None) | ad:b7474039 | 143.596 MB |          |
| cms:/store/mc/Run3Summer22NanoAODv12/DYto2L-2Jets_MLL-50_1J_TuneCP5_13p6TeV_amcatnloFXFX-pythia8/NANOAODSIM/130X_mcRun3_2022_realistic_v5-v2/40000/57496134-7e83-4655-8d90-2ff34995e99c.root   | (None) | ad:aa2557ce | 33.905 MB  |          |
| cms:/store/mc/Run3Summer22NanoAODv12/DYto2L-2Jets_MLL-50_1J_TuneCP5_13p6TeV_amcatnloFXFX-pythia8/NANOAODSIM/130X_mcRun3_2022_realistic_v5-v2/40000/84936bf9-5c20-4887-9ae5-a49b1b759bb2.root   | (None) | ad:bb9d4e12 | 607.937 MB |          |
| cms:/store/mc/Run3Summer22NanoAODv12/DYto2L-2Jets_MLL-50_1J_TuneCP5_13p6TeV_amcatnloFXFX-pythia8/NANOAODSIM/130X_mcRun3_2022_realistic_v5-v2/40000/e0b950a1-7b4f-479e-aac4-78c96cea098d.root   | (None) | ad:3a006a20 | 1.898 GB   |          |
| cms:/store/mc/Run3Summer22NanoAODv12/DYto2L-2Jets_MLL-50_1J_TuneCP5_13p6TeV_amcatnloFXFX-pythia8/NANOAODSIM/130X_mcRun3_2022_realistic_v5-v2/40000/1074fba6-d189-45c0-b6d2-4a0889da0480.root   | (None) | ad:6f88bb4c | 359.941 MB |          |
| cms:/store/mc/Run3Summer22NanoAODv12/DYto2L-2Jets_MLL-50_1J_TuneCP5_13p6TeV_amcatnloFXFX-pythia8/NANOAODSIM/130X_mcRun3_2022_realistic_v5-v2/40000/af1d16df-0632-4617-86be-1924ef1240bc.root   | (None) | ad:25fee505 | 130.574 MB |          |
| cms:/store/mc/Run3Summer22NanoAODv12/DYto2L-2Jets_MLL-50_1J_TuneCP5_13p6TeV_amcatnloFXFX-pythia8/NANOAODSIM/130X_mcRun3_2022_realistic_v5-v2/40000/bb317c0d-6d18-48bb-a48f-c7c4da698d67.root   | (None) | ad:866a0bc3 | 1.151 GB   |          |
| cms:/store/mc/Run3Summer22NanoAODv12/DYto2L-2Jets_MLL-50_1J_TuneCP5_13p6TeV_amcatnloFXFX-pythia8/NANOAODSIM/130X_mcRun3_2022_realistic_v5-v2/40000/f3af2ccd-a952-4233-b6d9-af14dce22b99.root   | (None) | ad:c0d0cc58 | 1.527 GB   |          |
| cms:/store/mc/Run3Summer22NanoAODv12/DYto2L-2Jets_MLL-50_1J_TuneCP5_13p6TeV_amcatnloFXFX-pythia8/NANOAODSIM/130X_mcRun3_2022_realistic_v5-v2/30000/68b6d56f-c99a-4fe1-9b30-272f254b19c9.root   | (None) | ad:cc6fd39e | 35.143 MB  |          |
| cms:/store/mc/Run3Summer22NanoAODv12/DYto2L-2Jets_MLL-50_1J_TuneCP5_13p6TeV_amcatnloFXFX-pythia8/NANOAODSIM/130X_mcRun3_2022_realistic_v5-v2/30000/98619d18-8da0-4972-a567-baa4f1ea1304.root   | (None) | ad:017cf810 | 997.316 MB |          |
| cms:/store/mc/Run3Summer22NanoAODv12/DYto2L-2Jets_MLL-50_1J_TuneCP5_13p6TeV_amcatnloFXFX-pythia8/NANOAODSIM/130X_mcRun3_2022_realistic_v5-v2/50000/09a9e234-1574-4f98-aa73-6e730a9647f8.root   | (None) | ad:3398e446 | 89.554 MB  |          |
| cms:/store/mc/Run3Summer22NanoAODv12/DYto2L-2Jets_MLL-50_1J_TuneCP5_13p6TeV_amcatnloFXFX-pythia8/NANOAODSIM/130X_mcRun3_2022_realistic_v5-v2/50000/97411143-e5aa-4778-ac07-2d5b61812398.root   | (None) | ad:93b3933c | 385.851 MB |          |
| cms:/store/mc/Run3Summer22NanoAODv12/DYto2L-2Jets_MLL-50_1J_TuneCP5_13p6TeV_amcatnloFXFX-pythia8/NANOAODSIM/130X_mcRun3_2022_realistic_v5-v2/30000/2245708d-2341-4f2d-a5e8-4e7c2c450740.root   | (None) | ad:02cee661 | 374.611 MB |          |
| cms:/store/mc/Run3Summer22NanoAODv12/DYto2L-2Jets_MLL-50_1J_TuneCP5_13p6TeV_amcatnloFXFX-pythia8/NANOAODSIM/130X_mcRun3_2022_realistic_v5-v2/30000/ddcf96cf-3731-4c79-9d20-4d8d29bd5ae3.root   | (None) | ad:68c9cdb8 | 633.919 MB |          |
| cms:/store/mc/Run3Summer22NanoAODv12/DYto2L-2Jets_MLL-50_1J_TuneCP5_13p6TeV_amcatnloFXFX-pythia8/NANOAODSIM/130X_mcRun3_2022_realistic_v5-v2/30000/fcf1dcac-36b3-41f7-8d9b-777052bd68bc.root   | (None) | ad:37312690 | 175.259 MB |          |
| cms:/store/mc/Run3Summer22NanoAODv12/DYto2L-2Jets_MLL-50_1J_TuneCP5_13p6TeV_amcatnloFXFX-pythia8/NANOAODSIM/130X_mcRun3_2022_realistic_v5-v2/30000/60ce554e-c9f6-40c4-9b8c-2977c40006de.root   | (None) | ad:601be3c3 | 825.521 MB |          |
| cms:/store/mc/Run3Summer22NanoAODv12/DYto2L-2Jets_MLL-50_1J_TuneCP5_13p6TeV_amcatnloFXFX-pythia8/NANOAODSIM/130X_mcRun3_2022_realistic_v5-v2/30000/6fa9689c-dc65-4b71-b817-2db6a6aff41b.root   | (None) | ad:8aeb0633 | 1.211 GB   |          |
| cms:/store/mc/Run3Summer22NanoAODv12/DYto2L-2Jets_MLL-50_1J_TuneCP5_13p6TeV_amcatnloFXFX-pythia8/NANOAODSIM/130X_mcRun3_2022_realistic_v5-v2/30000/7799524f-66fe-49ae-bd36-c35a4e617821.root   | (None) | ad:d564be33 | 1.698 GB   |          |
+------------------------------------------------------------------------------------------------------------------------------------------------------------------------------------------------+--------+-------------+------------+----------+
Total files : 196
Total size : 148.289 GB
