{
    "cms:/store/data/Run2022A/EGamma/NANOAOD/ReRecoNanoAODv11-v1/2540000/763fa010-c6a3-494f-8486-e741f9ec7885.root": [
        "T1_US_FNAL_Disk: davs://cmsdcadisk.fnal.gov:2880/dcache/uscmsdisk/store/data/Run2022A/EGamma/NANOAOD/ReRecoNanoAODv11-v1/2540000/763fa010-c6a3-494f-8486-e741f9ec7885.root",
        "T2_US_MIT: davs://xrootd.cmsaf.mit.edu:1094/store/data/Run2022A/EGamma/NANOAOD/ReRecoNanoAODv11-v1/2540000/763fa010-c6a3-494f-8486-e741f9ec7885.root",
        "T2_IT_Legnaro: davs://t2-xrdcms.lnl.infn.it:2880/pnfs/lnl.infn.it/data/cms/store/data/Run2022A/EGamma/NANOAOD/ReRecoNanoAODv11-v1/2540000/763fa010-c6a3-494f-8486-e741f9ec7885.root",
        "T2_FR_GRIF: davs://eos.grif.fr:11000/eos/grif/cms/grif/store/data/Run2022A/EGamma/NANOAOD/ReRecoNanoAODv11-v1/2540000/763fa010-c6a3-494f-8486-e741f9ec7885.root",
        "T1_FR_CCIN2P3_Tape: srm://ccsrm.in2p3.fr:8443/srm/managerv2?SFN=/pnfs/in2p3.fr/data/cms/data/store/data/Run2022A/EGamma/NANOAOD/ReRecoNanoAODv11-v1/2540000/763fa010-c6a3-494f-8486-e741f9ec7885.root",
        "T2_IT_Bari: davs://webdav.recas.ba.infn.it:8443/cms/store/data/Run2022A/EGamma/NANOAOD/ReRecoNanoAODv11-v1/2540000/763fa010-c6a3-494f-8486-e741f9ec7885.root",
        "T2_CH_CERN: davs://eoscms.cern.ch:443/eos/cms/store/data/Run2022A/EGamma/NANOAOD/ReRecoNanoAODv11-v1/2540000/763fa010-c6a3-494f-8486-e741f9ec7885.root",
        "T2_PL_Swierk: davs://se.cis.gov.pl:2880/grid/cms/store/data/Run2022A/EGamma/NANOAOD/ReRecoNanoAODv11-v1/2540000/763fa010-c6a3-494f-8486-e741f9ec7885.root",
        "T2_ES_CIEMAT: davs://srm.ciemat.es:2880/pnfs/ciemat.es/data/cms/prod/store/data/Run2022A/EGamma/NANOAOD/ReRecoNanoAODv11-v1/2540000/763fa010-c6a3-494f-8486-e741f9ec7885.root"
    ],
    "cms:/store/data/Run2022A/EGamma/NANOAOD/ReRecoNanoAODv11-v1/2540000/b73f0733-212b-4f0b-a5f2-91aa4578c203.root": [
        "T1_US_FNAL_Disk: davs://cmsdcadisk.fnal.gov:2880/dcache/uscmsdisk/store/data/Run2022A/EGamma/NANOAOD/ReRecoNanoAODv11-v1/2540000/b73f0733-212b-4f0b-a5f2-91aa4578c203.root",
        "T2_US_MIT: davs://xrootd.cmsaf.mit.edu:1094/store/data/Run2022A/EGamma/NANOAOD/ReRecoNanoAODv11-v1/2540000/b73f0733-212b-4f0b-a5f2-91aa4578c203.root",
        "T2_IT_Legnaro: davs://t2-xrdcms.lnl.infn.it:2880/pnfs/lnl.infn.it/data/cms/store/data/Run2022A/EGamma/NANOAOD/ReRecoNanoAODv11-v1/2540000/b73f0733-212b-4f0b-a5f2-91aa4578c203.root",
        "T2_FR_GRIF: davs://eos.grif.fr:11000/eos/grif/cms/grif/store/data/Run2022A/EGamma/NANOAOD/ReRecoNanoAODv11-v1/2540000/b73f0733-212b-4f0b-a5f2-91aa4578c203.root",
        "T1_FR_CCIN2P3_Tape: srm://ccsrm.in2p3.fr:8443/srm/managerv2?SFN=/pnfs/in2p3.fr/data/cms/data/store/data/Run2022A/EGamma/NANOAOD/ReRecoNanoAODv11-v1/2540000/b73f0733-212b-4f0b-a5f2-91aa4578c203.root",
        "T2_IT_Bari: davs://webdav.recas.ba.infn.it:8443/cms/store/data/Run2022A/EGamma/NANOAOD/ReRecoNanoAODv11-v1/2540000/b73f0733-212b-4f0b-a5f2-91aa4578c203.root",
        "T2_CH_CERN: davs://eoscms.cern.ch:443/eos/cms/store/data/Run2022A/EGamma/NANOAOD/ReRecoNanoAODv11-v1/2540000/b73f0733-212b-4f0b-a5f2-91aa4578c203.root",
        "T2_PL_Swierk: davs://se.cis.gov.pl:2880/grid/cms/store/data/Run2022A/EGamma/NANOAOD/ReRecoNanoAODv11-v1/2540000/b73f0733-212b-4f0b-a5f2-91aa4578c203.root",
        "T2_ES_CIEMAT: davs://srm.ciemat.es:2880/pnfs/ciemat.es/data/cms/prod/store/data/Run2022A/EGamma/NANOAOD/ReRecoNanoAODv11-v1/2540000/b73f0733-212b-4f0b-a5f2-91aa4578c203.root"
    ],
    "cms:/store/data/Run2022A/EGamma/NANOAOD/ReRecoNanoAODv11-v1/2540000/0db7307e-05b5-471d-8cc8-421b1128424d.root": [
        "T1_US_FNAL_Disk: davs://cmsdcadisk.fnal.gov:2880/dcache/uscmsdisk/store/data/Run2022A/EGamma/NANOAOD/ReRecoNanoAODv11-v1/2540000/0db7307e-05b5-471d-8cc8-421b1128424d.root",
        "T2_US_MIT: davs://xrootd.cmsaf.mit.edu:1094/store/data/Run2022A/EGamma/NANOAOD/ReRecoNanoAODv11-v1/2540000/0db7307e-05b5-471d-8cc8-421b1128424d.root",
        "T2_IT_Legnaro: davs://t2-xrdcms.lnl.infn.it:2880/pnfs/lnl.infn.it/data/cms/store/data/Run2022A/EGamma/NANOAOD/ReRecoNanoAODv11-v1/2540000/0db7307e-05b5-471d-8cc8-421b1128424d.root",
        "T2_FR_GRIF: davs://eos.grif.fr:11000/eos/grif/cms/grif/store/data/Run2022A/EGamma/NANOAOD/ReRecoNanoAODv11-v1/2540000/0db7307e-05b5-471d-8cc8-421b1128424d.root",
        "T1_FR_CCIN2P3_Tape: srm://ccsrm.in2p3.fr:8443/srm/managerv2?SFN=/pnfs/in2p3.fr/data/cms/data/store/data/Run2022A/EGamma/NANOAOD/ReRecoNanoAODv11-v1/2540000/0db7307e-05b5-471d-8cc8-421b1128424d.root",
        "T2_IT_Bari: davs://webdav.recas.ba.infn.it:8443/cms/store/data/Run2022A/EGamma/NANOAOD/ReRecoNanoAODv11-v1/2540000/0db7307e-05b5-471d-8cc8-421b1128424d.root",
        "T2_CH_CERN: davs://eoscms.cern.ch:443/eos/cms/store/data/Run2022A/EGamma/NANOAOD/ReRecoNanoAODv11-v1/2540000/0db7307e-05b5-471d-8cc8-421b1128424d.root",
        "T2_PL_Swierk: davs://se.cis.gov.pl:2880/grid/cms/store/data/Run2022A/EGamma/NANOAOD/ReRecoNanoAODv11-v1/2540000/0db7307e-05b5-471d-8cc8-421b1128424d.root",
        "T2_ES_CIEMAT: davs://srm.ciemat.es:2880/pnfs/ciemat.es/data/cms/prod/store/data/Run2022A/EGamma/NANOAOD/ReRecoNanoAODv11-v1/2540000/0db7307e-05b5-471d-8cc8-421b1128424d.root"
    ],
    "cms:/store/data/Run2022A/EGamma/NANOAOD/ReRecoNanoAODv11-v1/2540000/8cf172b3-585a-4db3-9561-42268f5ff413.root": [
        "T1_US_FNAL_Disk: davs://cmsdcadisk.fnal.gov:2880/dcache/uscmsdisk/store/data/Run2022A/EGamma/NANOAOD/ReRecoNanoAODv11-v1/2540000/8cf172b3-585a-4db3-9561-42268f5ff413.root",
        "T2_US_MIT: davs://xrootd.cmsaf.mit.edu:1094/store/data/Run2022A/EGamma/NANOAOD/ReRecoNanoAODv11-v1/2540000/8cf172b3-585a-4db3-9561-42268f5ff413.root",
        "T2_IT_Legnaro: davs://t2-xrdcms.lnl.infn.it:2880/pnfs/lnl.infn.it/data/cms/store/data/Run2022A/EGamma/NANOAOD/ReRecoNanoAODv11-v1/2540000/8cf172b3-585a-4db3-9561-42268f5ff413.root",
        "T2_FR_GRIF: davs://eos.grif.fr:11000/eos/grif/cms/grif/store/data/Run2022A/EGamma/NANOAOD/ReRecoNanoAODv11-v1/2540000/8cf172b3-585a-4db3-9561-42268f5ff413.root",
        "T1_FR_CCIN2P3_Tape: srm://ccsrm.in2p3.fr:8443/srm/managerv2?SFN=/pnfs/in2p3.fr/data/cms/data/store/data/Run2022A/EGamma/NANOAOD/ReRecoNanoAODv11-v1/2540000/8cf172b3-585a-4db3-9561-42268f5ff413.root",
        "T2_IT_Bari: davs://webdav.recas.ba.infn.it:8443/cms/store/data/Run2022A/EGamma/NANOAOD/ReRecoNanoAODv11-v1/2540000/8cf172b3-585a-4db3-9561-42268f5ff413.root",
        "T2_CH_CERN: davs://eoscms.cern.ch:443/eos/cms/store/data/Run2022A/EGamma/NANOAOD/ReRecoNanoAODv11-v1/2540000/8cf172b3-585a-4db3-9561-42268f5ff413.root",
        "T2_PL_Swierk: davs://se.cis.gov.pl:2880/grid/cms/store/data/Run2022A/EGamma/NANOAOD/ReRecoNanoAODv11-v1/2540000/8cf172b3-585a-4db3-9561-42268f5ff413.root",
        "T2_ES_CIEMAT: davs://srm.ciemat.es:2880/pnfs/ciemat.es/data/cms/prod/store/data/Run2022A/EGamma/NANOAOD/ReRecoNanoAODv11-v1/2540000/8cf172b3-585a-4db3-9561-42268f5ff413.root"
    ],
    "cms:/store/data/Run2022A/EGamma/NANOAOD/ReRecoNanoAODv11-v1/2540000/9a6eea9d-eff5-4221-b59d-06f4f15525af.root": [
        "T1_US_FNAL_Disk: davs://cmsdcadisk.fnal.gov:2880/dcache/uscmsdisk/store/data/Run2022A/EGamma/NANOAOD/ReRecoNanoAODv11-v1/2540000/9a6eea9d-eff5-4221-b59d-06f4f15525af.root",
        "T2_US_MIT: davs://xrootd.cmsaf.mit.edu:1094/store/data/Run2022A/EGamma/NANOAOD/ReRecoNanoAODv11-v1/2540000/9a6eea9d-eff5-4221-b59d-06f4f15525af.root",
        "T2_IT_Legnaro: davs://t2-xrdcms.lnl.infn.it:2880/pnfs/lnl.infn.it/data/cms/store/data/Run2022A/EGamma/NANOAOD/ReRecoNanoAODv11-v1/2540000/9a6eea9d-eff5-4221-b59d-06f4f15525af.root",
        "T2_FR_GRIF: davs://eos.grif.fr:11000/eos/grif/cms/grif/store/data/Run2022A/EGamma/NANOAOD/ReRecoNanoAODv11-v1/2540000/9a6eea9d-eff5-4221-b59d-06f4f15525af.root",
        "T1_FR_CCIN2P3_Tape: srm://ccsrm.in2p3.fr:8443/srm/managerv2?SFN=/pnfs/in2p3.fr/data/cms/data/store/data/Run2022A/EGamma/NANOAOD/ReRecoNanoAODv11-v1/2540000/9a6eea9d-eff5-4221-b59d-06f4f15525af.root",
        "T2_IT_Bari: davs://webdav.recas.ba.infn.it:8443/cms/store/data/Run2022A/EGamma/NANOAOD/ReRecoNanoAODv11-v1/2540000/9a6eea9d-eff5-4221-b59d-06f4f15525af.root",
        "T2_CH_CERN: davs://eoscms.cern.ch:443/eos/cms/store/data/Run2022A/EGamma/NANOAOD/ReRecoNanoAODv11-v1/2540000/9a6eea9d-eff5-4221-b59d-06f4f15525af.root",
        "T2_PL_Swierk: davs://se.cis.gov.pl:2880/grid/cms/store/data/Run2022A/EGamma/NANOAOD/ReRecoNanoAODv11-v1/2540000/9a6eea9d-eff5-4221-b59d-06f4f15525af.root",
        "T2_ES_CIEMAT: davs://srm.ciemat.es:2880/pnfs/ciemat.es/data/cms/prod/store/data/Run2022A/EGamma/NANOAOD/ReRecoNanoAODv11-v1/2540000/9a6eea9d-eff5-4221-b59d-06f4f15525af.root"
    ]
}