{
    "cms:/store/mc/Run3Summer22EENanoAODv12/ggZH_Hto2B_Zto2Q_M-125_TuneCP5_13p6TeV_powheg-pythia8/NANOAODSIM/130X_mcRun3_2022_realistic_postEE_v6-v2/40000/095e40d4-f1f4-4ab1-8cba-698b3472b1f8.root": [
        "T1_US_FNAL_Disk: davs://cmsdcadisk.fnal.gov:2880/dcache/uscmsdisk/store/mc/Run3Summer22EENanoAODv12/ggZH_Hto2B_Zto2Q_M-125_TuneCP5_13p6TeV_powheg-pythia8/NANOAODSIM/130X_mcRun3_2022_realistic_postEE_v6-v2/40000/095e40d4-f1f4-4ab1-8cba-698b3472b1f8.root",
        "T2_CH_CSCS: davs://storage01.lcg.cscs.ch:2880/pnfs/lcg.cscs.ch/cms/trivcat/store/mc/Run3Summer22EENanoAODv12/ggZH_Hto2B_Zto2Q_M-125_TuneCP5_13p6TeV_powheg-pythia8/NANOAODSIM/130X_mcRun3_2022_realistic_postEE_v6-v2/40000/095e40d4-f1f4-4ab1-8cba-698b3472b1f8.root",
        "T2_IT_Legnaro: davs://t2-xrdcms.lnl.infn.it:2880/pnfs/lnl.infn.it/data/cms/store/mc/Run3Summer22EENanoAODv12/ggZH_Hto2B_Zto2Q_M-125_TuneCP5_13p6TeV_powheg-pythia8/NANOAODSIM/130X_mcRun3_2022_realistic_postEE_v6-v2/40000/095e40d4-f1f4-4ab1-8cba-698b3472b1f8.root",
        "T2_CN_Beijing: davs://cceos.ihep.ac.cn:9000/eos/ihep/cms/store/mc/Run3Summer22EENanoAODv12/ggZH_Hto2B_Zto2Q_M-125_TuneCP5_13p6TeV_powheg-pythia8/NANOAODSIM/130X_mcRun3_2022_realistic_postEE_v6-v2/40000/095e40d4-f1f4-4ab1-8cba-698b3472b1f8.root",
        "T1_ES_PIC_Disk: davs://srmcms.pic.es:8459/pnfs/pic.es/data/cms/disk/store/mc/Run3Summer22EENanoAODv12/ggZH_Hto2B_Zto2Q_M-125_TuneCP5_13p6TeV_powheg-pythia8/NANOAODSIM/130X_mcRun3_2022_realistic_postEE_v6-v2/40000/095e40d4-f1f4-4ab1-8cba-698b3472b1f8.root",
        "T2_US_Wisconsin: davs://cmsxrootd.hep.wisc.edu:1094/store/mc/Run3Summer22EENanoAODv12/ggZH_Hto2B_Zto2Q_M-125_TuneCP5_13p6TeV_powheg-pythia8/NANOAODSIM/130X_mcRun3_2022_realistic_postEE_v6-v2/40000/095e40d4-f1f4-4ab1-8cba-698b3472b1f8.root",
        "T1_IT_CNAF_Tape: srm://storm-fe-cms.cr.cnaf.infn.it:8444/srm/managerv2?SFN=/cmstape/store/mc/Run3Summer22EENanoAODv12/ggZH_Hto2B_Zto2Q_M-125_TuneCP5_13p6TeV_powheg-pythia8/NANOAODSIM/130X_mcRun3_2022_realistic_postEE_v6-v2/40000/095e40d4-f1f4-4ab1-8cba-698b3472b1f8.root",
        "T2_HU_Budapest: davs://grid143.kfki.hu:443/dpm/kfki.hu/home/cms/phedex/store/mc/Run3Summer22EENanoAODv12/ggZH_Hto2B_Zto2Q_M-125_TuneCP5_13p6TeV_powheg-pythia8/NANOAODSIM/130X_mcRun3_2022_realistic_postEE_v6-v2/40000/095e40d4-f1f4-4ab1-8cba-698b3472b1f8.root",
        "T1_RU_JINR_Disk: davs://se-wbdv.jinr-t1.ru:2880/pnfs/jinr-t1.ru/data/cms/store/mc/Run3Summer22EENanoAODv12/ggZH_Hto2B_Zto2Q_M-125_TuneCP5_13p6TeV_powheg-pythia8/NANOAODSIM/130X_mcRun3_2022_realistic_postEE_v6-v2/40000/095e40d4-f1f4-4ab1-8cba-698b3472b1f8.root"
    ],
    "cms:/store/mc/Run3Summer22EENanoAODv12/ggZH_Hto2B_Zto2Q_M-125_TuneCP5_13p6TeV_powheg-pythia8/NANOAODSIM/130X_mcRun3_2022_realistic_postEE_v6-v2/30000/d3b7cbf6-7f97-4540-9e2f-2cd5f1650483.root": [
        "T1_US_FNAL_Disk: davs://cmsdcadisk.fnal.gov:2880/dcache/uscmsdisk/store/mc/Run3Summer22EENanoAODv12/ggZH_Hto2B_Zto2Q_M-125_TuneCP5_13p6TeV_powheg-pythia8/NANOAODSIM/130X_mcRun3_2022_realistic_postEE_v6-v2/30000/d3b7cbf6-7f97-4540-9e2f-2cd5f1650483.root",
        "T2_CH_CSCS: davs://storage01.lcg.cscs.ch:2880/pnfs/lcg.cscs.ch/cms/trivcat/store/mc/Run3Summer22EENanoAODv12/ggZH_Hto2B_Zto2Q_M-125_TuneCP5_13p6TeV_powheg-pythia8/NANOAODSIM/130X_mcRun3_2022_realistic_postEE_v6-v2/30000/d3b7cbf6-7f97-4540-9e2f-2cd5f1650483.root",
        "T2_IT_Legnaro: davs://t2-xrdcms.lnl.infn.it:2880/pnfs/lnl.infn.it/data/cms/store/mc/Run3Summer22EENanoAODv12/ggZH_Hto2B_Zto2Q_M-125_TuneCP5_13p6TeV_powheg-pythia8/NANOAODSIM/130X_mcRun3_2022_realistic_postEE_v6-v2/30000/d3b7cbf6-7f97-4540-9e2f-2cd5f1650483.root",
        "T2_CN_Beijing: davs://cceos.ihep.ac.cn:9000/eos/ihep/cms/store/mc/Run3Summer22EENanoAODv12/ggZH_Hto2B_Zto2Q_M-125_TuneCP5_13p6TeV_powheg-pythia8/NANOAODSIM/130X_mcRun3_2022_realistic_postEE_v6-v2/30000/d3b7cbf6-7f97-4540-9e2f-2cd5f1650483.root",
        "T2_US_Wisconsin: davs://cmsxrootd.hep.wisc.edu:1094/store/mc/Run3Summer22EENanoAODv12/ggZH_Hto2B_Zto2Q_M-125_TuneCP5_13p6TeV_powheg-pythia8/NANOAODSIM/130X_mcRun3_2022_realistic_postEE_v6-v2/30000/d3b7cbf6-7f97-4540-9e2f-2cd5f1650483.root",
        "T1_IT_CNAF_Tape: srm://storm-fe-cms.cr.cnaf.infn.it:8444/srm/managerv2?SFN=/cmstape/store/mc/Run3Summer22EENanoAODv12/ggZH_Hto2B_Zto2Q_M-125_TuneCP5_13p6TeV_powheg-pythia8/NANOAODSIM/130X_mcRun3_2022_realistic_postEE_v6-v2/30000/d3b7cbf6-7f97-4540-9e2f-2cd5f1650483.root",
        "T2_HU_Budapest: davs://grid143.kfki.hu:443/dpm/kfki.hu/home/cms/phedex/store/mc/Run3Summer22EENanoAODv12/ggZH_Hto2B_Zto2Q_M-125_TuneCP5_13p6TeV_powheg-pythia8/NANOAODSIM/130X_mcRun3_2022_realistic_postEE_v6-v2/30000/d3b7cbf6-7f97-4540-9e2f-2cd5f1650483.root",
        "T1_RU_JINR_Disk: davs://se-wbdv.jinr-t1.ru:2880/pnfs/jinr-t1.ru/data/cms/store/mc/Run3Summer22EENanoAODv12/ggZH_Hto2B_Zto2Q_M-125_TuneCP5_13p6TeV_powheg-pythia8/NANOAODSIM/130X_mcRun3_2022_realistic_postEE_v6-v2/30000/d3b7cbf6-7f97-4540-9e2f-2cd5f1650483.root"
    ],
    "cms:/store/mc/Run3Summer22EENanoAODv12/ggZH_Hto2B_Zto2Q_M-125_TuneCP5_13p6TeV_powheg-pythia8/NANOAODSIM/130X_mcRun3_2022_realistic_postEE_v6-v2/40000/e2d0a56c-4442-4873-aa33-f764844b0405.root": [
        "T1_US_FNAL_Disk: davs://cmsdcadisk.fnal.gov:2880/dcache/uscmsdisk/store/mc/Run3Summer22EENanoAODv12/ggZH_Hto2B_Zto2Q_M-125_TuneCP5_13p6TeV_powheg-pythia8/NANOAODSIM/130X_mcRun3_2022_realistic_postEE_v6-v2/40000/e2d0a56c-4442-4873-aa33-f764844b0405.root",
        "T2_CH_CSCS: davs://storage01.lcg.cscs.ch:2880/pnfs/lcg.cscs.ch/cms/trivcat/store/mc/Run3Summer22EENanoAODv12/ggZH_Hto2B_Zto2Q_M-125_TuneCP5_13p6TeV_powheg-pythia8/NANOAODSIM/130X_mcRun3_2022_realistic_postEE_v6-v2/40000/e2d0a56c-4442-4873-aa33-f764844b0405.root",
        "T2_IT_Legnaro: davs://t2-xrdcms.lnl.infn.it:2880/pnfs/lnl.infn.it/data/cms/store/mc/Run3Summer22EENanoAODv12/ggZH_Hto2B_Zto2Q_M-125_TuneCP5_13p6TeV_powheg-pythia8/NANOAODSIM/130X_mcRun3_2022_realistic_postEE_v6-v2/40000/e2d0a56c-4442-4873-aa33-f764844b0405.root",
        "T2_CN_Beijing: davs://cceos.ihep.ac.cn:9000/eos/ihep/cms/store/mc/Run3Summer22EENanoAODv12/ggZH_Hto2B_Zto2Q_M-125_TuneCP5_13p6TeV_powheg-pythia8/NANOAODSIM/130X_mcRun3_2022_realistic_postEE_v6-v2/40000/e2d0a56c-4442-4873-aa33-f764844b0405.root",
        "T2_US_Wisconsin: davs://cmsxrootd.hep.wisc.edu:1094/store/mc/Run3Summer22EENanoAODv12/ggZH_Hto2B_Zto2Q_M-125_TuneCP5_13p6TeV_powheg-pythia8/NANOAODSIM/130X_mcRun3_2022_realistic_postEE_v6-v2/40000/e2d0a56c-4442-4873-aa33-f764844b0405.root",
        "T1_IT_CNAF_Tape: srm://storm-fe-cms.cr.cnaf.infn.it:8444/srm/managerv2?SFN=/cmstape/store/mc/Run3Summer22EENanoAODv12/ggZH_Hto2B_Zto2Q_M-125_TuneCP5_13p6TeV_powheg-pythia8/NANOAODSIM/130X_mcRun3_2022_realistic_postEE_v6-v2/40000/e2d0a56c-4442-4873-aa33-f764844b0405.root",
        "T2_HU_Budapest: davs://grid143.kfki.hu:443/dpm/kfki.hu/home/cms/phedex/store/mc/Run3Summer22EENanoAODv12/ggZH_Hto2B_Zto2Q_M-125_TuneCP5_13p6TeV_powheg-pythia8/NANOAODSIM/130X_mcRun3_2022_realistic_postEE_v6-v2/40000/e2d0a56c-4442-4873-aa33-f764844b0405.root",
        "T1_RU_JINR_Disk: davs://se-wbdv.jinr-t1.ru:2880/pnfs/jinr-t1.ru/data/cms/store/mc/Run3Summer22EENanoAODv12/ggZH_Hto2B_Zto2Q_M-125_TuneCP5_13p6TeV_powheg-pythia8/NANOAODSIM/130X_mcRun3_2022_realistic_postEE_v6-v2/40000/e2d0a56c-4442-4873-aa33-f764844b0405.root",
        "T2_ES_CIEMAT: davs://srm.ciemat.es:2880/pnfs/ciemat.es/data/cms/prod/store/mc/Run3Summer22EENanoAODv12/ggZH_Hto2B_Zto2Q_M-125_TuneCP5_13p6TeV_powheg-pythia8/NANOAODSIM/130X_mcRun3_2022_realistic_postEE_v6-v2/40000/e2d0a56c-4442-4873-aa33-f764844b0405.root"
    ],
    "cms:/store/mc/Run3Summer22EENanoAODv12/ggZH_Hto2B_Zto2Q_M-125_TuneCP5_13p6TeV_powheg-pythia8/NANOAODSIM/130X_mcRun3_2022_realistic_postEE_v6-v2/40000/3aa8b3bf-f33c-4c3f-976b-56057160f06f.root": [
        "T1_US_FNAL_Disk: davs://cmsdcadisk.fnal.gov:2880/dcache/uscmsdisk/store/mc/Run3Summer22EENanoAODv12/ggZH_Hto2B_Zto2Q_M-125_TuneCP5_13p6TeV_powheg-pythia8/NANOAODSIM/130X_mcRun3_2022_realistic_postEE_v6-v2/40000/3aa8b3bf-f33c-4c3f-976b-56057160f06f.root",
        "T2_CH_CSCS: davs://storage01.lcg.cscs.ch:2880/pnfs/lcg.cscs.ch/cms/trivcat/store/mc/Run3Summer22EENanoAODv12/ggZH_Hto2B_Zto2Q_M-125_TuneCP5_13p6TeV_powheg-pythia8/NANOAODSIM/130X_mcRun3_2022_realistic_postEE_v6-v2/40000/3aa8b3bf-f33c-4c3f-976b-56057160f06f.root",
        "T2_IT_Legnaro: davs://t2-xrdcms.lnl.infn.it:2880/pnfs/lnl.infn.it/data/cms/store/mc/Run3Summer22EENanoAODv12/ggZH_Hto2B_Zto2Q_M-125_TuneCP5_13p6TeV_powheg-pythia8/NANOAODSIM/130X_mcRun3_2022_realistic_postEE_v6-v2/40000/3aa8b3bf-f33c-4c3f-976b-56057160f06f.root",
        "T2_CN_Beijing: davs://cceos.ihep.ac.cn:9000/eos/ihep/cms/store/mc/Run3Summer22EENanoAODv12/ggZH_Hto2B_Zto2Q_M-125_TuneCP5_13p6TeV_powheg-pythia8/NANOAODSIM/130X_mcRun3_2022_realistic_postEE_v6-v2/40000/3aa8b3bf-f33c-4c3f-976b-56057160f06f.root",
        "T2_US_Wisconsin: davs://cmsxrootd.hep.wisc.edu:1094/store/mc/Run3Summer22EENanoAODv12/ggZH_Hto2B_Zto2Q_M-125_TuneCP5_13p6TeV_powheg-pythia8/NANOAODSIM/130X_mcRun3_2022_realistic_postEE_v6-v2/40000/3aa8b3bf-f33c-4c3f-976b-56057160f06f.root",
        "T1_IT_CNAF_Tape: srm://storm-fe-cms.cr.cnaf.infn.it:8444/srm/managerv2?SFN=/cmstape/store/mc/Run3Summer22EENanoAODv12/ggZH_Hto2B_Zto2Q_M-125_TuneCP5_13p6TeV_powheg-pythia8/NANOAODSIM/130X_mcRun3_2022_realistic_postEE_v6-v2/40000/3aa8b3bf-f33c-4c3f-976b-56057160f06f.root",
        "T2_HU_Budapest: davs://grid143.kfki.hu:443/dpm/kfki.hu/home/cms/phedex/store/mc/Run3Summer22EENanoAODv12/ggZH_Hto2B_Zto2Q_M-125_TuneCP5_13p6TeV_powheg-pythia8/NANOAODSIM/130X_mcRun3_2022_realistic_postEE_v6-v2/40000/3aa8b3bf-f33c-4c3f-976b-56057160f06f.root",
        "T2_US_Purdue: davs://eos.cms.rcac.purdue.edu:9000/store/mc/Run3Summer22EENanoAODv12/ggZH_Hto2B_Zto2Q_M-125_TuneCP5_13p6TeV_powheg-pythia8/NANOAODSIM/130X_mcRun3_2022_realistic_postEE_v6-v2/40000/3aa8b3bf-f33c-4c3f-976b-56057160f06f.root",
        "T1_RU_JINR_Disk: davs://se-wbdv.jinr-t1.ru:2880/pnfs/jinr-t1.ru/data/cms/store/mc/Run3Summer22EENanoAODv12/ggZH_Hto2B_Zto2Q_M-125_TuneCP5_13p6TeV_powheg-pythia8/NANOAODSIM/130X_mcRun3_2022_realistic_postEE_v6-v2/40000/3aa8b3bf-f33c-4c3f-976b-56057160f06f.root"
    ],
    "cms:/store/mc/Run3Summer22EENanoAODv12/ggZH_Hto2B_Zto2Q_M-125_TuneCP5_13p6TeV_powheg-pythia8/NANOAODSIM/130X_mcRun3_2022_realistic_postEE_v6-v2/30000/22babbaa-41bd-4a7d-a5ca-a33ff16f9052.root": [
        "T1_US_FNAL_Disk: davs://cmsdcadisk.fnal.gov:2880/dcache/uscmsdisk/store/mc/Run3Summer22EENanoAODv12/ggZH_Hto2B_Zto2Q_M-125_TuneCP5_13p6TeV_powheg-pythia8/NANOAODSIM/130X_mcRun3_2022_realistic_postEE_v6-v2/30000/22babbaa-41bd-4a7d-a5ca-a33ff16f9052.root",
        "T2_CH_CSCS: davs://storage01.lcg.cscs.ch:2880/pnfs/lcg.cscs.ch/cms/trivcat/store/mc/Run3Summer22EENanoAODv12/ggZH_Hto2B_Zto2Q_M-125_TuneCP5_13p6TeV_powheg-pythia8/NANOAODSIM/130X_mcRun3_2022_realistic_postEE_v6-v2/30000/22babbaa-41bd-4a7d-a5ca-a33ff16f9052.root",
        "T2_IT_Legnaro: davs://t2-xrdcms.lnl.infn.it:2880/pnfs/lnl.infn.it/data/cms/store/mc/Run3Summer22EENanoAODv12/ggZH_Hto2B_Zto2Q_M-125_TuneCP5_13p6TeV_powheg-pythia8/NANOAODSIM/130X_mcRun3_2022_realistic_postEE_v6-v2/30000/22babbaa-41bd-4a7d-a5ca-a33ff16f9052.root",
        "T2_CN_Beijing: davs://cceos.ihep.ac.cn:9000/eos/ihep/cms/store/mc/Run3Summer22EENanoAODv12/ggZH_Hto2B_Zto2Q_M-125_TuneCP5_13p6TeV_powheg-pythia8/NANOAODSIM/130X_mcRun3_2022_realistic_postEE_v6-v2/30000/22babbaa-41bd-4a7d-a5ca-a33ff16f9052.root",
        "T2_US_Wisconsin: davs://cmsxrootd.hep.wisc.edu:1094/store/mc/Run3Summer22EENanoAODv12/ggZH_Hto2B_Zto2Q_M-125_TuneCP5_13p6TeV_powheg-pythia8/NANOAODSIM/130X_mcRun3_2022_realistic_postEE_v6-v2/30000/22babbaa-41bd-4a7d-a5ca-a33ff16f9052.root",
        "T1_IT_CNAF_Tape: srm://storm-fe-cms.cr.cnaf.infn.it:8444/srm/managerv2?SFN=/cmstape/store/mc/Run3Summer22EENanoAODv12/ggZH_Hto2B_Zto2Q_M-125_TuneCP5_13p6TeV_powheg-pythia8/NANOAODSIM/130X_mcRun3_2022_realistic_postEE_v6-v2/30000/22babbaa-41bd-4a7d-a5ca-a33ff16f9052.root",
        "T2_HU_Budapest: davs://grid143.kfki.hu:443/dpm/kfki.hu/home/cms/phedex/store/mc/Run3Summer22EENanoAODv12/ggZH_Hto2B_Zto2Q_M-125_TuneCP5_13p6TeV_powheg-pythia8/NANOAODSIM/130X_mcRun3_2022_realistic_postEE_v6-v2/30000/22babbaa-41bd-4a7d-a5ca-a33ff16f9052.root",
        "T1_RU_JINR_Disk: davs://se-wbdv.jinr-t1.ru:2880/pnfs/jinr-t1.ru/data/cms/store/mc/Run3Summer22EENanoAODv12/ggZH_Hto2B_Zto2Q_M-125_TuneCP5_13p6TeV_powheg-pythia8/NANOAODSIM/130X_mcRun3_2022_realistic_postEE_v6-v2/30000/22babbaa-41bd-4a7d-a5ca-a33ff16f9052.root"
    ],
    "cms:/store/mc/Run3Summer22EENanoAODv12/ggZH_Hto2B_Zto2Q_M-125_TuneCP5_13p6TeV_powheg-pythia8/NANOAODSIM/130X_mcRun3_2022_realistic_postEE_v6-v2/2530000/8f63858f-4649-40a9-b9a0-47bffe3f3e56.root": [
        "T1_US_FNAL_Disk: davs://cmsdcadisk.fnal.gov:2880/dcache/uscmsdisk/store/mc/Run3Summer22EENanoAODv12/ggZH_Hto2B_Zto2Q_M-125_TuneCP5_13p6TeV_powheg-pythia8/NANOAODSIM/130X_mcRun3_2022_realistic_postEE_v6-v2/2530000/8f63858f-4649-40a9-b9a0-47bffe3f3e56.root",
        "T2_CH_CSCS: davs://storage01.lcg.cscs.ch:2880/pnfs/lcg.cscs.ch/cms/trivcat/store/mc/Run3Summer22EENanoAODv12/ggZH_Hto2B_Zto2Q_M-125_TuneCP5_13p6TeV_powheg-pythia8/NANOAODSIM/130X_mcRun3_2022_realistic_postEE_v6-v2/2530000/8f63858f-4649-40a9-b9a0-47bffe3f3e56.root",
        "T2_IT_Legnaro: davs://t2-xrdcms.lnl.infn.it:2880/pnfs/lnl.infn.it/data/cms/store/mc/Run3Summer22EENanoAODv12/ggZH_Hto2B_Zto2Q_M-125_TuneCP5_13p6TeV_powheg-pythia8/NANOAODSIM/130X_mcRun3_2022_realistic_postEE_v6-v2/2530000/8f63858f-4649-40a9-b9a0-47bffe3f3e56.root",
        "T2_CN_Beijing: davs://cceos.ihep.ac.cn:9000/eos/ihep/cms/store/mc/Run3Summer22EENanoAODv12/ggZH_Hto2B_Zto2Q_M-125_TuneCP5_13p6TeV_powheg-pythia8/NANOAODSIM/130X_mcRun3_2022_realistic_postEE_v6-v2/2530000/8f63858f-4649-40a9-b9a0-47bffe3f3e56.root",
        "T2_US_Wisconsin: davs://cmsxrootd.hep.wisc.edu:1094/store/mc/Run3Summer22EENanoAODv12/ggZH_Hto2B_Zto2Q_M-125_TuneCP5_13p6TeV_powheg-pythia8/NANOAODSIM/130X_mcRun3_2022_realistic_postEE_v6-v2/2530000/8f63858f-4649-40a9-b9a0-47bffe3f3e56.root",
        "T1_IT_CNAF_Tape: srm://storm-fe-cms.cr.cnaf.infn.it:8444/srm/managerv2?SFN=/cmstape/store/mc/Run3Summer22EENanoAODv12/ggZH_Hto2B_Zto2Q_M-125_TuneCP5_13p6TeV_powheg-pythia8/NANOAODSIM/130X_mcRun3_2022_realistic_postEE_v6-v2/2530000/8f63858f-4649-40a9-b9a0-47bffe3f3e56.root",
        "T2_HU_Budapest: davs://grid143.kfki.hu:443/dpm/kfki.hu/home/cms/phedex/store/mc/Run3Summer22EENanoAODv12/ggZH_Hto2B_Zto2Q_M-125_TuneCP5_13p6TeV_powheg-pythia8/NANOAODSIM/130X_mcRun3_2022_realistic_postEE_v6-v2/2530000/8f63858f-4649-40a9-b9a0-47bffe3f3e56.root",
        "T1_RU_JINR_Disk: davs://se-wbdv.jinr-t1.ru:2880/pnfs/jinr-t1.ru/data/cms/store/mc/Run3Summer22EENanoAODv12/ggZH_Hto2B_Zto2Q_M-125_TuneCP5_13p6TeV_powheg-pythia8/NANOAODSIM/130X_mcRun3_2022_realistic_postEE_v6-v2/2530000/8f63858f-4649-40a9-b9a0-47bffe3f3e56.root",
        "T1_IT_CNAF_Disk: davs://xfer-cms.cr.cnaf.infn.it:8443/cmsdisk/store/mc/Run3Summer22EENanoAODv12/ggZH_Hto2B_Zto2Q_M-125_TuneCP5_13p6TeV_powheg-pythia8/NANOAODSIM/130X_mcRun3_2022_realistic_postEE_v6-v2/2530000/8f63858f-4649-40a9-b9a0-47bffe3f3e56.root"
    ],
    "cms:/store/mc/Run3Summer22EENanoAODv12/ggZH_Hto2B_Zto2Q_M-125_TuneCP5_13p6TeV_powheg-pythia8/NANOAODSIM/130X_mcRun3_2022_realistic_postEE_v6-v2/2530000/8d6e2a8b-3853-416b-afd7-657ca1329727.root": [
        "T1_US_FNAL_Disk: davs://cmsdcadisk.fnal.gov:2880/dcache/uscmsdisk/store/mc/Run3Summer22EENanoAODv12/ggZH_Hto2B_Zto2Q_M-125_TuneCP5_13p6TeV_powheg-pythia8/NANOAODSIM/130X_mcRun3_2022_realistic_postEE_v6-v2/2530000/8d6e2a8b-3853-416b-afd7-657ca1329727.root",
        "T2_CH_CSCS: davs://storage01.lcg.cscs.ch:2880/pnfs/lcg.cscs.ch/cms/trivcat/store/mc/Run3Summer22EENanoAODv12/ggZH_Hto2B_Zto2Q_M-125_TuneCP5_13p6TeV_powheg-pythia8/NANOAODSIM/130X_mcRun3_2022_realistic_postEE_v6-v2/2530000/8d6e2a8b-3853-416b-afd7-657ca1329727.root",
        "T2_IT_Legnaro: davs://t2-xrdcms.lnl.infn.it:2880/pnfs/lnl.infn.it/data/cms/store/mc/Run3Summer22EENanoAODv12/ggZH_Hto2B_Zto2Q_M-125_TuneCP5_13p6TeV_powheg-pythia8/NANOAODSIM/130X_mcRun3_2022_realistic_postEE_v6-v2/2530000/8d6e2a8b-3853-416b-afd7-657ca1329727.root",
        "T2_CN_Beijing: davs://cceos.ihep.ac.cn:9000/eos/ihep/cms/store/mc/Run3Summer22EENanoAODv12/ggZH_Hto2B_Zto2Q_M-125_TuneCP5_13p6TeV_powheg-pythia8/NANOAODSIM/130X_mcRun3_2022_realistic_postEE_v6-v2/2530000/8d6e2a8b-3853-416b-afd7-657ca1329727.root",
        "T2_US_Wisconsin: davs://cmsxrootd.hep.wisc.edu:1094/store/mc/Run3Summer22EENanoAODv12/ggZH_Hto2B_Zto2Q_M-125_TuneCP5_13p6TeV_powheg-pythia8/NANOAODSIM/130X_mcRun3_2022_realistic_postEE_v6-v2/2530000/8d6e2a8b-3853-416b-afd7-657ca1329727.root",
        "T1_IT_CNAF_Tape: srm://storm-fe-cms.cr.cnaf.infn.it:8444/srm/managerv2?SFN=/cmstape/store/mc/Run3Summer22EENanoAODv12/ggZH_Hto2B_Zto2Q_M-125_TuneCP5_13p6TeV_powheg-pythia8/NANOAODSIM/130X_mcRun3_2022_realistic_postEE_v6-v2/2530000/8d6e2a8b-3853-416b-afd7-657ca1329727.root",
        "T2_HU_Budapest: davs://grid143.kfki.hu:443/dpm/kfki.hu/home/cms/phedex/store/mc/Run3Summer22EENanoAODv12/ggZH_Hto2B_Zto2Q_M-125_TuneCP5_13p6TeV_powheg-pythia8/NANOAODSIM/130X_mcRun3_2022_realistic_postEE_v6-v2/2530000/8d6e2a8b-3853-416b-afd7-657ca1329727.root",
        "T1_RU_JINR_Disk: davs://se-wbdv.jinr-t1.ru:2880/pnfs/jinr-t1.ru/data/cms/store/mc/Run3Summer22EENanoAODv12/ggZH_Hto2B_Zto2Q_M-125_TuneCP5_13p6TeV_powheg-pythia8/NANOAODSIM/130X_mcRun3_2022_realistic_postEE_v6-v2/2530000/8d6e2a8b-3853-416b-afd7-657ca1329727.root"
    ],
    "cms:/store/mc/Run3Summer22EENanoAODv12/ggZH_Hto2B_Zto2Q_M-125_TuneCP5_13p6TeV_powheg-pythia8/NANOAODSIM/130X_mcRun3_2022_realistic_postEE_v6-v2/50000/f4d86e6a-cd22-4242-8089-0eb2570ac5af.root": [
        "T1_US_FNAL_Disk: davs://cmsdcadisk.fnal.gov:2880/dcache/uscmsdisk/store/mc/Run3Summer22EENanoAODv12/ggZH_Hto2B_Zto2Q_M-125_TuneCP5_13p6TeV_powheg-pythia8/NANOAODSIM/130X_mcRun3_2022_realistic_postEE_v6-v2/50000/f4d86e6a-cd22-4242-8089-0eb2570ac5af.root",
        "T2_CH_CSCS: davs://storage01.lcg.cscs.ch:2880/pnfs/lcg.cscs.ch/cms/trivcat/store/mc/Run3Summer22EENanoAODv12/ggZH_Hto2B_Zto2Q_M-125_TuneCP5_13p6TeV_powheg-pythia8/NANOAODSIM/130X_mcRun3_2022_realistic_postEE_v6-v2/50000/f4d86e6a-cd22-4242-8089-0eb2570ac5af.root",
        "T2_IT_Legnaro: davs://t2-xrdcms.lnl.infn.it:2880/pnfs/lnl.infn.it/data/cms/store/mc/Run3Summer22EENanoAODv12/ggZH_Hto2B_Zto2Q_M-125_TuneCP5_13p6TeV_powheg-pythia8/NANOAODSIM/130X_mcRun3_2022_realistic_postEE_v6-v2/50000/f4d86e6a-cd22-4242-8089-0eb2570ac5af.root",
        "T2_CN_Beijing: davs://cceos.ihep.ac.cn:9000/eos/ihep/cms/store/mc/Run3Summer22EENanoAODv12/ggZH_Hto2B_Zto2Q_M-125_TuneCP5_13p6TeV_powheg-pythia8/NANOAODSIM/130X_mcRun3_2022_realistic_postEE_v6-v2/50000/f4d86e6a-cd22-4242-8089-0eb2570ac5af.root",
        "T2_US_Wisconsin: davs://cmsxrootd.hep.wisc.edu:1094/store/mc/Run3Summer22EENanoAODv12/ggZH_Hto2B_Zto2Q_M-125_TuneCP5_13p6TeV_powheg-pythia8/NANOAODSIM/130X_mcRun3_2022_realistic_postEE_v6-v2/50000/f4d86e6a-cd22-4242-8089-0eb2570ac5af.root",
        "T1_IT_CNAF_Tape: srm://storm-fe-cms.cr.cnaf.infn.it:8444/srm/managerv2?SFN=/cmstape/store/mc/Run3Summer22EENanoAODv12/ggZH_Hto2B_Zto2Q_M-125_TuneCP5_13p6TeV_powheg-pythia8/NANOAODSIM/130X_mcRun3_2022_realistic_postEE_v6-v2/50000/f4d86e6a-cd22-4242-8089-0eb2570ac5af.root",
        "T2_HU_Budapest: davs://grid143.kfki.hu:443/dpm/kfki.hu/home/cms/phedex/store/mc/Run3Summer22EENanoAODv12/ggZH_Hto2B_Zto2Q_M-125_TuneCP5_13p6TeV_powheg-pythia8/NANOAODSIM/130X_mcRun3_2022_realistic_postEE_v6-v2/50000/f4d86e6a-cd22-4242-8089-0eb2570ac5af.root",
        "T1_RU_JINR_Disk: davs://se-wbdv.jinr-t1.ru:2880/pnfs/jinr-t1.ru/data/cms/store/mc/Run3Summer22EENanoAODv12/ggZH_Hto2B_Zto2Q_M-125_TuneCP5_13p6TeV_powheg-pythia8/NANOAODSIM/130X_mcRun3_2022_realistic_postEE_v6-v2/50000/f4d86e6a-cd22-4242-8089-0eb2570ac5af.root",
        "T1_IT_CNAF_Disk: davs://xfer-cms.cr.cnaf.infn.it:8443/cmsdisk/store/mc/Run3Summer22EENanoAODv12/ggZH_Hto2B_Zto2Q_M-125_TuneCP5_13p6TeV_powheg-pythia8/NANOAODSIM/130X_mcRun3_2022_realistic_postEE_v6-v2/50000/f4d86e6a-cd22-4242-8089-0eb2570ac5af.root"
    ],
    "cms:/store/mc/Run3Summer22EENanoAODv12/ggZH_Hto2B_Zto2Q_M-125_TuneCP5_13p6TeV_powheg-pythia8/NANOAODSIM/130X_mcRun3_2022_realistic_postEE_v6-v2/2520000/2272c9e9-e3b6-4b28-b01d-0e5cef4a5b94.root": [
        "T1_US_FNAL_Disk: davs://cmsdcadisk.fnal.gov:2880/dcache/uscmsdisk/store/mc/Run3Summer22EENanoAODv12/ggZH_Hto2B_Zto2Q_M-125_TuneCP5_13p6TeV_powheg-pythia8/NANOAODSIM/130X_mcRun3_2022_realistic_postEE_v6-v2/2520000/2272c9e9-e3b6-4b28-b01d-0e5cef4a5b94.root",
        "T2_CH_CSCS: davs://storage01.lcg.cscs.ch:2880/pnfs/lcg.cscs.ch/cms/trivcat/store/mc/Run3Summer22EENanoAODv12/ggZH_Hto2B_Zto2Q_M-125_TuneCP5_13p6TeV_powheg-pythia8/NANOAODSIM/130X_mcRun3_2022_realistic_postEE_v6-v2/2520000/2272c9e9-e3b6-4b28-b01d-0e5cef4a5b94.root",
        "T2_IT_Legnaro: davs://t2-xrdcms.lnl.infn.it:2880/pnfs/lnl.infn.it/data/cms/store/mc/Run3Summer22EENanoAODv12/ggZH_Hto2B_Zto2Q_M-125_TuneCP5_13p6TeV_powheg-pythia8/NANOAODSIM/130X_mcRun3_2022_realistic_postEE_v6-v2/2520000/2272c9e9-e3b6-4b28-b01d-0e5cef4a5b94.root",
        "T2_CN_Beijing: davs://cceos.ihep.ac.cn:9000/eos/ihep/cms/store/mc/Run3Summer22EENanoAODv12/ggZH_Hto2B_Zto2Q_M-125_TuneCP5_13p6TeV_powheg-pythia8/NANOAODSIM/130X_mcRun3_2022_realistic_postEE_v6-v2/2520000/2272c9e9-e3b6-4b28-b01d-0e5cef4a5b94.root",
        "T2_US_Wisconsin: davs://cmsxrootd.hep.wisc.edu:1094/store/mc/Run3Summer22EENanoAODv12/ggZH_Hto2B_Zto2Q_M-125_TuneCP5_13p6TeV_powheg-pythia8/NANOAODSIM/130X_mcRun3_2022_realistic_postEE_v6-v2/2520000/2272c9e9-e3b6-4b28-b01d-0e5cef4a5b94.root",
        "T1_IT_CNAF_Tape: srm://storm-fe-cms.cr.cnaf.infn.it:8444/srm/managerv2?SFN=/cmstape/store/mc/Run3Summer22EENanoAODv12/ggZH_Hto2B_Zto2Q_M-125_TuneCP5_13p6TeV_powheg-pythia8/NANOAODSIM/130X_mcRun3_2022_realistic_postEE_v6-v2/2520000/2272c9e9-e3b6-4b28-b01d-0e5cef4a5b94.root",
        "T2_HU_Budapest: davs://grid143.kfki.hu:443/dpm/kfki.hu/home/cms/phedex/store/mc/Run3Summer22EENanoAODv12/ggZH_Hto2B_Zto2Q_M-125_TuneCP5_13p6TeV_powheg-pythia8/NANOAODSIM/130X_mcRun3_2022_realistic_postEE_v6-v2/2520000/2272c9e9-e3b6-4b28-b01d-0e5cef4a5b94.root",
        "T1_RU_JINR_Disk: davs://se-wbdv.jinr-t1.ru:2880/pnfs/jinr-t1.ru/data/cms/store/mc/Run3Summer22EENanoAODv12/ggZH_Hto2B_Zto2Q_M-125_TuneCP5_13p6TeV_powheg-pythia8/NANOAODSIM/130X_mcRun3_2022_realistic_postEE_v6-v2/2520000/2272c9e9-e3b6-4b28-b01d-0e5cef4a5b94.root",
        "T1_IT_CNAF_Disk: davs://xfer-cms.cr.cnaf.infn.it:8443/cmsdisk/store/mc/Run3Summer22EENanoAODv12/ggZH_Hto2B_Zto2Q_M-125_TuneCP5_13p6TeV_powheg-pythia8/NANOAODSIM/130X_mcRun3_2022_realistic_postEE_v6-v2/2520000/2272c9e9-e3b6-4b28-b01d-0e5cef4a5b94.root",
        "T2_IN_TIFR: davs://se01.indiacms.res.in:443/dpm/indiacms.res.in/home/cms/store/mc/Run3Summer22EENanoAODv12/ggZH_Hto2B_Zto2Q_M-125_TuneCP5_13p6TeV_powheg-pythia8/NANOAODSIM/130X_mcRun3_2022_realistic_postEE_v6-v2/2520000/2272c9e9-e3b6-4b28-b01d-0e5cef4a5b94.root"
    ],
    "cms:/store/mc/Run3Summer22EENanoAODv12/ggZH_Hto2B_Zto2Q_M-125_TuneCP5_13p6TeV_powheg-pythia8/NANOAODSIM/130X_mcRun3_2022_realistic_postEE_v6-v2/2520000/e66f7d43-26ef-44b9-86a5-18359dbf507d.root": [
        "T1_US_FNAL_Disk: davs://cmsdcadisk.fnal.gov:2880/dcache/uscmsdisk/store/mc/Run3Summer22EENanoAODv12/ggZH_Hto2B_Zto2Q_M-125_TuneCP5_13p6TeV_powheg-pythia8/NANOAODSIM/130X_mcRun3_2022_realistic_postEE_v6-v2/2520000/e66f7d43-26ef-44b9-86a5-18359dbf507d.root",
        "T2_CH_CSCS: davs://storage01.lcg.cscs.ch:2880/pnfs/lcg.cscs.ch/cms/trivcat/store/mc/Run3Summer22EENanoAODv12/ggZH_Hto2B_Zto2Q_M-125_TuneCP5_13p6TeV_powheg-pythia8/NANOAODSIM/130X_mcRun3_2022_realistic_postEE_v6-v2/2520000/e66f7d43-26ef-44b9-86a5-18359dbf507d.root",
        "T2_IT_Legnaro: davs://t2-xrdcms.lnl.infn.it:2880/pnfs/lnl.infn.it/data/cms/store/mc/Run3Summer22EENanoAODv12/ggZH_Hto2B_Zto2Q_M-125_TuneCP5_13p6TeV_powheg-pythia8/NANOAODSIM/130X_mcRun3_2022_realistic_postEE_v6-v2/2520000/e66f7d43-26ef-44b9-86a5-18359dbf507d.root",
        "T2_CN_Beijing: davs://cceos.ihep.ac.cn:9000/eos/ihep/cms/store/mc/Run3Summer22EENanoAODv12/ggZH_Hto2B_Zto2Q_M-125_TuneCP5_13p6TeV_powheg-pythia8/NANOAODSIM/130X_mcRun3_2022_realistic_postEE_v6-v2/2520000/e66f7d43-26ef-44b9-86a5-18359dbf507d.root",
        "T2_US_Wisconsin: davs://cmsxrootd.hep.wisc.edu:1094/store/mc/Run3Summer22EENanoAODv12/ggZH_Hto2B_Zto2Q_M-125_TuneCP5_13p6TeV_powheg-pythia8/NANOAODSIM/130X_mcRun3_2022_realistic_postEE_v6-v2/2520000/e66f7d43-26ef-44b9-86a5-18359dbf507d.root",
        "T1_IT_CNAF_Tape: srm://storm-fe-cms.cr.cnaf.infn.it:8444/srm/managerv2?SFN=/cmstape/store/mc/Run3Summer22EENanoAODv12/ggZH_Hto2B_Zto2Q_M-125_TuneCP5_13p6TeV_powheg-pythia8/NANOAODSIM/130X_mcRun3_2022_realistic_postEE_v6-v2/2520000/e66f7d43-26ef-44b9-86a5-18359dbf507d.root",
        "T2_HU_Budapest: davs://grid143.kfki.hu:443/dpm/kfki.hu/home/cms/phedex/store/mc/Run3Summer22EENanoAODv12/ggZH_Hto2B_Zto2Q_M-125_TuneCP5_13p6TeV_powheg-pythia8/NANOAODSIM/130X_mcRun3_2022_realistic_postEE_v6-v2/2520000/e66f7d43-26ef-44b9-86a5-18359dbf507d.root",
        "T1_RU_JINR_Disk: davs://se-wbdv.jinr-t1.ru:2880/pnfs/jinr-t1.ru/data/cms/store/mc/Run3Summer22EENanoAODv12/ggZH_Hto2B_Zto2Q_M-125_TuneCP5_13p6TeV_powheg-pythia8/NANOAODSIM/130X_mcRun3_2022_realistic_postEE_v6-v2/2520000/e66f7d43-26ef-44b9-86a5-18359dbf507d.root",
        "T1_IT_CNAF_Disk: davs://xfer-cms.cr.cnaf.infn.it:8443/cmsdisk/store/mc/Run3Summer22EENanoAODv12/ggZH_Hto2B_Zto2Q_M-125_TuneCP5_13p6TeV_powheg-pythia8/NANOAODSIM/130X_mcRun3_2022_realistic_postEE_v6-v2/2520000/e66f7d43-26ef-44b9-86a5-18359dbf507d.root",
        "T2_IN_TIFR: davs://se01.indiacms.res.in:443/dpm/indiacms.res.in/home/cms/store/mc/Run3Summer22EENanoAODv12/ggZH_Hto2B_Zto2Q_M-125_TuneCP5_13p6TeV_powheg-pythia8/NANOAODSIM/130X_mcRun3_2022_realistic_postEE_v6-v2/2520000/e66f7d43-26ef-44b9-86a5-18359dbf507d.root"
    ],
    "cms:/store/mc/Run3Summer22EENanoAODv12/ggZH_Hto2B_Zto2Q_M-125_TuneCP5_13p6TeV_powheg-pythia8/NANOAODSIM/130X_mcRun3_2022_realistic_postEE_v6-v2/40000/5a83e2fc-6261-4e4b-8e26-9e87daad1885.root": [
        "T1_US_FNAL_Disk: davs://cmsdcadisk.fnal.gov:2880/dcache/uscmsdisk/store/mc/Run3Summer22EENanoAODv12/ggZH_Hto2B_Zto2Q_M-125_TuneCP5_13p6TeV_powheg-pythia8/NANOAODSIM/130X_mcRun3_2022_realistic_postEE_v6-v2/40000/5a83e2fc-6261-4e4b-8e26-9e87daad1885.root",
        "T2_CH_CSCS: davs://storage01.lcg.cscs.ch:2880/pnfs/lcg.cscs.ch/cms/trivcat/store/mc/Run3Summer22EENanoAODv12/ggZH_Hto2B_Zto2Q_M-125_TuneCP5_13p6TeV_powheg-pythia8/NANOAODSIM/130X_mcRun3_2022_realistic_postEE_v6-v2/40000/5a83e2fc-6261-4e4b-8e26-9e87daad1885.root",
        "T2_IT_Legnaro: davs://t2-xrdcms.lnl.infn.it:2880/pnfs/lnl.infn.it/data/cms/store/mc/Run3Summer22EENanoAODv12/ggZH_Hto2B_Zto2Q_M-125_TuneCP5_13p6TeV_powheg-pythia8/NANOAODSIM/130X_mcRun3_2022_realistic_postEE_v6-v2/40000/5a83e2fc-6261-4e4b-8e26-9e87daad1885.root",
        "T2_CN_Beijing: davs://cceos.ihep.ac.cn:9000/eos/ihep/cms/store/mc/Run3Summer22EENanoAODv12/ggZH_Hto2B_Zto2Q_M-125_TuneCP5_13p6TeV_powheg-pythia8/NANOAODSIM/130X_mcRun3_2022_realistic_postEE_v6-v2/40000/5a83e2fc-6261-4e4b-8e26-9e87daad1885.root",
        "T2_US_Wisconsin: davs://cmsxrootd.hep.wisc.edu:1094/store/mc/Run3Summer22EENanoAODv12/ggZH_Hto2B_Zto2Q_M-125_TuneCP5_13p6TeV_powheg-pythia8/NANOAODSIM/130X_mcRun3_2022_realistic_postEE_v6-v2/40000/5a83e2fc-6261-4e4b-8e26-9e87daad1885.root",
        "T1_IT_CNAF_Tape: srm://storm-fe-cms.cr.cnaf.infn.it:8444/srm/managerv2?SFN=/cmstape/store/mc/Run3Summer22EENanoAODv12/ggZH_Hto2B_Zto2Q_M-125_TuneCP5_13p6TeV_powheg-pythia8/NANOAODSIM/130X_mcRun3_2022_realistic_postEE_v6-v2/40000/5a83e2fc-6261-4e4b-8e26-9e87daad1885.root",
        "T2_HU_Budapest: davs://grid143.kfki.hu:443/dpm/kfki.hu/home/cms/phedex/store/mc/Run3Summer22EENanoAODv12/ggZH_Hto2B_Zto2Q_M-125_TuneCP5_13p6TeV_powheg-pythia8/NANOAODSIM/130X_mcRun3_2022_realistic_postEE_v6-v2/40000/5a83e2fc-6261-4e4b-8e26-9e87daad1885.root",
        "T2_IT_Pisa: davs://stwebdav.pi.infn.it:8443/cms/store/mc/Run3Summer22EENanoAODv12/ggZH_Hto2B_Zto2Q_M-125_TuneCP5_13p6TeV_powheg-pythia8/NANOAODSIM/130X_mcRun3_2022_realistic_postEE_v6-v2/40000/5a83e2fc-6261-4e4b-8e26-9e87daad1885.root",
        "T1_RU_JINR_Disk: davs://se-wbdv.jinr-t1.ru:2880/pnfs/jinr-t1.ru/data/cms/store/mc/Run3Summer22EENanoAODv12/ggZH_Hto2B_Zto2Q_M-125_TuneCP5_13p6TeV_powheg-pythia8/NANOAODSIM/130X_mcRun3_2022_realistic_postEE_v6-v2/40000/5a83e2fc-6261-4e4b-8e26-9e87daad1885.root"
    ],
    "cms:/store/mc/Run3Summer22EENanoAODv12/ggZH_Hto2B_Zto2Q_M-125_TuneCP5_13p6TeV_powheg-pythia8/NANOAODSIM/130X_mcRun3_2022_realistic_postEE_v6-v2/30000/6feeacb9-2696-477b-b618-ae1533489f96.root": [
        "T1_US_FNAL_Disk: davs://cmsdcadisk.fnal.gov:2880/dcache/uscmsdisk/store/mc/Run3Summer22EENanoAODv12/ggZH_Hto2B_Zto2Q_M-125_TuneCP5_13p6TeV_powheg-pythia8/NANOAODSIM/130X_mcRun3_2022_realistic_postEE_v6-v2/30000/6feeacb9-2696-477b-b618-ae1533489f96.root",
        "T2_CH_CSCS: davs://storage01.lcg.cscs.ch:2880/pnfs/lcg.cscs.ch/cms/trivcat/store/mc/Run3Summer22EENanoAODv12/ggZH_Hto2B_Zto2Q_M-125_TuneCP5_13p6TeV_powheg-pythia8/NANOAODSIM/130X_mcRun3_2022_realistic_postEE_v6-v2/30000/6feeacb9-2696-477b-b618-ae1533489f96.root",
        "T2_IT_Legnaro: davs://t2-xrdcms.lnl.infn.it:2880/pnfs/lnl.infn.it/data/cms/store/mc/Run3Summer22EENanoAODv12/ggZH_Hto2B_Zto2Q_M-125_TuneCP5_13p6TeV_powheg-pythia8/NANOAODSIM/130X_mcRun3_2022_realistic_postEE_v6-v2/30000/6feeacb9-2696-477b-b618-ae1533489f96.root",
        "T2_CN_Beijing: davs://cceos.ihep.ac.cn:9000/eos/ihep/cms/store/mc/Run3Summer22EENanoAODv12/ggZH_Hto2B_Zto2Q_M-125_TuneCP5_13p6TeV_powheg-pythia8/NANOAODSIM/130X_mcRun3_2022_realistic_postEE_v6-v2/30000/6feeacb9-2696-477b-b618-ae1533489f96.root",
        "T2_US_Wisconsin: davs://cmsxrootd.hep.wisc.edu:1094/store/mc/Run3Summer22EENanoAODv12/ggZH_Hto2B_Zto2Q_M-125_TuneCP5_13p6TeV_powheg-pythia8/NANOAODSIM/130X_mcRun3_2022_realistic_postEE_v6-v2/30000/6feeacb9-2696-477b-b618-ae1533489f96.root",
        "T1_IT_CNAF_Tape: srm://storm-fe-cms.cr.cnaf.infn.it:8444/srm/managerv2?SFN=/cmstape/store/mc/Run3Summer22EENanoAODv12/ggZH_Hto2B_Zto2Q_M-125_TuneCP5_13p6TeV_powheg-pythia8/NANOAODSIM/130X_mcRun3_2022_realistic_postEE_v6-v2/30000/6feeacb9-2696-477b-b618-ae1533489f96.root",
        "T2_HU_Budapest: davs://grid143.kfki.hu:443/dpm/kfki.hu/home/cms/phedex/store/mc/Run3Summer22EENanoAODv12/ggZH_Hto2B_Zto2Q_M-125_TuneCP5_13p6TeV_powheg-pythia8/NANOAODSIM/130X_mcRun3_2022_realistic_postEE_v6-v2/30000/6feeacb9-2696-477b-b618-ae1533489f96.root",
        "T2_BE_IIHE: davs://maite.iihe.ac.be:2880/pnfs/iihe/cms/ph/sc4/store/mc/Run3Summer22EENanoAODv12/ggZH_Hto2B_Zto2Q_M-125_TuneCP5_13p6TeV_powheg-pythia8/NANOAODSIM/130X_mcRun3_2022_realistic_postEE_v6-v2/30000/6feeacb9-2696-477b-b618-ae1533489f96.root",
        "T1_RU_JINR_Disk: davs://se-wbdv.jinr-t1.ru:2880/pnfs/jinr-t1.ru/data/cms/store/mc/Run3Summer22EENanoAODv12/ggZH_Hto2B_Zto2Q_M-125_TuneCP5_13p6TeV_powheg-pythia8/NANOAODSIM/130X_mcRun3_2022_realistic_postEE_v6-v2/30000/6feeacb9-2696-477b-b618-ae1533489f96.root",
        "T2_ES_CIEMAT: davs://srm.ciemat.es:2880/pnfs/ciemat.es/data/cms/prod/store/mc/Run3Summer22EENanoAODv12/ggZH_Hto2B_Zto2Q_M-125_TuneCP5_13p6TeV_powheg-pythia8/NANOAODSIM/130X_mcRun3_2022_realistic_postEE_v6-v2/30000/6feeacb9-2696-477b-b618-ae1533489f96.root"
    ],
    "cms:/store/mc/Run3Summer22EENanoAODv12/ggZH_Hto2B_Zto2Q_M-125_TuneCP5_13p6TeV_powheg-pythia8/NANOAODSIM/130X_mcRun3_2022_realistic_postEE_v6-v2/50000/7479aae6-b1a2-4aa3-9b80-40077be04013.root": [
        "T1_US_FNAL_Disk: davs://cmsdcadisk.fnal.gov:2880/dcache/uscmsdisk/store/mc/Run3Summer22EENanoAODv12/ggZH_Hto2B_Zto2Q_M-125_TuneCP5_13p6TeV_powheg-pythia8/NANOAODSIM/130X_mcRun3_2022_realistic_postEE_v6-v2/50000/7479aae6-b1a2-4aa3-9b80-40077be04013.root",
        "T2_CH_CSCS: davs://storage01.lcg.cscs.ch:2880/pnfs/lcg.cscs.ch/cms/trivcat/store/mc/Run3Summer22EENanoAODv12/ggZH_Hto2B_Zto2Q_M-125_TuneCP5_13p6TeV_powheg-pythia8/NANOAODSIM/130X_mcRun3_2022_realistic_postEE_v6-v2/50000/7479aae6-b1a2-4aa3-9b80-40077be04013.root",
        "T2_IT_Legnaro: davs://t2-xrdcms.lnl.infn.it:2880/pnfs/lnl.infn.it/data/cms/store/mc/Run3Summer22EENanoAODv12/ggZH_Hto2B_Zto2Q_M-125_TuneCP5_13p6TeV_powheg-pythia8/NANOAODSIM/130X_mcRun3_2022_realistic_postEE_v6-v2/50000/7479aae6-b1a2-4aa3-9b80-40077be04013.root",
        "T2_CN_Beijing: davs://cceos.ihep.ac.cn:9000/eos/ihep/cms/store/mc/Run3Summer22EENanoAODv12/ggZH_Hto2B_Zto2Q_M-125_TuneCP5_13p6TeV_powheg-pythia8/NANOAODSIM/130X_mcRun3_2022_realistic_postEE_v6-v2/50000/7479aae6-b1a2-4aa3-9b80-40077be04013.root",
        "T2_US_Wisconsin: davs://cmsxrootd.hep.wisc.edu:1094/store/mc/Run3Summer22EENanoAODv12/ggZH_Hto2B_Zto2Q_M-125_TuneCP5_13p6TeV_powheg-pythia8/NANOAODSIM/130X_mcRun3_2022_realistic_postEE_v6-v2/50000/7479aae6-b1a2-4aa3-9b80-40077be04013.root",
        "T1_IT_CNAF_Tape: srm://storm-fe-cms.cr.cnaf.infn.it:8444/srm/managerv2?SFN=/cmstape/store/mc/Run3Summer22EENanoAODv12/ggZH_Hto2B_Zto2Q_M-125_TuneCP5_13p6TeV_powheg-pythia8/NANOAODSIM/130X_mcRun3_2022_realistic_postEE_v6-v2/50000/7479aae6-b1a2-4aa3-9b80-40077be04013.root",
        "T2_HU_Budapest: davs://grid143.kfki.hu:443/dpm/kfki.hu/home/cms/phedex/store/mc/Run3Summer22EENanoAODv12/ggZH_Hto2B_Zto2Q_M-125_TuneCP5_13p6TeV_powheg-pythia8/NANOAODSIM/130X_mcRun3_2022_realistic_postEE_v6-v2/50000/7479aae6-b1a2-4aa3-9b80-40077be04013.root",
        "T1_RU_JINR_Disk: davs://se-wbdv.jinr-t1.ru:2880/pnfs/jinr-t1.ru/data/cms/store/mc/Run3Summer22EENanoAODv12/ggZH_Hto2B_Zto2Q_M-125_TuneCP5_13p6TeV_powheg-pythia8/NANOAODSIM/130X_mcRun3_2022_realistic_postEE_v6-v2/50000/7479aae6-b1a2-4aa3-9b80-40077be04013.root",
        "T2_ES_CIEMAT: davs://srm.ciemat.es:2880/pnfs/ciemat.es/data/cms/prod/store/mc/Run3Summer22EENanoAODv12/ggZH_Hto2B_Zto2Q_M-125_TuneCP5_13p6TeV_powheg-pythia8/NANOAODSIM/130X_mcRun3_2022_realistic_postEE_v6-v2/50000/7479aae6-b1a2-4aa3-9b80-40077be04013.root"
    ],
    "cms:/store/mc/Run3Summer22EENanoAODv12/ggZH_Hto2B_Zto2Q_M-125_TuneCP5_13p6TeV_powheg-pythia8/NANOAODSIM/130X_mcRun3_2022_realistic_postEE_v6-v2/50000/54c52f96-dc2b-43be-89b2-b470638f1bd6.root": [
        "T1_US_FNAL_Disk: davs://cmsdcadisk.fnal.gov:2880/dcache/uscmsdisk/store/mc/Run3Summer22EENanoAODv12/ggZH_Hto2B_Zto2Q_M-125_TuneCP5_13p6TeV_powheg-pythia8/NANOAODSIM/130X_mcRun3_2022_realistic_postEE_v6-v2/50000/54c52f96-dc2b-43be-89b2-b470638f1bd6.root",
        "T2_CH_CSCS: davs://storage01.lcg.cscs.ch:2880/pnfs/lcg.cscs.ch/cms/trivcat/store/mc/Run3Summer22EENanoAODv12/ggZH_Hto2B_Zto2Q_M-125_TuneCP5_13p6TeV_powheg-pythia8/NANOAODSIM/130X_mcRun3_2022_realistic_postEE_v6-v2/50000/54c52f96-dc2b-43be-89b2-b470638f1bd6.root",
        "T2_IT_Legnaro: davs://t2-xrdcms.lnl.infn.it:2880/pnfs/lnl.infn.it/data/cms/store/mc/Run3Summer22EENanoAODv12/ggZH_Hto2B_Zto2Q_M-125_TuneCP5_13p6TeV_powheg-pythia8/NANOAODSIM/130X_mcRun3_2022_realistic_postEE_v6-v2/50000/54c52f96-dc2b-43be-89b2-b470638f1bd6.root",
        "T2_CN_Beijing: davs://cceos.ihep.ac.cn:9000/eos/ihep/cms/store/mc/Run3Summer22EENanoAODv12/ggZH_Hto2B_Zto2Q_M-125_TuneCP5_13p6TeV_powheg-pythia8/NANOAODSIM/130X_mcRun3_2022_realistic_postEE_v6-v2/50000/54c52f96-dc2b-43be-89b2-b470638f1bd6.root",
        "T2_US_Wisconsin: davs://cmsxrootd.hep.wisc.edu:1094/store/mc/Run3Summer22EENanoAODv12/ggZH_Hto2B_Zto2Q_M-125_TuneCP5_13p6TeV_powheg-pythia8/NANOAODSIM/130X_mcRun3_2022_realistic_postEE_v6-v2/50000/54c52f96-dc2b-43be-89b2-b470638f1bd6.root",
        "T1_IT_CNAF_Tape: srm://storm-fe-cms.cr.cnaf.infn.it:8444/srm/managerv2?SFN=/cmstape/store/mc/Run3Summer22EENanoAODv12/ggZH_Hto2B_Zto2Q_M-125_TuneCP5_13p6TeV_powheg-pythia8/NANOAODSIM/130X_mcRun3_2022_realistic_postEE_v6-v2/50000/54c52f96-dc2b-43be-89b2-b470638f1bd6.root",
        "T2_HU_Budapest: davs://grid143.kfki.hu:443/dpm/kfki.hu/home/cms/phedex/store/mc/Run3Summer22EENanoAODv12/ggZH_Hto2B_Zto2Q_M-125_TuneCP5_13p6TeV_powheg-pythia8/NANOAODSIM/130X_mcRun3_2022_realistic_postEE_v6-v2/50000/54c52f96-dc2b-43be-89b2-b470638f1bd6.root",
        "T1_RU_JINR_Disk: davs://se-wbdv.jinr-t1.ru:2880/pnfs/jinr-t1.ru/data/cms/store/mc/Run3Summer22EENanoAODv12/ggZH_Hto2B_Zto2Q_M-125_TuneCP5_13p6TeV_powheg-pythia8/NANOAODSIM/130X_mcRun3_2022_realistic_postEE_v6-v2/50000/54c52f96-dc2b-43be-89b2-b470638f1bd6.root",
        "T2_DE_RWTH: davs://grid-webdav.physik.rwth-aachen.de:2889/store/mc/Run3Summer22EENanoAODv12/ggZH_Hto2B_Zto2Q_M-125_TuneCP5_13p6TeV_powheg-pythia8/NANOAODSIM/130X_mcRun3_2022_realistic_postEE_v6-v2/50000/54c52f96-dc2b-43be-89b2-b470638f1bd6.root"
    ],
    "cms:/store/mc/Run3Summer22EENanoAODv12/ggZH_Hto2B_Zto2Q_M-125_TuneCP5_13p6TeV_powheg-pythia8/NANOAODSIM/130X_mcRun3_2022_realistic_postEE_v6-v2/2530000/d545404d-2fac-444f-ae45-a4bc35596330.root": [
        "T1_US_FNAL_Disk: davs://cmsdcadisk.fnal.gov:2880/dcache/uscmsdisk/store/mc/Run3Summer22EENanoAODv12/ggZH_Hto2B_Zto2Q_M-125_TuneCP5_13p6TeV_powheg-pythia8/NANOAODSIM/130X_mcRun3_2022_realistic_postEE_v6-v2/2530000/d545404d-2fac-444f-ae45-a4bc35596330.root",
        "T2_CH_CSCS: davs://storage01.lcg.cscs.ch:2880/pnfs/lcg.cscs.ch/cms/trivcat/store/mc/Run3Summer22EENanoAODv12/ggZH_Hto2B_Zto2Q_M-125_TuneCP5_13p6TeV_powheg-pythia8/NANOAODSIM/130X_mcRun3_2022_realistic_postEE_v6-v2/2530000/d545404d-2fac-444f-ae45-a4bc35596330.root",
        "T2_IT_Legnaro: davs://t2-xrdcms.lnl.infn.it:2880/pnfs/lnl.infn.it/data/cms/store/mc/Run3Summer22EENanoAODv12/ggZH_Hto2B_Zto2Q_M-125_TuneCP5_13p6TeV_powheg-pythia8/NANOAODSIM/130X_mcRun3_2022_realistic_postEE_v6-v2/2530000/d545404d-2fac-444f-ae45-a4bc35596330.root",
        "T2_CN_Beijing: davs://cceos.ihep.ac.cn:9000/eos/ihep/cms/store/mc/Run3Summer22EENanoAODv12/ggZH_Hto2B_Zto2Q_M-125_TuneCP5_13p6TeV_powheg-pythia8/NANOAODSIM/130X_mcRun3_2022_realistic_postEE_v6-v2/2530000/d545404d-2fac-444f-ae45-a4bc35596330.root",
        "T2_US_Wisconsin: davs://cmsxrootd.hep.wisc.edu:1094/store/mc/Run3Summer22EENanoAODv12/ggZH_Hto2B_Zto2Q_M-125_TuneCP5_13p6TeV_powheg-pythia8/NANOAODSIM/130X_mcRun3_2022_realistic_postEE_v6-v2/2530000/d545404d-2fac-444f-ae45-a4bc35596330.root",
        "T1_IT_CNAF_Tape: srm://storm-fe-cms.cr.cnaf.infn.it:8444/srm/managerv2?SFN=/cmstape/store/mc/Run3Summer22EENanoAODv12/ggZH_Hto2B_Zto2Q_M-125_TuneCP5_13p6TeV_powheg-pythia8/NANOAODSIM/130X_mcRun3_2022_realistic_postEE_v6-v2/2530000/d545404d-2fac-444f-ae45-a4bc35596330.root",
        "T2_HU_Budapest: davs://grid143.kfki.hu:443/dpm/kfki.hu/home/cms/phedex/store/mc/Run3Summer22EENanoAODv12/ggZH_Hto2B_Zto2Q_M-125_TuneCP5_13p6TeV_powheg-pythia8/NANOAODSIM/130X_mcRun3_2022_realistic_postEE_v6-v2/2530000/d545404d-2fac-444f-ae45-a4bc35596330.root",
        "T2_IT_Pisa: davs://stwebdav.pi.infn.it:8443/cms/store/mc/Run3Summer22EENanoAODv12/ggZH_Hto2B_Zto2Q_M-125_TuneCP5_13p6TeV_powheg-pythia8/NANOAODSIM/130X_mcRun3_2022_realistic_postEE_v6-v2/2530000/d545404d-2fac-444f-ae45-a4bc35596330.root",
        "T1_RU_JINR_Disk: davs://se-wbdv.jinr-t1.ru:2880/pnfs/jinr-t1.ru/data/cms/store/mc/Run3Summer22EENanoAODv12/ggZH_Hto2B_Zto2Q_M-125_TuneCP5_13p6TeV_powheg-pythia8/NANOAODSIM/130X_mcRun3_2022_realistic_postEE_v6-v2/2530000/d545404d-2fac-444f-ae45-a4bc35596330.root"
    ],
    "cms:/store/mc/Run3Summer22EENanoAODv12/ggZH_Hto2B_Zto2Q_M-125_TuneCP5_13p6TeV_powheg-pythia8/NANOAODSIM/130X_mcRun3_2022_realistic_postEE_v6-v2/2550000/8a0b1326-c9b3-42f6-87e6-7546f4d187ec.root": [
        "T1_US_FNAL_Disk: davs://cmsdcadisk.fnal.gov:2880/dcache/uscmsdisk/store/mc/Run3Summer22EENanoAODv12/ggZH_Hto2B_Zto2Q_M-125_TuneCP5_13p6TeV_powheg-pythia8/NANOAODSIM/130X_mcRun3_2022_realistic_postEE_v6-v2/2550000/8a0b1326-c9b3-42f6-87e6-7546f4d187ec.root",
        "T2_CH_CSCS: davs://storage01.lcg.cscs.ch:2880/pnfs/lcg.cscs.ch/cms/trivcat/store/mc/Run3Summer22EENanoAODv12/ggZH_Hto2B_Zto2Q_M-125_TuneCP5_13p6TeV_powheg-pythia8/NANOAODSIM/130X_mcRun3_2022_realistic_postEE_v6-v2/2550000/8a0b1326-c9b3-42f6-87e6-7546f4d187ec.root",
        "T2_IT_Legnaro: davs://t2-xrdcms.lnl.infn.it:2880/pnfs/lnl.infn.it/data/cms/store/mc/Run3Summer22EENanoAODv12/ggZH_Hto2B_Zto2Q_M-125_TuneCP5_13p6TeV_powheg-pythia8/NANOAODSIM/130X_mcRun3_2022_realistic_postEE_v6-v2/2550000/8a0b1326-c9b3-42f6-87e6-7546f4d187ec.root",
        "T2_CN_Beijing: davs://cceos.ihep.ac.cn:9000/eos/ihep/cms/store/mc/Run3Summer22EENanoAODv12/ggZH_Hto2B_Zto2Q_M-125_TuneCP5_13p6TeV_powheg-pythia8/NANOAODSIM/130X_mcRun3_2022_realistic_postEE_v6-v2/2550000/8a0b1326-c9b3-42f6-87e6-7546f4d187ec.root",
        "T2_US_Wisconsin: davs://cmsxrootd.hep.wisc.edu:1094/store/mc/Run3Summer22EENanoAODv12/ggZH_Hto2B_Zto2Q_M-125_TuneCP5_13p6TeV_powheg-pythia8/NANOAODSIM/130X_mcRun3_2022_realistic_postEE_v6-v2/2550000/8a0b1326-c9b3-42f6-87e6-7546f4d187ec.root",
        "T1_IT_CNAF_Tape: srm://storm-fe-cms.cr.cnaf.infn.it:8444/srm/managerv2?SFN=/cmstape/store/mc/Run3Summer22EENanoAODv12/ggZH_Hto2B_Zto2Q_M-125_TuneCP5_13p6TeV_powheg-pythia8/NANOAODSIM/130X_mcRun3_2022_realistic_postEE_v6-v2/2550000/8a0b1326-c9b3-42f6-87e6-7546f4d187ec.root",
        "T2_HU_Budapest: davs://grid143.kfki.hu:443/dpm/kfki.hu/home/cms/phedex/store/mc/Run3Summer22EENanoAODv12/ggZH_Hto2B_Zto2Q_M-125_TuneCP5_13p6TeV_powheg-pythia8/NANOAODSIM/130X_mcRun3_2022_realistic_postEE_v6-v2/2550000/8a0b1326-c9b3-42f6-87e6-7546f4d187ec.root",
        "T1_RU_JINR_Disk: davs://se-wbdv.jinr-t1.ru:2880/pnfs/jinr-t1.ru/data/cms/store/mc/Run3Summer22EENanoAODv12/ggZH_Hto2B_Zto2Q_M-125_TuneCP5_13p6TeV_powheg-pythia8/NANOAODSIM/130X_mcRun3_2022_realistic_postEE_v6-v2/2550000/8a0b1326-c9b3-42f6-87e6-7546f4d187ec.root",
        "T2_DE_RWTH: davs://grid-webdav.physik.rwth-aachen.de:2889/store/mc/Run3Summer22EENanoAODv12/ggZH_Hto2B_Zto2Q_M-125_TuneCP5_13p6TeV_powheg-pythia8/NANOAODSIM/130X_mcRun3_2022_realistic_postEE_v6-v2/2550000/8a0b1326-c9b3-42f6-87e6-7546f4d187ec.root"
    ],
    "cms:/store/mc/Run3Summer22EENanoAODv12/ggZH_Hto2B_Zto2Q_M-125_TuneCP5_13p6TeV_powheg-pythia8/NANOAODSIM/130X_mcRun3_2022_realistic_postEE_v6-v2/40000/9459fe81-e0c5-46c4-adac-0d3709c44684.root": [
        "T1_US_FNAL_Disk: davs://cmsdcadisk.fnal.gov:2880/dcache/uscmsdisk/store/mc/Run3Summer22EENanoAODv12/ggZH_Hto2B_Zto2Q_M-125_TuneCP5_13p6TeV_powheg-pythia8/NANOAODSIM/130X_mcRun3_2022_realistic_postEE_v6-v2/40000/9459fe81-e0c5-46c4-adac-0d3709c44684.root",
        "T2_CH_CSCS: davs://storage01.lcg.cscs.ch:2880/pnfs/lcg.cscs.ch/cms/trivcat/store/mc/Run3Summer22EENanoAODv12/ggZH_Hto2B_Zto2Q_M-125_TuneCP5_13p6TeV_powheg-pythia8/NANOAODSIM/130X_mcRun3_2022_realistic_postEE_v6-v2/40000/9459fe81-e0c5-46c4-adac-0d3709c44684.root",
        "T2_IT_Legnaro: davs://t2-xrdcms.lnl.infn.it:2880/pnfs/lnl.infn.it/data/cms/store/mc/Run3Summer22EENanoAODv12/ggZH_Hto2B_Zto2Q_M-125_TuneCP5_13p6TeV_powheg-pythia8/NANOAODSIM/130X_mcRun3_2022_realistic_postEE_v6-v2/40000/9459fe81-e0c5-46c4-adac-0d3709c44684.root",
        "T2_CN_Beijing: davs://cceos.ihep.ac.cn:9000/eos/ihep/cms/store/mc/Run3Summer22EENanoAODv12/ggZH_Hto2B_Zto2Q_M-125_TuneCP5_13p6TeV_powheg-pythia8/NANOAODSIM/130X_mcRun3_2022_realistic_postEE_v6-v2/40000/9459fe81-e0c5-46c4-adac-0d3709c44684.root",
        "T2_US_Wisconsin: davs://cmsxrootd.hep.wisc.edu:1094/store/mc/Run3Summer22EENanoAODv12/ggZH_Hto2B_Zto2Q_M-125_TuneCP5_13p6TeV_powheg-pythia8/NANOAODSIM/130X_mcRun3_2022_realistic_postEE_v6-v2/40000/9459fe81-e0c5-46c4-adac-0d3709c44684.root",
        "T1_IT_CNAF_Tape: srm://storm-fe-cms.cr.cnaf.infn.it:8444/srm/managerv2?SFN=/cmstape/store/mc/Run3Summer22EENanoAODv12/ggZH_Hto2B_Zto2Q_M-125_TuneCP5_13p6TeV_powheg-pythia8/NANOAODSIM/130X_mcRun3_2022_realistic_postEE_v6-v2/40000/9459fe81-e0c5-46c4-adac-0d3709c44684.root",
        "T2_HU_Budapest: davs://grid143.kfki.hu:443/dpm/kfki.hu/home/cms/phedex/store/mc/Run3Summer22EENanoAODv12/ggZH_Hto2B_Zto2Q_M-125_TuneCP5_13p6TeV_powheg-pythia8/NANOAODSIM/130X_mcRun3_2022_realistic_postEE_v6-v2/40000/9459fe81-e0c5-46c4-adac-0d3709c44684.root",
        "T1_RU_JINR_Disk: davs://se-wbdv.jinr-t1.ru:2880/pnfs/jinr-t1.ru/data/cms/store/mc/Run3Summer22EENanoAODv12/ggZH_Hto2B_Zto2Q_M-125_TuneCP5_13p6TeV_powheg-pythia8/NANOAODSIM/130X_mcRun3_2022_realistic_postEE_v6-v2/40000/9459fe81-e0c5-46c4-adac-0d3709c44684.root"
    ],
    "cms:/store/mc/Run3Summer22EENanoAODv12/ggZH_Hto2B_Zto2Q_M-125_TuneCP5_13p6TeV_powheg-pythia8/NANOAODSIM/130X_mcRun3_2022_realistic_postEE_v6-v2/30000/0c6b0ac2-a7cd-4d03-bc14-b6e10ff8b527.root": [
        "T1_US_FNAL_Disk: davs://cmsdcadisk.fnal.gov:2880/dcache/uscmsdisk/store/mc/Run3Summer22EENanoAODv12/ggZH_Hto2B_Zto2Q_M-125_TuneCP5_13p6TeV_powheg-pythia8/NANOAODSIM/130X_mcRun3_2022_realistic_postEE_v6-v2/30000/0c6b0ac2-a7cd-4d03-bc14-b6e10ff8b527.root",
        "T2_CH_CSCS: davs://storage01.lcg.cscs.ch:2880/pnfs/lcg.cscs.ch/cms/trivcat/store/mc/Run3Summer22EENanoAODv12/ggZH_Hto2B_Zto2Q_M-125_TuneCP5_13p6TeV_powheg-pythia8/NANOAODSIM/130X_mcRun3_2022_realistic_postEE_v6-v2/30000/0c6b0ac2-a7cd-4d03-bc14-b6e10ff8b527.root",
        "T2_IT_Legnaro: davs://t2-xrdcms.lnl.infn.it:2880/pnfs/lnl.infn.it/data/cms/store/mc/Run3Summer22EENanoAODv12/ggZH_Hto2B_Zto2Q_M-125_TuneCP5_13p6TeV_powheg-pythia8/NANOAODSIM/130X_mcRun3_2022_realistic_postEE_v6-v2/30000/0c6b0ac2-a7cd-4d03-bc14-b6e10ff8b527.root",
        "T2_CN_Beijing: davs://cceos.ihep.ac.cn:9000/eos/ihep/cms/store/mc/Run3Summer22EENanoAODv12/ggZH_Hto2B_Zto2Q_M-125_TuneCP5_13p6TeV_powheg-pythia8/NANOAODSIM/130X_mcRun3_2022_realistic_postEE_v6-v2/30000/0c6b0ac2-a7cd-4d03-bc14-b6e10ff8b527.root",
        "T2_US_Wisconsin: davs://cmsxrootd.hep.wisc.edu:1094/store/mc/Run3Summer22EENanoAODv12/ggZH_Hto2B_Zto2Q_M-125_TuneCP5_13p6TeV_powheg-pythia8/NANOAODSIM/130X_mcRun3_2022_realistic_postEE_v6-v2/30000/0c6b0ac2-a7cd-4d03-bc14-b6e10ff8b527.root",
        "T1_IT_CNAF_Tape: srm://storm-fe-cms.cr.cnaf.infn.it:8444/srm/managerv2?SFN=/cmstape/store/mc/Run3Summer22EENanoAODv12/ggZH_Hto2B_Zto2Q_M-125_TuneCP5_13p6TeV_powheg-pythia8/NANOAODSIM/130X_mcRun3_2022_realistic_postEE_v6-v2/30000/0c6b0ac2-a7cd-4d03-bc14-b6e10ff8b527.root",
        "T2_HU_Budapest: davs://grid143.kfki.hu:443/dpm/kfki.hu/home/cms/phedex/store/mc/Run3Summer22EENanoAODv12/ggZH_Hto2B_Zto2Q_M-125_TuneCP5_13p6TeV_powheg-pythia8/NANOAODSIM/130X_mcRun3_2022_realistic_postEE_v6-v2/30000/0c6b0ac2-a7cd-4d03-bc14-b6e10ff8b527.root",
        "T1_RU_JINR_Disk: davs://se-wbdv.jinr-t1.ru:2880/pnfs/jinr-t1.ru/data/cms/store/mc/Run3Summer22EENanoAODv12/ggZH_Hto2B_Zto2Q_M-125_TuneCP5_13p6TeV_powheg-pythia8/NANOAODSIM/130X_mcRun3_2022_realistic_postEE_v6-v2/30000/0c6b0ac2-a7cd-4d03-bc14-b6e10ff8b527.root"
    ],
    "cms:/store/mc/Run3Summer22EENanoAODv12/ggZH_Hto2B_Zto2Q_M-125_TuneCP5_13p6TeV_powheg-pythia8/NANOAODSIM/130X_mcRun3_2022_realistic_postEE_v6-v2/40000/5aac1f92-5be2-4a08-9675-ca479c2c0955.root": [
        "T1_US_FNAL_Disk: davs://cmsdcadisk.fnal.gov:2880/dcache/uscmsdisk/store/mc/Run3Summer22EENanoAODv12/ggZH_Hto2B_Zto2Q_M-125_TuneCP5_13p6TeV_powheg-pythia8/NANOAODSIM/130X_mcRun3_2022_realistic_postEE_v6-v2/40000/5aac1f92-5be2-4a08-9675-ca479c2c0955.root",
        "T2_CH_CSCS: davs://storage01.lcg.cscs.ch:2880/pnfs/lcg.cscs.ch/cms/trivcat/store/mc/Run3Summer22EENanoAODv12/ggZH_Hto2B_Zto2Q_M-125_TuneCP5_13p6TeV_powheg-pythia8/NANOAODSIM/130X_mcRun3_2022_realistic_postEE_v6-v2/40000/5aac1f92-5be2-4a08-9675-ca479c2c0955.root",
        "T2_IT_Legnaro: davs://t2-xrdcms.lnl.infn.it:2880/pnfs/lnl.infn.it/data/cms/store/mc/Run3Summer22EENanoAODv12/ggZH_Hto2B_Zto2Q_M-125_TuneCP5_13p6TeV_powheg-pythia8/NANOAODSIM/130X_mcRun3_2022_realistic_postEE_v6-v2/40000/5aac1f92-5be2-4a08-9675-ca479c2c0955.root",
        "T2_CN_Beijing: davs://cceos.ihep.ac.cn:9000/eos/ihep/cms/store/mc/Run3Summer22EENanoAODv12/ggZH_Hto2B_Zto2Q_M-125_TuneCP5_13p6TeV_powheg-pythia8/NANOAODSIM/130X_mcRun3_2022_realistic_postEE_v6-v2/40000/5aac1f92-5be2-4a08-9675-ca479c2c0955.root",
        "T1_UK_RAL_Disk: davs://rdr.echo.stfc.ac.uk:1094/store/mc/Run3Summer22EENanoAODv12/ggZH_Hto2B_Zto2Q_M-125_TuneCP5_13p6TeV_powheg-pythia8/NANOAODSIM/130X_mcRun3_2022_realistic_postEE_v6-v2/40000/5aac1f92-5be2-4a08-9675-ca479c2c0955.root",
        "T2_US_Wisconsin: davs://cmsxrootd.hep.wisc.edu:1094/store/mc/Run3Summer22EENanoAODv12/ggZH_Hto2B_Zto2Q_M-125_TuneCP5_13p6TeV_powheg-pythia8/NANOAODSIM/130X_mcRun3_2022_realistic_postEE_v6-v2/40000/5aac1f92-5be2-4a08-9675-ca479c2c0955.root",
        "T1_IT_CNAF_Tape: srm://storm-fe-cms.cr.cnaf.infn.it:8444/srm/managerv2?SFN=/cmstape/store/mc/Run3Summer22EENanoAODv12/ggZH_Hto2B_Zto2Q_M-125_TuneCP5_13p6TeV_powheg-pythia8/NANOAODSIM/130X_mcRun3_2022_realistic_postEE_v6-v2/40000/5aac1f92-5be2-4a08-9675-ca479c2c0955.root",
        "T2_HU_Budapest: davs://grid143.kfki.hu:443/dpm/kfki.hu/home/cms/phedex/store/mc/Run3Summer22EENanoAODv12/ggZH_Hto2B_Zto2Q_M-125_TuneCP5_13p6TeV_powheg-pythia8/NANOAODSIM/130X_mcRun3_2022_realistic_postEE_v6-v2/40000/5aac1f92-5be2-4a08-9675-ca479c2c0955.root",
        "T1_RU_JINR_Disk: davs://se-wbdv.jinr-t1.ru:2880/pnfs/jinr-t1.ru/data/cms/store/mc/Run3Summer22EENanoAODv12/ggZH_Hto2B_Zto2Q_M-125_TuneCP5_13p6TeV_powheg-pythia8/NANOAODSIM/130X_mcRun3_2022_realistic_postEE_v6-v2/40000/5aac1f92-5be2-4a08-9675-ca479c2c0955.root",
        "T2_ES_CIEMAT: davs://srm.ciemat.es:2880/pnfs/ciemat.es/data/cms/prod/store/mc/Run3Summer22EENanoAODv12/ggZH_Hto2B_Zto2Q_M-125_TuneCP5_13p6TeV_powheg-pythia8/NANOAODSIM/130X_mcRun3_2022_realistic_postEE_v6-v2/40000/5aac1f92-5be2-4a08-9675-ca479c2c0955.root"
    ],
    "cms:/store/mc/Run3Summer22EENanoAODv12/ggZH_Hto2B_Zto2Q_M-125_TuneCP5_13p6TeV_powheg-pythia8/NANOAODSIM/130X_mcRun3_2022_realistic_postEE_v6-v2/30000/54ed4d04-96e8-4bea-ac43-398508463981.root": [
        "T1_US_FNAL_Disk: davs://cmsdcadisk.fnal.gov:2880/dcache/uscmsdisk/store/mc/Run3Summer22EENanoAODv12/ggZH_Hto2B_Zto2Q_M-125_TuneCP5_13p6TeV_powheg-pythia8/NANOAODSIM/130X_mcRun3_2022_realistic_postEE_v6-v2/30000/54ed4d04-96e8-4bea-ac43-398508463981.root",
        "T2_CH_CSCS: davs://storage01.lcg.cscs.ch:2880/pnfs/lcg.cscs.ch/cms/trivcat/store/mc/Run3Summer22EENanoAODv12/ggZH_Hto2B_Zto2Q_M-125_TuneCP5_13p6TeV_powheg-pythia8/NANOAODSIM/130X_mcRun3_2022_realistic_postEE_v6-v2/30000/54ed4d04-96e8-4bea-ac43-398508463981.root",
        "T2_IT_Legnaro: davs://t2-xrdcms.lnl.infn.it:2880/pnfs/lnl.infn.it/data/cms/store/mc/Run3Summer22EENanoAODv12/ggZH_Hto2B_Zto2Q_M-125_TuneCP5_13p6TeV_powheg-pythia8/NANOAODSIM/130X_mcRun3_2022_realistic_postEE_v6-v2/30000/54ed4d04-96e8-4bea-ac43-398508463981.root",
        "T2_CN_Beijing: davs://cceos.ihep.ac.cn:9000/eos/ihep/cms/store/mc/Run3Summer22EENanoAODv12/ggZH_Hto2B_Zto2Q_M-125_TuneCP5_13p6TeV_powheg-pythia8/NANOAODSIM/130X_mcRun3_2022_realistic_postEE_v6-v2/30000/54ed4d04-96e8-4bea-ac43-398508463981.root",
        "T2_US_Wisconsin: davs://cmsxrootd.hep.wisc.edu:1094/store/mc/Run3Summer22EENanoAODv12/ggZH_Hto2B_Zto2Q_M-125_TuneCP5_13p6TeV_powheg-pythia8/NANOAODSIM/130X_mcRun3_2022_realistic_postEE_v6-v2/30000/54ed4d04-96e8-4bea-ac43-398508463981.root",
        "T1_IT_CNAF_Tape: srm://storm-fe-cms.cr.cnaf.infn.it:8444/srm/managerv2?SFN=/cmstape/store/mc/Run3Summer22EENanoAODv12/ggZH_Hto2B_Zto2Q_M-125_TuneCP5_13p6TeV_powheg-pythia8/NANOAODSIM/130X_mcRun3_2022_realistic_postEE_v6-v2/30000/54ed4d04-96e8-4bea-ac43-398508463981.root",
        "T2_HU_Budapest: davs://grid143.kfki.hu:443/dpm/kfki.hu/home/cms/phedex/store/mc/Run3Summer22EENanoAODv12/ggZH_Hto2B_Zto2Q_M-125_TuneCP5_13p6TeV_powheg-pythia8/NANOAODSIM/130X_mcRun3_2022_realistic_postEE_v6-v2/30000/54ed4d04-96e8-4bea-ac43-398508463981.root",
        "T2_US_Purdue: davs://eos.cms.rcac.purdue.edu:9000/store/mc/Run3Summer22EENanoAODv12/ggZH_Hto2B_Zto2Q_M-125_TuneCP5_13p6TeV_powheg-pythia8/NANOAODSIM/130X_mcRun3_2022_realistic_postEE_v6-v2/30000/54ed4d04-96e8-4bea-ac43-398508463981.root",
        "T1_RU_JINR_Disk: davs://se-wbdv.jinr-t1.ru:2880/pnfs/jinr-t1.ru/data/cms/store/mc/Run3Summer22EENanoAODv12/ggZH_Hto2B_Zto2Q_M-125_TuneCP5_13p6TeV_powheg-pythia8/NANOAODSIM/130X_mcRun3_2022_realistic_postEE_v6-v2/30000/54ed4d04-96e8-4bea-ac43-398508463981.root"
    ],
    "cms:/store/mc/Run3Summer22EENanoAODv12/ggZH_Hto2B_Zto2Q_M-125_TuneCP5_13p6TeV_powheg-pythia8/NANOAODSIM/130X_mcRun3_2022_realistic_postEE_v6-v2/2540000/1ad5e691-a3ec-486a-beb7-70416881e2b1.root": [
        "T1_US_FNAL_Disk: davs://cmsdcadisk.fnal.gov:2880/dcache/uscmsdisk/store/mc/Run3Summer22EENanoAODv12/ggZH_Hto2B_Zto2Q_M-125_TuneCP5_13p6TeV_powheg-pythia8/NANOAODSIM/130X_mcRun3_2022_realistic_postEE_v6-v2/2540000/1ad5e691-a3ec-486a-beb7-70416881e2b1.root",
        "T2_CH_CSCS: davs://storage01.lcg.cscs.ch:2880/pnfs/lcg.cscs.ch/cms/trivcat/store/mc/Run3Summer22EENanoAODv12/ggZH_Hto2B_Zto2Q_M-125_TuneCP5_13p6TeV_powheg-pythia8/NANOAODSIM/130X_mcRun3_2022_realistic_postEE_v6-v2/2540000/1ad5e691-a3ec-486a-beb7-70416881e2b1.root",
        "T2_IT_Legnaro: davs://t2-xrdcms.lnl.infn.it:2880/pnfs/lnl.infn.it/data/cms/store/mc/Run3Summer22EENanoAODv12/ggZH_Hto2B_Zto2Q_M-125_TuneCP5_13p6TeV_powheg-pythia8/NANOAODSIM/130X_mcRun3_2022_realistic_postEE_v6-v2/2540000/1ad5e691-a3ec-486a-beb7-70416881e2b1.root",
        "T2_CN_Beijing: davs://cceos.ihep.ac.cn:9000/eos/ihep/cms/store/mc/Run3Summer22EENanoAODv12/ggZH_Hto2B_Zto2Q_M-125_TuneCP5_13p6TeV_powheg-pythia8/NANOAODSIM/130X_mcRun3_2022_realistic_postEE_v6-v2/2540000/1ad5e691-a3ec-486a-beb7-70416881e2b1.root",
        "T2_US_Wisconsin: davs://cmsxrootd.hep.wisc.edu:1094/store/mc/Run3Summer22EENanoAODv12/ggZH_Hto2B_Zto2Q_M-125_TuneCP5_13p6TeV_powheg-pythia8/NANOAODSIM/130X_mcRun3_2022_realistic_postEE_v6-v2/2540000/1ad5e691-a3ec-486a-beb7-70416881e2b1.root",
        "T1_IT_CNAF_Tape: srm://storm-fe-cms.cr.cnaf.infn.it:8444/srm/managerv2?SFN=/cmstape/store/mc/Run3Summer22EENanoAODv12/ggZH_Hto2B_Zto2Q_M-125_TuneCP5_13p6TeV_powheg-pythia8/NANOAODSIM/130X_mcRun3_2022_realistic_postEE_v6-v2/2540000/1ad5e691-a3ec-486a-beb7-70416881e2b1.root",
        "T2_HU_Budapest: davs://grid143.kfki.hu:443/dpm/kfki.hu/home/cms/phedex/store/mc/Run3Summer22EENanoAODv12/ggZH_Hto2B_Zto2Q_M-125_TuneCP5_13p6TeV_powheg-pythia8/NANOAODSIM/130X_mcRun3_2022_realistic_postEE_v6-v2/2540000/1ad5e691-a3ec-486a-beb7-70416881e2b1.root",
        "T2_US_Purdue: davs://eos.cms.rcac.purdue.edu:9000/store/mc/Run3Summer22EENanoAODv12/ggZH_Hto2B_Zto2Q_M-125_TuneCP5_13p6TeV_powheg-pythia8/NANOAODSIM/130X_mcRun3_2022_realistic_postEE_v6-v2/2540000/1ad5e691-a3ec-486a-beb7-70416881e2b1.root",
        "T1_RU_JINR_Disk: davs://se-wbdv.jinr-t1.ru:2880/pnfs/jinr-t1.ru/data/cms/store/mc/Run3Summer22EENanoAODv12/ggZH_Hto2B_Zto2Q_M-125_TuneCP5_13p6TeV_powheg-pythia8/NANOAODSIM/130X_mcRun3_2022_realistic_postEE_v6-v2/2540000/1ad5e691-a3ec-486a-beb7-70416881e2b1.root"
    ],
    "cms:/store/mc/Run3Summer22EENanoAODv12/ggZH_Hto2B_Zto2Q_M-125_TuneCP5_13p6TeV_powheg-pythia8/NANOAODSIM/130X_mcRun3_2022_realistic_postEE_v6-v2/30000/64439bfc-c27f-4b12-b591-d5c55af051af.root": [
        "T1_US_FNAL_Disk: davs://cmsdcadisk.fnal.gov:2880/dcache/uscmsdisk/store/mc/Run3Summer22EENanoAODv12/ggZH_Hto2B_Zto2Q_M-125_TuneCP5_13p6TeV_powheg-pythia8/NANOAODSIM/130X_mcRun3_2022_realistic_postEE_v6-v2/30000/64439bfc-c27f-4b12-b591-d5c55af051af.root",
        "T2_CH_CSCS: davs://storage01.lcg.cscs.ch:2880/pnfs/lcg.cscs.ch/cms/trivcat/store/mc/Run3Summer22EENanoAODv12/ggZH_Hto2B_Zto2Q_M-125_TuneCP5_13p6TeV_powheg-pythia8/NANOAODSIM/130X_mcRun3_2022_realistic_postEE_v6-v2/30000/64439bfc-c27f-4b12-b591-d5c55af051af.root",
        "T2_IT_Legnaro: davs://t2-xrdcms.lnl.infn.it:2880/pnfs/lnl.infn.it/data/cms/store/mc/Run3Summer22EENanoAODv12/ggZH_Hto2B_Zto2Q_M-125_TuneCP5_13p6TeV_powheg-pythia8/NANOAODSIM/130X_mcRun3_2022_realistic_postEE_v6-v2/30000/64439bfc-c27f-4b12-b591-d5c55af051af.root",
        "T2_CN_Beijing: davs://cceos.ihep.ac.cn:9000/eos/ihep/cms/store/mc/Run3Summer22EENanoAODv12/ggZH_Hto2B_Zto2Q_M-125_TuneCP5_13p6TeV_powheg-pythia8/NANOAODSIM/130X_mcRun3_2022_realistic_postEE_v6-v2/30000/64439bfc-c27f-4b12-b591-d5c55af051af.root",
        "T2_US_Wisconsin: davs://cmsxrootd.hep.wisc.edu:1094/store/mc/Run3Summer22EENanoAODv12/ggZH_Hto2B_Zto2Q_M-125_TuneCP5_13p6TeV_powheg-pythia8/NANOAODSIM/130X_mcRun3_2022_realistic_postEE_v6-v2/30000/64439bfc-c27f-4b12-b591-d5c55af051af.root",
        "T1_IT_CNAF_Tape: srm://storm-fe-cms.cr.cnaf.infn.it:8444/srm/managerv2?SFN=/cmstape/store/mc/Run3Summer22EENanoAODv12/ggZH_Hto2B_Zto2Q_M-125_TuneCP5_13p6TeV_powheg-pythia8/NANOAODSIM/130X_mcRun3_2022_realistic_postEE_v6-v2/30000/64439bfc-c27f-4b12-b591-d5c55af051af.root",
        "T2_HU_Budapest: davs://grid143.kfki.hu:443/dpm/kfki.hu/home/cms/phedex/store/mc/Run3Summer22EENanoAODv12/ggZH_Hto2B_Zto2Q_M-125_TuneCP5_13p6TeV_powheg-pythia8/NANOAODSIM/130X_mcRun3_2022_realistic_postEE_v6-v2/30000/64439bfc-c27f-4b12-b591-d5c55af051af.root",
        "T1_RU_JINR_Disk: davs://se-wbdv.jinr-t1.ru:2880/pnfs/jinr-t1.ru/data/cms/store/mc/Run3Summer22EENanoAODv12/ggZH_Hto2B_Zto2Q_M-125_TuneCP5_13p6TeV_powheg-pythia8/NANOAODSIM/130X_mcRun3_2022_realistic_postEE_v6-v2/30000/64439bfc-c27f-4b12-b591-d5c55af051af.root"
    ],
    "cms:/store/mc/Run3Summer22EENanoAODv12/ggZH_Hto2B_Zto2Q_M-125_TuneCP5_13p6TeV_powheg-pythia8/NANOAODSIM/130X_mcRun3_2022_realistic_postEE_v6-v2/40000/20800f6a-6a10-4cb9-b280-93f4b5469419.root": [
        "T1_US_FNAL_Disk: davs://cmsdcadisk.fnal.gov:2880/dcache/uscmsdisk/store/mc/Run3Summer22EENanoAODv12/ggZH_Hto2B_Zto2Q_M-125_TuneCP5_13p6TeV_powheg-pythia8/NANOAODSIM/130X_mcRun3_2022_realistic_postEE_v6-v2/40000/20800f6a-6a10-4cb9-b280-93f4b5469419.root",
        "T2_CH_CSCS: davs://storage01.lcg.cscs.ch:2880/pnfs/lcg.cscs.ch/cms/trivcat/store/mc/Run3Summer22EENanoAODv12/ggZH_Hto2B_Zto2Q_M-125_TuneCP5_13p6TeV_powheg-pythia8/NANOAODSIM/130X_mcRun3_2022_realistic_postEE_v6-v2/40000/20800f6a-6a10-4cb9-b280-93f4b5469419.root",
        "T2_IT_Legnaro: davs://t2-xrdcms.lnl.infn.it:2880/pnfs/lnl.infn.it/data/cms/store/mc/Run3Summer22EENanoAODv12/ggZH_Hto2B_Zto2Q_M-125_TuneCP5_13p6TeV_powheg-pythia8/NANOAODSIM/130X_mcRun3_2022_realistic_postEE_v6-v2/40000/20800f6a-6a10-4cb9-b280-93f4b5469419.root",
        "T2_CN_Beijing: davs://cceos.ihep.ac.cn:9000/eos/ihep/cms/store/mc/Run3Summer22EENanoAODv12/ggZH_Hto2B_Zto2Q_M-125_TuneCP5_13p6TeV_powheg-pythia8/NANOAODSIM/130X_mcRun3_2022_realistic_postEE_v6-v2/40000/20800f6a-6a10-4cb9-b280-93f4b5469419.root",
        "T1_UK_RAL_Disk: davs://rdr.echo.stfc.ac.uk:1094/store/mc/Run3Summer22EENanoAODv12/ggZH_Hto2B_Zto2Q_M-125_TuneCP5_13p6TeV_powheg-pythia8/NANOAODSIM/130X_mcRun3_2022_realistic_postEE_v6-v2/40000/20800f6a-6a10-4cb9-b280-93f4b5469419.root",
        "T2_US_Wisconsin: davs://cmsxrootd.hep.wisc.edu:1094/store/mc/Run3Summer22EENanoAODv12/ggZH_Hto2B_Zto2Q_M-125_TuneCP5_13p6TeV_powheg-pythia8/NANOAODSIM/130X_mcRun3_2022_realistic_postEE_v6-v2/40000/20800f6a-6a10-4cb9-b280-93f4b5469419.root",
        "T1_IT_CNAF_Tape: srm://storm-fe-cms.cr.cnaf.infn.it:8444/srm/managerv2?SFN=/cmstape/store/mc/Run3Summer22EENanoAODv12/ggZH_Hto2B_Zto2Q_M-125_TuneCP5_13p6TeV_powheg-pythia8/NANOAODSIM/130X_mcRun3_2022_realistic_postEE_v6-v2/40000/20800f6a-6a10-4cb9-b280-93f4b5469419.root",
        "T2_HU_Budapest: davs://grid143.kfki.hu:443/dpm/kfki.hu/home/cms/phedex/store/mc/Run3Summer22EENanoAODv12/ggZH_Hto2B_Zto2Q_M-125_TuneCP5_13p6TeV_powheg-pythia8/NANOAODSIM/130X_mcRun3_2022_realistic_postEE_v6-v2/40000/20800f6a-6a10-4cb9-b280-93f4b5469419.root",
        "T1_RU_JINR_Disk: davs://se-wbdv.jinr-t1.ru:2880/pnfs/jinr-t1.ru/data/cms/store/mc/Run3Summer22EENanoAODv12/ggZH_Hto2B_Zto2Q_M-125_TuneCP5_13p6TeV_powheg-pythia8/NANOAODSIM/130X_mcRun3_2022_realistic_postEE_v6-v2/40000/20800f6a-6a10-4cb9-b280-93f4b5469419.root"
    ],
    "cms:/store/mc/Run3Summer22EENanoAODv12/ggZH_Hto2B_Zto2Q_M-125_TuneCP5_13p6TeV_powheg-pythia8/NANOAODSIM/130X_mcRun3_2022_realistic_postEE_v6-v2/40000/308c77f5-4a62-4654-9029-962eba4143fa.root": [
        "T1_US_FNAL_Disk: davs://cmsdcadisk.fnal.gov:2880/dcache/uscmsdisk/store/mc/Run3Summer22EENanoAODv12/ggZH_Hto2B_Zto2Q_M-125_TuneCP5_13p6TeV_powheg-pythia8/NANOAODSIM/130X_mcRun3_2022_realistic_postEE_v6-v2/40000/308c77f5-4a62-4654-9029-962eba4143fa.root",
        "T2_CH_CSCS: davs://storage01.lcg.cscs.ch:2880/pnfs/lcg.cscs.ch/cms/trivcat/store/mc/Run3Summer22EENanoAODv12/ggZH_Hto2B_Zto2Q_M-125_TuneCP5_13p6TeV_powheg-pythia8/NANOAODSIM/130X_mcRun3_2022_realistic_postEE_v6-v2/40000/308c77f5-4a62-4654-9029-962eba4143fa.root",
        "T2_IT_Legnaro: davs://t2-xrdcms.lnl.infn.it:2880/pnfs/lnl.infn.it/data/cms/store/mc/Run3Summer22EENanoAODv12/ggZH_Hto2B_Zto2Q_M-125_TuneCP5_13p6TeV_powheg-pythia8/NANOAODSIM/130X_mcRun3_2022_realistic_postEE_v6-v2/40000/308c77f5-4a62-4654-9029-962eba4143fa.root",
        "T2_CN_Beijing: davs://cceos.ihep.ac.cn:9000/eos/ihep/cms/store/mc/Run3Summer22EENanoAODv12/ggZH_Hto2B_Zto2Q_M-125_TuneCP5_13p6TeV_powheg-pythia8/NANOAODSIM/130X_mcRun3_2022_realistic_postEE_v6-v2/40000/308c77f5-4a62-4654-9029-962eba4143fa.root",
        "T1_UK_RAL_Disk: davs://rdr.echo.stfc.ac.uk:1094/store/mc/Run3Summer22EENanoAODv12/ggZH_Hto2B_Zto2Q_M-125_TuneCP5_13p6TeV_powheg-pythia8/NANOAODSIM/130X_mcRun3_2022_realistic_postEE_v6-v2/40000/308c77f5-4a62-4654-9029-962eba4143fa.root",
        "T2_US_Wisconsin: davs://cmsxrootd.hep.wisc.edu:1094/store/mc/Run3Summer22EENanoAODv12/ggZH_Hto2B_Zto2Q_M-125_TuneCP5_13p6TeV_powheg-pythia8/NANOAODSIM/130X_mcRun3_2022_realistic_postEE_v6-v2/40000/308c77f5-4a62-4654-9029-962eba4143fa.root",
        "T1_IT_CNAF_Tape: srm://storm-fe-cms.cr.cnaf.infn.it:8444/srm/managerv2?SFN=/cmstape/store/mc/Run3Summer22EENanoAODv12/ggZH_Hto2B_Zto2Q_M-125_TuneCP5_13p6TeV_powheg-pythia8/NANOAODSIM/130X_mcRun3_2022_realistic_postEE_v6-v2/40000/308c77f5-4a62-4654-9029-962eba4143fa.root",
        "T2_HU_Budapest: davs://grid143.kfki.hu:443/dpm/kfki.hu/home/cms/phedex/store/mc/Run3Summer22EENanoAODv12/ggZH_Hto2B_Zto2Q_M-125_TuneCP5_13p6TeV_powheg-pythia8/NANOAODSIM/130X_mcRun3_2022_realistic_postEE_v6-v2/40000/308c77f5-4a62-4654-9029-962eba4143fa.root",
        "T1_RU_JINR_Disk: davs://se-wbdv.jinr-t1.ru:2880/pnfs/jinr-t1.ru/data/cms/store/mc/Run3Summer22EENanoAODv12/ggZH_Hto2B_Zto2Q_M-125_TuneCP5_13p6TeV_powheg-pythia8/NANOAODSIM/130X_mcRun3_2022_realistic_postEE_v6-v2/40000/308c77f5-4a62-4654-9029-962eba4143fa.root"
    ],
    "cms:/store/mc/Run3Summer22EENanoAODv12/ggZH_Hto2B_Zto2Q_M-125_TuneCP5_13p6TeV_powheg-pythia8/NANOAODSIM/130X_mcRun3_2022_realistic_postEE_v6-v2/50000/62c4d951-dc6d-49f5-bc9b-36e043e996e6.root": [
        "T1_US_FNAL_Disk: davs://cmsdcadisk.fnal.gov:2880/dcache/uscmsdisk/store/mc/Run3Summer22EENanoAODv12/ggZH_Hto2B_Zto2Q_M-125_TuneCP5_13p6TeV_powheg-pythia8/NANOAODSIM/130X_mcRun3_2022_realistic_postEE_v6-v2/50000/62c4d951-dc6d-49f5-bc9b-36e043e996e6.root",
        "T2_CH_CSCS: davs://storage01.lcg.cscs.ch:2880/pnfs/lcg.cscs.ch/cms/trivcat/store/mc/Run3Summer22EENanoAODv12/ggZH_Hto2B_Zto2Q_M-125_TuneCP5_13p6TeV_powheg-pythia8/NANOAODSIM/130X_mcRun3_2022_realistic_postEE_v6-v2/50000/62c4d951-dc6d-49f5-bc9b-36e043e996e6.root",
        "T2_IT_Legnaro: davs://t2-xrdcms.lnl.infn.it:2880/pnfs/lnl.infn.it/data/cms/store/mc/Run3Summer22EENanoAODv12/ggZH_Hto2B_Zto2Q_M-125_TuneCP5_13p6TeV_powheg-pythia8/NANOAODSIM/130X_mcRun3_2022_realistic_postEE_v6-v2/50000/62c4d951-dc6d-49f5-bc9b-36e043e996e6.root",
        "T2_CN_Beijing: davs://cceos.ihep.ac.cn:9000/eos/ihep/cms/store/mc/Run3Summer22EENanoAODv12/ggZH_Hto2B_Zto2Q_M-125_TuneCP5_13p6TeV_powheg-pythia8/NANOAODSIM/130X_mcRun3_2022_realistic_postEE_v6-v2/50000/62c4d951-dc6d-49f5-bc9b-36e043e996e6.root",
        "T2_US_Wisconsin: davs://cmsxrootd.hep.wisc.edu:1094/store/mc/Run3Summer22EENanoAODv12/ggZH_Hto2B_Zto2Q_M-125_TuneCP5_13p6TeV_powheg-pythia8/NANOAODSIM/130X_mcRun3_2022_realistic_postEE_v6-v2/50000/62c4d951-dc6d-49f5-bc9b-36e043e996e6.root",
        "T1_IT_CNAF_Tape: srm://storm-fe-cms.cr.cnaf.infn.it:8444/srm/managerv2?SFN=/cmstape/store/mc/Run3Summer22EENanoAODv12/ggZH_Hto2B_Zto2Q_M-125_TuneCP5_13p6TeV_powheg-pythia8/NANOAODSIM/130X_mcRun3_2022_realistic_postEE_v6-v2/50000/62c4d951-dc6d-49f5-bc9b-36e043e996e6.root",
        "T2_HU_Budapest: davs://grid143.kfki.hu:443/dpm/kfki.hu/home/cms/phedex/store/mc/Run3Summer22EENanoAODv12/ggZH_Hto2B_Zto2Q_M-125_TuneCP5_13p6TeV_powheg-pythia8/NANOAODSIM/130X_mcRun3_2022_realistic_postEE_v6-v2/50000/62c4d951-dc6d-49f5-bc9b-36e043e996e6.root",
        "T1_RU_JINR_Disk: davs://se-wbdv.jinr-t1.ru:2880/pnfs/jinr-t1.ru/data/cms/store/mc/Run3Summer22EENanoAODv12/ggZH_Hto2B_Zto2Q_M-125_TuneCP5_13p6TeV_powheg-pythia8/NANOAODSIM/130X_mcRun3_2022_realistic_postEE_v6-v2/50000/62c4d951-dc6d-49f5-bc9b-36e043e996e6.root"
    ],
    "cms:/store/mc/Run3Summer22EENanoAODv12/ggZH_Hto2B_Zto2Q_M-125_TuneCP5_13p6TeV_powheg-pythia8/NANOAODSIM/130X_mcRun3_2022_realistic_postEE_v6-v2/40000/fd3a5668-a673-46c5-8815-696873a9cb6d.root": [
        "T1_US_FNAL_Disk: davs://cmsdcadisk.fnal.gov:2880/dcache/uscmsdisk/store/mc/Run3Summer22EENanoAODv12/ggZH_Hto2B_Zto2Q_M-125_TuneCP5_13p6TeV_powheg-pythia8/NANOAODSIM/130X_mcRun3_2022_realistic_postEE_v6-v2/40000/fd3a5668-a673-46c5-8815-696873a9cb6d.root",
        "T2_CH_CSCS: davs://storage01.lcg.cscs.ch:2880/pnfs/lcg.cscs.ch/cms/trivcat/store/mc/Run3Summer22EENanoAODv12/ggZH_Hto2B_Zto2Q_M-125_TuneCP5_13p6TeV_powheg-pythia8/NANOAODSIM/130X_mcRun3_2022_realistic_postEE_v6-v2/40000/fd3a5668-a673-46c5-8815-696873a9cb6d.root",
        "T2_IT_Legnaro: davs://t2-xrdcms.lnl.infn.it:2880/pnfs/lnl.infn.it/data/cms/store/mc/Run3Summer22EENanoAODv12/ggZH_Hto2B_Zto2Q_M-125_TuneCP5_13p6TeV_powheg-pythia8/NANOAODSIM/130X_mcRun3_2022_realistic_postEE_v6-v2/40000/fd3a5668-a673-46c5-8815-696873a9cb6d.root",
        "T2_CN_Beijing: davs://cceos.ihep.ac.cn:9000/eos/ihep/cms/store/mc/Run3Summer22EENanoAODv12/ggZH_Hto2B_Zto2Q_M-125_TuneCP5_13p6TeV_powheg-pythia8/NANOAODSIM/130X_mcRun3_2022_realistic_postEE_v6-v2/40000/fd3a5668-a673-46c5-8815-696873a9cb6d.root",
        "T2_BE_UCL: davs://ingrid-se02.cism.ucl.ac.be:1094/store/mc/Run3Summer22EENanoAODv12/ggZH_Hto2B_Zto2Q_M-125_TuneCP5_13p6TeV_powheg-pythia8/NANOAODSIM/130X_mcRun3_2022_realistic_postEE_v6-v2/40000/fd3a5668-a673-46c5-8815-696873a9cb6d.root",
        "T2_US_Wisconsin: davs://cmsxrootd.hep.wisc.edu:1094/store/mc/Run3Summer22EENanoAODv12/ggZH_Hto2B_Zto2Q_M-125_TuneCP5_13p6TeV_powheg-pythia8/NANOAODSIM/130X_mcRun3_2022_realistic_postEE_v6-v2/40000/fd3a5668-a673-46c5-8815-696873a9cb6d.root",
        "T1_IT_CNAF_Tape: srm://storm-fe-cms.cr.cnaf.infn.it:8444/srm/managerv2?SFN=/cmstape/store/mc/Run3Summer22EENanoAODv12/ggZH_Hto2B_Zto2Q_M-125_TuneCP5_13p6TeV_powheg-pythia8/NANOAODSIM/130X_mcRun3_2022_realistic_postEE_v6-v2/40000/fd3a5668-a673-46c5-8815-696873a9cb6d.root",
        "T2_HU_Budapest: davs://grid143.kfki.hu:443/dpm/kfki.hu/home/cms/phedex/store/mc/Run3Summer22EENanoAODv12/ggZH_Hto2B_Zto2Q_M-125_TuneCP5_13p6TeV_powheg-pythia8/NANOAODSIM/130X_mcRun3_2022_realistic_postEE_v6-v2/40000/fd3a5668-a673-46c5-8815-696873a9cb6d.root",
        "T1_RU_JINR_Disk: davs://se-wbdv.jinr-t1.ru:2880/pnfs/jinr-t1.ru/data/cms/store/mc/Run3Summer22EENanoAODv12/ggZH_Hto2B_Zto2Q_M-125_TuneCP5_13p6TeV_powheg-pythia8/NANOAODSIM/130X_mcRun3_2022_realistic_postEE_v6-v2/40000/fd3a5668-a673-46c5-8815-696873a9cb6d.root"
    ],
    "cms:/store/mc/Run3Summer22EENanoAODv12/ggZH_Hto2B_Zto2Q_M-125_TuneCP5_13p6TeV_powheg-pythia8/NANOAODSIM/130X_mcRun3_2022_realistic_postEE_v6-v2/40000/746582d6-82b0-4055-8db7-419a7b19edec.root": [
        "T1_US_FNAL_Disk: davs://cmsdcadisk.fnal.gov:2880/dcache/uscmsdisk/store/mc/Run3Summer22EENanoAODv12/ggZH_Hto2B_Zto2Q_M-125_TuneCP5_13p6TeV_powheg-pythia8/NANOAODSIM/130X_mcRun3_2022_realistic_postEE_v6-v2/40000/746582d6-82b0-4055-8db7-419a7b19edec.root",
        "T2_CH_CSCS: davs://storage01.lcg.cscs.ch:2880/pnfs/lcg.cscs.ch/cms/trivcat/store/mc/Run3Summer22EENanoAODv12/ggZH_Hto2B_Zto2Q_M-125_TuneCP5_13p6TeV_powheg-pythia8/NANOAODSIM/130X_mcRun3_2022_realistic_postEE_v6-v2/40000/746582d6-82b0-4055-8db7-419a7b19edec.root",
        "T1_DE_KIT_Disk: davs://cmswebdav-kit-disk.gridka.de:2880/pnfs/gridka.de/cms/disk-only/store/mc/Run3Summer22EENanoAODv12/ggZH_Hto2B_Zto2Q_M-125_TuneCP5_13p6TeV_powheg-pythia8/NANOAODSIM/130X_mcRun3_2022_realistic_postEE_v6-v2/40000/746582d6-82b0-4055-8db7-419a7b19edec.root",
        "T2_IT_Legnaro: davs://t2-xrdcms.lnl.infn.it:2880/pnfs/lnl.infn.it/data/cms/store/mc/Run3Summer22EENanoAODv12/ggZH_Hto2B_Zto2Q_M-125_TuneCP5_13p6TeV_powheg-pythia8/NANOAODSIM/130X_mcRun3_2022_realistic_postEE_v6-v2/40000/746582d6-82b0-4055-8db7-419a7b19edec.root",
        "T2_CN_Beijing: davs://cceos.ihep.ac.cn:9000/eos/ihep/cms/store/mc/Run3Summer22EENanoAODv12/ggZH_Hto2B_Zto2Q_M-125_TuneCP5_13p6TeV_powheg-pythia8/NANOAODSIM/130X_mcRun3_2022_realistic_postEE_v6-v2/40000/746582d6-82b0-4055-8db7-419a7b19edec.root",
        "T2_US_Wisconsin: davs://cmsxrootd.hep.wisc.edu:1094/store/mc/Run3Summer22EENanoAODv12/ggZH_Hto2B_Zto2Q_M-125_TuneCP5_13p6TeV_powheg-pythia8/NANOAODSIM/130X_mcRun3_2022_realistic_postEE_v6-v2/40000/746582d6-82b0-4055-8db7-419a7b19edec.root",
        "T1_IT_CNAF_Tape: srm://storm-fe-cms.cr.cnaf.infn.it:8444/srm/managerv2?SFN=/cmstape/store/mc/Run3Summer22EENanoAODv12/ggZH_Hto2B_Zto2Q_M-125_TuneCP5_13p6TeV_powheg-pythia8/NANOAODSIM/130X_mcRun3_2022_realistic_postEE_v6-v2/40000/746582d6-82b0-4055-8db7-419a7b19edec.root",
        "T2_HU_Budapest: davs://grid143.kfki.hu:443/dpm/kfki.hu/home/cms/phedex/store/mc/Run3Summer22EENanoAODv12/ggZH_Hto2B_Zto2Q_M-125_TuneCP5_13p6TeV_powheg-pythia8/NANOAODSIM/130X_mcRun3_2022_realistic_postEE_v6-v2/40000/746582d6-82b0-4055-8db7-419a7b19edec.root",
        "T1_RU_JINR_Disk: davs://se-wbdv.jinr-t1.ru:2880/pnfs/jinr-t1.ru/data/cms/store/mc/Run3Summer22EENanoAODv12/ggZH_Hto2B_Zto2Q_M-125_TuneCP5_13p6TeV_powheg-pythia8/NANOAODSIM/130X_mcRun3_2022_realistic_postEE_v6-v2/40000/746582d6-82b0-4055-8db7-419a7b19edec.root"
    ],
    "cms:/store/mc/Run3Summer22EENanoAODv12/ggZH_Hto2B_Zto2Q_M-125_TuneCP5_13p6TeV_powheg-pythia8/NANOAODSIM/130X_mcRun3_2022_realistic_postEE_v6-v2/2540000/2313a4ad-6377-459a-8c3a-9085ad62ff82.root": [
        "T1_US_FNAL_Disk: davs://cmsdcadisk.fnal.gov:2880/dcache/uscmsdisk/store/mc/Run3Summer22EENanoAODv12/ggZH_Hto2B_Zto2Q_M-125_TuneCP5_13p6TeV_powheg-pythia8/NANOAODSIM/130X_mcRun3_2022_realistic_postEE_v6-v2/2540000/2313a4ad-6377-459a-8c3a-9085ad62ff82.root",
        "T2_CH_CSCS: davs://storage01.lcg.cscs.ch:2880/pnfs/lcg.cscs.ch/cms/trivcat/store/mc/Run3Summer22EENanoAODv12/ggZH_Hto2B_Zto2Q_M-125_TuneCP5_13p6TeV_powheg-pythia8/NANOAODSIM/130X_mcRun3_2022_realistic_postEE_v6-v2/2540000/2313a4ad-6377-459a-8c3a-9085ad62ff82.root",
        "T2_IT_Legnaro: davs://t2-xrdcms.lnl.infn.it:2880/pnfs/lnl.infn.it/data/cms/store/mc/Run3Summer22EENanoAODv12/ggZH_Hto2B_Zto2Q_M-125_TuneCP5_13p6TeV_powheg-pythia8/NANOAODSIM/130X_mcRun3_2022_realistic_postEE_v6-v2/2540000/2313a4ad-6377-459a-8c3a-9085ad62ff82.root",
        "T2_CN_Beijing: davs://cceos.ihep.ac.cn:9000/eos/ihep/cms/store/mc/Run3Summer22EENanoAODv12/ggZH_Hto2B_Zto2Q_M-125_TuneCP5_13p6TeV_powheg-pythia8/NANOAODSIM/130X_mcRun3_2022_realistic_postEE_v6-v2/2540000/2313a4ad-6377-459a-8c3a-9085ad62ff82.root",
        "T1_UK_RAL_Disk: davs://rdr.echo.stfc.ac.uk:1094/store/mc/Run3Summer22EENanoAODv12/ggZH_Hto2B_Zto2Q_M-125_TuneCP5_13p6TeV_powheg-pythia8/NANOAODSIM/130X_mcRun3_2022_realistic_postEE_v6-v2/2540000/2313a4ad-6377-459a-8c3a-9085ad62ff82.root",
        "T2_US_Wisconsin: davs://cmsxrootd.hep.wisc.edu:1094/store/mc/Run3Summer22EENanoAODv12/ggZH_Hto2B_Zto2Q_M-125_TuneCP5_13p6TeV_powheg-pythia8/NANOAODSIM/130X_mcRun3_2022_realistic_postEE_v6-v2/2540000/2313a4ad-6377-459a-8c3a-9085ad62ff82.root",
        "T1_IT_CNAF_Tape: srm://storm-fe-cms.cr.cnaf.infn.it:8444/srm/managerv2?SFN=/cmstape/store/mc/Run3Summer22EENanoAODv12/ggZH_Hto2B_Zto2Q_M-125_TuneCP5_13p6TeV_powheg-pythia8/NANOAODSIM/130X_mcRun3_2022_realistic_postEE_v6-v2/2540000/2313a4ad-6377-459a-8c3a-9085ad62ff82.root",
        "T2_HU_Budapest: davs://grid143.kfki.hu:443/dpm/kfki.hu/home/cms/phedex/store/mc/Run3Summer22EENanoAODv12/ggZH_Hto2B_Zto2Q_M-125_TuneCP5_13p6TeV_powheg-pythia8/NANOAODSIM/130X_mcRun3_2022_realistic_postEE_v6-v2/2540000/2313a4ad-6377-459a-8c3a-9085ad62ff82.root",
        "T1_RU_JINR_Disk: davs://se-wbdv.jinr-t1.ru:2880/pnfs/jinr-t1.ru/data/cms/store/mc/Run3Summer22EENanoAODv12/ggZH_Hto2B_Zto2Q_M-125_TuneCP5_13p6TeV_powheg-pythia8/NANOAODSIM/130X_mcRun3_2022_realistic_postEE_v6-v2/2540000/2313a4ad-6377-459a-8c3a-9085ad62ff82.root"
    ]
}