{
    "cms:/store/mc/Run3Summer22NanoAODv12/GluGlutoBulkGravitontoHHto4B_M-600_narrow_TuneCP5_13p6TeV_madgraph-pythia8/NANOAODSIM/130X_mcRun3_2022_realistic_v5-v3/50000/17253623-b173-47e5-8dfe-d167a41c76fc.root": [
        "T2_DE_DESY: davs://dcache-cms-webdav.desy.de:2880/pnfs/desy.de/cms/tier2/store/mc/Run3Summer22NanoAODv12/GluGlutoBulkGravitontoHHto4B_M-600_narrow_TuneCP5_13p6TeV_madgraph-pythia8/NANOAODSIM/130X_mcRun3_2022_realistic_v5-v3/50000/17253623-b173-47e5-8dfe-d167a41c76fc.root",
        "T2_IT_Bari: davs://webdav.recas.ba.infn.it:8443/cms/store/mc/Run3Summer22NanoAODv12/GluGlutoBulkGravitontoHHto4B_M-600_narrow_TuneCP5_13p6TeV_madgraph-pythia8/NANOAODSIM/130X_mcRun3_2022_realistic_v5-v3/50000/17253623-b173-47e5-8dfe-d167a41c76fc.root",
        "T2_FI_HIP: davs://hip-cms-se.csc.fi:2880/store/mc/Run3Summer22NanoAODv12/GluGlutoBulkGravitontoHHto4B_M-600_narrow_TuneCP5_13p6TeV_madgraph-pythia8/NANOAODSIM/130X_mcRun3_2022_realistic_v5-v3/50000/17253623-b173-47e5-8dfe-d167a41c76fc.root",
        "T2_BR_SPRACE: davs://osg-se.sprace.org.br:1094/store/mc/Run3Summer22NanoAODv12/GluGlutoBulkGravitontoHHto4B_M-600_narrow_TuneCP5_13p6TeV_madgraph-pythia8/NANOAODSIM/130X_mcRun3_2022_realistic_v5-v3/50000/17253623-b173-47e5-8dfe-d167a41c76fc.root",
        "T2_US_Wisconsin: davs://cmsxrootd.hep.wisc.edu:1094/store/mc/Run3Summer22NanoAODv12/GluGlutoBulkGravitontoHHto4B_M-600_narrow_TuneCP5_13p6TeV_madgraph-pythia8/NANOAODSIM/130X_mcRun3_2022_realistic_v5-v3/50000/17253623-b173-47e5-8dfe-d167a41c76fc.root",
        "T2_DE_RWTH: davs://grid-webdav.physik.rwth-aachen.de:2889/store/mc/Run3Summer22NanoAODv12/GluGlutoBulkGravitontoHHto4B_M-600_narrow_TuneCP5_13p6TeV_madgraph-pythia8/NANOAODSIM/130X_mcRun3_2022_realistic_v5-v3/50000/17253623-b173-47e5-8dfe-d167a41c76fc.root",
        "T0_CH_CERN_Tape: davs://eosctacms.cern.ch:8444//eos/ctacms/archive/cms/store/mc/Run3Summer22NanoAODv12/GluGlutoBulkGravitontoHHto4B_M-600_narrow_TuneCP5_13p6TeV_madgraph-pythia8/NANOAODSIM/130X_mcRun3_2022_realistic_v5-v3/50000/17253623-b173-47e5-8dfe-d167a41c76fc.root"
    ],
    "cms:/store/mc/Run3Summer22NanoAODv12/GluGlutoBulkGravitontoHHto4B_M-600_narrow_TuneCP5_13p6TeV_madgraph-pythia8/NANOAODSIM/130X_mcRun3_2022_realistic_v5-v3/50000/42cbb34b-9a26-4756-b0a0-c342a178dbe9.root": [
        "T2_DE_DESY: davs://dcache-cms-webdav.desy.de:2880/pnfs/desy.de/cms/tier2/store/mc/Run3Summer22NanoAODv12/GluGlutoBulkGravitontoHHto4B_M-600_narrow_TuneCP5_13p6TeV_madgraph-pythia8/NANOAODSIM/130X_mcRun3_2022_realistic_v5-v3/50000/42cbb34b-9a26-4756-b0a0-c342a178dbe9.root",
        "T2_IT_Bari: davs://webdav.recas.ba.infn.it:8443/cms/store/mc/Run3Summer22NanoAODv12/GluGlutoBulkGravitontoHHto4B_M-600_narrow_TuneCP5_13p6TeV_madgraph-pythia8/NANOAODSIM/130X_mcRun3_2022_realistic_v5-v3/50000/42cbb34b-9a26-4756-b0a0-c342a178dbe9.root",
        "T2_FI_HIP: davs://hip-cms-se.csc.fi:2880/store/mc/Run3Summer22NanoAODv12/GluGlutoBulkGravitontoHHto4B_M-600_narrow_TuneCP5_13p6TeV_madgraph-pythia8/NANOAODSIM/130X_mcRun3_2022_realistic_v5-v3/50000/42cbb34b-9a26-4756-b0a0-c342a178dbe9.root",
        "T2_BR_SPRACE: davs://osg-se.sprace.org.br:1094/store/mc/Run3Summer22NanoAODv12/GluGlutoBulkGravitontoHHto4B_M-600_narrow_TuneCP5_13p6TeV_madgraph-pythia8/NANOAODSIM/130X_mcRun3_2022_realistic_v5-v3/50000/42cbb34b-9a26-4756-b0a0-c342a178dbe9.root",
        "T2_US_Wisconsin: davs://cmsxrootd.hep.wisc.edu:1094/store/mc/Run3Summer22NanoAODv12/GluGlutoBulkGravitontoHHto4B_M-600_narrow_TuneCP5_13p6TeV_madgraph-pythia8/NANOAODSIM/130X_mcRun3_2022_realistic_v5-v3/50000/42cbb34b-9a26-4756-b0a0-c342a178dbe9.root",
        "T2_DE_RWTH: davs://grid-webdav.physik.rwth-aachen.de:2889/store/mc/Run3Summer22NanoAODv12/GluGlutoBulkGravitontoHHto4B_M-600_narrow_TuneCP5_13p6TeV_madgraph-pythia8/NANOAODSIM/130X_mcRun3_2022_realistic_v5-v3/50000/42cbb34b-9a26-4756-b0a0-c342a178dbe9.root",
        "T0_CH_CERN_Tape: davs://eosctacms.cern.ch:8444//eos/ctacms/archive/cms/store/mc/Run3Summer22NanoAODv12/GluGlutoBulkGravitontoHHto4B_M-600_narrow_TuneCP5_13p6TeV_madgraph-pythia8/NANOAODSIM/130X_mcRun3_2022_realistic_v5-v3/50000/42cbb34b-9a26-4756-b0a0-c342a178dbe9.root"
    ],
    "cms:/store/mc/Run3Summer22NanoAODv12/GluGlutoBulkGravitontoHHto4B_M-600_narrow_TuneCP5_13p6TeV_madgraph-pythia8/NANOAODSIM/130X_mcRun3_2022_realistic_v5-v3/50000/099ee85c-c93d-490d-a4dc-ee1b25480e1c.root": [
        "T2_DE_DESY: davs://dcache-cms-webdav.desy.de:2880/pnfs/desy.de/cms/tier2/store/mc/Run3Summer22NanoAODv12/GluGlutoBulkGravitontoHHto4B_M-600_narrow_TuneCP5_13p6TeV_madgraph-pythia8/NANOAODSIM/130X_mcRun3_2022_realistic_v5-v3/50000/099ee85c-c93d-490d-a4dc-ee1b25480e1c.root",
        "T2_IT_Bari: davs://webdav.recas.ba.infn.it:8443/cms/store/mc/Run3Summer22NanoAODv12/GluGlutoBulkGravitontoHHto4B_M-600_narrow_TuneCP5_13p6TeV_madgraph-pythia8/NANOAODSIM/130X_mcRun3_2022_realistic_v5-v3/50000/099ee85c-c93d-490d-a4dc-ee1b25480e1c.root",
        "T2_FI_HIP: davs://hip-cms-se.csc.fi:2880/store/mc/Run3Summer22NanoAODv12/GluGlutoBulkGravitontoHHto4B_M-600_narrow_TuneCP5_13p6TeV_madgraph-pythia8/NANOAODSIM/130X_mcRun3_2022_realistic_v5-v3/50000/099ee85c-c93d-490d-a4dc-ee1b25480e1c.root",
        "T2_BR_SPRACE: davs://osg-se.sprace.org.br:1094/store/mc/Run3Summer22NanoAODv12/GluGlutoBulkGravitontoHHto4B_M-600_narrow_TuneCP5_13p6TeV_madgraph-pythia8/NANOAODSIM/130X_mcRun3_2022_realistic_v5-v3/50000/099ee85c-c93d-490d-a4dc-ee1b25480e1c.root",
        "T2_US_Wisconsin: davs://cmsxrootd.hep.wisc.edu:1094/store/mc/Run3Summer22NanoAODv12/GluGlutoBulkGravitontoHHto4B_M-600_narrow_TuneCP5_13p6TeV_madgraph-pythia8/NANOAODSIM/130X_mcRun3_2022_realistic_v5-v3/50000/099ee85c-c93d-490d-a4dc-ee1b25480e1c.root",
        "T2_DE_RWTH: davs://grid-webdav.physik.rwth-aachen.de:2889/store/mc/Run3Summer22NanoAODv12/GluGlutoBulkGravitontoHHto4B_M-600_narrow_TuneCP5_13p6TeV_madgraph-pythia8/NANOAODSIM/130X_mcRun3_2022_realistic_v5-v3/50000/099ee85c-c93d-490d-a4dc-ee1b25480e1c.root",
        "T0_CH_CERN_Tape: davs://eosctacms.cern.ch:8444//eos/ctacms/archive/cms/store/mc/Run3Summer22NanoAODv12/GluGlutoBulkGravitontoHHto4B_M-600_narrow_TuneCP5_13p6TeV_madgraph-pythia8/NANOAODSIM/130X_mcRun3_2022_realistic_v5-v3/50000/099ee85c-c93d-490d-a4dc-ee1b25480e1c.root"
    ],
    "cms:/store/mc/Run3Summer22NanoAODv12/GluGlutoBulkGravitontoHHto4B_M-600_narrow_TuneCP5_13p6TeV_madgraph-pythia8/NANOAODSIM/130X_mcRun3_2022_realistic_v5-v3/50000/2d4d648c-9bf5-4f4e-a19f-93ed73fb2334.root": [
        "T2_DE_DESY: davs://dcache-cms-webdav.desy.de:2880/pnfs/desy.de/cms/tier2/store/mc/Run3Summer22NanoAODv12/GluGlutoBulkGravitontoHHto4B_M-600_narrow_TuneCP5_13p6TeV_madgraph-pythia8/NANOAODSIM/130X_mcRun3_2022_realistic_v5-v3/50000/2d4d648c-9bf5-4f4e-a19f-93ed73fb2334.root",
        "T2_IT_Bari: davs://webdav.recas.ba.infn.it:8443/cms/store/mc/Run3Summer22NanoAODv12/GluGlutoBulkGravitontoHHto4B_M-600_narrow_TuneCP5_13p6TeV_madgraph-pythia8/NANOAODSIM/130X_mcRun3_2022_realistic_v5-v3/50000/2d4d648c-9bf5-4f4e-a19f-93ed73fb2334.root",
        "T2_FI_HIP: davs://hip-cms-se.csc.fi:2880/store/mc/Run3Summer22NanoAODv12/GluGlutoBulkGravitontoHHto4B_M-600_narrow_TuneCP5_13p6TeV_madgraph-pythia8/NANOAODSIM/130X_mcRun3_2022_realistic_v5-v3/50000/2d4d648c-9bf5-4f4e-a19f-93ed73fb2334.root",
        "T2_BR_SPRACE: davs://osg-se.sprace.org.br:1094/store/mc/Run3Summer22NanoAODv12/GluGlutoBulkGravitontoHHto4B_M-600_narrow_TuneCP5_13p6TeV_madgraph-pythia8/NANOAODSIM/130X_mcRun3_2022_realistic_v5-v3/50000/2d4d648c-9bf5-4f4e-a19f-93ed73fb2334.root",
        "T2_US_Wisconsin: davs://cmsxrootd.hep.wisc.edu:1094/store/mc/Run3Summer22NanoAODv12/GluGlutoBulkGravitontoHHto4B_M-600_narrow_TuneCP5_13p6TeV_madgraph-pythia8/NANOAODSIM/130X_mcRun3_2022_realistic_v5-v3/50000/2d4d648c-9bf5-4f4e-a19f-93ed73fb2334.root",
        "T2_DE_RWTH: davs://grid-webdav.physik.rwth-aachen.de:2889/store/mc/Run3Summer22NanoAODv12/GluGlutoBulkGravitontoHHto4B_M-600_narrow_TuneCP5_13p6TeV_madgraph-pythia8/NANOAODSIM/130X_mcRun3_2022_realistic_v5-v3/50000/2d4d648c-9bf5-4f4e-a19f-93ed73fb2334.root",
        "T0_CH_CERN_Tape: davs://eosctacms.cern.ch:8444//eos/ctacms/archive/cms/store/mc/Run3Summer22NanoAODv12/GluGlutoBulkGravitontoHHto4B_M-600_narrow_TuneCP5_13p6TeV_madgraph-pythia8/NANOAODSIM/130X_mcRun3_2022_realistic_v5-v3/50000/2d4d648c-9bf5-4f4e-a19f-93ed73fb2334.root"
    ],
    "cms:/store/mc/Run3Summer22NanoAODv12/GluGlutoBulkGravitontoHHto4B_M-600_narrow_TuneCP5_13p6TeV_madgraph-pythia8/NANOAODSIM/130X_mcRun3_2022_realistic_v5-v3/50000/38970275-4ad2-4995-9156-9411e3affcd1.root": [
        "T2_DE_DESY: davs://dcache-cms-webdav.desy.de:2880/pnfs/desy.de/cms/tier2/store/mc/Run3Summer22NanoAODv12/GluGlutoBulkGravitontoHHto4B_M-600_narrow_TuneCP5_13p6TeV_madgraph-pythia8/NANOAODSIM/130X_mcRun3_2022_realistic_v5-v3/50000/38970275-4ad2-4995-9156-9411e3affcd1.root",
        "T2_IT_Bari: davs://webdav.recas.ba.infn.it:8443/cms/store/mc/Run3Summer22NanoAODv12/GluGlutoBulkGravitontoHHto4B_M-600_narrow_TuneCP5_13p6TeV_madgraph-pythia8/NANOAODSIM/130X_mcRun3_2022_realistic_v5-v3/50000/38970275-4ad2-4995-9156-9411e3affcd1.root",
        "T2_FI_HIP: davs://hip-cms-se.csc.fi:2880/store/mc/Run3Summer22NanoAODv12/GluGlutoBulkGravitontoHHto4B_M-600_narrow_TuneCP5_13p6TeV_madgraph-pythia8/NANOAODSIM/130X_mcRun3_2022_realistic_v5-v3/50000/38970275-4ad2-4995-9156-9411e3affcd1.root",
        "T2_BR_SPRACE: davs://osg-se.sprace.org.br:1094/store/mc/Run3Summer22NanoAODv12/GluGlutoBulkGravitontoHHto4B_M-600_narrow_TuneCP5_13p6TeV_madgraph-pythia8/NANOAODSIM/130X_mcRun3_2022_realistic_v5-v3/50000/38970275-4ad2-4995-9156-9411e3affcd1.root",
        "T2_US_Wisconsin: davs://cmsxrootd.hep.wisc.edu:1094/store/mc/Run3Summer22NanoAODv12/GluGlutoBulkGravitontoHHto4B_M-600_narrow_TuneCP5_13p6TeV_madgraph-pythia8/NANOAODSIM/130X_mcRun3_2022_realistic_v5-v3/50000/38970275-4ad2-4995-9156-9411e3affcd1.root",
        "T2_DE_RWTH: davs://grid-webdav.physik.rwth-aachen.de:2889/store/mc/Run3Summer22NanoAODv12/GluGlutoBulkGravitontoHHto4B_M-600_narrow_TuneCP5_13p6TeV_madgraph-pythia8/NANOAODSIM/130X_mcRun3_2022_realistic_v5-v3/50000/38970275-4ad2-4995-9156-9411e3affcd1.root",
        "T0_CH_CERN_Tape: davs://eosctacms.cern.ch:8444//eos/ctacms/archive/cms/store/mc/Run3Summer22NanoAODv12/GluGlutoBulkGravitontoHHto4B_M-600_narrow_TuneCP5_13p6TeV_madgraph-pythia8/NANOAODSIM/130X_mcRun3_2022_realistic_v5-v3/50000/38970275-4ad2-4995-9156-9411e3affcd1.root"
    ],
    "cms:/store/mc/Run3Summer22NanoAODv12/GluGlutoBulkGravitontoHHto4B_M-600_narrow_TuneCP5_13p6TeV_madgraph-pythia8/NANOAODSIM/130X_mcRun3_2022_realistic_v5-v3/50000/02a6576e-34bd-4b3c-a30d-bfcb427b8fbf.root": [
        "T2_DE_DESY: davs://dcache-cms-webdav.desy.de:2880/pnfs/desy.de/cms/tier2/store/mc/Run3Summer22NanoAODv12/GluGlutoBulkGravitontoHHto4B_M-600_narrow_TuneCP5_13p6TeV_madgraph-pythia8/NANOAODSIM/130X_mcRun3_2022_realistic_v5-v3/50000/02a6576e-34bd-4b3c-a30d-bfcb427b8fbf.root",
        "T2_IT_Bari: davs://webdav.recas.ba.infn.it:8443/cms/store/mc/Run3Summer22NanoAODv12/GluGlutoBulkGravitontoHHto4B_M-600_narrow_TuneCP5_13p6TeV_madgraph-pythia8/NANOAODSIM/130X_mcRun3_2022_realistic_v5-v3/50000/02a6576e-34bd-4b3c-a30d-bfcb427b8fbf.root",
        "T2_FI_HIP: davs://hip-cms-se.csc.fi:2880/store/mc/Run3Summer22NanoAODv12/GluGlutoBulkGravitontoHHto4B_M-600_narrow_TuneCP5_13p6TeV_madgraph-pythia8/NANOAODSIM/130X_mcRun3_2022_realistic_v5-v3/50000/02a6576e-34bd-4b3c-a30d-bfcb427b8fbf.root",
        "T2_BR_SPRACE: davs://osg-se.sprace.org.br:1094/store/mc/Run3Summer22NanoAODv12/GluGlutoBulkGravitontoHHto4B_M-600_narrow_TuneCP5_13p6TeV_madgraph-pythia8/NANOAODSIM/130X_mcRun3_2022_realistic_v5-v3/50000/02a6576e-34bd-4b3c-a30d-bfcb427b8fbf.root",
        "T2_US_Wisconsin: davs://cmsxrootd.hep.wisc.edu:1094/store/mc/Run3Summer22NanoAODv12/GluGlutoBulkGravitontoHHto4B_M-600_narrow_TuneCP5_13p6TeV_madgraph-pythia8/NANOAODSIM/130X_mcRun3_2022_realistic_v5-v3/50000/02a6576e-34bd-4b3c-a30d-bfcb427b8fbf.root",
        "T2_DE_RWTH: davs://grid-webdav.physik.rwth-aachen.de:2889/store/mc/Run3Summer22NanoAODv12/GluGlutoBulkGravitontoHHto4B_M-600_narrow_TuneCP5_13p6TeV_madgraph-pythia8/NANOAODSIM/130X_mcRun3_2022_realistic_v5-v3/50000/02a6576e-34bd-4b3c-a30d-bfcb427b8fbf.root",
        "T0_CH_CERN_Tape: davs://eosctacms.cern.ch:8444//eos/ctacms/archive/cms/store/mc/Run3Summer22NanoAODv12/GluGlutoBulkGravitontoHHto4B_M-600_narrow_TuneCP5_13p6TeV_madgraph-pythia8/NANOAODSIM/130X_mcRun3_2022_realistic_v5-v3/50000/02a6576e-34bd-4b3c-a30d-bfcb427b8fbf.root"
    ],
    "cms:/store/mc/Run3Summer22NanoAODv12/GluGlutoBulkGravitontoHHto4B_M-600_narrow_TuneCP5_13p6TeV_madgraph-pythia8/NANOAODSIM/130X_mcRun3_2022_realistic_v5-v3/50000/7f41508f-be12-4bab-8890-fef41a168ebd.root": [
        "T2_DE_DESY: davs://dcache-cms-webdav.desy.de:2880/pnfs/desy.de/cms/tier2/store/mc/Run3Summer22NanoAODv12/GluGlutoBulkGravitontoHHto4B_M-600_narrow_TuneCP5_13p6TeV_madgraph-pythia8/NANOAODSIM/130X_mcRun3_2022_realistic_v5-v3/50000/7f41508f-be12-4bab-8890-fef41a168ebd.root",
        "T2_IT_Bari: davs://webdav.recas.ba.infn.it:8443/cms/store/mc/Run3Summer22NanoAODv12/GluGlutoBulkGravitontoHHto4B_M-600_narrow_TuneCP5_13p6TeV_madgraph-pythia8/NANOAODSIM/130X_mcRun3_2022_realistic_v5-v3/50000/7f41508f-be12-4bab-8890-fef41a168ebd.root",
        "T2_FI_HIP: davs://hip-cms-se.csc.fi:2880/store/mc/Run3Summer22NanoAODv12/GluGlutoBulkGravitontoHHto4B_M-600_narrow_TuneCP5_13p6TeV_madgraph-pythia8/NANOAODSIM/130X_mcRun3_2022_realistic_v5-v3/50000/7f41508f-be12-4bab-8890-fef41a168ebd.root",
        "T2_BR_SPRACE: davs://osg-se.sprace.org.br:1094/store/mc/Run3Summer22NanoAODv12/GluGlutoBulkGravitontoHHto4B_M-600_narrow_TuneCP5_13p6TeV_madgraph-pythia8/NANOAODSIM/130X_mcRun3_2022_realistic_v5-v3/50000/7f41508f-be12-4bab-8890-fef41a168ebd.root",
        "T2_US_Wisconsin: davs://cmsxrootd.hep.wisc.edu:1094/store/mc/Run3Summer22NanoAODv12/GluGlutoBulkGravitontoHHto4B_M-600_narrow_TuneCP5_13p6TeV_madgraph-pythia8/NANOAODSIM/130X_mcRun3_2022_realistic_v5-v3/50000/7f41508f-be12-4bab-8890-fef41a168ebd.root",
        "T2_DE_RWTH: davs://grid-webdav.physik.rwth-aachen.de:2889/store/mc/Run3Summer22NanoAODv12/GluGlutoBulkGravitontoHHto4B_M-600_narrow_TuneCP5_13p6TeV_madgraph-pythia8/NANOAODSIM/130X_mcRun3_2022_realistic_v5-v3/50000/7f41508f-be12-4bab-8890-fef41a168ebd.root",
        "T0_CH_CERN_Tape: davs://eosctacms.cern.ch:8444//eos/ctacms/archive/cms/store/mc/Run3Summer22NanoAODv12/GluGlutoBulkGravitontoHHto4B_M-600_narrow_TuneCP5_13p6TeV_madgraph-pythia8/NANOAODSIM/130X_mcRun3_2022_realistic_v5-v3/50000/7f41508f-be12-4bab-8890-fef41a168ebd.root"
    ],
    "cms:/store/mc/Run3Summer22NanoAODv12/GluGlutoBulkGravitontoHHto4B_M-600_narrow_TuneCP5_13p6TeV_madgraph-pythia8/NANOAODSIM/130X_mcRun3_2022_realistic_v5-v3/50000/49bbeeac-e086-4561-9a9b-e0e4d3bb2223.root": [
        "T2_DE_DESY: davs://dcache-cms-webdav.desy.de:2880/pnfs/desy.de/cms/tier2/store/mc/Run3Summer22NanoAODv12/GluGlutoBulkGravitontoHHto4B_M-600_narrow_TuneCP5_13p6TeV_madgraph-pythia8/NANOAODSIM/130X_mcRun3_2022_realistic_v5-v3/50000/49bbeeac-e086-4561-9a9b-e0e4d3bb2223.root",
        "T2_IT_Bari: davs://webdav.recas.ba.infn.it:8443/cms/store/mc/Run3Summer22NanoAODv12/GluGlutoBulkGravitontoHHto4B_M-600_narrow_TuneCP5_13p6TeV_madgraph-pythia8/NANOAODSIM/130X_mcRun3_2022_realistic_v5-v3/50000/49bbeeac-e086-4561-9a9b-e0e4d3bb2223.root",
        "T2_FI_HIP: davs://hip-cms-se.csc.fi:2880/store/mc/Run3Summer22NanoAODv12/GluGlutoBulkGravitontoHHto4B_M-600_narrow_TuneCP5_13p6TeV_madgraph-pythia8/NANOAODSIM/130X_mcRun3_2022_realistic_v5-v3/50000/49bbeeac-e086-4561-9a9b-e0e4d3bb2223.root",
        "T2_BR_SPRACE: davs://osg-se.sprace.org.br:1094/store/mc/Run3Summer22NanoAODv12/GluGlutoBulkGravitontoHHto4B_M-600_narrow_TuneCP5_13p6TeV_madgraph-pythia8/NANOAODSIM/130X_mcRun3_2022_realistic_v5-v3/50000/49bbeeac-e086-4561-9a9b-e0e4d3bb2223.root",
        "T2_US_Wisconsin: davs://cmsxrootd.hep.wisc.edu:1094/store/mc/Run3Summer22NanoAODv12/GluGlutoBulkGravitontoHHto4B_M-600_narrow_TuneCP5_13p6TeV_madgraph-pythia8/NANOAODSIM/130X_mcRun3_2022_realistic_v5-v3/50000/49bbeeac-e086-4561-9a9b-e0e4d3bb2223.root",
        "T2_DE_RWTH: davs://grid-webdav.physik.rwth-aachen.de:2889/store/mc/Run3Summer22NanoAODv12/GluGlutoBulkGravitontoHHto4B_M-600_narrow_TuneCP5_13p6TeV_madgraph-pythia8/NANOAODSIM/130X_mcRun3_2022_realistic_v5-v3/50000/49bbeeac-e086-4561-9a9b-e0e4d3bb2223.root",
        "T0_CH_CERN_Tape: davs://eosctacms.cern.ch:8444//eos/ctacms/archive/cms/store/mc/Run3Summer22NanoAODv12/GluGlutoBulkGravitontoHHto4B_M-600_narrow_TuneCP5_13p6TeV_madgraph-pythia8/NANOAODSIM/130X_mcRun3_2022_realistic_v5-v3/50000/49bbeeac-e086-4561-9a9b-e0e4d3bb2223.root"
    ]
}