+----------------------------------------------------------------------------------------------------------------------------------------------------------------------------------------------------------------+--------+-------------+------------+----------+
| SCOPE:NAME                                                                                                                                                                                                     | GUID   | ADLER32     | FILESIZE   | EVENTS   |
|----------------------------------------------------------------------------------------------------------------------------------------------------------------------------------------------------------------+--------+-------------+------------+----------|
| cms:/store/mc/Run3Summer22EENanoAODv12/GluGlutoRadiontoHHto4B_M-450_narrow_TuneCP5_13p6TeV_madgraph-pythia8/NANOAODSIM/130X_mcRun3_2022_realistic_postEE_v6-v3/80000/226f6f25-9506-4cf5-83ea-39ad14eb9d48.root | (None) | ad:5fef8db6 | 430.937 MB |          |
| cms:/store/mc/Run3Summer22EENanoAODv12/GluGlutoRadiontoHHto4B_M-450_narrow_TuneCP5_13p6TeV_madgraph-pythia8/NANOAODSIM/130X_mcRun3_2022_realistic_postEE_v6-v3/80000/2bf7f023-76f5-4fa6-9ead-13626223b8cd.root | (None) | ad:788140dd | 175.122 MB |          |
| cms:/store/mc/Run3Summer22EENanoAODv12/GluGlutoRadiontoHHto4B_M-450_narrow_TuneCP5_13p6TeV_madgraph-pythia8/NANOAODSIM/130X_mcRun3_2022_realistic_postEE_v6-v3/80000/668e8f56-db2b-4fcc-b393-86cfb1bb9060.root | (None) | ad:a9ac7346 | 3.475 MB   |          |
| cms:/store/mc/Run3Summer22EENanoAODv12/GluGlutoRadiontoHHto4B_M-450_narrow_TuneCP5_13p6TeV_madgraph-pythia8/NANOAODSIM/130X_mcRun3_2022_realistic_postEE_v6-v3/80000/53da9a82-019a-4793-b7ff-f39aeae0529e.root | (None) | ad:c3892321 | 53.756 MB  |          |
+----------------------------------------------------------------------------------------------------------------------------------------------------------------------------------------------------------------+--------+-------------+------------+----------+
Total files : 4
Total size : 663.290 MB
