+------------------------------------------------------------------------------------------------------------------------------------------------------------------------------------------+--------+-------------+------------+----------+
| SCOPE:NAME                                                                                                                                                                               | GUID   | ADLER32     | FILESIZE   | EVENTS   |
|------------------------------------------------------------------------------------------------------------------------------------------------------------------------------------------+--------+-------------+------------+----------|
| cms:/store/mc/Run3Summer23NanoAODv12/GluGluHto2B_M-125_TuneCP5_13p6TeV_powheg-minlo-pythia8/NANOAODSIM/130X_mcRun3_2023_realistic_v14-v2/50000/44aef61b-e2fc-4bdc-8911-09afff112aef.root | (None) | ad:dd2441e7 | 353.293 MB |          |
| cms:/store/mc/Run3Summer23NanoAODv12/GluGluHto2B_M-125_TuneCP5_13p6TeV_powheg-minlo-pythia8/NANOAODSIM/130X_mcRun3_2023_realistic_v14-v2/50000/67207049-a124-4acf-89e1-f975383fdb09.root | (None) | ad:e5357615 | 353.204 MB |          |
| cms:/store/mc/Run3Summer23NanoAODv12/GluGluHto2B_M-125_TuneCP5_13p6TeV_powheg-minlo-pythia8/NANOAODSIM/130X_mcRun3_2023_realistic_v14-v2/50000/98e81e38-5260-4ba0-89ce-7fe34e1a43bc.root | (None) | ad:70ee7527 | 100.120 MB |          |
| cms:/store/mc/Run3Summer23NanoAODv12/GluGluHto2B_M-125_TuneCP5_13p6TeV_powheg-minlo-pythia8/NANOAODSIM/130X_mcRun3_2023_realistic_v14-v2/50000/212055ec-e0c4-4c92-ad1f-d2a5878f075c.root | (None) | ad:cfe075fd | 142.202 MB |          |
| cms:/store/mc/Run3Summer23NanoAODv12/GluGluHto2B_M-125_TuneCP5_13p6TeV_powheg-minlo-pythia8/NANOAODSIM/130X_mcRun3_2023_realistic_v14-v2/50000/a34ced3a-02d9-40e0-a28b-814d3ed24b22.root | (None) | ad:c21dc525 | 7.311 MB   |          |
| cms:/store/mc/Run3Summer23NanoAODv12/GluGluHto2B_M-125_TuneCP5_13p6TeV_powheg-minlo-pythia8/NANOAODSIM/130X_mcRun3_2023_realistic_v14-v2/50000/01786052-24d8-4d55-8b0e-6749c4cc3b27.root | (None) | ad:36489340 | 387.676 MB |          |
| cms:/store/mc/Run3Summer23NanoAODv12/GluGluHto2B_M-125_TuneCP5_13p6TeV_powheg-minlo-pythia8/NANOAODSIM/130X_mcRun3_2023_realistic_v14-v2/50000/1ed5c742-547d-4ad4-8898-7c1433235d4c.root | (None) | ad:191a4c2c | 150.647 MB |          |
| cms:/store/mc/Run3Summer23NanoAODv12/GluGluHto2B_M-125_TuneCP5_13p6TeV_powheg-minlo-pythia8/NANOAODSIM/130X_mcRun3_2023_realistic_v14-v2/50000/2924906d-7f86-4159-a7c8-1ceba5181c5a.root | (None) | ad:b119c29e | 382.520 MB |          |
| cms:/store/mc/Run3Summer23NanoAODv12/GluGluHto2B_M-125_TuneCP5_13p6TeV_powheg-minlo-pythia8/NANOAODSIM/130X_mcRun3_2023_realistic_v14-v2/50000/3a33a3f7-119d-43d1-98fa-2de8f1eaa71b.root | (None) | ad:088c75e2 | 357.382 MB |          |
| cms:/store/mc/Run3Summer23NanoAODv12/GluGluHto2B_M-125_TuneCP5_13p6TeV_powheg-minlo-pythia8/NANOAODSIM/130X_mcRun3_2023_realistic_v14-v2/50000/3c20e5fa-f7ca-413e-a452-a0b96b0813f1.root | (None) | ad:1d41ccda | 441.539 MB |          |
| cms:/store/mc/Run3Summer23NanoAODv12/GluGluHto2B_M-125_TuneCP5_13p6TeV_powheg-minlo-pythia8/NANOAODSIM/130X_mcRun3_2023_realistic_v14-v2/50000/429c4918-46f0-433f-bedf-924c6ae11818.root | (None) | ad:0225d48f | 391.426 MB |          |
| cms:/store/mc/Run3Summer23NanoAODv12/GluGluHto2B_M-125_TuneCP5_13p6TeV_powheg-minlo-pythia8/NANOAODSIM/130X_mcRun3_2023_realistic_v14-v2/50000/65a68329-887f-47ec-b465-6af6b3645ced.root | (None) | ad:3d64c677 | 353.290 MB |          |
| cms:/store/mc/Run3Summer23NanoAODv12/GluGluHto2B_M-125_TuneCP5_13p6TeV_powheg-minlo-pythia8/NANOAODSIM/130X_mcRun3_2023_realistic_v14-v2/50000/6d3ab9fe-229b-4ab6-883a-5a791023e778.root | (None) | ad:e571aa2a | 606.624 MB |          |
| cms:/store/mc/Run3Summer23NanoAODv12/GluGluHto2B_M-125_TuneCP5_13p6TeV_powheg-minlo-pythia8/NANOAODSIM/130X_mcRun3_2023_realistic_v14-v2/50000/7f76f567-d92a-4d79-8729-6b998272f6d6.root | (None) | ad:2fa83e15 | 374.418 MB |          |
| cms:/store/mc/Run3Summer23NanoAODv12/GluGluHto2B_M-125_TuneCP5_13p6TeV_powheg-minlo-pythia8/NANOAODSIM/130X_mcRun3_2023_realistic_v14-v2/50000/a26becc4-951d-42d0-902d-d4c055423b67.root | (None) | ad:c2171957 | 590.084 MB |          |
| cms:/store/mc/Run3Summer23NanoAODv12/GluGluHto2B_M-125_TuneCP5_13p6TeV_powheg-minlo-pythia8/NANOAODSIM/130X_mcRun3_2023_realistic_v14-v2/50000/bc3deb61-d14e-4882-9cbc-6a130a0d5553.root | (None) | ad:38bd1eb0 | 433.216 MB |          |
| cms:/store/mc/Run3Summer23NanoAODv12/GluGluHto2B_M-125_TuneCP5_13p6TeV_powheg-minlo-pythia8/NANOAODSIM/130X_mcRun3_2023_realistic_v14-v2/50000/d6d87fa0-f4a1-4a9a-977e-56044ad018b7.root | (None) | ad:ce608d81 | 366.340 MB |          |
| cms:/store/mc/Run3Summer23NanoAODv12/GluGluHto2B_M-125_TuneCP5_13p6TeV_powheg-minlo-pythia8/NANOAODSIM/130X_mcRun3_2023_realistic_v14-v2/50000/e49f0d5d-4966-408a-87b7-ca976604ab6a.root | (None) | ad:d0dac6fb | 441.670 MB |          |
| cms:/store/mc/Run3Summer23NanoAODv12/GluGluHto2B_M-125_TuneCP5_13p6TeV_powheg-minlo-pythia8/NANOAODSIM/130X_mcRun3_2023_realistic_v14-v2/50000/f3b70678-dc52-4b56-bf16-2295981286ee.root | (None) | ad:6ed3ee2d | 395.751 MB |          |
| cms:/store/mc/Run3Summer23NanoAODv12/GluGluHto2B_M-125_TuneCP5_13p6TeV_powheg-minlo-pythia8/NANOAODSIM/130X_mcRun3_2023_realistic_v14-v2/50000/009daa9d-43c0-4cb6-9c43-88c1af42b01d.root | (None) | ad:7adb975f | 361.355 MB |          |
| cms:/store/mc/Run3Summer23NanoAODv12/GluGluHto2B_M-125_TuneCP5_13p6TeV_powheg-minlo-pythia8/NANOAODSIM/130X_mcRun3_2023_realistic_v14-v2/50000/9469481c-e19c-4e46-81f0-97105c917abd.root | (None) | ad:12aa587c | 247.984 MB |          |
| cms:/store/mc/Run3Summer23NanoAODv12/GluGluHto2B_M-125_TuneCP5_13p6TeV_powheg-minlo-pythia8/NANOAODSIM/130X_mcRun3_2023_realistic_v14-v2/50000/9eaea555-759e-4a21-9beb-73b2f2a48e38.root | (None) | ad:20e5e4f7 | 167.614 MB |          |
| cms:/store/mc/Run3Summer23NanoAODv12/GluGluHto2B_M-125_TuneCP5_13p6TeV_powheg-minlo-pythia8/NANOAODSIM/130X_mcRun3_2023_realistic_v14-v2/50000/ddf903e8-9131-4a24-b1ab-351c1226c051.root | (None) | ad:d112c6b4 | 357.537 MB |          |
| cms:/store/mc/Run3Summer23NanoAODv12/GluGluHto2B_M-125_TuneCP5_13p6TeV_powheg-minlo-pythia8/NANOAODSIM/130X_mcRun3_2023_realistic_v14-v2/50000/53a0470a-1ce7-4df8-a6bf-770e71db18ce.root | (None) | ad:0b1c99fe | 7.299 MB   |          |
| cms:/store/mc/Run3Summer23NanoAODv12/GluGluHto2B_M-125_TuneCP5_13p6TeV_powheg-minlo-pythia8/NANOAODSIM/130X_mcRun3_2023_realistic_v14-v2/50000/58962728-3f8b-4801-97f1-cb09ce28adc6.root | (None) | ad:f854c1ab | 7.335 MB   |          |
| cms:/store/mc/Run3Summer23NanoAODv12/GluGluHto2B_M-125_TuneCP5_13p6TeV_powheg-minlo-pythia8/NANOAODSIM/130X_mcRun3_2023_realistic_v14-v2/50000/78d51bf1-6447-4a20-b729-05d3822626b7.root | (None) | ad:76d93ede | 353.570 MB |          |
| cms:/store/mc/Run3Summer23NanoAODv12/GluGluHto2B_M-125_TuneCP5_13p6TeV_powheg-minlo-pythia8/NANOAODSIM/130X_mcRun3_2023_realistic_v14-v2/50000/7eabf65c-a437-4a00-92d9-79c37b70f8f4.root | (None) | ad:c446cb98 | 374.005 MB |          |
| cms:/store/mc/Run3Summer23NanoAODv12/GluGluHto2B_M-125_TuneCP5_13p6TeV_powheg-minlo-pythia8/NANOAODSIM/130X_mcRun3_2023_realistic_v14-v2/50000/e58c40c5-490e-4e5b-baf5-557f0fae1f6f.root | (None) | ad:8b5e0e3b | 357.511 MB |          |
| cms:/store/mc/Run3Summer23NanoAODv12/GluGluHto2B_M-125_TuneCP5_13p6TeV_powheg-minlo-pythia8/NANOAODSIM/130X_mcRun3_2023_realistic_v14-v2/50000/c3e7461d-1935-4edf-8bdf-0ac65f0cf0ea.root | (None) | ad:dc56d194 | 256.357 MB |          |
| cms:/store/mc/Run3Summer23NanoAODv12/GluGluHto2B_M-125_TuneCP5_13p6TeV_powheg-minlo-pythia8/NANOAODSIM/130X_mcRun3_2023_realistic_v14-v2/50000/c00eca2c-a6cf-4f44-b970-dab547bd7fe7.root | (None) | ad:745b55f7 | 295.361 MB |          |
| cms:/store/mc/Run3Summer23NanoAODv12/GluGluHto2B_M-125_TuneCP5_13p6TeV_powheg-minlo-pythia8/NANOAODSIM/130X_mcRun3_2023_realistic_v14-v2/50000/f6dcd22b-796c-4f1f-aa52-d9d9258cffd9.root | (None) | ad:77b63f1a | 11.657 MB  |          |
| cms:/store/mc/Run3Summer23NanoAODv12/GluGluHto2B_M-125_TuneCP5_13p6TeV_powheg-minlo-pythia8/NANOAODSIM/130X_mcRun3_2023_realistic_v14-v2/50000/70a73a69-3dee-4a18-99f6-20b5a09a97a3.root | (None) | ad:c5d092b0 | 146.551 MB |          |
| cms:/store/mc/Run3Summer23NanoAODv12/GluGluHto2B_M-125_TuneCP5_13p6TeV_powheg-minlo-pythia8/NANOAODSIM/130X_mcRun3_2023_realistic_v14-v2/50000/80c1731f-5a08-4149-80e0-a6f5370112b9.root | (None) | ad:c814c274 | 370.123 MB |          |
| cms:/store/mc/Run3Summer23NanoAODv12/GluGluHto2B_M-125_TuneCP5_13p6TeV_powheg-minlo-pythia8/NANOAODSIM/130X_mcRun3_2023_realistic_v14-v2/50000/a60b48bc-139d-44e3-bace-da680ec7adbf.root | (None) | ad:9a6689f6 | 91.782 MB  |          |
| cms:/store/mc/Run3Summer23NanoAODv12/GluGluHto2B_M-125_TuneCP5_13p6TeV_powheg-minlo-pythia8/NANOAODSIM/130X_mcRun3_2023_realistic_v14-v2/50000/ebd7e458-42e8-4b87-8a8e-8eca34891732.root | (None) | ad:b9c485fc | 353.400 MB |          |
| cms:/store/mc/Run3Summer23NanoAODv12/GluGluHto2B_M-125_TuneCP5_13p6TeV_powheg-minlo-pythia8/NANOAODSIM/130X_mcRun3_2023_realistic_v14-v2/50000/39a266f1-b26c-401a-b87e-bbffa8e8aa35.root | (None) | ad:0aec6ce1 | 184.673 MB |          |
| cms:/store/mc/Run3Summer23NanoAODv12/GluGluHto2B_M-125_TuneCP5_13p6TeV_powheg-minlo-pythia8/NANOAODSIM/130X_mcRun3_2023_realistic_v14-v2/50000/11e19e7e-8fa6-4432-aad1-5efc325e493f.root | (None) | ad:18468134 | 7.324 MB   |          |
| cms:/store/mc/Run3Summer23NanoAODv12/GluGluHto2B_M-125_TuneCP5_13p6TeV_powheg-minlo-pythia8/NANOAODSIM/130X_mcRun3_2023_realistic_v14-v2/50000/c675bf63-78cc-4336-808c-fb712871d56e.root | (None) | ad:c4ce01b7 | 353.347 MB |          |
| cms:/store/mc/Run3Summer23NanoAODv12/GluGluHto2B_M-125_TuneCP5_13p6TeV_powheg-minlo-pythia8/NANOAODSIM/130X_mcRun3_2023_realistic_v14-v2/50000/d54fb879-7c73-47f1-9b69-fa4cf4bf112d.root | (None) | ad:9d0b431a | 138.454 MB |          |
| cms:/store/mc/Run3Summer23NanoAODv12/GluGluHto2B_M-125_TuneCP5_13p6TeV_powheg-minlo-pythia8/NANOAODSIM/130X_mcRun3_2023_realistic_v14-v2/50000/8e7691a5-637f-42f2-b563-1b30b46751bb.root | (None) | ad:8af95942 | 49.211 MB  |          |
| cms:/store/mc/Run3Summer23NanoAODv12/GluGluHto2B_M-125_TuneCP5_13p6TeV_powheg-minlo-pythia8/NANOAODSIM/130X_mcRun3_2023_realistic_v14-v2/50000/02a56e7d-4a9b-40e6-8f9c-c10f4ec72006.root | (None) | ad:eff551e2 | 180.266 MB |          |
| cms:/store/mc/Run3Summer23NanoAODv12/GluGluHto2B_M-125_TuneCP5_13p6TeV_powheg-minlo-pythia8/NANOAODSIM/130X_mcRun3_2023_realistic_v14-v2/50000/9719b186-e352-4d0e-bbcb-799843aa05c1.root | (None) | ad:ae543c7a | 361.555 MB |          |
| cms:/store/mc/Run3Summer23NanoAODv12/GluGluHto2B_M-125_TuneCP5_13p6TeV_powheg-minlo-pythia8/NANOAODSIM/130X_mcRun3_2023_realistic_v14-v2/50000/a592ae24-071b-49a2-819b-035ec4dcb97a.root | (None) | ad:8744739c | 344.892 MB |          |
| cms:/store/mc/Run3Summer23NanoAODv12/GluGluHto2B_M-125_TuneCP5_13p6TeV_powheg-minlo-pythia8/NANOAODSIM/130X_mcRun3_2023_realistic_v14-v2/50000/c499d727-cef5-4408-9f05-96f3d1c03150.root | (None) | ad:1e7af554 | 378.155 MB |          |
| cms:/store/mc/Run3Summer23NanoAODv12/GluGluHto2B_M-125_TuneCP5_13p6TeV_powheg-minlo-pythia8/NANOAODSIM/130X_mcRun3_2023_realistic_v14-v2/50000/2d001b75-efdf-42cc-8def-30625f9707ba.root | (None) | ad:b494f279 | 395.412 MB |          |
| cms:/store/mc/Run3Summer23NanoAODv12/GluGluHto2B_M-125_TuneCP5_13p6TeV_powheg-minlo-pythia8/NANOAODSIM/130X_mcRun3_2023_realistic_v14-v2/50000/8b6ebc12-4d74-43be-8448-4b0399df71a3.root | (None) | ad:90aa0887 | 298.394 MB |          |
| cms:/store/mc/Run3Summer23NanoAODv12/GluGluHto2B_M-125_TuneCP5_13p6TeV_powheg-minlo-pythia8/NANOAODSIM/130X_mcRun3_2023_realistic_v14-v2/50000/dd71a6f2-2959-428f-95a0-ef97ff75c6dc.root | (None) | ad:0c6f756f | 416.933 MB |          |
| cms:/store/mc/Run3Summer23NanoAODv12/GluGluHto2B_M-125_TuneCP5_13p6TeV_powheg-minlo-pythia8/NANOAODSIM/130X_mcRun3_2023_realistic_v14-v2/50000/bb0e8bee-900c-4ddf-9991-eb9b69445cb4.root | (None) | ad:c664950b | 61.946 MB  |          |
| cms:/store/mc/Run3Summer23NanoAODv12/GluGluHto2B_M-125_TuneCP5_13p6TeV_powheg-minlo-pythia8/NANOAODSIM/130X_mcRun3_2023_realistic_v14-v2/50000/735cd1be-fe6f-483f-9a1d-44f1e6aa265e.root | (None) | ad:b6420523 | 11.609 MB  |          |
| cms:/store/mc/Run3Summer23NanoAODv12/GluGluHto2B_M-125_TuneCP5_13p6TeV_powheg-minlo-pythia8/NANOAODSIM/130X_mcRun3_2023_realistic_v14-v2/50000/712907cd-2385-47b7-949a-3580cae9b1ab.root | (None) | ad:e1094276 | 243.486 MB |          |
| cms:/store/mc/Run3Summer23NanoAODv12/GluGluHto2B_M-125_TuneCP5_13p6TeV_powheg-minlo-pythia8/NANOAODSIM/130X_mcRun3_2023_realistic_v14-v2/50000/b114c300-4a00-49c4-a597-e691695d52cd.root | (None) | ad:6f8ddd16 | 57.910 MB  |          |
| cms:/store/mc/Run3Summer23NanoAODv12/GluGluHto2B_M-125_TuneCP5_13p6TeV_powheg-minlo-pythia8/NANOAODSIM/130X_mcRun3_2023_realistic_v14-v2/50000/334d7e6a-3269-420c-8311-5c93351827de.root | (None) | ad:15531c5b | 7.314 MB   |          |
| cms:/store/mc/Run3Summer23NanoAODv12/GluGluHto2B_M-125_TuneCP5_13p6TeV_powheg-minlo-pythia8/NANOAODSIM/130X_mcRun3_2023_realistic_v14-v2/50000/6c2d8801-c656-402e-8440-6831d48ca4fb.root | (None) | ad:98efba40 | 184.328 MB |          |
| cms:/store/mc/Run3Summer23NanoAODv12/GluGluHto2B_M-125_TuneCP5_13p6TeV_powheg-minlo-pythia8/NANOAODSIM/130X_mcRun3_2023_realistic_v14-v2/50000/1d29b733-a15b-49b1-b5e2-e797228d9a67.root | (None) | ad:38b8b079 | 324.280 MB |          |
| cms:/store/mc/Run3Summer23NanoAODv12/GluGluHto2B_M-125_TuneCP5_13p6TeV_powheg-minlo-pythia8/NANOAODSIM/130X_mcRun3_2023_realistic_v14-v2/50000/3ef411bf-a250-4f5e-af02-90d2b79c12f3.root | (None) | ad:c8d40b8b | 370.159 MB |          |
| cms:/store/mc/Run3Summer23NanoAODv12/GluGluHto2B_M-125_TuneCP5_13p6TeV_powheg-minlo-pythia8/NANOAODSIM/130X_mcRun3_2023_realistic_v14-v2/50000/44064ad7-89da-4ad3-841f-cd7a80b580b4.root | (None) | ad:aecc5bfb | 11.643 MB  |          |
| cms:/store/mc/Run3Summer23NanoAODv12/GluGluHto2B_M-125_TuneCP5_13p6TeV_powheg-minlo-pythia8/NANOAODSIM/130X_mcRun3_2023_realistic_v14-v2/50000/7e3d30d6-e9b0-497a-9d8f-73f6ef61f264.root | (None) | ad:6c55c50c | 37.008 MB  |          |
| cms:/store/mc/Run3Summer23NanoAODv12/GluGluHto2B_M-125_TuneCP5_13p6TeV_powheg-minlo-pythia8/NANOAODSIM/130X_mcRun3_2023_realistic_v14-v2/50000/01762165-eed7-4a48-9d48-f3a3f4b11241.root | (None) | ad:094144f5 | 370.282 MB |          |
| cms:/store/mc/Run3Summer23NanoAODv12/GluGluHto2B_M-125_TuneCP5_13p6TeV_powheg-minlo-pythia8/NANOAODSIM/130X_mcRun3_2023_realistic_v14-v2/50000/b8413260-1d6b-4bb6-a676-3dbc65123326.root | (None) | ad:b9eb63e6 | 49.264 MB  |          |
| cms:/store/mc/Run3Summer23NanoAODv12/GluGluHto2B_M-125_TuneCP5_13p6TeV_powheg-minlo-pythia8/NANOAODSIM/130X_mcRun3_2023_realistic_v14-v2/50000/1a92a601-a5fc-48bb-8473-e258803e22a8.root | (None) | ad:eb293d2e | 121.327 MB |          |
| cms:/store/mc/Run3Summer23NanoAODv12/GluGluHto2B_M-125_TuneCP5_13p6TeV_powheg-minlo-pythia8/NANOAODSIM/130X_mcRun3_2023_realistic_v14-v2/50000/aee6ca0c-3e14-459f-8556-c607f3fc6b3e.root | (None) | ad:b98b59de | 91.917 MB  |          |
| cms:/store/mc/Run3Summer23NanoAODv12/GluGluHto2B_M-125_TuneCP5_13p6TeV_powheg-minlo-pythia8/NANOAODSIM/130X_mcRun3_2023_realistic_v14-v2/50000/4e75ad29-8337-4baf-a3e4-5427b890a6e4.root | (None) | ad:6d9511a3 | 188.555 MB |          |
+------------------------------------------------------------------------------------------------------------------------------------------------------------------------------------------+--------+-------------+------------+----------+
Total files : 62
Total size : 15.628 GB
