+----------------------------------------------------------------------------------------------------------------------------------------------------------------------------------------------------------------------+--------+-------------+------------+----------+
| SCOPE:NAME                                                                                                                                                                                                           | GUID   | ADLER32     | FILESIZE   | EVENTS   |
|----------------------------------------------------------------------------------------------------------------------------------------------------------------------------------------------------------------------+--------+-------------+------------+----------|
| cms:/store/mc/Run3Summer23NanoAODv12/GluGlutoHHto4B_kl-2p45_kt-1p00_c2-0p00_LHEweights_TuneCP5_13p6TeV_powheg-pythia8/NANOAODSIM/130X_mcRun3_2023_realistic_v15-v2/2550000/75204f9f-104a-425f-87f8-ccf6f4afe0a9.root | (None) | ad:2a7d2ba5 | 4.570 MB   |          |
| cms:/store/mc/Run3Summer23NanoAODv12/GluGlutoHHto4B_kl-2p45_kt-1p00_c2-0p00_LHEweights_TuneCP5_13p6TeV_powheg-pythia8/NANOAODSIM/130X_mcRun3_2023_realistic_v15-v2/2550000/70db1af2-1825-408b-817e-71cba41966c9.root | (None) | ad:83eec009 | 26.361 MB  |          |
| cms:/store/mc/Run3Summer23NanoAODv12/GluGlutoHHto4B_kl-2p45_kt-1p00_c2-0p00_LHEweights_TuneCP5_13p6TeV_powheg-pythia8/NANOAODSIM/130X_mcRun3_2023_realistic_v15-v2/2550000/1ba875bb-dc26-4c7f-8222-339ea64ca348.root | (None) | ad:bd9a3690 | 7.319 MB   |          |
| cms:/store/mc/Run3Summer23NanoAODv12/GluGlutoHHto4B_kl-2p45_kt-1p00_c2-0p00_LHEweights_TuneCP5_13p6TeV_powheg-pythia8/NANOAODSIM/130X_mcRun3_2023_realistic_v15-v2/2830000/8f74eb91-d2b8-43c1-a7fe-8c5ab2b2dd31.root | (None) | ad:4586a4e0 | 92.581 MB  |          |
| cms:/store/mc/Run3Summer23NanoAODv12/GluGlutoHHto4B_kl-2p45_kt-1p00_c2-0p00_LHEweights_TuneCP5_13p6TeV_powheg-pythia8/NANOAODSIM/130X_mcRun3_2023_realistic_v15-v2/2830000/f13a7c66-3a0b-4b68-8a6e-a3740447b463.root | (None) | ad:4eb85fd4 | 199.126 MB |          |
| cms:/store/mc/Run3Summer23NanoAODv12/GluGlutoHHto4B_kl-2p45_kt-1p00_c2-0p00_LHEweights_TuneCP5_13p6TeV_powheg-pythia8/NANOAODSIM/130X_mcRun3_2023_realistic_v15-v2/2830000/42f0b3da-4ede-429d-ae04-91d64f18f20a.root | (None) | ad:87b6defd | 6.512 MB   |          |
| cms:/store/mc/Run3Summer23NanoAODv12/GluGlutoHHto4B_kl-2p45_kt-1p00_c2-0p00_LHEweights_TuneCP5_13p6TeV_powheg-pythia8/NANOAODSIM/130X_mcRun3_2023_realistic_v15-v2/50000/22b33a0f-d02b-4fc4-b941-77085d83d183.root   | (None) | ad:794885d3 | 18.420 MB  |          |
| cms:/store/mc/Run3Summer23NanoAODv12/GluGlutoHHto4B_kl-2p45_kt-1p00_c2-0p00_LHEweights_TuneCP5_13p6TeV_powheg-pythia8/NANOAODSIM/130X_mcRun3_2023_realistic_v15-v2/2550000/784cdc1a-9697-459d-ab45-57c06ba3821b.root | (None) | ad:1ab1a1fa | 3.773 MB   |          |
| cms:/store/mc/Run3Summer23NanoAODv12/GluGlutoHHto4B_kl-2p45_kt-1p00_c2-0p00_LHEweights_TuneCP5_13p6TeV_powheg-pythia8/NANOAODSIM/130X_mcRun3_2023_realistic_v15-v2/810000/8affaaaa-dec3-4ed3-bb37-5f848a531cde.root  | (None) | ad:7c88f07d | 19.656 MB  |          |
| cms:/store/mc/Run3Summer23NanoAODv12/GluGlutoHHto4B_kl-2p45_kt-1p00_c2-0p00_LHEweights_TuneCP5_13p6TeV_powheg-pythia8/NANOAODSIM/130X_mcRun3_2023_realistic_v15-v2/2550000/9517c07f-e9c6-41eb-81d2-ff5aa7e15412.root | (None) | ad:8f54d98c | 3.496 MB   |          |
| cms:/store/mc/Run3Summer23NanoAODv12/GluGlutoHHto4B_kl-2p45_kt-1p00_c2-0p00_LHEweights_TuneCP5_13p6TeV_powheg-pythia8/NANOAODSIM/130X_mcRun3_2023_realistic_v15-v2/50000/11e35caa-c28b-45d9-a9cb-b2f2718bd5b8.root   | (None) | ad:8ee6a541 | 13.023 MB  |          |
| cms:/store/mc/Run3Summer23NanoAODv12/GluGlutoHHto4B_kl-2p45_kt-1p00_c2-0p00_LHEweights_TuneCP5_13p6TeV_powheg-pythia8/NANOAODSIM/130X_mcRun3_2023_realistic_v15-v2/50000/308ba6f5-c829-421b-b11a-127dd7a8868e.root   | (None) | ad:8d7fedda | 3.188 MB   |          |
| cms:/store/mc/Run3Summer23NanoAODv12/GluGlutoHHto4B_kl-2p45_kt-1p00_c2-0p00_LHEweights_TuneCP5_13p6TeV_powheg-pythia8/NANOAODSIM/130X_mcRun3_2023_realistic_v15-v2/50000/1f2db4f7-ecc2-49be-a952-1f06a4fbe804.root   | (None) | ad:f3409cd7 | 72.257 MB  |          |
| cms:/store/mc/Run3Summer23NanoAODv12/GluGlutoHHto4B_kl-2p45_kt-1p00_c2-0p00_LHEweights_TuneCP5_13p6TeV_powheg-pythia8/NANOAODSIM/130X_mcRun3_2023_realistic_v15-v2/2550000/cece1e9a-2d29-411a-90a4-06be4dac05b3.root | (None) | ad:7a0d8dfc | 4.563 MB   |          |
| cms:/store/mc/Run3Summer23NanoAODv12/GluGlutoHHto4B_kl-2p45_kt-1p00_c2-0p00_LHEweights_TuneCP5_13p6TeV_powheg-pythia8/NANOAODSIM/130X_mcRun3_2023_realistic_v15-v2/80000/7b0fdf1b-7b2a-4f5e-80ec-8a2644976932.root   | (None) | ad:f56ca853 | 9.996 MB   |          |
| cms:/store/mc/Run3Summer23NanoAODv12/GluGlutoHHto4B_kl-2p45_kt-1p00_c2-0p00_LHEweights_TuneCP5_13p6TeV_powheg-pythia8/NANOAODSIM/130X_mcRun3_2023_realistic_v15-v2/2830000/873cf1d8-b14f-4d17-9ebc-8028f4cea935.root | (None) | ad:170eee77 | 58.636 MB  |          |
| cms:/store/mc/Run3Summer23NanoAODv12/GluGlutoHHto4B_kl-2p45_kt-1p00_c2-0p00_LHEweights_TuneCP5_13p6TeV_powheg-pythia8/NANOAODSIM/130X_mcRun3_2023_realistic_v15-v2/2550000/e8ca466c-95ff-40fb-8596-af0230f3d465.root | (None) | ad:73ca4933 | 26.368 MB  |          |
| cms:/store/mc/Run3Summer23NanoAODv12/GluGlutoHHto4B_kl-2p45_kt-1p00_c2-0p00_LHEweights_TuneCP5_13p6TeV_powheg-pythia8/NANOAODSIM/130X_mcRun3_2023_realistic_v15-v2/2830000/59b4ff64-d547-42fb-a8f9-0827f2de939a.root | (None) | ad:58dbcefa | 5.956 MB   |          |
| cms:/store/mc/Run3Summer23NanoAODv12/GluGlutoHHto4B_kl-2p45_kt-1p00_c2-0p00_LHEweights_TuneCP5_13p6TeV_powheg-pythia8/NANOAODSIM/130X_mcRun3_2023_realistic_v15-v2/2830000/680fbf76-b92a-412d-a69c-23313c85adba.root | (None) | ad:50489418 | 17.855 MB  |          |
| cms:/store/mc/Run3Summer23NanoAODv12/GluGlutoHHto4B_kl-2p45_kt-1p00_c2-0p00_LHEweights_TuneCP5_13p6TeV_powheg-pythia8/NANOAODSIM/130X_mcRun3_2023_realistic_v15-v2/2550000/3ecb20e2-35cc-4016-b502-bb8eb3b71e9f.root | (None) | ad:54efada1 | 27.607 MB  |          |
| cms:/store/mc/Run3Summer23NanoAODv12/GluGlutoHHto4B_kl-2p45_kt-1p00_c2-0p00_LHEweights_TuneCP5_13p6TeV_powheg-pythia8/NANOAODSIM/130X_mcRun3_2023_realistic_v15-v2/2830000/d6dc64d5-d256-43b2-bcc2-1788f6d5a9b6.root | (None) | ad:a320394d | 5.631 MB   |          |
| cms:/store/mc/Run3Summer23NanoAODv12/GluGlutoHHto4B_kl-2p45_kt-1p00_c2-0p00_LHEweights_TuneCP5_13p6TeV_powheg-pythia8/NANOAODSIM/130X_mcRun3_2023_realistic_v15-v2/2830000/788b9443-e8dd-4874-8a52-4e4b3508eb93.root | (None) | ad:5f16159f | 43.453 MB  |          |
| cms:/store/mc/Run3Summer23NanoAODv12/GluGlutoHHto4B_kl-2p45_kt-1p00_c2-0p00_LHEweights_TuneCP5_13p6TeV_powheg-pythia8/NANOAODSIM/130X_mcRun3_2023_realistic_v15-v2/50000/fc042be8-a07a-4169-9a8a-080e7b5356b3.root   | (None) | ad:e52bbb9b | 60.118 MB  |          |
| cms:/store/mc/Run3Summer23NanoAODv12/GluGlutoHHto4B_kl-2p45_kt-1p00_c2-0p00_LHEweights_TuneCP5_13p6TeV_powheg-pythia8/NANOAODSIM/130X_mcRun3_2023_realistic_v15-v2/2830000/b0789dad-45d0-487e-a657-8c0fbd407448.root | (None) | ad:efa4be84 | 15.973 MB  |          |
| cms:/store/mc/Run3Summer23NanoAODv12/GluGlutoHHto4B_kl-2p45_kt-1p00_c2-0p00_LHEweights_TuneCP5_13p6TeV_powheg-pythia8/NANOAODSIM/130X_mcRun3_2023_realistic_v15-v2/2830000/002d8e83-3b69-41f9-b3b3-e556b3d3903f.root | (None) | ad:8b63ed09 | 50.695 MB  |          |
| cms:/store/mc/Run3Summer23NanoAODv12/GluGlutoHHto4B_kl-2p45_kt-1p00_c2-0p00_LHEweights_TuneCP5_13p6TeV_powheg-pythia8/NANOAODSIM/130X_mcRun3_2023_realistic_v15-v2/2550000/391713f6-e0a7-41c2-986e-03159a274d4e.root | (None) | ad:5257705e | 30.123 MB  |          |
| cms:/store/mc/Run3Summer23NanoAODv12/GluGlutoHHto4B_kl-2p45_kt-1p00_c2-0p00_LHEweights_TuneCP5_13p6TeV_powheg-pythia8/NANOAODSIM/130X_mcRun3_2023_realistic_v15-v2/50000/b9a57a61-2bcc-4842-82f4-9b99dd858f21.root   | (None) | ad:5ea8ad1f | 22.357 MB  |          |
| cms:/store/mc/Run3Summer23NanoAODv12/GluGlutoHHto4B_kl-2p45_kt-1p00_c2-0p00_LHEweights_TuneCP5_13p6TeV_powheg-pythia8/NANOAODSIM/130X_mcRun3_2023_realistic_v15-v2/50000/a7f335b2-84e7-44c1-abeb-51c3fcb1fa2b.root   | (None) | ad:624d9edd | 5.859 MB   |          |
| cms:/store/mc/Run3Summer23NanoAODv12/GluGlutoHHto4B_kl-2p45_kt-1p00_c2-0p00_LHEweights_TuneCP5_13p6TeV_powheg-pythia8/NANOAODSIM/130X_mcRun3_2023_realistic_v15-v2/50000/58bb8064-fd58-45fb-8992-70e439fec18b.root   | (None) | ad:87c3415e | 143.477 MB |          |
| cms:/store/mc/Run3Summer23NanoAODv12/GluGlutoHHto4B_kl-2p45_kt-1p00_c2-0p00_LHEweights_TuneCP5_13p6TeV_powheg-pythia8/NANOAODSIM/130X_mcRun3_2023_realistic_v15-v2/2550000/b561d760-33e5-42f7-be71-efb150d80606.root | (None) | ad:01c15605 | 216.017 MB |          |
| cms:/store/mc/Run3Summer23NanoAODv12/GluGlutoHHto4B_kl-2p45_kt-1p00_c2-0p00_LHEweights_TuneCP5_13p6TeV_powheg-pythia8/NANOAODSIM/130X_mcRun3_2023_realistic_v15-v2/80000/aa93201f-e42b-4132-936b-3515e1db2074.root   | (None) | ad:9a46e66e | 105.725 MB |          |
| cms:/store/mc/Run3Summer23NanoAODv12/GluGlutoHHto4B_kl-2p45_kt-1p00_c2-0p00_LHEweights_TuneCP5_13p6TeV_powheg-pythia8/NANOAODSIM/130X_mcRun3_2023_realistic_v15-v2/2550000/89acbba6-b289-43d7-955c-bdcaaa03bf85.root | (None) | ad:6572a23a | 23.737 MB  |          |
| cms:/store/mc/Run3Summer23NanoAODv12/GluGlutoHHto4B_kl-2p45_kt-1p00_c2-0p00_LHEweights_TuneCP5_13p6TeV_powheg-pythia8/NANOAODSIM/130X_mcRun3_2023_realistic_v15-v2/50000/b13faa6b-c3bf-4d87-83de-f3ca9385597e.root   | (None) | ad:c9aa4bc9 | 16.613 MB  |          |
| cms:/store/mc/Run3Summer23NanoAODv12/GluGlutoHHto4B_kl-2p45_kt-1p00_c2-0p00_LHEweights_TuneCP5_13p6TeV_powheg-pythia8/NANOAODSIM/130X_mcRun3_2023_realistic_v15-v2/2830000/7d6791e6-2d1b-487e-8d58-a5b61be699e5.root | (None) | ad:e0f80e5f | 6.806 MB   |          |
| cms:/store/mc/Run3Summer23NanoAODv12/GluGlutoHHto4B_kl-2p45_kt-1p00_c2-0p00_LHEweights_TuneCP5_13p6TeV_powheg-pythia8/NANOAODSIM/130X_mcRun3_2023_realistic_v15-v2/2830000/705f01ce-eeef-402e-9bf9-f407a17362d5.root | (None) | ad:5213e01f | 30.387 MB  |          |
| cms:/store/mc/Run3Summer23NanoAODv12/GluGlutoHHto4B_kl-2p45_kt-1p00_c2-0p00_LHEweights_TuneCP5_13p6TeV_powheg-pythia8/NANOAODSIM/130X_mcRun3_2023_realistic_v15-v2/50000/2aea3039-0655-4f5b-91ac-8fbddc1e36cb.root   | (None) | ad:3fe8d0cc | 65.001 MB  |          |
| cms:/store/mc/Run3Summer23NanoAODv12/GluGlutoHHto4B_kl-2p45_kt-1p00_c2-0p00_LHEweights_TuneCP5_13p6TeV_powheg-pythia8/NANOAODSIM/130X_mcRun3_2023_realistic_v15-v2/2550000/779acab7-4fd7-4ec2-a606-e2a76d341d79.root | (None) | ad:17ab4059 | 36.932 MB  |          |
| cms:/store/mc/Run3Summer23NanoAODv12/GluGlutoHHto4B_kl-2p45_kt-1p00_c2-0p00_LHEweights_TuneCP5_13p6TeV_powheg-pythia8/NANOAODSIM/130X_mcRun3_2023_realistic_v15-v2/2830000/390dc67e-155c-466c-8174-44c8abe16e27.root | (None) | ad:ce1cc674 | 219.261 MB |          |
| cms:/store/mc/Run3Summer23NanoAODv12/GluGlutoHHto4B_kl-2p45_kt-1p00_c2-0p00_LHEweights_TuneCP5_13p6TeV_powheg-pythia8/NANOAODSIM/130X_mcRun3_2023_realistic_v15-v2/50000/d2e3e46b-4c4b-4a51-b0e8-eafc82a6ec08.root   | (None) | ad:12126aa1 | 6.746 MB   |          |
| cms:/store/mc/Run3Summer23NanoAODv12/GluGlutoHHto4B_kl-2p45_kt-1p00_c2-0p00_LHEweights_TuneCP5_13p6TeV_powheg-pythia8/NANOAODSIM/130X_mcRun3_2023_realistic_v15-v2/50000/e61fc9d6-ca03-4315-9a5a-ecec3988a1f2.root   | (None) | ad:74565038 | 199.314 MB |          |
| cms:/store/mc/Run3Summer23NanoAODv12/GluGlutoHHto4B_kl-2p45_kt-1p00_c2-0p00_LHEweights_TuneCP5_13p6TeV_powheg-pythia8/NANOAODSIM/130X_mcRun3_2023_realistic_v15-v2/2830000/1015fe94-b218-4383-9c8c-f475ee191c1a.root | (None) | ad:d5bb209f | 8.823 MB   |          |
| cms:/store/mc/Run3Summer23NanoAODv12/GluGlutoHHto4B_kl-2p45_kt-1p00_c2-0p00_LHEweights_TuneCP5_13p6TeV_powheg-pythia8/NANOAODSIM/130X_mcRun3_2023_realistic_v15-v2/50000/5a224889-ee1e-4c4b-97df-d3c9af997049.root   | (None) | ad:04877945 | 48.844 MB  |          |
| cms:/store/mc/Run3Summer23NanoAODv12/GluGlutoHHto4B_kl-2p45_kt-1p00_c2-0p00_LHEweights_TuneCP5_13p6TeV_powheg-pythia8/NANOAODSIM/130X_mcRun3_2023_realistic_v15-v2/50000/2ea695c2-bd9e-4c26-a27f-2862fb5199c4.root   | (None) | ad:976879c7 | 36.897 MB  |          |
| cms:/store/mc/Run3Summer23NanoAODv12/GluGlutoHHto4B_kl-2p45_kt-1p00_c2-0p00_LHEweights_TuneCP5_13p6TeV_powheg-pythia8/NANOAODSIM/130X_mcRun3_2023_realistic_v15-v2/2550000/9815fd39-f373-4ef8-b400-65f30e7aaf3c.root | (None) | ad:5411504d | 33.823 MB  |          |
| cms:/store/mc/Run3Summer23NanoAODv12/GluGlutoHHto4B_kl-2p45_kt-1p00_c2-0p00_LHEweights_TuneCP5_13p6TeV_powheg-pythia8/NANOAODSIM/130X_mcRun3_2023_realistic_v15-v2/2830000/da8bdbda-9fb3-409e-a9fe-50cc4798e354.root | (None) | ad:1946b9af | 4.548 MB   |          |
| cms:/store/mc/Run3Summer23NanoAODv12/GluGlutoHHto4B_kl-2p45_kt-1p00_c2-0p00_LHEweights_TuneCP5_13p6TeV_powheg-pythia8/NANOAODSIM/130X_mcRun3_2023_realistic_v15-v2/2830000/e7478fe9-cd00-4c3a-a8eb-6074cfa856e5.root | (None) | ad:d7e336b0 | 67.869 MB  |          |
| cms:/store/mc/Run3Summer23NanoAODv12/GluGlutoHHto4B_kl-2p45_kt-1p00_c2-0p00_LHEweights_TuneCP5_13p6TeV_powheg-pythia8/NANOAODSIM/130X_mcRun3_2023_realistic_v15-v2/50000/8a2f040a-c50b-4a5f-b768-2372c4d185e8.root   | (None) | ad:e0ce2417 | 18.854 MB  |          |
| cms:/store/mc/Run3Summer23NanoAODv12/GluGlutoHHto4B_kl-2p45_kt-1p00_c2-0p00_LHEweights_TuneCP5_13p6TeV_powheg-pythia8/NANOAODSIM/130X_mcRun3_2023_realistic_v15-v2/50000/bbcbaf98-3e7e-4ab2-b00a-676d00faf753.root   | (None) | ad:69d1491d | 3.779 MB   |          |
| cms:/store/mc/Run3Summer23NanoAODv12/GluGlutoHHto4B_kl-2p45_kt-1p00_c2-0p00_LHEweights_TuneCP5_13p6TeV_powheg-pythia8/NANOAODSIM/130X_mcRun3_2023_realistic_v15-v2/2830000/7138ba98-5ef5-4620-84b8-63095635e848.root | (None) | ad:4fbf75fb | 17.420 MB  |          |
| cms:/store/mc/Run3Summer23NanoAODv12/GluGlutoHHto4B_kl-2p45_kt-1p00_c2-0p00_LHEweights_TuneCP5_13p6TeV_powheg-pythia8/NANOAODSIM/130X_mcRun3_2023_realistic_v15-v2/2830000/eb552674-d539-4c26-991f-f6dbb357ecf7.root | (None) | ad:5cf7bcf2 | 3.109 MB   |          |
| cms:/store/mc/Run3Summer23NanoAODv12/GluGlutoHHto4B_kl-2p45_kt-1p00_c2-0p00_LHEweights_TuneCP5_13p6TeV_powheg-pythia8/NANOAODSIM/130X_mcRun3_2023_realistic_v15-v2/50000/e15ca7d1-1918-4393-9763-56fdce1756d5.root   | (None) | ad:354eebed | 32.790 MB  |          |
| cms:/store/mc/Run3Summer23NanoAODv12/GluGlutoHHto4B_kl-2p45_kt-1p00_c2-0p00_LHEweights_TuneCP5_13p6TeV_powheg-pythia8/NANOAODSIM/130X_mcRun3_2023_realistic_v15-v2/2830000/2275903c-9690-40eb-93ed-b08cbbb9ff98.root | (None) | ad:2f92ea5e | 3.993 MB   |          |
| cms:/store/mc/Run3Summer23NanoAODv12/GluGlutoHHto4B_kl-2p45_kt-1p00_c2-0p00_LHEweights_TuneCP5_13p6TeV_powheg-pythia8/NANOAODSIM/130X_mcRun3_2023_realistic_v15-v2/50000/638c1582-fc43-479d-9489-f1c2d757ab85.root   | (None) | ad:10aacba5 | 9.614 MB   |          |
| cms:/store/mc/Run3Summer23NanoAODv12/GluGlutoHHto4B_kl-2p45_kt-1p00_c2-0p00_LHEweights_TuneCP5_13p6TeV_powheg-pythia8/NANOAODSIM/130X_mcRun3_2023_realistic_v15-v2/2550000/785b185d-89ed-4ff8-88e1-2c3ba06e27db.root | (None) | ad:599f87b9 | 48.738 MB  |          |
| cms:/store/mc/Run3Summer23NanoAODv12/GluGlutoHHto4B_kl-2p45_kt-1p00_c2-0p00_LHEweights_TuneCP5_13p6TeV_powheg-pythia8/NANOAODSIM/130X_mcRun3_2023_realistic_v15-v2/80000/d21c74be-e413-4c48-b7b6-67167db5811e.root   | (None) | ad:98f57dca | 4.455 MB   |          |
| cms:/store/mc/Run3Summer23NanoAODv12/GluGlutoHHto4B_kl-2p45_kt-1p00_c2-0p00_LHEweights_TuneCP5_13p6TeV_powheg-pythia8/NANOAODSIM/130X_mcRun3_2023_realistic_v15-v2/2830000/1d70359b-49b1-4fac-9ed3-a0797d506d37.root | (None) | ad:6dd89ab8 | 15.500 MB  |          |
| cms:/store/mc/Run3Summer23NanoAODv12/GluGlutoHHto4B_kl-2p45_kt-1p00_c2-0p00_LHEweights_TuneCP5_13p6TeV_powheg-pythia8/NANOAODSIM/130X_mcRun3_2023_realistic_v15-v2/2830000/02600a38-73a8-4d78-a674-93009413f7ab.root | (None) | ad:fd0f98ac | 6.154 MB   |          |
| cms:/store/mc/Run3Summer23NanoAODv12/GluGlutoHHto4B_kl-2p45_kt-1p00_c2-0p00_LHEweights_TuneCP5_13p6TeV_powheg-pythia8/NANOAODSIM/130X_mcRun3_2023_realistic_v15-v2/50000/1c5db7f9-c0ee-4d43-abac-fd2f50c89ea6.root   | (None) | ad:b5f159d1 | 4.389 MB   |          |
| cms:/store/mc/Run3Summer23NanoAODv12/GluGlutoHHto4B_kl-2p45_kt-1p00_c2-0p00_LHEweights_TuneCP5_13p6TeV_powheg-pythia8/NANOAODSIM/130X_mcRun3_2023_realistic_v15-v2/2830000/0b93bb27-62fc-4eeb-a62f-d16f4658b3cb.root | (None) | ad:46a892e7 | 10.054 MB  |          |
| cms:/store/mc/Run3Summer23NanoAODv12/GluGlutoHHto4B_kl-2p45_kt-1p00_c2-0p00_LHEweights_TuneCP5_13p6TeV_powheg-pythia8/NANOAODSIM/130X_mcRun3_2023_realistic_v15-v2/2550000/2679694f-baef-493d-abb9-f4168a18dd8a.root | (None) | ad:2480874e | 25.211 MB  |          |
| cms:/store/mc/Run3Summer23NanoAODv12/GluGlutoHHto4B_kl-2p45_kt-1p00_c2-0p00_LHEweights_TuneCP5_13p6TeV_powheg-pythia8/NANOAODSIM/130X_mcRun3_2023_realistic_v15-v2/50000/506b1ebe-589a-4881-bde9-f130142e0fe2.root   | (None) | ad:2f2bf147 | 4.189 MB   |          |
| cms:/store/mc/Run3Summer23NanoAODv12/GluGlutoHHto4B_kl-2p45_kt-1p00_c2-0p00_LHEweights_TuneCP5_13p6TeV_powheg-pythia8/NANOAODSIM/130X_mcRun3_2023_realistic_v15-v2/2830000/2d8b4e6c-2386-488f-991f-e7d48d4e3005.root | (None) | ad:067b729d | 10.965 MB  |          |
| cms:/store/mc/Run3Summer23NanoAODv12/GluGlutoHHto4B_kl-2p45_kt-1p00_c2-0p00_LHEweights_TuneCP5_13p6TeV_powheg-pythia8/NANOAODSIM/130X_mcRun3_2023_realistic_v15-v2/2550000/029bb5b9-1faf-4879-acaf-9e74fedc0d79.root | (None) | ad:2d14058c | 44.428 MB  |          |
| cms:/store/mc/Run3Summer23NanoAODv12/GluGlutoHHto4B_kl-2p45_kt-1p00_c2-0p00_LHEweights_TuneCP5_13p6TeV_powheg-pythia8/NANOAODSIM/130X_mcRun3_2023_realistic_v15-v2/2830000/da2648e5-c67f-4b52-8b92-1e2d8c440c6a.root | (None) | ad:1bbc903f | 18.165 MB  |          |
| cms:/store/mc/Run3Summer23NanoAODv12/GluGlutoHHto4B_kl-2p45_kt-1p00_c2-0p00_LHEweights_TuneCP5_13p6TeV_powheg-pythia8/NANOAODSIM/130X_mcRun3_2023_realistic_v15-v2/2550000/b541076d-aa8d-4dd3-9bea-e8472804d711.root | (None) | ad:e04a2872 | 3.596 MB   |          |
| cms:/store/mc/Run3Summer23NanoAODv12/GluGlutoHHto4B_kl-2p45_kt-1p00_c2-0p00_LHEweights_TuneCP5_13p6TeV_powheg-pythia8/NANOAODSIM/130X_mcRun3_2023_realistic_v15-v2/2550000/3b588ef7-fbd0-4178-a115-0dc2dcd4a101.root | (None) | ad:8b3f8945 | 5.020 MB   |          |
| cms:/store/mc/Run3Summer23NanoAODv12/GluGlutoHHto4B_kl-2p45_kt-1p00_c2-0p00_LHEweights_TuneCP5_13p6TeV_powheg-pythia8/NANOAODSIM/130X_mcRun3_2023_realistic_v15-v2/2550000/64b56d04-2eb6-42aa-a11f-28f872198489.root | (None) | ad:4fcbcf6d | 11.907 MB  |          |
| cms:/store/mc/Run3Summer23NanoAODv12/GluGlutoHHto4B_kl-2p45_kt-1p00_c2-0p00_LHEweights_TuneCP5_13p6TeV_powheg-pythia8/NANOAODSIM/130X_mcRun3_2023_realistic_v15-v2/2550000/bf49aba2-96ae-45b6-a453-c29f4d1cbce6.root | (None) | ad:d52f1f7d | 18.737 MB  |          |
| cms:/store/mc/Run3Summer23NanoAODv12/GluGlutoHHto4B_kl-2p45_kt-1p00_c2-0p00_LHEweights_TuneCP5_13p6TeV_powheg-pythia8/NANOAODSIM/130X_mcRun3_2023_realistic_v15-v2/2550000/4fad83b2-7848-4d79-a14e-102982facaa7.root | (None) | ad:4994a1d1 | 10.334 MB  |          |
| cms:/store/mc/Run3Summer23NanoAODv12/GluGlutoHHto4B_kl-2p45_kt-1p00_c2-0p00_LHEweights_TuneCP5_13p6TeV_powheg-pythia8/NANOAODSIM/130X_mcRun3_2023_realistic_v15-v2/2830000/d5a611ff-0cc8-4063-b2d5-1f64e2b38713.root | (None) | ad:213f9cef | 2.999 MB   |          |
| cms:/store/mc/Run3Summer23NanoAODv12/GluGlutoHHto4B_kl-2p45_kt-1p00_c2-0p00_LHEweights_TuneCP5_13p6TeV_powheg-pythia8/NANOAODSIM/130X_mcRun3_2023_realistic_v15-v2/50000/764067fc-391d-4d50-b02d-6f6d0459c301.root   | (None) | ad:2ac184d8 | 19.735 MB  |          |
| cms:/store/mc/Run3Summer23NanoAODv12/GluGlutoHHto4B_kl-2p45_kt-1p00_c2-0p00_LHEweights_TuneCP5_13p6TeV_powheg-pythia8/NANOAODSIM/130X_mcRun3_2023_realistic_v15-v2/2550000/5765263f-c481-473e-8e9a-8abdcdda9fb3.root | (None) | ad:627447ad | 24.644 MB  |          |
| cms:/store/mc/Run3Summer23NanoAODv12/GluGlutoHHto4B_kl-2p45_kt-1p00_c2-0p00_LHEweights_TuneCP5_13p6TeV_powheg-pythia8/NANOAODSIM/130X_mcRun3_2023_realistic_v15-v2/50000/f74c8358-cf84-4965-aac2-b79448803cea.root   | (None) | ad:7ae4b1bf | 52.955 MB  |          |
| cms:/store/mc/Run3Summer23NanoAODv12/GluGlutoHHto4B_kl-2p45_kt-1p00_c2-0p00_LHEweights_TuneCP5_13p6TeV_powheg-pythia8/NANOAODSIM/130X_mcRun3_2023_realistic_v15-v2/2550000/f664f556-8e9c-4786-8a2a-f4d779440437.root | (None) | ad:c0c659a6 | 7.975 MB   |          |
| cms:/store/mc/Run3Summer23NanoAODv12/GluGlutoHHto4B_kl-2p45_kt-1p00_c2-0p00_LHEweights_TuneCP5_13p6TeV_powheg-pythia8/NANOAODSIM/130X_mcRun3_2023_realistic_v15-v2/2550000/6f8bb20b-5329-4056-8bed-20c172fde72c.root | (None) | ad:9f4552e3 | 4.167 MB   |          |
| cms:/store/mc/Run3Summer23NanoAODv12/GluGlutoHHto4B_kl-2p45_kt-1p00_c2-0p00_LHEweights_TuneCP5_13p6TeV_powheg-pythia8/NANOAODSIM/130X_mcRun3_2023_realistic_v15-v2/50000/a8e3daee-68e6-4d4e-b7a0-0441b7b9b82b.root   | (None) | ad:2d0cad56 | 24.391 MB  |          |
| cms:/store/mc/Run3Summer23NanoAODv12/GluGlutoHHto4B_kl-2p45_kt-1p00_c2-0p00_LHEweights_TuneCP5_13p6TeV_powheg-pythia8/NANOAODSIM/130X_mcRun3_2023_realistic_v15-v2/810000/a4df0340-e5ba-4ee5-8953-d9c5cc9c0d4a.root  | (None) | ad:3c29febe | 18.820 MB  |          |
| cms:/store/mc/Run3Summer23NanoAODv12/GluGlutoHHto4B_kl-2p45_kt-1p00_c2-0p00_LHEweights_TuneCP5_13p6TeV_powheg-pythia8/NANOAODSIM/130X_mcRun3_2023_realistic_v15-v2/50000/c8a208f9-0d64-43a4-8f24-9673369f6814.root   | (None) | ad:4389f520 | 3.600 MB   |          |
| cms:/store/mc/Run3Summer23NanoAODv12/GluGlutoHHto4B_kl-2p45_kt-1p00_c2-0p00_LHEweights_TuneCP5_13p6TeV_powheg-pythia8/NANOAODSIM/130X_mcRun3_2023_realistic_v15-v2/2830000/b0a9261a-7b13-4158-aa8f-206a50cfd0d0.root | (None) | ad:942bf919 | 25.075 MB  |          |
| cms:/store/mc/Run3Summer23NanoAODv12/GluGlutoHHto4B_kl-2p45_kt-1p00_c2-0p00_LHEweights_TuneCP5_13p6TeV_powheg-pythia8/NANOAODSIM/130X_mcRun3_2023_realistic_v15-v2/2830000/92822ed6-f7e0-4b7a-8e7d-5057354f2538.root | (None) | ad:1f674557 | 68.559 MB  |          |
| cms:/store/mc/Run3Summer23NanoAODv12/GluGlutoHHto4B_kl-2p45_kt-1p00_c2-0p00_LHEweights_TuneCP5_13p6TeV_powheg-pythia8/NANOAODSIM/130X_mcRun3_2023_realistic_v15-v2/80000/7f9a191b-99dc-460d-b29e-0dbcd8884fa3.root   | (None) | ad:f5a5cb75 | 86.802 MB  |          |
| cms:/store/mc/Run3Summer23NanoAODv12/GluGlutoHHto4B_kl-2p45_kt-1p00_c2-0p00_LHEweights_TuneCP5_13p6TeV_powheg-pythia8/NANOAODSIM/130X_mcRun3_2023_realistic_v15-v2/80000/dae5ef49-6c06-4c6f-a659-515dd32c3640.root   | (None) | ad:c33d9e92 | 2.837 MB   |          |
| cms:/store/mc/Run3Summer23NanoAODv12/GluGlutoHHto4B_kl-2p45_kt-1p00_c2-0p00_LHEweights_TuneCP5_13p6TeV_powheg-pythia8/NANOAODSIM/130X_mcRun3_2023_realistic_v15-v2/50000/36154c5b-7cd6-49fe-934d-d74d22f48288.root   | (None) | ad:43cea687 | 19.289 MB  |          |
| cms:/store/mc/Run3Summer23NanoAODv12/GluGlutoHHto4B_kl-2p45_kt-1p00_c2-0p00_LHEweights_TuneCP5_13p6TeV_powheg-pythia8/NANOAODSIM/130X_mcRun3_2023_realistic_v15-v2/50000/777bcf69-f213-43fd-944b-db8c3aa6f845.root   | (None) | ad:d088df39 | 3.888 MB   |          |
| cms:/store/mc/Run3Summer23NanoAODv12/GluGlutoHHto4B_kl-2p45_kt-1p00_c2-0p00_LHEweights_TuneCP5_13p6TeV_powheg-pythia8/NANOAODSIM/130X_mcRun3_2023_realistic_v15-v2/2830000/ae7d5a59-cc9d-4deb-99ee-55cbf4144aba.root | (None) | ad:700e3108 | 85.587 MB  |          |
| cms:/store/mc/Run3Summer23NanoAODv12/GluGlutoHHto4B_kl-2p45_kt-1p00_c2-0p00_LHEweights_TuneCP5_13p6TeV_powheg-pythia8/NANOAODSIM/130X_mcRun3_2023_realistic_v15-v2/2550000/49fac82e-7487-401c-af4f-6041045941dd.root | (None) | ad:44e69dde | 16.164 MB  |          |
| cms:/store/mc/Run3Summer23NanoAODv12/GluGlutoHHto4B_kl-2p45_kt-1p00_c2-0p00_LHEweights_TuneCP5_13p6TeV_powheg-pythia8/NANOAODSIM/130X_mcRun3_2023_realistic_v15-v2/2830000/caf6f075-b4b1-46ca-9cc6-8683dd0ddf68.root | (None) | ad:a10cdadf | 7.331 MB   |          |
| cms:/store/mc/Run3Summer23NanoAODv12/GluGlutoHHto4B_kl-2p45_kt-1p00_c2-0p00_LHEweights_TuneCP5_13p6TeV_powheg-pythia8/NANOAODSIM/130X_mcRun3_2023_realistic_v15-v2/2550000/6a7f20a8-bfab-446b-94c8-54ae3b677441.root | (None) | ad:7c547bab | 22.678 MB  |          |
+----------------------------------------------------------------------------------------------------------------------------------------------------------------------------------------------------------------------+--------+-------------+------------+----------+
Total files : 88
Total size : 2.955 GB
