+----------------------------------------------------------------------------------------------------------------------------------------------------------------------------------------------------------------+--------+-------------+------------+----------+
| SCOPE:NAME                                                                                                                                                                                                     | GUID   | ADLER32     | FILESIZE   | EVENTS   |
|----------------------------------------------------------------------------------------------------------------------------------------------------------------------------------------------------------------+--------+-------------+------------+----------|
| cms:/store/mc/Run3Summer22EENanoAODv12/GluGlutoRadiontoHHto4B_M-650_narrow_TuneCP5_13p6TeV_madgraph-pythia8/NANOAODSIM/130X_mcRun3_2022_realistic_postEE_v6-v3/50000/cf9a7bdb-b70d-4a30-9c4c-a57b59a0ef70.root | (None) | ad:738ac443 | 9.541 MB   |          |
| cms:/store/mc/Run3Summer22EENanoAODv12/GluGlutoRadiontoHHto4B_M-650_narrow_TuneCP5_13p6TeV_madgraph-pythia8/NANOAODSIM/130X_mcRun3_2022_realistic_postEE_v6-v3/50000/2a7efbfe-eada-4ead-88be-b7986ca940d5.root | (None) | ad:3ba9f6f6 | 17.627 MB  |          |
| cms:/store/mc/Run3Summer22EENanoAODv12/GluGlutoRadiontoHHto4B_M-650_narrow_TuneCP5_13p6TeV_madgraph-pythia8/NANOAODSIM/130X_mcRun3_2022_realistic_postEE_v6-v3/50000/272a670f-5f93-47fc-97ab-3b6c3a7fe305.root | (None) | ad:d2d8cf3e | 13.031 MB  |          |
| cms:/store/mc/Run3Summer22EENanoAODv12/GluGlutoRadiontoHHto4B_M-650_narrow_TuneCP5_13p6TeV_madgraph-pythia8/NANOAODSIM/130X_mcRun3_2022_realistic_postEE_v6-v3/50000/16191b50-dafc-40f0-a414-ee78115da6f9.root | (None) | ad:1fcfeb90 | 27.262 MB  |          |
| cms:/store/mc/Run3Summer22EENanoAODv12/GluGlutoRadiontoHHto4B_M-650_narrow_TuneCP5_13p6TeV_madgraph-pythia8/NANOAODSIM/130X_mcRun3_2022_realistic_postEE_v6-v3/50000/0ce2bfc7-be7b-42c7-85c3-c0baea98a79d.root | (None) | ad:e1a678b3 | 4.453 MB   |          |
| cms:/store/mc/Run3Summer22EENanoAODv12/GluGlutoRadiontoHHto4B_M-650_narrow_TuneCP5_13p6TeV_madgraph-pythia8/NANOAODSIM/130X_mcRun3_2022_realistic_postEE_v6-v3/50000/67d43963-07ad-49a1-ab05-91f69c059907.root | (None) | ad:2efcd022 | 8.050 MB   |          |
| cms:/store/mc/Run3Summer22EENanoAODv12/GluGlutoRadiontoHHto4B_M-650_narrow_TuneCP5_13p6TeV_madgraph-pythia8/NANOAODSIM/130X_mcRun3_2022_realistic_postEE_v6-v3/50000/f422d4b2-eaee-4297-a577-57921054b0c6.root | (None) | ad:2ee1adae | 17.648 MB  |          |
| cms:/store/mc/Run3Summer22EENanoAODv12/GluGlutoRadiontoHHto4B_M-650_narrow_TuneCP5_13p6TeV_madgraph-pythia8/NANOAODSIM/130X_mcRun3_2022_realistic_postEE_v6-v3/50000/f679d27b-6aa7-453d-bc97-2064d04e99e5.root | (None) | ad:d17a53ce | 13.020 MB  |          |
| cms:/store/mc/Run3Summer22EENanoAODv12/GluGlutoRadiontoHHto4B_M-650_narrow_TuneCP5_13p6TeV_madgraph-pythia8/NANOAODSIM/130X_mcRun3_2022_realistic_postEE_v6-v3/50000/47a3df13-fc44-4d9c-ad15-aa3749aa9ed9.root | (None) | ad:7804a5db | 30.767 MB  |          |
| cms:/store/mc/Run3Summer22EENanoAODv12/GluGlutoRadiontoHHto4B_M-650_narrow_TuneCP5_13p6TeV_madgraph-pythia8/NANOAODSIM/130X_mcRun3_2022_realistic_postEE_v6-v3/50000/c8826907-0a19-481d-8be4-344bfad9d8bf.root | (None) | ad:b74ae227 | 35.280 MB  |          |
| cms:/store/mc/Run3Summer22EENanoAODv12/GluGlutoRadiontoHHto4B_M-650_narrow_TuneCP5_13p6TeV_madgraph-pythia8/NANOAODSIM/130X_mcRun3_2022_realistic_postEE_v6-v3/50000/c4e25da4-6ffa-42ea-8e76-102dea57ce5c.root | (None) | ad:cdea0829 | 4.455 MB   |          |
| cms:/store/mc/Run3Summer22EENanoAODv12/GluGlutoRadiontoHHto4B_M-650_narrow_TuneCP5_13p6TeV_madgraph-pythia8/NANOAODSIM/130X_mcRun3_2022_realistic_postEE_v6-v3/50000/74c59ac2-c939-4cb5-8b0f-02934a80948f.root | (None) | ad:4cf805f0 | 524.932 MB |          |
| cms:/store/mc/Run3Summer22EENanoAODv12/GluGlutoRadiontoHHto4B_M-650_narrow_TuneCP5_13p6TeV_madgraph-pythia8/NANOAODSIM/130X_mcRun3_2022_realistic_postEE_v6-v3/50000/b084c285-dff6-4b39-9de3-c7a1fa3c6e23.root | (None) | ad:1aa6cfc5 | 4.461 MB   |          |
| cms:/store/mc/Run3Summer22EENanoAODv12/GluGlutoRadiontoHHto4B_M-650_narrow_TuneCP5_13p6TeV_madgraph-pythia8/NANOAODSIM/130X_mcRun3_2022_realistic_postEE_v6-v3/50000/ea34f588-d9df-43c5-ba94-01c3367ef997.root | (None) | ad:c4196881 | 19.204 MB  |          |
| cms:/store/mc/Run3Summer22EENanoAODv12/GluGlutoRadiontoHHto4B_M-650_narrow_TuneCP5_13p6TeV_madgraph-pythia8/NANOAODSIM/130X_mcRun3_2022_realistic_postEE_v6-v3/50000/46999440-806d-4d6e-abc1-8c8a13001613.root | (None) | ad:0ec670fb | 36.767 MB  |          |
| cms:/store/mc/Run3Summer22EENanoAODv12/GluGlutoRadiontoHHto4B_M-650_narrow_TuneCP5_13p6TeV_madgraph-pythia8/NANOAODSIM/130X_mcRun3_2022_realistic_postEE_v6-v3/50000/6cd2ff4e-3d47-4c12-8de0-7cda321b0b6d.root | (None) | ad:23587656 | 8.082 MB   |          |
| cms:/store/mc/Run3Summer22EENanoAODv12/GluGlutoRadiontoHHto4B_M-650_narrow_TuneCP5_13p6TeV_madgraph-pythia8/NANOAODSIM/130X_mcRun3_2022_realistic_postEE_v6-v3/50000/cb20a3ae-6069-4431-a455-dfdbeab2c879.root | (None) | ad:8af151ef | 4.466 MB   |          |
| cms:/store/mc/Run3Summer22EENanoAODv12/GluGlutoRadiontoHHto4B_M-650_narrow_TuneCP5_13p6TeV_madgraph-pythia8/NANOAODSIM/130X_mcRun3_2022_realistic_postEE_v6-v3/50000/1ea980d8-6d01-4523-a7fd-59c7d3f74d26.root | (None) | ad:50ab6183 | 9.582 MB   |          |
| cms:/store/mc/Run3Summer22EENanoAODv12/GluGlutoRadiontoHHto4B_M-650_narrow_TuneCP5_13p6TeV_madgraph-pythia8/NANOAODSIM/130X_mcRun3_2022_realistic_postEE_v6-v3/50000/18d8084e-7ec2-4aad-95b7-3f4306e039c4.root | (None) | ad:20e76c4b | 11.062 MB  |          |
| cms:/store/mc/Run3Summer22EENanoAODv12/GluGlutoRadiontoHHto4B_M-650_narrow_TuneCP5_13p6TeV_madgraph-pythia8/NANOAODSIM/130X_mcRun3_2022_realistic_postEE_v6-v3/50000/f76506ff-1fb5-4ca9-9b8f-fcda6737f5c6.root | (None) | ad:cf1ccfd0 | 4.438 MB   |          |
| cms:/store/mc/Run3Summer22EENanoAODv12/GluGlutoRadiontoHHto4B_M-650_narrow_TuneCP5_13p6TeV_madgraph-pythia8/NANOAODSIM/130X_mcRun3_2022_realistic_postEE_v6-v3/50000/feefa98b-58b9-4e62-9f40-ccc1052c7968.root | (None) | ad:717a44a1 | 6.460 MB   |          |
+----------------------------------------------------------------------------------------------------------------------------------------------------------------------------------------------------------------+--------+-------------+------------+----------+
Total files : 21
Total size : 810.590 MB
