+------------------------------------------------------------------------------------------------------------------------------------------------------------------------------------------------------------------+--------+-------------+------------+----------+
| SCOPE:NAME                                                                                                                                                                                                       | GUID   | ADLER32     | FILESIZE   | EVENTS   |
|------------------------------------------------------------------------------------------------------------------------------------------------------------------------------------------------------------------+--------+-------------+------------+----------|
| cms:/store/mc/Run3Summer22EENanoAODv12/GluGlutoRadiontoHHto4B_M-280_narrow_TuneCP5_13p6TeV_madgraph-pythia8/NANOAODSIM/130X_mcRun3_2022_realistic_postEE_v6-v3/2540000/bcf14f1e-f6e0-44e4-a844-4ae05886d74d.root | (None) | ad:f0afe54e | 28.316 MB  |          |
| cms:/store/mc/Run3Summer22EENanoAODv12/GluGlutoRadiontoHHto4B_M-280_narrow_TuneCP5_13p6TeV_madgraph-pythia8/NANOAODSIM/130X_mcRun3_2022_realistic_postEE_v6-v3/2540000/a0feaca4-6247-473d-b252-00ea4da28478.root | (None) | ad:553cd77d | 57.894 MB  |          |
| cms:/store/mc/Run3Summer22EENanoAODv12/GluGlutoRadiontoHHto4B_M-280_narrow_TuneCP5_13p6TeV_madgraph-pythia8/NANOAODSIM/130X_mcRun3_2022_realistic_postEE_v6-v3/2540000/6d0ee850-85d6-42e5-89b4-c0158ca4631a.root | (None) | ad:7f4174ce | 16.176 MB  |          |
| cms:/store/mc/Run3Summer22EENanoAODv12/GluGlutoRadiontoHHto4B_M-280_narrow_TuneCP5_13p6TeV_madgraph-pythia8/NANOAODSIM/130X_mcRun3_2022_realistic_postEE_v6-v3/2540000/d23e9662-b6e0-4962-ae3b-54fb2fe46e8a.root | (None) | ad:c86cceff | 38.939 MB  |          |
| cms:/store/mc/Run3Summer22EENanoAODv12/GluGlutoRadiontoHHto4B_M-280_narrow_TuneCP5_13p6TeV_madgraph-pythia8/NANOAODSIM/130X_mcRun3_2022_realistic_postEE_v6-v3/2540000/d6421c0a-69f8-40c0-9c29-a414878502e6.root | (None) | ad:05600e91 | 6.733 MB   |          |
| cms:/store/mc/Run3Summer22EENanoAODv12/GluGlutoRadiontoHHto4B_M-280_narrow_TuneCP5_13p6TeV_madgraph-pythia8/NANOAODSIM/130X_mcRun3_2022_realistic_postEE_v6-v3/2540000/4c1d59bb-ad1f-4f86-af0e-61d3b01d8785.root | (None) | ad:ae271c12 | 87.868 MB  |          |
| cms:/store/mc/Run3Summer22EENanoAODv12/GluGlutoRadiontoHHto4B_M-280_narrow_TuneCP5_13p6TeV_madgraph-pythia8/NANOAODSIM/130X_mcRun3_2022_realistic_postEE_v6-v3/2540000/a0fcd19a-d388-41de-a406-e1e4837c2347.root | (None) | ad:9eb51e7d | 25.511 MB  |          |
| cms:/store/mc/Run3Summer22EENanoAODv12/GluGlutoRadiontoHHto4B_M-280_narrow_TuneCP5_13p6TeV_madgraph-pythia8/NANOAODSIM/130X_mcRun3_2022_realistic_postEE_v6-v3/2540000/e9b8f5be-c5de-4554-b115-1f1b6769cfc3.root | (None) | ad:beaadb3b | 16.122 MB  |          |
| cms:/store/mc/Run3Summer22EENanoAODv12/GluGlutoRadiontoHHto4B_M-280_narrow_TuneCP5_13p6TeV_madgraph-pythia8/NANOAODSIM/130X_mcRun3_2022_realistic_postEE_v6-v3/2540000/06cbbc6f-f59a-4a16-8508-051f58c8071a.root | (None) | ad:f88df183 | 21.096 MB  |          |
| cms:/store/mc/Run3Summer22EENanoAODv12/GluGlutoRadiontoHHto4B_M-280_narrow_TuneCP5_13p6TeV_madgraph-pythia8/NANOAODSIM/130X_mcRun3_2022_realistic_postEE_v6-v3/2540000/5ad6cdee-841b-424a-a5ea-6fe606e3e7c5.root | (None) | ad:a6e8fbf0 | 10.164 MB  |          |
| cms:/store/mc/Run3Summer22EENanoAODv12/GluGlutoRadiontoHHto4B_M-280_narrow_TuneCP5_13p6TeV_madgraph-pythia8/NANOAODSIM/130X_mcRun3_2022_realistic_postEE_v6-v3/2540000/4e0aa598-b14b-42bf-b333-3888bcf15d60.root | (None) | ad:0a8f9ca6 | 25.524 MB  |          |
| cms:/store/mc/Run3Summer22EENanoAODv12/GluGlutoRadiontoHHto4B_M-280_narrow_TuneCP5_13p6TeV_madgraph-pythia8/NANOAODSIM/130X_mcRun3_2022_realistic_postEE_v6-v3/2540000/c039c6b4-653b-4da1-8da7-bbd91c1c97e2.root | (None) | ad:5ccd2095 | 34.054 MB  |          |
| cms:/store/mc/Run3Summer22EENanoAODv12/GluGlutoRadiontoHHto4B_M-280_narrow_TuneCP5_13p6TeV_madgraph-pythia8/NANOAODSIM/130X_mcRun3_2022_realistic_postEE_v6-v3/2540000/c8f59f46-2529-4a84-8310-4dc9dea0b79b.root | (None) | ad:9917fcb6 | 18.421 MB  |          |
| cms:/store/mc/Run3Summer22EENanoAODv12/GluGlutoRadiontoHHto4B_M-280_narrow_TuneCP5_13p6TeV_madgraph-pythia8/NANOAODSIM/130X_mcRun3_2022_realistic_postEE_v6-v3/2540000/631bd1b6-c5d5-4451-ac9e-c4bac5a62d6a.root | (None) | ad:1a84ecff | 5.573 MB   |          |
| cms:/store/mc/Run3Summer22EENanoAODv12/GluGlutoRadiontoHHto4B_M-280_narrow_TuneCP5_13p6TeV_madgraph-pythia8/NANOAODSIM/130X_mcRun3_2022_realistic_postEE_v6-v3/2540000/f071c6ef-be6f-4803-88ef-a9c1e92eb249.root | (None) | ad:8bdf893f | 68.980 MB  |          |
| cms:/store/mc/Run3Summer22EENanoAODv12/GluGlutoRadiontoHHto4B_M-280_narrow_TuneCP5_13p6TeV_madgraph-pythia8/NANOAODSIM/130X_mcRun3_2022_realistic_postEE_v6-v3/2540000/ec401324-0bfb-486d-bf2b-b21a6a9b329d.root | (None) | ad:54b3b99b | 58.964 MB  |          |
| cms:/store/mc/Run3Summer22EENanoAODv12/GluGlutoRadiontoHHto4B_M-280_narrow_TuneCP5_13p6TeV_madgraph-pythia8/NANOAODSIM/130X_mcRun3_2022_realistic_postEE_v6-v3/2540000/75aae019-3b5e-4e43-98c2-18c0573fcc2a.root | (None) | ad:9db965d5 | 13.856 MB  |          |
| cms:/store/mc/Run3Summer22EENanoAODv12/GluGlutoRadiontoHHto4B_M-280_narrow_TuneCP5_13p6TeV_madgraph-pythia8/NANOAODSIM/130X_mcRun3_2022_realistic_postEE_v6-v3/2540000/47cae917-def6-4189-b168-77d0f8ecca57.root | (None) | ad:4f33c871 | 3.516 MB   |          |
| cms:/store/mc/Run3Summer22EENanoAODv12/GluGlutoRadiontoHHto4B_M-280_narrow_TuneCP5_13p6TeV_madgraph-pythia8/NANOAODSIM/130X_mcRun3_2022_realistic_postEE_v6-v3/2540000/a01c242b-28b5-4809-8753-9e6dccc825c5.root | (None) | ad:6095eae2 | 4.036 MB   |          |
| cms:/store/mc/Run3Summer22EENanoAODv12/GluGlutoRadiontoHHto4B_M-280_narrow_TuneCP5_13p6TeV_madgraph-pythia8/NANOAODSIM/130X_mcRun3_2022_realistic_postEE_v6-v3/2540000/382d6b71-3e7a-4ffa-936b-dde9a5ec4b73.root | (None) | ad:3a3e5ec1 | 45.161 MB  |          |
| cms:/store/mc/Run3Summer22EENanoAODv12/GluGlutoRadiontoHHto4B_M-280_narrow_TuneCP5_13p6TeV_madgraph-pythia8/NANOAODSIM/130X_mcRun3_2022_realistic_postEE_v6-v3/2540000/967c70ef-5403-4f80-9b28-25e712f04bc3.root | (None) | ad:77085c21 | 6.758 MB   |          |
| cms:/store/mc/Run3Summer22EENanoAODv12/GluGlutoRadiontoHHto4B_M-280_narrow_TuneCP5_13p6TeV_madgraph-pythia8/NANOAODSIM/130X_mcRun3_2022_realistic_postEE_v6-v3/2540000/64bbe0f1-3eda-4590-9d5d-837a8a0f40b6.root | (None) | ad:1895f3db | 5.612 MB   |          |
| cms:/store/mc/Run3Summer22EENanoAODv12/GluGlutoRadiontoHHto4B_M-280_narrow_TuneCP5_13p6TeV_madgraph-pythia8/NANOAODSIM/130X_mcRun3_2022_realistic_postEE_v6-v3/2540000/6ec1b7d2-62b4-45f7-9385-a7a99a6cd3ec.root | (None) | ad:0748c1b2 | 4.029 MB   |          |
+------------------------------------------------------------------------------------------------------------------------------------------------------------------------------------------------------------------+--------+-------------+------------+----------+
Total files : 23
Total size : 603.305 MB
