+-------------------------------------------------------------------------------------------------------------------------------------------------------------------------------------------------------------------------------------+--------+-------------+------------+----------+
| SCOPE:NAME                                                                                                                                                                                                                          | GUID   | ADLER32     | FILESIZE   | EVENTS   |
|-------------------------------------------------------------------------------------------------------------------------------------------------------------------------------------------------------------------------------------+--------+-------------+------------+----------|
| cms:/store/mc/Run3Summer22EENanoAODv12/GluGlutoHHto4B_kl-0p00_kt-1p00_c2-1p00_TuneCP5_13p6TeV_powheg-pythia8/NANOAODSIM/Poisson60KeepRAW_130X_mcRun3_2022_realistic_postEE_v6-v2/40000/76069000-ad40-49d8-b032-01c9d57ca379.root    | (None) | ad:878e2843 | 34.291 MB  |          |
| cms:/store/mc/Run3Summer22EENanoAODv12/GluGlutoHHto4B_kl-0p00_kt-1p00_c2-1p00_TuneCP5_13p6TeV_powheg-pythia8/NANOAODSIM/Poisson60KeepRAW_130X_mcRun3_2022_realistic_postEE_v6-v2/25310000/c0f9f59c-7c2a-496e-bb37-82a10451f38e.root | (None) | ad:c932a8bb | 97.635 MB  |          |
| cms:/store/mc/Run3Summer22EENanoAODv12/GluGlutoHHto4B_kl-0p00_kt-1p00_c2-1p00_TuneCP5_13p6TeV_powheg-pythia8/NANOAODSIM/Poisson60KeepRAW_130X_mcRun3_2022_realistic_postEE_v6-v2/40000/16c2d32d-9b34-419b-bd60-b80d406da9c8.root    | (None) | ad:7a48a431 | 10.753 MB  |          |
| cms:/store/mc/Run3Summer22EENanoAODv12/GluGlutoHHto4B_kl-0p00_kt-1p00_c2-1p00_TuneCP5_13p6TeV_powheg-pythia8/NANOAODSIM/Poisson60KeepRAW_130X_mcRun3_2022_realistic_postEE_v6-v2/50000/3a31052c-050d-4bfb-b69c-0a7b501cc8ca.root    | (None) | ad:cec8e35a | 10.799 MB  |          |
| cms:/store/mc/Run3Summer22EENanoAODv12/GluGlutoHHto4B_kl-0p00_kt-1p00_c2-1p00_TuneCP5_13p6TeV_powheg-pythia8/NANOAODSIM/Poisson60KeepRAW_130X_mcRun3_2022_realistic_postEE_v6-v2/2520000/5b90db44-a90e-45f8-870e-b748b52ce8b1.root  | (None) | ad:b286900e | 82.856 MB  |          |
+-------------------------------------------------------------------------------------------------------------------------------------------------------------------------------------------------------------------------------------+--------+-------------+------------+----------+
Total files : 5
Total size : 236.334 MB
