{
    "cms:/store/mc/Run3Summer22NanoAODv12/GluGlutoBulkGravitontoHHto4B_M-650_narrow_TuneCP5_13p6TeV_madgraph-pythia8/NANOAODSIM/130X_mcRun3_2022_realistic_v5-v3/50000/31c73376-aa8b-43a8-8966-83b73a3f191f.root": [
        "T1_US_FNAL_Disk: davs://cmsdcadisk.fnal.gov:2880/dcache/uscmsdisk/store/mc/Run3Summer22NanoAODv12/GluGlutoBulkGravitontoHHto4B_M-650_narrow_TuneCP5_13p6TeV_madgraph-pythia8/NANOAODSIM/130X_mcRun3_2022_realistic_v5-v3/50000/31c73376-aa8b-43a8-8966-83b73a3f191f.root",
        "T2_FR_IPHC: davs://sbgdcache.in2p3.fr:443/cms/phedex/store/mc/Run3Summer22NanoAODv12/GluGlutoBulkGravitontoHHto4B_M-650_narrow_TuneCP5_13p6TeV_madgraph-pythia8/NANOAODSIM/130X_mcRun3_2022_realistic_v5-v3/50000/31c73376-aa8b-43a8-8966-83b73a3f191f.root",
        "T2_PL_Swierk: davs://se.cis.gov.pl:2880/grid/cms/store/mc/Run3Summer22NanoAODv12/GluGlutoBulkGravitontoHHto4B_M-650_narrow_TuneCP5_13p6TeV_madgraph-pythia8/NANOAODSIM/130X_mcRun3_2022_realistic_v5-v3/50000/31c73376-aa8b-43a8-8966-83b73a3f191f.root",
        "T2_US_Vanderbilt: davs://xrootd-vanderbilt.sites.opensciencegrid.org:1094/store/mc/Run3Summer22NanoAODv12/GluGlutoBulkGravitontoHHto4B_M-650_narrow_TuneCP5_13p6TeV_madgraph-pythia8/NANOAODSIM/130X_mcRun3_2022_realistic_v5-v3/50000/31c73376-aa8b-43a8-8966-83b73a3f191f.root",
        "T1_UK_RAL_Disk: davs://rdr.echo.stfc.ac.uk:1094/store/mc/Run3Summer22NanoAODv12/GluGlutoBulkGravitontoHHto4B_M-650_narrow_TuneCP5_13p6TeV_madgraph-pythia8/NANOAODSIM/130X_mcRun3_2022_realistic_v5-v3/50000/31c73376-aa8b-43a8-8966-83b73a3f191f.root",
        "T1_IT_CNAF_Tape: davs://xfer-cms.cr.cnaf.infn.it:8443/cmstape/store/mc/Run3Summer22NanoAODv12/GluGlutoBulkGravitontoHHto4B_M-650_narrow_TuneCP5_13p6TeV_madgraph-pythia8/NANOAODSIM/130X_mcRun3_2022_realistic_v5-v3/50000/31c73376-aa8b-43a8-8966-83b73a3f191f.root",
        "T2_IT_Pisa: davs://stwebdav.pi.infn.it:8443/cms/store/mc/Run3Summer22NanoAODv12/GluGlutoBulkGravitontoHHto4B_M-650_narrow_TuneCP5_13p6TeV_madgraph-pythia8/NANOAODSIM/130X_mcRun3_2022_realistic_v5-v3/50000/31c73376-aa8b-43a8-8966-83b73a3f191f.root"
    ]
}