{
    "cms:/store/mc/Run3Summer22EENanoAODv12/GluGlutoBulkGravitontoHHto4B_M-600_narrow_TuneCP5_13p6TeV_madgraph-pythia8/NANOAODSIM/130X_mcRun3_2022_realistic_postEE_v6-v3/2550000/c1d97127-d280-4790-bf6c-0d3bfc2fe119.root": [
        "T1_US_FNAL_Disk: davs://cmsdcadisk.fnal.gov:2880/dcache/uscmsdisk/store/mc/Run3Summer22EENanoAODv12/GluGlutoBulkGravitontoHHto4B_M-600_narrow_TuneCP5_13p6TeV_madgraph-pythia8/NANOAODSIM/130X_mcRun3_2022_realistic_postEE_v6-v3/2550000/c1d97127-d280-4790-bf6c-0d3bfc2fe119.root",
        "T1_DE_KIT_Disk: davs://cmsdcache-kit-disk.gridka.de:2880/pnfs/gridka.de/cms/disk-only/store/mc/Run3Summer22EENanoAODv12/GluGlutoBulkGravitontoHHto4B_M-600_narrow_TuneCP5_13p6TeV_madgraph-pythia8/NANOAODSIM/130X_mcRun3_2022_realistic_postEE_v6-v3/2550000/c1d97127-d280-4790-bf6c-0d3bfc2fe119.root",
        "T2_US_Florida: davs://cmsio2.rc.ufl.edu:1094/store/mc/Run3Summer22EENanoAODv12/GluGlutoBulkGravitontoHHto4B_M-600_narrow_TuneCP5_13p6TeV_madgraph-pythia8/NANOAODSIM/130X_mcRun3_2022_realistic_postEE_v6-v3/2550000/c1d97127-d280-4790-bf6c-0d3bfc2fe119.root",
        "T2_UK_London_IC: davs://gfe02.grid.hep.ph.ic.ac.uk:2880/pnfs/hep.ph.ic.ac.uk/data/cms/store/mc/Run3Summer22EENanoAODv12/GluGlutoBulkGravitontoHHto4B_M-600_narrow_TuneCP5_13p6TeV_madgraph-pythia8/NANOAODSIM/130X_mcRun3_2022_realistic_postEE_v6-v3/2550000/c1d97127-d280-4790-bf6c-0d3bfc2fe119.root",
        "T2_DE_RWTH: davs://grid-webdav.physik.rwth-aachen.de:2889/store/mc/Run3Summer22EENanoAODv12/GluGlutoBulkGravitontoHHto4B_M-600_narrow_TuneCP5_13p6TeV_madgraph-pythia8/NANOAODSIM/130X_mcRun3_2022_realistic_postEE_v6-v3/2550000/c1d97127-d280-4790-bf6c-0d3bfc2fe119.root",
        "T0_CH_CERN_Tape: davs://eosctacms.cern.ch:8444//eos/ctacms/archive/cms/store/mc/Run3Summer22EENanoAODv12/GluGlutoBulkGravitontoHHto4B_M-600_narrow_TuneCP5_13p6TeV_madgraph-pythia8/NANOAODSIM/130X_mcRun3_2022_realistic_postEE_v6-v3/2550000/c1d97127-d280-4790-bf6c-0d3bfc2fe119.root",
        "T2_IN_TIFR: davs://se01.indiacms.res.in:443/dpm/indiacms.res.in/home/cms/store/mc/Run3Summer22EENanoAODv12/GluGlutoBulkGravitontoHHto4B_M-600_narrow_TuneCP5_13p6TeV_madgraph-pythia8/NANOAODSIM/130X_mcRun3_2022_realistic_postEE_v6-v3/2550000/c1d97127-d280-4790-bf6c-0d3bfc2fe119.root"
    ],
    "cms:/store/mc/Run3Summer22EENanoAODv12/GluGlutoBulkGravitontoHHto4B_M-600_narrow_TuneCP5_13p6TeV_madgraph-pythia8/NANOAODSIM/130X_mcRun3_2022_realistic_postEE_v6-v3/2550000/c7742ddc-f290-4f6e-a7a4-46c4b95da54c.root": [
        "T1_US_FNAL_Disk: davs://cmsdcadisk.fnal.gov:2880/dcache/uscmsdisk/store/mc/Run3Summer22EENanoAODv12/GluGlutoBulkGravitontoHHto4B_M-600_narrow_TuneCP5_13p6TeV_madgraph-pythia8/NANOAODSIM/130X_mcRun3_2022_realistic_postEE_v6-v3/2550000/c7742ddc-f290-4f6e-a7a4-46c4b95da54c.root",
        "T1_DE_KIT_Disk: davs://cmsdcache-kit-disk.gridka.de:2880/pnfs/gridka.de/cms/disk-only/store/mc/Run3Summer22EENanoAODv12/GluGlutoBulkGravitontoHHto4B_M-600_narrow_TuneCP5_13p6TeV_madgraph-pythia8/NANOAODSIM/130X_mcRun3_2022_realistic_postEE_v6-v3/2550000/c7742ddc-f290-4f6e-a7a4-46c4b95da54c.root",
        "T2_US_Florida: davs://cmsio2.rc.ufl.edu:1094/store/mc/Run3Summer22EENanoAODv12/GluGlutoBulkGravitontoHHto4B_M-600_narrow_TuneCP5_13p6TeV_madgraph-pythia8/NANOAODSIM/130X_mcRun3_2022_realistic_postEE_v6-v3/2550000/c7742ddc-f290-4f6e-a7a4-46c4b95da54c.root",
        "T2_UK_London_IC: davs://gfe02.grid.hep.ph.ic.ac.uk:2880/pnfs/hep.ph.ic.ac.uk/data/cms/store/mc/Run3Summer22EENanoAODv12/GluGlutoBulkGravitontoHHto4B_M-600_narrow_TuneCP5_13p6TeV_madgraph-pythia8/NANOAODSIM/130X_mcRun3_2022_realistic_postEE_v6-v3/2550000/c7742ddc-f290-4f6e-a7a4-46c4b95da54c.root",
        "T2_DE_RWTH: davs://grid-webdav.physik.rwth-aachen.de:2889/store/mc/Run3Summer22EENanoAODv12/GluGlutoBulkGravitontoHHto4B_M-600_narrow_TuneCP5_13p6TeV_madgraph-pythia8/NANOAODSIM/130X_mcRun3_2022_realistic_postEE_v6-v3/2550000/c7742ddc-f290-4f6e-a7a4-46c4b95da54c.root",
        "T0_CH_CERN_Tape: davs://eosctacms.cern.ch:8444//eos/ctacms/archive/cms/store/mc/Run3Summer22EENanoAODv12/GluGlutoBulkGravitontoHHto4B_M-600_narrow_TuneCP5_13p6TeV_madgraph-pythia8/NANOAODSIM/130X_mcRun3_2022_realistic_postEE_v6-v3/2550000/c7742ddc-f290-4f6e-a7a4-46c4b95da54c.root",
        "T2_IN_TIFR: davs://se01.indiacms.res.in:443/dpm/indiacms.res.in/home/cms/store/mc/Run3Summer22EENanoAODv12/GluGlutoBulkGravitontoHHto4B_M-600_narrow_TuneCP5_13p6TeV_madgraph-pythia8/NANOAODSIM/130X_mcRun3_2022_realistic_postEE_v6-v3/2550000/c7742ddc-f290-4f6e-a7a4-46c4b95da54c.root"
    ],
    "cms:/store/mc/Run3Summer22EENanoAODv12/GluGlutoBulkGravitontoHHto4B_M-600_narrow_TuneCP5_13p6TeV_madgraph-pythia8/NANOAODSIM/130X_mcRun3_2022_realistic_postEE_v6-v3/2550000/71dea25c-a99d-4ff2-b7ac-33506eaca5b6.root": [
        "T2_CH_CSCS: davs://storage01.lcg.cscs.ch:2880/pnfs/lcg.cscs.ch/cms/trivcat/store/mc/Run3Summer22EENanoAODv12/GluGlutoBulkGravitontoHHto4B_M-600_narrow_TuneCP5_13p6TeV_madgraph-pythia8/NANOAODSIM/130X_mcRun3_2022_realistic_postEE_v6-v3/2550000/71dea25c-a99d-4ff2-b7ac-33506eaca5b6.root",
        "T2_FR_GRIF: davs://eos.grif.fr:11000/eos/grif/cms/grif/store/mc/Run3Summer22EENanoAODv12/GluGlutoBulkGravitontoHHto4B_M-600_narrow_TuneCP5_13p6TeV_madgraph-pythia8/NANOAODSIM/130X_mcRun3_2022_realistic_postEE_v6-v3/2550000/71dea25c-a99d-4ff2-b7ac-33506eaca5b6.root",
        "T2_US_Vanderbilt: davs://xrootd-vanderbilt.sites.opensciencegrid.org:1094/store/mc/Run3Summer22EENanoAODv12/GluGlutoBulkGravitontoHHto4B_M-600_narrow_TuneCP5_13p6TeV_madgraph-pythia8/NANOAODSIM/130X_mcRun3_2022_realistic_postEE_v6-v3/2550000/71dea25c-a99d-4ff2-b7ac-33506eaca5b6.root",
        "T2_FI_HIP: davs://hip-cms-se.csc.fi:2880/store/mc/Run3Summer22EENanoAODv12/GluGlutoBulkGravitontoHHto4B_M-600_narrow_TuneCP5_13p6TeV_madgraph-pythia8/NANOAODSIM/130X_mcRun3_2022_realistic_postEE_v6-v3/2550000/71dea25c-a99d-4ff2-b7ac-33506eaca5b6.root",
        "T2_BR_SPRACE: davs://osg-se.sprace.org.br:1094/store/mc/Run3Summer22EENanoAODv12/GluGlutoBulkGravitontoHHto4B_M-600_narrow_TuneCP5_13p6TeV_madgraph-pythia8/NANOAODSIM/130X_mcRun3_2022_realistic_postEE_v6-v3/2550000/71dea25c-a99d-4ff2-b7ac-33506eaca5b6.root",
        "T2_DE_RWTH: davs://grid-webdav.physik.rwth-aachen.de:2889/store/mc/Run3Summer22EENanoAODv12/GluGlutoBulkGravitontoHHto4B_M-600_narrow_TuneCP5_13p6TeV_madgraph-pythia8/NANOAODSIM/130X_mcRun3_2022_realistic_postEE_v6-v3/2550000/71dea25c-a99d-4ff2-b7ac-33506eaca5b6.root",
        "T0_CH_CERN_Tape: davs://eosctacms.cern.ch:8444//eos/ctacms/archive/cms/store/mc/Run3Summer22EENanoAODv12/GluGlutoBulkGravitontoHHto4B_M-600_narrow_TuneCP5_13p6TeV_madgraph-pythia8/NANOAODSIM/130X_mcRun3_2022_realistic_postEE_v6-v3/2550000/71dea25c-a99d-4ff2-b7ac-33506eaca5b6.root"
    ],
    "cms:/store/mc/Run3Summer22EENanoAODv12/GluGlutoBulkGravitontoHHto4B_M-600_narrow_TuneCP5_13p6TeV_madgraph-pythia8/NANOAODSIM/130X_mcRun3_2022_realistic_postEE_v6-v3/2550000/ff04ec55-2cff-4471-9785-53cc05de49bd.root": [
        "T1_US_FNAL_Disk: davs://cmsdcadisk.fnal.gov:2880/dcache/uscmsdisk/store/mc/Run3Summer22EENanoAODv12/GluGlutoBulkGravitontoHHto4B_M-600_narrow_TuneCP5_13p6TeV_madgraph-pythia8/NANOAODSIM/130X_mcRun3_2022_realistic_postEE_v6-v3/2550000/ff04ec55-2cff-4471-9785-53cc05de49bd.root",
        "T1_DE_KIT_Disk: davs://cmsdcache-kit-disk.gridka.de:2880/pnfs/gridka.de/cms/disk-only/store/mc/Run3Summer22EENanoAODv12/GluGlutoBulkGravitontoHHto4B_M-600_narrow_TuneCP5_13p6TeV_madgraph-pythia8/NANOAODSIM/130X_mcRun3_2022_realistic_postEE_v6-v3/2550000/ff04ec55-2cff-4471-9785-53cc05de49bd.root",
        "T2_US_Florida: davs://cmsio2.rc.ufl.edu:1094/store/mc/Run3Summer22EENanoAODv12/GluGlutoBulkGravitontoHHto4B_M-600_narrow_TuneCP5_13p6TeV_madgraph-pythia8/NANOAODSIM/130X_mcRun3_2022_realistic_postEE_v6-v3/2550000/ff04ec55-2cff-4471-9785-53cc05de49bd.root",
        "T2_UK_London_IC: davs://gfe02.grid.hep.ph.ic.ac.uk:2880/pnfs/hep.ph.ic.ac.uk/data/cms/store/mc/Run3Summer22EENanoAODv12/GluGlutoBulkGravitontoHHto4B_M-600_narrow_TuneCP5_13p6TeV_madgraph-pythia8/NANOAODSIM/130X_mcRun3_2022_realistic_postEE_v6-v3/2550000/ff04ec55-2cff-4471-9785-53cc05de49bd.root",
        "T2_DE_RWTH: davs://grid-webdav.physik.rwth-aachen.de:2889/store/mc/Run3Summer22EENanoAODv12/GluGlutoBulkGravitontoHHto4B_M-600_narrow_TuneCP5_13p6TeV_madgraph-pythia8/NANOAODSIM/130X_mcRun3_2022_realistic_postEE_v6-v3/2550000/ff04ec55-2cff-4471-9785-53cc05de49bd.root",
        "T0_CH_CERN_Tape: davs://eosctacms.cern.ch:8444//eos/ctacms/archive/cms/store/mc/Run3Summer22EENanoAODv12/GluGlutoBulkGravitontoHHto4B_M-600_narrow_TuneCP5_13p6TeV_madgraph-pythia8/NANOAODSIM/130X_mcRun3_2022_realistic_postEE_v6-v3/2550000/ff04ec55-2cff-4471-9785-53cc05de49bd.root",
        "T2_IN_TIFR: davs://se01.indiacms.res.in:443/dpm/indiacms.res.in/home/cms/store/mc/Run3Summer22EENanoAODv12/GluGlutoBulkGravitontoHHto4B_M-600_narrow_TuneCP5_13p6TeV_madgraph-pythia8/NANOAODSIM/130X_mcRun3_2022_realistic_postEE_v6-v3/2550000/ff04ec55-2cff-4471-9785-53cc05de49bd.root"
    ],
    "cms:/store/mc/Run3Summer22EENanoAODv12/GluGlutoBulkGravitontoHHto4B_M-600_narrow_TuneCP5_13p6TeV_madgraph-pythia8/NANOAODSIM/130X_mcRun3_2022_realistic_postEE_v6-v3/2550000/459d8583-fd83-4387-93f7-0f6d9dee2772.root": [
        "T1_US_FNAL_Disk: davs://cmsdcadisk.fnal.gov:2880/dcache/uscmsdisk/store/mc/Run3Summer22EENanoAODv12/GluGlutoBulkGravitontoHHto4B_M-600_narrow_TuneCP5_13p6TeV_madgraph-pythia8/NANOAODSIM/130X_mcRun3_2022_realistic_postEE_v6-v3/2550000/459d8583-fd83-4387-93f7-0f6d9dee2772.root",
        "T1_DE_KIT_Disk: davs://cmsdcache-kit-disk.gridka.de:2880/pnfs/gridka.de/cms/disk-only/store/mc/Run3Summer22EENanoAODv12/GluGlutoBulkGravitontoHHto4B_M-600_narrow_TuneCP5_13p6TeV_madgraph-pythia8/NANOAODSIM/130X_mcRun3_2022_realistic_postEE_v6-v3/2550000/459d8583-fd83-4387-93f7-0f6d9dee2772.root",
        "T2_US_Florida: davs://cmsio2.rc.ufl.edu:1094/store/mc/Run3Summer22EENanoAODv12/GluGlutoBulkGravitontoHHto4B_M-600_narrow_TuneCP5_13p6TeV_madgraph-pythia8/NANOAODSIM/130X_mcRun3_2022_realistic_postEE_v6-v3/2550000/459d8583-fd83-4387-93f7-0f6d9dee2772.root",
        "T2_UK_London_IC: davs://gfe02.grid.hep.ph.ic.ac.uk:2880/pnfs/hep.ph.ic.ac.uk/data/cms/store/mc/Run3Summer22EENanoAODv12/GluGlutoBulkGravitontoHHto4B_M-600_narrow_TuneCP5_13p6TeV_madgraph-pythia8/NANOAODSIM/130X_mcRun3_2022_realistic_postEE_v6-v3/2550000/459d8583-fd83-4387-93f7-0f6d9dee2772.root",
        "T2_DE_RWTH: davs://grid-webdav.physik.rwth-aachen.de:2889/store/mc/Run3Summer22EENanoAODv12/GluGlutoBulkGravitontoHHto4B_M-600_narrow_TuneCP5_13p6TeV_madgraph-pythia8/NANOAODSIM/130X_mcRun3_2022_realistic_postEE_v6-v3/2550000/459d8583-fd83-4387-93f7-0f6d9dee2772.root",
        "T0_CH_CERN_Tape: davs://eosctacms.cern.ch:8444//eos/ctacms/archive/cms/store/mc/Run3Summer22EENanoAODv12/GluGlutoBulkGravitontoHHto4B_M-600_narrow_TuneCP5_13p6TeV_madgraph-pythia8/NANOAODSIM/130X_mcRun3_2022_realistic_postEE_v6-v3/2550000/459d8583-fd83-4387-93f7-0f6d9dee2772.root",
        "T2_IN_TIFR: davs://se01.indiacms.res.in:443/dpm/indiacms.res.in/home/cms/store/mc/Run3Summer22EENanoAODv12/GluGlutoBulkGravitontoHHto4B_M-600_narrow_TuneCP5_13p6TeV_madgraph-pythia8/NANOAODSIM/130X_mcRun3_2022_realistic_postEE_v6-v3/2550000/459d8583-fd83-4387-93f7-0f6d9dee2772.root"
    ],
    "cms:/store/mc/Run3Summer22EENanoAODv12/GluGlutoBulkGravitontoHHto4B_M-600_narrow_TuneCP5_13p6TeV_madgraph-pythia8/NANOAODSIM/130X_mcRun3_2022_realistic_postEE_v6-v3/2550000/11aeff10-593c-4c5c-84fb-dbaf30a7aae5.root": [
        "T1_US_FNAL_Disk: davs://cmsdcadisk.fnal.gov:2880/dcache/uscmsdisk/store/mc/Run3Summer22EENanoAODv12/GluGlutoBulkGravitontoHHto4B_M-600_narrow_TuneCP5_13p6TeV_madgraph-pythia8/NANOAODSIM/130X_mcRun3_2022_realistic_postEE_v6-v3/2550000/11aeff10-593c-4c5c-84fb-dbaf30a7aae5.root",
        "T1_DE_KIT_Disk: davs://cmsdcache-kit-disk.gridka.de:2880/pnfs/gridka.de/cms/disk-only/store/mc/Run3Summer22EENanoAODv12/GluGlutoBulkGravitontoHHto4B_M-600_narrow_TuneCP5_13p6TeV_madgraph-pythia8/NANOAODSIM/130X_mcRun3_2022_realistic_postEE_v6-v3/2550000/11aeff10-593c-4c5c-84fb-dbaf30a7aae5.root",
        "T2_US_Florida: davs://cmsio2.rc.ufl.edu:1094/store/mc/Run3Summer22EENanoAODv12/GluGlutoBulkGravitontoHHto4B_M-600_narrow_TuneCP5_13p6TeV_madgraph-pythia8/NANOAODSIM/130X_mcRun3_2022_realistic_postEE_v6-v3/2550000/11aeff10-593c-4c5c-84fb-dbaf30a7aae5.root",
        "T2_UK_London_IC: davs://gfe02.grid.hep.ph.ic.ac.uk:2880/pnfs/hep.ph.ic.ac.uk/data/cms/store/mc/Run3Summer22EENanoAODv12/GluGlutoBulkGravitontoHHto4B_M-600_narrow_TuneCP5_13p6TeV_madgraph-pythia8/NANOAODSIM/130X_mcRun3_2022_realistic_postEE_v6-v3/2550000/11aeff10-593c-4c5c-84fb-dbaf30a7aae5.root",
        "T2_DE_RWTH: davs://grid-webdav.physik.rwth-aachen.de:2889/store/mc/Run3Summer22EENanoAODv12/GluGlutoBulkGravitontoHHto4B_M-600_narrow_TuneCP5_13p6TeV_madgraph-pythia8/NANOAODSIM/130X_mcRun3_2022_realistic_postEE_v6-v3/2550000/11aeff10-593c-4c5c-84fb-dbaf30a7aae5.root",
        "T0_CH_CERN_Tape: davs://eosctacms.cern.ch:8444//eos/ctacms/archive/cms/store/mc/Run3Summer22EENanoAODv12/GluGlutoBulkGravitontoHHto4B_M-600_narrow_TuneCP5_13p6TeV_madgraph-pythia8/NANOAODSIM/130X_mcRun3_2022_realistic_postEE_v6-v3/2550000/11aeff10-593c-4c5c-84fb-dbaf30a7aae5.root",
        "T2_IN_TIFR: davs://se01.indiacms.res.in:443/dpm/indiacms.res.in/home/cms/store/mc/Run3Summer22EENanoAODv12/GluGlutoBulkGravitontoHHto4B_M-600_narrow_TuneCP5_13p6TeV_madgraph-pythia8/NANOAODSIM/130X_mcRun3_2022_realistic_postEE_v6-v3/2550000/11aeff10-593c-4c5c-84fb-dbaf30a7aae5.root"
    ],
    "cms:/store/mc/Run3Summer22EENanoAODv12/GluGlutoBulkGravitontoHHto4B_M-600_narrow_TuneCP5_13p6TeV_madgraph-pythia8/NANOAODSIM/130X_mcRun3_2022_realistic_postEE_v6-v3/2550000/9e320ae7-7f0c-4664-9f17-4368e49b8ccd.root": [
        "T1_US_FNAL_Disk: davs://cmsdcadisk.fnal.gov:2880/dcache/uscmsdisk/store/mc/Run3Summer22EENanoAODv12/GluGlutoBulkGravitontoHHto4B_M-600_narrow_TuneCP5_13p6TeV_madgraph-pythia8/NANOAODSIM/130X_mcRun3_2022_realistic_postEE_v6-v3/2550000/9e320ae7-7f0c-4664-9f17-4368e49b8ccd.root",
        "T1_DE_KIT_Disk: davs://cmsdcache-kit-disk.gridka.de:2880/pnfs/gridka.de/cms/disk-only/store/mc/Run3Summer22EENanoAODv12/GluGlutoBulkGravitontoHHto4B_M-600_narrow_TuneCP5_13p6TeV_madgraph-pythia8/NANOAODSIM/130X_mcRun3_2022_realistic_postEE_v6-v3/2550000/9e320ae7-7f0c-4664-9f17-4368e49b8ccd.root",
        "T2_US_Florida: davs://cmsio2.rc.ufl.edu:1094/store/mc/Run3Summer22EENanoAODv12/GluGlutoBulkGravitontoHHto4B_M-600_narrow_TuneCP5_13p6TeV_madgraph-pythia8/NANOAODSIM/130X_mcRun3_2022_realistic_postEE_v6-v3/2550000/9e320ae7-7f0c-4664-9f17-4368e49b8ccd.root",
        "T1_RU_JINR_Disk: davs://se-wbdv.jinr-t1.ru:2880/pnfs/jinr-t1.ru/data/cms/store/mc/Run3Summer22EENanoAODv12/GluGlutoBulkGravitontoHHto4B_M-600_narrow_TuneCP5_13p6TeV_madgraph-pythia8/NANOAODSIM/130X_mcRun3_2022_realistic_postEE_v6-v3/2550000/9e320ae7-7f0c-4664-9f17-4368e49b8ccd.root",
        "T2_UK_London_IC: davs://gfe02.grid.hep.ph.ic.ac.uk:2880/pnfs/hep.ph.ic.ac.uk/data/cms/store/mc/Run3Summer22EENanoAODv12/GluGlutoBulkGravitontoHHto4B_M-600_narrow_TuneCP5_13p6TeV_madgraph-pythia8/NANOAODSIM/130X_mcRun3_2022_realistic_postEE_v6-v3/2550000/9e320ae7-7f0c-4664-9f17-4368e49b8ccd.root",
        "T2_DE_RWTH: davs://grid-webdav.physik.rwth-aachen.de:2889/store/mc/Run3Summer22EENanoAODv12/GluGlutoBulkGravitontoHHto4B_M-600_narrow_TuneCP5_13p6TeV_madgraph-pythia8/NANOAODSIM/130X_mcRun3_2022_realistic_postEE_v6-v3/2550000/9e320ae7-7f0c-4664-9f17-4368e49b8ccd.root",
        "T0_CH_CERN_Tape: davs://eosctacms.cern.ch:8444//eos/ctacms/archive/cms/store/mc/Run3Summer22EENanoAODv12/GluGlutoBulkGravitontoHHto4B_M-600_narrow_TuneCP5_13p6TeV_madgraph-pythia8/NANOAODSIM/130X_mcRun3_2022_realistic_postEE_v6-v3/2550000/9e320ae7-7f0c-4664-9f17-4368e49b8ccd.root",
        "T2_IN_TIFR: davs://se01.indiacms.res.in:443/dpm/indiacms.res.in/home/cms/store/mc/Run3Summer22EENanoAODv12/GluGlutoBulkGravitontoHHto4B_M-600_narrow_TuneCP5_13p6TeV_madgraph-pythia8/NANOAODSIM/130X_mcRun3_2022_realistic_postEE_v6-v3/2550000/9e320ae7-7f0c-4664-9f17-4368e49b8ccd.root"
    ],
    "cms:/store/mc/Run3Summer22EENanoAODv12/GluGlutoBulkGravitontoHHto4B_M-600_narrow_TuneCP5_13p6TeV_madgraph-pythia8/NANOAODSIM/130X_mcRun3_2022_realistic_postEE_v6-v3/2550000/38ec3fdc-6bfe-4463-a6fc-5886857319d0.root": [
        "T1_US_FNAL_Disk: davs://cmsdcadisk.fnal.gov:2880/dcache/uscmsdisk/store/mc/Run3Summer22EENanoAODv12/GluGlutoBulkGravitontoHHto4B_M-600_narrow_TuneCP5_13p6TeV_madgraph-pythia8/NANOAODSIM/130X_mcRun3_2022_realistic_postEE_v6-v3/2550000/38ec3fdc-6bfe-4463-a6fc-5886857319d0.root",
        "T1_DE_KIT_Disk: davs://cmsdcache-kit-disk.gridka.de:2880/pnfs/gridka.de/cms/disk-only/store/mc/Run3Summer22EENanoAODv12/GluGlutoBulkGravitontoHHto4B_M-600_narrow_TuneCP5_13p6TeV_madgraph-pythia8/NANOAODSIM/130X_mcRun3_2022_realistic_postEE_v6-v3/2550000/38ec3fdc-6bfe-4463-a6fc-5886857319d0.root",
        "T2_US_Florida: davs://cmsio2.rc.ufl.edu:1094/store/mc/Run3Summer22EENanoAODv12/GluGlutoBulkGravitontoHHto4B_M-600_narrow_TuneCP5_13p6TeV_madgraph-pythia8/NANOAODSIM/130X_mcRun3_2022_realistic_postEE_v6-v3/2550000/38ec3fdc-6bfe-4463-a6fc-5886857319d0.root",
        "T2_UK_London_IC: davs://gfe02.grid.hep.ph.ic.ac.uk:2880/pnfs/hep.ph.ic.ac.uk/data/cms/store/mc/Run3Summer22EENanoAODv12/GluGlutoBulkGravitontoHHto4B_M-600_narrow_TuneCP5_13p6TeV_madgraph-pythia8/NANOAODSIM/130X_mcRun3_2022_realistic_postEE_v6-v3/2550000/38ec3fdc-6bfe-4463-a6fc-5886857319d0.root",
        "T2_DE_RWTH: davs://grid-webdav.physik.rwth-aachen.de:2889/store/mc/Run3Summer22EENanoAODv12/GluGlutoBulkGravitontoHHto4B_M-600_narrow_TuneCP5_13p6TeV_madgraph-pythia8/NANOAODSIM/130X_mcRun3_2022_realistic_postEE_v6-v3/2550000/38ec3fdc-6bfe-4463-a6fc-5886857319d0.root",
        "T0_CH_CERN_Tape: davs://eosctacms.cern.ch:8444//eos/ctacms/archive/cms/store/mc/Run3Summer22EENanoAODv12/GluGlutoBulkGravitontoHHto4B_M-600_narrow_TuneCP5_13p6TeV_madgraph-pythia8/NANOAODSIM/130X_mcRun3_2022_realistic_postEE_v6-v3/2550000/38ec3fdc-6bfe-4463-a6fc-5886857319d0.root",
        "T2_IN_TIFR: davs://se01.indiacms.res.in:443/dpm/indiacms.res.in/home/cms/store/mc/Run3Summer22EENanoAODv12/GluGlutoBulkGravitontoHHto4B_M-600_narrow_TuneCP5_13p6TeV_madgraph-pythia8/NANOAODSIM/130X_mcRun3_2022_realistic_postEE_v6-v3/2550000/38ec3fdc-6bfe-4463-a6fc-5886857319d0.root"
    ],
    "cms:/store/mc/Run3Summer22EENanoAODv12/GluGlutoBulkGravitontoHHto4B_M-600_narrow_TuneCP5_13p6TeV_madgraph-pythia8/NANOAODSIM/130X_mcRun3_2022_realistic_postEE_v6-v3/2550000/76dd881c-9e99-40f5-a90c-7022f22602a4.root": [
        "T1_US_FNAL_Disk: davs://cmsdcadisk.fnal.gov:2880/dcache/uscmsdisk/store/mc/Run3Summer22EENanoAODv12/GluGlutoBulkGravitontoHHto4B_M-600_narrow_TuneCP5_13p6TeV_madgraph-pythia8/NANOAODSIM/130X_mcRun3_2022_realistic_postEE_v6-v3/2550000/76dd881c-9e99-40f5-a90c-7022f22602a4.root",
        "T1_DE_KIT_Disk: davs://cmsdcache-kit-disk.gridka.de:2880/pnfs/gridka.de/cms/disk-only/store/mc/Run3Summer22EENanoAODv12/GluGlutoBulkGravitontoHHto4B_M-600_narrow_TuneCP5_13p6TeV_madgraph-pythia8/NANOAODSIM/130X_mcRun3_2022_realistic_postEE_v6-v3/2550000/76dd881c-9e99-40f5-a90c-7022f22602a4.root",
        "T2_US_Florida: davs://cmsio2.rc.ufl.edu:1094/store/mc/Run3Summer22EENanoAODv12/GluGlutoBulkGravitontoHHto4B_M-600_narrow_TuneCP5_13p6TeV_madgraph-pythia8/NANOAODSIM/130X_mcRun3_2022_realistic_postEE_v6-v3/2550000/76dd881c-9e99-40f5-a90c-7022f22602a4.root",
        "T2_UK_London_IC: davs://gfe02.grid.hep.ph.ic.ac.uk:2880/pnfs/hep.ph.ic.ac.uk/data/cms/store/mc/Run3Summer22EENanoAODv12/GluGlutoBulkGravitontoHHto4B_M-600_narrow_TuneCP5_13p6TeV_madgraph-pythia8/NANOAODSIM/130X_mcRun3_2022_realistic_postEE_v6-v3/2550000/76dd881c-9e99-40f5-a90c-7022f22602a4.root",
        "T2_DE_RWTH: davs://grid-webdav.physik.rwth-aachen.de:2889/store/mc/Run3Summer22EENanoAODv12/GluGlutoBulkGravitontoHHto4B_M-600_narrow_TuneCP5_13p6TeV_madgraph-pythia8/NANOAODSIM/130X_mcRun3_2022_realistic_postEE_v6-v3/2550000/76dd881c-9e99-40f5-a90c-7022f22602a4.root",
        "T0_CH_CERN_Tape: davs://eosctacms.cern.ch:8444//eos/ctacms/archive/cms/store/mc/Run3Summer22EENanoAODv12/GluGlutoBulkGravitontoHHto4B_M-600_narrow_TuneCP5_13p6TeV_madgraph-pythia8/NANOAODSIM/130X_mcRun3_2022_realistic_postEE_v6-v3/2550000/76dd881c-9e99-40f5-a90c-7022f22602a4.root",
        "T2_IN_TIFR: davs://se01.indiacms.res.in:443/dpm/indiacms.res.in/home/cms/store/mc/Run3Summer22EENanoAODv12/GluGlutoBulkGravitontoHHto4B_M-600_narrow_TuneCP5_13p6TeV_madgraph-pythia8/NANOAODSIM/130X_mcRun3_2022_realistic_postEE_v6-v3/2550000/76dd881c-9e99-40f5-a90c-7022f22602a4.root"
    ],
    "cms:/store/mc/Run3Summer22EENanoAODv12/GluGlutoBulkGravitontoHHto4B_M-600_narrow_TuneCP5_13p6TeV_madgraph-pythia8/NANOAODSIM/130X_mcRun3_2022_realistic_postEE_v6-v3/2550000/cddfd392-ddbf-48ba-ad77-bb11479a2fb6.root": [
        "T1_US_FNAL_Disk: davs://cmsdcadisk.fnal.gov:2880/dcache/uscmsdisk/store/mc/Run3Summer22EENanoAODv12/GluGlutoBulkGravitontoHHto4B_M-600_narrow_TuneCP5_13p6TeV_madgraph-pythia8/NANOAODSIM/130X_mcRun3_2022_realistic_postEE_v6-v3/2550000/cddfd392-ddbf-48ba-ad77-bb11479a2fb6.root",
        "T1_DE_KIT_Disk: davs://cmsdcache-kit-disk.gridka.de:2880/pnfs/gridka.de/cms/disk-only/store/mc/Run3Summer22EENanoAODv12/GluGlutoBulkGravitontoHHto4B_M-600_narrow_TuneCP5_13p6TeV_madgraph-pythia8/NANOAODSIM/130X_mcRun3_2022_realistic_postEE_v6-v3/2550000/cddfd392-ddbf-48ba-ad77-bb11479a2fb6.root",
        "T2_US_Florida: davs://cmsio2.rc.ufl.edu:1094/store/mc/Run3Summer22EENanoAODv12/GluGlutoBulkGravitontoHHto4B_M-600_narrow_TuneCP5_13p6TeV_madgraph-pythia8/NANOAODSIM/130X_mcRun3_2022_realistic_postEE_v6-v3/2550000/cddfd392-ddbf-48ba-ad77-bb11479a2fb6.root",
        "T2_UK_London_IC: davs://gfe02.grid.hep.ph.ic.ac.uk:2880/pnfs/hep.ph.ic.ac.uk/data/cms/store/mc/Run3Summer22EENanoAODv12/GluGlutoBulkGravitontoHHto4B_M-600_narrow_TuneCP5_13p6TeV_madgraph-pythia8/NANOAODSIM/130X_mcRun3_2022_realistic_postEE_v6-v3/2550000/cddfd392-ddbf-48ba-ad77-bb11479a2fb6.root",
        "T2_DE_RWTH: davs://grid-webdav.physik.rwth-aachen.de:2889/store/mc/Run3Summer22EENanoAODv12/GluGlutoBulkGravitontoHHto4B_M-600_narrow_TuneCP5_13p6TeV_madgraph-pythia8/NANOAODSIM/130X_mcRun3_2022_realistic_postEE_v6-v3/2550000/cddfd392-ddbf-48ba-ad77-bb11479a2fb6.root",
        "T0_CH_CERN_Tape: davs://eosctacms.cern.ch:8444//eos/ctacms/archive/cms/store/mc/Run3Summer22EENanoAODv12/GluGlutoBulkGravitontoHHto4B_M-600_narrow_TuneCP5_13p6TeV_madgraph-pythia8/NANOAODSIM/130X_mcRun3_2022_realistic_postEE_v6-v3/2550000/cddfd392-ddbf-48ba-ad77-bb11479a2fb6.root",
        "T2_IN_TIFR: davs://se01.indiacms.res.in:443/dpm/indiacms.res.in/home/cms/store/mc/Run3Summer22EENanoAODv12/GluGlutoBulkGravitontoHHto4B_M-600_narrow_TuneCP5_13p6TeV_madgraph-pythia8/NANOAODSIM/130X_mcRun3_2022_realistic_postEE_v6-v3/2550000/cddfd392-ddbf-48ba-ad77-bb11479a2fb6.root"
    ],
    "cms:/store/mc/Run3Summer22EENanoAODv12/GluGlutoBulkGravitontoHHto4B_M-600_narrow_TuneCP5_13p6TeV_madgraph-pythia8/NANOAODSIM/130X_mcRun3_2022_realistic_postEE_v6-v3/2550000/782ded1b-3664-41e2-9658-8acaa4b95650.root": [
        "T1_US_FNAL_Disk: davs://cmsdcadisk.fnal.gov:2880/dcache/uscmsdisk/store/mc/Run3Summer22EENanoAODv12/GluGlutoBulkGravitontoHHto4B_M-600_narrow_TuneCP5_13p6TeV_madgraph-pythia8/NANOAODSIM/130X_mcRun3_2022_realistic_postEE_v6-v3/2550000/782ded1b-3664-41e2-9658-8acaa4b95650.root",
        "T1_DE_KIT_Disk: davs://cmsdcache-kit-disk.gridka.de:2880/pnfs/gridka.de/cms/disk-only/store/mc/Run3Summer22EENanoAODv12/GluGlutoBulkGravitontoHHto4B_M-600_narrow_TuneCP5_13p6TeV_madgraph-pythia8/NANOAODSIM/130X_mcRun3_2022_realistic_postEE_v6-v3/2550000/782ded1b-3664-41e2-9658-8acaa4b95650.root",
        "T2_US_Florida: davs://cmsio2.rc.ufl.edu:1094/store/mc/Run3Summer22EENanoAODv12/GluGlutoBulkGravitontoHHto4B_M-600_narrow_TuneCP5_13p6TeV_madgraph-pythia8/NANOAODSIM/130X_mcRun3_2022_realistic_postEE_v6-v3/2550000/782ded1b-3664-41e2-9658-8acaa4b95650.root",
        "T2_UK_London_IC: davs://gfe02.grid.hep.ph.ic.ac.uk:2880/pnfs/hep.ph.ic.ac.uk/data/cms/store/mc/Run3Summer22EENanoAODv12/GluGlutoBulkGravitontoHHto4B_M-600_narrow_TuneCP5_13p6TeV_madgraph-pythia8/NANOAODSIM/130X_mcRun3_2022_realistic_postEE_v6-v3/2550000/782ded1b-3664-41e2-9658-8acaa4b95650.root",
        "T2_DE_RWTH: davs://grid-webdav.physik.rwth-aachen.de:2889/store/mc/Run3Summer22EENanoAODv12/GluGlutoBulkGravitontoHHto4B_M-600_narrow_TuneCP5_13p6TeV_madgraph-pythia8/NANOAODSIM/130X_mcRun3_2022_realistic_postEE_v6-v3/2550000/782ded1b-3664-41e2-9658-8acaa4b95650.root",
        "T0_CH_CERN_Tape: davs://eosctacms.cern.ch:8444//eos/ctacms/archive/cms/store/mc/Run3Summer22EENanoAODv12/GluGlutoBulkGravitontoHHto4B_M-600_narrow_TuneCP5_13p6TeV_madgraph-pythia8/NANOAODSIM/130X_mcRun3_2022_realistic_postEE_v6-v3/2550000/782ded1b-3664-41e2-9658-8acaa4b95650.root",
        "T2_IN_TIFR: davs://se01.indiacms.res.in:443/dpm/indiacms.res.in/home/cms/store/mc/Run3Summer22EENanoAODv12/GluGlutoBulkGravitontoHHto4B_M-600_narrow_TuneCP5_13p6TeV_madgraph-pythia8/NANOAODSIM/130X_mcRun3_2022_realistic_postEE_v6-v3/2550000/782ded1b-3664-41e2-9658-8acaa4b95650.root"
    ],
    "cms:/store/mc/Run3Summer22EENanoAODv12/GluGlutoBulkGravitontoHHto4B_M-600_narrow_TuneCP5_13p6TeV_madgraph-pythia8/NANOAODSIM/130X_mcRun3_2022_realistic_postEE_v6-v3/2550000/20146590-6aff-41be-b401-03342b4a6559.root": [
        "T1_US_FNAL_Disk: davs://cmsdcadisk.fnal.gov:2880/dcache/uscmsdisk/store/mc/Run3Summer22EENanoAODv12/GluGlutoBulkGravitontoHHto4B_M-600_narrow_TuneCP5_13p6TeV_madgraph-pythia8/NANOAODSIM/130X_mcRun3_2022_realistic_postEE_v6-v3/2550000/20146590-6aff-41be-b401-03342b4a6559.root",
        "T1_DE_KIT_Disk: davs://cmsdcache-kit-disk.gridka.de:2880/pnfs/gridka.de/cms/disk-only/store/mc/Run3Summer22EENanoAODv12/GluGlutoBulkGravitontoHHto4B_M-600_narrow_TuneCP5_13p6TeV_madgraph-pythia8/NANOAODSIM/130X_mcRun3_2022_realistic_postEE_v6-v3/2550000/20146590-6aff-41be-b401-03342b4a6559.root",
        "T2_US_Florida: davs://cmsio2.rc.ufl.edu:1094/store/mc/Run3Summer22EENanoAODv12/GluGlutoBulkGravitontoHHto4B_M-600_narrow_TuneCP5_13p6TeV_madgraph-pythia8/NANOAODSIM/130X_mcRun3_2022_realistic_postEE_v6-v3/2550000/20146590-6aff-41be-b401-03342b4a6559.root",
        "T2_UK_London_IC: davs://gfe02.grid.hep.ph.ic.ac.uk:2880/pnfs/hep.ph.ic.ac.uk/data/cms/store/mc/Run3Summer22EENanoAODv12/GluGlutoBulkGravitontoHHto4B_M-600_narrow_TuneCP5_13p6TeV_madgraph-pythia8/NANOAODSIM/130X_mcRun3_2022_realistic_postEE_v6-v3/2550000/20146590-6aff-41be-b401-03342b4a6559.root",
        "T2_DE_RWTH: davs://grid-webdav.physik.rwth-aachen.de:2889/store/mc/Run3Summer22EENanoAODv12/GluGlutoBulkGravitontoHHto4B_M-600_narrow_TuneCP5_13p6TeV_madgraph-pythia8/NANOAODSIM/130X_mcRun3_2022_realistic_postEE_v6-v3/2550000/20146590-6aff-41be-b401-03342b4a6559.root",
        "T0_CH_CERN_Tape: davs://eosctacms.cern.ch:8444//eos/ctacms/archive/cms/store/mc/Run3Summer22EENanoAODv12/GluGlutoBulkGravitontoHHto4B_M-600_narrow_TuneCP5_13p6TeV_madgraph-pythia8/NANOAODSIM/130X_mcRun3_2022_realistic_postEE_v6-v3/2550000/20146590-6aff-41be-b401-03342b4a6559.root",
        "T2_IN_TIFR: davs://se01.indiacms.res.in:443/dpm/indiacms.res.in/home/cms/store/mc/Run3Summer22EENanoAODv12/GluGlutoBulkGravitontoHHto4B_M-600_narrow_TuneCP5_13p6TeV_madgraph-pythia8/NANOAODSIM/130X_mcRun3_2022_realistic_postEE_v6-v3/2550000/20146590-6aff-41be-b401-03342b4a6559.root"
    ],
    "cms:/store/mc/Run3Summer22EENanoAODv12/GluGlutoBulkGravitontoHHto4B_M-600_narrow_TuneCP5_13p6TeV_madgraph-pythia8/NANOAODSIM/130X_mcRun3_2022_realistic_postEE_v6-v3/2550000/2b95244b-db75-4ff5-a516-9996bfdf1009.root": [
        "T1_US_FNAL_Disk: davs://cmsdcadisk.fnal.gov:2880/dcache/uscmsdisk/store/mc/Run3Summer22EENanoAODv12/GluGlutoBulkGravitontoHHto4B_M-600_narrow_TuneCP5_13p6TeV_madgraph-pythia8/NANOAODSIM/130X_mcRun3_2022_realistic_postEE_v6-v3/2550000/2b95244b-db75-4ff5-a516-9996bfdf1009.root",
        "T1_DE_KIT_Disk: davs://cmsdcache-kit-disk.gridka.de:2880/pnfs/gridka.de/cms/disk-only/store/mc/Run3Summer22EENanoAODv12/GluGlutoBulkGravitontoHHto4B_M-600_narrow_TuneCP5_13p6TeV_madgraph-pythia8/NANOAODSIM/130X_mcRun3_2022_realistic_postEE_v6-v3/2550000/2b95244b-db75-4ff5-a516-9996bfdf1009.root",
        "T2_US_Florida: davs://cmsio2.rc.ufl.edu:1094/store/mc/Run3Summer22EENanoAODv12/GluGlutoBulkGravitontoHHto4B_M-600_narrow_TuneCP5_13p6TeV_madgraph-pythia8/NANOAODSIM/130X_mcRun3_2022_realistic_postEE_v6-v3/2550000/2b95244b-db75-4ff5-a516-9996bfdf1009.root",
        "T2_UK_London_IC: davs://gfe02.grid.hep.ph.ic.ac.uk:2880/pnfs/hep.ph.ic.ac.uk/data/cms/store/mc/Run3Summer22EENanoAODv12/GluGlutoBulkGravitontoHHto4B_M-600_narrow_TuneCP5_13p6TeV_madgraph-pythia8/NANOAODSIM/130X_mcRun3_2022_realistic_postEE_v6-v3/2550000/2b95244b-db75-4ff5-a516-9996bfdf1009.root",
        "T2_DE_RWTH: davs://grid-webdav.physik.rwth-aachen.de:2889/store/mc/Run3Summer22EENanoAODv12/GluGlutoBulkGravitontoHHto4B_M-600_narrow_TuneCP5_13p6TeV_madgraph-pythia8/NANOAODSIM/130X_mcRun3_2022_realistic_postEE_v6-v3/2550000/2b95244b-db75-4ff5-a516-9996bfdf1009.root",
        "T0_CH_CERN_Tape: davs://eosctacms.cern.ch:8444//eos/ctacms/archive/cms/store/mc/Run3Summer22EENanoAODv12/GluGlutoBulkGravitontoHHto4B_M-600_narrow_TuneCP5_13p6TeV_madgraph-pythia8/NANOAODSIM/130X_mcRun3_2022_realistic_postEE_v6-v3/2550000/2b95244b-db75-4ff5-a516-9996bfdf1009.root",
        "T2_IN_TIFR: davs://se01.indiacms.res.in:443/dpm/indiacms.res.in/home/cms/store/mc/Run3Summer22EENanoAODv12/GluGlutoBulkGravitontoHHto4B_M-600_narrow_TuneCP5_13p6TeV_madgraph-pythia8/NANOAODSIM/130X_mcRun3_2022_realistic_postEE_v6-v3/2550000/2b95244b-db75-4ff5-a516-9996bfdf1009.root"
    ],
    "cms:/store/mc/Run3Summer22EENanoAODv12/GluGlutoBulkGravitontoHHto4B_M-600_narrow_TuneCP5_13p6TeV_madgraph-pythia8/NANOAODSIM/130X_mcRun3_2022_realistic_postEE_v6-v3/2550000/c41e54a7-d889-4d8b-974e-fdf29d18d018.root": [
        "T2_CH_CSCS: davs://storage01.lcg.cscs.ch:2880/pnfs/lcg.cscs.ch/cms/trivcat/store/mc/Run3Summer22EENanoAODv12/GluGlutoBulkGravitontoHHto4B_M-600_narrow_TuneCP5_13p6TeV_madgraph-pythia8/NANOAODSIM/130X_mcRun3_2022_realistic_postEE_v6-v3/2550000/c41e54a7-d889-4d8b-974e-fdf29d18d018.root",
        "T2_FR_GRIF: davs://eos.grif.fr:11000/eos/grif/cms/grif/store/mc/Run3Summer22EENanoAODv12/GluGlutoBulkGravitontoHHto4B_M-600_narrow_TuneCP5_13p6TeV_madgraph-pythia8/NANOAODSIM/130X_mcRun3_2022_realistic_postEE_v6-v3/2550000/c41e54a7-d889-4d8b-974e-fdf29d18d018.root",
        "T2_US_Vanderbilt: davs://xrootd-vanderbilt.sites.opensciencegrid.org:1094/store/mc/Run3Summer22EENanoAODv12/GluGlutoBulkGravitontoHHto4B_M-600_narrow_TuneCP5_13p6TeV_madgraph-pythia8/NANOAODSIM/130X_mcRun3_2022_realistic_postEE_v6-v3/2550000/c41e54a7-d889-4d8b-974e-fdf29d18d018.root",
        "T2_FI_HIP: davs://hip-cms-se.csc.fi:2880/store/mc/Run3Summer22EENanoAODv12/GluGlutoBulkGravitontoHHto4B_M-600_narrow_TuneCP5_13p6TeV_madgraph-pythia8/NANOAODSIM/130X_mcRun3_2022_realistic_postEE_v6-v3/2550000/c41e54a7-d889-4d8b-974e-fdf29d18d018.root",
        "T2_BR_SPRACE: davs://osg-se.sprace.org.br:1094/store/mc/Run3Summer22EENanoAODv12/GluGlutoBulkGravitontoHHto4B_M-600_narrow_TuneCP5_13p6TeV_madgraph-pythia8/NANOAODSIM/130X_mcRun3_2022_realistic_postEE_v6-v3/2550000/c41e54a7-d889-4d8b-974e-fdf29d18d018.root",
        "T2_DE_RWTH: davs://grid-webdav.physik.rwth-aachen.de:2889/store/mc/Run3Summer22EENanoAODv12/GluGlutoBulkGravitontoHHto4B_M-600_narrow_TuneCP5_13p6TeV_madgraph-pythia8/NANOAODSIM/130X_mcRun3_2022_realistic_postEE_v6-v3/2550000/c41e54a7-d889-4d8b-974e-fdf29d18d018.root",
        "T0_CH_CERN_Tape: davs://eosctacms.cern.ch:8444//eos/ctacms/archive/cms/store/mc/Run3Summer22EENanoAODv12/GluGlutoBulkGravitontoHHto4B_M-600_narrow_TuneCP5_13p6TeV_madgraph-pythia8/NANOAODSIM/130X_mcRun3_2022_realistic_postEE_v6-v3/2550000/c41e54a7-d889-4d8b-974e-fdf29d18d018.root"
    ],
    "cms:/store/mc/Run3Summer22EENanoAODv12/GluGlutoBulkGravitontoHHto4B_M-600_narrow_TuneCP5_13p6TeV_madgraph-pythia8/NANOAODSIM/130X_mcRun3_2022_realistic_postEE_v6-v3/2550000/c6cb8a97-3f46-44f2-b406-938756836eeb.root": [
        "T1_US_FNAL_Disk: davs://cmsdcadisk.fnal.gov:2880/dcache/uscmsdisk/store/mc/Run3Summer22EENanoAODv12/GluGlutoBulkGravitontoHHto4B_M-600_narrow_TuneCP5_13p6TeV_madgraph-pythia8/NANOAODSIM/130X_mcRun3_2022_realistic_postEE_v6-v3/2550000/c6cb8a97-3f46-44f2-b406-938756836eeb.root",
        "T1_DE_KIT_Disk: davs://cmsdcache-kit-disk.gridka.de:2880/pnfs/gridka.de/cms/disk-only/store/mc/Run3Summer22EENanoAODv12/GluGlutoBulkGravitontoHHto4B_M-600_narrow_TuneCP5_13p6TeV_madgraph-pythia8/NANOAODSIM/130X_mcRun3_2022_realistic_postEE_v6-v3/2550000/c6cb8a97-3f46-44f2-b406-938756836eeb.root",
        "T2_US_Florida: davs://cmsio2.rc.ufl.edu:1094/store/mc/Run3Summer22EENanoAODv12/GluGlutoBulkGravitontoHHto4B_M-600_narrow_TuneCP5_13p6TeV_madgraph-pythia8/NANOAODSIM/130X_mcRun3_2022_realistic_postEE_v6-v3/2550000/c6cb8a97-3f46-44f2-b406-938756836eeb.root",
        "T2_UK_London_IC: davs://gfe02.grid.hep.ph.ic.ac.uk:2880/pnfs/hep.ph.ic.ac.uk/data/cms/store/mc/Run3Summer22EENanoAODv12/GluGlutoBulkGravitontoHHto4B_M-600_narrow_TuneCP5_13p6TeV_madgraph-pythia8/NANOAODSIM/130X_mcRun3_2022_realistic_postEE_v6-v3/2550000/c6cb8a97-3f46-44f2-b406-938756836eeb.root",
        "T2_DE_RWTH: davs://grid-webdav.physik.rwth-aachen.de:2889/store/mc/Run3Summer22EENanoAODv12/GluGlutoBulkGravitontoHHto4B_M-600_narrow_TuneCP5_13p6TeV_madgraph-pythia8/NANOAODSIM/130X_mcRun3_2022_realistic_postEE_v6-v3/2550000/c6cb8a97-3f46-44f2-b406-938756836eeb.root",
        "T0_CH_CERN_Tape: davs://eosctacms.cern.ch:8444//eos/ctacms/archive/cms/store/mc/Run3Summer22EENanoAODv12/GluGlutoBulkGravitontoHHto4B_M-600_narrow_TuneCP5_13p6TeV_madgraph-pythia8/NANOAODSIM/130X_mcRun3_2022_realistic_postEE_v6-v3/2550000/c6cb8a97-3f46-44f2-b406-938756836eeb.root",
        "T2_IN_TIFR: davs://se01.indiacms.res.in:443/dpm/indiacms.res.in/home/cms/store/mc/Run3Summer22EENanoAODv12/GluGlutoBulkGravitontoHHto4B_M-600_narrow_TuneCP5_13p6TeV_madgraph-pythia8/NANOAODSIM/130X_mcRun3_2022_realistic_postEE_v6-v3/2550000/c6cb8a97-3f46-44f2-b406-938756836eeb.root"
    ],
    "cms:/store/mc/Run3Summer22EENanoAODv12/GluGlutoBulkGravitontoHHto4B_M-600_narrow_TuneCP5_13p6TeV_madgraph-pythia8/NANOAODSIM/130X_mcRun3_2022_realistic_postEE_v6-v3/2550000/886938fc-5565-439c-847e-23d024def7c4.root": [
        "T1_US_FNAL_Disk: davs://cmsdcadisk.fnal.gov:2880/dcache/uscmsdisk/store/mc/Run3Summer22EENanoAODv12/GluGlutoBulkGravitontoHHto4B_M-600_narrow_TuneCP5_13p6TeV_madgraph-pythia8/NANOAODSIM/130X_mcRun3_2022_realistic_postEE_v6-v3/2550000/886938fc-5565-439c-847e-23d024def7c4.root",
        "T1_DE_KIT_Disk: davs://cmsdcache-kit-disk.gridka.de:2880/pnfs/gridka.de/cms/disk-only/store/mc/Run3Summer22EENanoAODv12/GluGlutoBulkGravitontoHHto4B_M-600_narrow_TuneCP5_13p6TeV_madgraph-pythia8/NANOAODSIM/130X_mcRun3_2022_realistic_postEE_v6-v3/2550000/886938fc-5565-439c-847e-23d024def7c4.root",
        "T2_US_Florida: davs://cmsio2.rc.ufl.edu:1094/store/mc/Run3Summer22EENanoAODv12/GluGlutoBulkGravitontoHHto4B_M-600_narrow_TuneCP5_13p6TeV_madgraph-pythia8/NANOAODSIM/130X_mcRun3_2022_realistic_postEE_v6-v3/2550000/886938fc-5565-439c-847e-23d024def7c4.root",
        "T2_UK_London_IC: davs://gfe02.grid.hep.ph.ic.ac.uk:2880/pnfs/hep.ph.ic.ac.uk/data/cms/store/mc/Run3Summer22EENanoAODv12/GluGlutoBulkGravitontoHHto4B_M-600_narrow_TuneCP5_13p6TeV_madgraph-pythia8/NANOAODSIM/130X_mcRun3_2022_realistic_postEE_v6-v3/2550000/886938fc-5565-439c-847e-23d024def7c4.root",
        "T2_DE_RWTH: davs://grid-webdav.physik.rwth-aachen.de:2889/store/mc/Run3Summer22EENanoAODv12/GluGlutoBulkGravitontoHHto4B_M-600_narrow_TuneCP5_13p6TeV_madgraph-pythia8/NANOAODSIM/130X_mcRun3_2022_realistic_postEE_v6-v3/2550000/886938fc-5565-439c-847e-23d024def7c4.root",
        "T0_CH_CERN_Tape: davs://eosctacms.cern.ch:8444//eos/ctacms/archive/cms/store/mc/Run3Summer22EENanoAODv12/GluGlutoBulkGravitontoHHto4B_M-600_narrow_TuneCP5_13p6TeV_madgraph-pythia8/NANOAODSIM/130X_mcRun3_2022_realistic_postEE_v6-v3/2550000/886938fc-5565-439c-847e-23d024def7c4.root",
        "T2_IN_TIFR: davs://se01.indiacms.res.in:443/dpm/indiacms.res.in/home/cms/store/mc/Run3Summer22EENanoAODv12/GluGlutoBulkGravitontoHHto4B_M-600_narrow_TuneCP5_13p6TeV_madgraph-pythia8/NANOAODSIM/130X_mcRun3_2022_realistic_postEE_v6-v3/2550000/886938fc-5565-439c-847e-23d024def7c4.root"
    ],
    "cms:/store/mc/Run3Summer22EENanoAODv12/GluGlutoBulkGravitontoHHto4B_M-600_narrow_TuneCP5_13p6TeV_madgraph-pythia8/NANOAODSIM/130X_mcRun3_2022_realistic_postEE_v6-v3/2550000/89afe00a-6e1e-4dba-8b38-44fea359de3c.root": [
        "T1_US_FNAL_Disk: davs://cmsdcadisk.fnal.gov:2880/dcache/uscmsdisk/store/mc/Run3Summer22EENanoAODv12/GluGlutoBulkGravitontoHHto4B_M-600_narrow_TuneCP5_13p6TeV_madgraph-pythia8/NANOAODSIM/130X_mcRun3_2022_realistic_postEE_v6-v3/2550000/89afe00a-6e1e-4dba-8b38-44fea359de3c.root",
        "T1_DE_KIT_Disk: davs://cmsdcache-kit-disk.gridka.de:2880/pnfs/gridka.de/cms/disk-only/store/mc/Run3Summer22EENanoAODv12/GluGlutoBulkGravitontoHHto4B_M-600_narrow_TuneCP5_13p6TeV_madgraph-pythia8/NANOAODSIM/130X_mcRun3_2022_realistic_postEE_v6-v3/2550000/89afe00a-6e1e-4dba-8b38-44fea359de3c.root",
        "T2_US_Florida: davs://cmsio2.rc.ufl.edu:1094/store/mc/Run3Summer22EENanoAODv12/GluGlutoBulkGravitontoHHto4B_M-600_narrow_TuneCP5_13p6TeV_madgraph-pythia8/NANOAODSIM/130X_mcRun3_2022_realistic_postEE_v6-v3/2550000/89afe00a-6e1e-4dba-8b38-44fea359de3c.root",
        "T2_UK_London_IC: davs://gfe02.grid.hep.ph.ic.ac.uk:2880/pnfs/hep.ph.ic.ac.uk/data/cms/store/mc/Run3Summer22EENanoAODv12/GluGlutoBulkGravitontoHHto4B_M-600_narrow_TuneCP5_13p6TeV_madgraph-pythia8/NANOAODSIM/130X_mcRun3_2022_realistic_postEE_v6-v3/2550000/89afe00a-6e1e-4dba-8b38-44fea359de3c.root",
        "T2_DE_RWTH: davs://grid-webdav.physik.rwth-aachen.de:2889/store/mc/Run3Summer22EENanoAODv12/GluGlutoBulkGravitontoHHto4B_M-600_narrow_TuneCP5_13p6TeV_madgraph-pythia8/NANOAODSIM/130X_mcRun3_2022_realistic_postEE_v6-v3/2550000/89afe00a-6e1e-4dba-8b38-44fea359de3c.root",
        "T0_CH_CERN_Tape: davs://eosctacms.cern.ch:8444//eos/ctacms/archive/cms/store/mc/Run3Summer22EENanoAODv12/GluGlutoBulkGravitontoHHto4B_M-600_narrow_TuneCP5_13p6TeV_madgraph-pythia8/NANOAODSIM/130X_mcRun3_2022_realistic_postEE_v6-v3/2550000/89afe00a-6e1e-4dba-8b38-44fea359de3c.root",
        "T2_IN_TIFR: davs://se01.indiacms.res.in:443/dpm/indiacms.res.in/home/cms/store/mc/Run3Summer22EENanoAODv12/GluGlutoBulkGravitontoHHto4B_M-600_narrow_TuneCP5_13p6TeV_madgraph-pythia8/NANOAODSIM/130X_mcRun3_2022_realistic_postEE_v6-v3/2550000/89afe00a-6e1e-4dba-8b38-44fea359de3c.root"
    ],
    "cms:/store/mc/Run3Summer22EENanoAODv12/GluGlutoBulkGravitontoHHto4B_M-600_narrow_TuneCP5_13p6TeV_madgraph-pythia8/NANOAODSIM/130X_mcRun3_2022_realistic_postEE_v6-v3/2550000/1c93e5cb-8085-4dd4-897c-7055f6688507.root": [
        "T1_US_FNAL_Disk: davs://cmsdcadisk.fnal.gov:2880/dcache/uscmsdisk/store/mc/Run3Summer22EENanoAODv12/GluGlutoBulkGravitontoHHto4B_M-600_narrow_TuneCP5_13p6TeV_madgraph-pythia8/NANOAODSIM/130X_mcRun3_2022_realistic_postEE_v6-v3/2550000/1c93e5cb-8085-4dd4-897c-7055f6688507.root",
        "T1_DE_KIT_Disk: davs://cmsdcache-kit-disk.gridka.de:2880/pnfs/gridka.de/cms/disk-only/store/mc/Run3Summer22EENanoAODv12/GluGlutoBulkGravitontoHHto4B_M-600_narrow_TuneCP5_13p6TeV_madgraph-pythia8/NANOAODSIM/130X_mcRun3_2022_realistic_postEE_v6-v3/2550000/1c93e5cb-8085-4dd4-897c-7055f6688507.root",
        "T2_US_Florida: davs://cmsio2.rc.ufl.edu:1094/store/mc/Run3Summer22EENanoAODv12/GluGlutoBulkGravitontoHHto4B_M-600_narrow_TuneCP5_13p6TeV_madgraph-pythia8/NANOAODSIM/130X_mcRun3_2022_realistic_postEE_v6-v3/2550000/1c93e5cb-8085-4dd4-897c-7055f6688507.root",
        "T2_UK_London_IC: davs://gfe02.grid.hep.ph.ic.ac.uk:2880/pnfs/hep.ph.ic.ac.uk/data/cms/store/mc/Run3Summer22EENanoAODv12/GluGlutoBulkGravitontoHHto4B_M-600_narrow_TuneCP5_13p6TeV_madgraph-pythia8/NANOAODSIM/130X_mcRun3_2022_realistic_postEE_v6-v3/2550000/1c93e5cb-8085-4dd4-897c-7055f6688507.root",
        "T2_DE_RWTH: davs://grid-webdav.physik.rwth-aachen.de:2889/store/mc/Run3Summer22EENanoAODv12/GluGlutoBulkGravitontoHHto4B_M-600_narrow_TuneCP5_13p6TeV_madgraph-pythia8/NANOAODSIM/130X_mcRun3_2022_realistic_postEE_v6-v3/2550000/1c93e5cb-8085-4dd4-897c-7055f6688507.root",
        "T0_CH_CERN_Tape: davs://eosctacms.cern.ch:8444//eos/ctacms/archive/cms/store/mc/Run3Summer22EENanoAODv12/GluGlutoBulkGravitontoHHto4B_M-600_narrow_TuneCP5_13p6TeV_madgraph-pythia8/NANOAODSIM/130X_mcRun3_2022_realistic_postEE_v6-v3/2550000/1c93e5cb-8085-4dd4-897c-7055f6688507.root",
        "T2_IN_TIFR: davs://se01.indiacms.res.in:443/dpm/indiacms.res.in/home/cms/store/mc/Run3Summer22EENanoAODv12/GluGlutoBulkGravitontoHHto4B_M-600_narrow_TuneCP5_13p6TeV_madgraph-pythia8/NANOAODSIM/130X_mcRun3_2022_realistic_postEE_v6-v3/2550000/1c93e5cb-8085-4dd4-897c-7055f6688507.root"
    ],
    "cms:/store/mc/Run3Summer22EENanoAODv12/GluGlutoBulkGravitontoHHto4B_M-600_narrow_TuneCP5_13p6TeV_madgraph-pythia8/NANOAODSIM/130X_mcRun3_2022_realistic_postEE_v6-v3/2550000/907405c9-85fa-4ceb-aba3-d2826aca02b9.root": [
        "T1_US_FNAL_Disk: davs://cmsdcadisk.fnal.gov:2880/dcache/uscmsdisk/store/mc/Run3Summer22EENanoAODv12/GluGlutoBulkGravitontoHHto4B_M-600_narrow_TuneCP5_13p6TeV_madgraph-pythia8/NANOAODSIM/130X_mcRun3_2022_realistic_postEE_v6-v3/2550000/907405c9-85fa-4ceb-aba3-d2826aca02b9.root",
        "T1_DE_KIT_Disk: davs://cmsdcache-kit-disk.gridka.de:2880/pnfs/gridka.de/cms/disk-only/store/mc/Run3Summer22EENanoAODv12/GluGlutoBulkGravitontoHHto4B_M-600_narrow_TuneCP5_13p6TeV_madgraph-pythia8/NANOAODSIM/130X_mcRun3_2022_realistic_postEE_v6-v3/2550000/907405c9-85fa-4ceb-aba3-d2826aca02b9.root",
        "T2_US_Florida: davs://cmsio2.rc.ufl.edu:1094/store/mc/Run3Summer22EENanoAODv12/GluGlutoBulkGravitontoHHto4B_M-600_narrow_TuneCP5_13p6TeV_madgraph-pythia8/NANOAODSIM/130X_mcRun3_2022_realistic_postEE_v6-v3/2550000/907405c9-85fa-4ceb-aba3-d2826aca02b9.root",
        "T2_UK_London_IC: davs://gfe02.grid.hep.ph.ic.ac.uk:2880/pnfs/hep.ph.ic.ac.uk/data/cms/store/mc/Run3Summer22EENanoAODv12/GluGlutoBulkGravitontoHHto4B_M-600_narrow_TuneCP5_13p6TeV_madgraph-pythia8/NANOAODSIM/130X_mcRun3_2022_realistic_postEE_v6-v3/2550000/907405c9-85fa-4ceb-aba3-d2826aca02b9.root",
        "T2_DE_RWTH: davs://grid-webdav.physik.rwth-aachen.de:2889/store/mc/Run3Summer22EENanoAODv12/GluGlutoBulkGravitontoHHto4B_M-600_narrow_TuneCP5_13p6TeV_madgraph-pythia8/NANOAODSIM/130X_mcRun3_2022_realistic_postEE_v6-v3/2550000/907405c9-85fa-4ceb-aba3-d2826aca02b9.root",
        "T0_CH_CERN_Tape: davs://eosctacms.cern.ch:8444//eos/ctacms/archive/cms/store/mc/Run3Summer22EENanoAODv12/GluGlutoBulkGravitontoHHto4B_M-600_narrow_TuneCP5_13p6TeV_madgraph-pythia8/NANOAODSIM/130X_mcRun3_2022_realistic_postEE_v6-v3/2550000/907405c9-85fa-4ceb-aba3-d2826aca02b9.root",
        "T2_IN_TIFR: davs://se01.indiacms.res.in:443/dpm/indiacms.res.in/home/cms/store/mc/Run3Summer22EENanoAODv12/GluGlutoBulkGravitontoHHto4B_M-600_narrow_TuneCP5_13p6TeV_madgraph-pythia8/NANOAODSIM/130X_mcRun3_2022_realistic_postEE_v6-v3/2550000/907405c9-85fa-4ceb-aba3-d2826aca02b9.root"
    ],
    "cms:/store/mc/Run3Summer22EENanoAODv12/GluGlutoBulkGravitontoHHto4B_M-600_narrow_TuneCP5_13p6TeV_madgraph-pythia8/NANOAODSIM/130X_mcRun3_2022_realistic_postEE_v6-v3/2550000/05b003aa-4ad2-49fe-b7a9-2447533ce184.root": [
        "T1_US_FNAL_Disk: davs://cmsdcadisk.fnal.gov:2880/dcache/uscmsdisk/store/mc/Run3Summer22EENanoAODv12/GluGlutoBulkGravitontoHHto4B_M-600_narrow_TuneCP5_13p6TeV_madgraph-pythia8/NANOAODSIM/130X_mcRun3_2022_realistic_postEE_v6-v3/2550000/05b003aa-4ad2-49fe-b7a9-2447533ce184.root",
        "T1_DE_KIT_Disk: davs://cmsdcache-kit-disk.gridka.de:2880/pnfs/gridka.de/cms/disk-only/store/mc/Run3Summer22EENanoAODv12/GluGlutoBulkGravitontoHHto4B_M-600_narrow_TuneCP5_13p6TeV_madgraph-pythia8/NANOAODSIM/130X_mcRun3_2022_realistic_postEE_v6-v3/2550000/05b003aa-4ad2-49fe-b7a9-2447533ce184.root",
        "T2_US_Florida: davs://cmsio2.rc.ufl.edu:1094/store/mc/Run3Summer22EENanoAODv12/GluGlutoBulkGravitontoHHto4B_M-600_narrow_TuneCP5_13p6TeV_madgraph-pythia8/NANOAODSIM/130X_mcRun3_2022_realistic_postEE_v6-v3/2550000/05b003aa-4ad2-49fe-b7a9-2447533ce184.root",
        "T2_UK_London_IC: davs://gfe02.grid.hep.ph.ic.ac.uk:2880/pnfs/hep.ph.ic.ac.uk/data/cms/store/mc/Run3Summer22EENanoAODv12/GluGlutoBulkGravitontoHHto4B_M-600_narrow_TuneCP5_13p6TeV_madgraph-pythia8/NANOAODSIM/130X_mcRun3_2022_realistic_postEE_v6-v3/2550000/05b003aa-4ad2-49fe-b7a9-2447533ce184.root",
        "T2_DE_RWTH: davs://grid-webdav.physik.rwth-aachen.de:2889/store/mc/Run3Summer22EENanoAODv12/GluGlutoBulkGravitontoHHto4B_M-600_narrow_TuneCP5_13p6TeV_madgraph-pythia8/NANOAODSIM/130X_mcRun3_2022_realistic_postEE_v6-v3/2550000/05b003aa-4ad2-49fe-b7a9-2447533ce184.root",
        "T0_CH_CERN_Tape: davs://eosctacms.cern.ch:8444//eos/ctacms/archive/cms/store/mc/Run3Summer22EENanoAODv12/GluGlutoBulkGravitontoHHto4B_M-600_narrow_TuneCP5_13p6TeV_madgraph-pythia8/NANOAODSIM/130X_mcRun3_2022_realistic_postEE_v6-v3/2550000/05b003aa-4ad2-49fe-b7a9-2447533ce184.root",
        "T2_IN_TIFR: davs://se01.indiacms.res.in:443/dpm/indiacms.res.in/home/cms/store/mc/Run3Summer22EENanoAODv12/GluGlutoBulkGravitontoHHto4B_M-600_narrow_TuneCP5_13p6TeV_madgraph-pythia8/NANOAODSIM/130X_mcRun3_2022_realistic_postEE_v6-v3/2550000/05b003aa-4ad2-49fe-b7a9-2447533ce184.root"
    ],
    "cms:/store/mc/Run3Summer22EENanoAODv12/GluGlutoBulkGravitontoHHto4B_M-600_narrow_TuneCP5_13p6TeV_madgraph-pythia8/NANOAODSIM/130X_mcRun3_2022_realistic_postEE_v6-v3/2550000/3fb07749-1bc5-4d23-b0a3-21401fe432c6.root": [
        "T1_US_FNAL_Disk: davs://cmsdcadisk.fnal.gov:2880/dcache/uscmsdisk/store/mc/Run3Summer22EENanoAODv12/GluGlutoBulkGravitontoHHto4B_M-600_narrow_TuneCP5_13p6TeV_madgraph-pythia8/NANOAODSIM/130X_mcRun3_2022_realistic_postEE_v6-v3/2550000/3fb07749-1bc5-4d23-b0a3-21401fe432c6.root",
        "T1_DE_KIT_Disk: davs://cmsdcache-kit-disk.gridka.de:2880/pnfs/gridka.de/cms/disk-only/store/mc/Run3Summer22EENanoAODv12/GluGlutoBulkGravitontoHHto4B_M-600_narrow_TuneCP5_13p6TeV_madgraph-pythia8/NANOAODSIM/130X_mcRun3_2022_realistic_postEE_v6-v3/2550000/3fb07749-1bc5-4d23-b0a3-21401fe432c6.root",
        "T2_US_Florida: davs://cmsio2.rc.ufl.edu:1094/store/mc/Run3Summer22EENanoAODv12/GluGlutoBulkGravitontoHHto4B_M-600_narrow_TuneCP5_13p6TeV_madgraph-pythia8/NANOAODSIM/130X_mcRun3_2022_realistic_postEE_v6-v3/2550000/3fb07749-1bc5-4d23-b0a3-21401fe432c6.root",
        "T2_UK_London_IC: davs://gfe02.grid.hep.ph.ic.ac.uk:2880/pnfs/hep.ph.ic.ac.uk/data/cms/store/mc/Run3Summer22EENanoAODv12/GluGlutoBulkGravitontoHHto4B_M-600_narrow_TuneCP5_13p6TeV_madgraph-pythia8/NANOAODSIM/130X_mcRun3_2022_realistic_postEE_v6-v3/2550000/3fb07749-1bc5-4d23-b0a3-21401fe432c6.root",
        "T2_DE_RWTH: davs://grid-webdav.physik.rwth-aachen.de:2889/store/mc/Run3Summer22EENanoAODv12/GluGlutoBulkGravitontoHHto4B_M-600_narrow_TuneCP5_13p6TeV_madgraph-pythia8/NANOAODSIM/130X_mcRun3_2022_realistic_postEE_v6-v3/2550000/3fb07749-1bc5-4d23-b0a3-21401fe432c6.root",
        "T0_CH_CERN_Tape: davs://eosctacms.cern.ch:8444//eos/ctacms/archive/cms/store/mc/Run3Summer22EENanoAODv12/GluGlutoBulkGravitontoHHto4B_M-600_narrow_TuneCP5_13p6TeV_madgraph-pythia8/NANOAODSIM/130X_mcRun3_2022_realistic_postEE_v6-v3/2550000/3fb07749-1bc5-4d23-b0a3-21401fe432c6.root",
        "T2_IN_TIFR: davs://se01.indiacms.res.in:443/dpm/indiacms.res.in/home/cms/store/mc/Run3Summer22EENanoAODv12/GluGlutoBulkGravitontoHHto4B_M-600_narrow_TuneCP5_13p6TeV_madgraph-pythia8/NANOAODSIM/130X_mcRun3_2022_realistic_postEE_v6-v3/2550000/3fb07749-1bc5-4d23-b0a3-21401fe432c6.root"
    ],
    "cms:/store/mc/Run3Summer22EENanoAODv12/GluGlutoBulkGravitontoHHto4B_M-600_narrow_TuneCP5_13p6TeV_madgraph-pythia8/NANOAODSIM/130X_mcRun3_2022_realistic_postEE_v6-v3/2550000/0d2cefcc-4dab-4757-a364-b0a788f54ab2.root": [
        "T1_US_FNAL_Disk: davs://cmsdcadisk.fnal.gov:2880/dcache/uscmsdisk/store/mc/Run3Summer22EENanoAODv12/GluGlutoBulkGravitontoHHto4B_M-600_narrow_TuneCP5_13p6TeV_madgraph-pythia8/NANOAODSIM/130X_mcRun3_2022_realistic_postEE_v6-v3/2550000/0d2cefcc-4dab-4757-a364-b0a788f54ab2.root",
        "T1_DE_KIT_Disk: davs://cmsdcache-kit-disk.gridka.de:2880/pnfs/gridka.de/cms/disk-only/store/mc/Run3Summer22EENanoAODv12/GluGlutoBulkGravitontoHHto4B_M-600_narrow_TuneCP5_13p6TeV_madgraph-pythia8/NANOAODSIM/130X_mcRun3_2022_realistic_postEE_v6-v3/2550000/0d2cefcc-4dab-4757-a364-b0a788f54ab2.root",
        "T2_US_Florida: davs://cmsio2.rc.ufl.edu:1094/store/mc/Run3Summer22EENanoAODv12/GluGlutoBulkGravitontoHHto4B_M-600_narrow_TuneCP5_13p6TeV_madgraph-pythia8/NANOAODSIM/130X_mcRun3_2022_realistic_postEE_v6-v3/2550000/0d2cefcc-4dab-4757-a364-b0a788f54ab2.root",
        "T2_UK_London_IC: davs://gfe02.grid.hep.ph.ic.ac.uk:2880/pnfs/hep.ph.ic.ac.uk/data/cms/store/mc/Run3Summer22EENanoAODv12/GluGlutoBulkGravitontoHHto4B_M-600_narrow_TuneCP5_13p6TeV_madgraph-pythia8/NANOAODSIM/130X_mcRun3_2022_realistic_postEE_v6-v3/2550000/0d2cefcc-4dab-4757-a364-b0a788f54ab2.root",
        "T2_DE_RWTH: davs://grid-webdav.physik.rwth-aachen.de:2889/store/mc/Run3Summer22EENanoAODv12/GluGlutoBulkGravitontoHHto4B_M-600_narrow_TuneCP5_13p6TeV_madgraph-pythia8/NANOAODSIM/130X_mcRun3_2022_realistic_postEE_v6-v3/2550000/0d2cefcc-4dab-4757-a364-b0a788f54ab2.root",
        "T0_CH_CERN_Tape: davs://eosctacms.cern.ch:8444//eos/ctacms/archive/cms/store/mc/Run3Summer22EENanoAODv12/GluGlutoBulkGravitontoHHto4B_M-600_narrow_TuneCP5_13p6TeV_madgraph-pythia8/NANOAODSIM/130X_mcRun3_2022_realistic_postEE_v6-v3/2550000/0d2cefcc-4dab-4757-a364-b0a788f54ab2.root",
        "T2_IN_TIFR: davs://se01.indiacms.res.in:443/dpm/indiacms.res.in/home/cms/store/mc/Run3Summer22EENanoAODv12/GluGlutoBulkGravitontoHHto4B_M-600_narrow_TuneCP5_13p6TeV_madgraph-pythia8/NANOAODSIM/130X_mcRun3_2022_realistic_postEE_v6-v3/2550000/0d2cefcc-4dab-4757-a364-b0a788f54ab2.root"
    ]
}