{
    "cms:/store/mc/Run3Summer23NanoAODv12/GluGlutoHHto4B_kl-1p00_kt-1p00_c2-0p35_TuneCP5_13p6TeV_powheg-pythia8/NANOAODSIM/130X_mcRun3_2023_realistic_v15-v3/50000/f59bb040-4c81-44c4-8797-7e562aa45c9e.root": [
        "T1_US_FNAL_Disk: davs://cmsdcadisk.fnal.gov:2880/dcache/uscmsdisk/store/mc/Run3Summer23NanoAODv12/GluGlutoHHto4B_kl-1p00_kt-1p00_c2-0p35_TuneCP5_13p6TeV_powheg-pythia8/NANOAODSIM/130X_mcRun3_2023_realistic_v15-v3/50000/f59bb040-4c81-44c4-8797-7e562aa45c9e.root",
        "T2_CH_CSCS: davs://storage01.lcg.cscs.ch:2880/pnfs/lcg.cscs.ch/cms/trivcat/store/mc/Run3Summer23NanoAODv12/GluGlutoHHto4B_kl-1p00_kt-1p00_c2-0p35_TuneCP5_13p6TeV_powheg-pythia8/NANOAODSIM/130X_mcRun3_2023_realistic_v15-v3/50000/f59bb040-4c81-44c4-8797-7e562aa45c9e.root",
        "T2_IT_Legnaro: davs://t2-xrdcms.lnl.infn.it:2880/pnfs/lnl.infn.it/data/cms/store/mc/Run3Summer23NanoAODv12/GluGlutoHHto4B_kl-1p00_kt-1p00_c2-0p35_TuneCP5_13p6TeV_powheg-pythia8/NANOAODSIM/130X_mcRun3_2023_realistic_v15-v3/50000/f59bb040-4c81-44c4-8797-7e562aa45c9e.root",
        "T2_FR_GRIF: davs://eos.grif.fr:11000/eos/grif/cms/grif/store/mc/Run3Summer23NanoAODv12/GluGlutoHHto4B_kl-1p00_kt-1p00_c2-0p35_TuneCP5_13p6TeV_powheg-pythia8/NANOAODSIM/130X_mcRun3_2023_realistic_v15-v3/50000/f59bb040-4c81-44c4-8797-7e562aa45c9e.root",
        "T1_FR_CCIN2P3_Tape: davs://ccdavcms-tape.in2p3.fr:2880/data/store/mc/Run3Summer23NanoAODv12/GluGlutoHHto4B_kl-1p00_kt-1p00_c2-0p35_TuneCP5_13p6TeV_powheg-pythia8/NANOAODSIM/130X_mcRun3_2023_realistic_v15-v3/50000/f59bb040-4c81-44c4-8797-7e562aa45c9e.root",
        "T2_US_Caltech: davs://k8s-redir-stageout.ultralight.org:1094/store/mc/Run3Summer23NanoAODv12/GluGlutoHHto4B_kl-1p00_kt-1p00_c2-0p35_TuneCP5_13p6TeV_powheg-pythia8/NANOAODSIM/130X_mcRun3_2023_realistic_v15-v3/50000/f59bb040-4c81-44c4-8797-7e562aa45c9e.root",
        "T2_RU_ITEP: davs://se3.itep.ru:2880/pnfs/itep.ru/data/cms/store/mc/Run3Summer23NanoAODv12/GluGlutoHHto4B_kl-1p00_kt-1p00_c2-0p35_TuneCP5_13p6TeV_powheg-pythia8/NANOAODSIM/130X_mcRun3_2023_realistic_v15-v3/50000/f59bb040-4c81-44c4-8797-7e562aa45c9e.root",
        "T2_RU_JINR: davs://lcgsedr08.jinr.ru:2880/pnfs/jinr.ru/data/cms/store/mc/Run3Summer23NanoAODv12/GluGlutoHHto4B_kl-1p00_kt-1p00_c2-0p35_TuneCP5_13p6TeV_powheg-pythia8/NANOAODSIM/130X_mcRun3_2023_realistic_v15-v3/50000/f59bb040-4c81-44c4-8797-7e562aa45c9e.root"
    ],
    "cms:/store/mc/Run3Summer23NanoAODv12/GluGlutoHHto4B_kl-1p00_kt-1p00_c2-0p35_TuneCP5_13p6TeV_powheg-pythia8/NANOAODSIM/130X_mcRun3_2023_realistic_v15-v3/50000/4c73eb97-20cd-4aa1-96b1-2c86435b22d4.root": [
        "T1_US_FNAL_Disk: davs://cmsdcadisk.fnal.gov:2880/dcache/uscmsdisk/store/mc/Run3Summer23NanoAODv12/GluGlutoHHto4B_kl-1p00_kt-1p00_c2-0p35_TuneCP5_13p6TeV_powheg-pythia8/NANOAODSIM/130X_mcRun3_2023_realistic_v15-v3/50000/4c73eb97-20cd-4aa1-96b1-2c86435b22d4.root",
        "T2_CH_CSCS: davs://storage01.lcg.cscs.ch:2880/pnfs/lcg.cscs.ch/cms/trivcat/store/mc/Run3Summer23NanoAODv12/GluGlutoHHto4B_kl-1p00_kt-1p00_c2-0p35_TuneCP5_13p6TeV_powheg-pythia8/NANOAODSIM/130X_mcRun3_2023_realistic_v15-v3/50000/4c73eb97-20cd-4aa1-96b1-2c86435b22d4.root",
        "T2_IT_Legnaro: davs://t2-xrdcms.lnl.infn.it:2880/pnfs/lnl.infn.it/data/cms/store/mc/Run3Summer23NanoAODv12/GluGlutoHHto4B_kl-1p00_kt-1p00_c2-0p35_TuneCP5_13p6TeV_powheg-pythia8/NANOAODSIM/130X_mcRun3_2023_realistic_v15-v3/50000/4c73eb97-20cd-4aa1-96b1-2c86435b22d4.root",
        "T2_FR_GRIF: davs://eos.grif.fr:11000/eos/grif/cms/grif/store/mc/Run3Summer23NanoAODv12/GluGlutoHHto4B_kl-1p00_kt-1p00_c2-0p35_TuneCP5_13p6TeV_powheg-pythia8/NANOAODSIM/130X_mcRun3_2023_realistic_v15-v3/50000/4c73eb97-20cd-4aa1-96b1-2c86435b22d4.root",
        "T1_FR_CCIN2P3_Tape: davs://ccdavcms-tape.in2p3.fr:2880/data/store/mc/Run3Summer23NanoAODv12/GluGlutoHHto4B_kl-1p00_kt-1p00_c2-0p35_TuneCP5_13p6TeV_powheg-pythia8/NANOAODSIM/130X_mcRun3_2023_realistic_v15-v3/50000/4c73eb97-20cd-4aa1-96b1-2c86435b22d4.root",
        "T2_US_Caltech: davs://k8s-redir-stageout.ultralight.org:1094/store/mc/Run3Summer23NanoAODv12/GluGlutoHHto4B_kl-1p00_kt-1p00_c2-0p35_TuneCP5_13p6TeV_powheg-pythia8/NANOAODSIM/130X_mcRun3_2023_realistic_v15-v3/50000/4c73eb97-20cd-4aa1-96b1-2c86435b22d4.root",
        "T2_RU_ITEP: davs://se3.itep.ru:2880/pnfs/itep.ru/data/cms/store/mc/Run3Summer23NanoAODv12/GluGlutoHHto4B_kl-1p00_kt-1p00_c2-0p35_TuneCP5_13p6TeV_powheg-pythia8/NANOAODSIM/130X_mcRun3_2023_realistic_v15-v3/50000/4c73eb97-20cd-4aa1-96b1-2c86435b22d4.root",
        "T1_RU_JINR_Disk: davs://se-wbdv.jinr-t1.ru:2880/pnfs/jinr-t1.ru/data/cms/store/mc/Run3Summer23NanoAODv12/GluGlutoHHto4B_kl-1p00_kt-1p00_c2-0p35_TuneCP5_13p6TeV_powheg-pythia8/NANOAODSIM/130X_mcRun3_2023_realistic_v15-v3/50000/4c73eb97-20cd-4aa1-96b1-2c86435b22d4.root"
    ],
    "cms:/store/mc/Run3Summer23NanoAODv12/GluGlutoHHto4B_kl-1p00_kt-1p00_c2-0p35_TuneCP5_13p6TeV_powheg-pythia8/NANOAODSIM/130X_mcRun3_2023_realistic_v15-v3/50000/8ced1742-ec18-4e46-90a0-f02e51c086e9.root": [
        "T1_US_FNAL_Disk: davs://cmsdcadisk.fnal.gov:2880/dcache/uscmsdisk/store/mc/Run3Summer23NanoAODv12/GluGlutoHHto4B_kl-1p00_kt-1p00_c2-0p35_TuneCP5_13p6TeV_powheg-pythia8/NANOAODSIM/130X_mcRun3_2023_realistic_v15-v3/50000/8ced1742-ec18-4e46-90a0-f02e51c086e9.root",
        "T2_CH_CSCS: davs://storage01.lcg.cscs.ch:2880/pnfs/lcg.cscs.ch/cms/trivcat/store/mc/Run3Summer23NanoAODv12/GluGlutoHHto4B_kl-1p00_kt-1p00_c2-0p35_TuneCP5_13p6TeV_powheg-pythia8/NANOAODSIM/130X_mcRun3_2023_realistic_v15-v3/50000/8ced1742-ec18-4e46-90a0-f02e51c086e9.root",
        "T2_IT_Legnaro: davs://t2-xrdcms.lnl.infn.it:2880/pnfs/lnl.infn.it/data/cms/store/mc/Run3Summer23NanoAODv12/GluGlutoHHto4B_kl-1p00_kt-1p00_c2-0p35_TuneCP5_13p6TeV_powheg-pythia8/NANOAODSIM/130X_mcRun3_2023_realistic_v15-v3/50000/8ced1742-ec18-4e46-90a0-f02e51c086e9.root",
        "T2_FR_GRIF: davs://eos.grif.fr:11000/eos/grif/cms/grif/store/mc/Run3Summer23NanoAODv12/GluGlutoHHto4B_kl-1p00_kt-1p00_c2-0p35_TuneCP5_13p6TeV_powheg-pythia8/NANOAODSIM/130X_mcRun3_2023_realistic_v15-v3/50000/8ced1742-ec18-4e46-90a0-f02e51c086e9.root",
        "T1_FR_CCIN2P3_Tape: davs://ccdavcms-tape.in2p3.fr:2880/data/store/mc/Run3Summer23NanoAODv12/GluGlutoHHto4B_kl-1p00_kt-1p00_c2-0p35_TuneCP5_13p6TeV_powheg-pythia8/NANOAODSIM/130X_mcRun3_2023_realistic_v15-v3/50000/8ced1742-ec18-4e46-90a0-f02e51c086e9.root",
        "T2_US_Caltech: davs://k8s-redir-stageout.ultralight.org:1094/store/mc/Run3Summer23NanoAODv12/GluGlutoHHto4B_kl-1p00_kt-1p00_c2-0p35_TuneCP5_13p6TeV_powheg-pythia8/NANOAODSIM/130X_mcRun3_2023_realistic_v15-v3/50000/8ced1742-ec18-4e46-90a0-f02e51c086e9.root",
        "T2_RU_ITEP: davs://se3.itep.ru:2880/pnfs/itep.ru/data/cms/store/mc/Run3Summer23NanoAODv12/GluGlutoHHto4B_kl-1p00_kt-1p00_c2-0p35_TuneCP5_13p6TeV_powheg-pythia8/NANOAODSIM/130X_mcRun3_2023_realistic_v15-v3/50000/8ced1742-ec18-4e46-90a0-f02e51c086e9.root",
        "T1_RU_JINR_Disk: davs://se-wbdv.jinr-t1.ru:2880/pnfs/jinr-t1.ru/data/cms/store/mc/Run3Summer23NanoAODv12/GluGlutoHHto4B_kl-1p00_kt-1p00_c2-0p35_TuneCP5_13p6TeV_powheg-pythia8/NANOAODSIM/130X_mcRun3_2023_realistic_v15-v3/50000/8ced1742-ec18-4e46-90a0-f02e51c086e9.root"
    ],
    "cms:/store/mc/Run3Summer23NanoAODv12/GluGlutoHHto4B_kl-1p00_kt-1p00_c2-0p35_TuneCP5_13p6TeV_powheg-pythia8/NANOAODSIM/130X_mcRun3_2023_realistic_v15-v3/50000/dd8b6d86-c4d5-44db-9e71-3a48ed2982c8.root": [
        "T1_US_FNAL_Disk: davs://cmsdcadisk.fnal.gov:2880/dcache/uscmsdisk/store/mc/Run3Summer23NanoAODv12/GluGlutoHHto4B_kl-1p00_kt-1p00_c2-0p35_TuneCP5_13p6TeV_powheg-pythia8/NANOAODSIM/130X_mcRun3_2023_realistic_v15-v3/50000/dd8b6d86-c4d5-44db-9e71-3a48ed2982c8.root",
        "T2_CH_CSCS: davs://storage01.lcg.cscs.ch:2880/pnfs/lcg.cscs.ch/cms/trivcat/store/mc/Run3Summer23NanoAODv12/GluGlutoHHto4B_kl-1p00_kt-1p00_c2-0p35_TuneCP5_13p6TeV_powheg-pythia8/NANOAODSIM/130X_mcRun3_2023_realistic_v15-v3/50000/dd8b6d86-c4d5-44db-9e71-3a48ed2982c8.root",
        "T2_IT_Legnaro: davs://t2-xrdcms.lnl.infn.it:2880/pnfs/lnl.infn.it/data/cms/store/mc/Run3Summer23NanoAODv12/GluGlutoHHto4B_kl-1p00_kt-1p00_c2-0p35_TuneCP5_13p6TeV_powheg-pythia8/NANOAODSIM/130X_mcRun3_2023_realistic_v15-v3/50000/dd8b6d86-c4d5-44db-9e71-3a48ed2982c8.root",
        "T2_FR_GRIF: davs://eos.grif.fr:11000/eos/grif/cms/grif/store/mc/Run3Summer23NanoAODv12/GluGlutoHHto4B_kl-1p00_kt-1p00_c2-0p35_TuneCP5_13p6TeV_powheg-pythia8/NANOAODSIM/130X_mcRun3_2023_realistic_v15-v3/50000/dd8b6d86-c4d5-44db-9e71-3a48ed2982c8.root",
        "T1_FR_CCIN2P3_Tape: davs://ccdavcms-tape.in2p3.fr:2880/data/store/mc/Run3Summer23NanoAODv12/GluGlutoHHto4B_kl-1p00_kt-1p00_c2-0p35_TuneCP5_13p6TeV_powheg-pythia8/NANOAODSIM/130X_mcRun3_2023_realistic_v15-v3/50000/dd8b6d86-c4d5-44db-9e71-3a48ed2982c8.root",
        "T2_US_Caltech: davs://k8s-redir-stageout.ultralight.org:1094/store/mc/Run3Summer23NanoAODv12/GluGlutoHHto4B_kl-1p00_kt-1p00_c2-0p35_TuneCP5_13p6TeV_powheg-pythia8/NANOAODSIM/130X_mcRun3_2023_realistic_v15-v3/50000/dd8b6d86-c4d5-44db-9e71-3a48ed2982c8.root",
        "T2_RU_ITEP: davs://se3.itep.ru:2880/pnfs/itep.ru/data/cms/store/mc/Run3Summer23NanoAODv12/GluGlutoHHto4B_kl-1p00_kt-1p00_c2-0p35_TuneCP5_13p6TeV_powheg-pythia8/NANOAODSIM/130X_mcRun3_2023_realistic_v15-v3/50000/dd8b6d86-c4d5-44db-9e71-3a48ed2982c8.root"
    ],
    "cms:/store/mc/Run3Summer23NanoAODv12/GluGlutoHHto4B_kl-1p00_kt-1p00_c2-0p35_TuneCP5_13p6TeV_powheg-pythia8/NANOAODSIM/130X_mcRun3_2023_realistic_v15-v3/50000/059b902d-4999-48eb-ab08-eecb3e28f803.root": [
        "T1_US_FNAL_Disk: davs://cmsdcadisk.fnal.gov:2880/dcache/uscmsdisk/store/mc/Run3Summer23NanoAODv12/GluGlutoHHto4B_kl-1p00_kt-1p00_c2-0p35_TuneCP5_13p6TeV_powheg-pythia8/NANOAODSIM/130X_mcRun3_2023_realistic_v15-v3/50000/059b902d-4999-48eb-ab08-eecb3e28f803.root",
        "T2_CH_CSCS: davs://storage01.lcg.cscs.ch:2880/pnfs/lcg.cscs.ch/cms/trivcat/store/mc/Run3Summer23NanoAODv12/GluGlutoHHto4B_kl-1p00_kt-1p00_c2-0p35_TuneCP5_13p6TeV_powheg-pythia8/NANOAODSIM/130X_mcRun3_2023_realistic_v15-v3/50000/059b902d-4999-48eb-ab08-eecb3e28f803.root",
        "T2_IT_Legnaro: davs://t2-xrdcms.lnl.infn.it:2880/pnfs/lnl.infn.it/data/cms/store/mc/Run3Summer23NanoAODv12/GluGlutoHHto4B_kl-1p00_kt-1p00_c2-0p35_TuneCP5_13p6TeV_powheg-pythia8/NANOAODSIM/130X_mcRun3_2023_realistic_v15-v3/50000/059b902d-4999-48eb-ab08-eecb3e28f803.root",
        "T2_FR_GRIF: davs://eos.grif.fr:11000/eos/grif/cms/grif/store/mc/Run3Summer23NanoAODv12/GluGlutoHHto4B_kl-1p00_kt-1p00_c2-0p35_TuneCP5_13p6TeV_powheg-pythia8/NANOAODSIM/130X_mcRun3_2023_realistic_v15-v3/50000/059b902d-4999-48eb-ab08-eecb3e28f803.root",
        "T1_FR_CCIN2P3_Tape: davs://ccdavcms-tape.in2p3.fr:2880/data/store/mc/Run3Summer23NanoAODv12/GluGlutoHHto4B_kl-1p00_kt-1p00_c2-0p35_TuneCP5_13p6TeV_powheg-pythia8/NANOAODSIM/130X_mcRun3_2023_realistic_v15-v3/50000/059b902d-4999-48eb-ab08-eecb3e28f803.root",
        "T2_US_Caltech: davs://k8s-redir-stageout.ultralight.org:1094/store/mc/Run3Summer23NanoAODv12/GluGlutoHHto4B_kl-1p00_kt-1p00_c2-0p35_TuneCP5_13p6TeV_powheg-pythia8/NANOAODSIM/130X_mcRun3_2023_realistic_v15-v3/50000/059b902d-4999-48eb-ab08-eecb3e28f803.root",
        "T2_RU_ITEP: davs://se3.itep.ru:2880/pnfs/itep.ru/data/cms/store/mc/Run3Summer23NanoAODv12/GluGlutoHHto4B_kl-1p00_kt-1p00_c2-0p35_TuneCP5_13p6TeV_powheg-pythia8/NANOAODSIM/130X_mcRun3_2023_realistic_v15-v3/50000/059b902d-4999-48eb-ab08-eecb3e28f803.root"
    ],
    "cms:/store/mc/Run3Summer23NanoAODv12/GluGlutoHHto4B_kl-1p00_kt-1p00_c2-0p35_TuneCP5_13p6TeV_powheg-pythia8/NANOAODSIM/130X_mcRun3_2023_realistic_v15-v3/50000/3aa0fc9c-5a19-4a9b-b759-1f602288dfbf.root": [
        "T1_US_FNAL_Disk: davs://cmsdcadisk.fnal.gov:2880/dcache/uscmsdisk/store/mc/Run3Summer23NanoAODv12/GluGlutoHHto4B_kl-1p00_kt-1p00_c2-0p35_TuneCP5_13p6TeV_powheg-pythia8/NANOAODSIM/130X_mcRun3_2023_realistic_v15-v3/50000/3aa0fc9c-5a19-4a9b-b759-1f602288dfbf.root",
        "T2_CH_CSCS: davs://storage01.lcg.cscs.ch:2880/pnfs/lcg.cscs.ch/cms/trivcat/store/mc/Run3Summer23NanoAODv12/GluGlutoHHto4B_kl-1p00_kt-1p00_c2-0p35_TuneCP5_13p6TeV_powheg-pythia8/NANOAODSIM/130X_mcRun3_2023_realistic_v15-v3/50000/3aa0fc9c-5a19-4a9b-b759-1f602288dfbf.root",
        "T2_IT_Legnaro: davs://t2-xrdcms.lnl.infn.it:2880/pnfs/lnl.infn.it/data/cms/store/mc/Run3Summer23NanoAODv12/GluGlutoHHto4B_kl-1p00_kt-1p00_c2-0p35_TuneCP5_13p6TeV_powheg-pythia8/NANOAODSIM/130X_mcRun3_2023_realistic_v15-v3/50000/3aa0fc9c-5a19-4a9b-b759-1f602288dfbf.root",
        "T2_FR_GRIF: davs://eos.grif.fr:11000/eos/grif/cms/grif/store/mc/Run3Summer23NanoAODv12/GluGlutoHHto4B_kl-1p00_kt-1p00_c2-0p35_TuneCP5_13p6TeV_powheg-pythia8/NANOAODSIM/130X_mcRun3_2023_realistic_v15-v3/50000/3aa0fc9c-5a19-4a9b-b759-1f602288dfbf.root",
        "T1_FR_CCIN2P3_Tape: davs://ccdavcms-tape.in2p3.fr:2880/data/store/mc/Run3Summer23NanoAODv12/GluGlutoHHto4B_kl-1p00_kt-1p00_c2-0p35_TuneCP5_13p6TeV_powheg-pythia8/NANOAODSIM/130X_mcRun3_2023_realistic_v15-v3/50000/3aa0fc9c-5a19-4a9b-b759-1f602288dfbf.root",
        "T2_US_Caltech: davs://k8s-redir-stageout.ultralight.org:1094/store/mc/Run3Summer23NanoAODv12/GluGlutoHHto4B_kl-1p00_kt-1p00_c2-0p35_TuneCP5_13p6TeV_powheg-pythia8/NANOAODSIM/130X_mcRun3_2023_realistic_v15-v3/50000/3aa0fc9c-5a19-4a9b-b759-1f602288dfbf.root",
        "T2_RU_ITEP: davs://se3.itep.ru:2880/pnfs/itep.ru/data/cms/store/mc/Run3Summer23NanoAODv12/GluGlutoHHto4B_kl-1p00_kt-1p00_c2-0p35_TuneCP5_13p6TeV_powheg-pythia8/NANOAODSIM/130X_mcRun3_2023_realistic_v15-v3/50000/3aa0fc9c-5a19-4a9b-b759-1f602288dfbf.root"
    ],
    "cms:/store/mc/Run3Summer23NanoAODv12/GluGlutoHHto4B_kl-1p00_kt-1p00_c2-0p35_TuneCP5_13p6TeV_powheg-pythia8/NANOAODSIM/130X_mcRun3_2023_realistic_v15-v3/50000/8ccfca01-082d-424d-8379-a9649307366f.root": [
        "T1_US_FNAL_Disk: davs://cmsdcadisk.fnal.gov:2880/dcache/uscmsdisk/store/mc/Run3Summer23NanoAODv12/GluGlutoHHto4B_kl-1p00_kt-1p00_c2-0p35_TuneCP5_13p6TeV_powheg-pythia8/NANOAODSIM/130X_mcRun3_2023_realistic_v15-v3/50000/8ccfca01-082d-424d-8379-a9649307366f.root",
        "T2_CH_CSCS: davs://storage01.lcg.cscs.ch:2880/pnfs/lcg.cscs.ch/cms/trivcat/store/mc/Run3Summer23NanoAODv12/GluGlutoHHto4B_kl-1p00_kt-1p00_c2-0p35_TuneCP5_13p6TeV_powheg-pythia8/NANOAODSIM/130X_mcRun3_2023_realistic_v15-v3/50000/8ccfca01-082d-424d-8379-a9649307366f.root",
        "T2_IT_Legnaro: davs://t2-xrdcms.lnl.infn.it:2880/pnfs/lnl.infn.it/data/cms/store/mc/Run3Summer23NanoAODv12/GluGlutoHHto4B_kl-1p00_kt-1p00_c2-0p35_TuneCP5_13p6TeV_powheg-pythia8/NANOAODSIM/130X_mcRun3_2023_realistic_v15-v3/50000/8ccfca01-082d-424d-8379-a9649307366f.root",
        "T2_FR_GRIF: davs://eos.grif.fr:11000/eos/grif/cms/grif/store/mc/Run3Summer23NanoAODv12/GluGlutoHHto4B_kl-1p00_kt-1p00_c2-0p35_TuneCP5_13p6TeV_powheg-pythia8/NANOAODSIM/130X_mcRun3_2023_realistic_v15-v3/50000/8ccfca01-082d-424d-8379-a9649307366f.root",
        "T1_FR_CCIN2P3_Tape: davs://ccdavcms-tape.in2p3.fr:2880/data/store/mc/Run3Summer23NanoAODv12/GluGlutoHHto4B_kl-1p00_kt-1p00_c2-0p35_TuneCP5_13p6TeV_powheg-pythia8/NANOAODSIM/130X_mcRun3_2023_realistic_v15-v3/50000/8ccfca01-082d-424d-8379-a9649307366f.root",
        "T2_US_Caltech: davs://k8s-redir-stageout.ultralight.org:1094/store/mc/Run3Summer23NanoAODv12/GluGlutoHHto4B_kl-1p00_kt-1p00_c2-0p35_TuneCP5_13p6TeV_powheg-pythia8/NANOAODSIM/130X_mcRun3_2023_realistic_v15-v3/50000/8ccfca01-082d-424d-8379-a9649307366f.root",
        "T2_RU_ITEP: davs://se3.itep.ru:2880/pnfs/itep.ru/data/cms/store/mc/Run3Summer23NanoAODv12/GluGlutoHHto4B_kl-1p00_kt-1p00_c2-0p35_TuneCP5_13p6TeV_powheg-pythia8/NANOAODSIM/130X_mcRun3_2023_realistic_v15-v3/50000/8ccfca01-082d-424d-8379-a9649307366f.root"
    ],
    "cms:/store/mc/Run3Summer23NanoAODv12/GluGlutoHHto4B_kl-1p00_kt-1p00_c2-0p35_TuneCP5_13p6TeV_powheg-pythia8/NANOAODSIM/130X_mcRun3_2023_realistic_v15-v3/50000/af5703a0-b613-4fac-a410-d36e57f424b8.root": [
        "T1_US_FNAL_Disk: davs://cmsdcadisk.fnal.gov:2880/dcache/uscmsdisk/store/mc/Run3Summer23NanoAODv12/GluGlutoHHto4B_kl-1p00_kt-1p00_c2-0p35_TuneCP5_13p6TeV_powheg-pythia8/NANOAODSIM/130X_mcRun3_2023_realistic_v15-v3/50000/af5703a0-b613-4fac-a410-d36e57f424b8.root",
        "T2_CH_CSCS: davs://storage01.lcg.cscs.ch:2880/pnfs/lcg.cscs.ch/cms/trivcat/store/mc/Run3Summer23NanoAODv12/GluGlutoHHto4B_kl-1p00_kt-1p00_c2-0p35_TuneCP5_13p6TeV_powheg-pythia8/NANOAODSIM/130X_mcRun3_2023_realistic_v15-v3/50000/af5703a0-b613-4fac-a410-d36e57f424b8.root",
        "T2_IT_Legnaro: davs://t2-xrdcms.lnl.infn.it:2880/pnfs/lnl.infn.it/data/cms/store/mc/Run3Summer23NanoAODv12/GluGlutoHHto4B_kl-1p00_kt-1p00_c2-0p35_TuneCP5_13p6TeV_powheg-pythia8/NANOAODSIM/130X_mcRun3_2023_realistic_v15-v3/50000/af5703a0-b613-4fac-a410-d36e57f424b8.root",
        "T2_FR_GRIF: davs://eos.grif.fr:11000/eos/grif/cms/grif/store/mc/Run3Summer23NanoAODv12/GluGlutoHHto4B_kl-1p00_kt-1p00_c2-0p35_TuneCP5_13p6TeV_powheg-pythia8/NANOAODSIM/130X_mcRun3_2023_realistic_v15-v3/50000/af5703a0-b613-4fac-a410-d36e57f424b8.root",
        "T1_FR_CCIN2P3_Tape: davs://ccdavcms-tape.in2p3.fr:2880/data/store/mc/Run3Summer23NanoAODv12/GluGlutoHHto4B_kl-1p00_kt-1p00_c2-0p35_TuneCP5_13p6TeV_powheg-pythia8/NANOAODSIM/130X_mcRun3_2023_realistic_v15-v3/50000/af5703a0-b613-4fac-a410-d36e57f424b8.root",
        "T2_US_Caltech: davs://k8s-redir-stageout.ultralight.org:1094/store/mc/Run3Summer23NanoAODv12/GluGlutoHHto4B_kl-1p00_kt-1p00_c2-0p35_TuneCP5_13p6TeV_powheg-pythia8/NANOAODSIM/130X_mcRun3_2023_realistic_v15-v3/50000/af5703a0-b613-4fac-a410-d36e57f424b8.root",
        "T2_RU_ITEP: davs://se3.itep.ru:2880/pnfs/itep.ru/data/cms/store/mc/Run3Summer23NanoAODv12/GluGlutoHHto4B_kl-1p00_kt-1p00_c2-0p35_TuneCP5_13p6TeV_powheg-pythia8/NANOAODSIM/130X_mcRun3_2023_realistic_v15-v3/50000/af5703a0-b613-4fac-a410-d36e57f424b8.root"
    ],
    "cms:/store/mc/Run3Summer23NanoAODv12/GluGlutoHHto4B_kl-1p00_kt-1p00_c2-0p35_TuneCP5_13p6TeV_powheg-pythia8/NANOAODSIM/130X_mcRun3_2023_realistic_v15-v3/50000/3677ff58-124d-4c30-afe6-6f34045f07ae.root": [
        "T1_US_FNAL_Disk: davs://cmsdcadisk.fnal.gov:2880/dcache/uscmsdisk/store/mc/Run3Summer23NanoAODv12/GluGlutoHHto4B_kl-1p00_kt-1p00_c2-0p35_TuneCP5_13p6TeV_powheg-pythia8/NANOAODSIM/130X_mcRun3_2023_realistic_v15-v3/50000/3677ff58-124d-4c30-afe6-6f34045f07ae.root",
        "T2_CH_CSCS: davs://storage01.lcg.cscs.ch:2880/pnfs/lcg.cscs.ch/cms/trivcat/store/mc/Run3Summer23NanoAODv12/GluGlutoHHto4B_kl-1p00_kt-1p00_c2-0p35_TuneCP5_13p6TeV_powheg-pythia8/NANOAODSIM/130X_mcRun3_2023_realistic_v15-v3/50000/3677ff58-124d-4c30-afe6-6f34045f07ae.root",
        "T2_IT_Legnaro: davs://t2-xrdcms.lnl.infn.it:2880/pnfs/lnl.infn.it/data/cms/store/mc/Run3Summer23NanoAODv12/GluGlutoHHto4B_kl-1p00_kt-1p00_c2-0p35_TuneCP5_13p6TeV_powheg-pythia8/NANOAODSIM/130X_mcRun3_2023_realistic_v15-v3/50000/3677ff58-124d-4c30-afe6-6f34045f07ae.root",
        "T2_FR_GRIF: davs://eos.grif.fr:11000/eos/grif/cms/grif/store/mc/Run3Summer23NanoAODv12/GluGlutoHHto4B_kl-1p00_kt-1p00_c2-0p35_TuneCP5_13p6TeV_powheg-pythia8/NANOAODSIM/130X_mcRun3_2023_realistic_v15-v3/50000/3677ff58-124d-4c30-afe6-6f34045f07ae.root",
        "T1_FR_CCIN2P3_Tape: davs://ccdavcms-tape.in2p3.fr:2880/data/store/mc/Run3Summer23NanoAODv12/GluGlutoHHto4B_kl-1p00_kt-1p00_c2-0p35_TuneCP5_13p6TeV_powheg-pythia8/NANOAODSIM/130X_mcRun3_2023_realistic_v15-v3/50000/3677ff58-124d-4c30-afe6-6f34045f07ae.root",
        "T2_IT_Bari: davs://webdav.recas.ba.infn.it:8443/cms/store/mc/Run3Summer23NanoAODv12/GluGlutoHHto4B_kl-1p00_kt-1p00_c2-0p35_TuneCP5_13p6TeV_powheg-pythia8/NANOAODSIM/130X_mcRun3_2023_realistic_v15-v3/50000/3677ff58-124d-4c30-afe6-6f34045f07ae.root",
        "T2_US_Caltech: davs://k8s-redir-stageout.ultralight.org:1094/store/mc/Run3Summer23NanoAODv12/GluGlutoHHto4B_kl-1p00_kt-1p00_c2-0p35_TuneCP5_13p6TeV_powheg-pythia8/NANOAODSIM/130X_mcRun3_2023_realistic_v15-v3/50000/3677ff58-124d-4c30-afe6-6f34045f07ae.root",
        "T2_RU_ITEP: davs://se3.itep.ru:2880/pnfs/itep.ru/data/cms/store/mc/Run3Summer23NanoAODv12/GluGlutoHHto4B_kl-1p00_kt-1p00_c2-0p35_TuneCP5_13p6TeV_powheg-pythia8/NANOAODSIM/130X_mcRun3_2023_realistic_v15-v3/50000/3677ff58-124d-4c30-afe6-6f34045f07ae.root"
    ],
    "cms:/store/mc/Run3Summer23NanoAODv12/GluGlutoHHto4B_kl-1p00_kt-1p00_c2-0p35_TuneCP5_13p6TeV_powheg-pythia8/NANOAODSIM/130X_mcRun3_2023_realistic_v15-v3/50000/28c62b32-b5b0-465d-a907-7cb12510e464.root": [
        "T1_US_FNAL_Disk: davs://cmsdcadisk.fnal.gov:2880/dcache/uscmsdisk/store/mc/Run3Summer23NanoAODv12/GluGlutoHHto4B_kl-1p00_kt-1p00_c2-0p35_TuneCP5_13p6TeV_powheg-pythia8/NANOAODSIM/130X_mcRun3_2023_realistic_v15-v3/50000/28c62b32-b5b0-465d-a907-7cb12510e464.root",
        "T2_CH_CSCS: davs://storage01.lcg.cscs.ch:2880/pnfs/lcg.cscs.ch/cms/trivcat/store/mc/Run3Summer23NanoAODv12/GluGlutoHHto4B_kl-1p00_kt-1p00_c2-0p35_TuneCP5_13p6TeV_powheg-pythia8/NANOAODSIM/130X_mcRun3_2023_realistic_v15-v3/50000/28c62b32-b5b0-465d-a907-7cb12510e464.root",
        "T2_IT_Legnaro: davs://t2-xrdcms.lnl.infn.it:2880/pnfs/lnl.infn.it/data/cms/store/mc/Run3Summer23NanoAODv12/GluGlutoHHto4B_kl-1p00_kt-1p00_c2-0p35_TuneCP5_13p6TeV_powheg-pythia8/NANOAODSIM/130X_mcRun3_2023_realistic_v15-v3/50000/28c62b32-b5b0-465d-a907-7cb12510e464.root",
        "T2_FR_GRIF: davs://eos.grif.fr:11000/eos/grif/cms/grif/store/mc/Run3Summer23NanoAODv12/GluGlutoHHto4B_kl-1p00_kt-1p00_c2-0p35_TuneCP5_13p6TeV_powheg-pythia8/NANOAODSIM/130X_mcRun3_2023_realistic_v15-v3/50000/28c62b32-b5b0-465d-a907-7cb12510e464.root",
        "T1_FR_CCIN2P3_Tape: davs://ccdavcms-tape.in2p3.fr:2880/data/store/mc/Run3Summer23NanoAODv12/GluGlutoHHto4B_kl-1p00_kt-1p00_c2-0p35_TuneCP5_13p6TeV_powheg-pythia8/NANOAODSIM/130X_mcRun3_2023_realistic_v15-v3/50000/28c62b32-b5b0-465d-a907-7cb12510e464.root",
        "T2_US_Caltech: davs://k8s-redir-stageout.ultralight.org:1094/store/mc/Run3Summer23NanoAODv12/GluGlutoHHto4B_kl-1p00_kt-1p00_c2-0p35_TuneCP5_13p6TeV_powheg-pythia8/NANOAODSIM/130X_mcRun3_2023_realistic_v15-v3/50000/28c62b32-b5b0-465d-a907-7cb12510e464.root",
        "T2_RU_ITEP: davs://se3.itep.ru:2880/pnfs/itep.ru/data/cms/store/mc/Run3Summer23NanoAODv12/GluGlutoHHto4B_kl-1p00_kt-1p00_c2-0p35_TuneCP5_13p6TeV_powheg-pythia8/NANOAODSIM/130X_mcRun3_2023_realistic_v15-v3/50000/28c62b32-b5b0-465d-a907-7cb12510e464.root",
        "T1_IT_CNAF_Disk: davs://xfer-cms.cr.cnaf.infn.it:8443/cmsdisk/store/mc/Run3Summer23NanoAODv12/GluGlutoHHto4B_kl-1p00_kt-1p00_c2-0p35_TuneCP5_13p6TeV_powheg-pythia8/NANOAODSIM/130X_mcRun3_2023_realistic_v15-v3/50000/28c62b32-b5b0-465d-a907-7cb12510e464.root"
    ],
    "cms:/store/mc/Run3Summer23NanoAODv12/GluGlutoHHto4B_kl-1p00_kt-1p00_c2-0p35_TuneCP5_13p6TeV_powheg-pythia8/NANOAODSIM/130X_mcRun3_2023_realistic_v15-v3/50000/d0b825af-5785-4157-8a33-eb84ff5210f2.root": [
        "T1_US_FNAL_Disk: davs://cmsdcadisk.fnal.gov:2880/dcache/uscmsdisk/store/mc/Run3Summer23NanoAODv12/GluGlutoHHto4B_kl-1p00_kt-1p00_c2-0p35_TuneCP5_13p6TeV_powheg-pythia8/NANOAODSIM/130X_mcRun3_2023_realistic_v15-v3/50000/d0b825af-5785-4157-8a33-eb84ff5210f2.root",
        "T2_CH_CSCS: davs://storage01.lcg.cscs.ch:2880/pnfs/lcg.cscs.ch/cms/trivcat/store/mc/Run3Summer23NanoAODv12/GluGlutoHHto4B_kl-1p00_kt-1p00_c2-0p35_TuneCP5_13p6TeV_powheg-pythia8/NANOAODSIM/130X_mcRun3_2023_realistic_v15-v3/50000/d0b825af-5785-4157-8a33-eb84ff5210f2.root",
        "T2_IT_Legnaro: davs://t2-xrdcms.lnl.infn.it:2880/pnfs/lnl.infn.it/data/cms/store/mc/Run3Summer23NanoAODv12/GluGlutoHHto4B_kl-1p00_kt-1p00_c2-0p35_TuneCP5_13p6TeV_powheg-pythia8/NANOAODSIM/130X_mcRun3_2023_realistic_v15-v3/50000/d0b825af-5785-4157-8a33-eb84ff5210f2.root",
        "T2_FR_GRIF: davs://eos.grif.fr:11000/eos/grif/cms/grif/store/mc/Run3Summer23NanoAODv12/GluGlutoHHto4B_kl-1p00_kt-1p00_c2-0p35_TuneCP5_13p6TeV_powheg-pythia8/NANOAODSIM/130X_mcRun3_2023_realistic_v15-v3/50000/d0b825af-5785-4157-8a33-eb84ff5210f2.root",
        "T1_FR_CCIN2P3_Tape: davs://ccdavcms-tape.in2p3.fr:2880/data/store/mc/Run3Summer23NanoAODv12/GluGlutoHHto4B_kl-1p00_kt-1p00_c2-0p35_TuneCP5_13p6TeV_powheg-pythia8/NANOAODSIM/130X_mcRun3_2023_realistic_v15-v3/50000/d0b825af-5785-4157-8a33-eb84ff5210f2.root",
        "T2_US_Caltech: davs://k8s-redir-stageout.ultralight.org:1094/store/mc/Run3Summer23NanoAODv12/GluGlutoHHto4B_kl-1p00_kt-1p00_c2-0p35_TuneCP5_13p6TeV_powheg-pythia8/NANOAODSIM/130X_mcRun3_2023_realistic_v15-v3/50000/d0b825af-5785-4157-8a33-eb84ff5210f2.root",
        "T2_RU_ITEP: davs://se3.itep.ru:2880/pnfs/itep.ru/data/cms/store/mc/Run3Summer23NanoAODv12/GluGlutoHHto4B_kl-1p00_kt-1p00_c2-0p35_TuneCP5_13p6TeV_powheg-pythia8/NANOAODSIM/130X_mcRun3_2023_realistic_v15-v3/50000/d0b825af-5785-4157-8a33-eb84ff5210f2.root",
        "T2_EE_Estonia: davs://xrootd.hep.kbfi.ee:1094/store/mc/Run3Summer23NanoAODv12/GluGlutoHHto4B_kl-1p00_kt-1p00_c2-0p35_TuneCP5_13p6TeV_powheg-pythia8/NANOAODSIM/130X_mcRun3_2023_realistic_v15-v3/50000/d0b825af-5785-4157-8a33-eb84ff5210f2.root"
    ],
    "cms:/store/mc/Run3Summer23NanoAODv12/GluGlutoHHto4B_kl-1p00_kt-1p00_c2-0p35_TuneCP5_13p6TeV_powheg-pythia8/NANOAODSIM/130X_mcRun3_2023_realistic_v15-v3/50000/b50a535d-72b1-4ee8-8289-55019ade2c5c.root": [
        "T1_US_FNAL_Disk: davs://cmsdcadisk.fnal.gov:2880/dcache/uscmsdisk/store/mc/Run3Summer23NanoAODv12/GluGlutoHHto4B_kl-1p00_kt-1p00_c2-0p35_TuneCP5_13p6TeV_powheg-pythia8/NANOAODSIM/130X_mcRun3_2023_realistic_v15-v3/50000/b50a535d-72b1-4ee8-8289-55019ade2c5c.root",
        "T2_CH_CSCS: davs://storage01.lcg.cscs.ch:2880/pnfs/lcg.cscs.ch/cms/trivcat/store/mc/Run3Summer23NanoAODv12/GluGlutoHHto4B_kl-1p00_kt-1p00_c2-0p35_TuneCP5_13p6TeV_powheg-pythia8/NANOAODSIM/130X_mcRun3_2023_realistic_v15-v3/50000/b50a535d-72b1-4ee8-8289-55019ade2c5c.root",
        "T2_IT_Legnaro: davs://t2-xrdcms.lnl.infn.it:2880/pnfs/lnl.infn.it/data/cms/store/mc/Run3Summer23NanoAODv12/GluGlutoHHto4B_kl-1p00_kt-1p00_c2-0p35_TuneCP5_13p6TeV_powheg-pythia8/NANOAODSIM/130X_mcRun3_2023_realistic_v15-v3/50000/b50a535d-72b1-4ee8-8289-55019ade2c5c.root",
        "T2_FR_GRIF: davs://eos.grif.fr:11000/eos/grif/cms/grif/store/mc/Run3Summer23NanoAODv12/GluGlutoHHto4B_kl-1p00_kt-1p00_c2-0p35_TuneCP5_13p6TeV_powheg-pythia8/NANOAODSIM/130X_mcRun3_2023_realistic_v15-v3/50000/b50a535d-72b1-4ee8-8289-55019ade2c5c.root",
        "T1_FR_CCIN2P3_Tape: davs://ccdavcms-tape.in2p3.fr:2880/data/store/mc/Run3Summer23NanoAODv12/GluGlutoHHto4B_kl-1p00_kt-1p00_c2-0p35_TuneCP5_13p6TeV_powheg-pythia8/NANOAODSIM/130X_mcRun3_2023_realistic_v15-v3/50000/b50a535d-72b1-4ee8-8289-55019ade2c5c.root",
        "T2_US_Caltech: davs://k8s-redir-stageout.ultralight.org:1094/store/mc/Run3Summer23NanoAODv12/GluGlutoHHto4B_kl-1p00_kt-1p00_c2-0p35_TuneCP5_13p6TeV_powheg-pythia8/NANOAODSIM/130X_mcRun3_2023_realistic_v15-v3/50000/b50a535d-72b1-4ee8-8289-55019ade2c5c.root",
        "T2_RU_ITEP: davs://se3.itep.ru:2880/pnfs/itep.ru/data/cms/store/mc/Run3Summer23NanoAODv12/GluGlutoHHto4B_kl-1p00_kt-1p00_c2-0p35_TuneCP5_13p6TeV_powheg-pythia8/NANOAODSIM/130X_mcRun3_2023_realistic_v15-v3/50000/b50a535d-72b1-4ee8-8289-55019ade2c5c.root"
    ],
    "cms:/store/mc/Run3Summer23NanoAODv12/GluGlutoHHto4B_kl-1p00_kt-1p00_c2-0p35_TuneCP5_13p6TeV_powheg-pythia8/NANOAODSIM/130X_mcRun3_2023_realistic_v15-v3/50000/dac901e6-f12f-4d6a-8a6e-07896ef55c18.root": [
        "T1_US_FNAL_Disk: davs://cmsdcadisk.fnal.gov:2880/dcache/uscmsdisk/store/mc/Run3Summer23NanoAODv12/GluGlutoHHto4B_kl-1p00_kt-1p00_c2-0p35_TuneCP5_13p6TeV_powheg-pythia8/NANOAODSIM/130X_mcRun3_2023_realistic_v15-v3/50000/dac901e6-f12f-4d6a-8a6e-07896ef55c18.root",
        "T2_CH_CSCS: davs://storage01.lcg.cscs.ch:2880/pnfs/lcg.cscs.ch/cms/trivcat/store/mc/Run3Summer23NanoAODv12/GluGlutoHHto4B_kl-1p00_kt-1p00_c2-0p35_TuneCP5_13p6TeV_powheg-pythia8/NANOAODSIM/130X_mcRun3_2023_realistic_v15-v3/50000/dac901e6-f12f-4d6a-8a6e-07896ef55c18.root",
        "T2_IT_Legnaro: davs://t2-xrdcms.lnl.infn.it:2880/pnfs/lnl.infn.it/data/cms/store/mc/Run3Summer23NanoAODv12/GluGlutoHHto4B_kl-1p00_kt-1p00_c2-0p35_TuneCP5_13p6TeV_powheg-pythia8/NANOAODSIM/130X_mcRun3_2023_realistic_v15-v3/50000/dac901e6-f12f-4d6a-8a6e-07896ef55c18.root",
        "T2_FR_GRIF: davs://eos.grif.fr:11000/eos/grif/cms/grif/store/mc/Run3Summer23NanoAODv12/GluGlutoHHto4B_kl-1p00_kt-1p00_c2-0p35_TuneCP5_13p6TeV_powheg-pythia8/NANOAODSIM/130X_mcRun3_2023_realistic_v15-v3/50000/dac901e6-f12f-4d6a-8a6e-07896ef55c18.root",
        "T1_FR_CCIN2P3_Tape: davs://ccdavcms-tape.in2p3.fr:2880/data/store/mc/Run3Summer23NanoAODv12/GluGlutoHHto4B_kl-1p00_kt-1p00_c2-0p35_TuneCP5_13p6TeV_powheg-pythia8/NANOAODSIM/130X_mcRun3_2023_realistic_v15-v3/50000/dac901e6-f12f-4d6a-8a6e-07896ef55c18.root",
        "T2_US_Caltech: davs://k8s-redir-stageout.ultralight.org:1094/store/mc/Run3Summer23NanoAODv12/GluGlutoHHto4B_kl-1p00_kt-1p00_c2-0p35_TuneCP5_13p6TeV_powheg-pythia8/NANOAODSIM/130X_mcRun3_2023_realistic_v15-v3/50000/dac901e6-f12f-4d6a-8a6e-07896ef55c18.root",
        "T2_RU_ITEP: davs://se3.itep.ru:2880/pnfs/itep.ru/data/cms/store/mc/Run3Summer23NanoAODv12/GluGlutoHHto4B_kl-1p00_kt-1p00_c2-0p35_TuneCP5_13p6TeV_powheg-pythia8/NANOAODSIM/130X_mcRun3_2023_realistic_v15-v3/50000/dac901e6-f12f-4d6a-8a6e-07896ef55c18.root",
        "T2_UK_London_IC: davs://gfe02.grid.hep.ph.ic.ac.uk:2880/pnfs/hep.ph.ic.ac.uk/data/cms/store/mc/Run3Summer23NanoAODv12/GluGlutoHHto4B_kl-1p00_kt-1p00_c2-0p35_TuneCP5_13p6TeV_powheg-pythia8/NANOAODSIM/130X_mcRun3_2023_realistic_v15-v3/50000/dac901e6-f12f-4d6a-8a6e-07896ef55c18.root"
    ],
    "cms:/store/mc/Run3Summer23NanoAODv12/GluGlutoHHto4B_kl-1p00_kt-1p00_c2-0p35_TuneCP5_13p6TeV_powheg-pythia8/NANOAODSIM/130X_mcRun3_2023_realistic_v15-v3/50000/01e8c293-82df-47cc-8789-c6ddd5677fa4.root": [
        "T1_US_FNAL_Disk: davs://cmsdcadisk.fnal.gov:2880/dcache/uscmsdisk/store/mc/Run3Summer23NanoAODv12/GluGlutoHHto4B_kl-1p00_kt-1p00_c2-0p35_TuneCP5_13p6TeV_powheg-pythia8/NANOAODSIM/130X_mcRun3_2023_realistic_v15-v3/50000/01e8c293-82df-47cc-8789-c6ddd5677fa4.root",
        "T2_CH_CSCS: davs://storage01.lcg.cscs.ch:2880/pnfs/lcg.cscs.ch/cms/trivcat/store/mc/Run3Summer23NanoAODv12/GluGlutoHHto4B_kl-1p00_kt-1p00_c2-0p35_TuneCP5_13p6TeV_powheg-pythia8/NANOAODSIM/130X_mcRun3_2023_realistic_v15-v3/50000/01e8c293-82df-47cc-8789-c6ddd5677fa4.root",
        "T2_IT_Legnaro: davs://t2-xrdcms.lnl.infn.it:2880/pnfs/lnl.infn.it/data/cms/store/mc/Run3Summer23NanoAODv12/GluGlutoHHto4B_kl-1p00_kt-1p00_c2-0p35_TuneCP5_13p6TeV_powheg-pythia8/NANOAODSIM/130X_mcRun3_2023_realistic_v15-v3/50000/01e8c293-82df-47cc-8789-c6ddd5677fa4.root",
        "T2_FR_GRIF: davs://eos.grif.fr:11000/eos/grif/cms/grif/store/mc/Run3Summer23NanoAODv12/GluGlutoHHto4B_kl-1p00_kt-1p00_c2-0p35_TuneCP5_13p6TeV_powheg-pythia8/NANOAODSIM/130X_mcRun3_2023_realistic_v15-v3/50000/01e8c293-82df-47cc-8789-c6ddd5677fa4.root",
        "T1_FR_CCIN2P3_Tape: davs://ccdavcms-tape.in2p3.fr:2880/data/store/mc/Run3Summer23NanoAODv12/GluGlutoHHto4B_kl-1p00_kt-1p00_c2-0p35_TuneCP5_13p6TeV_powheg-pythia8/NANOAODSIM/130X_mcRun3_2023_realistic_v15-v3/50000/01e8c293-82df-47cc-8789-c6ddd5677fa4.root",
        "T2_US_Caltech: davs://k8s-redir-stageout.ultralight.org:1094/store/mc/Run3Summer23NanoAODv12/GluGlutoHHto4B_kl-1p00_kt-1p00_c2-0p35_TuneCP5_13p6TeV_powheg-pythia8/NANOAODSIM/130X_mcRun3_2023_realistic_v15-v3/50000/01e8c293-82df-47cc-8789-c6ddd5677fa4.root",
        "T2_RU_ITEP: davs://se3.itep.ru:2880/pnfs/itep.ru/data/cms/store/mc/Run3Summer23NanoAODv12/GluGlutoHHto4B_kl-1p00_kt-1p00_c2-0p35_TuneCP5_13p6TeV_powheg-pythia8/NANOAODSIM/130X_mcRun3_2023_realistic_v15-v3/50000/01e8c293-82df-47cc-8789-c6ddd5677fa4.root"
    ],
    "cms:/store/mc/Run3Summer23NanoAODv12/GluGlutoHHto4B_kl-1p00_kt-1p00_c2-0p35_TuneCP5_13p6TeV_powheg-pythia8/NANOAODSIM/130X_mcRun3_2023_realistic_v15-v3/50000/05e7f990-ed1c-4b60-96fe-f49ddce58dee.root": [
        "T1_US_FNAL_Disk: davs://cmsdcadisk.fnal.gov:2880/dcache/uscmsdisk/store/mc/Run3Summer23NanoAODv12/GluGlutoHHto4B_kl-1p00_kt-1p00_c2-0p35_TuneCP5_13p6TeV_powheg-pythia8/NANOAODSIM/130X_mcRun3_2023_realistic_v15-v3/50000/05e7f990-ed1c-4b60-96fe-f49ddce58dee.root",
        "T2_CH_CSCS: davs://storage01.lcg.cscs.ch:2880/pnfs/lcg.cscs.ch/cms/trivcat/store/mc/Run3Summer23NanoAODv12/GluGlutoHHto4B_kl-1p00_kt-1p00_c2-0p35_TuneCP5_13p6TeV_powheg-pythia8/NANOAODSIM/130X_mcRun3_2023_realistic_v15-v3/50000/05e7f990-ed1c-4b60-96fe-f49ddce58dee.root",
        "T2_IT_Legnaro: davs://t2-xrdcms.lnl.infn.it:2880/pnfs/lnl.infn.it/data/cms/store/mc/Run3Summer23NanoAODv12/GluGlutoHHto4B_kl-1p00_kt-1p00_c2-0p35_TuneCP5_13p6TeV_powheg-pythia8/NANOAODSIM/130X_mcRun3_2023_realistic_v15-v3/50000/05e7f990-ed1c-4b60-96fe-f49ddce58dee.root",
        "T2_FR_GRIF: davs://eos.grif.fr:11000/eos/grif/cms/grif/store/mc/Run3Summer23NanoAODv12/GluGlutoHHto4B_kl-1p00_kt-1p00_c2-0p35_TuneCP5_13p6TeV_powheg-pythia8/NANOAODSIM/130X_mcRun3_2023_realistic_v15-v3/50000/05e7f990-ed1c-4b60-96fe-f49ddce58dee.root",
        "T1_FR_CCIN2P3_Tape: davs://ccdavcms-tape.in2p3.fr:2880/data/store/mc/Run3Summer23NanoAODv12/GluGlutoHHto4B_kl-1p00_kt-1p00_c2-0p35_TuneCP5_13p6TeV_powheg-pythia8/NANOAODSIM/130X_mcRun3_2023_realistic_v15-v3/50000/05e7f990-ed1c-4b60-96fe-f49ddce58dee.root",
        "T2_US_Caltech: davs://k8s-redir-stageout.ultralight.org:1094/store/mc/Run3Summer23NanoAODv12/GluGlutoHHto4B_kl-1p00_kt-1p00_c2-0p35_TuneCP5_13p6TeV_powheg-pythia8/NANOAODSIM/130X_mcRun3_2023_realistic_v15-v3/50000/05e7f990-ed1c-4b60-96fe-f49ddce58dee.root",
        "T2_RU_ITEP: davs://se3.itep.ru:2880/pnfs/itep.ru/data/cms/store/mc/Run3Summer23NanoAODv12/GluGlutoHHto4B_kl-1p00_kt-1p00_c2-0p35_TuneCP5_13p6TeV_powheg-pythia8/NANOAODSIM/130X_mcRun3_2023_realistic_v15-v3/50000/05e7f990-ed1c-4b60-96fe-f49ddce58dee.root"
    ],
    "cms:/store/mc/Run3Summer23NanoAODv12/GluGlutoHHto4B_kl-1p00_kt-1p00_c2-0p35_TuneCP5_13p6TeV_powheg-pythia8/NANOAODSIM/130X_mcRun3_2023_realistic_v15-v3/50000/9fe7e26c-2728-4563-a2f8-fad2533a0195.root": [
        "T1_US_FNAL_Disk: davs://cmsdcadisk.fnal.gov:2880/dcache/uscmsdisk/store/mc/Run3Summer23NanoAODv12/GluGlutoHHto4B_kl-1p00_kt-1p00_c2-0p35_TuneCP5_13p6TeV_powheg-pythia8/NANOAODSIM/130X_mcRun3_2023_realistic_v15-v3/50000/9fe7e26c-2728-4563-a2f8-fad2533a0195.root",
        "T2_CH_CSCS: davs://storage01.lcg.cscs.ch:2880/pnfs/lcg.cscs.ch/cms/trivcat/store/mc/Run3Summer23NanoAODv12/GluGlutoHHto4B_kl-1p00_kt-1p00_c2-0p35_TuneCP5_13p6TeV_powheg-pythia8/NANOAODSIM/130X_mcRun3_2023_realistic_v15-v3/50000/9fe7e26c-2728-4563-a2f8-fad2533a0195.root",
        "T2_IT_Legnaro: davs://t2-xrdcms.lnl.infn.it:2880/pnfs/lnl.infn.it/data/cms/store/mc/Run3Summer23NanoAODv12/GluGlutoHHto4B_kl-1p00_kt-1p00_c2-0p35_TuneCP5_13p6TeV_powheg-pythia8/NANOAODSIM/130X_mcRun3_2023_realistic_v15-v3/50000/9fe7e26c-2728-4563-a2f8-fad2533a0195.root",
        "T2_FR_GRIF: davs://eos.grif.fr:11000/eos/grif/cms/grif/store/mc/Run3Summer23NanoAODv12/GluGlutoHHto4B_kl-1p00_kt-1p00_c2-0p35_TuneCP5_13p6TeV_powheg-pythia8/NANOAODSIM/130X_mcRun3_2023_realistic_v15-v3/50000/9fe7e26c-2728-4563-a2f8-fad2533a0195.root",
        "T1_FR_CCIN2P3_Tape: davs://ccdavcms-tape.in2p3.fr:2880/data/store/mc/Run3Summer23NanoAODv12/GluGlutoHHto4B_kl-1p00_kt-1p00_c2-0p35_TuneCP5_13p6TeV_powheg-pythia8/NANOAODSIM/130X_mcRun3_2023_realistic_v15-v3/50000/9fe7e26c-2728-4563-a2f8-fad2533a0195.root",
        "T2_US_Caltech: davs://k8s-redir-stageout.ultralight.org:1094/store/mc/Run3Summer23NanoAODv12/GluGlutoHHto4B_kl-1p00_kt-1p00_c2-0p35_TuneCP5_13p6TeV_powheg-pythia8/NANOAODSIM/130X_mcRun3_2023_realistic_v15-v3/50000/9fe7e26c-2728-4563-a2f8-fad2533a0195.root",
        "T2_RU_ITEP: davs://se3.itep.ru:2880/pnfs/itep.ru/data/cms/store/mc/Run3Summer23NanoAODv12/GluGlutoHHto4B_kl-1p00_kt-1p00_c2-0p35_TuneCP5_13p6TeV_powheg-pythia8/NANOAODSIM/130X_mcRun3_2023_realistic_v15-v3/50000/9fe7e26c-2728-4563-a2f8-fad2533a0195.root"
    ],
    "cms:/store/mc/Run3Summer23NanoAODv12/GluGlutoHHto4B_kl-1p00_kt-1p00_c2-0p35_TuneCP5_13p6TeV_powheg-pythia8/NANOAODSIM/130X_mcRun3_2023_realistic_v15-v3/50000/a51caa81-f274-4435-82e8-ca39e371fbaa.root": [
        "T1_US_FNAL_Disk: davs://cmsdcadisk.fnal.gov:2880/dcache/uscmsdisk/store/mc/Run3Summer23NanoAODv12/GluGlutoHHto4B_kl-1p00_kt-1p00_c2-0p35_TuneCP5_13p6TeV_powheg-pythia8/NANOAODSIM/130X_mcRun3_2023_realistic_v15-v3/50000/a51caa81-f274-4435-82e8-ca39e371fbaa.root",
        "T2_CH_CSCS: davs://storage01.lcg.cscs.ch:2880/pnfs/lcg.cscs.ch/cms/trivcat/store/mc/Run3Summer23NanoAODv12/GluGlutoHHto4B_kl-1p00_kt-1p00_c2-0p35_TuneCP5_13p6TeV_powheg-pythia8/NANOAODSIM/130X_mcRun3_2023_realistic_v15-v3/50000/a51caa81-f274-4435-82e8-ca39e371fbaa.root",
        "T2_IT_Legnaro: davs://t2-xrdcms.lnl.infn.it:2880/pnfs/lnl.infn.it/data/cms/store/mc/Run3Summer23NanoAODv12/GluGlutoHHto4B_kl-1p00_kt-1p00_c2-0p35_TuneCP5_13p6TeV_powheg-pythia8/NANOAODSIM/130X_mcRun3_2023_realistic_v15-v3/50000/a51caa81-f274-4435-82e8-ca39e371fbaa.root",
        "T2_FR_GRIF: davs://eos.grif.fr:11000/eos/grif/cms/grif/store/mc/Run3Summer23NanoAODv12/GluGlutoHHto4B_kl-1p00_kt-1p00_c2-0p35_TuneCP5_13p6TeV_powheg-pythia8/NANOAODSIM/130X_mcRun3_2023_realistic_v15-v3/50000/a51caa81-f274-4435-82e8-ca39e371fbaa.root",
        "T1_FR_CCIN2P3_Tape: davs://ccdavcms-tape.in2p3.fr:2880/data/store/mc/Run3Summer23NanoAODv12/GluGlutoHHto4B_kl-1p00_kt-1p00_c2-0p35_TuneCP5_13p6TeV_powheg-pythia8/NANOAODSIM/130X_mcRun3_2023_realistic_v15-v3/50000/a51caa81-f274-4435-82e8-ca39e371fbaa.root",
        "T2_US_Caltech: davs://k8s-redir-stageout.ultralight.org:1094/store/mc/Run3Summer23NanoAODv12/GluGlutoHHto4B_kl-1p00_kt-1p00_c2-0p35_TuneCP5_13p6TeV_powheg-pythia8/NANOAODSIM/130X_mcRun3_2023_realistic_v15-v3/50000/a51caa81-f274-4435-82e8-ca39e371fbaa.root",
        "T2_RU_ITEP: davs://se3.itep.ru:2880/pnfs/itep.ru/data/cms/store/mc/Run3Summer23NanoAODv12/GluGlutoHHto4B_kl-1p00_kt-1p00_c2-0p35_TuneCP5_13p6TeV_powheg-pythia8/NANOAODSIM/130X_mcRun3_2023_realistic_v15-v3/50000/a51caa81-f274-4435-82e8-ca39e371fbaa.root"
    ],
    "cms:/store/mc/Run3Summer23NanoAODv12/GluGlutoHHto4B_kl-1p00_kt-1p00_c2-0p35_TuneCP5_13p6TeV_powheg-pythia8/NANOAODSIM/130X_mcRun3_2023_realistic_v15-v3/50000/b70d2b5e-9412-4bd0-88c1-e69bc72d3d4b.root": [
        "T1_US_FNAL_Disk: davs://cmsdcadisk.fnal.gov:2880/dcache/uscmsdisk/store/mc/Run3Summer23NanoAODv12/GluGlutoHHto4B_kl-1p00_kt-1p00_c2-0p35_TuneCP5_13p6TeV_powheg-pythia8/NANOAODSIM/130X_mcRun3_2023_realistic_v15-v3/50000/b70d2b5e-9412-4bd0-88c1-e69bc72d3d4b.root",
        "T2_CH_CSCS: davs://storage01.lcg.cscs.ch:2880/pnfs/lcg.cscs.ch/cms/trivcat/store/mc/Run3Summer23NanoAODv12/GluGlutoHHto4B_kl-1p00_kt-1p00_c2-0p35_TuneCP5_13p6TeV_powheg-pythia8/NANOAODSIM/130X_mcRun3_2023_realistic_v15-v3/50000/b70d2b5e-9412-4bd0-88c1-e69bc72d3d4b.root",
        "T2_IT_Legnaro: davs://t2-xrdcms.lnl.infn.it:2880/pnfs/lnl.infn.it/data/cms/store/mc/Run3Summer23NanoAODv12/GluGlutoHHto4B_kl-1p00_kt-1p00_c2-0p35_TuneCP5_13p6TeV_powheg-pythia8/NANOAODSIM/130X_mcRun3_2023_realistic_v15-v3/50000/b70d2b5e-9412-4bd0-88c1-e69bc72d3d4b.root",
        "T2_FR_GRIF: davs://eos.grif.fr:11000/eos/grif/cms/grif/store/mc/Run3Summer23NanoAODv12/GluGlutoHHto4B_kl-1p00_kt-1p00_c2-0p35_TuneCP5_13p6TeV_powheg-pythia8/NANOAODSIM/130X_mcRun3_2023_realistic_v15-v3/50000/b70d2b5e-9412-4bd0-88c1-e69bc72d3d4b.root",
        "T1_FR_CCIN2P3_Tape: davs://ccdavcms-tape.in2p3.fr:2880/data/store/mc/Run3Summer23NanoAODv12/GluGlutoHHto4B_kl-1p00_kt-1p00_c2-0p35_TuneCP5_13p6TeV_powheg-pythia8/NANOAODSIM/130X_mcRun3_2023_realistic_v15-v3/50000/b70d2b5e-9412-4bd0-88c1-e69bc72d3d4b.root",
        "T2_US_Caltech: davs://k8s-redir-stageout.ultralight.org:1094/store/mc/Run3Summer23NanoAODv12/GluGlutoHHto4B_kl-1p00_kt-1p00_c2-0p35_TuneCP5_13p6TeV_powheg-pythia8/NANOAODSIM/130X_mcRun3_2023_realistic_v15-v3/50000/b70d2b5e-9412-4bd0-88c1-e69bc72d3d4b.root",
        "T2_RU_ITEP: davs://se3.itep.ru:2880/pnfs/itep.ru/data/cms/store/mc/Run3Summer23NanoAODv12/GluGlutoHHto4B_kl-1p00_kt-1p00_c2-0p35_TuneCP5_13p6TeV_powheg-pythia8/NANOAODSIM/130X_mcRun3_2023_realistic_v15-v3/50000/b70d2b5e-9412-4bd0-88c1-e69bc72d3d4b.root"
    ],
    "cms:/store/mc/Run3Summer23NanoAODv12/GluGlutoHHto4B_kl-1p00_kt-1p00_c2-0p35_TuneCP5_13p6TeV_powheg-pythia8/NANOAODSIM/130X_mcRun3_2023_realistic_v15-v3/50000/5838a4e6-a38f-4009-a8d0-5ead0a113868.root": [
        "T1_US_FNAL_Disk: davs://cmsdcadisk.fnal.gov:2880/dcache/uscmsdisk/store/mc/Run3Summer23NanoAODv12/GluGlutoHHto4B_kl-1p00_kt-1p00_c2-0p35_TuneCP5_13p6TeV_powheg-pythia8/NANOAODSIM/130X_mcRun3_2023_realistic_v15-v3/50000/5838a4e6-a38f-4009-a8d0-5ead0a113868.root",
        "T2_CH_CSCS: davs://storage01.lcg.cscs.ch:2880/pnfs/lcg.cscs.ch/cms/trivcat/store/mc/Run3Summer23NanoAODv12/GluGlutoHHto4B_kl-1p00_kt-1p00_c2-0p35_TuneCP5_13p6TeV_powheg-pythia8/NANOAODSIM/130X_mcRun3_2023_realistic_v15-v3/50000/5838a4e6-a38f-4009-a8d0-5ead0a113868.root",
        "T1_FR_CCIN2P3_Disk: davs://ccdavcms.in2p3.fr:2880/disk/data/store/mc/Run3Summer23NanoAODv12/GluGlutoHHto4B_kl-1p00_kt-1p00_c2-0p35_TuneCP5_13p6TeV_powheg-pythia8/NANOAODSIM/130X_mcRun3_2023_realistic_v15-v3/50000/5838a4e6-a38f-4009-a8d0-5ead0a113868.root",
        "T2_IT_Legnaro: davs://t2-xrdcms.lnl.infn.it:2880/pnfs/lnl.infn.it/data/cms/store/mc/Run3Summer23NanoAODv12/GluGlutoHHto4B_kl-1p00_kt-1p00_c2-0p35_TuneCP5_13p6TeV_powheg-pythia8/NANOAODSIM/130X_mcRun3_2023_realistic_v15-v3/50000/5838a4e6-a38f-4009-a8d0-5ead0a113868.root",
        "T2_FR_GRIF: davs://eos.grif.fr:11000/eos/grif/cms/grif/store/mc/Run3Summer23NanoAODv12/GluGlutoHHto4B_kl-1p00_kt-1p00_c2-0p35_TuneCP5_13p6TeV_powheg-pythia8/NANOAODSIM/130X_mcRun3_2023_realistic_v15-v3/50000/5838a4e6-a38f-4009-a8d0-5ead0a113868.root",
        "T1_FR_CCIN2P3_Tape: davs://ccdavcms-tape.in2p3.fr:2880/data/store/mc/Run3Summer23NanoAODv12/GluGlutoHHto4B_kl-1p00_kt-1p00_c2-0p35_TuneCP5_13p6TeV_powheg-pythia8/NANOAODSIM/130X_mcRun3_2023_realistic_v15-v3/50000/5838a4e6-a38f-4009-a8d0-5ead0a113868.root",
        "T2_US_Caltech: davs://k8s-redir-stageout.ultralight.org:1094/store/mc/Run3Summer23NanoAODv12/GluGlutoHHto4B_kl-1p00_kt-1p00_c2-0p35_TuneCP5_13p6TeV_powheg-pythia8/NANOAODSIM/130X_mcRun3_2023_realistic_v15-v3/50000/5838a4e6-a38f-4009-a8d0-5ead0a113868.root",
        "T2_RU_ITEP: davs://se3.itep.ru:2880/pnfs/itep.ru/data/cms/store/mc/Run3Summer23NanoAODv12/GluGlutoHHto4B_kl-1p00_kt-1p00_c2-0p35_TuneCP5_13p6TeV_powheg-pythia8/NANOAODSIM/130X_mcRun3_2023_realistic_v15-v3/50000/5838a4e6-a38f-4009-a8d0-5ead0a113868.root"
    ],
    "cms:/store/mc/Run3Summer23NanoAODv12/GluGlutoHHto4B_kl-1p00_kt-1p00_c2-0p35_TuneCP5_13p6TeV_powheg-pythia8/NANOAODSIM/130X_mcRun3_2023_realistic_v15-v3/50000/b4dbeccb-0284-4c16-8ce9-86f4aec8951d.root": [
        "T1_US_FNAL_Disk: davs://cmsdcadisk.fnal.gov:2880/dcache/uscmsdisk/store/mc/Run3Summer23NanoAODv12/GluGlutoHHto4B_kl-1p00_kt-1p00_c2-0p35_TuneCP5_13p6TeV_powheg-pythia8/NANOAODSIM/130X_mcRun3_2023_realistic_v15-v3/50000/b4dbeccb-0284-4c16-8ce9-86f4aec8951d.root",
        "T2_CH_CSCS: davs://storage01.lcg.cscs.ch:2880/pnfs/lcg.cscs.ch/cms/trivcat/store/mc/Run3Summer23NanoAODv12/GluGlutoHHto4B_kl-1p00_kt-1p00_c2-0p35_TuneCP5_13p6TeV_powheg-pythia8/NANOAODSIM/130X_mcRun3_2023_realistic_v15-v3/50000/b4dbeccb-0284-4c16-8ce9-86f4aec8951d.root",
        "T2_IT_Legnaro: davs://t2-xrdcms.lnl.infn.it:2880/pnfs/lnl.infn.it/data/cms/store/mc/Run3Summer23NanoAODv12/GluGlutoHHto4B_kl-1p00_kt-1p00_c2-0p35_TuneCP5_13p6TeV_powheg-pythia8/NANOAODSIM/130X_mcRun3_2023_realistic_v15-v3/50000/b4dbeccb-0284-4c16-8ce9-86f4aec8951d.root",
        "T2_FR_GRIF: davs://eos.grif.fr:11000/eos/grif/cms/grif/store/mc/Run3Summer23NanoAODv12/GluGlutoHHto4B_kl-1p00_kt-1p00_c2-0p35_TuneCP5_13p6TeV_powheg-pythia8/NANOAODSIM/130X_mcRun3_2023_realistic_v15-v3/50000/b4dbeccb-0284-4c16-8ce9-86f4aec8951d.root",
        "T1_FR_CCIN2P3_Tape: davs://ccdavcms-tape.in2p3.fr:2880/data/store/mc/Run3Summer23NanoAODv12/GluGlutoHHto4B_kl-1p00_kt-1p00_c2-0p35_TuneCP5_13p6TeV_powheg-pythia8/NANOAODSIM/130X_mcRun3_2023_realistic_v15-v3/50000/b4dbeccb-0284-4c16-8ce9-86f4aec8951d.root",
        "T2_US_Caltech: davs://k8s-redir-stageout.ultralight.org:1094/store/mc/Run3Summer23NanoAODv12/GluGlutoHHto4B_kl-1p00_kt-1p00_c2-0p35_TuneCP5_13p6TeV_powheg-pythia8/NANOAODSIM/130X_mcRun3_2023_realistic_v15-v3/50000/b4dbeccb-0284-4c16-8ce9-86f4aec8951d.root",
        "T2_RU_ITEP: davs://se3.itep.ru:2880/pnfs/itep.ru/data/cms/store/mc/Run3Summer23NanoAODv12/GluGlutoHHto4B_kl-1p00_kt-1p00_c2-0p35_TuneCP5_13p6TeV_powheg-pythia8/NANOAODSIM/130X_mcRun3_2023_realistic_v15-v3/50000/b4dbeccb-0284-4c16-8ce9-86f4aec8951d.root",
        "T2_US_Nebraska: davs://xrootd-local.unl.edu:1094/store/mc/Run3Summer23NanoAODv12/GluGlutoHHto4B_kl-1p00_kt-1p00_c2-0p35_TuneCP5_13p6TeV_powheg-pythia8/NANOAODSIM/130X_mcRun3_2023_realistic_v15-v3/50000/b4dbeccb-0284-4c16-8ce9-86f4aec8951d.root"
    ],
    "cms:/store/mc/Run3Summer23NanoAODv12/GluGlutoHHto4B_kl-1p00_kt-1p00_c2-0p35_TuneCP5_13p6TeV_powheg-pythia8/NANOAODSIM/130X_mcRun3_2023_realistic_v15-v3/50000/8835b5c2-27f0-4464-ab27-398752a9d78c.root": [
        "T1_US_FNAL_Disk: davs://cmsdcadisk.fnal.gov:2880/dcache/uscmsdisk/store/mc/Run3Summer23NanoAODv12/GluGlutoHHto4B_kl-1p00_kt-1p00_c2-0p35_TuneCP5_13p6TeV_powheg-pythia8/NANOAODSIM/130X_mcRun3_2023_realistic_v15-v3/50000/8835b5c2-27f0-4464-ab27-398752a9d78c.root",
        "T2_CH_CSCS: davs://storage01.lcg.cscs.ch:2880/pnfs/lcg.cscs.ch/cms/trivcat/store/mc/Run3Summer23NanoAODv12/GluGlutoHHto4B_kl-1p00_kt-1p00_c2-0p35_TuneCP5_13p6TeV_powheg-pythia8/NANOAODSIM/130X_mcRun3_2023_realistic_v15-v3/50000/8835b5c2-27f0-4464-ab27-398752a9d78c.root",
        "T2_IT_Legnaro: davs://t2-xrdcms.lnl.infn.it:2880/pnfs/lnl.infn.it/data/cms/store/mc/Run3Summer23NanoAODv12/GluGlutoHHto4B_kl-1p00_kt-1p00_c2-0p35_TuneCP5_13p6TeV_powheg-pythia8/NANOAODSIM/130X_mcRun3_2023_realistic_v15-v3/50000/8835b5c2-27f0-4464-ab27-398752a9d78c.root",
        "T2_FR_GRIF: davs://eos.grif.fr:11000/eos/grif/cms/grif/store/mc/Run3Summer23NanoAODv12/GluGlutoHHto4B_kl-1p00_kt-1p00_c2-0p35_TuneCP5_13p6TeV_powheg-pythia8/NANOAODSIM/130X_mcRun3_2023_realistic_v15-v3/50000/8835b5c2-27f0-4464-ab27-398752a9d78c.root",
        "T1_FR_CCIN2P3_Tape: davs://ccdavcms-tape.in2p3.fr:2880/data/store/mc/Run3Summer23NanoAODv12/GluGlutoHHto4B_kl-1p00_kt-1p00_c2-0p35_TuneCP5_13p6TeV_powheg-pythia8/NANOAODSIM/130X_mcRun3_2023_realistic_v15-v3/50000/8835b5c2-27f0-4464-ab27-398752a9d78c.root",
        "T2_US_Caltech: davs://k8s-redir-stageout.ultralight.org:1094/store/mc/Run3Summer23NanoAODv12/GluGlutoHHto4B_kl-1p00_kt-1p00_c2-0p35_TuneCP5_13p6TeV_powheg-pythia8/NANOAODSIM/130X_mcRun3_2023_realistic_v15-v3/50000/8835b5c2-27f0-4464-ab27-398752a9d78c.root",
        "T2_RU_ITEP: davs://se3.itep.ru:2880/pnfs/itep.ru/data/cms/store/mc/Run3Summer23NanoAODv12/GluGlutoHHto4B_kl-1p00_kt-1p00_c2-0p35_TuneCP5_13p6TeV_powheg-pythia8/NANOAODSIM/130X_mcRun3_2023_realistic_v15-v3/50000/8835b5c2-27f0-4464-ab27-398752a9d78c.root"
    ],
    "cms:/store/mc/Run3Summer23NanoAODv12/GluGlutoHHto4B_kl-1p00_kt-1p00_c2-0p35_TuneCP5_13p6TeV_powheg-pythia8/NANOAODSIM/130X_mcRun3_2023_realistic_v15-v3/50000/c4c93e03-9f05-4992-b3a8-2b7f3899cddc.root": [
        "T1_US_FNAL_Disk: davs://cmsdcadisk.fnal.gov:2880/dcache/uscmsdisk/store/mc/Run3Summer23NanoAODv12/GluGlutoHHto4B_kl-1p00_kt-1p00_c2-0p35_TuneCP5_13p6TeV_powheg-pythia8/NANOAODSIM/130X_mcRun3_2023_realistic_v15-v3/50000/c4c93e03-9f05-4992-b3a8-2b7f3899cddc.root",
        "T2_CH_CSCS: davs://storage01.lcg.cscs.ch:2880/pnfs/lcg.cscs.ch/cms/trivcat/store/mc/Run3Summer23NanoAODv12/GluGlutoHHto4B_kl-1p00_kt-1p00_c2-0p35_TuneCP5_13p6TeV_powheg-pythia8/NANOAODSIM/130X_mcRun3_2023_realistic_v15-v3/50000/c4c93e03-9f05-4992-b3a8-2b7f3899cddc.root",
        "T2_IT_Legnaro: davs://t2-xrdcms.lnl.infn.it:2880/pnfs/lnl.infn.it/data/cms/store/mc/Run3Summer23NanoAODv12/GluGlutoHHto4B_kl-1p00_kt-1p00_c2-0p35_TuneCP5_13p6TeV_powheg-pythia8/NANOAODSIM/130X_mcRun3_2023_realistic_v15-v3/50000/c4c93e03-9f05-4992-b3a8-2b7f3899cddc.root",
        "T2_FR_GRIF: davs://eos.grif.fr:11000/eos/grif/cms/grif/store/mc/Run3Summer23NanoAODv12/GluGlutoHHto4B_kl-1p00_kt-1p00_c2-0p35_TuneCP5_13p6TeV_powheg-pythia8/NANOAODSIM/130X_mcRun3_2023_realistic_v15-v3/50000/c4c93e03-9f05-4992-b3a8-2b7f3899cddc.root",
        "T1_FR_CCIN2P3_Tape: davs://ccdavcms-tape.in2p3.fr:2880/data/store/mc/Run3Summer23NanoAODv12/GluGlutoHHto4B_kl-1p00_kt-1p00_c2-0p35_TuneCP5_13p6TeV_powheg-pythia8/NANOAODSIM/130X_mcRun3_2023_realistic_v15-v3/50000/c4c93e03-9f05-4992-b3a8-2b7f3899cddc.root",
        "T2_US_Caltech: davs://k8s-redir-stageout.ultralight.org:1094/store/mc/Run3Summer23NanoAODv12/GluGlutoHHto4B_kl-1p00_kt-1p00_c2-0p35_TuneCP5_13p6TeV_powheg-pythia8/NANOAODSIM/130X_mcRun3_2023_realistic_v15-v3/50000/c4c93e03-9f05-4992-b3a8-2b7f3899cddc.root",
        "T2_RU_ITEP: davs://se3.itep.ru:2880/pnfs/itep.ru/data/cms/store/mc/Run3Summer23NanoAODv12/GluGlutoHHto4B_kl-1p00_kt-1p00_c2-0p35_TuneCP5_13p6TeV_powheg-pythia8/NANOAODSIM/130X_mcRun3_2023_realistic_v15-v3/50000/c4c93e03-9f05-4992-b3a8-2b7f3899cddc.root"
    ],
    "cms:/store/mc/Run3Summer23NanoAODv12/GluGlutoHHto4B_kl-1p00_kt-1p00_c2-0p35_TuneCP5_13p6TeV_powheg-pythia8/NANOAODSIM/130X_mcRun3_2023_realistic_v15-v3/50000/4bcaf6fe-b1bb-4ce5-99d5-42499a3f2843.root": [
        "T1_US_FNAL_Disk: davs://cmsdcadisk.fnal.gov:2880/dcache/uscmsdisk/store/mc/Run3Summer23NanoAODv12/GluGlutoHHto4B_kl-1p00_kt-1p00_c2-0p35_TuneCP5_13p6TeV_powheg-pythia8/NANOAODSIM/130X_mcRun3_2023_realistic_v15-v3/50000/4bcaf6fe-b1bb-4ce5-99d5-42499a3f2843.root",
        "T2_CH_CSCS: davs://storage01.lcg.cscs.ch:2880/pnfs/lcg.cscs.ch/cms/trivcat/store/mc/Run3Summer23NanoAODv12/GluGlutoHHto4B_kl-1p00_kt-1p00_c2-0p35_TuneCP5_13p6TeV_powheg-pythia8/NANOAODSIM/130X_mcRun3_2023_realistic_v15-v3/50000/4bcaf6fe-b1bb-4ce5-99d5-42499a3f2843.root",
        "T2_TW_NCHC: davs://se01.grid.nchc.org.tw:443//cms/store/mc/Run3Summer23NanoAODv12/GluGlutoHHto4B_kl-1p00_kt-1p00_c2-0p35_TuneCP5_13p6TeV_powheg-pythia8/NANOAODSIM/130X_mcRun3_2023_realistic_v15-v3/50000/4bcaf6fe-b1bb-4ce5-99d5-42499a3f2843.root",
        "T2_IT_Legnaro: davs://t2-xrdcms.lnl.infn.it:2880/pnfs/lnl.infn.it/data/cms/store/mc/Run3Summer23NanoAODv12/GluGlutoHHto4B_kl-1p00_kt-1p00_c2-0p35_TuneCP5_13p6TeV_powheg-pythia8/NANOAODSIM/130X_mcRun3_2023_realistic_v15-v3/50000/4bcaf6fe-b1bb-4ce5-99d5-42499a3f2843.root",
        "T2_FR_GRIF: davs://eos.grif.fr:11000/eos/grif/cms/grif/store/mc/Run3Summer23NanoAODv12/GluGlutoHHto4B_kl-1p00_kt-1p00_c2-0p35_TuneCP5_13p6TeV_powheg-pythia8/NANOAODSIM/130X_mcRun3_2023_realistic_v15-v3/50000/4bcaf6fe-b1bb-4ce5-99d5-42499a3f2843.root",
        "T1_FR_CCIN2P3_Tape: davs://ccdavcms-tape.in2p3.fr:2880/data/store/mc/Run3Summer23NanoAODv12/GluGlutoHHto4B_kl-1p00_kt-1p00_c2-0p35_TuneCP5_13p6TeV_powheg-pythia8/NANOAODSIM/130X_mcRun3_2023_realistic_v15-v3/50000/4bcaf6fe-b1bb-4ce5-99d5-42499a3f2843.root",
        "T2_US_Caltech: davs://k8s-redir-stageout.ultralight.org:1094/store/mc/Run3Summer23NanoAODv12/GluGlutoHHto4B_kl-1p00_kt-1p00_c2-0p35_TuneCP5_13p6TeV_powheg-pythia8/NANOAODSIM/130X_mcRun3_2023_realistic_v15-v3/50000/4bcaf6fe-b1bb-4ce5-99d5-42499a3f2843.root",
        "T2_RU_ITEP: davs://se3.itep.ru:2880/pnfs/itep.ru/data/cms/store/mc/Run3Summer23NanoAODv12/GluGlutoHHto4B_kl-1p00_kt-1p00_c2-0p35_TuneCP5_13p6TeV_powheg-pythia8/NANOAODSIM/130X_mcRun3_2023_realistic_v15-v3/50000/4bcaf6fe-b1bb-4ce5-99d5-42499a3f2843.root"
    ],
    "cms:/store/mc/Run3Summer23NanoAODv12/GluGlutoHHto4B_kl-1p00_kt-1p00_c2-0p35_TuneCP5_13p6TeV_powheg-pythia8/NANOAODSIM/130X_mcRun3_2023_realistic_v15-v3/50000/c2601965-3238-43a7-90a5-106811dd37d1.root": [
        "T1_US_FNAL_Disk: davs://cmsdcadisk.fnal.gov:2880/dcache/uscmsdisk/store/mc/Run3Summer23NanoAODv12/GluGlutoHHto4B_kl-1p00_kt-1p00_c2-0p35_TuneCP5_13p6TeV_powheg-pythia8/NANOAODSIM/130X_mcRun3_2023_realistic_v15-v3/50000/c2601965-3238-43a7-90a5-106811dd37d1.root",
        "T2_CH_CSCS: davs://storage01.lcg.cscs.ch:2880/pnfs/lcg.cscs.ch/cms/trivcat/store/mc/Run3Summer23NanoAODv12/GluGlutoHHto4B_kl-1p00_kt-1p00_c2-0p35_TuneCP5_13p6TeV_powheg-pythia8/NANOAODSIM/130X_mcRun3_2023_realistic_v15-v3/50000/c2601965-3238-43a7-90a5-106811dd37d1.root",
        "T2_IT_Legnaro: davs://t2-xrdcms.lnl.infn.it:2880/pnfs/lnl.infn.it/data/cms/store/mc/Run3Summer23NanoAODv12/GluGlutoHHto4B_kl-1p00_kt-1p00_c2-0p35_TuneCP5_13p6TeV_powheg-pythia8/NANOAODSIM/130X_mcRun3_2023_realistic_v15-v3/50000/c2601965-3238-43a7-90a5-106811dd37d1.root",
        "T2_FR_GRIF: davs://eos.grif.fr:11000/eos/grif/cms/grif/store/mc/Run3Summer23NanoAODv12/GluGlutoHHto4B_kl-1p00_kt-1p00_c2-0p35_TuneCP5_13p6TeV_powheg-pythia8/NANOAODSIM/130X_mcRun3_2023_realistic_v15-v3/50000/c2601965-3238-43a7-90a5-106811dd37d1.root",
        "T1_FR_CCIN2P3_Tape: davs://ccdavcms-tape.in2p3.fr:2880/data/store/mc/Run3Summer23NanoAODv12/GluGlutoHHto4B_kl-1p00_kt-1p00_c2-0p35_TuneCP5_13p6TeV_powheg-pythia8/NANOAODSIM/130X_mcRun3_2023_realistic_v15-v3/50000/c2601965-3238-43a7-90a5-106811dd37d1.root",
        "T2_US_Caltech: davs://k8s-redir-stageout.ultralight.org:1094/store/mc/Run3Summer23NanoAODv12/GluGlutoHHto4B_kl-1p00_kt-1p00_c2-0p35_TuneCP5_13p6TeV_powheg-pythia8/NANOAODSIM/130X_mcRun3_2023_realistic_v15-v3/50000/c2601965-3238-43a7-90a5-106811dd37d1.root",
        "T2_RU_ITEP: davs://se3.itep.ru:2880/pnfs/itep.ru/data/cms/store/mc/Run3Summer23NanoAODv12/GluGlutoHHto4B_kl-1p00_kt-1p00_c2-0p35_TuneCP5_13p6TeV_powheg-pythia8/NANOAODSIM/130X_mcRun3_2023_realistic_v15-v3/50000/c2601965-3238-43a7-90a5-106811dd37d1.root"
    ],
    "cms:/store/mc/Run3Summer23NanoAODv12/GluGlutoHHto4B_kl-1p00_kt-1p00_c2-0p35_TuneCP5_13p6TeV_powheg-pythia8/NANOAODSIM/130X_mcRun3_2023_realistic_v15-v3/50000/01de0f80-ed1b-4f0c-afdd-8319b250c2d6.root": [
        "T1_US_FNAL_Disk: davs://cmsdcadisk.fnal.gov:2880/dcache/uscmsdisk/store/mc/Run3Summer23NanoAODv12/GluGlutoHHto4B_kl-1p00_kt-1p00_c2-0p35_TuneCP5_13p6TeV_powheg-pythia8/NANOAODSIM/130X_mcRun3_2023_realistic_v15-v3/50000/01de0f80-ed1b-4f0c-afdd-8319b250c2d6.root",
        "T2_CH_CSCS: davs://storage01.lcg.cscs.ch:2880/pnfs/lcg.cscs.ch/cms/trivcat/store/mc/Run3Summer23NanoAODv12/GluGlutoHHto4B_kl-1p00_kt-1p00_c2-0p35_TuneCP5_13p6TeV_powheg-pythia8/NANOAODSIM/130X_mcRun3_2023_realistic_v15-v3/50000/01de0f80-ed1b-4f0c-afdd-8319b250c2d6.root",
        "T2_IT_Legnaro: davs://t2-xrdcms.lnl.infn.it:2880/pnfs/lnl.infn.it/data/cms/store/mc/Run3Summer23NanoAODv12/GluGlutoHHto4B_kl-1p00_kt-1p00_c2-0p35_TuneCP5_13p6TeV_powheg-pythia8/NANOAODSIM/130X_mcRun3_2023_realistic_v15-v3/50000/01de0f80-ed1b-4f0c-afdd-8319b250c2d6.root",
        "T2_FR_GRIF: davs://eos.grif.fr:11000/eos/grif/cms/grif/store/mc/Run3Summer23NanoAODv12/GluGlutoHHto4B_kl-1p00_kt-1p00_c2-0p35_TuneCP5_13p6TeV_powheg-pythia8/NANOAODSIM/130X_mcRun3_2023_realistic_v15-v3/50000/01de0f80-ed1b-4f0c-afdd-8319b250c2d6.root",
        "T1_FR_CCIN2P3_Tape: davs://ccdavcms-tape.in2p3.fr:2880/data/store/mc/Run3Summer23NanoAODv12/GluGlutoHHto4B_kl-1p00_kt-1p00_c2-0p35_TuneCP5_13p6TeV_powheg-pythia8/NANOAODSIM/130X_mcRun3_2023_realistic_v15-v3/50000/01de0f80-ed1b-4f0c-afdd-8319b250c2d6.root",
        "T2_US_Caltech: davs://k8s-redir-stageout.ultralight.org:1094/store/mc/Run3Summer23NanoAODv12/GluGlutoHHto4B_kl-1p00_kt-1p00_c2-0p35_TuneCP5_13p6TeV_powheg-pythia8/NANOAODSIM/130X_mcRun3_2023_realistic_v15-v3/50000/01de0f80-ed1b-4f0c-afdd-8319b250c2d6.root",
        "T2_RU_ITEP: davs://se3.itep.ru:2880/pnfs/itep.ru/data/cms/store/mc/Run3Summer23NanoAODv12/GluGlutoHHto4B_kl-1p00_kt-1p00_c2-0p35_TuneCP5_13p6TeV_powheg-pythia8/NANOAODSIM/130X_mcRun3_2023_realistic_v15-v3/50000/01de0f80-ed1b-4f0c-afdd-8319b250c2d6.root",
        "T2_ES_CIEMAT: davs://srm.ciemat.es:2880/pnfs/ciemat.es/data/cms/prod/store/mc/Run3Summer23NanoAODv12/GluGlutoHHto4B_kl-1p00_kt-1p00_c2-0p35_TuneCP5_13p6TeV_powheg-pythia8/NANOAODSIM/130X_mcRun3_2023_realistic_v15-v3/50000/01de0f80-ed1b-4f0c-afdd-8319b250c2d6.root"
    ]
}