+------------------------------------------------------------------------------------------------------------------------------------------------------------------------------------------------------+--------+-------------+------------+----------+
| SCOPE:NAME                                                                                                                                                                                           | GUID   | ADLER32     | FILESIZE   | EVENTS   |
|------------------------------------------------------------------------------------------------------------------------------------------------------------------------------------------------------+--------+-------------+------------+----------|
| cms:/store/mc/Run3Summer23BPixNanoAODv12/GluGluHto2B_M-125_TuneCP5_13p6TeV_powheg-minlo-pythia8/NANOAODSIM/130X_mcRun3_2023_realistic_postBPix_v2-v2/50000/0ddd5ec1-2803-4767-8ba5-91e3cfce9f09.root | (None) | ad:c1b82a89 | 656.988 MB |          |
| cms:/store/mc/Run3Summer23BPixNanoAODv12/GluGluHto2B_M-125_TuneCP5_13p6TeV_powheg-minlo-pythia8/NANOAODSIM/130X_mcRun3_2023_realistic_postBPix_v2-v2/50000/39ee4aea-a3f5-4a49-98a8-4b8dd3324ca7.root | (None) | ad:887838f5 | 365.956 MB |          |
| cms:/store/mc/Run3Summer23BPixNanoAODv12/GluGluHto2B_M-125_TuneCP5_13p6TeV_powheg-minlo-pythia8/NANOAODSIM/130X_mcRun3_2023_realistic_postBPix_v2-v2/50000/b542ec7b-e040-4803-865c-197448e51a3e.root | (None) | ad:45cd456a | 560.339 MB |          |
| cms:/store/mc/Run3Summer23BPixNanoAODv12/GluGluHto2B_M-125_TuneCP5_13p6TeV_powheg-minlo-pythia8/NANOAODSIM/130X_mcRun3_2023_realistic_postBPix_v2-v2/50000/c519f76c-315a-47fe-9fab-806587ecab9b.root | (None) | ad:c5f1acec | 382.830 MB |          |
| cms:/store/mc/Run3Summer23BPixNanoAODv12/GluGluHto2B_M-125_TuneCP5_13p6TeV_powheg-minlo-pythia8/NANOAODSIM/130X_mcRun3_2023_realistic_postBPix_v2-v2/50000/dac0127b-5cde-4869-af6c-fa4beda11a71.root | (None) | ad:74a3cd8f | 357.595 MB |          |
| cms:/store/mc/Run3Summer23BPixNanoAODv12/GluGluHto2B_M-125_TuneCP5_13p6TeV_powheg-minlo-pythia8/NANOAODSIM/130X_mcRun3_2023_realistic_postBPix_v2-v2/50000/ed2ac153-00b1-4bd4-879a-64faaf2bdfe1.root | (None) | ad:278ea571 | 112.592 MB |          |
| cms:/store/mc/Run3Summer23BPixNanoAODv12/GluGluHto2B_M-125_TuneCP5_13p6TeV_powheg-minlo-pythia8/NANOAODSIM/130X_mcRun3_2023_realistic_postBPix_v2-v2/50000/f248bb8d-6dfd-45eb-b298-444bb516da0e.root | (None) | ad:85ef6697 | 614.670 MB |          |
| cms:/store/mc/Run3Summer23BPixNanoAODv12/GluGluHto2B_M-125_TuneCP5_13p6TeV_powheg-minlo-pythia8/NANOAODSIM/130X_mcRun3_2023_realistic_postBPix_v2-v2/50000/e995626d-f4ec-488c-982c-2116395429e7.root | (None) | ad:2e01d113 | 180.435 MB |          |
| cms:/store/mc/Run3Summer23BPixNanoAODv12/GluGluHto2B_M-125_TuneCP5_13p6TeV_powheg-minlo-pythia8/NANOAODSIM/130X_mcRun3_2023_realistic_postBPix_v2-v2/50000/4a476fa2-89b6-4450-b130-4cd5ced95c9f.root | (None) | ad:f1034d1b | 66.450 MB  |          |
| cms:/store/mc/Run3Summer23BPixNanoAODv12/GluGluHto2B_M-125_TuneCP5_13p6TeV_powheg-minlo-pythia8/NANOAODSIM/130X_mcRun3_2023_realistic_postBPix_v2-v2/50000/ef515cc1-e0cf-430a-baba-e1bf79349a0f.root | (None) | ad:4770d0df | 7.321 MB   |          |
| cms:/store/mc/Run3Summer23BPixNanoAODv12/GluGluHto2B_M-125_TuneCP5_13p6TeV_powheg-minlo-pythia8/NANOAODSIM/130X_mcRun3_2023_realistic_postBPix_v2-v2/50000/3ef22aab-5713-46c3-a2d2-2e0a87f87166.root | (None) | ad:fcb4ccc8 | 49.276 MB  |          |
| cms:/store/mc/Run3Summer23BPixNanoAODv12/GluGluHto2B_M-125_TuneCP5_13p6TeV_powheg-minlo-pythia8/NANOAODSIM/130X_mcRun3_2023_realistic_postBPix_v2-v2/50000/ed9e4930-c835-4e39-a8ad-e4e46b841c58.root | (None) | ad:5d81ddfd | 57.693 MB  |          |
| cms:/store/mc/Run3Summer23BPixNanoAODv12/GluGluHto2B_M-125_TuneCP5_13p6TeV_powheg-minlo-pythia8/NANOAODSIM/130X_mcRun3_2023_realistic_postBPix_v2-v2/50000/d06f4bc2-b3b3-4f6d-b7b8-7d906dc1f5dc.root | (None) | ad:f252d287 | 247.682 MB |          |
| cms:/store/mc/Run3Summer23BPixNanoAODv12/GluGluHto2B_M-125_TuneCP5_13p6TeV_powheg-minlo-pythia8/NANOAODSIM/130X_mcRun3_2023_realistic_postBPix_v2-v2/50000/1dba6ffe-0abc-4105-ac8e-1a8c44932964.root | (None) | ad:d059ca0c | 104.160 MB |          |
| cms:/store/mc/Run3Summer23BPixNanoAODv12/GluGluHto2B_M-125_TuneCP5_13p6TeV_powheg-minlo-pythia8/NANOAODSIM/130X_mcRun3_2023_realistic_postBPix_v2-v2/50000/0f90767a-9194-43ce-b7e6-88990a884ea3.root | (None) | ad:8fb4e080 | 28.459 MB  |          |
| cms:/store/mc/Run3Summer23BPixNanoAODv12/GluGluHto2B_M-125_TuneCP5_13p6TeV_powheg-minlo-pythia8/NANOAODSIM/130X_mcRun3_2023_realistic_postBPix_v2-v2/50000/6901043a-7c9c-4328-b910-9a77b8dfa4c4.root | (None) | ad:292b1979 | 378.801 MB |          |
| cms:/store/mc/Run3Summer23BPixNanoAODv12/GluGluHto2B_M-125_TuneCP5_13p6TeV_powheg-minlo-pythia8/NANOAODSIM/130X_mcRun3_2023_realistic_postBPix_v2-v2/50000/768c983b-1b06-4a9b-9476-28e278f1c4a2.root | (None) | ad:a1f3bfdb | 247.393 MB |          |
| cms:/store/mc/Run3Summer23BPixNanoAODv12/GluGluHto2B_M-125_TuneCP5_13p6TeV_powheg-minlo-pythia8/NANOAODSIM/130X_mcRun3_2023_realistic_postBPix_v2-v2/50000/aa584049-a39f-40ef-92c5-4904bbdf5466.root | (None) | ad:a255e595 | 91.764 MB  |          |
| cms:/store/mc/Run3Summer23BPixNanoAODv12/GluGluHto2B_M-125_TuneCP5_13p6TeV_powheg-minlo-pythia8/NANOAODSIM/130X_mcRun3_2023_realistic_postBPix_v2-v2/50000/f4115c45-6a85-444f-b94f-25c9491deb91.root | (None) | ad:4a0d1bd3 | 214.052 MB |          |
| cms:/store/mc/Run3Summer23BPixNanoAODv12/GluGluHto2B_M-125_TuneCP5_13p6TeV_powheg-minlo-pythia8/NANOAODSIM/130X_mcRun3_2023_realistic_postBPix_v2-v2/50000/85f791fe-d174-46e9-ba09-28172119b3c6.root | (None) | ad:0f658918 | 129.545 MB |          |
| cms:/store/mc/Run3Summer23BPixNanoAODv12/GluGluHto2B_M-125_TuneCP5_13p6TeV_powheg-minlo-pythia8/NANOAODSIM/130X_mcRun3_2023_realistic_postBPix_v2-v2/50000/04ab1ef4-6659-4a4f-986d-3bfc5b198fcf.root | (None) | ad:6750b6c5 | 49.219 MB  |          |
| cms:/store/mc/Run3Summer23BPixNanoAODv12/GluGluHto2B_M-125_TuneCP5_13p6TeV_powheg-minlo-pythia8/NANOAODSIM/130X_mcRun3_2023_realistic_postBPix_v2-v2/50000/11e5ee46-8abb-4ba4-8941-a614d6e2ca07.root | (None) | ad:bfba42dc | 352.754 MB |          |
| cms:/store/mc/Run3Summer23BPixNanoAODv12/GluGluHto2B_M-125_TuneCP5_13p6TeV_powheg-minlo-pythia8/NANOAODSIM/130X_mcRun3_2023_realistic_postBPix_v2-v2/50000/8b0d386e-43e7-4a43-a5a0-bc4eaeee430d.root | (None) | ad:5b9355f8 | 273.329 MB |          |
| cms:/store/mc/Run3Summer23BPixNanoAODv12/GluGluHto2B_M-125_TuneCP5_13p6TeV_powheg-minlo-pythia8/NANOAODSIM/130X_mcRun3_2023_realistic_postBPix_v2-v2/50000/2eedfd1e-8128-4a5c-809e-a4745feb753b.root | (None) | ad:196bfa8e | 57.679 MB  |          |
| cms:/store/mc/Run3Summer23BPixNanoAODv12/GluGluHto2B_M-125_TuneCP5_13p6TeV_powheg-minlo-pythia8/NANOAODSIM/130X_mcRun3_2023_realistic_postBPix_v2-v2/50000/3e6bd9dd-08f1-4bf8-acbb-b170c5e7fd7d.root | (None) | ad:94b19428 | 78.873 MB  |          |
| cms:/store/mc/Run3Summer23BPixNanoAODv12/GluGluHto2B_M-125_TuneCP5_13p6TeV_powheg-minlo-pythia8/NANOAODSIM/130X_mcRun3_2023_realistic_postBPix_v2-v2/50000/419fce54-75fb-4065-9f08-e2d36a8b4523.root | (None) | ad:90caf166 | 75.008 MB  |          |
| cms:/store/mc/Run3Summer23BPixNanoAODv12/GluGluHto2B_M-125_TuneCP5_13p6TeV_powheg-minlo-pythia8/NANOAODSIM/130X_mcRun3_2023_realistic_postBPix_v2-v2/50000/86e9e9d2-ced0-427e-a633-68a6a2d16090.root | (None) | ad:f00d8d86 | 45.350 MB  |          |
| cms:/store/mc/Run3Summer23BPixNanoAODv12/GluGluHto2B_M-125_TuneCP5_13p6TeV_powheg-minlo-pythia8/NANOAODSIM/130X_mcRun3_2023_realistic_postBPix_v2-v2/50000/423b7a7c-92a8-45ff-a6a4-b348160b5319.root | (None) | ad:5849ab41 | 49.275 MB  |          |
| cms:/store/mc/Run3Summer23BPixNanoAODv12/GluGluHto2B_M-125_TuneCP5_13p6TeV_powheg-minlo-pythia8/NANOAODSIM/130X_mcRun3_2023_realistic_postBPix_v2-v2/50000/29dcdca7-ddd3-4dbf-8d7b-f9b9e12da3b8.root | (None) | ad:5d24cad6 | 353.441 MB |          |
| cms:/store/mc/Run3Summer23BPixNanoAODv12/GluGluHto2B_M-125_TuneCP5_13p6TeV_powheg-minlo-pythia8/NANOAODSIM/130X_mcRun3_2023_realistic_postBPix_v2-v2/50000/c30f3ddd-5d15-466b-b52d-4d66caa28b67.root | (None) | ad:aad254cb | 142.324 MB |          |
| cms:/store/mc/Run3Summer23BPixNanoAODv12/GluGluHto2B_M-125_TuneCP5_13p6TeV_powheg-minlo-pythia8/NANOAODSIM/130X_mcRun3_2023_realistic_postBPix_v2-v2/50000/47890854-44b7-4507-a890-5475fb0f0004.root | (None) | ad:d857c57b | 230.671 MB |          |
| cms:/store/mc/Run3Summer23BPixNanoAODv12/GluGluHto2B_M-125_TuneCP5_13p6TeV_powheg-minlo-pythia8/NANOAODSIM/130X_mcRun3_2023_realistic_postBPix_v2-v2/50000/746cc38a-ba68-4262-9fe7-a8c2efeede6c.root | (None) | ad:94e24942 | 357.269 MB |          |
| cms:/store/mc/Run3Summer23BPixNanoAODv12/GluGluHto2B_M-125_TuneCP5_13p6TeV_powheg-minlo-pythia8/NANOAODSIM/130X_mcRun3_2023_realistic_postBPix_v2-v2/50000/8e6fe1ad-8415-43b4-a4b7-5055a1d57a40.root | (None) | ad:22598683 | 32.379 MB  |          |
| cms:/store/mc/Run3Summer23BPixNanoAODv12/GluGluHto2B_M-125_TuneCP5_13p6TeV_powheg-minlo-pythia8/NANOAODSIM/130X_mcRun3_2023_realistic_postBPix_v2-v2/50000/66ad96db-6e00-4fc2-88b6-1d983c9f0bed.root | (None) | ad:35378c3e | 66.086 MB  |          |
| cms:/store/mc/Run3Summer23BPixNanoAODv12/GluGluHto2B_M-125_TuneCP5_13p6TeV_powheg-minlo-pythia8/NANOAODSIM/130X_mcRun3_2023_realistic_postBPix_v2-v2/50000/567f0d3c-1c9a-441c-b6f5-f3b341b82439.root | (None) | ad:e183dfa3 | 155.017 MB |          |
| cms:/store/mc/Run3Summer23BPixNanoAODv12/GluGluHto2B_M-125_TuneCP5_13p6TeV_powheg-minlo-pythia8/NANOAODSIM/130X_mcRun3_2023_realistic_postBPix_v2-v2/50000/56a06779-3a82-47ce-9521-68a44fc70b8d.root | (None) | ad:63062c3a | 195.776 MB |          |
| cms:/store/mc/Run3Summer23BPixNanoAODv12/GluGluHto2B_M-125_TuneCP5_13p6TeV_powheg-minlo-pythia8/NANOAODSIM/130X_mcRun3_2023_realistic_postBPix_v2-v2/50000/9e6d25e7-1878-407f-9ce7-abcbdcc6b753.root | (None) | ad:09f86399 | 11.645 MB  |          |
| cms:/store/mc/Run3Summer23BPixNanoAODv12/GluGluHto2B_M-125_TuneCP5_13p6TeV_powheg-minlo-pythia8/NANOAODSIM/130X_mcRun3_2023_realistic_postBPix_v2-v2/50000/1a75851e-5f66-41e2-9dca-95490841eee4.root | (None) | ad:aa661143 | 357.342 MB |          |
| cms:/store/mc/Run3Summer23BPixNanoAODv12/GluGluHto2B_M-125_TuneCP5_13p6TeV_powheg-minlo-pythia8/NANOAODSIM/130X_mcRun3_2023_realistic_postBPix_v2-v2/50000/7351cee2-393e-4423-9fa0-63e145eaab88.root | (None) | ad:51f00646 | 133.724 MB |          |
| cms:/store/mc/Run3Summer23BPixNanoAODv12/GluGluHto2B_M-125_TuneCP5_13p6TeV_powheg-minlo-pythia8/NANOAODSIM/130X_mcRun3_2023_realistic_postBPix_v2-v2/50000/f4dfb95e-2a56-42d0-9f47-15f4bb501f3b.root | (None) | ad:b95453c5 | 53.740 MB  |          |
+------------------------------------------------------------------------------------------------------------------------------------------------------------------------------------------------------+--------+-------------+------------+----------+
Total files : 40
Total size : 7.925 GB
