+--------------------------------------------------------------------------------------------------------------------------------------------------------------------------------------------------------------+--------+-------------+------------+----------+
| SCOPE:NAME                                                                                                                                                                                                   | GUID   | ADLER32     | FILESIZE   | EVENTS   |
|--------------------------------------------------------------------------------------------------------------------------------------------------------------------------------------------------------------+--------+-------------+------------+----------|
| cms:/store/mc/Run3Summer22NanoAODv12/GluGlutoBulkGravitontoHHto4B_M-2000_narrow_TuneCP5_13p6TeV_madgraph-pythia8/NANOAODSIM/130X_mcRun3_2022_realistic_v5-v3/50000/8fbfa52e-f592-42ed-b26e-81970510272a.root | (None) | ad:eaf6c037 | 65.385 MB  |          |
+--------------------------------------------------------------------------------------------------------------------------------------------------------------------------------------------------------------+--------+-------------+------------+----------+
Total files : 1
Total size : 65.385 MB
