{
    "cms:/store/mc/Run3Summer22EENanoAODv12/GluGlutoBulkGravitontoHHto4B_M-1000_narrow_TuneCP5_13p6TeV_madgraph-pythia8/NANOAODSIM/130X_mcRun3_2022_realistic_postEE_v6-v3/2550000/9076abeb-34cd-48ba-8e84-8de0c84f951f.root": [
        "T2_TW_NCHC: davs://se01.grid.nchc.org.tw:443//cms/store/mc/Run3Summer22EENanoAODv12/GluGlutoBulkGravitontoHHto4B_M-1000_narrow_TuneCP5_13p6TeV_madgraph-pythia8/NANOAODSIM/130X_mcRun3_2022_realistic_postEE_v6-v3/2550000/9076abeb-34cd-48ba-8e84-8de0c84f951f.root",
        "T2_FR_GRIF: davs://eos.grif.fr:11000/eos/grif/cms/grif/store/mc/Run3Summer22EENanoAODv12/GluGlutoBulkGravitontoHHto4B_M-1000_narrow_TuneCP5_13p6TeV_madgraph-pythia8/NANOAODSIM/130X_mcRun3_2022_realistic_postEE_v6-v3/2550000/9076abeb-34cd-48ba-8e84-8de0c84f951f.root",
        "T2_US_Vanderbilt: davs://xrootd-vanderbilt.sites.opensciencegrid.org:1094/store/mc/Run3Summer22EENanoAODv12/GluGlutoBulkGravitontoHHto4B_M-1000_narrow_TuneCP5_13p6TeV_madgraph-pythia8/NANOAODSIM/130X_mcRun3_2022_realistic_postEE_v6-v3/2550000/9076abeb-34cd-48ba-8e84-8de0c84f951f.root",
        "T1_UK_RAL_Disk: davs://rdr.echo.stfc.ac.uk:1094/store/mc/Run3Summer22EENanoAODv12/GluGlutoBulkGravitontoHHto4B_M-1000_narrow_TuneCP5_13p6TeV_madgraph-pythia8/NANOAODSIM/130X_mcRun3_2022_realistic_postEE_v6-v3/2550000/9076abeb-34cd-48ba-8e84-8de0c84f951f.root",
        "T2_BR_SPRACE: davs://osg-se.sprace.org.br:1094/store/mc/Run3Summer22EENanoAODv12/GluGlutoBulkGravitontoHHto4B_M-1000_narrow_TuneCP5_13p6TeV_madgraph-pythia8/NANOAODSIM/130X_mcRun3_2022_realistic_postEE_v6-v3/2550000/9076abeb-34cd-48ba-8e84-8de0c84f951f.root",
        "T2_DE_RWTH: davs://grid-webdav.physik.rwth-aachen.de:2889/store/mc/Run3Summer22EENanoAODv12/GluGlutoBulkGravitontoHHto4B_M-1000_narrow_TuneCP5_13p6TeV_madgraph-pythia8/NANOAODSIM/130X_mcRun3_2022_realistic_postEE_v6-v3/2550000/9076abeb-34cd-48ba-8e84-8de0c84f951f.root",
        "T0_CH_CERN_Tape: davs://eosctacms.cern.ch:8444//eos/ctacms/archive/cms/store/mc/Run3Summer22EENanoAODv12/GluGlutoBulkGravitontoHHto4B_M-1000_narrow_TuneCP5_13p6TeV_madgraph-pythia8/NANOAODSIM/130X_mcRun3_2022_realistic_postEE_v6-v3/2550000/9076abeb-34cd-48ba-8e84-8de0c84f951f.root"
    ],
    "cms:/store/mc/Run3Summer22EENanoAODv12/GluGlutoBulkGravitontoHHto4B_M-1000_narrow_TuneCP5_13p6TeV_madgraph-pythia8/NANOAODSIM/130X_mcRun3_2022_realistic_postEE_v6-v3/2550000/0451c97f-d18a-42c6-aa79-469eaf738616.root": [
        "T2_TW_NCHC: davs://se01.grid.nchc.org.tw:443//cms/store/mc/Run3Summer22EENanoAODv12/GluGlutoBulkGravitontoHHto4B_M-1000_narrow_TuneCP5_13p6TeV_madgraph-pythia8/NANOAODSIM/130X_mcRun3_2022_realistic_postEE_v6-v3/2550000/0451c97f-d18a-42c6-aa79-469eaf738616.root",
        "T2_FR_GRIF: davs://eos.grif.fr:11000/eos/grif/cms/grif/store/mc/Run3Summer22EENanoAODv12/GluGlutoBulkGravitontoHHto4B_M-1000_narrow_TuneCP5_13p6TeV_madgraph-pythia8/NANOAODSIM/130X_mcRun3_2022_realistic_postEE_v6-v3/2550000/0451c97f-d18a-42c6-aa79-469eaf738616.root",
        "T2_US_Vanderbilt: davs://xrootd-vanderbilt.sites.opensciencegrid.org:1094/store/mc/Run3Summer22EENanoAODv12/GluGlutoBulkGravitontoHHto4B_M-1000_narrow_TuneCP5_13p6TeV_madgraph-pythia8/NANOAODSIM/130X_mcRun3_2022_realistic_postEE_v6-v3/2550000/0451c97f-d18a-42c6-aa79-469eaf738616.root",
        "T1_UK_RAL_Disk: davs://rdr.echo.stfc.ac.uk:1094/store/mc/Run3Summer22EENanoAODv12/GluGlutoBulkGravitontoHHto4B_M-1000_narrow_TuneCP5_13p6TeV_madgraph-pythia8/NANOAODSIM/130X_mcRun3_2022_realistic_postEE_v6-v3/2550000/0451c97f-d18a-42c6-aa79-469eaf738616.root",
        "T2_BR_SPRACE: davs://osg-se.sprace.org.br:1094/store/mc/Run3Summer22EENanoAODv12/GluGlutoBulkGravitontoHHto4B_M-1000_narrow_TuneCP5_13p6TeV_madgraph-pythia8/NANOAODSIM/130X_mcRun3_2022_realistic_postEE_v6-v3/2550000/0451c97f-d18a-42c6-aa79-469eaf738616.root",
        "T2_DE_RWTH: davs://grid-webdav.physik.rwth-aachen.de:2889/store/mc/Run3Summer22EENanoAODv12/GluGlutoBulkGravitontoHHto4B_M-1000_narrow_TuneCP5_13p6TeV_madgraph-pythia8/NANOAODSIM/130X_mcRun3_2022_realistic_postEE_v6-v3/2550000/0451c97f-d18a-42c6-aa79-469eaf738616.root",
        "T0_CH_CERN_Tape: davs://eosctacms.cern.ch:8444//eos/ctacms/archive/cms/store/mc/Run3Summer22EENanoAODv12/GluGlutoBulkGravitontoHHto4B_M-1000_narrow_TuneCP5_13p6TeV_madgraph-pythia8/NANOAODSIM/130X_mcRun3_2022_realistic_postEE_v6-v3/2550000/0451c97f-d18a-42c6-aa79-469eaf738616.root"
    ],
    "cms:/store/mc/Run3Summer22EENanoAODv12/GluGlutoBulkGravitontoHHto4B_M-1000_narrow_TuneCP5_13p6TeV_madgraph-pythia8/NANOAODSIM/130X_mcRun3_2022_realistic_postEE_v6-v3/2550000/0797edae-0943-4b8f-bba2-b6b8a7b2fb1b.root": [
        "T2_TW_NCHC: davs://se01.grid.nchc.org.tw:443//cms/store/mc/Run3Summer22EENanoAODv12/GluGlutoBulkGravitontoHHto4B_M-1000_narrow_TuneCP5_13p6TeV_madgraph-pythia8/NANOAODSIM/130X_mcRun3_2022_realistic_postEE_v6-v3/2550000/0797edae-0943-4b8f-bba2-b6b8a7b2fb1b.root",
        "T2_FR_GRIF: davs://eos.grif.fr:11000/eos/grif/cms/grif/store/mc/Run3Summer22EENanoAODv12/GluGlutoBulkGravitontoHHto4B_M-1000_narrow_TuneCP5_13p6TeV_madgraph-pythia8/NANOAODSIM/130X_mcRun3_2022_realistic_postEE_v6-v3/2550000/0797edae-0943-4b8f-bba2-b6b8a7b2fb1b.root",
        "T2_US_Vanderbilt: davs://xrootd-vanderbilt.sites.opensciencegrid.org:1094/store/mc/Run3Summer22EENanoAODv12/GluGlutoBulkGravitontoHHto4B_M-1000_narrow_TuneCP5_13p6TeV_madgraph-pythia8/NANOAODSIM/130X_mcRun3_2022_realistic_postEE_v6-v3/2550000/0797edae-0943-4b8f-bba2-b6b8a7b2fb1b.root",
        "T1_UK_RAL_Disk: davs://rdr.echo.stfc.ac.uk:1094/store/mc/Run3Summer22EENanoAODv12/GluGlutoBulkGravitontoHHto4B_M-1000_narrow_TuneCP5_13p6TeV_madgraph-pythia8/NANOAODSIM/130X_mcRun3_2022_realistic_postEE_v6-v3/2550000/0797edae-0943-4b8f-bba2-b6b8a7b2fb1b.root",
        "T2_BR_SPRACE: davs://osg-se.sprace.org.br:1094/store/mc/Run3Summer22EENanoAODv12/GluGlutoBulkGravitontoHHto4B_M-1000_narrow_TuneCP5_13p6TeV_madgraph-pythia8/NANOAODSIM/130X_mcRun3_2022_realistic_postEE_v6-v3/2550000/0797edae-0943-4b8f-bba2-b6b8a7b2fb1b.root",
        "T2_DE_RWTH: davs://grid-webdav.physik.rwth-aachen.de:2889/store/mc/Run3Summer22EENanoAODv12/GluGlutoBulkGravitontoHHto4B_M-1000_narrow_TuneCP5_13p6TeV_madgraph-pythia8/NANOAODSIM/130X_mcRun3_2022_realistic_postEE_v6-v3/2550000/0797edae-0943-4b8f-bba2-b6b8a7b2fb1b.root",
        "T0_CH_CERN_Tape: davs://eosctacms.cern.ch:8444//eos/ctacms/archive/cms/store/mc/Run3Summer22EENanoAODv12/GluGlutoBulkGravitontoHHto4B_M-1000_narrow_TuneCP5_13p6TeV_madgraph-pythia8/NANOAODSIM/130X_mcRun3_2022_realistic_postEE_v6-v3/2550000/0797edae-0943-4b8f-bba2-b6b8a7b2fb1b.root"
    ],
    "cms:/store/mc/Run3Summer22EENanoAODv12/GluGlutoBulkGravitontoHHto4B_M-1000_narrow_TuneCP5_13p6TeV_madgraph-pythia8/NANOAODSIM/130X_mcRun3_2022_realistic_postEE_v6-v3/2550000/0fc2807a-f6d3-40d5-aad1-dd05fd71fa30.root": [
        "T2_TW_NCHC: davs://se01.grid.nchc.org.tw:443//cms/store/mc/Run3Summer22EENanoAODv12/GluGlutoBulkGravitontoHHto4B_M-1000_narrow_TuneCP5_13p6TeV_madgraph-pythia8/NANOAODSIM/130X_mcRun3_2022_realistic_postEE_v6-v3/2550000/0fc2807a-f6d3-40d5-aad1-dd05fd71fa30.root",
        "T2_FR_GRIF: davs://eos.grif.fr:11000/eos/grif/cms/grif/store/mc/Run3Summer22EENanoAODv12/GluGlutoBulkGravitontoHHto4B_M-1000_narrow_TuneCP5_13p6TeV_madgraph-pythia8/NANOAODSIM/130X_mcRun3_2022_realistic_postEE_v6-v3/2550000/0fc2807a-f6d3-40d5-aad1-dd05fd71fa30.root",
        "T2_US_Vanderbilt: davs://xrootd-vanderbilt.sites.opensciencegrid.org:1094/store/mc/Run3Summer22EENanoAODv12/GluGlutoBulkGravitontoHHto4B_M-1000_narrow_TuneCP5_13p6TeV_madgraph-pythia8/NANOAODSIM/130X_mcRun3_2022_realistic_postEE_v6-v3/2550000/0fc2807a-f6d3-40d5-aad1-dd05fd71fa30.root",
        "T1_UK_RAL_Disk: davs://rdr.echo.stfc.ac.uk:1094/store/mc/Run3Summer22EENanoAODv12/GluGlutoBulkGravitontoHHto4B_M-1000_narrow_TuneCP5_13p6TeV_madgraph-pythia8/NANOAODSIM/130X_mcRun3_2022_realistic_postEE_v6-v3/2550000/0fc2807a-f6d3-40d5-aad1-dd05fd71fa30.root",
        "T2_BR_SPRACE: davs://osg-se.sprace.org.br:1094/store/mc/Run3Summer22EENanoAODv12/GluGlutoBulkGravitontoHHto4B_M-1000_narrow_TuneCP5_13p6TeV_madgraph-pythia8/NANOAODSIM/130X_mcRun3_2022_realistic_postEE_v6-v3/2550000/0fc2807a-f6d3-40d5-aad1-dd05fd71fa30.root",
        "T2_DE_RWTH: davs://grid-webdav.physik.rwth-aachen.de:2889/store/mc/Run3Summer22EENanoAODv12/GluGlutoBulkGravitontoHHto4B_M-1000_narrow_TuneCP5_13p6TeV_madgraph-pythia8/NANOAODSIM/130X_mcRun3_2022_realistic_postEE_v6-v3/2550000/0fc2807a-f6d3-40d5-aad1-dd05fd71fa30.root",
        "T0_CH_CERN_Tape: davs://eosctacms.cern.ch:8444//eos/ctacms/archive/cms/store/mc/Run3Summer22EENanoAODv12/GluGlutoBulkGravitontoHHto4B_M-1000_narrow_TuneCP5_13p6TeV_madgraph-pythia8/NANOAODSIM/130X_mcRun3_2022_realistic_postEE_v6-v3/2550000/0fc2807a-f6d3-40d5-aad1-dd05fd71fa30.root"
    ],
    "cms:/store/mc/Run3Summer22EENanoAODv12/GluGlutoBulkGravitontoHHto4B_M-1000_narrow_TuneCP5_13p6TeV_madgraph-pythia8/NANOAODSIM/130X_mcRun3_2022_realistic_postEE_v6-v3/2550000/26bd610b-da1d-40e5-bb80-0348565799b0.root": [
        "T2_TW_NCHC: davs://se01.grid.nchc.org.tw:443//cms/store/mc/Run3Summer22EENanoAODv12/GluGlutoBulkGravitontoHHto4B_M-1000_narrow_TuneCP5_13p6TeV_madgraph-pythia8/NANOAODSIM/130X_mcRun3_2022_realistic_postEE_v6-v3/2550000/26bd610b-da1d-40e5-bb80-0348565799b0.root",
        "T2_FR_GRIF: davs://eos.grif.fr:11000/eos/grif/cms/grif/store/mc/Run3Summer22EENanoAODv12/GluGlutoBulkGravitontoHHto4B_M-1000_narrow_TuneCP5_13p6TeV_madgraph-pythia8/NANOAODSIM/130X_mcRun3_2022_realistic_postEE_v6-v3/2550000/26bd610b-da1d-40e5-bb80-0348565799b0.root",
        "T2_US_Vanderbilt: davs://xrootd-vanderbilt.sites.opensciencegrid.org:1094/store/mc/Run3Summer22EENanoAODv12/GluGlutoBulkGravitontoHHto4B_M-1000_narrow_TuneCP5_13p6TeV_madgraph-pythia8/NANOAODSIM/130X_mcRun3_2022_realistic_postEE_v6-v3/2550000/26bd610b-da1d-40e5-bb80-0348565799b0.root",
        "T1_UK_RAL_Disk: davs://rdr.echo.stfc.ac.uk:1094/store/mc/Run3Summer22EENanoAODv12/GluGlutoBulkGravitontoHHto4B_M-1000_narrow_TuneCP5_13p6TeV_madgraph-pythia8/NANOAODSIM/130X_mcRun3_2022_realistic_postEE_v6-v3/2550000/26bd610b-da1d-40e5-bb80-0348565799b0.root",
        "T2_BR_SPRACE: davs://osg-se.sprace.org.br:1094/store/mc/Run3Summer22EENanoAODv12/GluGlutoBulkGravitontoHHto4B_M-1000_narrow_TuneCP5_13p6TeV_madgraph-pythia8/NANOAODSIM/130X_mcRun3_2022_realistic_postEE_v6-v3/2550000/26bd610b-da1d-40e5-bb80-0348565799b0.root",
        "T2_DE_RWTH: davs://grid-webdav.physik.rwth-aachen.de:2889/store/mc/Run3Summer22EENanoAODv12/GluGlutoBulkGravitontoHHto4B_M-1000_narrow_TuneCP5_13p6TeV_madgraph-pythia8/NANOAODSIM/130X_mcRun3_2022_realistic_postEE_v6-v3/2550000/26bd610b-da1d-40e5-bb80-0348565799b0.root",
        "T0_CH_CERN_Tape: davs://eosctacms.cern.ch:8444//eos/ctacms/archive/cms/store/mc/Run3Summer22EENanoAODv12/GluGlutoBulkGravitontoHHto4B_M-1000_narrow_TuneCP5_13p6TeV_madgraph-pythia8/NANOAODSIM/130X_mcRun3_2022_realistic_postEE_v6-v3/2550000/26bd610b-da1d-40e5-bb80-0348565799b0.root"
    ],
    "cms:/store/mc/Run3Summer22EENanoAODv12/GluGlutoBulkGravitontoHHto4B_M-1000_narrow_TuneCP5_13p6TeV_madgraph-pythia8/NANOAODSIM/130X_mcRun3_2022_realistic_postEE_v6-v3/2550000/1622a4e8-1bd2-4adc-ad70-73774ef9588f.root": [
        "T2_TW_NCHC: davs://se01.grid.nchc.org.tw:443//cms/store/mc/Run3Summer22EENanoAODv12/GluGlutoBulkGravitontoHHto4B_M-1000_narrow_TuneCP5_13p6TeV_madgraph-pythia8/NANOAODSIM/130X_mcRun3_2022_realistic_postEE_v6-v3/2550000/1622a4e8-1bd2-4adc-ad70-73774ef9588f.root",
        "T2_FR_GRIF: davs://eos.grif.fr:11000/eos/grif/cms/grif/store/mc/Run3Summer22EENanoAODv12/GluGlutoBulkGravitontoHHto4B_M-1000_narrow_TuneCP5_13p6TeV_madgraph-pythia8/NANOAODSIM/130X_mcRun3_2022_realistic_postEE_v6-v3/2550000/1622a4e8-1bd2-4adc-ad70-73774ef9588f.root",
        "T2_US_Vanderbilt: davs://xrootd-vanderbilt.sites.opensciencegrid.org:1094/store/mc/Run3Summer22EENanoAODv12/GluGlutoBulkGravitontoHHto4B_M-1000_narrow_TuneCP5_13p6TeV_madgraph-pythia8/NANOAODSIM/130X_mcRun3_2022_realistic_postEE_v6-v3/2550000/1622a4e8-1bd2-4adc-ad70-73774ef9588f.root",
        "T1_UK_RAL_Disk: davs://rdr.echo.stfc.ac.uk:1094/store/mc/Run3Summer22EENanoAODv12/GluGlutoBulkGravitontoHHto4B_M-1000_narrow_TuneCP5_13p6TeV_madgraph-pythia8/NANOAODSIM/130X_mcRun3_2022_realistic_postEE_v6-v3/2550000/1622a4e8-1bd2-4adc-ad70-73774ef9588f.root",
        "T2_BR_SPRACE: davs://osg-se.sprace.org.br:1094/store/mc/Run3Summer22EENanoAODv12/GluGlutoBulkGravitontoHHto4B_M-1000_narrow_TuneCP5_13p6TeV_madgraph-pythia8/NANOAODSIM/130X_mcRun3_2022_realistic_postEE_v6-v3/2550000/1622a4e8-1bd2-4adc-ad70-73774ef9588f.root",
        "T2_DE_RWTH: davs://grid-webdav.physik.rwth-aachen.de:2889/store/mc/Run3Summer22EENanoAODv12/GluGlutoBulkGravitontoHHto4B_M-1000_narrow_TuneCP5_13p6TeV_madgraph-pythia8/NANOAODSIM/130X_mcRun3_2022_realistic_postEE_v6-v3/2550000/1622a4e8-1bd2-4adc-ad70-73774ef9588f.root",
        "T0_CH_CERN_Tape: davs://eosctacms.cern.ch:8444//eos/ctacms/archive/cms/store/mc/Run3Summer22EENanoAODv12/GluGlutoBulkGravitontoHHto4B_M-1000_narrow_TuneCP5_13p6TeV_madgraph-pythia8/NANOAODSIM/130X_mcRun3_2022_realistic_postEE_v6-v3/2550000/1622a4e8-1bd2-4adc-ad70-73774ef9588f.root"
    ],
    "cms:/store/mc/Run3Summer22EENanoAODv12/GluGlutoBulkGravitontoHHto4B_M-1000_narrow_TuneCP5_13p6TeV_madgraph-pythia8/NANOAODSIM/130X_mcRun3_2022_realistic_postEE_v6-v3/2550000/bd62452e-1879-469c-aef5-ae7865c46266.root": [
        "T2_TW_NCHC: davs://se01.grid.nchc.org.tw:443//cms/store/mc/Run3Summer22EENanoAODv12/GluGlutoBulkGravitontoHHto4B_M-1000_narrow_TuneCP5_13p6TeV_madgraph-pythia8/NANOAODSIM/130X_mcRun3_2022_realistic_postEE_v6-v3/2550000/bd62452e-1879-469c-aef5-ae7865c46266.root",
        "T2_FR_GRIF: davs://eos.grif.fr:11000/eos/grif/cms/grif/store/mc/Run3Summer22EENanoAODv12/GluGlutoBulkGravitontoHHto4B_M-1000_narrow_TuneCP5_13p6TeV_madgraph-pythia8/NANOAODSIM/130X_mcRun3_2022_realistic_postEE_v6-v3/2550000/bd62452e-1879-469c-aef5-ae7865c46266.root",
        "T2_US_Vanderbilt: davs://xrootd-vanderbilt.sites.opensciencegrid.org:1094/store/mc/Run3Summer22EENanoAODv12/GluGlutoBulkGravitontoHHto4B_M-1000_narrow_TuneCP5_13p6TeV_madgraph-pythia8/NANOAODSIM/130X_mcRun3_2022_realistic_postEE_v6-v3/2550000/bd62452e-1879-469c-aef5-ae7865c46266.root",
        "T1_UK_RAL_Disk: davs://rdr.echo.stfc.ac.uk:1094/store/mc/Run3Summer22EENanoAODv12/GluGlutoBulkGravitontoHHto4B_M-1000_narrow_TuneCP5_13p6TeV_madgraph-pythia8/NANOAODSIM/130X_mcRun3_2022_realistic_postEE_v6-v3/2550000/bd62452e-1879-469c-aef5-ae7865c46266.root",
        "T2_BR_SPRACE: davs://osg-se.sprace.org.br:1094/store/mc/Run3Summer22EENanoAODv12/GluGlutoBulkGravitontoHHto4B_M-1000_narrow_TuneCP5_13p6TeV_madgraph-pythia8/NANOAODSIM/130X_mcRun3_2022_realistic_postEE_v6-v3/2550000/bd62452e-1879-469c-aef5-ae7865c46266.root",
        "T2_DE_RWTH: davs://grid-webdav.physik.rwth-aachen.de:2889/store/mc/Run3Summer22EENanoAODv12/GluGlutoBulkGravitontoHHto4B_M-1000_narrow_TuneCP5_13p6TeV_madgraph-pythia8/NANOAODSIM/130X_mcRun3_2022_realistic_postEE_v6-v3/2550000/bd62452e-1879-469c-aef5-ae7865c46266.root",
        "T0_CH_CERN_Tape: davs://eosctacms.cern.ch:8444//eos/ctacms/archive/cms/store/mc/Run3Summer22EENanoAODv12/GluGlutoBulkGravitontoHHto4B_M-1000_narrow_TuneCP5_13p6TeV_madgraph-pythia8/NANOAODSIM/130X_mcRun3_2022_realistic_postEE_v6-v3/2550000/bd62452e-1879-469c-aef5-ae7865c46266.root"
    ],
    "cms:/store/mc/Run3Summer22EENanoAODv12/GluGlutoBulkGravitontoHHto4B_M-1000_narrow_TuneCP5_13p6TeV_madgraph-pythia8/NANOAODSIM/130X_mcRun3_2022_realistic_postEE_v6-v3/2550000/caf48326-64da-4c6b-8f5f-789a0ad1d31c.root": [
        "T2_TW_NCHC: davs://se01.grid.nchc.org.tw:443//cms/store/mc/Run3Summer22EENanoAODv12/GluGlutoBulkGravitontoHHto4B_M-1000_narrow_TuneCP5_13p6TeV_madgraph-pythia8/NANOAODSIM/130X_mcRun3_2022_realistic_postEE_v6-v3/2550000/caf48326-64da-4c6b-8f5f-789a0ad1d31c.root",
        "T2_FR_GRIF: davs://eos.grif.fr:11000/eos/grif/cms/grif/store/mc/Run3Summer22EENanoAODv12/GluGlutoBulkGravitontoHHto4B_M-1000_narrow_TuneCP5_13p6TeV_madgraph-pythia8/NANOAODSIM/130X_mcRun3_2022_realistic_postEE_v6-v3/2550000/caf48326-64da-4c6b-8f5f-789a0ad1d31c.root",
        "T2_US_Vanderbilt: davs://xrootd-vanderbilt.sites.opensciencegrid.org:1094/store/mc/Run3Summer22EENanoAODv12/GluGlutoBulkGravitontoHHto4B_M-1000_narrow_TuneCP5_13p6TeV_madgraph-pythia8/NANOAODSIM/130X_mcRun3_2022_realistic_postEE_v6-v3/2550000/caf48326-64da-4c6b-8f5f-789a0ad1d31c.root",
        "T1_UK_RAL_Disk: davs://rdr.echo.stfc.ac.uk:1094/store/mc/Run3Summer22EENanoAODv12/GluGlutoBulkGravitontoHHto4B_M-1000_narrow_TuneCP5_13p6TeV_madgraph-pythia8/NANOAODSIM/130X_mcRun3_2022_realistic_postEE_v6-v3/2550000/caf48326-64da-4c6b-8f5f-789a0ad1d31c.root",
        "T2_BR_SPRACE: davs://osg-se.sprace.org.br:1094/store/mc/Run3Summer22EENanoAODv12/GluGlutoBulkGravitontoHHto4B_M-1000_narrow_TuneCP5_13p6TeV_madgraph-pythia8/NANOAODSIM/130X_mcRun3_2022_realistic_postEE_v6-v3/2550000/caf48326-64da-4c6b-8f5f-789a0ad1d31c.root",
        "T2_DE_RWTH: davs://grid-webdav.physik.rwth-aachen.de:2889/store/mc/Run3Summer22EENanoAODv12/GluGlutoBulkGravitontoHHto4B_M-1000_narrow_TuneCP5_13p6TeV_madgraph-pythia8/NANOAODSIM/130X_mcRun3_2022_realistic_postEE_v6-v3/2550000/caf48326-64da-4c6b-8f5f-789a0ad1d31c.root",
        "T0_CH_CERN_Tape: davs://eosctacms.cern.ch:8444//eos/ctacms/archive/cms/store/mc/Run3Summer22EENanoAODv12/GluGlutoBulkGravitontoHHto4B_M-1000_narrow_TuneCP5_13p6TeV_madgraph-pythia8/NANOAODSIM/130X_mcRun3_2022_realistic_postEE_v6-v3/2550000/caf48326-64da-4c6b-8f5f-789a0ad1d31c.root"
    ],
    "cms:/store/mc/Run3Summer22EENanoAODv12/GluGlutoBulkGravitontoHHto4B_M-1000_narrow_TuneCP5_13p6TeV_madgraph-pythia8/NANOAODSIM/130X_mcRun3_2022_realistic_postEE_v6-v3/2550000/c8797b7c-3501-4efd-95e4-a1e3597dcfd0.root": [
        "T2_TW_NCHC: davs://se01.grid.nchc.org.tw:443//cms/store/mc/Run3Summer22EENanoAODv12/GluGlutoBulkGravitontoHHto4B_M-1000_narrow_TuneCP5_13p6TeV_madgraph-pythia8/NANOAODSIM/130X_mcRun3_2022_realistic_postEE_v6-v3/2550000/c8797b7c-3501-4efd-95e4-a1e3597dcfd0.root",
        "T2_FR_GRIF: davs://eos.grif.fr:11000/eos/grif/cms/grif/store/mc/Run3Summer22EENanoAODv12/GluGlutoBulkGravitontoHHto4B_M-1000_narrow_TuneCP5_13p6TeV_madgraph-pythia8/NANOAODSIM/130X_mcRun3_2022_realistic_postEE_v6-v3/2550000/c8797b7c-3501-4efd-95e4-a1e3597dcfd0.root",
        "T2_US_Vanderbilt: davs://xrootd-vanderbilt.sites.opensciencegrid.org:1094/store/mc/Run3Summer22EENanoAODv12/GluGlutoBulkGravitontoHHto4B_M-1000_narrow_TuneCP5_13p6TeV_madgraph-pythia8/NANOAODSIM/130X_mcRun3_2022_realistic_postEE_v6-v3/2550000/c8797b7c-3501-4efd-95e4-a1e3597dcfd0.root",
        "T1_UK_RAL_Disk: davs://rdr.echo.stfc.ac.uk:1094/store/mc/Run3Summer22EENanoAODv12/GluGlutoBulkGravitontoHHto4B_M-1000_narrow_TuneCP5_13p6TeV_madgraph-pythia8/NANOAODSIM/130X_mcRun3_2022_realistic_postEE_v6-v3/2550000/c8797b7c-3501-4efd-95e4-a1e3597dcfd0.root",
        "T2_BR_SPRACE: davs://osg-se.sprace.org.br:1094/store/mc/Run3Summer22EENanoAODv12/GluGlutoBulkGravitontoHHto4B_M-1000_narrow_TuneCP5_13p6TeV_madgraph-pythia8/NANOAODSIM/130X_mcRun3_2022_realistic_postEE_v6-v3/2550000/c8797b7c-3501-4efd-95e4-a1e3597dcfd0.root",
        "T2_DE_RWTH: davs://grid-webdav.physik.rwth-aachen.de:2889/store/mc/Run3Summer22EENanoAODv12/GluGlutoBulkGravitontoHHto4B_M-1000_narrow_TuneCP5_13p6TeV_madgraph-pythia8/NANOAODSIM/130X_mcRun3_2022_realistic_postEE_v6-v3/2550000/c8797b7c-3501-4efd-95e4-a1e3597dcfd0.root",
        "T0_CH_CERN_Tape: davs://eosctacms.cern.ch:8444//eos/ctacms/archive/cms/store/mc/Run3Summer22EENanoAODv12/GluGlutoBulkGravitontoHHto4B_M-1000_narrow_TuneCP5_13p6TeV_madgraph-pythia8/NANOAODSIM/130X_mcRun3_2022_realistic_postEE_v6-v3/2550000/c8797b7c-3501-4efd-95e4-a1e3597dcfd0.root"
    ],
    "cms:/store/mc/Run3Summer22EENanoAODv12/GluGlutoBulkGravitontoHHto4B_M-1000_narrow_TuneCP5_13p6TeV_madgraph-pythia8/NANOAODSIM/130X_mcRun3_2022_realistic_postEE_v6-v3/2550000/d23863af-4a39-47bc-b14b-34031224b744.root": [
        "T2_TW_NCHC: davs://se01.grid.nchc.org.tw:443//cms/store/mc/Run3Summer22EENanoAODv12/GluGlutoBulkGravitontoHHto4B_M-1000_narrow_TuneCP5_13p6TeV_madgraph-pythia8/NANOAODSIM/130X_mcRun3_2022_realistic_postEE_v6-v3/2550000/d23863af-4a39-47bc-b14b-34031224b744.root",
        "T2_FR_GRIF: davs://eos.grif.fr:11000/eos/grif/cms/grif/store/mc/Run3Summer22EENanoAODv12/GluGlutoBulkGravitontoHHto4B_M-1000_narrow_TuneCP5_13p6TeV_madgraph-pythia8/NANOAODSIM/130X_mcRun3_2022_realistic_postEE_v6-v3/2550000/d23863af-4a39-47bc-b14b-34031224b744.root",
        "T2_US_Vanderbilt: davs://xrootd-vanderbilt.sites.opensciencegrid.org:1094/store/mc/Run3Summer22EENanoAODv12/GluGlutoBulkGravitontoHHto4B_M-1000_narrow_TuneCP5_13p6TeV_madgraph-pythia8/NANOAODSIM/130X_mcRun3_2022_realistic_postEE_v6-v3/2550000/d23863af-4a39-47bc-b14b-34031224b744.root",
        "T1_UK_RAL_Disk: davs://rdr.echo.stfc.ac.uk:1094/store/mc/Run3Summer22EENanoAODv12/GluGlutoBulkGravitontoHHto4B_M-1000_narrow_TuneCP5_13p6TeV_madgraph-pythia8/NANOAODSIM/130X_mcRun3_2022_realistic_postEE_v6-v3/2550000/d23863af-4a39-47bc-b14b-34031224b744.root",
        "T2_BR_SPRACE: davs://osg-se.sprace.org.br:1094/store/mc/Run3Summer22EENanoAODv12/GluGlutoBulkGravitontoHHto4B_M-1000_narrow_TuneCP5_13p6TeV_madgraph-pythia8/NANOAODSIM/130X_mcRun3_2022_realistic_postEE_v6-v3/2550000/d23863af-4a39-47bc-b14b-34031224b744.root",
        "T2_DE_RWTH: davs://grid-webdav.physik.rwth-aachen.de:2889/store/mc/Run3Summer22EENanoAODv12/GluGlutoBulkGravitontoHHto4B_M-1000_narrow_TuneCP5_13p6TeV_madgraph-pythia8/NANOAODSIM/130X_mcRun3_2022_realistic_postEE_v6-v3/2550000/d23863af-4a39-47bc-b14b-34031224b744.root",
        "T0_CH_CERN_Tape: davs://eosctacms.cern.ch:8444//eos/ctacms/archive/cms/store/mc/Run3Summer22EENanoAODv12/GluGlutoBulkGravitontoHHto4B_M-1000_narrow_TuneCP5_13p6TeV_madgraph-pythia8/NANOAODSIM/130X_mcRun3_2022_realistic_postEE_v6-v3/2550000/d23863af-4a39-47bc-b14b-34031224b744.root"
    ],
    "cms:/store/mc/Run3Summer22EENanoAODv12/GluGlutoBulkGravitontoHHto4B_M-1000_narrow_TuneCP5_13p6TeV_madgraph-pythia8/NANOAODSIM/130X_mcRun3_2022_realistic_postEE_v6-v3/2550000/4c13068c-caa5-493d-adae-5828d2bf8017.root": [
        "T2_TW_NCHC: davs://se01.grid.nchc.org.tw:443//cms/store/mc/Run3Summer22EENanoAODv12/GluGlutoBulkGravitontoHHto4B_M-1000_narrow_TuneCP5_13p6TeV_madgraph-pythia8/NANOAODSIM/130X_mcRun3_2022_realistic_postEE_v6-v3/2550000/4c13068c-caa5-493d-adae-5828d2bf8017.root",
        "T2_FR_GRIF: davs://eos.grif.fr:11000/eos/grif/cms/grif/store/mc/Run3Summer22EENanoAODv12/GluGlutoBulkGravitontoHHto4B_M-1000_narrow_TuneCP5_13p6TeV_madgraph-pythia8/NANOAODSIM/130X_mcRun3_2022_realistic_postEE_v6-v3/2550000/4c13068c-caa5-493d-adae-5828d2bf8017.root",
        "T2_US_Vanderbilt: davs://xrootd-vanderbilt.sites.opensciencegrid.org:1094/store/mc/Run3Summer22EENanoAODv12/GluGlutoBulkGravitontoHHto4B_M-1000_narrow_TuneCP5_13p6TeV_madgraph-pythia8/NANOAODSIM/130X_mcRun3_2022_realistic_postEE_v6-v3/2550000/4c13068c-caa5-493d-adae-5828d2bf8017.root",
        "T1_UK_RAL_Disk: davs://rdr.echo.stfc.ac.uk:1094/store/mc/Run3Summer22EENanoAODv12/GluGlutoBulkGravitontoHHto4B_M-1000_narrow_TuneCP5_13p6TeV_madgraph-pythia8/NANOAODSIM/130X_mcRun3_2022_realistic_postEE_v6-v3/2550000/4c13068c-caa5-493d-adae-5828d2bf8017.root",
        "T2_BR_SPRACE: davs://osg-se.sprace.org.br:1094/store/mc/Run3Summer22EENanoAODv12/GluGlutoBulkGravitontoHHto4B_M-1000_narrow_TuneCP5_13p6TeV_madgraph-pythia8/NANOAODSIM/130X_mcRun3_2022_realistic_postEE_v6-v3/2550000/4c13068c-caa5-493d-adae-5828d2bf8017.root",
        "T2_DE_RWTH: davs://grid-webdav.physik.rwth-aachen.de:2889/store/mc/Run3Summer22EENanoAODv12/GluGlutoBulkGravitontoHHto4B_M-1000_narrow_TuneCP5_13p6TeV_madgraph-pythia8/NANOAODSIM/130X_mcRun3_2022_realistic_postEE_v6-v3/2550000/4c13068c-caa5-493d-adae-5828d2bf8017.root",
        "T0_CH_CERN_Tape: davs://eosctacms.cern.ch:8444//eos/ctacms/archive/cms/store/mc/Run3Summer22EENanoAODv12/GluGlutoBulkGravitontoHHto4B_M-1000_narrow_TuneCP5_13p6TeV_madgraph-pythia8/NANOAODSIM/130X_mcRun3_2022_realistic_postEE_v6-v3/2550000/4c13068c-caa5-493d-adae-5828d2bf8017.root"
    ],
    "cms:/store/mc/Run3Summer22EENanoAODv12/GluGlutoBulkGravitontoHHto4B_M-1000_narrow_TuneCP5_13p6TeV_madgraph-pythia8/NANOAODSIM/130X_mcRun3_2022_realistic_postEE_v6-v3/2550000/321eef61-1cbe-498d-a54d-a77b5d32bce5.root": [
        "T2_TW_NCHC: davs://se01.grid.nchc.org.tw:443//cms/store/mc/Run3Summer22EENanoAODv12/GluGlutoBulkGravitontoHHto4B_M-1000_narrow_TuneCP5_13p6TeV_madgraph-pythia8/NANOAODSIM/130X_mcRun3_2022_realistic_postEE_v6-v3/2550000/321eef61-1cbe-498d-a54d-a77b5d32bce5.root",
        "T2_FR_GRIF: davs://eos.grif.fr:11000/eos/grif/cms/grif/store/mc/Run3Summer22EENanoAODv12/GluGlutoBulkGravitontoHHto4B_M-1000_narrow_TuneCP5_13p6TeV_madgraph-pythia8/NANOAODSIM/130X_mcRun3_2022_realistic_postEE_v6-v3/2550000/321eef61-1cbe-498d-a54d-a77b5d32bce5.root",
        "T2_US_Vanderbilt: davs://xrootd-vanderbilt.sites.opensciencegrid.org:1094/store/mc/Run3Summer22EENanoAODv12/GluGlutoBulkGravitontoHHto4B_M-1000_narrow_TuneCP5_13p6TeV_madgraph-pythia8/NANOAODSIM/130X_mcRun3_2022_realistic_postEE_v6-v3/2550000/321eef61-1cbe-498d-a54d-a77b5d32bce5.root",
        "T1_UK_RAL_Disk: davs://rdr.echo.stfc.ac.uk:1094/store/mc/Run3Summer22EENanoAODv12/GluGlutoBulkGravitontoHHto4B_M-1000_narrow_TuneCP5_13p6TeV_madgraph-pythia8/NANOAODSIM/130X_mcRun3_2022_realistic_postEE_v6-v3/2550000/321eef61-1cbe-498d-a54d-a77b5d32bce5.root",
        "T2_BR_SPRACE: davs://osg-se.sprace.org.br:1094/store/mc/Run3Summer22EENanoAODv12/GluGlutoBulkGravitontoHHto4B_M-1000_narrow_TuneCP5_13p6TeV_madgraph-pythia8/NANOAODSIM/130X_mcRun3_2022_realistic_postEE_v6-v3/2550000/321eef61-1cbe-498d-a54d-a77b5d32bce5.root",
        "T2_DE_RWTH: davs://grid-webdav.physik.rwth-aachen.de:2889/store/mc/Run3Summer22EENanoAODv12/GluGlutoBulkGravitontoHHto4B_M-1000_narrow_TuneCP5_13p6TeV_madgraph-pythia8/NANOAODSIM/130X_mcRun3_2022_realistic_postEE_v6-v3/2550000/321eef61-1cbe-498d-a54d-a77b5d32bce5.root",
        "T0_CH_CERN_Tape: davs://eosctacms.cern.ch:8444//eos/ctacms/archive/cms/store/mc/Run3Summer22EENanoAODv12/GluGlutoBulkGravitontoHHto4B_M-1000_narrow_TuneCP5_13p6TeV_madgraph-pythia8/NANOAODSIM/130X_mcRun3_2022_realistic_postEE_v6-v3/2550000/321eef61-1cbe-498d-a54d-a77b5d32bce5.root"
    ],
    "cms:/store/mc/Run3Summer22EENanoAODv12/GluGlutoBulkGravitontoHHto4B_M-1000_narrow_TuneCP5_13p6TeV_madgraph-pythia8/NANOAODSIM/130X_mcRun3_2022_realistic_postEE_v6-v3/2550000/147e7940-d1f0-4316-be08-4fe65cc88308.root": [
        "T2_TW_NCHC: davs://se01.grid.nchc.org.tw:443//cms/store/mc/Run3Summer22EENanoAODv12/GluGlutoBulkGravitontoHHto4B_M-1000_narrow_TuneCP5_13p6TeV_madgraph-pythia8/NANOAODSIM/130X_mcRun3_2022_realistic_postEE_v6-v3/2550000/147e7940-d1f0-4316-be08-4fe65cc88308.root",
        "T2_FR_GRIF: davs://eos.grif.fr:11000/eos/grif/cms/grif/store/mc/Run3Summer22EENanoAODv12/GluGlutoBulkGravitontoHHto4B_M-1000_narrow_TuneCP5_13p6TeV_madgraph-pythia8/NANOAODSIM/130X_mcRun3_2022_realistic_postEE_v6-v3/2550000/147e7940-d1f0-4316-be08-4fe65cc88308.root",
        "T2_US_Vanderbilt: davs://xrootd-vanderbilt.sites.opensciencegrid.org:1094/store/mc/Run3Summer22EENanoAODv12/GluGlutoBulkGravitontoHHto4B_M-1000_narrow_TuneCP5_13p6TeV_madgraph-pythia8/NANOAODSIM/130X_mcRun3_2022_realistic_postEE_v6-v3/2550000/147e7940-d1f0-4316-be08-4fe65cc88308.root",
        "T1_UK_RAL_Disk: davs://rdr.echo.stfc.ac.uk:1094/store/mc/Run3Summer22EENanoAODv12/GluGlutoBulkGravitontoHHto4B_M-1000_narrow_TuneCP5_13p6TeV_madgraph-pythia8/NANOAODSIM/130X_mcRun3_2022_realistic_postEE_v6-v3/2550000/147e7940-d1f0-4316-be08-4fe65cc88308.root",
        "T2_BR_SPRACE: davs://osg-se.sprace.org.br:1094/store/mc/Run3Summer22EENanoAODv12/GluGlutoBulkGravitontoHHto4B_M-1000_narrow_TuneCP5_13p6TeV_madgraph-pythia8/NANOAODSIM/130X_mcRun3_2022_realistic_postEE_v6-v3/2550000/147e7940-d1f0-4316-be08-4fe65cc88308.root",
        "T2_DE_RWTH: davs://grid-webdav.physik.rwth-aachen.de:2889/store/mc/Run3Summer22EENanoAODv12/GluGlutoBulkGravitontoHHto4B_M-1000_narrow_TuneCP5_13p6TeV_madgraph-pythia8/NANOAODSIM/130X_mcRun3_2022_realistic_postEE_v6-v3/2550000/147e7940-d1f0-4316-be08-4fe65cc88308.root",
        "T0_CH_CERN_Tape: davs://eosctacms.cern.ch:8444//eos/ctacms/archive/cms/store/mc/Run3Summer22EENanoAODv12/GluGlutoBulkGravitontoHHto4B_M-1000_narrow_TuneCP5_13p6TeV_madgraph-pythia8/NANOAODSIM/130X_mcRun3_2022_realistic_postEE_v6-v3/2550000/147e7940-d1f0-4316-be08-4fe65cc88308.root"
    ],
    "cms:/store/mc/Run3Summer22EENanoAODv12/GluGlutoBulkGravitontoHHto4B_M-1000_narrow_TuneCP5_13p6TeV_madgraph-pythia8/NANOAODSIM/130X_mcRun3_2022_realistic_postEE_v6-v3/2550000/5a9e1d42-cdd8-400e-bfba-fb35b0b13413.root": [
        "T2_TW_NCHC: davs://se01.grid.nchc.org.tw:443//cms/store/mc/Run3Summer22EENanoAODv12/GluGlutoBulkGravitontoHHto4B_M-1000_narrow_TuneCP5_13p6TeV_madgraph-pythia8/NANOAODSIM/130X_mcRun3_2022_realistic_postEE_v6-v3/2550000/5a9e1d42-cdd8-400e-bfba-fb35b0b13413.root",
        "T2_FR_GRIF: davs://eos.grif.fr:11000/eos/grif/cms/grif/store/mc/Run3Summer22EENanoAODv12/GluGlutoBulkGravitontoHHto4B_M-1000_narrow_TuneCP5_13p6TeV_madgraph-pythia8/NANOAODSIM/130X_mcRun3_2022_realistic_postEE_v6-v3/2550000/5a9e1d42-cdd8-400e-bfba-fb35b0b13413.root",
        "T2_US_Vanderbilt: davs://xrootd-vanderbilt.sites.opensciencegrid.org:1094/store/mc/Run3Summer22EENanoAODv12/GluGlutoBulkGravitontoHHto4B_M-1000_narrow_TuneCP5_13p6TeV_madgraph-pythia8/NANOAODSIM/130X_mcRun3_2022_realistic_postEE_v6-v3/2550000/5a9e1d42-cdd8-400e-bfba-fb35b0b13413.root",
        "T1_UK_RAL_Disk: davs://rdr.echo.stfc.ac.uk:1094/store/mc/Run3Summer22EENanoAODv12/GluGlutoBulkGravitontoHHto4B_M-1000_narrow_TuneCP5_13p6TeV_madgraph-pythia8/NANOAODSIM/130X_mcRun3_2022_realistic_postEE_v6-v3/2550000/5a9e1d42-cdd8-400e-bfba-fb35b0b13413.root",
        "T2_BR_SPRACE: davs://osg-se.sprace.org.br:1094/store/mc/Run3Summer22EENanoAODv12/GluGlutoBulkGravitontoHHto4B_M-1000_narrow_TuneCP5_13p6TeV_madgraph-pythia8/NANOAODSIM/130X_mcRun3_2022_realistic_postEE_v6-v3/2550000/5a9e1d42-cdd8-400e-bfba-fb35b0b13413.root",
        "T2_DE_RWTH: davs://grid-webdav.physik.rwth-aachen.de:2889/store/mc/Run3Summer22EENanoAODv12/GluGlutoBulkGravitontoHHto4B_M-1000_narrow_TuneCP5_13p6TeV_madgraph-pythia8/NANOAODSIM/130X_mcRun3_2022_realistic_postEE_v6-v3/2550000/5a9e1d42-cdd8-400e-bfba-fb35b0b13413.root",
        "T0_CH_CERN_Tape: davs://eosctacms.cern.ch:8444//eos/ctacms/archive/cms/store/mc/Run3Summer22EENanoAODv12/GluGlutoBulkGravitontoHHto4B_M-1000_narrow_TuneCP5_13p6TeV_madgraph-pythia8/NANOAODSIM/130X_mcRun3_2022_realistic_postEE_v6-v3/2550000/5a9e1d42-cdd8-400e-bfba-fb35b0b13413.root"
    ],
    "cms:/store/mc/Run3Summer22EENanoAODv12/GluGlutoBulkGravitontoHHto4B_M-1000_narrow_TuneCP5_13p6TeV_madgraph-pythia8/NANOAODSIM/130X_mcRun3_2022_realistic_postEE_v6-v3/2550000/2785546e-d45e-4afa-89b6-3e6bf50abad4.root": [
        "T2_TW_NCHC: davs://se01.grid.nchc.org.tw:443//cms/store/mc/Run3Summer22EENanoAODv12/GluGlutoBulkGravitontoHHto4B_M-1000_narrow_TuneCP5_13p6TeV_madgraph-pythia8/NANOAODSIM/130X_mcRun3_2022_realistic_postEE_v6-v3/2550000/2785546e-d45e-4afa-89b6-3e6bf50abad4.root",
        "T2_FR_GRIF: davs://eos.grif.fr:11000/eos/grif/cms/grif/store/mc/Run3Summer22EENanoAODv12/GluGlutoBulkGravitontoHHto4B_M-1000_narrow_TuneCP5_13p6TeV_madgraph-pythia8/NANOAODSIM/130X_mcRun3_2022_realistic_postEE_v6-v3/2550000/2785546e-d45e-4afa-89b6-3e6bf50abad4.root",
        "T2_US_Vanderbilt: davs://xrootd-vanderbilt.sites.opensciencegrid.org:1094/store/mc/Run3Summer22EENanoAODv12/GluGlutoBulkGravitontoHHto4B_M-1000_narrow_TuneCP5_13p6TeV_madgraph-pythia8/NANOAODSIM/130X_mcRun3_2022_realistic_postEE_v6-v3/2550000/2785546e-d45e-4afa-89b6-3e6bf50abad4.root",
        "T1_UK_RAL_Disk: davs://rdr.echo.stfc.ac.uk:1094/store/mc/Run3Summer22EENanoAODv12/GluGlutoBulkGravitontoHHto4B_M-1000_narrow_TuneCP5_13p6TeV_madgraph-pythia8/NANOAODSIM/130X_mcRun3_2022_realistic_postEE_v6-v3/2550000/2785546e-d45e-4afa-89b6-3e6bf50abad4.root",
        "T2_BR_SPRACE: davs://osg-se.sprace.org.br:1094/store/mc/Run3Summer22EENanoAODv12/GluGlutoBulkGravitontoHHto4B_M-1000_narrow_TuneCP5_13p6TeV_madgraph-pythia8/NANOAODSIM/130X_mcRun3_2022_realistic_postEE_v6-v3/2550000/2785546e-d45e-4afa-89b6-3e6bf50abad4.root",
        "T2_DE_RWTH: davs://grid-webdav.physik.rwth-aachen.de:2889/store/mc/Run3Summer22EENanoAODv12/GluGlutoBulkGravitontoHHto4B_M-1000_narrow_TuneCP5_13p6TeV_madgraph-pythia8/NANOAODSIM/130X_mcRun3_2022_realistic_postEE_v6-v3/2550000/2785546e-d45e-4afa-89b6-3e6bf50abad4.root",
        "T0_CH_CERN_Tape: davs://eosctacms.cern.ch:8444//eos/ctacms/archive/cms/store/mc/Run3Summer22EENanoAODv12/GluGlutoBulkGravitontoHHto4B_M-1000_narrow_TuneCP5_13p6TeV_madgraph-pythia8/NANOAODSIM/130X_mcRun3_2022_realistic_postEE_v6-v3/2550000/2785546e-d45e-4afa-89b6-3e6bf50abad4.root"
    ],
    "cms:/store/mc/Run3Summer22EENanoAODv12/GluGlutoBulkGravitontoHHto4B_M-1000_narrow_TuneCP5_13p6TeV_madgraph-pythia8/NANOAODSIM/130X_mcRun3_2022_realistic_postEE_v6-v3/2550000/f7045b63-4bae-490b-a2b9-ca6b695f3d90.root": [
        "T2_TW_NCHC: davs://se01.grid.nchc.org.tw:443//cms/store/mc/Run3Summer22EENanoAODv12/GluGlutoBulkGravitontoHHto4B_M-1000_narrow_TuneCP5_13p6TeV_madgraph-pythia8/NANOAODSIM/130X_mcRun3_2022_realistic_postEE_v6-v3/2550000/f7045b63-4bae-490b-a2b9-ca6b695f3d90.root",
        "T2_FR_GRIF: davs://eos.grif.fr:11000/eos/grif/cms/grif/store/mc/Run3Summer22EENanoAODv12/GluGlutoBulkGravitontoHHto4B_M-1000_narrow_TuneCP5_13p6TeV_madgraph-pythia8/NANOAODSIM/130X_mcRun3_2022_realistic_postEE_v6-v3/2550000/f7045b63-4bae-490b-a2b9-ca6b695f3d90.root",
        "T2_US_Vanderbilt: davs://xrootd-vanderbilt.sites.opensciencegrid.org:1094/store/mc/Run3Summer22EENanoAODv12/GluGlutoBulkGravitontoHHto4B_M-1000_narrow_TuneCP5_13p6TeV_madgraph-pythia8/NANOAODSIM/130X_mcRun3_2022_realistic_postEE_v6-v3/2550000/f7045b63-4bae-490b-a2b9-ca6b695f3d90.root",
        "T1_UK_RAL_Disk: davs://rdr.echo.stfc.ac.uk:1094/store/mc/Run3Summer22EENanoAODv12/GluGlutoBulkGravitontoHHto4B_M-1000_narrow_TuneCP5_13p6TeV_madgraph-pythia8/NANOAODSIM/130X_mcRun3_2022_realistic_postEE_v6-v3/2550000/f7045b63-4bae-490b-a2b9-ca6b695f3d90.root",
        "T2_BR_SPRACE: davs://osg-se.sprace.org.br:1094/store/mc/Run3Summer22EENanoAODv12/GluGlutoBulkGravitontoHHto4B_M-1000_narrow_TuneCP5_13p6TeV_madgraph-pythia8/NANOAODSIM/130X_mcRun3_2022_realistic_postEE_v6-v3/2550000/f7045b63-4bae-490b-a2b9-ca6b695f3d90.root",
        "T2_DE_RWTH: davs://grid-webdav.physik.rwth-aachen.de:2889/store/mc/Run3Summer22EENanoAODv12/GluGlutoBulkGravitontoHHto4B_M-1000_narrow_TuneCP5_13p6TeV_madgraph-pythia8/NANOAODSIM/130X_mcRun3_2022_realistic_postEE_v6-v3/2550000/f7045b63-4bae-490b-a2b9-ca6b695f3d90.root",
        "T0_CH_CERN_Tape: davs://eosctacms.cern.ch:8444//eos/ctacms/archive/cms/store/mc/Run3Summer22EENanoAODv12/GluGlutoBulkGravitontoHHto4B_M-1000_narrow_TuneCP5_13p6TeV_madgraph-pythia8/NANOAODSIM/130X_mcRun3_2022_realistic_postEE_v6-v3/2550000/f7045b63-4bae-490b-a2b9-ca6b695f3d90.root"
    ],
    "cms:/store/mc/Run3Summer22EENanoAODv12/GluGlutoBulkGravitontoHHto4B_M-1000_narrow_TuneCP5_13p6TeV_madgraph-pythia8/NANOAODSIM/130X_mcRun3_2022_realistic_postEE_v6-v3/2550000/a3a2b5d8-bab7-42f9-b88e-016266999f9b.root": [
        "T2_TW_NCHC: davs://se01.grid.nchc.org.tw:443//cms/store/mc/Run3Summer22EENanoAODv12/GluGlutoBulkGravitontoHHto4B_M-1000_narrow_TuneCP5_13p6TeV_madgraph-pythia8/NANOAODSIM/130X_mcRun3_2022_realistic_postEE_v6-v3/2550000/a3a2b5d8-bab7-42f9-b88e-016266999f9b.root",
        "T2_FR_GRIF: davs://eos.grif.fr:11000/eos/grif/cms/grif/store/mc/Run3Summer22EENanoAODv12/GluGlutoBulkGravitontoHHto4B_M-1000_narrow_TuneCP5_13p6TeV_madgraph-pythia8/NANOAODSIM/130X_mcRun3_2022_realistic_postEE_v6-v3/2550000/a3a2b5d8-bab7-42f9-b88e-016266999f9b.root",
        "T2_US_Vanderbilt: davs://xrootd-vanderbilt.sites.opensciencegrid.org:1094/store/mc/Run3Summer22EENanoAODv12/GluGlutoBulkGravitontoHHto4B_M-1000_narrow_TuneCP5_13p6TeV_madgraph-pythia8/NANOAODSIM/130X_mcRun3_2022_realistic_postEE_v6-v3/2550000/a3a2b5d8-bab7-42f9-b88e-016266999f9b.root",
        "T1_UK_RAL_Disk: davs://rdr.echo.stfc.ac.uk:1094/store/mc/Run3Summer22EENanoAODv12/GluGlutoBulkGravitontoHHto4B_M-1000_narrow_TuneCP5_13p6TeV_madgraph-pythia8/NANOAODSIM/130X_mcRun3_2022_realistic_postEE_v6-v3/2550000/a3a2b5d8-bab7-42f9-b88e-016266999f9b.root",
        "T2_BR_SPRACE: davs://osg-se.sprace.org.br:1094/store/mc/Run3Summer22EENanoAODv12/GluGlutoBulkGravitontoHHto4B_M-1000_narrow_TuneCP5_13p6TeV_madgraph-pythia8/NANOAODSIM/130X_mcRun3_2022_realistic_postEE_v6-v3/2550000/a3a2b5d8-bab7-42f9-b88e-016266999f9b.root",
        "T2_DE_RWTH: davs://grid-webdav.physik.rwth-aachen.de:2889/store/mc/Run3Summer22EENanoAODv12/GluGlutoBulkGravitontoHHto4B_M-1000_narrow_TuneCP5_13p6TeV_madgraph-pythia8/NANOAODSIM/130X_mcRun3_2022_realistic_postEE_v6-v3/2550000/a3a2b5d8-bab7-42f9-b88e-016266999f9b.root",
        "T0_CH_CERN_Tape: davs://eosctacms.cern.ch:8444//eos/ctacms/archive/cms/store/mc/Run3Summer22EENanoAODv12/GluGlutoBulkGravitontoHHto4B_M-1000_narrow_TuneCP5_13p6TeV_madgraph-pythia8/NANOAODSIM/130X_mcRun3_2022_realistic_postEE_v6-v3/2550000/a3a2b5d8-bab7-42f9-b88e-016266999f9b.root"
    ],
    "cms:/store/mc/Run3Summer22EENanoAODv12/GluGlutoBulkGravitontoHHto4B_M-1000_narrow_TuneCP5_13p6TeV_madgraph-pythia8/NANOAODSIM/130X_mcRun3_2022_realistic_postEE_v6-v3/2550000/d15a2974-4cac-4d8d-a35b-f97c11b840d5.root": [
        "T2_FR_GRIF: davs://eos.grif.fr:11000/eos/grif/cms/grif/store/mc/Run3Summer22EENanoAODv12/GluGlutoBulkGravitontoHHto4B_M-1000_narrow_TuneCP5_13p6TeV_madgraph-pythia8/NANOAODSIM/130X_mcRun3_2022_realistic_postEE_v6-v3/2550000/d15a2974-4cac-4d8d-a35b-f97c11b840d5.root",
        "T2_US_Vanderbilt: davs://xrootd-vanderbilt.sites.opensciencegrid.org:1094/store/mc/Run3Summer22EENanoAODv12/GluGlutoBulkGravitontoHHto4B_M-1000_narrow_TuneCP5_13p6TeV_madgraph-pythia8/NANOAODSIM/130X_mcRun3_2022_realistic_postEE_v6-v3/2550000/d15a2974-4cac-4d8d-a35b-f97c11b840d5.root",
        "T1_UK_RAL_Disk: davs://rdr.echo.stfc.ac.uk:1094/store/mc/Run3Summer22EENanoAODv12/GluGlutoBulkGravitontoHHto4B_M-1000_narrow_TuneCP5_13p6TeV_madgraph-pythia8/NANOAODSIM/130X_mcRun3_2022_realistic_postEE_v6-v3/2550000/d15a2974-4cac-4d8d-a35b-f97c11b840d5.root",
        "T2_BR_SPRACE: davs://osg-se.sprace.org.br:1094/store/mc/Run3Summer22EENanoAODv12/GluGlutoBulkGravitontoHHto4B_M-1000_narrow_TuneCP5_13p6TeV_madgraph-pythia8/NANOAODSIM/130X_mcRun3_2022_realistic_postEE_v6-v3/2550000/d15a2974-4cac-4d8d-a35b-f97c11b840d5.root",
        "T1_RU_JINR_Disk: davs://se-wbdv.jinr-t1.ru:2880/pnfs/jinr-t1.ru/data/cms/store/mc/Run3Summer22EENanoAODv12/GluGlutoBulkGravitontoHHto4B_M-1000_narrow_TuneCP5_13p6TeV_madgraph-pythia8/NANOAODSIM/130X_mcRun3_2022_realistic_postEE_v6-v3/2550000/d15a2974-4cac-4d8d-a35b-f97c11b840d5.root",
        "T2_DE_RWTH: davs://grid-webdav.physik.rwth-aachen.de:2889/store/mc/Run3Summer22EENanoAODv12/GluGlutoBulkGravitontoHHto4B_M-1000_narrow_TuneCP5_13p6TeV_madgraph-pythia8/NANOAODSIM/130X_mcRun3_2022_realistic_postEE_v6-v3/2550000/d15a2974-4cac-4d8d-a35b-f97c11b840d5.root",
        "T0_CH_CERN_Tape: davs://eosctacms.cern.ch:8444//eos/ctacms/archive/cms/store/mc/Run3Summer22EENanoAODv12/GluGlutoBulkGravitontoHHto4B_M-1000_narrow_TuneCP5_13p6TeV_madgraph-pythia8/NANOAODSIM/130X_mcRun3_2022_realistic_postEE_v6-v3/2550000/d15a2974-4cac-4d8d-a35b-f97c11b840d5.root"
    ]
}