+------------------------------------------------------------------------------------------------------------------------------------------------------------------------------------------------------------------+--------+-------------+------------+----------+
| SCOPE:NAME                                                                                                                                                                                                       | GUID   | ADLER32     | FILESIZE   | EVENTS   |
|------------------------------------------------------------------------------------------------------------------------------------------------------------------------------------------------------------------+--------+-------------+------------+----------|
| cms:/store/mc/Run3Summer22EENanoAODv12/GluGlutoRadiontoHHto4B_M-550_narrow_TuneCP5_13p6TeV_madgraph-pythia8/NANOAODSIM/130X_mcRun3_2022_realistic_postEE_v6-v3/2550000/983e361f-021f-4537-a9d2-6c3d8e42256a.root | (None) | ad:012b4e61 | 6.294 MB   |          |
| cms:/store/mc/Run3Summer22EENanoAODv12/GluGlutoRadiontoHHto4B_M-550_narrow_TuneCP5_13p6TeV_madgraph-pythia8/NANOAODSIM/130X_mcRun3_2022_realistic_postEE_v6-v3/2550000/d5eb1406-8940-414b-b7f4-3baee27ea398.root | (None) | ad:2a98f273 | 6.315 MB   |          |
| cms:/store/mc/Run3Summer22EENanoAODv12/GluGlutoRadiontoHHto4B_M-550_narrow_TuneCP5_13p6TeV_madgraph-pythia8/NANOAODSIM/130X_mcRun3_2022_realistic_postEE_v6-v3/2550000/b19d0094-d60b-4a3c-a7a3-37b9851e1456.root | (None) | ad:3c082b91 | 7.834 MB   |          |
| cms:/store/mc/Run3Summer22EENanoAODv12/GluGlutoRadiontoHHto4B_M-550_narrow_TuneCP5_13p6TeV_madgraph-pythia8/NANOAODSIM/130X_mcRun3_2022_realistic_postEE_v6-v3/2550000/07082147-e1cc-4d6b-a3c3-36896d31992f.root | (None) | ad:387c0af9 | 61.228 MB  |          |
| cms:/store/mc/Run3Summer22EENanoAODv12/GluGlutoRadiontoHHto4B_M-550_narrow_TuneCP5_13p6TeV_madgraph-pythia8/NANOAODSIM/130X_mcRun3_2022_realistic_postEE_v6-v3/2550000/683c4a78-ec94-46ce-933e-08fcdc78bdb2.root | (None) | ad:c61ad23d | 10.758 MB  |          |
| cms:/store/mc/Run3Summer22EENanoAODv12/GluGlutoRadiontoHHto4B_M-550_narrow_TuneCP5_13p6TeV_madgraph-pythia8/NANOAODSIM/130X_mcRun3_2022_realistic_postEE_v6-v3/2550000/db50c367-6bee-4103-aa29-3b4d57cbde43.root | (None) | ad:26a36399 | 22.478 MB  |          |
| cms:/store/mc/Run3Summer22EENanoAODv12/GluGlutoRadiontoHHto4B_M-550_narrow_TuneCP5_13p6TeV_madgraph-pythia8/NANOAODSIM/130X_mcRun3_2022_realistic_postEE_v6-v3/2550000/d0f73cc3-c3fb-4bf2-8aeb-be1d81d87fdb.root | (None) | ad:2a210721 | 9.265 MB   |          |
| cms:/store/mc/Run3Summer22EENanoAODv12/GluGlutoRadiontoHHto4B_M-550_narrow_TuneCP5_13p6TeV_madgraph-pythia8/NANOAODSIM/130X_mcRun3_2022_realistic_postEE_v6-v3/2550000/b0506c10-405d-45ef-b471-80a6b78bfc3d.root | (None) | ad:6ab99c7a | 9.275 MB   |          |
| cms:/store/mc/Run3Summer22EENanoAODv12/GluGlutoRadiontoHHto4B_M-550_narrow_TuneCP5_13p6TeV_madgraph-pythia8/NANOAODSIM/130X_mcRun3_2022_realistic_postEE_v6-v3/2550000/ff3ffa9f-652d-44c3-b975-0ca0cd02e8e0.root | (None) | ad:29eec7dc | 18.375 MB  |          |
| cms:/store/mc/Run3Summer22EENanoAODv12/GluGlutoRadiontoHHto4B_M-550_narrow_TuneCP5_13p6TeV_madgraph-pythia8/NANOAODSIM/130X_mcRun3_2022_realistic_postEE_v6-v3/2550000/e7b58c6c-a344-4ad2-9b91-42d169b11ad9.root | (None) | ad:8c015750 | 14.038 MB  |          |
| cms:/store/mc/Run3Summer22EENanoAODv12/GluGlutoRadiontoHHto4B_M-550_narrow_TuneCP5_13p6TeV_madgraph-pythia8/NANOAODSIM/130X_mcRun3_2022_realistic_postEE_v6-v3/2550000/aec7eb6c-6318-47ed-b61f-822190fc09fd.root | (None) | ad:1a50a648 | 220.696 MB |          |
| cms:/store/mc/Run3Summer22EENanoAODv12/GluGlutoRadiontoHHto4B_M-550_narrow_TuneCP5_13p6TeV_madgraph-pythia8/NANOAODSIM/130X_mcRun3_2022_realistic_postEE_v6-v3/2550000/26d7a0bf-f6de-4e00-af54-1d2e0bfc21c3.root | (None) | ad:c2c211e7 | 9.211 MB   |          |
| cms:/store/mc/Run3Summer22EENanoAODv12/GluGlutoRadiontoHHto4B_M-550_narrow_TuneCP5_13p6TeV_madgraph-pythia8/NANOAODSIM/130X_mcRun3_2022_realistic_postEE_v6-v3/2550000/9af04d0f-4a55-414a-bce4-cfcc85b260ab.root | (None) | ad:b14c2da6 | 15.521 MB  |          |
| cms:/store/mc/Run3Summer22EENanoAODv12/GluGlutoRadiontoHHto4B_M-550_narrow_TuneCP5_13p6TeV_madgraph-pythia8/NANOAODSIM/130X_mcRun3_2022_realistic_postEE_v6-v3/2550000/93631d6d-9fb7-45b7-afa3-81c771c3286b.root | (None) | ad:5acfbdd7 | 4.395 MB   |          |
| cms:/store/mc/Run3Summer22EENanoAODv12/GluGlutoRadiontoHHto4B_M-550_narrow_TuneCP5_13p6TeV_madgraph-pythia8/NANOAODSIM/130X_mcRun3_2022_realistic_postEE_v6-v3/2550000/34a1a1c7-8f8a-4ea5-8578-a973c0c6e7a7.root | (None) | ad:c7f6412c | 44.318 MB  |          |
| cms:/store/mc/Run3Summer22EENanoAODv12/GluGlutoRadiontoHHto4B_M-550_narrow_TuneCP5_13p6TeV_madgraph-pythia8/NANOAODSIM/130X_mcRun3_2022_realistic_postEE_v6-v3/2550000/918d3ff2-bc8b-417d-94d5-aee9b1a28837.root | (None) | ad:6bcff06d | 14.031 MB  |          |
| cms:/store/mc/Run3Summer22EENanoAODv12/GluGlutoRadiontoHHto4B_M-550_narrow_TuneCP5_13p6TeV_madgraph-pythia8/NANOAODSIM/130X_mcRun3_2022_realistic_postEE_v6-v3/2550000/65bd9a43-4f2a-49b8-90d0-f38f0ede0bff.root | (None) | ad:ad1ecd92 | 6.327 MB   |          |
| cms:/store/mc/Run3Summer22EENanoAODv12/GluGlutoRadiontoHHto4B_M-550_narrow_TuneCP5_13p6TeV_madgraph-pythia8/NANOAODSIM/130X_mcRun3_2022_realistic_postEE_v6-v3/2550000/05d92f10-0600-4820-9f43-dfe1fe09b8fb.root | (None) | ad:b5b3f017 | 275.802 MB |          |
+------------------------------------------------------------------------------------------------------------------------------------------------------------------------------------------------------------------+--------+-------------+------------+----------+
Total files : 18
Total size : 756.160 MB
