{
    "cms:/store/mc/Run3Summer22NanoAODv12/GluGlutoHHto4B_kl-1p00_kt-1p00_c2-0p35_TuneCP5_13p6TeV_powheg-pythia8/NANOAODSIM/130X_mcRun3_2022_realistic_v5-v2/50000/0618fde8-fb6e-464d-b5a3-3210b23917df.root": [
        "T1_US_FNAL_Disk: davs://cmsdcadisk.fnal.gov:2880/dcache/uscmsdisk/store/mc/Run3Summer22NanoAODv12/GluGlutoHHto4B_kl-1p00_kt-1p00_c2-0p35_TuneCP5_13p6TeV_powheg-pythia8/NANOAODSIM/130X_mcRun3_2022_realistic_v5-v2/50000/0618fde8-fb6e-464d-b5a3-3210b23917df.root",
        "T2_UK_SGrid_RALPP: davs://mover.pp.rl.ac.uk:2880/pnfs/pp.rl.ac.uk/data/cms/store/mc/Run3Summer22NanoAODv12/GluGlutoHHto4B_kl-1p00_kt-1p00_c2-0p35_TuneCP5_13p6TeV_powheg-pythia8/NANOAODSIM/130X_mcRun3_2022_realistic_v5-v2/50000/0618fde8-fb6e-464d-b5a3-3210b23917df.root",
        "T2_US_MIT: davs://xrootd.cmsaf.mit.edu:1094/store/mc/Run3Summer22NanoAODv12/GluGlutoHHto4B_kl-1p00_kt-1p00_c2-0p35_TuneCP5_13p6TeV_powheg-pythia8/NANOAODSIM/130X_mcRun3_2022_realistic_v5-v2/50000/0618fde8-fb6e-464d-b5a3-3210b23917df.root",
        "T1_UK_RAL_Disk: davs://rdr.echo.stfc.ac.uk:1094/store/mc/Run3Summer22NanoAODv12/GluGlutoHHto4B_kl-1p00_kt-1p00_c2-0p35_TuneCP5_13p6TeV_powheg-pythia8/NANOAODSIM/130X_mcRun3_2022_realistic_v5-v2/50000/0618fde8-fb6e-464d-b5a3-3210b23917df.root",
        "T2_US_Wisconsin: davs://cmsxrootd.hep.wisc.edu:1094/store/mc/Run3Summer22NanoAODv12/GluGlutoHHto4B_kl-1p00_kt-1p00_c2-0p35_TuneCP5_13p6TeV_powheg-pythia8/NANOAODSIM/130X_mcRun3_2022_realistic_v5-v2/50000/0618fde8-fb6e-464d-b5a3-3210b23917df.root",
        "T1_IT_CNAF_Tape: davs://xfer-cms.cr.cnaf.infn.it:8443/cmstape/store/mc/Run3Summer22NanoAODv12/GluGlutoHHto4B_kl-1p00_kt-1p00_c2-0p35_TuneCP5_13p6TeV_powheg-pythia8/NANOAODSIM/130X_mcRun3_2022_realistic_v5-v2/50000/0618fde8-fb6e-464d-b5a3-3210b23917df.root",
        "T2_EE_Estonia: davs://xrootd.hep.kbfi.ee:1094/store/mc/Run3Summer22NanoAODv12/GluGlutoHHto4B_kl-1p00_kt-1p00_c2-0p35_TuneCP5_13p6TeV_powheg-pythia8/NANOAODSIM/130X_mcRun3_2022_realistic_v5-v2/50000/0618fde8-fb6e-464d-b5a3-3210b23917df.root",
        "T2_BE_IIHE: davs://maite.iihe.ac.be:2880/pnfs/iihe/cms/ph/sc4/store/mc/Run3Summer22NanoAODv12/GluGlutoHHto4B_kl-1p00_kt-1p00_c2-0p35_TuneCP5_13p6TeV_powheg-pythia8/NANOAODSIM/130X_mcRun3_2022_realistic_v5-v2/50000/0618fde8-fb6e-464d-b5a3-3210b23917df.root"
    ]
}