+------------------------------------------------------------------------------------------------------------------------------------------------------------------------------------------------------------------------+--------+-------------+------------+----------+
| SCOPE:NAME                                                                                                                                                                                                             | GUID   | ADLER32     | FILESIZE   | EVENTS   |
|------------------------------------------------------------------------------------------------------------------------------------------------------------------------------------------------------------------------+--------+-------------+------------+----------|
| cms:/store/mc/Run3Summer22EENanoAODv12/GluGlutoBulkGravitontoHHto4B_M-800_narrow_TuneCP5_13p6TeV_madgraph-pythia8/NANOAODSIM/130X_mcRun3_2022_realistic_postEE_v6-v3/2550000/4c9ed628-fd0a-4096-96ac-a0bb1f0e80f9.root | (None) | ad:eb323b46 | 22.768 MB  |          |
| cms:/store/mc/Run3Summer22EENanoAODv12/GluGlutoBulkGravitontoHHto4B_M-800_narrow_TuneCP5_13p6TeV_madgraph-pythia8/NANOAODSIM/130X_mcRun3_2022_realistic_postEE_v6-v3/2550000/0b643b25-3b93-405a-8f83-a3e5969960ad.root | (None) | ad:17ee037d | 24.490 MB  |          |
| cms:/store/mc/Run3Summer22EENanoAODv12/GluGlutoBulkGravitontoHHto4B_M-800_narrow_TuneCP5_13p6TeV_madgraph-pythia8/NANOAODSIM/130X_mcRun3_2022_realistic_postEE_v6-v3/2550000/d60a3139-8240-4a79-9eeb-c88b677ce627.root | (None) | ad:35d090fc | 12.136 MB  |          |
| cms:/store/mc/Run3Summer22EENanoAODv12/GluGlutoBulkGravitontoHHto4B_M-800_narrow_TuneCP5_13p6TeV_madgraph-pythia8/NANOAODSIM/130X_mcRun3_2022_realistic_postEE_v6-v3/2550000/241cf367-ec67-46f1-885a-90f597f73144.root | (None) | ad:d0c25f0f | 4.651 MB   |          |
| cms:/store/mc/Run3Summer22EENanoAODv12/GluGlutoBulkGravitontoHHto4B_M-800_narrow_TuneCP5_13p6TeV_madgraph-pythia8/NANOAODSIM/130X_mcRun3_2022_realistic_postEE_v6-v3/2550000/611ef987-bf47-429b-aab2-e881c040e863.root | (None) | ad:88170201 | 230.693 MB |          |
| cms:/store/mc/Run3Summer22EENanoAODv12/GluGlutoBulkGravitontoHHto4B_M-800_narrow_TuneCP5_13p6TeV_madgraph-pythia8/NANOAODSIM/130X_mcRun3_2022_realistic_postEE_v6-v3/2550000/ba1a4de0-9b95-45fa-94cf-b2c7cdf957d1.root | (None) | ad:ee8bf76f | 4.627 MB   |          |
| cms:/store/mc/Run3Summer22EENanoAODv12/GluGlutoBulkGravitontoHHto4B_M-800_narrow_TuneCP5_13p6TeV_madgraph-pythia8/NANOAODSIM/130X_mcRun3_2022_realistic_postEE_v6-v3/2550000/8d21adf8-8952-4fd0-b901-4ac3a7b91ed7.root | (None) | ad:99f1d028 | 392.990 MB |          |
| cms:/store/mc/Run3Summer22EENanoAODv12/GluGlutoBulkGravitontoHHto4B_M-800_narrow_TuneCP5_13p6TeV_madgraph-pythia8/NANOAODSIM/130X_mcRun3_2022_realistic_postEE_v6-v3/2550000/d1046e38-cc55-4388-9cfa-c5a1d4c6d1b1.root | (None) | ad:f76effdc | 13.980 MB  |          |
| cms:/store/mc/Run3Summer22EENanoAODv12/GluGlutoBulkGravitontoHHto4B_M-800_narrow_TuneCP5_13p6TeV_madgraph-pythia8/NANOAODSIM/130X_mcRun3_2022_realistic_postEE_v6-v3/2550000/2689b811-6705-4163-9222-ac769f3c68ec.root | (None) | ad:f85f9cdd | 6.806 MB   |          |
| cms:/store/mc/Run3Summer22EENanoAODv12/GluGlutoBulkGravitontoHHto4B_M-800_narrow_TuneCP5_13p6TeV_madgraph-pythia8/NANOAODSIM/130X_mcRun3_2022_realistic_postEE_v6-v3/2550000/48c7bb4a-91d0-4410-89f0-4d74223d1aa4.root | (None) | ad:add5a532 | 15.679 MB  |          |
| cms:/store/mc/Run3Summer22EENanoAODv12/GluGlutoBulkGravitontoHHto4B_M-800_narrow_TuneCP5_13p6TeV_madgraph-pythia8/NANOAODSIM/130X_mcRun3_2022_realistic_postEE_v6-v3/2550000/deac5d46-0744-41c7-8b6c-8dfb72e903e8.root | (None) | ad:5a5ad685 | 10.186 MB  |          |
| cms:/store/mc/Run3Summer22EENanoAODv12/GluGlutoBulkGravitontoHHto4B_M-800_narrow_TuneCP5_13p6TeV_madgraph-pythia8/NANOAODSIM/130X_mcRun3_2022_realistic_postEE_v6-v3/2550000/ab46b802-ada2-4944-bebc-ed878625a066.root | (None) | ad:923d639c | 27.728 MB  |          |
| cms:/store/mc/Run3Summer22EENanoAODv12/GluGlutoBulkGravitontoHHto4B_M-800_narrow_TuneCP5_13p6TeV_madgraph-pythia8/NANOAODSIM/130X_mcRun3_2022_realistic_postEE_v6-v3/2550000/4019f8e0-11f1-4c3a-a4f9-055fcfa7f805.root | (None) | ad:399ff285 | 31.553 MB  |          |
| cms:/store/mc/Run3Summer22EENanoAODv12/GluGlutoBulkGravitontoHHto4B_M-800_narrow_TuneCP5_13p6TeV_madgraph-pythia8/NANOAODSIM/130X_mcRun3_2022_realistic_postEE_v6-v3/2550000/1d851eff-7668-4f3c-a16c-380621213676.root | (None) | ad:cca535b7 | 29.859 MB  |          |
| cms:/store/mc/Run3Summer22EENanoAODv12/GluGlutoBulkGravitontoHHto4B_M-800_narrow_TuneCP5_13p6TeV_madgraph-pythia8/NANOAODSIM/130X_mcRun3_2022_realistic_postEE_v6-v3/2550000/aa29a0d6-0d50-43c6-8d84-52f2db1dfbab.root | (None) | ad:595340a9 | 12.116 MB  |          |
| cms:/store/mc/Run3Summer22EENanoAODv12/GluGlutoBulkGravitontoHHto4B_M-800_narrow_TuneCP5_13p6TeV_madgraph-pythia8/NANOAODSIM/130X_mcRun3_2022_realistic_postEE_v6-v3/2550000/a3af36fc-3e12-453f-b3d2-0652d4a55a87.root | (None) | ad:1291287b | 22.810 MB  |          |
| cms:/store/mc/Run3Summer22EENanoAODv12/GluGlutoBulkGravitontoHHto4B_M-800_narrow_TuneCP5_13p6TeV_madgraph-pythia8/NANOAODSIM/130X_mcRun3_2022_realistic_postEE_v6-v3/2550000/8174deaa-c006-4f09-a1d6-84f3f943d759.root | (None) | ad:90f3c6fd | 8.473 MB   |          |
+------------------------------------------------------------------------------------------------------------------------------------------------------------------------------------------------------------------------+--------+-------------+------------+----------+
Total files : 17
Total size : 871.544 MB
