+-------------------------------------------------------------------------------------------------------------------------------------------------------------------------------------------------------------+--------+-------------+------------+----------+
| SCOPE:NAME                                                                                                                                                                                                  | GUID   | ADLER32     | FILESIZE   | EVENTS   |
|-------------------------------------------------------------------------------------------------------------------------------------------------------------------------------------------------------------+--------+-------------+------------+----------|
| cms:/store/mc/Run3Summer22NanoAODv12/GluGlutoBulkGravitontoHHto4B_M-300_narrow_TuneCP5_13p6TeV_madgraph-pythia8/NANOAODSIM/130X_mcRun3_2022_realistic_v5-v3/50000/e8e14ecd-aaa6-48c5-ac16-e9fcd0ee5b3a.root | (None) | ad:b3c771cb | 5.897 MB   |          |
| cms:/store/mc/Run3Summer22NanoAODv12/GluGlutoBulkGravitontoHHto4B_M-300_narrow_TuneCP5_13p6TeV_madgraph-pythia8/NANOAODSIM/130X_mcRun3_2022_realistic_v5-v3/50000/87f4f47d-0146-4bd7-abdf-1717d3020ec2.root | (None) | ad:9ecc94cf | 15.930 MB  |          |
| cms:/store/mc/Run3Summer22NanoAODv12/GluGlutoBulkGravitontoHHto4B_M-300_narrow_TuneCP5_13p6TeV_madgraph-pythia8/NANOAODSIM/130X_mcRun3_2022_realistic_v5-v3/50000/d7894c45-d8c0-42ad-ba74-ef28c5841d74.root | (None) | ad:60e08803 | 12.322 MB  |          |
| cms:/store/mc/Run3Summer22NanoAODv12/GluGlutoBulkGravitontoHHto4B_M-300_narrow_TuneCP5_13p6TeV_madgraph-pythia8/NANOAODSIM/130X_mcRun3_2022_realistic_v5-v3/50000/3a2eabd8-7a6f-4919-9481-854c2b56f198.root | (None) | ad:afd6f216 | 4.236 MB   |          |
| cms:/store/mc/Run3Summer22NanoAODv12/GluGlutoBulkGravitontoHHto4B_M-300_narrow_TuneCP5_13p6TeV_madgraph-pythia8/NANOAODSIM/130X_mcRun3_2022_realistic_v5-v3/50000/4af098cc-537f-43b9-8a92-d7b60f94e83a.root | (None) | ad:db6880e5 | 4.207 MB   |          |
| cms:/store/mc/Run3Summer22NanoAODv12/GluGlutoBulkGravitontoHHto4B_M-300_narrow_TuneCP5_13p6TeV_madgraph-pythia8/NANOAODSIM/130X_mcRun3_2022_realistic_v5-v3/50000/11c73d7f-b104-44e1-bf5a-f93326e9ce52.root | (None) | ad:7f0cd6b8 | 4.201 MB   |          |
| cms:/store/mc/Run3Summer22NanoAODv12/GluGlutoBulkGravitontoHHto4B_M-300_narrow_TuneCP5_13p6TeV_madgraph-pythia8/NANOAODSIM/130X_mcRun3_2022_realistic_v5-v3/50000/823ff000-0ff9-462f-919c-05a925631007.root | (None) | ad:a21b8f76 | 4.210 MB   |          |
| cms:/store/mc/Run3Summer22NanoAODv12/GluGlutoBulkGravitontoHHto4B_M-300_narrow_TuneCP5_13p6TeV_madgraph-pythia8/NANOAODSIM/130X_mcRun3_2022_realistic_v5-v3/50000/8adf35f3-dcaa-4385-b9a3-b28e0d2fe9b4.root | (None) | ad:d31eeaa5 | 4.209 MB   |          |
| cms:/store/mc/Run3Summer22NanoAODv12/GluGlutoBulkGravitontoHHto4B_M-300_narrow_TuneCP5_13p6TeV_madgraph-pythia8/NANOAODSIM/130X_mcRun3_2022_realistic_v5-v3/50000/747ece0a-31fc-408f-a3e5-5ec1fb809ecc.root | (None) | ad:4c23deb8 | 12.263 MB  |          |
| cms:/store/mc/Run3Summer22NanoAODv12/GluGlutoBulkGravitontoHHto4B_M-300_narrow_TuneCP5_13p6TeV_madgraph-pythia8/NANOAODSIM/130X_mcRun3_2022_realistic_v5-v3/50000/a97d78d9-89d4-4ccf-bc30-68872a626175.root | (None) | ad:41316a1e | 4.223 MB   |          |
| cms:/store/mc/Run3Summer22NanoAODv12/GluGlutoBulkGravitontoHHto4B_M-300_narrow_TuneCP5_13p6TeV_madgraph-pythia8/NANOAODSIM/130X_mcRun3_2022_realistic_v5-v3/50000/36e72335-7439-468a-aca2-901319bae525.root | (None) | ad:11a7c0fd | 17.092 MB  |          |
| cms:/store/mc/Run3Summer22NanoAODv12/GluGlutoBulkGravitontoHHto4B_M-300_narrow_TuneCP5_13p6TeV_madgraph-pythia8/NANOAODSIM/130X_mcRun3_2022_realistic_v5-v3/50000/0bbab1c2-60f3-404f-8c42-4171fd124498.root | (None) | ad:e76aa772 | 95.723 MB  |          |
| cms:/store/mc/Run3Summer22NanoAODv12/GluGlutoBulkGravitontoHHto4B_M-300_narrow_TuneCP5_13p6TeV_madgraph-pythia8/NANOAODSIM/130X_mcRun3_2022_realistic_v5-v3/50000/b280f9c2-f99b-4e2d-84e3-25045c9bb539.root | (None) | ad:ca263a75 | 5.898 MB   |          |
| cms:/store/mc/Run3Summer22NanoAODv12/GluGlutoBulkGravitontoHHto4B_M-300_narrow_TuneCP5_13p6TeV_madgraph-pythia8/NANOAODSIM/130X_mcRun3_2022_realistic_v5-v3/50000/cad1c5c6-479e-4db0-bc6d-71c8a138076b.root | (None) | ad:7c06e42d | 14.732 MB  |          |
+-------------------------------------------------------------------------------------------------------------------------------------------------------------------------------------------------------------+--------+-------------+------------+----------+
Total files : 14
Total size : 205.143 MB
