{
    "cms:/store/mc/Run3Summer22EENanoAODv12/GluGlutoBulkGravitontoHHto4B_M-1800_narrow_TuneCP5_13p6TeV_madgraph-pythia8/NANOAODSIM/130X_mcRun3_2022_realistic_postEE_v6-v3/50000/f0638302-f2be-4b6e-a4a4-d4ac13e97b72.root": [
        "T1_US_FNAL_Disk: davs://cmsdcadisk.fnal.gov:2880/dcache/uscmsdisk/store/mc/Run3Summer22EENanoAODv12/GluGlutoBulkGravitontoHHto4B_M-1800_narrow_TuneCP5_13p6TeV_madgraph-pythia8/NANOAODSIM/130X_mcRun3_2022_realistic_postEE_v6-v3/50000/f0638302-f2be-4b6e-a4a4-d4ac13e97b72.root",
        "T2_DE_DESY: davs://dcache-cms-webdav.desy.de:2880/pnfs/desy.de/cms/tier2/store/mc/Run3Summer22EENanoAODv12/GluGlutoBulkGravitontoHHto4B_M-1800_narrow_TuneCP5_13p6TeV_madgraph-pythia8/NANOAODSIM/130X_mcRun3_2022_realistic_postEE_v6-v3/50000/f0638302-f2be-4b6e-a4a4-d4ac13e97b72.root",
        "T2_CH_CSCS: davs://storage01.lcg.cscs.ch:2880/pnfs/lcg.cscs.ch/cms/trivcat/store/mc/Run3Summer22EENanoAODv12/GluGlutoBulkGravitontoHHto4B_M-1800_narrow_TuneCP5_13p6TeV_madgraph-pythia8/NANOAODSIM/130X_mcRun3_2022_realistic_postEE_v6-v3/50000/f0638302-f2be-4b6e-a4a4-d4ac13e97b72.root",
        "T2_US_Vanderbilt: davs://xrootd-vanderbilt.sites.opensciencegrid.org:1094/store/mc/Run3Summer22EENanoAODv12/GluGlutoBulkGravitontoHHto4B_M-1800_narrow_TuneCP5_13p6TeV_madgraph-pythia8/NANOAODSIM/130X_mcRun3_2022_realistic_postEE_v6-v3/50000/f0638302-f2be-4b6e-a4a4-d4ac13e97b72.root",
        "T2_RU_JINR: davs://lcgsedr08.jinr.ru:2880/pnfs/jinr.ru/data/cms/store/mc/Run3Summer22EENanoAODv12/GluGlutoBulkGravitontoHHto4B_M-1800_narrow_TuneCP5_13p6TeV_madgraph-pythia8/NANOAODSIM/130X_mcRun3_2022_realistic_postEE_v6-v3/50000/f0638302-f2be-4b6e-a4a4-d4ac13e97b72.root",
        "T2_ES_CIEMAT: davs://srm.ciemat.es:2880/pnfs/ciemat.es/data/cms/prod/store/mc/Run3Summer22EENanoAODv12/GluGlutoBulkGravitontoHHto4B_M-1800_narrow_TuneCP5_13p6TeV_madgraph-pythia8/NANOAODSIM/130X_mcRun3_2022_realistic_postEE_v6-v3/50000/f0638302-f2be-4b6e-a4a4-d4ac13e97b72.root",
        "T0_CH_CERN_Tape: davs://eosctacms.cern.ch:8444//eos/ctacms/archive/cms/store/mc/Run3Summer22EENanoAODv12/GluGlutoBulkGravitontoHHto4B_M-1800_narrow_TuneCP5_13p6TeV_madgraph-pythia8/NANOAODSIM/130X_mcRun3_2022_realistic_postEE_v6-v3/50000/f0638302-f2be-4b6e-a4a4-d4ac13e97b72.root"
    ],
    "cms:/store/mc/Run3Summer22EENanoAODv12/GluGlutoBulkGravitontoHHto4B_M-1800_narrow_TuneCP5_13p6TeV_madgraph-pythia8/NANOAODSIM/130X_mcRun3_2022_realistic_postEE_v6-v3/50000/567d709e-4698-45ca-bfab-0765e7484587.root": [
        "T1_US_FNAL_Disk: davs://cmsdcadisk.fnal.gov:2880/dcache/uscmsdisk/store/mc/Run3Summer22EENanoAODv12/GluGlutoBulkGravitontoHHto4B_M-1800_narrow_TuneCP5_13p6TeV_madgraph-pythia8/NANOAODSIM/130X_mcRun3_2022_realistic_postEE_v6-v3/50000/567d709e-4698-45ca-bfab-0765e7484587.root",
        "T2_DE_DESY: davs://dcache-cms-webdav.desy.de:2880/pnfs/desy.de/cms/tier2/store/mc/Run3Summer22EENanoAODv12/GluGlutoBulkGravitontoHHto4B_M-1800_narrow_TuneCP5_13p6TeV_madgraph-pythia8/NANOAODSIM/130X_mcRun3_2022_realistic_postEE_v6-v3/50000/567d709e-4698-45ca-bfab-0765e7484587.root",
        "T2_CH_CSCS: davs://storage01.lcg.cscs.ch:2880/pnfs/lcg.cscs.ch/cms/trivcat/store/mc/Run3Summer22EENanoAODv12/GluGlutoBulkGravitontoHHto4B_M-1800_narrow_TuneCP5_13p6TeV_madgraph-pythia8/NANOAODSIM/130X_mcRun3_2022_realistic_postEE_v6-v3/50000/567d709e-4698-45ca-bfab-0765e7484587.root",
        "T2_US_Vanderbilt: davs://xrootd-vanderbilt.sites.opensciencegrid.org:1094/store/mc/Run3Summer22EENanoAODv12/GluGlutoBulkGravitontoHHto4B_M-1800_narrow_TuneCP5_13p6TeV_madgraph-pythia8/NANOAODSIM/130X_mcRun3_2022_realistic_postEE_v6-v3/50000/567d709e-4698-45ca-bfab-0765e7484587.root",
        "T2_RU_JINR: davs://lcgsedr08.jinr.ru:2880/pnfs/jinr.ru/data/cms/store/mc/Run3Summer22EENanoAODv12/GluGlutoBulkGravitontoHHto4B_M-1800_narrow_TuneCP5_13p6TeV_madgraph-pythia8/NANOAODSIM/130X_mcRun3_2022_realistic_postEE_v6-v3/50000/567d709e-4698-45ca-bfab-0765e7484587.root",
        "T2_ES_CIEMAT: davs://srm.ciemat.es:2880/pnfs/ciemat.es/data/cms/prod/store/mc/Run3Summer22EENanoAODv12/GluGlutoBulkGravitontoHHto4B_M-1800_narrow_TuneCP5_13p6TeV_madgraph-pythia8/NANOAODSIM/130X_mcRun3_2022_realistic_postEE_v6-v3/50000/567d709e-4698-45ca-bfab-0765e7484587.root",
        "T0_CH_CERN_Tape: davs://eosctacms.cern.ch:8444//eos/ctacms/archive/cms/store/mc/Run3Summer22EENanoAODv12/GluGlutoBulkGravitontoHHto4B_M-1800_narrow_TuneCP5_13p6TeV_madgraph-pythia8/NANOAODSIM/130X_mcRun3_2022_realistic_postEE_v6-v3/50000/567d709e-4698-45ca-bfab-0765e7484587.root"
    ]
}