{
    "cms:/store/mc/Run3Summer22EENanoAODv12/GluGlutoRadiontoHHto4B_M-700_narrow_TuneCP5_13p6TeV_madgraph-pythia8/NANOAODSIM/130X_mcRun3_2022_realistic_postEE_v6-v3/2550000/a922bca1-cc98-49cf-b008-2e93b89aca6c.root": [
        "T2_TW_NCHC: davs://se01.grid.nchc.org.tw:443//cms/store/mc/Run3Summer22EENanoAODv12/GluGlutoRadiontoHHto4B_M-700_narrow_TuneCP5_13p6TeV_madgraph-pythia8/NANOAODSIM/130X_mcRun3_2022_realistic_postEE_v6-v3/2550000/a922bca1-cc98-49cf-b008-2e93b89aca6c.root",
        "T2_FR_IPHC: davs://sbgdcache.in2p3.fr:443/cms/phedex/store/mc/Run3Summer22EENanoAODv12/GluGlutoRadiontoHHto4B_M-700_narrow_TuneCP5_13p6TeV_madgraph-pythia8/NANOAODSIM/130X_mcRun3_2022_realistic_postEE_v6-v3/2550000/a922bca1-cc98-49cf-b008-2e93b89aca6c.root",
        "T2_BR_SPRACE: davs://osg-se.sprace.org.br:1094/store/mc/Run3Summer22EENanoAODv12/GluGlutoRadiontoHHto4B_M-700_narrow_TuneCP5_13p6TeV_madgraph-pythia8/NANOAODSIM/130X_mcRun3_2022_realistic_postEE_v6-v3/2550000/a922bca1-cc98-49cf-b008-2e93b89aca6c.root",
        "T1_IT_CNAF_Tape: davs://xfer-cms.cr.cnaf.infn.it:8443/cmstape/store/mc/Run3Summer22EENanoAODv12/GluGlutoRadiontoHHto4B_M-700_narrow_TuneCP5_13p6TeV_madgraph-pythia8/NANOAODSIM/130X_mcRun3_2022_realistic_postEE_v6-v3/2550000/a922bca1-cc98-49cf-b008-2e93b89aca6c.root",
        "T2_US_Purdue: davs://eos.cms.rcac.purdue.edu:9000/store/mc/Run3Summer22EENanoAODv12/GluGlutoRadiontoHHto4B_M-700_narrow_TuneCP5_13p6TeV_madgraph-pythia8/NANOAODSIM/130X_mcRun3_2022_realistic_postEE_v6-v3/2550000/a922bca1-cc98-49cf-b008-2e93b89aca6c.root",
        "T2_UK_London_IC: davs://gfe02.grid.hep.ph.ic.ac.uk:2880/pnfs/hep.ph.ic.ac.uk/data/cms/store/mc/Run3Summer22EENanoAODv12/GluGlutoRadiontoHHto4B_M-700_narrow_TuneCP5_13p6TeV_madgraph-pythia8/NANOAODSIM/130X_mcRun3_2022_realistic_postEE_v6-v3/2550000/a922bca1-cc98-49cf-b008-2e93b89aca6c.root",
        "T2_DE_RWTH: davs://grid-webdav.physik.rwth-aachen.de:2889/store/mc/Run3Summer22EENanoAODv12/GluGlutoRadiontoHHto4B_M-700_narrow_TuneCP5_13p6TeV_madgraph-pythia8/NANOAODSIM/130X_mcRun3_2022_realistic_postEE_v6-v3/2550000/a922bca1-cc98-49cf-b008-2e93b89aca6c.root"
    ],
    "cms:/store/mc/Run3Summer22EENanoAODv12/GluGlutoRadiontoHHto4B_M-700_narrow_TuneCP5_13p6TeV_madgraph-pythia8/NANOAODSIM/130X_mcRun3_2022_realistic_postEE_v6-v3/2550000/42ddd926-54f9-41e7-b36b-59cfc4c59bf8.root": [
        "T2_TW_NCHC: davs://se01.grid.nchc.org.tw:443//cms/store/mc/Run3Summer22EENanoAODv12/GluGlutoRadiontoHHto4B_M-700_narrow_TuneCP5_13p6TeV_madgraph-pythia8/NANOAODSIM/130X_mcRun3_2022_realistic_postEE_v6-v3/2550000/42ddd926-54f9-41e7-b36b-59cfc4c59bf8.root",
        "T2_FR_IPHC: davs://sbgdcache.in2p3.fr:443/cms/phedex/store/mc/Run3Summer22EENanoAODv12/GluGlutoRadiontoHHto4B_M-700_narrow_TuneCP5_13p6TeV_madgraph-pythia8/NANOAODSIM/130X_mcRun3_2022_realistic_postEE_v6-v3/2550000/42ddd926-54f9-41e7-b36b-59cfc4c59bf8.root",
        "T2_BR_SPRACE: davs://osg-se.sprace.org.br:1094/store/mc/Run3Summer22EENanoAODv12/GluGlutoRadiontoHHto4B_M-700_narrow_TuneCP5_13p6TeV_madgraph-pythia8/NANOAODSIM/130X_mcRun3_2022_realistic_postEE_v6-v3/2550000/42ddd926-54f9-41e7-b36b-59cfc4c59bf8.root",
        "T1_IT_CNAF_Tape: davs://xfer-cms.cr.cnaf.infn.it:8443/cmstape/store/mc/Run3Summer22EENanoAODv12/GluGlutoRadiontoHHto4B_M-700_narrow_TuneCP5_13p6TeV_madgraph-pythia8/NANOAODSIM/130X_mcRun3_2022_realistic_postEE_v6-v3/2550000/42ddd926-54f9-41e7-b36b-59cfc4c59bf8.root",
        "T2_US_Purdue: davs://eos.cms.rcac.purdue.edu:9000/store/mc/Run3Summer22EENanoAODv12/GluGlutoRadiontoHHto4B_M-700_narrow_TuneCP5_13p6TeV_madgraph-pythia8/NANOAODSIM/130X_mcRun3_2022_realistic_postEE_v6-v3/2550000/42ddd926-54f9-41e7-b36b-59cfc4c59bf8.root",
        "T2_UK_London_IC: davs://gfe02.grid.hep.ph.ic.ac.uk:2880/pnfs/hep.ph.ic.ac.uk/data/cms/store/mc/Run3Summer22EENanoAODv12/GluGlutoRadiontoHHto4B_M-700_narrow_TuneCP5_13p6TeV_madgraph-pythia8/NANOAODSIM/130X_mcRun3_2022_realistic_postEE_v6-v3/2550000/42ddd926-54f9-41e7-b36b-59cfc4c59bf8.root",
        "T2_DE_RWTH: davs://grid-webdav.physik.rwth-aachen.de:2889/store/mc/Run3Summer22EENanoAODv12/GluGlutoRadiontoHHto4B_M-700_narrow_TuneCP5_13p6TeV_madgraph-pythia8/NANOAODSIM/130X_mcRun3_2022_realistic_postEE_v6-v3/2550000/42ddd926-54f9-41e7-b36b-59cfc4c59bf8.root"
    ],
    "cms:/store/mc/Run3Summer22EENanoAODv12/GluGlutoRadiontoHHto4B_M-700_narrow_TuneCP5_13p6TeV_madgraph-pythia8/NANOAODSIM/130X_mcRun3_2022_realistic_postEE_v6-v3/2550000/dcebf5af-be99-44a2-923b-253eb5e7891c.root": [
        "T2_TW_NCHC: davs://se01.grid.nchc.org.tw:443//cms/store/mc/Run3Summer22EENanoAODv12/GluGlutoRadiontoHHto4B_M-700_narrow_TuneCP5_13p6TeV_madgraph-pythia8/NANOAODSIM/130X_mcRun3_2022_realistic_postEE_v6-v3/2550000/dcebf5af-be99-44a2-923b-253eb5e7891c.root",
        "T2_FR_IPHC: davs://sbgdcache.in2p3.fr:443/cms/phedex/store/mc/Run3Summer22EENanoAODv12/GluGlutoRadiontoHHto4B_M-700_narrow_TuneCP5_13p6TeV_madgraph-pythia8/NANOAODSIM/130X_mcRun3_2022_realistic_postEE_v6-v3/2550000/dcebf5af-be99-44a2-923b-253eb5e7891c.root",
        "T2_BR_SPRACE: davs://osg-se.sprace.org.br:1094/store/mc/Run3Summer22EENanoAODv12/GluGlutoRadiontoHHto4B_M-700_narrow_TuneCP5_13p6TeV_madgraph-pythia8/NANOAODSIM/130X_mcRun3_2022_realistic_postEE_v6-v3/2550000/dcebf5af-be99-44a2-923b-253eb5e7891c.root",
        "T1_IT_CNAF_Tape: davs://xfer-cms.cr.cnaf.infn.it:8443/cmstape/store/mc/Run3Summer22EENanoAODv12/GluGlutoRadiontoHHto4B_M-700_narrow_TuneCP5_13p6TeV_madgraph-pythia8/NANOAODSIM/130X_mcRun3_2022_realistic_postEE_v6-v3/2550000/dcebf5af-be99-44a2-923b-253eb5e7891c.root",
        "T2_US_Purdue: davs://eos.cms.rcac.purdue.edu:9000/store/mc/Run3Summer22EENanoAODv12/GluGlutoRadiontoHHto4B_M-700_narrow_TuneCP5_13p6TeV_madgraph-pythia8/NANOAODSIM/130X_mcRun3_2022_realistic_postEE_v6-v3/2550000/dcebf5af-be99-44a2-923b-253eb5e7891c.root",
        "T2_UK_London_IC: davs://gfe02.grid.hep.ph.ic.ac.uk:2880/pnfs/hep.ph.ic.ac.uk/data/cms/store/mc/Run3Summer22EENanoAODv12/GluGlutoRadiontoHHto4B_M-700_narrow_TuneCP5_13p6TeV_madgraph-pythia8/NANOAODSIM/130X_mcRun3_2022_realistic_postEE_v6-v3/2550000/dcebf5af-be99-44a2-923b-253eb5e7891c.root",
        "T2_DE_RWTH: davs://grid-webdav.physik.rwth-aachen.de:2889/store/mc/Run3Summer22EENanoAODv12/GluGlutoRadiontoHHto4B_M-700_narrow_TuneCP5_13p6TeV_madgraph-pythia8/NANOAODSIM/130X_mcRun3_2022_realistic_postEE_v6-v3/2550000/dcebf5af-be99-44a2-923b-253eb5e7891c.root"
    ],
    "cms:/store/mc/Run3Summer22EENanoAODv12/GluGlutoRadiontoHHto4B_M-700_narrow_TuneCP5_13p6TeV_madgraph-pythia8/NANOAODSIM/130X_mcRun3_2022_realistic_postEE_v6-v3/2550000/323d70cb-2a0b-43ac-9744-4a997d9da788.root": [
        "T2_TW_NCHC: davs://se01.grid.nchc.org.tw:443//cms/store/mc/Run3Summer22EENanoAODv12/GluGlutoRadiontoHHto4B_M-700_narrow_TuneCP5_13p6TeV_madgraph-pythia8/NANOAODSIM/130X_mcRun3_2022_realistic_postEE_v6-v3/2550000/323d70cb-2a0b-43ac-9744-4a997d9da788.root",
        "T2_FR_IPHC: davs://sbgdcache.in2p3.fr:443/cms/phedex/store/mc/Run3Summer22EENanoAODv12/GluGlutoRadiontoHHto4B_M-700_narrow_TuneCP5_13p6TeV_madgraph-pythia8/NANOAODSIM/130X_mcRun3_2022_realistic_postEE_v6-v3/2550000/323d70cb-2a0b-43ac-9744-4a997d9da788.root",
        "T2_BR_SPRACE: davs://osg-se.sprace.org.br:1094/store/mc/Run3Summer22EENanoAODv12/GluGlutoRadiontoHHto4B_M-700_narrow_TuneCP5_13p6TeV_madgraph-pythia8/NANOAODSIM/130X_mcRun3_2022_realistic_postEE_v6-v3/2550000/323d70cb-2a0b-43ac-9744-4a997d9da788.root",
        "T1_IT_CNAF_Tape: davs://xfer-cms.cr.cnaf.infn.it:8443/cmstape/store/mc/Run3Summer22EENanoAODv12/GluGlutoRadiontoHHto4B_M-700_narrow_TuneCP5_13p6TeV_madgraph-pythia8/NANOAODSIM/130X_mcRun3_2022_realistic_postEE_v6-v3/2550000/323d70cb-2a0b-43ac-9744-4a997d9da788.root",
        "T2_US_Purdue: davs://eos.cms.rcac.purdue.edu:9000/store/mc/Run3Summer22EENanoAODv12/GluGlutoRadiontoHHto4B_M-700_narrow_TuneCP5_13p6TeV_madgraph-pythia8/NANOAODSIM/130X_mcRun3_2022_realistic_postEE_v6-v3/2550000/323d70cb-2a0b-43ac-9744-4a997d9da788.root",
        "T2_UK_London_IC: davs://gfe02.grid.hep.ph.ic.ac.uk:2880/pnfs/hep.ph.ic.ac.uk/data/cms/store/mc/Run3Summer22EENanoAODv12/GluGlutoRadiontoHHto4B_M-700_narrow_TuneCP5_13p6TeV_madgraph-pythia8/NANOAODSIM/130X_mcRun3_2022_realistic_postEE_v6-v3/2550000/323d70cb-2a0b-43ac-9744-4a997d9da788.root",
        "T2_DE_RWTH: davs://grid-webdav.physik.rwth-aachen.de:2889/store/mc/Run3Summer22EENanoAODv12/GluGlutoRadiontoHHto4B_M-700_narrow_TuneCP5_13p6TeV_madgraph-pythia8/NANOAODSIM/130X_mcRun3_2022_realistic_postEE_v6-v3/2550000/323d70cb-2a0b-43ac-9744-4a997d9da788.root"
    ],
    "cms:/store/mc/Run3Summer22EENanoAODv12/GluGlutoRadiontoHHto4B_M-700_narrow_TuneCP5_13p6TeV_madgraph-pythia8/NANOAODSIM/130X_mcRun3_2022_realistic_postEE_v6-v3/2550000/1e981acb-9cca-4ec0-b191-41fbbfe26ae0.root": [
        "T2_TW_NCHC: davs://se01.grid.nchc.org.tw:443//cms/store/mc/Run3Summer22EENanoAODv12/GluGlutoRadiontoHHto4B_M-700_narrow_TuneCP5_13p6TeV_madgraph-pythia8/NANOAODSIM/130X_mcRun3_2022_realistic_postEE_v6-v3/2550000/1e981acb-9cca-4ec0-b191-41fbbfe26ae0.root",
        "T2_FR_IPHC: davs://sbgdcache.in2p3.fr:443/cms/phedex/store/mc/Run3Summer22EENanoAODv12/GluGlutoRadiontoHHto4B_M-700_narrow_TuneCP5_13p6TeV_madgraph-pythia8/NANOAODSIM/130X_mcRun3_2022_realistic_postEE_v6-v3/2550000/1e981acb-9cca-4ec0-b191-41fbbfe26ae0.root",
        "T2_BR_SPRACE: davs://osg-se.sprace.org.br:1094/store/mc/Run3Summer22EENanoAODv12/GluGlutoRadiontoHHto4B_M-700_narrow_TuneCP5_13p6TeV_madgraph-pythia8/NANOAODSIM/130X_mcRun3_2022_realistic_postEE_v6-v3/2550000/1e981acb-9cca-4ec0-b191-41fbbfe26ae0.root",
        "T1_IT_CNAF_Tape: davs://xfer-cms.cr.cnaf.infn.it:8443/cmstape/store/mc/Run3Summer22EENanoAODv12/GluGlutoRadiontoHHto4B_M-700_narrow_TuneCP5_13p6TeV_madgraph-pythia8/NANOAODSIM/130X_mcRun3_2022_realistic_postEE_v6-v3/2550000/1e981acb-9cca-4ec0-b191-41fbbfe26ae0.root",
        "T2_US_Purdue: davs://eos.cms.rcac.purdue.edu:9000/store/mc/Run3Summer22EENanoAODv12/GluGlutoRadiontoHHto4B_M-700_narrow_TuneCP5_13p6TeV_madgraph-pythia8/NANOAODSIM/130X_mcRun3_2022_realistic_postEE_v6-v3/2550000/1e981acb-9cca-4ec0-b191-41fbbfe26ae0.root",
        "T2_UK_London_IC: davs://gfe02.grid.hep.ph.ic.ac.uk:2880/pnfs/hep.ph.ic.ac.uk/data/cms/store/mc/Run3Summer22EENanoAODv12/GluGlutoRadiontoHHto4B_M-700_narrow_TuneCP5_13p6TeV_madgraph-pythia8/NANOAODSIM/130X_mcRun3_2022_realistic_postEE_v6-v3/2550000/1e981acb-9cca-4ec0-b191-41fbbfe26ae0.root",
        "T2_DE_RWTH: davs://grid-webdav.physik.rwth-aachen.de:2889/store/mc/Run3Summer22EENanoAODv12/GluGlutoRadiontoHHto4B_M-700_narrow_TuneCP5_13p6TeV_madgraph-pythia8/NANOAODSIM/130X_mcRun3_2022_realistic_postEE_v6-v3/2550000/1e981acb-9cca-4ec0-b191-41fbbfe26ae0.root"
    ],
    "cms:/store/mc/Run3Summer22EENanoAODv12/GluGlutoRadiontoHHto4B_M-700_narrow_TuneCP5_13p6TeV_madgraph-pythia8/NANOAODSIM/130X_mcRun3_2022_realistic_postEE_v6-v3/2550000/e1481604-cbbc-40f9-a8f4-9c63e15f9764.root": [
        "T2_TW_NCHC: davs://se01.grid.nchc.org.tw:443//cms/store/mc/Run3Summer22EENanoAODv12/GluGlutoRadiontoHHto4B_M-700_narrow_TuneCP5_13p6TeV_madgraph-pythia8/NANOAODSIM/130X_mcRun3_2022_realistic_postEE_v6-v3/2550000/e1481604-cbbc-40f9-a8f4-9c63e15f9764.root",
        "T2_FR_IPHC: davs://sbgdcache.in2p3.fr:443/cms/phedex/store/mc/Run3Summer22EENanoAODv12/GluGlutoRadiontoHHto4B_M-700_narrow_TuneCP5_13p6TeV_madgraph-pythia8/NANOAODSIM/130X_mcRun3_2022_realistic_postEE_v6-v3/2550000/e1481604-cbbc-40f9-a8f4-9c63e15f9764.root",
        "T2_BR_SPRACE: davs://osg-se.sprace.org.br:1094/store/mc/Run3Summer22EENanoAODv12/GluGlutoRadiontoHHto4B_M-700_narrow_TuneCP5_13p6TeV_madgraph-pythia8/NANOAODSIM/130X_mcRun3_2022_realistic_postEE_v6-v3/2550000/e1481604-cbbc-40f9-a8f4-9c63e15f9764.root",
        "T1_IT_CNAF_Tape: davs://xfer-cms.cr.cnaf.infn.it:8443/cmstape/store/mc/Run3Summer22EENanoAODv12/GluGlutoRadiontoHHto4B_M-700_narrow_TuneCP5_13p6TeV_madgraph-pythia8/NANOAODSIM/130X_mcRun3_2022_realistic_postEE_v6-v3/2550000/e1481604-cbbc-40f9-a8f4-9c63e15f9764.root",
        "T2_US_Purdue: davs://eos.cms.rcac.purdue.edu:9000/store/mc/Run3Summer22EENanoAODv12/GluGlutoRadiontoHHto4B_M-700_narrow_TuneCP5_13p6TeV_madgraph-pythia8/NANOAODSIM/130X_mcRun3_2022_realistic_postEE_v6-v3/2550000/e1481604-cbbc-40f9-a8f4-9c63e15f9764.root",
        "T2_UK_London_IC: davs://gfe02.grid.hep.ph.ic.ac.uk:2880/pnfs/hep.ph.ic.ac.uk/data/cms/store/mc/Run3Summer22EENanoAODv12/GluGlutoRadiontoHHto4B_M-700_narrow_TuneCP5_13p6TeV_madgraph-pythia8/NANOAODSIM/130X_mcRun3_2022_realistic_postEE_v6-v3/2550000/e1481604-cbbc-40f9-a8f4-9c63e15f9764.root",
        "T2_DE_RWTH: davs://grid-webdav.physik.rwth-aachen.de:2889/store/mc/Run3Summer22EENanoAODv12/GluGlutoRadiontoHHto4B_M-700_narrow_TuneCP5_13p6TeV_madgraph-pythia8/NANOAODSIM/130X_mcRun3_2022_realistic_postEE_v6-v3/2550000/e1481604-cbbc-40f9-a8f4-9c63e15f9764.root"
    ],
    "cms:/store/mc/Run3Summer22EENanoAODv12/GluGlutoRadiontoHHto4B_M-700_narrow_TuneCP5_13p6TeV_madgraph-pythia8/NANOAODSIM/130X_mcRun3_2022_realistic_postEE_v6-v3/2550000/dc36c9ea-ac15-48dc-9a3d-a964bcc3b704.root": [
        "T2_TW_NCHC: davs://se01.grid.nchc.org.tw:443//cms/store/mc/Run3Summer22EENanoAODv12/GluGlutoRadiontoHHto4B_M-700_narrow_TuneCP5_13p6TeV_madgraph-pythia8/NANOAODSIM/130X_mcRun3_2022_realistic_postEE_v6-v3/2550000/dc36c9ea-ac15-48dc-9a3d-a964bcc3b704.root",
        "T2_FR_IPHC: davs://sbgdcache.in2p3.fr:443/cms/phedex/store/mc/Run3Summer22EENanoAODv12/GluGlutoRadiontoHHto4B_M-700_narrow_TuneCP5_13p6TeV_madgraph-pythia8/NANOAODSIM/130X_mcRun3_2022_realistic_postEE_v6-v3/2550000/dc36c9ea-ac15-48dc-9a3d-a964bcc3b704.root",
        "T2_BR_SPRACE: davs://osg-se.sprace.org.br:1094/store/mc/Run3Summer22EENanoAODv12/GluGlutoRadiontoHHto4B_M-700_narrow_TuneCP5_13p6TeV_madgraph-pythia8/NANOAODSIM/130X_mcRun3_2022_realistic_postEE_v6-v3/2550000/dc36c9ea-ac15-48dc-9a3d-a964bcc3b704.root",
        "T1_IT_CNAF_Tape: davs://xfer-cms.cr.cnaf.infn.it:8443/cmstape/store/mc/Run3Summer22EENanoAODv12/GluGlutoRadiontoHHto4B_M-700_narrow_TuneCP5_13p6TeV_madgraph-pythia8/NANOAODSIM/130X_mcRun3_2022_realistic_postEE_v6-v3/2550000/dc36c9ea-ac15-48dc-9a3d-a964bcc3b704.root",
        "T2_US_Purdue: davs://eos.cms.rcac.purdue.edu:9000/store/mc/Run3Summer22EENanoAODv12/GluGlutoRadiontoHHto4B_M-700_narrow_TuneCP5_13p6TeV_madgraph-pythia8/NANOAODSIM/130X_mcRun3_2022_realistic_postEE_v6-v3/2550000/dc36c9ea-ac15-48dc-9a3d-a964bcc3b704.root",
        "T2_UK_London_IC: davs://gfe02.grid.hep.ph.ic.ac.uk:2880/pnfs/hep.ph.ic.ac.uk/data/cms/store/mc/Run3Summer22EENanoAODv12/GluGlutoRadiontoHHto4B_M-700_narrow_TuneCP5_13p6TeV_madgraph-pythia8/NANOAODSIM/130X_mcRun3_2022_realistic_postEE_v6-v3/2550000/dc36c9ea-ac15-48dc-9a3d-a964bcc3b704.root",
        "T2_DE_RWTH: davs://grid-webdav.physik.rwth-aachen.de:2889/store/mc/Run3Summer22EENanoAODv12/GluGlutoRadiontoHHto4B_M-700_narrow_TuneCP5_13p6TeV_madgraph-pythia8/NANOAODSIM/130X_mcRun3_2022_realistic_postEE_v6-v3/2550000/dc36c9ea-ac15-48dc-9a3d-a964bcc3b704.root"
    ],
    "cms:/store/mc/Run3Summer22EENanoAODv12/GluGlutoRadiontoHHto4B_M-700_narrow_TuneCP5_13p6TeV_madgraph-pythia8/NANOAODSIM/130X_mcRun3_2022_realistic_postEE_v6-v3/2550000/7a23f12f-0b99-49e8-8f4b-02b5196f2b6a.root": [
        "T2_TW_NCHC: davs://se01.grid.nchc.org.tw:443//cms/store/mc/Run3Summer22EENanoAODv12/GluGlutoRadiontoHHto4B_M-700_narrow_TuneCP5_13p6TeV_madgraph-pythia8/NANOAODSIM/130X_mcRun3_2022_realistic_postEE_v6-v3/2550000/7a23f12f-0b99-49e8-8f4b-02b5196f2b6a.root",
        "T2_FR_IPHC: davs://sbgdcache.in2p3.fr:443/cms/phedex/store/mc/Run3Summer22EENanoAODv12/GluGlutoRadiontoHHto4B_M-700_narrow_TuneCP5_13p6TeV_madgraph-pythia8/NANOAODSIM/130X_mcRun3_2022_realistic_postEE_v6-v3/2550000/7a23f12f-0b99-49e8-8f4b-02b5196f2b6a.root",
        "T2_BR_SPRACE: davs://osg-se.sprace.org.br:1094/store/mc/Run3Summer22EENanoAODv12/GluGlutoRadiontoHHto4B_M-700_narrow_TuneCP5_13p6TeV_madgraph-pythia8/NANOAODSIM/130X_mcRun3_2022_realistic_postEE_v6-v3/2550000/7a23f12f-0b99-49e8-8f4b-02b5196f2b6a.root",
        "T1_IT_CNAF_Tape: davs://xfer-cms.cr.cnaf.infn.it:8443/cmstape/store/mc/Run3Summer22EENanoAODv12/GluGlutoRadiontoHHto4B_M-700_narrow_TuneCP5_13p6TeV_madgraph-pythia8/NANOAODSIM/130X_mcRun3_2022_realistic_postEE_v6-v3/2550000/7a23f12f-0b99-49e8-8f4b-02b5196f2b6a.root",
        "T2_US_Purdue: davs://eos.cms.rcac.purdue.edu:9000/store/mc/Run3Summer22EENanoAODv12/GluGlutoRadiontoHHto4B_M-700_narrow_TuneCP5_13p6TeV_madgraph-pythia8/NANOAODSIM/130X_mcRun3_2022_realistic_postEE_v6-v3/2550000/7a23f12f-0b99-49e8-8f4b-02b5196f2b6a.root",
        "T2_UK_London_IC: davs://gfe02.grid.hep.ph.ic.ac.uk:2880/pnfs/hep.ph.ic.ac.uk/data/cms/store/mc/Run3Summer22EENanoAODv12/GluGlutoRadiontoHHto4B_M-700_narrow_TuneCP5_13p6TeV_madgraph-pythia8/NANOAODSIM/130X_mcRun3_2022_realistic_postEE_v6-v3/2550000/7a23f12f-0b99-49e8-8f4b-02b5196f2b6a.root",
        "T2_DE_RWTH: davs://grid-webdav.physik.rwth-aachen.de:2889/store/mc/Run3Summer22EENanoAODv12/GluGlutoRadiontoHHto4B_M-700_narrow_TuneCP5_13p6TeV_madgraph-pythia8/NANOAODSIM/130X_mcRun3_2022_realistic_postEE_v6-v3/2550000/7a23f12f-0b99-49e8-8f4b-02b5196f2b6a.root"
    ],
    "cms:/store/mc/Run3Summer22EENanoAODv12/GluGlutoRadiontoHHto4B_M-700_narrow_TuneCP5_13p6TeV_madgraph-pythia8/NANOAODSIM/130X_mcRun3_2022_realistic_postEE_v6-v3/2550000/e046e012-d77f-4153-9cc7-445e78418638.root": [
        "T1_DE_KIT_Disk: davs://cmsdcache-kit-disk.gridka.de:2880/pnfs/gridka.de/cms/disk-only/store/mc/Run3Summer22EENanoAODv12/GluGlutoRadiontoHHto4B_M-700_narrow_TuneCP5_13p6TeV_madgraph-pythia8/NANOAODSIM/130X_mcRun3_2022_realistic_postEE_v6-v3/2550000/e046e012-d77f-4153-9cc7-445e78418638.root",
        "T2_FR_GRIF: davs://eos.grif.fr:11000/eos/grif/cms/grif/store/mc/Run3Summer22EENanoAODv12/GluGlutoRadiontoHHto4B_M-700_narrow_TuneCP5_13p6TeV_madgraph-pythia8/NANOAODSIM/130X_mcRun3_2022_realistic_postEE_v6-v3/2550000/e046e012-d77f-4153-9cc7-445e78418638.root",
        "T2_US_Vanderbilt: davs://xrootd-vanderbilt.sites.opensciencegrid.org:1094/store/mc/Run3Summer22EENanoAODv12/GluGlutoRadiontoHHto4B_M-700_narrow_TuneCP5_13p6TeV_madgraph-pythia8/NANOAODSIM/130X_mcRun3_2022_realistic_postEE_v6-v3/2550000/e046e012-d77f-4153-9cc7-445e78418638.root",
        "T1_IT_CNAF_Tape: davs://xfer-cms.cr.cnaf.infn.it:8443/cmstape/store/mc/Run3Summer22EENanoAODv12/GluGlutoRadiontoHHto4B_M-700_narrow_TuneCP5_13p6TeV_madgraph-pythia8/NANOAODSIM/130X_mcRun3_2022_realistic_postEE_v6-v3/2550000/e046e012-d77f-4153-9cc7-445e78418638.root",
        "T2_US_Purdue: davs://eos.cms.rcac.purdue.edu:9000/store/mc/Run3Summer22EENanoAODv12/GluGlutoRadiontoHHto4B_M-700_narrow_TuneCP5_13p6TeV_madgraph-pythia8/NANOAODSIM/130X_mcRun3_2022_realistic_postEE_v6-v3/2550000/e046e012-d77f-4153-9cc7-445e78418638.root",
        "T1_RU_JINR_Disk: davs://se-wbdv.jinr-t1.ru:2880/pnfs/jinr-t1.ru/data/cms/store/mc/Run3Summer22EENanoAODv12/GluGlutoRadiontoHHto4B_M-700_narrow_TuneCP5_13p6TeV_madgraph-pythia8/NANOAODSIM/130X_mcRun3_2022_realistic_postEE_v6-v3/2550000/e046e012-d77f-4153-9cc7-445e78418638.root",
        "T2_DE_RWTH: davs://grid-webdav.physik.rwth-aachen.de:2889/store/mc/Run3Summer22EENanoAODv12/GluGlutoRadiontoHHto4B_M-700_narrow_TuneCP5_13p6TeV_madgraph-pythia8/NANOAODSIM/130X_mcRun3_2022_realistic_postEE_v6-v3/2550000/e046e012-d77f-4153-9cc7-445e78418638.root"
    ],
    "cms:/store/mc/Run3Summer22EENanoAODv12/GluGlutoRadiontoHHto4B_M-700_narrow_TuneCP5_13p6TeV_madgraph-pythia8/NANOAODSIM/130X_mcRun3_2022_realistic_postEE_v6-v3/2550000/991a5c67-82ea-48a2-9049-2750dc16af49.root": [
        "T2_TW_NCHC: davs://se01.grid.nchc.org.tw:443//cms/store/mc/Run3Summer22EENanoAODv12/GluGlutoRadiontoHHto4B_M-700_narrow_TuneCP5_13p6TeV_madgraph-pythia8/NANOAODSIM/130X_mcRun3_2022_realistic_postEE_v6-v3/2550000/991a5c67-82ea-48a2-9049-2750dc16af49.root",
        "T2_FR_IPHC: davs://sbgdcache.in2p3.fr:443/cms/phedex/store/mc/Run3Summer22EENanoAODv12/GluGlutoRadiontoHHto4B_M-700_narrow_TuneCP5_13p6TeV_madgraph-pythia8/NANOAODSIM/130X_mcRun3_2022_realistic_postEE_v6-v3/2550000/991a5c67-82ea-48a2-9049-2750dc16af49.root",
        "T2_BR_SPRACE: davs://osg-se.sprace.org.br:1094/store/mc/Run3Summer22EENanoAODv12/GluGlutoRadiontoHHto4B_M-700_narrow_TuneCP5_13p6TeV_madgraph-pythia8/NANOAODSIM/130X_mcRun3_2022_realistic_postEE_v6-v3/2550000/991a5c67-82ea-48a2-9049-2750dc16af49.root",
        "T1_IT_CNAF_Tape: davs://xfer-cms.cr.cnaf.infn.it:8443/cmstape/store/mc/Run3Summer22EENanoAODv12/GluGlutoRadiontoHHto4B_M-700_narrow_TuneCP5_13p6TeV_madgraph-pythia8/NANOAODSIM/130X_mcRun3_2022_realistic_postEE_v6-v3/2550000/991a5c67-82ea-48a2-9049-2750dc16af49.root",
        "T2_US_Purdue: davs://eos.cms.rcac.purdue.edu:9000/store/mc/Run3Summer22EENanoAODv12/GluGlutoRadiontoHHto4B_M-700_narrow_TuneCP5_13p6TeV_madgraph-pythia8/NANOAODSIM/130X_mcRun3_2022_realistic_postEE_v6-v3/2550000/991a5c67-82ea-48a2-9049-2750dc16af49.root",
        "T2_UK_London_IC: davs://gfe02.grid.hep.ph.ic.ac.uk:2880/pnfs/hep.ph.ic.ac.uk/data/cms/store/mc/Run3Summer22EENanoAODv12/GluGlutoRadiontoHHto4B_M-700_narrow_TuneCP5_13p6TeV_madgraph-pythia8/NANOAODSIM/130X_mcRun3_2022_realistic_postEE_v6-v3/2550000/991a5c67-82ea-48a2-9049-2750dc16af49.root",
        "T2_DE_RWTH: davs://grid-webdav.physik.rwth-aachen.de:2889/store/mc/Run3Summer22EENanoAODv12/GluGlutoRadiontoHHto4B_M-700_narrow_TuneCP5_13p6TeV_madgraph-pythia8/NANOAODSIM/130X_mcRun3_2022_realistic_postEE_v6-v3/2550000/991a5c67-82ea-48a2-9049-2750dc16af49.root"
    ],
    "cms:/store/mc/Run3Summer22EENanoAODv12/GluGlutoRadiontoHHto4B_M-700_narrow_TuneCP5_13p6TeV_madgraph-pythia8/NANOAODSIM/130X_mcRun3_2022_realistic_postEE_v6-v3/2550000/ec52ee9d-64ba-4f47-80ba-4f94663978b9.root": [
        "T2_TW_NCHC: davs://se01.grid.nchc.org.tw:443//cms/store/mc/Run3Summer22EENanoAODv12/GluGlutoRadiontoHHto4B_M-700_narrow_TuneCP5_13p6TeV_madgraph-pythia8/NANOAODSIM/130X_mcRun3_2022_realistic_postEE_v6-v3/2550000/ec52ee9d-64ba-4f47-80ba-4f94663978b9.root",
        "T2_FR_IPHC: davs://sbgdcache.in2p3.fr:443/cms/phedex/store/mc/Run3Summer22EENanoAODv12/GluGlutoRadiontoHHto4B_M-700_narrow_TuneCP5_13p6TeV_madgraph-pythia8/NANOAODSIM/130X_mcRun3_2022_realistic_postEE_v6-v3/2550000/ec52ee9d-64ba-4f47-80ba-4f94663978b9.root",
        "T2_BR_SPRACE: davs://osg-se.sprace.org.br:1094/store/mc/Run3Summer22EENanoAODv12/GluGlutoRadiontoHHto4B_M-700_narrow_TuneCP5_13p6TeV_madgraph-pythia8/NANOAODSIM/130X_mcRun3_2022_realistic_postEE_v6-v3/2550000/ec52ee9d-64ba-4f47-80ba-4f94663978b9.root",
        "T1_IT_CNAF_Tape: davs://xfer-cms.cr.cnaf.infn.it:8443/cmstape/store/mc/Run3Summer22EENanoAODv12/GluGlutoRadiontoHHto4B_M-700_narrow_TuneCP5_13p6TeV_madgraph-pythia8/NANOAODSIM/130X_mcRun3_2022_realistic_postEE_v6-v3/2550000/ec52ee9d-64ba-4f47-80ba-4f94663978b9.root",
        "T2_US_Purdue: davs://eos.cms.rcac.purdue.edu:9000/store/mc/Run3Summer22EENanoAODv12/GluGlutoRadiontoHHto4B_M-700_narrow_TuneCP5_13p6TeV_madgraph-pythia8/NANOAODSIM/130X_mcRun3_2022_realistic_postEE_v6-v3/2550000/ec52ee9d-64ba-4f47-80ba-4f94663978b9.root",
        "T2_UK_London_IC: davs://gfe02.grid.hep.ph.ic.ac.uk:2880/pnfs/hep.ph.ic.ac.uk/data/cms/store/mc/Run3Summer22EENanoAODv12/GluGlutoRadiontoHHto4B_M-700_narrow_TuneCP5_13p6TeV_madgraph-pythia8/NANOAODSIM/130X_mcRun3_2022_realistic_postEE_v6-v3/2550000/ec52ee9d-64ba-4f47-80ba-4f94663978b9.root",
        "T2_DE_RWTH: davs://grid-webdav.physik.rwth-aachen.de:2889/store/mc/Run3Summer22EENanoAODv12/GluGlutoRadiontoHHto4B_M-700_narrow_TuneCP5_13p6TeV_madgraph-pythia8/NANOAODSIM/130X_mcRun3_2022_realistic_postEE_v6-v3/2550000/ec52ee9d-64ba-4f47-80ba-4f94663978b9.root"
    ],
    "cms:/store/mc/Run3Summer22EENanoAODv12/GluGlutoRadiontoHHto4B_M-700_narrow_TuneCP5_13p6TeV_madgraph-pythia8/NANOAODSIM/130X_mcRun3_2022_realistic_postEE_v6-v3/2550000/7aa7a3a7-2cd4-4639-912a-8f849ef64591.root": [
        "T2_TW_NCHC: davs://se01.grid.nchc.org.tw:443//cms/store/mc/Run3Summer22EENanoAODv12/GluGlutoRadiontoHHto4B_M-700_narrow_TuneCP5_13p6TeV_madgraph-pythia8/NANOAODSIM/130X_mcRun3_2022_realistic_postEE_v6-v3/2550000/7aa7a3a7-2cd4-4639-912a-8f849ef64591.root",
        "T2_FR_IPHC: davs://sbgdcache.in2p3.fr:443/cms/phedex/store/mc/Run3Summer22EENanoAODv12/GluGlutoRadiontoHHto4B_M-700_narrow_TuneCP5_13p6TeV_madgraph-pythia8/NANOAODSIM/130X_mcRun3_2022_realistic_postEE_v6-v3/2550000/7aa7a3a7-2cd4-4639-912a-8f849ef64591.root",
        "T2_BR_SPRACE: davs://osg-se.sprace.org.br:1094/store/mc/Run3Summer22EENanoAODv12/GluGlutoRadiontoHHto4B_M-700_narrow_TuneCP5_13p6TeV_madgraph-pythia8/NANOAODSIM/130X_mcRun3_2022_realistic_postEE_v6-v3/2550000/7aa7a3a7-2cd4-4639-912a-8f849ef64591.root",
        "T1_IT_CNAF_Tape: davs://xfer-cms.cr.cnaf.infn.it:8443/cmstape/store/mc/Run3Summer22EENanoAODv12/GluGlutoRadiontoHHto4B_M-700_narrow_TuneCP5_13p6TeV_madgraph-pythia8/NANOAODSIM/130X_mcRun3_2022_realistic_postEE_v6-v3/2550000/7aa7a3a7-2cd4-4639-912a-8f849ef64591.root",
        "T2_US_Purdue: davs://eos.cms.rcac.purdue.edu:9000/store/mc/Run3Summer22EENanoAODv12/GluGlutoRadiontoHHto4B_M-700_narrow_TuneCP5_13p6TeV_madgraph-pythia8/NANOAODSIM/130X_mcRun3_2022_realistic_postEE_v6-v3/2550000/7aa7a3a7-2cd4-4639-912a-8f849ef64591.root",
        "T2_UK_London_IC: davs://gfe02.grid.hep.ph.ic.ac.uk:2880/pnfs/hep.ph.ic.ac.uk/data/cms/store/mc/Run3Summer22EENanoAODv12/GluGlutoRadiontoHHto4B_M-700_narrow_TuneCP5_13p6TeV_madgraph-pythia8/NANOAODSIM/130X_mcRun3_2022_realistic_postEE_v6-v3/2550000/7aa7a3a7-2cd4-4639-912a-8f849ef64591.root",
        "T2_DE_RWTH: davs://grid-webdav.physik.rwth-aachen.de:2889/store/mc/Run3Summer22EENanoAODv12/GluGlutoRadiontoHHto4B_M-700_narrow_TuneCP5_13p6TeV_madgraph-pythia8/NANOAODSIM/130X_mcRun3_2022_realistic_postEE_v6-v3/2550000/7aa7a3a7-2cd4-4639-912a-8f849ef64591.root"
    ],
    "cms:/store/mc/Run3Summer22EENanoAODv12/GluGlutoRadiontoHHto4B_M-700_narrow_TuneCP5_13p6TeV_madgraph-pythia8/NANOAODSIM/130X_mcRun3_2022_realistic_postEE_v6-v3/2550000/ebd416c1-1e30-4095-87a9-70b79528c78b.root": [
        "T2_TW_NCHC: davs://se01.grid.nchc.org.tw:443//cms/store/mc/Run3Summer22EENanoAODv12/GluGlutoRadiontoHHto4B_M-700_narrow_TuneCP5_13p6TeV_madgraph-pythia8/NANOAODSIM/130X_mcRun3_2022_realistic_postEE_v6-v3/2550000/ebd416c1-1e30-4095-87a9-70b79528c78b.root",
        "T2_FR_IPHC: davs://sbgdcache.in2p3.fr:443/cms/phedex/store/mc/Run3Summer22EENanoAODv12/GluGlutoRadiontoHHto4B_M-700_narrow_TuneCP5_13p6TeV_madgraph-pythia8/NANOAODSIM/130X_mcRun3_2022_realistic_postEE_v6-v3/2550000/ebd416c1-1e30-4095-87a9-70b79528c78b.root",
        "T2_BR_SPRACE: davs://osg-se.sprace.org.br:1094/store/mc/Run3Summer22EENanoAODv12/GluGlutoRadiontoHHto4B_M-700_narrow_TuneCP5_13p6TeV_madgraph-pythia8/NANOAODSIM/130X_mcRun3_2022_realistic_postEE_v6-v3/2550000/ebd416c1-1e30-4095-87a9-70b79528c78b.root",
        "T1_IT_CNAF_Tape: davs://xfer-cms.cr.cnaf.infn.it:8443/cmstape/store/mc/Run3Summer22EENanoAODv12/GluGlutoRadiontoHHto4B_M-700_narrow_TuneCP5_13p6TeV_madgraph-pythia8/NANOAODSIM/130X_mcRun3_2022_realistic_postEE_v6-v3/2550000/ebd416c1-1e30-4095-87a9-70b79528c78b.root",
        "T2_US_Purdue: davs://eos.cms.rcac.purdue.edu:9000/store/mc/Run3Summer22EENanoAODv12/GluGlutoRadiontoHHto4B_M-700_narrow_TuneCP5_13p6TeV_madgraph-pythia8/NANOAODSIM/130X_mcRun3_2022_realistic_postEE_v6-v3/2550000/ebd416c1-1e30-4095-87a9-70b79528c78b.root",
        "T2_UK_London_IC: davs://gfe02.grid.hep.ph.ic.ac.uk:2880/pnfs/hep.ph.ic.ac.uk/data/cms/store/mc/Run3Summer22EENanoAODv12/GluGlutoRadiontoHHto4B_M-700_narrow_TuneCP5_13p6TeV_madgraph-pythia8/NANOAODSIM/130X_mcRun3_2022_realistic_postEE_v6-v3/2550000/ebd416c1-1e30-4095-87a9-70b79528c78b.root",
        "T2_DE_RWTH: davs://grid-webdav.physik.rwth-aachen.de:2889/store/mc/Run3Summer22EENanoAODv12/GluGlutoRadiontoHHto4B_M-700_narrow_TuneCP5_13p6TeV_madgraph-pythia8/NANOAODSIM/130X_mcRun3_2022_realistic_postEE_v6-v3/2550000/ebd416c1-1e30-4095-87a9-70b79528c78b.root"
    ],
    "cms:/store/mc/Run3Summer22EENanoAODv12/GluGlutoRadiontoHHto4B_M-700_narrow_TuneCP5_13p6TeV_madgraph-pythia8/NANOAODSIM/130X_mcRun3_2022_realistic_postEE_v6-v3/2550000/740365ae-c540-4532-a1e9-144f7cad847a.root": [
        "T2_TW_NCHC: davs://se01.grid.nchc.org.tw:443//cms/store/mc/Run3Summer22EENanoAODv12/GluGlutoRadiontoHHto4B_M-700_narrow_TuneCP5_13p6TeV_madgraph-pythia8/NANOAODSIM/130X_mcRun3_2022_realistic_postEE_v6-v3/2550000/740365ae-c540-4532-a1e9-144f7cad847a.root",
        "T2_FR_IPHC: davs://sbgdcache.in2p3.fr:443/cms/phedex/store/mc/Run3Summer22EENanoAODv12/GluGlutoRadiontoHHto4B_M-700_narrow_TuneCP5_13p6TeV_madgraph-pythia8/NANOAODSIM/130X_mcRun3_2022_realistic_postEE_v6-v3/2550000/740365ae-c540-4532-a1e9-144f7cad847a.root",
        "T2_BR_SPRACE: davs://osg-se.sprace.org.br:1094/store/mc/Run3Summer22EENanoAODv12/GluGlutoRadiontoHHto4B_M-700_narrow_TuneCP5_13p6TeV_madgraph-pythia8/NANOAODSIM/130X_mcRun3_2022_realistic_postEE_v6-v3/2550000/740365ae-c540-4532-a1e9-144f7cad847a.root",
        "T1_IT_CNAF_Tape: davs://xfer-cms.cr.cnaf.infn.it:8443/cmstape/store/mc/Run3Summer22EENanoAODv12/GluGlutoRadiontoHHto4B_M-700_narrow_TuneCP5_13p6TeV_madgraph-pythia8/NANOAODSIM/130X_mcRun3_2022_realistic_postEE_v6-v3/2550000/740365ae-c540-4532-a1e9-144f7cad847a.root",
        "T2_US_Purdue: davs://eos.cms.rcac.purdue.edu:9000/store/mc/Run3Summer22EENanoAODv12/GluGlutoRadiontoHHto4B_M-700_narrow_TuneCP5_13p6TeV_madgraph-pythia8/NANOAODSIM/130X_mcRun3_2022_realistic_postEE_v6-v3/2550000/740365ae-c540-4532-a1e9-144f7cad847a.root",
        "T2_UK_London_IC: davs://gfe02.grid.hep.ph.ic.ac.uk:2880/pnfs/hep.ph.ic.ac.uk/data/cms/store/mc/Run3Summer22EENanoAODv12/GluGlutoRadiontoHHto4B_M-700_narrow_TuneCP5_13p6TeV_madgraph-pythia8/NANOAODSIM/130X_mcRun3_2022_realistic_postEE_v6-v3/2550000/740365ae-c540-4532-a1e9-144f7cad847a.root",
        "T2_DE_RWTH: davs://grid-webdav.physik.rwth-aachen.de:2889/store/mc/Run3Summer22EENanoAODv12/GluGlutoRadiontoHHto4B_M-700_narrow_TuneCP5_13p6TeV_madgraph-pythia8/NANOAODSIM/130X_mcRun3_2022_realistic_postEE_v6-v3/2550000/740365ae-c540-4532-a1e9-144f7cad847a.root"
    ],
    "cms:/store/mc/Run3Summer22EENanoAODv12/GluGlutoRadiontoHHto4B_M-700_narrow_TuneCP5_13p6TeV_madgraph-pythia8/NANOAODSIM/130X_mcRun3_2022_realistic_postEE_v6-v3/2550000/f38eaf25-c433-4230-9621-db50c9929cea.root": [
        "T2_FR_IPHC: davs://sbgdcache.in2p3.fr:443/cms/phedex/store/mc/Run3Summer22EENanoAODv12/GluGlutoRadiontoHHto4B_M-700_narrow_TuneCP5_13p6TeV_madgraph-pythia8/NANOAODSIM/130X_mcRun3_2022_realistic_postEE_v6-v3/2550000/f38eaf25-c433-4230-9621-db50c9929cea.root",
        "T2_BR_SPRACE: davs://osg-se.sprace.org.br:1094/store/mc/Run3Summer22EENanoAODv12/GluGlutoRadiontoHHto4B_M-700_narrow_TuneCP5_13p6TeV_madgraph-pythia8/NANOAODSIM/130X_mcRun3_2022_realistic_postEE_v6-v3/2550000/f38eaf25-c433-4230-9621-db50c9929cea.root",
        "T1_IT_CNAF_Tape: davs://xfer-cms.cr.cnaf.infn.it:8443/cmstape/store/mc/Run3Summer22EENanoAODv12/GluGlutoRadiontoHHto4B_M-700_narrow_TuneCP5_13p6TeV_madgraph-pythia8/NANOAODSIM/130X_mcRun3_2022_realistic_postEE_v6-v3/2550000/f38eaf25-c433-4230-9621-db50c9929cea.root",
        "T2_US_Purdue: davs://eos.cms.rcac.purdue.edu:9000/store/mc/Run3Summer22EENanoAODv12/GluGlutoRadiontoHHto4B_M-700_narrow_TuneCP5_13p6TeV_madgraph-pythia8/NANOAODSIM/130X_mcRun3_2022_realistic_postEE_v6-v3/2550000/f38eaf25-c433-4230-9621-db50c9929cea.root",
        "T1_RU_JINR_Disk: davs://se-wbdv.jinr-t1.ru:2880/pnfs/jinr-t1.ru/data/cms/store/mc/Run3Summer22EENanoAODv12/GluGlutoRadiontoHHto4B_M-700_narrow_TuneCP5_13p6TeV_madgraph-pythia8/NANOAODSIM/130X_mcRun3_2022_realistic_postEE_v6-v3/2550000/f38eaf25-c433-4230-9621-db50c9929cea.root",
        "T2_UK_London_IC: davs://gfe02.grid.hep.ph.ic.ac.uk:2880/pnfs/hep.ph.ic.ac.uk/data/cms/store/mc/Run3Summer22EENanoAODv12/GluGlutoRadiontoHHto4B_M-700_narrow_TuneCP5_13p6TeV_madgraph-pythia8/NANOAODSIM/130X_mcRun3_2022_realistic_postEE_v6-v3/2550000/f38eaf25-c433-4230-9621-db50c9929cea.root",
        "T2_DE_RWTH: davs://grid-webdav.physik.rwth-aachen.de:2889/store/mc/Run3Summer22EENanoAODv12/GluGlutoRadiontoHHto4B_M-700_narrow_TuneCP5_13p6TeV_madgraph-pythia8/NANOAODSIM/130X_mcRun3_2022_realistic_postEE_v6-v3/2550000/f38eaf25-c433-4230-9621-db50c9929cea.root"
    ],
    "cms:/store/mc/Run3Summer22EENanoAODv12/GluGlutoRadiontoHHto4B_M-700_narrow_TuneCP5_13p6TeV_madgraph-pythia8/NANOAODSIM/130X_mcRun3_2022_realistic_postEE_v6-v3/2550000/8a12fca2-dc21-4ba7-9851-892e0a8dba79.root": [
        "T1_DE_KIT_Disk: davs://cmsdcache-kit-disk.gridka.de:2880/pnfs/gridka.de/cms/disk-only/store/mc/Run3Summer22EENanoAODv12/GluGlutoRadiontoHHto4B_M-700_narrow_TuneCP5_13p6TeV_madgraph-pythia8/NANOAODSIM/130X_mcRun3_2022_realistic_postEE_v6-v3/2550000/8a12fca2-dc21-4ba7-9851-892e0a8dba79.root",
        "T2_FR_GRIF: davs://eos.grif.fr:11000/eos/grif/cms/grif/store/mc/Run3Summer22EENanoAODv12/GluGlutoRadiontoHHto4B_M-700_narrow_TuneCP5_13p6TeV_madgraph-pythia8/NANOAODSIM/130X_mcRun3_2022_realistic_postEE_v6-v3/2550000/8a12fca2-dc21-4ba7-9851-892e0a8dba79.root",
        "T2_US_Vanderbilt: davs://xrootd-vanderbilt.sites.opensciencegrid.org:1094/store/mc/Run3Summer22EENanoAODv12/GluGlutoRadiontoHHto4B_M-700_narrow_TuneCP5_13p6TeV_madgraph-pythia8/NANOAODSIM/130X_mcRun3_2022_realistic_postEE_v6-v3/2550000/8a12fca2-dc21-4ba7-9851-892e0a8dba79.root",
        "T1_IT_CNAF_Tape: davs://xfer-cms.cr.cnaf.infn.it:8443/cmstape/store/mc/Run3Summer22EENanoAODv12/GluGlutoRadiontoHHto4B_M-700_narrow_TuneCP5_13p6TeV_madgraph-pythia8/NANOAODSIM/130X_mcRun3_2022_realistic_postEE_v6-v3/2550000/8a12fca2-dc21-4ba7-9851-892e0a8dba79.root",
        "T2_US_Purdue: davs://eos.cms.rcac.purdue.edu:9000/store/mc/Run3Summer22EENanoAODv12/GluGlutoRadiontoHHto4B_M-700_narrow_TuneCP5_13p6TeV_madgraph-pythia8/NANOAODSIM/130X_mcRun3_2022_realistic_postEE_v6-v3/2550000/8a12fca2-dc21-4ba7-9851-892e0a8dba79.root",
        "T1_RU_JINR_Disk: davs://se-wbdv.jinr-t1.ru:2880/pnfs/jinr-t1.ru/data/cms/store/mc/Run3Summer22EENanoAODv12/GluGlutoRadiontoHHto4B_M-700_narrow_TuneCP5_13p6TeV_madgraph-pythia8/NANOAODSIM/130X_mcRun3_2022_realistic_postEE_v6-v3/2550000/8a12fca2-dc21-4ba7-9851-892e0a8dba79.root",
        "T2_DE_RWTH: davs://grid-webdav.physik.rwth-aachen.de:2889/store/mc/Run3Summer22EENanoAODv12/GluGlutoRadiontoHHto4B_M-700_narrow_TuneCP5_13p6TeV_madgraph-pythia8/NANOAODSIM/130X_mcRun3_2022_realistic_postEE_v6-v3/2550000/8a12fca2-dc21-4ba7-9851-892e0a8dba79.root"
    ]
}