{
    "cms:/store/mc/Run3Summer22EENanoAODv12/GluGlutoRadiontoHHto4B_M-1600_narrow_TuneCP5_13p6TeV_madgraph-pythia8/NANOAODSIM/130X_mcRun3_2022_realistic_postEE_v6-v3/2550000/c33dfa00-6860-4afc-bbdb-687569f95bb3.root": [
        "T2_DE_DESY: davs://dcache-cms-webdav.desy.de:2880/pnfs/desy.de/cms/tier2/store/mc/Run3Summer22EENanoAODv12/GluGlutoRadiontoHHto4B_M-1600_narrow_TuneCP5_13p6TeV_madgraph-pythia8/NANOAODSIM/130X_mcRun3_2022_realistic_postEE_v6-v3/2550000/c33dfa00-6860-4afc-bbdb-687569f95bb3.root",
        "T2_BR_SPRACE: davs://osg-se.sprace.org.br:1094/store/mc/Run3Summer22EENanoAODv12/GluGlutoRadiontoHHto4B_M-1600_narrow_TuneCP5_13p6TeV_madgraph-pythia8/NANOAODSIM/130X_mcRun3_2022_realistic_postEE_v6-v3/2550000/c33dfa00-6860-4afc-bbdb-687569f95bb3.root",
        "T2_HU_Budapest: davs://grid143.kfki.hu:443/dpm/kfki.hu/home/cms/phedex/store/mc/Run3Summer22EENanoAODv12/GluGlutoRadiontoHHto4B_M-1600_narrow_TuneCP5_13p6TeV_madgraph-pythia8/NANOAODSIM/130X_mcRun3_2022_realistic_postEE_v6-v3/2550000/c33dfa00-6860-4afc-bbdb-687569f95bb3.root",
        "T2_US_Nebraska: davs://xrootd-local.unl.edu:1094/store/mc/Run3Summer22EENanoAODv12/GluGlutoRadiontoHHto4B_M-1600_narrow_TuneCP5_13p6TeV_madgraph-pythia8/NANOAODSIM/130X_mcRun3_2022_realistic_postEE_v6-v3/2550000/c33dfa00-6860-4afc-bbdb-687569f95bb3.root",
        "T2_DE_RWTH: davs://grid-webdav.physik.rwth-aachen.de:2889/store/mc/Run3Summer22EENanoAODv12/GluGlutoRadiontoHHto4B_M-1600_narrow_TuneCP5_13p6TeV_madgraph-pythia8/NANOAODSIM/130X_mcRun3_2022_realistic_postEE_v6-v3/2550000/c33dfa00-6860-4afc-bbdb-687569f95bb3.root",
        "T0_CH_CERN_Tape: davs://eosctacms.cern.ch:8444//eos/ctacms/archive/cms/store/mc/Run3Summer22EENanoAODv12/GluGlutoRadiontoHHto4B_M-1600_narrow_TuneCP5_13p6TeV_madgraph-pythia8/NANOAODSIM/130X_mcRun3_2022_realistic_postEE_v6-v3/2550000/c33dfa00-6860-4afc-bbdb-687569f95bb3.root",
        "T2_IN_TIFR: davs://se01.indiacms.res.in:443/dpm/indiacms.res.in/home/cms/store/mc/Run3Summer22EENanoAODv12/GluGlutoRadiontoHHto4B_M-1600_narrow_TuneCP5_13p6TeV_madgraph-pythia8/NANOAODSIM/130X_mcRun3_2022_realistic_postEE_v6-v3/2550000/c33dfa00-6860-4afc-bbdb-687569f95bb3.root"
    ],
    "cms:/store/mc/Run3Summer22EENanoAODv12/GluGlutoRadiontoHHto4B_M-1600_narrow_TuneCP5_13p6TeV_madgraph-pythia8/NANOAODSIM/130X_mcRun3_2022_realistic_postEE_v6-v3/2550000/d3fe230b-642b-47f3-a82c-ce4732ae2974.root": [
        "T2_DE_DESY: davs://dcache-cms-webdav.desy.de:2880/pnfs/desy.de/cms/tier2/store/mc/Run3Summer22EENanoAODv12/GluGlutoRadiontoHHto4B_M-1600_narrow_TuneCP5_13p6TeV_madgraph-pythia8/NANOAODSIM/130X_mcRun3_2022_realistic_postEE_v6-v3/2550000/d3fe230b-642b-47f3-a82c-ce4732ae2974.root",
        "T2_BR_SPRACE: davs://osg-se.sprace.org.br:1094/store/mc/Run3Summer22EENanoAODv12/GluGlutoRadiontoHHto4B_M-1600_narrow_TuneCP5_13p6TeV_madgraph-pythia8/NANOAODSIM/130X_mcRun3_2022_realistic_postEE_v6-v3/2550000/d3fe230b-642b-47f3-a82c-ce4732ae2974.root",
        "T2_HU_Budapest: davs://grid143.kfki.hu:443/dpm/kfki.hu/home/cms/phedex/store/mc/Run3Summer22EENanoAODv12/GluGlutoRadiontoHHto4B_M-1600_narrow_TuneCP5_13p6TeV_madgraph-pythia8/NANOAODSIM/130X_mcRun3_2022_realistic_postEE_v6-v3/2550000/d3fe230b-642b-47f3-a82c-ce4732ae2974.root",
        "T2_US_Nebraska: davs://xrootd-local.unl.edu:1094/store/mc/Run3Summer22EENanoAODv12/GluGlutoRadiontoHHto4B_M-1600_narrow_TuneCP5_13p6TeV_madgraph-pythia8/NANOAODSIM/130X_mcRun3_2022_realistic_postEE_v6-v3/2550000/d3fe230b-642b-47f3-a82c-ce4732ae2974.root",
        "T2_DE_RWTH: davs://grid-webdav.physik.rwth-aachen.de:2889/store/mc/Run3Summer22EENanoAODv12/GluGlutoRadiontoHHto4B_M-1600_narrow_TuneCP5_13p6TeV_madgraph-pythia8/NANOAODSIM/130X_mcRun3_2022_realistic_postEE_v6-v3/2550000/d3fe230b-642b-47f3-a82c-ce4732ae2974.root",
        "T0_CH_CERN_Tape: davs://eosctacms.cern.ch:8444//eos/ctacms/archive/cms/store/mc/Run3Summer22EENanoAODv12/GluGlutoRadiontoHHto4B_M-1600_narrow_TuneCP5_13p6TeV_madgraph-pythia8/NANOAODSIM/130X_mcRun3_2022_realistic_postEE_v6-v3/2550000/d3fe230b-642b-47f3-a82c-ce4732ae2974.root",
        "T2_IN_TIFR: davs://se01.indiacms.res.in:443/dpm/indiacms.res.in/home/cms/store/mc/Run3Summer22EENanoAODv12/GluGlutoRadiontoHHto4B_M-1600_narrow_TuneCP5_13p6TeV_madgraph-pythia8/NANOAODSIM/130X_mcRun3_2022_realistic_postEE_v6-v3/2550000/d3fe230b-642b-47f3-a82c-ce4732ae2974.root"
    ],
    "cms:/store/mc/Run3Summer22EENanoAODv12/GluGlutoRadiontoHHto4B_M-1600_narrow_TuneCP5_13p6TeV_madgraph-pythia8/NANOAODSIM/130X_mcRun3_2022_realistic_postEE_v6-v3/2550000/d232c0c0-da1c-423b-86bf-0afd5be4053d.root": [
        "T2_DE_DESY: davs://dcache-cms-webdav.desy.de:2880/pnfs/desy.de/cms/tier2/store/mc/Run3Summer22EENanoAODv12/GluGlutoRadiontoHHto4B_M-1600_narrow_TuneCP5_13p6TeV_madgraph-pythia8/NANOAODSIM/130X_mcRun3_2022_realistic_postEE_v6-v3/2550000/d232c0c0-da1c-423b-86bf-0afd5be4053d.root",
        "T2_BR_SPRACE: davs://osg-se.sprace.org.br:1094/store/mc/Run3Summer22EENanoAODv12/GluGlutoRadiontoHHto4B_M-1600_narrow_TuneCP5_13p6TeV_madgraph-pythia8/NANOAODSIM/130X_mcRun3_2022_realistic_postEE_v6-v3/2550000/d232c0c0-da1c-423b-86bf-0afd5be4053d.root",
        "T2_HU_Budapest: davs://grid143.kfki.hu:443/dpm/kfki.hu/home/cms/phedex/store/mc/Run3Summer22EENanoAODv12/GluGlutoRadiontoHHto4B_M-1600_narrow_TuneCP5_13p6TeV_madgraph-pythia8/NANOAODSIM/130X_mcRun3_2022_realistic_postEE_v6-v3/2550000/d232c0c0-da1c-423b-86bf-0afd5be4053d.root",
        "T2_US_Nebraska: davs://xrootd-local.unl.edu:1094/store/mc/Run3Summer22EENanoAODv12/GluGlutoRadiontoHHto4B_M-1600_narrow_TuneCP5_13p6TeV_madgraph-pythia8/NANOAODSIM/130X_mcRun3_2022_realistic_postEE_v6-v3/2550000/d232c0c0-da1c-423b-86bf-0afd5be4053d.root",
        "T2_DE_RWTH: davs://grid-webdav.physik.rwth-aachen.de:2889/store/mc/Run3Summer22EENanoAODv12/GluGlutoRadiontoHHto4B_M-1600_narrow_TuneCP5_13p6TeV_madgraph-pythia8/NANOAODSIM/130X_mcRun3_2022_realistic_postEE_v6-v3/2550000/d232c0c0-da1c-423b-86bf-0afd5be4053d.root",
        "T0_CH_CERN_Tape: davs://eosctacms.cern.ch:8444//eos/ctacms/archive/cms/store/mc/Run3Summer22EENanoAODv12/GluGlutoRadiontoHHto4B_M-1600_narrow_TuneCP5_13p6TeV_madgraph-pythia8/NANOAODSIM/130X_mcRun3_2022_realistic_postEE_v6-v3/2550000/d232c0c0-da1c-423b-86bf-0afd5be4053d.root",
        "T2_IN_TIFR: davs://se01.indiacms.res.in:443/dpm/indiacms.res.in/home/cms/store/mc/Run3Summer22EENanoAODv12/GluGlutoRadiontoHHto4B_M-1600_narrow_TuneCP5_13p6TeV_madgraph-pythia8/NANOAODSIM/130X_mcRun3_2022_realistic_postEE_v6-v3/2550000/d232c0c0-da1c-423b-86bf-0afd5be4053d.root"
    ],
    "cms:/store/mc/Run3Summer22EENanoAODv12/GluGlutoRadiontoHHto4B_M-1600_narrow_TuneCP5_13p6TeV_madgraph-pythia8/NANOAODSIM/130X_mcRun3_2022_realistic_postEE_v6-v3/2550000/3b0c54ee-380a-4a43-a2a0-681fb1574b25.root": [
        "T2_DE_DESY: davs://dcache-cms-webdav.desy.de:2880/pnfs/desy.de/cms/tier2/store/mc/Run3Summer22EENanoAODv12/GluGlutoRadiontoHHto4B_M-1600_narrow_TuneCP5_13p6TeV_madgraph-pythia8/NANOAODSIM/130X_mcRun3_2022_realistic_postEE_v6-v3/2550000/3b0c54ee-380a-4a43-a2a0-681fb1574b25.root",
        "T2_BR_SPRACE: davs://osg-se.sprace.org.br:1094/store/mc/Run3Summer22EENanoAODv12/GluGlutoRadiontoHHto4B_M-1600_narrow_TuneCP5_13p6TeV_madgraph-pythia8/NANOAODSIM/130X_mcRun3_2022_realistic_postEE_v6-v3/2550000/3b0c54ee-380a-4a43-a2a0-681fb1574b25.root",
        "T2_HU_Budapest: davs://grid143.kfki.hu:443/dpm/kfki.hu/home/cms/phedex/store/mc/Run3Summer22EENanoAODv12/GluGlutoRadiontoHHto4B_M-1600_narrow_TuneCP5_13p6TeV_madgraph-pythia8/NANOAODSIM/130X_mcRun3_2022_realistic_postEE_v6-v3/2550000/3b0c54ee-380a-4a43-a2a0-681fb1574b25.root",
        "T2_US_Nebraska: davs://xrootd-local.unl.edu:1094/store/mc/Run3Summer22EENanoAODv12/GluGlutoRadiontoHHto4B_M-1600_narrow_TuneCP5_13p6TeV_madgraph-pythia8/NANOAODSIM/130X_mcRun3_2022_realistic_postEE_v6-v3/2550000/3b0c54ee-380a-4a43-a2a0-681fb1574b25.root",
        "T2_DE_RWTH: davs://grid-webdav.physik.rwth-aachen.de:2889/store/mc/Run3Summer22EENanoAODv12/GluGlutoRadiontoHHto4B_M-1600_narrow_TuneCP5_13p6TeV_madgraph-pythia8/NANOAODSIM/130X_mcRun3_2022_realistic_postEE_v6-v3/2550000/3b0c54ee-380a-4a43-a2a0-681fb1574b25.root",
        "T0_CH_CERN_Tape: davs://eosctacms.cern.ch:8444//eos/ctacms/archive/cms/store/mc/Run3Summer22EENanoAODv12/GluGlutoRadiontoHHto4B_M-1600_narrow_TuneCP5_13p6TeV_madgraph-pythia8/NANOAODSIM/130X_mcRun3_2022_realistic_postEE_v6-v3/2550000/3b0c54ee-380a-4a43-a2a0-681fb1574b25.root",
        "T2_IN_TIFR: davs://se01.indiacms.res.in:443/dpm/indiacms.res.in/home/cms/store/mc/Run3Summer22EENanoAODv12/GluGlutoRadiontoHHto4B_M-1600_narrow_TuneCP5_13p6TeV_madgraph-pythia8/NANOAODSIM/130X_mcRun3_2022_realistic_postEE_v6-v3/2550000/3b0c54ee-380a-4a43-a2a0-681fb1574b25.root"
    ],
    "cms:/store/mc/Run3Summer22EENanoAODv12/GluGlutoRadiontoHHto4B_M-1600_narrow_TuneCP5_13p6TeV_madgraph-pythia8/NANOAODSIM/130X_mcRun3_2022_realistic_postEE_v6-v3/2550000/feb0835a-ad4f-4d04-8747-9ad6cfbf2370.root": [
        "T2_DE_DESY: davs://dcache-cms-webdav.desy.de:2880/pnfs/desy.de/cms/tier2/store/mc/Run3Summer22EENanoAODv12/GluGlutoRadiontoHHto4B_M-1600_narrow_TuneCP5_13p6TeV_madgraph-pythia8/NANOAODSIM/130X_mcRun3_2022_realistic_postEE_v6-v3/2550000/feb0835a-ad4f-4d04-8747-9ad6cfbf2370.root",
        "T2_BR_SPRACE: davs://osg-se.sprace.org.br:1094/store/mc/Run3Summer22EENanoAODv12/GluGlutoRadiontoHHto4B_M-1600_narrow_TuneCP5_13p6TeV_madgraph-pythia8/NANOAODSIM/130X_mcRun3_2022_realistic_postEE_v6-v3/2550000/feb0835a-ad4f-4d04-8747-9ad6cfbf2370.root",
        "T2_HU_Budapest: davs://grid143.kfki.hu:443/dpm/kfki.hu/home/cms/phedex/store/mc/Run3Summer22EENanoAODv12/GluGlutoRadiontoHHto4B_M-1600_narrow_TuneCP5_13p6TeV_madgraph-pythia8/NANOAODSIM/130X_mcRun3_2022_realistic_postEE_v6-v3/2550000/feb0835a-ad4f-4d04-8747-9ad6cfbf2370.root",
        "T2_US_Nebraska: davs://xrootd-local.unl.edu:1094/store/mc/Run3Summer22EENanoAODv12/GluGlutoRadiontoHHto4B_M-1600_narrow_TuneCP5_13p6TeV_madgraph-pythia8/NANOAODSIM/130X_mcRun3_2022_realistic_postEE_v6-v3/2550000/feb0835a-ad4f-4d04-8747-9ad6cfbf2370.root",
        "T2_DE_RWTH: davs://grid-webdav.physik.rwth-aachen.de:2889/store/mc/Run3Summer22EENanoAODv12/GluGlutoRadiontoHHto4B_M-1600_narrow_TuneCP5_13p6TeV_madgraph-pythia8/NANOAODSIM/130X_mcRun3_2022_realistic_postEE_v6-v3/2550000/feb0835a-ad4f-4d04-8747-9ad6cfbf2370.root",
        "T0_CH_CERN_Tape: davs://eosctacms.cern.ch:8444//eos/ctacms/archive/cms/store/mc/Run3Summer22EENanoAODv12/GluGlutoRadiontoHHto4B_M-1600_narrow_TuneCP5_13p6TeV_madgraph-pythia8/NANOAODSIM/130X_mcRun3_2022_realistic_postEE_v6-v3/2550000/feb0835a-ad4f-4d04-8747-9ad6cfbf2370.root",
        "T2_IN_TIFR: davs://se01.indiacms.res.in:443/dpm/indiacms.res.in/home/cms/store/mc/Run3Summer22EENanoAODv12/GluGlutoRadiontoHHto4B_M-1600_narrow_TuneCP5_13p6TeV_madgraph-pythia8/NANOAODSIM/130X_mcRun3_2022_realistic_postEE_v6-v3/2550000/feb0835a-ad4f-4d04-8747-9ad6cfbf2370.root"
    ],
    "cms:/store/mc/Run3Summer22EENanoAODv12/GluGlutoRadiontoHHto4B_M-1600_narrow_TuneCP5_13p6TeV_madgraph-pythia8/NANOAODSIM/130X_mcRun3_2022_realistic_postEE_v6-v3/2550000/e7d22b2c-38f6-4e5f-8228-32180a13cb84.root": [
        "T2_DE_DESY: davs://dcache-cms-webdav.desy.de:2880/pnfs/desy.de/cms/tier2/store/mc/Run3Summer22EENanoAODv12/GluGlutoRadiontoHHto4B_M-1600_narrow_TuneCP5_13p6TeV_madgraph-pythia8/NANOAODSIM/130X_mcRun3_2022_realistic_postEE_v6-v3/2550000/e7d22b2c-38f6-4e5f-8228-32180a13cb84.root",
        "T2_BR_SPRACE: davs://osg-se.sprace.org.br:1094/store/mc/Run3Summer22EENanoAODv12/GluGlutoRadiontoHHto4B_M-1600_narrow_TuneCP5_13p6TeV_madgraph-pythia8/NANOAODSIM/130X_mcRun3_2022_realistic_postEE_v6-v3/2550000/e7d22b2c-38f6-4e5f-8228-32180a13cb84.root",
        "T2_HU_Budapest: davs://grid143.kfki.hu:443/dpm/kfki.hu/home/cms/phedex/store/mc/Run3Summer22EENanoAODv12/GluGlutoRadiontoHHto4B_M-1600_narrow_TuneCP5_13p6TeV_madgraph-pythia8/NANOAODSIM/130X_mcRun3_2022_realistic_postEE_v6-v3/2550000/e7d22b2c-38f6-4e5f-8228-32180a13cb84.root",
        "T2_US_Nebraska: davs://xrootd-local.unl.edu:1094/store/mc/Run3Summer22EENanoAODv12/GluGlutoRadiontoHHto4B_M-1600_narrow_TuneCP5_13p6TeV_madgraph-pythia8/NANOAODSIM/130X_mcRun3_2022_realistic_postEE_v6-v3/2550000/e7d22b2c-38f6-4e5f-8228-32180a13cb84.root",
        "T2_DE_RWTH: davs://grid-webdav.physik.rwth-aachen.de:2889/store/mc/Run3Summer22EENanoAODv12/GluGlutoRadiontoHHto4B_M-1600_narrow_TuneCP5_13p6TeV_madgraph-pythia8/NANOAODSIM/130X_mcRun3_2022_realistic_postEE_v6-v3/2550000/e7d22b2c-38f6-4e5f-8228-32180a13cb84.root",
        "T0_CH_CERN_Tape: davs://eosctacms.cern.ch:8444//eos/ctacms/archive/cms/store/mc/Run3Summer22EENanoAODv12/GluGlutoRadiontoHHto4B_M-1600_narrow_TuneCP5_13p6TeV_madgraph-pythia8/NANOAODSIM/130X_mcRun3_2022_realistic_postEE_v6-v3/2550000/e7d22b2c-38f6-4e5f-8228-32180a13cb84.root",
        "T2_IN_TIFR: davs://se01.indiacms.res.in:443/dpm/indiacms.res.in/home/cms/store/mc/Run3Summer22EENanoAODv12/GluGlutoRadiontoHHto4B_M-1600_narrow_TuneCP5_13p6TeV_madgraph-pythia8/NANOAODSIM/130X_mcRun3_2022_realistic_postEE_v6-v3/2550000/e7d22b2c-38f6-4e5f-8228-32180a13cb84.root"
    ],
    "cms:/store/mc/Run3Summer22EENanoAODv12/GluGlutoRadiontoHHto4B_M-1600_narrow_TuneCP5_13p6TeV_madgraph-pythia8/NANOAODSIM/130X_mcRun3_2022_realistic_postEE_v6-v3/2550000/bf22ed88-5a6d-414e-863f-1297ae25973e.root": [
        "T2_DE_DESY: davs://dcache-cms-webdav.desy.de:2880/pnfs/desy.de/cms/tier2/store/mc/Run3Summer22EENanoAODv12/GluGlutoRadiontoHHto4B_M-1600_narrow_TuneCP5_13p6TeV_madgraph-pythia8/NANOAODSIM/130X_mcRun3_2022_realistic_postEE_v6-v3/2550000/bf22ed88-5a6d-414e-863f-1297ae25973e.root",
        "T2_BR_SPRACE: davs://osg-se.sprace.org.br:1094/store/mc/Run3Summer22EENanoAODv12/GluGlutoRadiontoHHto4B_M-1600_narrow_TuneCP5_13p6TeV_madgraph-pythia8/NANOAODSIM/130X_mcRun3_2022_realistic_postEE_v6-v3/2550000/bf22ed88-5a6d-414e-863f-1297ae25973e.root",
        "T2_HU_Budapest: davs://grid143.kfki.hu:443/dpm/kfki.hu/home/cms/phedex/store/mc/Run3Summer22EENanoAODv12/GluGlutoRadiontoHHto4B_M-1600_narrow_TuneCP5_13p6TeV_madgraph-pythia8/NANOAODSIM/130X_mcRun3_2022_realistic_postEE_v6-v3/2550000/bf22ed88-5a6d-414e-863f-1297ae25973e.root",
        "T2_US_Nebraska: davs://xrootd-local.unl.edu:1094/store/mc/Run3Summer22EENanoAODv12/GluGlutoRadiontoHHto4B_M-1600_narrow_TuneCP5_13p6TeV_madgraph-pythia8/NANOAODSIM/130X_mcRun3_2022_realistic_postEE_v6-v3/2550000/bf22ed88-5a6d-414e-863f-1297ae25973e.root",
        "T1_RU_JINR_Disk: davs://se-wbdv.jinr-t1.ru:2880/pnfs/jinr-t1.ru/data/cms/store/mc/Run3Summer22EENanoAODv12/GluGlutoRadiontoHHto4B_M-1600_narrow_TuneCP5_13p6TeV_madgraph-pythia8/NANOAODSIM/130X_mcRun3_2022_realistic_postEE_v6-v3/2550000/bf22ed88-5a6d-414e-863f-1297ae25973e.root",
        "T2_DE_RWTH: davs://grid-webdav.physik.rwth-aachen.de:2889/store/mc/Run3Summer22EENanoAODv12/GluGlutoRadiontoHHto4B_M-1600_narrow_TuneCP5_13p6TeV_madgraph-pythia8/NANOAODSIM/130X_mcRun3_2022_realistic_postEE_v6-v3/2550000/bf22ed88-5a6d-414e-863f-1297ae25973e.root",
        "T0_CH_CERN_Tape: davs://eosctacms.cern.ch:8444//eos/ctacms/archive/cms/store/mc/Run3Summer22EENanoAODv12/GluGlutoRadiontoHHto4B_M-1600_narrow_TuneCP5_13p6TeV_madgraph-pythia8/NANOAODSIM/130X_mcRun3_2022_realistic_postEE_v6-v3/2550000/bf22ed88-5a6d-414e-863f-1297ae25973e.root",
        "T2_IN_TIFR: davs://se01.indiacms.res.in:443/dpm/indiacms.res.in/home/cms/store/mc/Run3Summer22EENanoAODv12/GluGlutoRadiontoHHto4B_M-1600_narrow_TuneCP5_13p6TeV_madgraph-pythia8/NANOAODSIM/130X_mcRun3_2022_realistic_postEE_v6-v3/2550000/bf22ed88-5a6d-414e-863f-1297ae25973e.root"
    ],
    "cms:/store/mc/Run3Summer22EENanoAODv12/GluGlutoRadiontoHHto4B_M-1600_narrow_TuneCP5_13p6TeV_madgraph-pythia8/NANOAODSIM/130X_mcRun3_2022_realistic_postEE_v6-v3/2550000/914b54cb-5e60-4583-93a6-ad30fe21cc73.root": [
        "T2_DE_DESY: davs://dcache-cms-webdav.desy.de:2880/pnfs/desy.de/cms/tier2/store/mc/Run3Summer22EENanoAODv12/GluGlutoRadiontoHHto4B_M-1600_narrow_TuneCP5_13p6TeV_madgraph-pythia8/NANOAODSIM/130X_mcRun3_2022_realistic_postEE_v6-v3/2550000/914b54cb-5e60-4583-93a6-ad30fe21cc73.root",
        "T2_BR_SPRACE: davs://osg-se.sprace.org.br:1094/store/mc/Run3Summer22EENanoAODv12/GluGlutoRadiontoHHto4B_M-1600_narrow_TuneCP5_13p6TeV_madgraph-pythia8/NANOAODSIM/130X_mcRun3_2022_realistic_postEE_v6-v3/2550000/914b54cb-5e60-4583-93a6-ad30fe21cc73.root",
        "T2_HU_Budapest: davs://grid143.kfki.hu:443/dpm/kfki.hu/home/cms/phedex/store/mc/Run3Summer22EENanoAODv12/GluGlutoRadiontoHHto4B_M-1600_narrow_TuneCP5_13p6TeV_madgraph-pythia8/NANOAODSIM/130X_mcRun3_2022_realistic_postEE_v6-v3/2550000/914b54cb-5e60-4583-93a6-ad30fe21cc73.root",
        "T2_US_Nebraska: davs://xrootd-local.unl.edu:1094/store/mc/Run3Summer22EENanoAODv12/GluGlutoRadiontoHHto4B_M-1600_narrow_TuneCP5_13p6TeV_madgraph-pythia8/NANOAODSIM/130X_mcRun3_2022_realistic_postEE_v6-v3/2550000/914b54cb-5e60-4583-93a6-ad30fe21cc73.root",
        "T2_DE_RWTH: davs://grid-webdav.physik.rwth-aachen.de:2889/store/mc/Run3Summer22EENanoAODv12/GluGlutoRadiontoHHto4B_M-1600_narrow_TuneCP5_13p6TeV_madgraph-pythia8/NANOAODSIM/130X_mcRun3_2022_realistic_postEE_v6-v3/2550000/914b54cb-5e60-4583-93a6-ad30fe21cc73.root",
        "T0_CH_CERN_Tape: davs://eosctacms.cern.ch:8444//eos/ctacms/archive/cms/store/mc/Run3Summer22EENanoAODv12/GluGlutoRadiontoHHto4B_M-1600_narrow_TuneCP5_13p6TeV_madgraph-pythia8/NANOAODSIM/130X_mcRun3_2022_realistic_postEE_v6-v3/2550000/914b54cb-5e60-4583-93a6-ad30fe21cc73.root",
        "T2_IN_TIFR: davs://se01.indiacms.res.in:443/dpm/indiacms.res.in/home/cms/store/mc/Run3Summer22EENanoAODv12/GluGlutoRadiontoHHto4B_M-1600_narrow_TuneCP5_13p6TeV_madgraph-pythia8/NANOAODSIM/130X_mcRun3_2022_realistic_postEE_v6-v3/2550000/914b54cb-5e60-4583-93a6-ad30fe21cc73.root"
    ],
    "cms:/store/mc/Run3Summer22EENanoAODv12/GluGlutoRadiontoHHto4B_M-1600_narrow_TuneCP5_13p6TeV_madgraph-pythia8/NANOAODSIM/130X_mcRun3_2022_realistic_postEE_v6-v3/2550000/06b9468c-7c1e-4c69-83ed-2d2e142e7798.root": [
        "T2_DE_DESY: davs://dcache-cms-webdav.desy.de:2880/pnfs/desy.de/cms/tier2/store/mc/Run3Summer22EENanoAODv12/GluGlutoRadiontoHHto4B_M-1600_narrow_TuneCP5_13p6TeV_madgraph-pythia8/NANOAODSIM/130X_mcRun3_2022_realistic_postEE_v6-v3/2550000/06b9468c-7c1e-4c69-83ed-2d2e142e7798.root",
        "T2_BR_SPRACE: davs://osg-se.sprace.org.br:1094/store/mc/Run3Summer22EENanoAODv12/GluGlutoRadiontoHHto4B_M-1600_narrow_TuneCP5_13p6TeV_madgraph-pythia8/NANOAODSIM/130X_mcRun3_2022_realistic_postEE_v6-v3/2550000/06b9468c-7c1e-4c69-83ed-2d2e142e7798.root",
        "T2_HU_Budapest: davs://grid143.kfki.hu:443/dpm/kfki.hu/home/cms/phedex/store/mc/Run3Summer22EENanoAODv12/GluGlutoRadiontoHHto4B_M-1600_narrow_TuneCP5_13p6TeV_madgraph-pythia8/NANOAODSIM/130X_mcRun3_2022_realistic_postEE_v6-v3/2550000/06b9468c-7c1e-4c69-83ed-2d2e142e7798.root",
        "T2_US_Nebraska: davs://xrootd-local.unl.edu:1094/store/mc/Run3Summer22EENanoAODv12/GluGlutoRadiontoHHto4B_M-1600_narrow_TuneCP5_13p6TeV_madgraph-pythia8/NANOAODSIM/130X_mcRun3_2022_realistic_postEE_v6-v3/2550000/06b9468c-7c1e-4c69-83ed-2d2e142e7798.root",
        "T2_DE_RWTH: davs://grid-webdav.physik.rwth-aachen.de:2889/store/mc/Run3Summer22EENanoAODv12/GluGlutoRadiontoHHto4B_M-1600_narrow_TuneCP5_13p6TeV_madgraph-pythia8/NANOAODSIM/130X_mcRun3_2022_realistic_postEE_v6-v3/2550000/06b9468c-7c1e-4c69-83ed-2d2e142e7798.root",
        "T0_CH_CERN_Tape: davs://eosctacms.cern.ch:8444//eos/ctacms/archive/cms/store/mc/Run3Summer22EENanoAODv12/GluGlutoRadiontoHHto4B_M-1600_narrow_TuneCP5_13p6TeV_madgraph-pythia8/NANOAODSIM/130X_mcRun3_2022_realistic_postEE_v6-v3/2550000/06b9468c-7c1e-4c69-83ed-2d2e142e7798.root",
        "T2_IN_TIFR: davs://se01.indiacms.res.in:443/dpm/indiacms.res.in/home/cms/store/mc/Run3Summer22EENanoAODv12/GluGlutoRadiontoHHto4B_M-1600_narrow_TuneCP5_13p6TeV_madgraph-pythia8/NANOAODSIM/130X_mcRun3_2022_realistic_postEE_v6-v3/2550000/06b9468c-7c1e-4c69-83ed-2d2e142e7798.root"
    ],
    "cms:/store/mc/Run3Summer22EENanoAODv12/GluGlutoRadiontoHHto4B_M-1600_narrow_TuneCP5_13p6TeV_madgraph-pythia8/NANOAODSIM/130X_mcRun3_2022_realistic_postEE_v6-v3/2550000/fc870bf0-6c1f-475a-aa1d-f8036ca7495f.root": [
        "T2_DE_DESY: davs://dcache-cms-webdav.desy.de:2880/pnfs/desy.de/cms/tier2/store/mc/Run3Summer22EENanoAODv12/GluGlutoRadiontoHHto4B_M-1600_narrow_TuneCP5_13p6TeV_madgraph-pythia8/NANOAODSIM/130X_mcRun3_2022_realistic_postEE_v6-v3/2550000/fc870bf0-6c1f-475a-aa1d-f8036ca7495f.root",
        "T2_BR_SPRACE: davs://osg-se.sprace.org.br:1094/store/mc/Run3Summer22EENanoAODv12/GluGlutoRadiontoHHto4B_M-1600_narrow_TuneCP5_13p6TeV_madgraph-pythia8/NANOAODSIM/130X_mcRun3_2022_realistic_postEE_v6-v3/2550000/fc870bf0-6c1f-475a-aa1d-f8036ca7495f.root",
        "T2_HU_Budapest: davs://grid143.kfki.hu:443/dpm/kfki.hu/home/cms/phedex/store/mc/Run3Summer22EENanoAODv12/GluGlutoRadiontoHHto4B_M-1600_narrow_TuneCP5_13p6TeV_madgraph-pythia8/NANOAODSIM/130X_mcRun3_2022_realistic_postEE_v6-v3/2550000/fc870bf0-6c1f-475a-aa1d-f8036ca7495f.root",
        "T2_US_Nebraska: davs://xrootd-local.unl.edu:1094/store/mc/Run3Summer22EENanoAODv12/GluGlutoRadiontoHHto4B_M-1600_narrow_TuneCP5_13p6TeV_madgraph-pythia8/NANOAODSIM/130X_mcRun3_2022_realistic_postEE_v6-v3/2550000/fc870bf0-6c1f-475a-aa1d-f8036ca7495f.root",
        "T2_DE_RWTH: davs://grid-webdav.physik.rwth-aachen.de:2889/store/mc/Run3Summer22EENanoAODv12/GluGlutoRadiontoHHto4B_M-1600_narrow_TuneCP5_13p6TeV_madgraph-pythia8/NANOAODSIM/130X_mcRun3_2022_realistic_postEE_v6-v3/2550000/fc870bf0-6c1f-475a-aa1d-f8036ca7495f.root",
        "T0_CH_CERN_Tape: davs://eosctacms.cern.ch:8444//eos/ctacms/archive/cms/store/mc/Run3Summer22EENanoAODv12/GluGlutoRadiontoHHto4B_M-1600_narrow_TuneCP5_13p6TeV_madgraph-pythia8/NANOAODSIM/130X_mcRun3_2022_realistic_postEE_v6-v3/2550000/fc870bf0-6c1f-475a-aa1d-f8036ca7495f.root",
        "T2_IN_TIFR: davs://se01.indiacms.res.in:443/dpm/indiacms.res.in/home/cms/store/mc/Run3Summer22EENanoAODv12/GluGlutoRadiontoHHto4B_M-1600_narrow_TuneCP5_13p6TeV_madgraph-pythia8/NANOAODSIM/130X_mcRun3_2022_realistic_postEE_v6-v3/2550000/fc870bf0-6c1f-475a-aa1d-f8036ca7495f.root"
    ],
    "cms:/store/mc/Run3Summer22EENanoAODv12/GluGlutoRadiontoHHto4B_M-1600_narrow_TuneCP5_13p6TeV_madgraph-pythia8/NANOAODSIM/130X_mcRun3_2022_realistic_postEE_v6-v3/2550000/a08b297e-2746-4505-824e-09528a9c10d9.root": [
        "T2_DE_DESY: davs://dcache-cms-webdav.desy.de:2880/pnfs/desy.de/cms/tier2/store/mc/Run3Summer22EENanoAODv12/GluGlutoRadiontoHHto4B_M-1600_narrow_TuneCP5_13p6TeV_madgraph-pythia8/NANOAODSIM/130X_mcRun3_2022_realistic_postEE_v6-v3/2550000/a08b297e-2746-4505-824e-09528a9c10d9.root",
        "T2_BR_SPRACE: davs://osg-se.sprace.org.br:1094/store/mc/Run3Summer22EENanoAODv12/GluGlutoRadiontoHHto4B_M-1600_narrow_TuneCP5_13p6TeV_madgraph-pythia8/NANOAODSIM/130X_mcRun3_2022_realistic_postEE_v6-v3/2550000/a08b297e-2746-4505-824e-09528a9c10d9.root",
        "T2_HU_Budapest: davs://grid143.kfki.hu:443/dpm/kfki.hu/home/cms/phedex/store/mc/Run3Summer22EENanoAODv12/GluGlutoRadiontoHHto4B_M-1600_narrow_TuneCP5_13p6TeV_madgraph-pythia8/NANOAODSIM/130X_mcRun3_2022_realistic_postEE_v6-v3/2550000/a08b297e-2746-4505-824e-09528a9c10d9.root",
        "T2_US_Nebraska: davs://xrootd-local.unl.edu:1094/store/mc/Run3Summer22EENanoAODv12/GluGlutoRadiontoHHto4B_M-1600_narrow_TuneCP5_13p6TeV_madgraph-pythia8/NANOAODSIM/130X_mcRun3_2022_realistic_postEE_v6-v3/2550000/a08b297e-2746-4505-824e-09528a9c10d9.root",
        "T2_DE_RWTH: davs://grid-webdav.physik.rwth-aachen.de:2889/store/mc/Run3Summer22EENanoAODv12/GluGlutoRadiontoHHto4B_M-1600_narrow_TuneCP5_13p6TeV_madgraph-pythia8/NANOAODSIM/130X_mcRun3_2022_realistic_postEE_v6-v3/2550000/a08b297e-2746-4505-824e-09528a9c10d9.root",
        "T0_CH_CERN_Tape: davs://eosctacms.cern.ch:8444//eos/ctacms/archive/cms/store/mc/Run3Summer22EENanoAODv12/GluGlutoRadiontoHHto4B_M-1600_narrow_TuneCP5_13p6TeV_madgraph-pythia8/NANOAODSIM/130X_mcRun3_2022_realistic_postEE_v6-v3/2550000/a08b297e-2746-4505-824e-09528a9c10d9.root",
        "T2_IN_TIFR: davs://se01.indiacms.res.in:443/dpm/indiacms.res.in/home/cms/store/mc/Run3Summer22EENanoAODv12/GluGlutoRadiontoHHto4B_M-1600_narrow_TuneCP5_13p6TeV_madgraph-pythia8/NANOAODSIM/130X_mcRun3_2022_realistic_postEE_v6-v3/2550000/a08b297e-2746-4505-824e-09528a9c10d9.root"
    ],
    "cms:/store/mc/Run3Summer22EENanoAODv12/GluGlutoRadiontoHHto4B_M-1600_narrow_TuneCP5_13p6TeV_madgraph-pythia8/NANOAODSIM/130X_mcRun3_2022_realistic_postEE_v6-v3/2550000/6f40d704-7902-4a57-b2b3-af3027a604d6.root": [
        "T2_DE_DESY: davs://dcache-cms-webdav.desy.de:2880/pnfs/desy.de/cms/tier2/store/mc/Run3Summer22EENanoAODv12/GluGlutoRadiontoHHto4B_M-1600_narrow_TuneCP5_13p6TeV_madgraph-pythia8/NANOAODSIM/130X_mcRun3_2022_realistic_postEE_v6-v3/2550000/6f40d704-7902-4a57-b2b3-af3027a604d6.root",
        "T2_BR_SPRACE: davs://osg-se.sprace.org.br:1094/store/mc/Run3Summer22EENanoAODv12/GluGlutoRadiontoHHto4B_M-1600_narrow_TuneCP5_13p6TeV_madgraph-pythia8/NANOAODSIM/130X_mcRun3_2022_realistic_postEE_v6-v3/2550000/6f40d704-7902-4a57-b2b3-af3027a604d6.root",
        "T2_HU_Budapest: davs://grid143.kfki.hu:443/dpm/kfki.hu/home/cms/phedex/store/mc/Run3Summer22EENanoAODv12/GluGlutoRadiontoHHto4B_M-1600_narrow_TuneCP5_13p6TeV_madgraph-pythia8/NANOAODSIM/130X_mcRun3_2022_realistic_postEE_v6-v3/2550000/6f40d704-7902-4a57-b2b3-af3027a604d6.root",
        "T2_US_Nebraska: davs://xrootd-local.unl.edu:1094/store/mc/Run3Summer22EENanoAODv12/GluGlutoRadiontoHHto4B_M-1600_narrow_TuneCP5_13p6TeV_madgraph-pythia8/NANOAODSIM/130X_mcRun3_2022_realistic_postEE_v6-v3/2550000/6f40d704-7902-4a57-b2b3-af3027a604d6.root",
        "T2_DE_RWTH: davs://grid-webdav.physik.rwth-aachen.de:2889/store/mc/Run3Summer22EENanoAODv12/GluGlutoRadiontoHHto4B_M-1600_narrow_TuneCP5_13p6TeV_madgraph-pythia8/NANOAODSIM/130X_mcRun3_2022_realistic_postEE_v6-v3/2550000/6f40d704-7902-4a57-b2b3-af3027a604d6.root",
        "T0_CH_CERN_Tape: davs://eosctacms.cern.ch:8444//eos/ctacms/archive/cms/store/mc/Run3Summer22EENanoAODv12/GluGlutoRadiontoHHto4B_M-1600_narrow_TuneCP5_13p6TeV_madgraph-pythia8/NANOAODSIM/130X_mcRun3_2022_realistic_postEE_v6-v3/2550000/6f40d704-7902-4a57-b2b3-af3027a604d6.root",
        "T2_IN_TIFR: davs://se01.indiacms.res.in:443/dpm/indiacms.res.in/home/cms/store/mc/Run3Summer22EENanoAODv12/GluGlutoRadiontoHHto4B_M-1600_narrow_TuneCP5_13p6TeV_madgraph-pythia8/NANOAODSIM/130X_mcRun3_2022_realistic_postEE_v6-v3/2550000/6f40d704-7902-4a57-b2b3-af3027a604d6.root"
    ],
    "cms:/store/mc/Run3Summer22EENanoAODv12/GluGlutoRadiontoHHto4B_M-1600_narrow_TuneCP5_13p6TeV_madgraph-pythia8/NANOAODSIM/130X_mcRun3_2022_realistic_postEE_v6-v3/2550000/0b71f8a9-f55e-43e0-bebd-3acd41cdd939.root": [
        "T2_DE_DESY: davs://dcache-cms-webdav.desy.de:2880/pnfs/desy.de/cms/tier2/store/mc/Run3Summer22EENanoAODv12/GluGlutoRadiontoHHto4B_M-1600_narrow_TuneCP5_13p6TeV_madgraph-pythia8/NANOAODSIM/130X_mcRun3_2022_realistic_postEE_v6-v3/2550000/0b71f8a9-f55e-43e0-bebd-3acd41cdd939.root",
        "T2_BR_SPRACE: davs://osg-se.sprace.org.br:1094/store/mc/Run3Summer22EENanoAODv12/GluGlutoRadiontoHHto4B_M-1600_narrow_TuneCP5_13p6TeV_madgraph-pythia8/NANOAODSIM/130X_mcRun3_2022_realistic_postEE_v6-v3/2550000/0b71f8a9-f55e-43e0-bebd-3acd41cdd939.root",
        "T2_HU_Budapest: davs://grid143.kfki.hu:443/dpm/kfki.hu/home/cms/phedex/store/mc/Run3Summer22EENanoAODv12/GluGlutoRadiontoHHto4B_M-1600_narrow_TuneCP5_13p6TeV_madgraph-pythia8/NANOAODSIM/130X_mcRun3_2022_realistic_postEE_v6-v3/2550000/0b71f8a9-f55e-43e0-bebd-3acd41cdd939.root",
        "T2_US_Nebraska: davs://xrootd-local.unl.edu:1094/store/mc/Run3Summer22EENanoAODv12/GluGlutoRadiontoHHto4B_M-1600_narrow_TuneCP5_13p6TeV_madgraph-pythia8/NANOAODSIM/130X_mcRun3_2022_realistic_postEE_v6-v3/2550000/0b71f8a9-f55e-43e0-bebd-3acd41cdd939.root",
        "T2_DE_RWTH: davs://grid-webdav.physik.rwth-aachen.de:2889/store/mc/Run3Summer22EENanoAODv12/GluGlutoRadiontoHHto4B_M-1600_narrow_TuneCP5_13p6TeV_madgraph-pythia8/NANOAODSIM/130X_mcRun3_2022_realistic_postEE_v6-v3/2550000/0b71f8a9-f55e-43e0-bebd-3acd41cdd939.root",
        "T0_CH_CERN_Tape: davs://eosctacms.cern.ch:8444//eos/ctacms/archive/cms/store/mc/Run3Summer22EENanoAODv12/GluGlutoRadiontoHHto4B_M-1600_narrow_TuneCP5_13p6TeV_madgraph-pythia8/NANOAODSIM/130X_mcRun3_2022_realistic_postEE_v6-v3/2550000/0b71f8a9-f55e-43e0-bebd-3acd41cdd939.root",
        "T2_IN_TIFR: davs://se01.indiacms.res.in:443/dpm/indiacms.res.in/home/cms/store/mc/Run3Summer22EENanoAODv12/GluGlutoRadiontoHHto4B_M-1600_narrow_TuneCP5_13p6TeV_madgraph-pythia8/NANOAODSIM/130X_mcRun3_2022_realistic_postEE_v6-v3/2550000/0b71f8a9-f55e-43e0-bebd-3acd41cdd939.root"
    ],
    "cms:/store/mc/Run3Summer22EENanoAODv12/GluGlutoRadiontoHHto4B_M-1600_narrow_TuneCP5_13p6TeV_madgraph-pythia8/NANOAODSIM/130X_mcRun3_2022_realistic_postEE_v6-v3/2550000/4a4ed7c6-0e18-4ee5-b717-f81ff718a195.root": [
        "T2_DE_DESY: davs://dcache-cms-webdav.desy.de:2880/pnfs/desy.de/cms/tier2/store/mc/Run3Summer22EENanoAODv12/GluGlutoRadiontoHHto4B_M-1600_narrow_TuneCP5_13p6TeV_madgraph-pythia8/NANOAODSIM/130X_mcRun3_2022_realistic_postEE_v6-v3/2550000/4a4ed7c6-0e18-4ee5-b717-f81ff718a195.root",
        "T2_BR_SPRACE: davs://osg-se.sprace.org.br:1094/store/mc/Run3Summer22EENanoAODv12/GluGlutoRadiontoHHto4B_M-1600_narrow_TuneCP5_13p6TeV_madgraph-pythia8/NANOAODSIM/130X_mcRun3_2022_realistic_postEE_v6-v3/2550000/4a4ed7c6-0e18-4ee5-b717-f81ff718a195.root",
        "T2_HU_Budapest: davs://grid143.kfki.hu:443/dpm/kfki.hu/home/cms/phedex/store/mc/Run3Summer22EENanoAODv12/GluGlutoRadiontoHHto4B_M-1600_narrow_TuneCP5_13p6TeV_madgraph-pythia8/NANOAODSIM/130X_mcRun3_2022_realistic_postEE_v6-v3/2550000/4a4ed7c6-0e18-4ee5-b717-f81ff718a195.root",
        "T2_US_Nebraska: davs://xrootd-local.unl.edu:1094/store/mc/Run3Summer22EENanoAODv12/GluGlutoRadiontoHHto4B_M-1600_narrow_TuneCP5_13p6TeV_madgraph-pythia8/NANOAODSIM/130X_mcRun3_2022_realistic_postEE_v6-v3/2550000/4a4ed7c6-0e18-4ee5-b717-f81ff718a195.root",
        "T2_DE_RWTH: davs://grid-webdav.physik.rwth-aachen.de:2889/store/mc/Run3Summer22EENanoAODv12/GluGlutoRadiontoHHto4B_M-1600_narrow_TuneCP5_13p6TeV_madgraph-pythia8/NANOAODSIM/130X_mcRun3_2022_realistic_postEE_v6-v3/2550000/4a4ed7c6-0e18-4ee5-b717-f81ff718a195.root",
        "T0_CH_CERN_Tape: davs://eosctacms.cern.ch:8444//eos/ctacms/archive/cms/store/mc/Run3Summer22EENanoAODv12/GluGlutoRadiontoHHto4B_M-1600_narrow_TuneCP5_13p6TeV_madgraph-pythia8/NANOAODSIM/130X_mcRun3_2022_realistic_postEE_v6-v3/2550000/4a4ed7c6-0e18-4ee5-b717-f81ff718a195.root",
        "T2_IN_TIFR: davs://se01.indiacms.res.in:443/dpm/indiacms.res.in/home/cms/store/mc/Run3Summer22EENanoAODv12/GluGlutoRadiontoHHto4B_M-1600_narrow_TuneCP5_13p6TeV_madgraph-pythia8/NANOAODSIM/130X_mcRun3_2022_realistic_postEE_v6-v3/2550000/4a4ed7c6-0e18-4ee5-b717-f81ff718a195.root"
    ],
    "cms:/store/mc/Run3Summer22EENanoAODv12/GluGlutoRadiontoHHto4B_M-1600_narrow_TuneCP5_13p6TeV_madgraph-pythia8/NANOAODSIM/130X_mcRun3_2022_realistic_postEE_v6-v3/2550000/646e63d8-c5d6-476e-b844-7dc78f845e67.root": [
        "T2_DE_DESY: davs://dcache-cms-webdav.desy.de:2880/pnfs/desy.de/cms/tier2/store/mc/Run3Summer22EENanoAODv12/GluGlutoRadiontoHHto4B_M-1600_narrow_TuneCP5_13p6TeV_madgraph-pythia8/NANOAODSIM/130X_mcRun3_2022_realistic_postEE_v6-v3/2550000/646e63d8-c5d6-476e-b844-7dc78f845e67.root",
        "T2_BR_SPRACE: davs://osg-se.sprace.org.br:1094/store/mc/Run3Summer22EENanoAODv12/GluGlutoRadiontoHHto4B_M-1600_narrow_TuneCP5_13p6TeV_madgraph-pythia8/NANOAODSIM/130X_mcRun3_2022_realistic_postEE_v6-v3/2550000/646e63d8-c5d6-476e-b844-7dc78f845e67.root",
        "T2_HU_Budapest: davs://grid143.kfki.hu:443/dpm/kfki.hu/home/cms/phedex/store/mc/Run3Summer22EENanoAODv12/GluGlutoRadiontoHHto4B_M-1600_narrow_TuneCP5_13p6TeV_madgraph-pythia8/NANOAODSIM/130X_mcRun3_2022_realistic_postEE_v6-v3/2550000/646e63d8-c5d6-476e-b844-7dc78f845e67.root",
        "T2_US_Nebraska: davs://xrootd-local.unl.edu:1094/store/mc/Run3Summer22EENanoAODv12/GluGlutoRadiontoHHto4B_M-1600_narrow_TuneCP5_13p6TeV_madgraph-pythia8/NANOAODSIM/130X_mcRun3_2022_realistic_postEE_v6-v3/2550000/646e63d8-c5d6-476e-b844-7dc78f845e67.root",
        "T2_DE_RWTH: davs://grid-webdav.physik.rwth-aachen.de:2889/store/mc/Run3Summer22EENanoAODv12/GluGlutoRadiontoHHto4B_M-1600_narrow_TuneCP5_13p6TeV_madgraph-pythia8/NANOAODSIM/130X_mcRun3_2022_realistic_postEE_v6-v3/2550000/646e63d8-c5d6-476e-b844-7dc78f845e67.root",
        "T0_CH_CERN_Tape: davs://eosctacms.cern.ch:8444//eos/ctacms/archive/cms/store/mc/Run3Summer22EENanoAODv12/GluGlutoRadiontoHHto4B_M-1600_narrow_TuneCP5_13p6TeV_madgraph-pythia8/NANOAODSIM/130X_mcRun3_2022_realistic_postEE_v6-v3/2550000/646e63d8-c5d6-476e-b844-7dc78f845e67.root",
        "T2_IN_TIFR: davs://se01.indiacms.res.in:443/dpm/indiacms.res.in/home/cms/store/mc/Run3Summer22EENanoAODv12/GluGlutoRadiontoHHto4B_M-1600_narrow_TuneCP5_13p6TeV_madgraph-pythia8/NANOAODSIM/130X_mcRun3_2022_realistic_postEE_v6-v3/2550000/646e63d8-c5d6-476e-b844-7dc78f845e67.root"
    ],
    "cms:/store/mc/Run3Summer22EENanoAODv12/GluGlutoRadiontoHHto4B_M-1600_narrow_TuneCP5_13p6TeV_madgraph-pythia8/NANOAODSIM/130X_mcRun3_2022_realistic_postEE_v6-v3/2550000/7a44f4e4-e3a4-43b1-aea4-71882e403de3.root": [
        "T2_DE_DESY: davs://dcache-cms-webdav.desy.de:2880/pnfs/desy.de/cms/tier2/store/mc/Run3Summer22EENanoAODv12/GluGlutoRadiontoHHto4B_M-1600_narrow_TuneCP5_13p6TeV_madgraph-pythia8/NANOAODSIM/130X_mcRun3_2022_realistic_postEE_v6-v3/2550000/7a44f4e4-e3a4-43b1-aea4-71882e403de3.root",
        "T2_BR_SPRACE: davs://osg-se.sprace.org.br:1094/store/mc/Run3Summer22EENanoAODv12/GluGlutoRadiontoHHto4B_M-1600_narrow_TuneCP5_13p6TeV_madgraph-pythia8/NANOAODSIM/130X_mcRun3_2022_realistic_postEE_v6-v3/2550000/7a44f4e4-e3a4-43b1-aea4-71882e403de3.root",
        "T2_HU_Budapest: davs://grid143.kfki.hu:443/dpm/kfki.hu/home/cms/phedex/store/mc/Run3Summer22EENanoAODv12/GluGlutoRadiontoHHto4B_M-1600_narrow_TuneCP5_13p6TeV_madgraph-pythia8/NANOAODSIM/130X_mcRun3_2022_realistic_postEE_v6-v3/2550000/7a44f4e4-e3a4-43b1-aea4-71882e403de3.root",
        "T2_US_Nebraska: davs://xrootd-local.unl.edu:1094/store/mc/Run3Summer22EENanoAODv12/GluGlutoRadiontoHHto4B_M-1600_narrow_TuneCP5_13p6TeV_madgraph-pythia8/NANOAODSIM/130X_mcRun3_2022_realistic_postEE_v6-v3/2550000/7a44f4e4-e3a4-43b1-aea4-71882e403de3.root",
        "T2_DE_RWTH: davs://grid-webdav.physik.rwth-aachen.de:2889/store/mc/Run3Summer22EENanoAODv12/GluGlutoRadiontoHHto4B_M-1600_narrow_TuneCP5_13p6TeV_madgraph-pythia8/NANOAODSIM/130X_mcRun3_2022_realistic_postEE_v6-v3/2550000/7a44f4e4-e3a4-43b1-aea4-71882e403de3.root",
        "T0_CH_CERN_Tape: davs://eosctacms.cern.ch:8444//eos/ctacms/archive/cms/store/mc/Run3Summer22EENanoAODv12/GluGlutoRadiontoHHto4B_M-1600_narrow_TuneCP5_13p6TeV_madgraph-pythia8/NANOAODSIM/130X_mcRun3_2022_realistic_postEE_v6-v3/2550000/7a44f4e4-e3a4-43b1-aea4-71882e403de3.root",
        "T2_IN_TIFR: davs://se01.indiacms.res.in:443/dpm/indiacms.res.in/home/cms/store/mc/Run3Summer22EENanoAODv12/GluGlutoRadiontoHHto4B_M-1600_narrow_TuneCP5_13p6TeV_madgraph-pythia8/NANOAODSIM/130X_mcRun3_2022_realistic_postEE_v6-v3/2550000/7a44f4e4-e3a4-43b1-aea4-71882e403de3.root"
    ]
}