+------------------------------------------------------------------------------------------------------------------------------------------------------------------------------------------------------------------------------+--------+-------------+------------+----------+
| SCOPE:NAME                                                                                                                                                                                                                   | GUID   | ADLER32     | FILESIZE   | EVENTS   |
|------------------------------------------------------------------------------------------------------------------------------------------------------------------------------------------------------------------------------+--------+-------------+------------+----------|
| cms:/store/mc/Run3Summer22EENanoAODv12/GluGlutoHHto4B_kl-2p45_kt-1p00_c2-0p00_LHEweights_TuneCP5_13p6TeV_powheg-pythia8/NANOAODSIM/130X_mcRun3_2022_realistic_postEE_v6-v2/2550000/08e69ecb-91c7-4a85-b19e-3c5e2bda8416.root | (None) | ad:dbf9c159 | 27.663 MB  |          |
| cms:/store/mc/Run3Summer22EENanoAODv12/GluGlutoHHto4B_kl-2p45_kt-1p00_c2-0p00_LHEweights_TuneCP5_13p6TeV_powheg-pythia8/NANOAODSIM/130X_mcRun3_2022_realistic_postEE_v6-v2/2550000/e2d5b5a5-3a8a-46d5-afee-c072a867e4ae.root | (None) | ad:f2ac093c | 25.979 MB  |          |
| cms:/store/mc/Run3Summer22EENanoAODv12/GluGlutoHHto4B_kl-2p45_kt-1p00_c2-0p00_LHEweights_TuneCP5_13p6TeV_powheg-pythia8/NANOAODSIM/130X_mcRun3_2022_realistic_postEE_v6-v2/2550000/47aebe12-c822-4b32-ba24-8386175e1bcd.root | (None) | ad:71e662bf | 55.170 MB  |          |
| cms:/store/mc/Run3Summer22EENanoAODv12/GluGlutoHHto4B_kl-2p45_kt-1p00_c2-0p00_LHEweights_TuneCP5_13p6TeV_powheg-pythia8/NANOAODSIM/130X_mcRun3_2022_realistic_postEE_v6-v2/2550000/863d6c7f-2b45-4544-a1b0-3f8a080cce7b.root | (None) | ad:98922a61 | 21.508 MB  |          |
| cms:/store/mc/Run3Summer22EENanoAODv12/GluGlutoHHto4B_kl-2p45_kt-1p00_c2-0p00_LHEweights_TuneCP5_13p6TeV_powheg-pythia8/NANOAODSIM/130X_mcRun3_2022_realistic_postEE_v6-v2/2550000/1387c0c9-308d-4e7b-9ce1-6fc1213dc88d.root | (None) | ad:a1fe79ac | 3.175 MB   |          |
| cms:/store/mc/Run3Summer22EENanoAODv12/GluGlutoHHto4B_kl-2p45_kt-1p00_c2-0p00_LHEweights_TuneCP5_13p6TeV_powheg-pythia8/NANOAODSIM/130X_mcRun3_2022_realistic_postEE_v6-v2/2550000/3116c210-0f91-4755-80d0-089a9bfbc2f9.root | (None) | ad:2ec9d1bd | 3.351 MB   |          |
| cms:/store/mc/Run3Summer22EENanoAODv12/GluGlutoHHto4B_kl-2p45_kt-1p00_c2-0p00_LHEweights_TuneCP5_13p6TeV_powheg-pythia8/NANOAODSIM/130X_mcRun3_2022_realistic_postEE_v6-v2/2550000/72db24c1-324f-4d66-b468-3d6a82d2c539.root | (None) | ad:fe1ea30f | 14.931 MB  |          |
| cms:/store/mc/Run3Summer22EENanoAODv12/GluGlutoHHto4B_kl-2p45_kt-1p00_c2-0p00_LHEweights_TuneCP5_13p6TeV_powheg-pythia8/NANOAODSIM/130X_mcRun3_2022_realistic_postEE_v6-v2/2550000/719ad485-79d0-4e85-be40-72dd71520fbb.root | (None) | ad:acdff9b6 | 24.903 MB  |          |
| cms:/store/mc/Run3Summer22EENanoAODv12/GluGlutoHHto4B_kl-2p45_kt-1p00_c2-0p00_LHEweights_TuneCP5_13p6TeV_powheg-pythia8/NANOAODSIM/130X_mcRun3_2022_realistic_postEE_v6-v2/2550000/98f5330c-248c-4a3a-872f-3a2ac92ea3ca.root | (None) | ad:c07fdb99 | 99.883 MB  |          |
| cms:/store/mc/Run3Summer22EENanoAODv12/GluGlutoHHto4B_kl-2p45_kt-1p00_c2-0p00_LHEweights_TuneCP5_13p6TeV_powheg-pythia8/NANOAODSIM/130X_mcRun3_2022_realistic_postEE_v6-v2/2550000/c52386f1-1bd5-4797-8894-993519563557.root | (None) | ad:1331ec93 | 3.902 MB   |          |
| cms:/store/mc/Run3Summer22EENanoAODv12/GluGlutoHHto4B_kl-2p45_kt-1p00_c2-0p00_LHEweights_TuneCP5_13p6TeV_powheg-pythia8/NANOAODSIM/130X_mcRun3_2022_realistic_postEE_v6-v2/2550000/661cab3a-62e9-46c5-b1e1-b6dd6b8fc9fe.root | (None) | ad:f69d845d | 17.519 MB  |          |
| cms:/store/mc/Run3Summer22EENanoAODv12/GluGlutoHHto4B_kl-2p45_kt-1p00_c2-0p00_LHEweights_TuneCP5_13p6TeV_powheg-pythia8/NANOAODSIM/130X_mcRun3_2022_realistic_postEE_v6-v2/2550000/0a3872fc-c936-42f9-b4ec-191aa96241bc.root | (None) | ad:c68fb86e | 6.426 MB   |          |
| cms:/store/mc/Run3Summer22EENanoAODv12/GluGlutoHHto4B_kl-2p45_kt-1p00_c2-0p00_LHEweights_TuneCP5_13p6TeV_powheg-pythia8/NANOAODSIM/130X_mcRun3_2022_realistic_postEE_v6-v2/2550000/78e08118-5c94-480c-9763-c39940dfc50b.root | (None) | ad:c5811281 | 12.524 MB  |          |
| cms:/store/mc/Run3Summer22EENanoAODv12/GluGlutoHHto4B_kl-2p45_kt-1p00_c2-0p00_LHEweights_TuneCP5_13p6TeV_powheg-pythia8/NANOAODSIM/130X_mcRun3_2022_realistic_postEE_v6-v2/2550000/d8c1c280-4d3f-4e69-b50b-8f183243354e.root | (None) | ad:dfe7ea8d | 2.959 MB   |          |
| cms:/store/mc/Run3Summer22EENanoAODv12/GluGlutoHHto4B_kl-2p45_kt-1p00_c2-0p00_LHEweights_TuneCP5_13p6TeV_powheg-pythia8/NANOAODSIM/130X_mcRun3_2022_realistic_postEE_v6-v2/2550000/444ce284-3552-4894-ba84-04e39904b48d.root | (None) | ad:163e3c67 | 10.061 MB  |          |
| cms:/store/mc/Run3Summer22EENanoAODv12/GluGlutoHHto4B_kl-2p45_kt-1p00_c2-0p00_LHEweights_TuneCP5_13p6TeV_powheg-pythia8/NANOAODSIM/130X_mcRun3_2022_realistic_postEE_v6-v2/2550000/51a2ef5d-4eb8-47da-80e5-98265f3e183f.root | (None) | ad:d61b1c93 | 41.875 MB  |          |
| cms:/store/mc/Run3Summer22EENanoAODv12/GluGlutoHHto4B_kl-2p45_kt-1p00_c2-0p00_LHEweights_TuneCP5_13p6TeV_powheg-pythia8/NANOAODSIM/130X_mcRun3_2022_realistic_postEE_v6-v2/2550000/858dbed1-da2d-406c-a6cc-7ff07fc87e34.root | (None) | ad:49ad60f0 | 58.632 MB  |          |
| cms:/store/mc/Run3Summer22EENanoAODv12/GluGlutoHHto4B_kl-2p45_kt-1p00_c2-0p00_LHEweights_TuneCP5_13p6TeV_powheg-pythia8/NANOAODSIM/130X_mcRun3_2022_realistic_postEE_v6-v2/2550000/a04c5019-9a00-43d0-a4e0-c0f2ed35e982.root | (None) | ad:d9911b96 | 50.192 MB  |          |
| cms:/store/mc/Run3Summer22EENanoAODv12/GluGlutoHHto4B_kl-2p45_kt-1p00_c2-0p00_LHEweights_TuneCP5_13p6TeV_powheg-pythia8/NANOAODSIM/130X_mcRun3_2022_realistic_postEE_v6-v2/2550000/d05930d5-637b-413a-ad1d-b0ad358e377f.root | (None) | ad:0ff9cd02 | 109.238 MB |          |
| cms:/store/mc/Run3Summer22EENanoAODv12/GluGlutoHHto4B_kl-2p45_kt-1p00_c2-0p00_LHEweights_TuneCP5_13p6TeV_powheg-pythia8/NANOAODSIM/130X_mcRun3_2022_realistic_postEE_v6-v2/2550000/581d16ff-3815-41c9-8157-a0bbfcf3e996.root | (None) | ad:a50c83d0 | 57.306 MB  |          |
| cms:/store/mc/Run3Summer22EENanoAODv12/GluGlutoHHto4B_kl-2p45_kt-1p00_c2-0p00_LHEweights_TuneCP5_13p6TeV_powheg-pythia8/NANOAODSIM/130X_mcRun3_2022_realistic_postEE_v6-v2/2550000/8908f0c2-ee8c-48b1-8ab0-485dc4525358.root | (None) | ad:0817fd8e | 15.258 MB  |          |
| cms:/store/mc/Run3Summer22EENanoAODv12/GluGlutoHHto4B_kl-2p45_kt-1p00_c2-0p00_LHEweights_TuneCP5_13p6TeV_powheg-pythia8/NANOAODSIM/130X_mcRun3_2022_realistic_postEE_v6-v2/2550000/241b9de5-c851-493d-ae84-573e559e2f1d.root | (None) | ad:9de66de1 | 41.137 MB  |          |
| cms:/store/mc/Run3Summer22EENanoAODv12/GluGlutoHHto4B_kl-2p45_kt-1p00_c2-0p00_LHEweights_TuneCP5_13p6TeV_powheg-pythia8/NANOAODSIM/130X_mcRun3_2022_realistic_postEE_v6-v2/2550000/dd4724b0-134e-4ba4-94aa-6776bf4b8f25.root | (None) | ad:590e09e1 | 3.170 MB   |          |
| cms:/store/mc/Run3Summer22EENanoAODv12/GluGlutoHHto4B_kl-2p45_kt-1p00_c2-0p00_LHEweights_TuneCP5_13p6TeV_powheg-pythia8/NANOAODSIM/130X_mcRun3_2022_realistic_postEE_v6-v2/2550000/5c09631f-ce68-4d05-b97b-752423dcd055.root | (None) | ad:02018818 | 83.961 MB  |          |
| cms:/store/mc/Run3Summer22EENanoAODv12/GluGlutoHHto4B_kl-2p45_kt-1p00_c2-0p00_LHEweights_TuneCP5_13p6TeV_powheg-pythia8/NANOAODSIM/130X_mcRun3_2022_realistic_postEE_v6-v2/2550000/a83d8333-7877-43c0-a835-2de3b80edf7a.root | (None) | ad:168360bb | 58.461 MB  |          |
| cms:/store/mc/Run3Summer22EENanoAODv12/GluGlutoHHto4B_kl-2p45_kt-1p00_c2-0p00_LHEweights_TuneCP5_13p6TeV_powheg-pythia8/NANOAODSIM/130X_mcRun3_2022_realistic_postEE_v6-v2/2550000/ef71c745-3d4e-46e1-b2f9-eb204290af11.root | (None) | ad:57a03776 | 4.950 MB   |          |
| cms:/store/mc/Run3Summer22EENanoAODv12/GluGlutoHHto4B_kl-2p45_kt-1p00_c2-0p00_LHEweights_TuneCP5_13p6TeV_powheg-pythia8/NANOAODSIM/130X_mcRun3_2022_realistic_postEE_v6-v2/2550000/fff67a03-7087-4bba-9c40-fd1a345d6b75.root | (None) | ad:60cb6fb2 | 19.826 MB  |          |
| cms:/store/mc/Run3Summer22EENanoAODv12/GluGlutoHHto4B_kl-2p45_kt-1p00_c2-0p00_LHEweights_TuneCP5_13p6TeV_powheg-pythia8/NANOAODSIM/130X_mcRun3_2022_realistic_postEE_v6-v2/2550000/9c2959c1-a392-4650-a002-d5dbed8d439a.root | (None) | ad:4db9b615 | 16.281 MB  |          |
| cms:/store/mc/Run3Summer22EENanoAODv12/GluGlutoHHto4B_kl-2p45_kt-1p00_c2-0p00_LHEweights_TuneCP5_13p6TeV_powheg-pythia8/NANOAODSIM/130X_mcRun3_2022_realistic_postEE_v6-v2/2550000/ff29b05c-8533-4e4e-a360-500e515217d5.root | (None) | ad:b4cf39fa | 25.369 MB  |          |
| cms:/store/mc/Run3Summer22EENanoAODv12/GluGlutoHHto4B_kl-2p45_kt-1p00_c2-0p00_LHEweights_TuneCP5_13p6TeV_powheg-pythia8/NANOAODSIM/130X_mcRun3_2022_realistic_postEE_v6-v2/2550000/559ebdc4-8d60-40c8-8732-1284ce305d0c.root | (None) | ad:b1b973ee | 3.166 MB   |          |
| cms:/store/mc/Run3Summer22EENanoAODv12/GluGlutoHHto4B_kl-2p45_kt-1p00_c2-0p00_LHEweights_TuneCP5_13p6TeV_powheg-pythia8/NANOAODSIM/130X_mcRun3_2022_realistic_postEE_v6-v2/2550000/80932a74-14a4-412e-98e6-dc0556b6da5d.root | (None) | ad:3578f85a | 11.837 MB  |          |
| cms:/store/mc/Run3Summer22EENanoAODv12/GluGlutoHHto4B_kl-2p45_kt-1p00_c2-0p00_LHEweights_TuneCP5_13p6TeV_powheg-pythia8/NANOAODSIM/130X_mcRun3_2022_realistic_postEE_v6-v2/2550000/9c69c209-cfe7-41e4-8b6b-4711d39b6f61.root | (None) | ad:d02353a4 | 3.346 MB   |          |
| cms:/store/mc/Run3Summer22EENanoAODv12/GluGlutoHHto4B_kl-2p45_kt-1p00_c2-0p00_LHEweights_TuneCP5_13p6TeV_powheg-pythia8/NANOAODSIM/130X_mcRun3_2022_realistic_postEE_v6-v2/2550000/67e6d6eb-1d11-45b5-b291-e8cc27d154e8.root | (None) | ad:16c95ae6 | 109.000 MB |          |
| cms:/store/mc/Run3Summer22EENanoAODv12/GluGlutoHHto4B_kl-2p45_kt-1p00_c2-0p00_LHEweights_TuneCP5_13p6TeV_powheg-pythia8/NANOAODSIM/130X_mcRun3_2022_realistic_postEE_v6-v2/2550000/b17e5355-c164-4196-b39c-574a1eaeeb42.root | (None) | ad:4cff59f4 | 35.462 MB  |          |
| cms:/store/mc/Run3Summer22EENanoAODv12/GluGlutoHHto4B_kl-2p45_kt-1p00_c2-0p00_LHEweights_TuneCP5_13p6TeV_powheg-pythia8/NANOAODSIM/130X_mcRun3_2022_realistic_postEE_v6-v2/2550000/10c11726-7a2c-4a60-803d-dbb9b606ceb3.root | (None) | ad:11b2db85 | 80.174 MB  |          |
| cms:/store/mc/Run3Summer22EENanoAODv12/GluGlutoHHto4B_kl-2p45_kt-1p00_c2-0p00_LHEweights_TuneCP5_13p6TeV_powheg-pythia8/NANOAODSIM/130X_mcRun3_2022_realistic_postEE_v6-v2/2550000/3e172b09-f68c-4126-bd0d-e28fde2b8cd5.root | (None) | ad:0ede95a8 | 110.114 MB |          |
| cms:/store/mc/Run3Summer22EENanoAODv12/GluGlutoHHto4B_kl-2p45_kt-1p00_c2-0p00_LHEweights_TuneCP5_13p6TeV_powheg-pythia8/NANOAODSIM/130X_mcRun3_2022_realistic_postEE_v6-v2/2550000/8cf26904-4aa3-45a1-ba5a-5af552ae4b87.root | (None) | ad:2ee8b784 | 29.307 MB  |          |
| cms:/store/mc/Run3Summer22EENanoAODv12/GluGlutoHHto4B_kl-2p45_kt-1p00_c2-0p00_LHEweights_TuneCP5_13p6TeV_powheg-pythia8/NANOAODSIM/130X_mcRun3_2022_realistic_postEE_v6-v2/2550000/4eaa5b6d-ac39-4b85-b157-e21088e16188.root | (None) | ad:165ae435 | 34.020 MB  |          |
| cms:/store/mc/Run3Summer22EENanoAODv12/GluGlutoHHto4B_kl-2p45_kt-1p00_c2-0p00_LHEweights_TuneCP5_13p6TeV_powheg-pythia8/NANOAODSIM/130X_mcRun3_2022_realistic_postEE_v6-v2/2550000/cb6604e2-40f4-41f5-83e0-364c041fc37f.root | (None) | ad:e3695fa0 | 31.904 MB  |          |
| cms:/store/mc/Run3Summer22EENanoAODv12/GluGlutoHHto4B_kl-2p45_kt-1p00_c2-0p00_LHEweights_TuneCP5_13p6TeV_powheg-pythia8/NANOAODSIM/130X_mcRun3_2022_realistic_postEE_v6-v2/2550000/6a0ec768-7a7b-4e4e-8e7a-03c8b8b26877.root | (None) | ad:c84d1497 | 2.956 MB   |          |
| cms:/store/mc/Run3Summer22EENanoAODv12/GluGlutoHHto4B_kl-2p45_kt-1p00_c2-0p00_LHEweights_TuneCP5_13p6TeV_powheg-pythia8/NANOAODSIM/130X_mcRun3_2022_realistic_postEE_v6-v2/2550000/4ce82cd9-728c-452c-9e19-83cc297913a6.root | (None) | ad:bded8141 | 4.116 MB   |          |
| cms:/store/mc/Run3Summer22EENanoAODv12/GluGlutoHHto4B_kl-2p45_kt-1p00_c2-0p00_LHEweights_TuneCP5_13p6TeV_powheg-pythia8/NANOAODSIM/130X_mcRun3_2022_realistic_postEE_v6-v2/2550000/a6afa78c-5bbd-491e-b8fc-482b8bdde0bd.root | (None) | ad:b9cfbf36 | 5.701 MB   |          |
| cms:/store/mc/Run3Summer22EENanoAODv12/GluGlutoHHto4B_kl-2p45_kt-1p00_c2-0p00_LHEweights_TuneCP5_13p6TeV_powheg-pythia8/NANOAODSIM/130X_mcRun3_2022_realistic_postEE_v6-v2/2550000/ba01000c-3f79-4bec-9c4b-28732a1c6b1b.root | (None) | ad:475b5814 | 4.282 MB   |          |
| cms:/store/mc/Run3Summer22EENanoAODv12/GluGlutoHHto4B_kl-2p45_kt-1p00_c2-0p00_LHEweights_TuneCP5_13p6TeV_powheg-pythia8/NANOAODSIM/130X_mcRun3_2022_realistic_postEE_v6-v2/2550000/9db0bd6a-c4a0-4639-a8ee-ad9aef723dd4.root | (None) | ad:e4b78e83 | 55.799 MB  |          |
| cms:/store/mc/Run3Summer22EENanoAODv12/GluGlutoHHto4B_kl-2p45_kt-1p00_c2-0p00_LHEweights_TuneCP5_13p6TeV_powheg-pythia8/NANOAODSIM/130X_mcRun3_2022_realistic_postEE_v6-v2/2550000/a75bfec0-da25-43b0-810e-fe8decee10fd.root | (None) | ad:6eda0782 | 28.116 MB  |          |
| cms:/store/mc/Run3Summer22EENanoAODv12/GluGlutoHHto4B_kl-2p45_kt-1p00_c2-0p00_LHEweights_TuneCP5_13p6TeV_powheg-pythia8/NANOAODSIM/130X_mcRun3_2022_realistic_postEE_v6-v2/2550000/c80ec083-d262-410b-b011-9e9130012ce5.root | (None) | ad:6410b438 | 3.543 MB   |          |
| cms:/store/mc/Run3Summer22EENanoAODv12/GluGlutoHHto4B_kl-2p45_kt-1p00_c2-0p00_LHEweights_TuneCP5_13p6TeV_powheg-pythia8/NANOAODSIM/130X_mcRun3_2022_realistic_postEE_v6-v2/2550000/480d8764-6c44-4b67-bca4-76fcb9dfa62a.root | (None) | ad:354f29b9 | 14.558 MB  |          |
| cms:/store/mc/Run3Summer22EENanoAODv12/GluGlutoHHto4B_kl-2p45_kt-1p00_c2-0p00_LHEweights_TuneCP5_13p6TeV_powheg-pythia8/NANOAODSIM/130X_mcRun3_2022_realistic_postEE_v6-v2/2550000/7114caaa-76da-4f1f-b555-1db50fb963b5.root | (None) | ad:71a42259 | 8.375 MB   |          |
| cms:/store/mc/Run3Summer22EENanoAODv12/GluGlutoHHto4B_kl-2p45_kt-1p00_c2-0p00_LHEweights_TuneCP5_13p6TeV_powheg-pythia8/NANOAODSIM/130X_mcRun3_2022_realistic_postEE_v6-v2/2550000/17d81b4a-ddf7-42f7-be84-6c98dc0e7f07.root | (None) | ad:4f7d37be | 6.966 MB   |          |
| cms:/store/mc/Run3Summer22EENanoAODv12/GluGlutoHHto4B_kl-2p45_kt-1p00_c2-0p00_LHEweights_TuneCP5_13p6TeV_powheg-pythia8/NANOAODSIM/130X_mcRun3_2022_realistic_postEE_v6-v2/2550000/48b6c468-d64b-4083-a65e-10b9d2eee75e.root | (None) | ad:53b44a4b | 4.479 MB   |          |
| cms:/store/mc/Run3Summer22EENanoAODv12/GluGlutoHHto4B_kl-2p45_kt-1p00_c2-0p00_LHEweights_TuneCP5_13p6TeV_powheg-pythia8/NANOAODSIM/130X_mcRun3_2022_realistic_postEE_v6-v2/2550000/f40348d5-a831-4398-8d88-1a6e6fb406a2.root | (None) | ad:128cf31c | 10.342 MB  |          |
| cms:/store/mc/Run3Summer22EENanoAODv12/GluGlutoHHto4B_kl-2p45_kt-1p00_c2-0p00_LHEweights_TuneCP5_13p6TeV_powheg-pythia8/NANOAODSIM/130X_mcRun3_2022_realistic_postEE_v6-v2/2550000/f8addc9b-9ad1-4691-8058-65078fec19a9.root | (None) | ad:0b0100c5 | 6.292 MB   |          |
| cms:/store/mc/Run3Summer22EENanoAODv12/GluGlutoHHto4B_kl-2p45_kt-1p00_c2-0p00_LHEweights_TuneCP5_13p6TeV_powheg-pythia8/NANOAODSIM/130X_mcRun3_2022_realistic_postEE_v6-v2/2550000/66379d28-8cd0-473f-bd45-ad0e88b91394.root | (None) | ad:f7410951 | 3.176 MB   |          |
| cms:/store/mc/Run3Summer22EENanoAODv12/GluGlutoHHto4B_kl-2p45_kt-1p00_c2-0p00_LHEweights_TuneCP5_13p6TeV_powheg-pythia8/NANOAODSIM/130X_mcRun3_2022_realistic_postEE_v6-v2/2550000/fbe901a5-3415-48b6-ae5b-7dba7dec080a.root | (None) | ad:7c27c9cc | 2.968 MB   |          |
| cms:/store/mc/Run3Summer22EENanoAODv12/GluGlutoHHto4B_kl-2p45_kt-1p00_c2-0p00_LHEweights_TuneCP5_13p6TeV_powheg-pythia8/NANOAODSIM/130X_mcRun3_2022_realistic_postEE_v6-v2/2550000/0b588327-505a-43e8-bffa-9dd71272b315.root | (None) | ad:0d87958e | 9.854 MB   |          |
| cms:/store/mc/Run3Summer22EENanoAODv12/GluGlutoHHto4B_kl-2p45_kt-1p00_c2-0p00_LHEweights_TuneCP5_13p6TeV_powheg-pythia8/NANOAODSIM/130X_mcRun3_2022_realistic_postEE_v6-v2/2550000/f95283c6-d772-4b14-bcd5-544eea7da6e4.root | (None) | ad:3e9e83b7 | 3.539 MB   |          |
| cms:/store/mc/Run3Summer22EENanoAODv12/GluGlutoHHto4B_kl-2p45_kt-1p00_c2-0p00_LHEweights_TuneCP5_13p6TeV_powheg-pythia8/NANOAODSIM/130X_mcRun3_2022_realistic_postEE_v6-v2/2550000/0f02a4b2-a543-4216-8b5b-3ffd2612f480.root | (None) | ad:a596c30b | 4.825 MB   |          |
| cms:/store/mc/Run3Summer22EENanoAODv12/GluGlutoHHto4B_kl-2p45_kt-1p00_c2-0p00_LHEweights_TuneCP5_13p6TeV_powheg-pythia8/NANOAODSIM/130X_mcRun3_2022_realistic_postEE_v6-v2/2550000/c3efa97a-93e0-4a4c-b8a7-c16700fe4e4a.root | (None) | ad:c473bedc | 4.116 MB   |          |
| cms:/store/mc/Run3Summer22EENanoAODv12/GluGlutoHHto4B_kl-2p45_kt-1p00_c2-0p00_LHEweights_TuneCP5_13p6TeV_powheg-pythia8/NANOAODSIM/130X_mcRun3_2022_realistic_postEE_v6-v2/2550000/033d7550-a531-44b4-ba8a-5db8d330c3ed.root | (None) | ad:8aabcbc1 | 68.619 MB  |          |
| cms:/store/mc/Run3Summer22EENanoAODv12/GluGlutoHHto4B_kl-2p45_kt-1p00_c2-0p00_LHEweights_TuneCP5_13p6TeV_powheg-pythia8/NANOAODSIM/130X_mcRun3_2022_realistic_postEE_v6-v2/2550000/6f4c20ad-eda8-4f0b-9be0-a4b233f8df79.root | (None) | ad:54fbb124 | 64.413 MB  |          |
| cms:/store/mc/Run3Summer22EENanoAODv12/GluGlutoHHto4B_kl-2p45_kt-1p00_c2-0p00_LHEweights_TuneCP5_13p6TeV_powheg-pythia8/NANOAODSIM/130X_mcRun3_2022_realistic_postEE_v6-v2/2550000/4d0d776d-45c9-48a7-8e66-429800f004cc.root | (None) | ad:b7b41f6a | 3.172 MB   |          |
| cms:/store/mc/Run3Summer22EENanoAODv12/GluGlutoHHto4B_kl-2p45_kt-1p00_c2-0p00_LHEweights_TuneCP5_13p6TeV_powheg-pythia8/NANOAODSIM/130X_mcRun3_2022_realistic_postEE_v6-v2/2550000/ab081c30-09e1-4d62-ab49-09574e6d0338.root | (None) | ad:1a2f5f5a | 110.938 MB |          |
| cms:/store/mc/Run3Summer22EENanoAODv12/GluGlutoHHto4B_kl-2p45_kt-1p00_c2-0p00_LHEweights_TuneCP5_13p6TeV_powheg-pythia8/NANOAODSIM/130X_mcRun3_2022_realistic_postEE_v6-v2/2550000/c0ac3ee4-a16d-4bc2-8524-14e81ac1d1ff.root | (None) | ad:14494601 | 108.800 MB |          |
| cms:/store/mc/Run3Summer22EENanoAODv12/GluGlutoHHto4B_kl-2p45_kt-1p00_c2-0p00_LHEweights_TuneCP5_13p6TeV_powheg-pythia8/NANOAODSIM/130X_mcRun3_2022_realistic_postEE_v6-v2/2550000/ccda8335-a100-473f-b14b-3b94a187e96a.root | (None) | ad:504d58f0 | 39.085 MB  |          |
| cms:/store/mc/Run3Summer22EENanoAODv12/GluGlutoHHto4B_kl-2p45_kt-1p00_c2-0p00_LHEweights_TuneCP5_13p6TeV_powheg-pythia8/NANOAODSIM/130X_mcRun3_2022_realistic_postEE_v6-v2/2550000/cbdd92ee-cada-4364-9e88-f6e7e2332632.root | (None) | ad:a976d799 | 3.163 MB   |          |
| cms:/store/mc/Run3Summer22EENanoAODv12/GluGlutoHHto4B_kl-2p45_kt-1p00_c2-0p00_LHEweights_TuneCP5_13p6TeV_powheg-pythia8/NANOAODSIM/130X_mcRun3_2022_realistic_postEE_v6-v2/2550000/ea02f71f-ecce-468b-a1a9-337b24678533.root | (None) | ad:74ebd8aa | 11.083 MB  |          |
| cms:/store/mc/Run3Summer22EENanoAODv12/GluGlutoHHto4B_kl-2p45_kt-1p00_c2-0p00_LHEweights_TuneCP5_13p6TeV_powheg-pythia8/NANOAODSIM/130X_mcRun3_2022_realistic_postEE_v6-v2/2550000/fc16cb41-4104-4ef9-a550-cfb8187a495b.root | (None) | ad:56efd0a5 | 14.884 MB  |          |
| cms:/store/mc/Run3Summer22EENanoAODv12/GluGlutoHHto4B_kl-2p45_kt-1p00_c2-0p00_LHEweights_TuneCP5_13p6TeV_powheg-pythia8/NANOAODSIM/130X_mcRun3_2022_realistic_postEE_v6-v2/2550000/fe74691a-dac9-49ea-9ad9-cb1e148bc992.root | (None) | ad:6e67c490 | 2.959 MB   |          |
| cms:/store/mc/Run3Summer22EENanoAODv12/GluGlutoHHto4B_kl-2p45_kt-1p00_c2-0p00_LHEweights_TuneCP5_13p6TeV_powheg-pythia8/NANOAODSIM/130X_mcRun3_2022_realistic_postEE_v6-v2/2550000/98e8351a-5226-40b1-8a18-1975c0e92431.root | (None) | ad:37649056 | 43.611 MB  |          |
| cms:/store/mc/Run3Summer22EENanoAODv12/GluGlutoHHto4B_kl-2p45_kt-1p00_c2-0p00_LHEweights_TuneCP5_13p6TeV_powheg-pythia8/NANOAODSIM/130X_mcRun3_2022_realistic_postEE_v6-v2/2550000/a689c66d-d177-4120-a54e-c6c352dd666f.root | (None) | ad:c47b50dc | 58.459 MB  |          |
| cms:/store/mc/Run3Summer22EENanoAODv12/GluGlutoHHto4B_kl-2p45_kt-1p00_c2-0p00_LHEweights_TuneCP5_13p6TeV_powheg-pythia8/NANOAODSIM/130X_mcRun3_2022_realistic_postEE_v6-v2/2550000/1fb2243e-1c17-4396-88f2-8f7b32006eef.root | (None) | ad:d3bfac0b | 2.960 MB   |          |
| cms:/store/mc/Run3Summer22EENanoAODv12/GluGlutoHHto4B_kl-2p45_kt-1p00_c2-0p00_LHEweights_TuneCP5_13p6TeV_powheg-pythia8/NANOAODSIM/130X_mcRun3_2022_realistic_postEE_v6-v2/2550000/8eccba18-b945-4e18-96e0-2acf79eb6dc1.root | (None) | ad:05e5611f | 33.298 MB  |          |
| cms:/store/mc/Run3Summer22EENanoAODv12/GluGlutoHHto4B_kl-2p45_kt-1p00_c2-0p00_LHEweights_TuneCP5_13p6TeV_powheg-pythia8/NANOAODSIM/130X_mcRun3_2022_realistic_postEE_v6-v2/2550000/d7b4ae39-50ca-488c-a814-2822b0bef8fe.root | (None) | ad:9f757619 | 29.005 MB  |          |
| cms:/store/mc/Run3Summer22EENanoAODv12/GluGlutoHHto4B_kl-2p45_kt-1p00_c2-0p00_LHEweights_TuneCP5_13p6TeV_powheg-pythia8/NANOAODSIM/130X_mcRun3_2022_realistic_postEE_v6-v2/2550000/fb715675-fb15-49a3-b81f-02495de39cec.root | (None) | ad:07aa9572 | 2.966 MB   |          |
| cms:/store/mc/Run3Summer22EENanoAODv12/GluGlutoHHto4B_kl-2p45_kt-1p00_c2-0p00_LHEweights_TuneCP5_13p6TeV_powheg-pythia8/NANOAODSIM/130X_mcRun3_2022_realistic_postEE_v6-v2/2550000/70a2779d-6b82-48bf-a4ab-eca14bb6785a.root | (None) | ad:508edb11 | 16.601 MB  |          |
| cms:/store/mc/Run3Summer22EENanoAODv12/GluGlutoHHto4B_kl-2p45_kt-1p00_c2-0p00_LHEweights_TuneCP5_13p6TeV_powheg-pythia8/NANOAODSIM/130X_mcRun3_2022_realistic_postEE_v6-v2/2550000/edc1df19-4e19-4d46-8d86-c3aa87264438.root | (None) | ad:7846a939 | 3.546 MB   |          |
| cms:/store/mc/Run3Summer22EENanoAODv12/GluGlutoHHto4B_kl-2p45_kt-1p00_c2-0p00_LHEweights_TuneCP5_13p6TeV_powheg-pythia8/NANOAODSIM/130X_mcRun3_2022_realistic_postEE_v6-v2/2550000/7f7ff76b-7df1-4079-90c5-6955f63b770a.root | (None) | ad:5e1fecad | 37.726 MB  |          |
| cms:/store/mc/Run3Summer22EENanoAODv12/GluGlutoHHto4B_kl-2p45_kt-1p00_c2-0p00_LHEweights_TuneCP5_13p6TeV_powheg-pythia8/NANOAODSIM/130X_mcRun3_2022_realistic_postEE_v6-v2/2550000/93332a40-3cf9-4f83-a598-99cc4686e93d.root | (None) | ad:770f900e | 40.831 MB  |          |
| cms:/store/mc/Run3Summer22EENanoAODv12/GluGlutoHHto4B_kl-2p45_kt-1p00_c2-0p00_LHEweights_TuneCP5_13p6TeV_powheg-pythia8/NANOAODSIM/130X_mcRun3_2022_realistic_postEE_v6-v2/2550000/f76c9a6f-ac92-4827-abcb-764aa4f31577.root | (None) | ad:0a8775b4 | 18.944 MB  |          |
| cms:/store/mc/Run3Summer22EENanoAODv12/GluGlutoHHto4B_kl-2p45_kt-1p00_c2-0p00_LHEweights_TuneCP5_13p6TeV_powheg-pythia8/NANOAODSIM/130X_mcRun3_2022_realistic_postEE_v6-v2/2550000/ee8e05ed-ac5d-4dac-8548-e76b54f8e4d8.root | (None) | ad:15b7b137 | 3.360 MB   |          |
| cms:/store/mc/Run3Summer22EENanoAODv12/GluGlutoHHto4B_kl-2p45_kt-1p00_c2-0p00_LHEweights_TuneCP5_13p6TeV_powheg-pythia8/NANOAODSIM/130X_mcRun3_2022_realistic_postEE_v6-v2/2550000/5fa717ef-81b9-4072-af3f-3b7611bae367.root | (None) | ad:f50c1ad9 | 7.670 MB   |          |
| cms:/store/mc/Run3Summer22EENanoAODv12/GluGlutoHHto4B_kl-2p45_kt-1p00_c2-0p00_LHEweights_TuneCP5_13p6TeV_powheg-pythia8/NANOAODSIM/130X_mcRun3_2022_realistic_postEE_v6-v2/2550000/afbee812-ea1f-42ef-997a-604522c4a20d.root | (None) | ad:0365c266 | 7.305 MB   |          |
| cms:/store/mc/Run3Summer22EENanoAODv12/GluGlutoHHto4B_kl-2p45_kt-1p00_c2-0p00_LHEweights_TuneCP5_13p6TeV_powheg-pythia8/NANOAODSIM/130X_mcRun3_2022_realistic_postEE_v6-v2/2550000/b313602d-45b6-493a-a449-1a88c02284e5.root | (None) | ad:f5368c4e | 55.961 MB  |          |
| cms:/store/mc/Run3Summer22EENanoAODv12/GluGlutoHHto4B_kl-2p45_kt-1p00_c2-0p00_LHEweights_TuneCP5_13p6TeV_powheg-pythia8/NANOAODSIM/130X_mcRun3_2022_realistic_postEE_v6-v2/2550000/ed70e0c3-c52a-4909-99b0-8c03a1d48d91.root | (None) | ad:cf340456 | 18.297 MB  |          |
| cms:/store/mc/Run3Summer22EENanoAODv12/GluGlutoHHto4B_kl-2p45_kt-1p00_c2-0p00_LHEweights_TuneCP5_13p6TeV_powheg-pythia8/NANOAODSIM/130X_mcRun3_2022_realistic_postEE_v6-v2/2550000/01af466f-f790-4868-9b3c-34ae64dc294d.root | (None) | ad:3963456d | 123.178 MB |          |
| cms:/store/mc/Run3Summer22EENanoAODv12/GluGlutoHHto4B_kl-2p45_kt-1p00_c2-0p00_LHEweights_TuneCP5_13p6TeV_powheg-pythia8/NANOAODSIM/130X_mcRun3_2022_realistic_postEE_v6-v2/2550000/2724e0f6-9407-4856-b9bf-b4408ea4b884.root | (None) | ad:08133f00 | 111.282 MB |          |
| cms:/store/mc/Run3Summer22EENanoAODv12/GluGlutoHHto4B_kl-2p45_kt-1p00_c2-0p00_LHEweights_TuneCP5_13p6TeV_powheg-pythia8/NANOAODSIM/130X_mcRun3_2022_realistic_postEE_v6-v2/2550000/6912f6a9-aa96-4fa8-85c8-6b12ac316ece.root | (None) | ad:d92cca08 | 114.940 MB |          |
| cms:/store/mc/Run3Summer22EENanoAODv12/GluGlutoHHto4B_kl-2p45_kt-1p00_c2-0p00_LHEweights_TuneCP5_13p6TeV_powheg-pythia8/NANOAODSIM/130X_mcRun3_2022_realistic_postEE_v6-v2/2550000/988bf72b-7025-4a6b-9ce4-a4ffff37c0a1.root | (None) | ad:a48ee29c | 109.029 MB |          |
| cms:/store/mc/Run3Summer22EENanoAODv12/GluGlutoHHto4B_kl-2p45_kt-1p00_c2-0p00_LHEweights_TuneCP5_13p6TeV_powheg-pythia8/NANOAODSIM/130X_mcRun3_2022_realistic_postEE_v6-v2/2550000/cd1bfd97-82c3-48ef-a23c-b221255d7458.root | (None) | ad:90a36ce5 | 112.355 MB |          |
| cms:/store/mc/Run3Summer22EENanoAODv12/GluGlutoHHto4B_kl-2p45_kt-1p00_c2-0p00_LHEweights_TuneCP5_13p6TeV_powheg-pythia8/NANOAODSIM/130X_mcRun3_2022_realistic_postEE_v6-v2/2550000/e123b6bc-bd7f-48f4-a402-5de6fff1e8c1.root | (None) | ad:6d574858 | 125.485 MB |          |
| cms:/store/mc/Run3Summer22EENanoAODv12/GluGlutoHHto4B_kl-2p45_kt-1p00_c2-0p00_LHEweights_TuneCP5_13p6TeV_powheg-pythia8/NANOAODSIM/130X_mcRun3_2022_realistic_postEE_v6-v2/2550000/26bb8777-9952-4c02-99a2-62ed2256480e.root | (None) | ad:b51e35a7 | 27.926 MB  |          |
| cms:/store/mc/Run3Summer22EENanoAODv12/GluGlutoHHto4B_kl-2p45_kt-1p00_c2-0p00_LHEweights_TuneCP5_13p6TeV_powheg-pythia8/NANOAODSIM/130X_mcRun3_2022_realistic_postEE_v6-v2/2550000/7bb46ae9-950e-4ae8-bcde-682f7cf28902.root | (None) | ad:27b9904a | 3.719 MB   |          |
| cms:/store/mc/Run3Summer22EENanoAODv12/GluGlutoHHto4B_kl-2p45_kt-1p00_c2-0p00_LHEweights_TuneCP5_13p6TeV_powheg-pythia8/NANOAODSIM/130X_mcRun3_2022_realistic_postEE_v6-v2/2550000/9044a335-2fc5-4077-92c3-a70a98ed22bd.root | (None) | ad:630d0ce6 | 10.026 MB  |          |
| cms:/store/mc/Run3Summer22EENanoAODv12/GluGlutoHHto4B_kl-2p45_kt-1p00_c2-0p00_LHEweights_TuneCP5_13p6TeV_powheg-pythia8/NANOAODSIM/130X_mcRun3_2022_realistic_postEE_v6-v2/2550000/1d9d3485-217a-464f-874a-9a68c430c325.root | (None) | ad:63d66c0b | 110.194 MB |          |
| cms:/store/mc/Run3Summer22EENanoAODv12/GluGlutoHHto4B_kl-2p45_kt-1p00_c2-0p00_LHEweights_TuneCP5_13p6TeV_powheg-pythia8/NANOAODSIM/130X_mcRun3_2022_realistic_postEE_v6-v2/2550000/bbf06dc3-0fc2-4794-b2d2-ee636ee99975.root | (None) | ad:65797fc8 | 109.266 MB |          |
| cms:/store/mc/Run3Summer22EENanoAODv12/GluGlutoHHto4B_kl-2p45_kt-1p00_c2-0p00_LHEweights_TuneCP5_13p6TeV_powheg-pythia8/NANOAODSIM/130X_mcRun3_2022_realistic_postEE_v6-v2/2550000/f7a397ce-4db2-4e46-89e4-f0a491feccef.root | (None) | ad:d7e52339 | 48.500 MB  |          |
| cms:/store/mc/Run3Summer22EENanoAODv12/GluGlutoHHto4B_kl-2p45_kt-1p00_c2-0p00_LHEweights_TuneCP5_13p6TeV_powheg-pythia8/NANOAODSIM/130X_mcRun3_2022_realistic_postEE_v6-v2/2550000/92bc6836-f3a8-4b7f-b9ea-96c430f10238.root | (None) | ad:cb65317f | 17.631 MB  |          |
| cms:/store/mc/Run3Summer22EENanoAODv12/GluGlutoHHto4B_kl-2p45_kt-1p00_c2-0p00_LHEweights_TuneCP5_13p6TeV_powheg-pythia8/NANOAODSIM/130X_mcRun3_2022_realistic_postEE_v6-v2/2550000/b6a10299-b020-4180-84de-6b9b7d6d26eb.root | (None) | ad:6ce7d880 | 13.183 MB  |          |
+------------------------------------------------------------------------------------------------------------------------------------------------------------------------------------------------------------------------------+--------+-------------+------------+----------+
Total files : 98
Total size : 3.392 GB
