{
    "cms:/store/mc/Run3Summer23NanoAODv12/GluGlutoHHto4B_kl-1p00_kt-1p00_c2-0p10_TuneCP5_13p6TeV_powheg-pythia8/NANOAODSIM/130X_mcRun3_2023_realistic_v15-v3/50000/42ee3dba-4570-46a3-82b0-63c6f6272ab5.root": [
        "T1_US_FNAL_Disk: davs://cmsdcadisk.fnal.gov:2880/dcache/uscmsdisk/store/mc/Run3Summer23NanoAODv12/GluGlutoHHto4B_kl-1p00_kt-1p00_c2-0p10_TuneCP5_13p6TeV_powheg-pythia8/NANOAODSIM/130X_mcRun3_2023_realistic_v15-v3/50000/42ee3dba-4570-46a3-82b0-63c6f6272ab5.root",
        "T1_UK_RAL_Tape: davs://antares.stfc.ac.uk:9000/eos/antares/prod/cms/store/mc/Run3Summer23NanoAODv12/GluGlutoHHto4B_kl-1p00_kt-1p00_c2-0p10_TuneCP5_13p6TeV_powheg-pythia8/NANOAODSIM/130X_mcRun3_2023_realistic_v15-v3/50000/42ee3dba-4570-46a3-82b0-63c6f6272ab5.root",
        "T2_BR_SPRACE: davs://osg-se.sprace.org.br:1094/store/mc/Run3Summer23NanoAODv12/GluGlutoHHto4B_kl-1p00_kt-1p00_c2-0p10_TuneCP5_13p6TeV_powheg-pythia8/NANOAODSIM/130X_mcRun3_2023_realistic_v15-v3/50000/42ee3dba-4570-46a3-82b0-63c6f6272ab5.root",
        "T2_HU_Budapest: davs://grid143.kfki.hu:443/dpm/kfki.hu/home/cms/phedex/store/mc/Run3Summer23NanoAODv12/GluGlutoHHto4B_kl-1p00_kt-1p00_c2-0p10_TuneCP5_13p6TeV_powheg-pythia8/NANOAODSIM/130X_mcRun3_2023_realistic_v15-v3/50000/42ee3dba-4570-46a3-82b0-63c6f6272ab5.root",
        "T2_EE_Estonia: davs://xrootd.hep.kbfi.ee:1094/store/mc/Run3Summer23NanoAODv12/GluGlutoHHto4B_kl-1p00_kt-1p00_c2-0p10_TuneCP5_13p6TeV_powheg-pythia8/NANOAODSIM/130X_mcRun3_2023_realistic_v15-v3/50000/42ee3dba-4570-46a3-82b0-63c6f6272ab5.root",
        "T2_IT_Pisa: davs://stwebdav.pi.infn.it:8443/cms/store/mc/Run3Summer23NanoAODv12/GluGlutoHHto4B_kl-1p00_kt-1p00_c2-0p10_TuneCP5_13p6TeV_powheg-pythia8/NANOAODSIM/130X_mcRun3_2023_realistic_v15-v3/50000/42ee3dba-4570-46a3-82b0-63c6f6272ab5.root",
        "T2_UK_London_Brunel: davs://xrootdgw.brunel.ac.uk:1094/store/mc/Run3Summer23NanoAODv12/GluGlutoHHto4B_kl-1p00_kt-1p00_c2-0p10_TuneCP5_13p6TeV_powheg-pythia8/NANOAODSIM/130X_mcRun3_2023_realistic_v15-v3/50000/42ee3dba-4570-46a3-82b0-63c6f6272ab5.root"
    ],
    "cms:/store/mc/Run3Summer23NanoAODv12/GluGlutoHHto4B_kl-1p00_kt-1p00_c2-0p10_TuneCP5_13p6TeV_powheg-pythia8/NANOAODSIM/130X_mcRun3_2023_realistic_v15-v3/50000/d1fa98b7-4bd4-4368-82fc-8d299d6e975f.root": [
        "T1_US_FNAL_Disk: davs://cmsdcadisk.fnal.gov:2880/dcache/uscmsdisk/store/mc/Run3Summer23NanoAODv12/GluGlutoHHto4B_kl-1p00_kt-1p00_c2-0p10_TuneCP5_13p6TeV_powheg-pythia8/NANOAODSIM/130X_mcRun3_2023_realistic_v15-v3/50000/d1fa98b7-4bd4-4368-82fc-8d299d6e975f.root",
        "T1_UK_RAL_Tape: davs://antares.stfc.ac.uk:9000/eos/antares/prod/cms/store/mc/Run3Summer23NanoAODv12/GluGlutoHHto4B_kl-1p00_kt-1p00_c2-0p10_TuneCP5_13p6TeV_powheg-pythia8/NANOAODSIM/130X_mcRun3_2023_realistic_v15-v3/50000/d1fa98b7-4bd4-4368-82fc-8d299d6e975f.root",
        "T2_BR_SPRACE: davs://osg-se.sprace.org.br:1094/store/mc/Run3Summer23NanoAODv12/GluGlutoHHto4B_kl-1p00_kt-1p00_c2-0p10_TuneCP5_13p6TeV_powheg-pythia8/NANOAODSIM/130X_mcRun3_2023_realistic_v15-v3/50000/d1fa98b7-4bd4-4368-82fc-8d299d6e975f.root",
        "T2_HU_Budapest: davs://grid143.kfki.hu:443/dpm/kfki.hu/home/cms/phedex/store/mc/Run3Summer23NanoAODv12/GluGlutoHHto4B_kl-1p00_kt-1p00_c2-0p10_TuneCP5_13p6TeV_powheg-pythia8/NANOAODSIM/130X_mcRun3_2023_realistic_v15-v3/50000/d1fa98b7-4bd4-4368-82fc-8d299d6e975f.root",
        "T2_EE_Estonia: davs://xrootd.hep.kbfi.ee:1094/store/mc/Run3Summer23NanoAODv12/GluGlutoHHto4B_kl-1p00_kt-1p00_c2-0p10_TuneCP5_13p6TeV_powheg-pythia8/NANOAODSIM/130X_mcRun3_2023_realistic_v15-v3/50000/d1fa98b7-4bd4-4368-82fc-8d299d6e975f.root",
        "T2_IT_Pisa: davs://stwebdav.pi.infn.it:8443/cms/store/mc/Run3Summer23NanoAODv12/GluGlutoHHto4B_kl-1p00_kt-1p00_c2-0p10_TuneCP5_13p6TeV_powheg-pythia8/NANOAODSIM/130X_mcRun3_2023_realistic_v15-v3/50000/d1fa98b7-4bd4-4368-82fc-8d299d6e975f.root",
        "T2_UK_London_Brunel: davs://xrootdgw.brunel.ac.uk:1094/store/mc/Run3Summer23NanoAODv12/GluGlutoHHto4B_kl-1p00_kt-1p00_c2-0p10_TuneCP5_13p6TeV_powheg-pythia8/NANOAODSIM/130X_mcRun3_2023_realistic_v15-v3/50000/d1fa98b7-4bd4-4368-82fc-8d299d6e975f.root"
    ],
    "cms:/store/mc/Run3Summer23NanoAODv12/GluGlutoHHto4B_kl-1p00_kt-1p00_c2-0p10_TuneCP5_13p6TeV_powheg-pythia8/NANOAODSIM/130X_mcRun3_2023_realistic_v15-v3/50000/0f933793-6605-4cf3-a612-fde76af2522c.root": [
        "T1_US_FNAL_Disk: davs://cmsdcadisk.fnal.gov:2880/dcache/uscmsdisk/store/mc/Run3Summer23NanoAODv12/GluGlutoHHto4B_kl-1p00_kt-1p00_c2-0p10_TuneCP5_13p6TeV_powheg-pythia8/NANOAODSIM/130X_mcRun3_2023_realistic_v15-v3/50000/0f933793-6605-4cf3-a612-fde76af2522c.root",
        "T1_UK_RAL_Tape: davs://antares.stfc.ac.uk:9000/eos/antares/prod/cms/store/mc/Run3Summer23NanoAODv12/GluGlutoHHto4B_kl-1p00_kt-1p00_c2-0p10_TuneCP5_13p6TeV_powheg-pythia8/NANOAODSIM/130X_mcRun3_2023_realistic_v15-v3/50000/0f933793-6605-4cf3-a612-fde76af2522c.root",
        "T2_BR_SPRACE: davs://osg-se.sprace.org.br:1094/store/mc/Run3Summer23NanoAODv12/GluGlutoHHto4B_kl-1p00_kt-1p00_c2-0p10_TuneCP5_13p6TeV_powheg-pythia8/NANOAODSIM/130X_mcRun3_2023_realistic_v15-v3/50000/0f933793-6605-4cf3-a612-fde76af2522c.root",
        "T2_HU_Budapest: davs://grid143.kfki.hu:443/dpm/kfki.hu/home/cms/phedex/store/mc/Run3Summer23NanoAODv12/GluGlutoHHto4B_kl-1p00_kt-1p00_c2-0p10_TuneCP5_13p6TeV_powheg-pythia8/NANOAODSIM/130X_mcRun3_2023_realistic_v15-v3/50000/0f933793-6605-4cf3-a612-fde76af2522c.root",
        "T2_EE_Estonia: davs://xrootd.hep.kbfi.ee:1094/store/mc/Run3Summer23NanoAODv12/GluGlutoHHto4B_kl-1p00_kt-1p00_c2-0p10_TuneCP5_13p6TeV_powheg-pythia8/NANOAODSIM/130X_mcRun3_2023_realistic_v15-v3/50000/0f933793-6605-4cf3-a612-fde76af2522c.root",
        "T2_IT_Pisa: davs://stwebdav.pi.infn.it:8443/cms/store/mc/Run3Summer23NanoAODv12/GluGlutoHHto4B_kl-1p00_kt-1p00_c2-0p10_TuneCP5_13p6TeV_powheg-pythia8/NANOAODSIM/130X_mcRun3_2023_realistic_v15-v3/50000/0f933793-6605-4cf3-a612-fde76af2522c.root",
        "T2_UK_London_Brunel: davs://xrootdgw.brunel.ac.uk:1094/store/mc/Run3Summer23NanoAODv12/GluGlutoHHto4B_kl-1p00_kt-1p00_c2-0p10_TuneCP5_13p6TeV_powheg-pythia8/NANOAODSIM/130X_mcRun3_2023_realistic_v15-v3/50000/0f933793-6605-4cf3-a612-fde76af2522c.root",
        "T2_DE_RWTH: davs://grid-webdav.physik.rwth-aachen.de:2889/store/mc/Run3Summer23NanoAODv12/GluGlutoHHto4B_kl-1p00_kt-1p00_c2-0p10_TuneCP5_13p6TeV_powheg-pythia8/NANOAODSIM/130X_mcRun3_2023_realistic_v15-v3/50000/0f933793-6605-4cf3-a612-fde76af2522c.root"
    ],
    "cms:/store/mc/Run3Summer23NanoAODv12/GluGlutoHHto4B_kl-1p00_kt-1p00_c2-0p10_TuneCP5_13p6TeV_powheg-pythia8/NANOAODSIM/130X_mcRun3_2023_realistic_v15-v3/50000/a93d3857-f438-4b85-92d6-3b1bab3bc1be.root": [
        "T1_US_FNAL_Disk: davs://cmsdcadisk.fnal.gov:2880/dcache/uscmsdisk/store/mc/Run3Summer23NanoAODv12/GluGlutoHHto4B_kl-1p00_kt-1p00_c2-0p10_TuneCP5_13p6TeV_powheg-pythia8/NANOAODSIM/130X_mcRun3_2023_realistic_v15-v3/50000/a93d3857-f438-4b85-92d6-3b1bab3bc1be.root",
        "T1_DE_KIT_Disk: davs://cmsdcache-kit-disk.gridka.de:2880/pnfs/gridka.de/cms/disk-only/store/mc/Run3Summer23NanoAODv12/GluGlutoHHto4B_kl-1p00_kt-1p00_c2-0p10_TuneCP5_13p6TeV_powheg-pythia8/NANOAODSIM/130X_mcRun3_2023_realistic_v15-v3/50000/a93d3857-f438-4b85-92d6-3b1bab3bc1be.root",
        "T1_UK_RAL_Tape: davs://antares.stfc.ac.uk:9000/eos/antares/prod/cms/store/mc/Run3Summer23NanoAODv12/GluGlutoHHto4B_kl-1p00_kt-1p00_c2-0p10_TuneCP5_13p6TeV_powheg-pythia8/NANOAODSIM/130X_mcRun3_2023_realistic_v15-v3/50000/a93d3857-f438-4b85-92d6-3b1bab3bc1be.root",
        "T2_BR_SPRACE: davs://osg-se.sprace.org.br:1094/store/mc/Run3Summer23NanoAODv12/GluGlutoHHto4B_kl-1p00_kt-1p00_c2-0p10_TuneCP5_13p6TeV_powheg-pythia8/NANOAODSIM/130X_mcRun3_2023_realistic_v15-v3/50000/a93d3857-f438-4b85-92d6-3b1bab3bc1be.root",
        "T2_HU_Budapest: davs://grid143.kfki.hu:443/dpm/kfki.hu/home/cms/phedex/store/mc/Run3Summer23NanoAODv12/GluGlutoHHto4B_kl-1p00_kt-1p00_c2-0p10_TuneCP5_13p6TeV_powheg-pythia8/NANOAODSIM/130X_mcRun3_2023_realistic_v15-v3/50000/a93d3857-f438-4b85-92d6-3b1bab3bc1be.root",
        "T2_EE_Estonia: davs://xrootd.hep.kbfi.ee:1094/store/mc/Run3Summer23NanoAODv12/GluGlutoHHto4B_kl-1p00_kt-1p00_c2-0p10_TuneCP5_13p6TeV_powheg-pythia8/NANOAODSIM/130X_mcRun3_2023_realistic_v15-v3/50000/a93d3857-f438-4b85-92d6-3b1bab3bc1be.root",
        "T2_IT_Pisa: davs://stwebdav.pi.infn.it:8443/cms/store/mc/Run3Summer23NanoAODv12/GluGlutoHHto4B_kl-1p00_kt-1p00_c2-0p10_TuneCP5_13p6TeV_powheg-pythia8/NANOAODSIM/130X_mcRun3_2023_realistic_v15-v3/50000/a93d3857-f438-4b85-92d6-3b1bab3bc1be.root",
        "T2_UK_London_Brunel: davs://xrootdgw.brunel.ac.uk:1094/store/mc/Run3Summer23NanoAODv12/GluGlutoHHto4B_kl-1p00_kt-1p00_c2-0p10_TuneCP5_13p6TeV_powheg-pythia8/NANOAODSIM/130X_mcRun3_2023_realistic_v15-v3/50000/a93d3857-f438-4b85-92d6-3b1bab3bc1be.root"
    ],
    "cms:/store/mc/Run3Summer23NanoAODv12/GluGlutoHHto4B_kl-1p00_kt-1p00_c2-0p10_TuneCP5_13p6TeV_powheg-pythia8/NANOAODSIM/130X_mcRun3_2023_realistic_v15-v3/50000/9108648a-a8f7-40b0-8d3e-8997f019db05.root": [
        "T1_US_FNAL_Disk: davs://cmsdcadisk.fnal.gov:2880/dcache/uscmsdisk/store/mc/Run3Summer23NanoAODv12/GluGlutoHHto4B_kl-1p00_kt-1p00_c2-0p10_TuneCP5_13p6TeV_powheg-pythia8/NANOAODSIM/130X_mcRun3_2023_realistic_v15-v3/50000/9108648a-a8f7-40b0-8d3e-8997f019db05.root",
        "T1_UK_RAL_Tape: davs://antares.stfc.ac.uk:9000/eos/antares/prod/cms/store/mc/Run3Summer23NanoAODv12/GluGlutoHHto4B_kl-1p00_kt-1p00_c2-0p10_TuneCP5_13p6TeV_powheg-pythia8/NANOAODSIM/130X_mcRun3_2023_realistic_v15-v3/50000/9108648a-a8f7-40b0-8d3e-8997f019db05.root",
        "T2_BR_SPRACE: davs://osg-se.sprace.org.br:1094/store/mc/Run3Summer23NanoAODv12/GluGlutoHHto4B_kl-1p00_kt-1p00_c2-0p10_TuneCP5_13p6TeV_powheg-pythia8/NANOAODSIM/130X_mcRun3_2023_realistic_v15-v3/50000/9108648a-a8f7-40b0-8d3e-8997f019db05.root",
        "T2_HU_Budapest: davs://grid143.kfki.hu:443/dpm/kfki.hu/home/cms/phedex/store/mc/Run3Summer23NanoAODv12/GluGlutoHHto4B_kl-1p00_kt-1p00_c2-0p10_TuneCP5_13p6TeV_powheg-pythia8/NANOAODSIM/130X_mcRun3_2023_realistic_v15-v3/50000/9108648a-a8f7-40b0-8d3e-8997f019db05.root",
        "T2_EE_Estonia: davs://xrootd.hep.kbfi.ee:1094/store/mc/Run3Summer23NanoAODv12/GluGlutoHHto4B_kl-1p00_kt-1p00_c2-0p10_TuneCP5_13p6TeV_powheg-pythia8/NANOAODSIM/130X_mcRun3_2023_realistic_v15-v3/50000/9108648a-a8f7-40b0-8d3e-8997f019db05.root",
        "T2_IT_Pisa: davs://stwebdav.pi.infn.it:8443/cms/store/mc/Run3Summer23NanoAODv12/GluGlutoHHto4B_kl-1p00_kt-1p00_c2-0p10_TuneCP5_13p6TeV_powheg-pythia8/NANOAODSIM/130X_mcRun3_2023_realistic_v15-v3/50000/9108648a-a8f7-40b0-8d3e-8997f019db05.root",
        "T1_RU_JINR_Disk: davs://se-wbdv.jinr-t1.ru:2880/pnfs/jinr-t1.ru/data/cms/store/mc/Run3Summer23NanoAODv12/GluGlutoHHto4B_kl-1p00_kt-1p00_c2-0p10_TuneCP5_13p6TeV_powheg-pythia8/NANOAODSIM/130X_mcRun3_2023_realistic_v15-v3/50000/9108648a-a8f7-40b0-8d3e-8997f019db05.root",
        "T2_UK_London_Brunel: davs://xrootdgw.brunel.ac.uk:1094/store/mc/Run3Summer23NanoAODv12/GluGlutoHHto4B_kl-1p00_kt-1p00_c2-0p10_TuneCP5_13p6TeV_powheg-pythia8/NANOAODSIM/130X_mcRun3_2023_realistic_v15-v3/50000/9108648a-a8f7-40b0-8d3e-8997f019db05.root"
    ],
    "cms:/store/mc/Run3Summer23NanoAODv12/GluGlutoHHto4B_kl-1p00_kt-1p00_c2-0p10_TuneCP5_13p6TeV_powheg-pythia8/NANOAODSIM/130X_mcRun3_2023_realistic_v15-v3/50000/47ca864d-e25f-4e9f-90f0-3cc4039586d2.root": [
        "T1_US_FNAL_Disk: davs://cmsdcadisk.fnal.gov:2880/dcache/uscmsdisk/store/mc/Run3Summer23NanoAODv12/GluGlutoHHto4B_kl-1p00_kt-1p00_c2-0p10_TuneCP5_13p6TeV_powheg-pythia8/NANOAODSIM/130X_mcRun3_2023_realistic_v15-v3/50000/47ca864d-e25f-4e9f-90f0-3cc4039586d2.root",
        "T1_UK_RAL_Tape: davs://antares.stfc.ac.uk:9000/eos/antares/prod/cms/store/mc/Run3Summer23NanoAODv12/GluGlutoHHto4B_kl-1p00_kt-1p00_c2-0p10_TuneCP5_13p6TeV_powheg-pythia8/NANOAODSIM/130X_mcRun3_2023_realistic_v15-v3/50000/47ca864d-e25f-4e9f-90f0-3cc4039586d2.root",
        "T2_BR_SPRACE: davs://osg-se.sprace.org.br:1094/store/mc/Run3Summer23NanoAODv12/GluGlutoHHto4B_kl-1p00_kt-1p00_c2-0p10_TuneCP5_13p6TeV_powheg-pythia8/NANOAODSIM/130X_mcRun3_2023_realistic_v15-v3/50000/47ca864d-e25f-4e9f-90f0-3cc4039586d2.root",
        "T2_HU_Budapest: davs://grid143.kfki.hu:443/dpm/kfki.hu/home/cms/phedex/store/mc/Run3Summer23NanoAODv12/GluGlutoHHto4B_kl-1p00_kt-1p00_c2-0p10_TuneCP5_13p6TeV_powheg-pythia8/NANOAODSIM/130X_mcRun3_2023_realistic_v15-v3/50000/47ca864d-e25f-4e9f-90f0-3cc4039586d2.root",
        "T2_US_Caltech: davs://k8s-redir-stageout.ultralight.org:1094/store/mc/Run3Summer23NanoAODv12/GluGlutoHHto4B_kl-1p00_kt-1p00_c2-0p10_TuneCP5_13p6TeV_powheg-pythia8/NANOAODSIM/130X_mcRun3_2023_realistic_v15-v3/50000/47ca864d-e25f-4e9f-90f0-3cc4039586d2.root",
        "T2_EE_Estonia: davs://xrootd.hep.kbfi.ee:1094/store/mc/Run3Summer23NanoAODv12/GluGlutoHHto4B_kl-1p00_kt-1p00_c2-0p10_TuneCP5_13p6TeV_powheg-pythia8/NANOAODSIM/130X_mcRun3_2023_realistic_v15-v3/50000/47ca864d-e25f-4e9f-90f0-3cc4039586d2.root",
        "T2_IT_Pisa: davs://stwebdav.pi.infn.it:8443/cms/store/mc/Run3Summer23NanoAODv12/GluGlutoHHto4B_kl-1p00_kt-1p00_c2-0p10_TuneCP5_13p6TeV_powheg-pythia8/NANOAODSIM/130X_mcRun3_2023_realistic_v15-v3/50000/47ca864d-e25f-4e9f-90f0-3cc4039586d2.root",
        "T2_UK_London_Brunel: davs://xrootdgw.brunel.ac.uk:1094/store/mc/Run3Summer23NanoAODv12/GluGlutoHHto4B_kl-1p00_kt-1p00_c2-0p10_TuneCP5_13p6TeV_powheg-pythia8/NANOAODSIM/130X_mcRun3_2023_realistic_v15-v3/50000/47ca864d-e25f-4e9f-90f0-3cc4039586d2.root"
    ],
    "cms:/store/mc/Run3Summer23NanoAODv12/GluGlutoHHto4B_kl-1p00_kt-1p00_c2-0p10_TuneCP5_13p6TeV_powheg-pythia8/NANOAODSIM/130X_mcRun3_2023_realistic_v15-v3/50000/fa3316e2-663b-4548-a3b1-90ee6772b5b0.root": [
        "T1_US_FNAL_Disk: davs://cmsdcadisk.fnal.gov:2880/dcache/uscmsdisk/store/mc/Run3Summer23NanoAODv12/GluGlutoHHto4B_kl-1p00_kt-1p00_c2-0p10_TuneCP5_13p6TeV_powheg-pythia8/NANOAODSIM/130X_mcRun3_2023_realistic_v15-v3/50000/fa3316e2-663b-4548-a3b1-90ee6772b5b0.root",
        "T1_UK_RAL_Tape: davs://antares.stfc.ac.uk:9000/eos/antares/prod/cms/store/mc/Run3Summer23NanoAODv12/GluGlutoHHto4B_kl-1p00_kt-1p00_c2-0p10_TuneCP5_13p6TeV_powheg-pythia8/NANOAODSIM/130X_mcRun3_2023_realistic_v15-v3/50000/fa3316e2-663b-4548-a3b1-90ee6772b5b0.root",
        "T2_BR_SPRACE: davs://osg-se.sprace.org.br:1094/store/mc/Run3Summer23NanoAODv12/GluGlutoHHto4B_kl-1p00_kt-1p00_c2-0p10_TuneCP5_13p6TeV_powheg-pythia8/NANOAODSIM/130X_mcRun3_2023_realistic_v15-v3/50000/fa3316e2-663b-4548-a3b1-90ee6772b5b0.root",
        "T2_HU_Budapest: davs://grid143.kfki.hu:443/dpm/kfki.hu/home/cms/phedex/store/mc/Run3Summer23NanoAODv12/GluGlutoHHto4B_kl-1p00_kt-1p00_c2-0p10_TuneCP5_13p6TeV_powheg-pythia8/NANOAODSIM/130X_mcRun3_2023_realistic_v15-v3/50000/fa3316e2-663b-4548-a3b1-90ee6772b5b0.root",
        "T2_US_Caltech: davs://k8s-redir-stageout.ultralight.org:1094/store/mc/Run3Summer23NanoAODv12/GluGlutoHHto4B_kl-1p00_kt-1p00_c2-0p10_TuneCP5_13p6TeV_powheg-pythia8/NANOAODSIM/130X_mcRun3_2023_realistic_v15-v3/50000/fa3316e2-663b-4548-a3b1-90ee6772b5b0.root",
        "T2_EE_Estonia: davs://xrootd.hep.kbfi.ee:1094/store/mc/Run3Summer23NanoAODv12/GluGlutoHHto4B_kl-1p00_kt-1p00_c2-0p10_TuneCP5_13p6TeV_powheg-pythia8/NANOAODSIM/130X_mcRun3_2023_realistic_v15-v3/50000/fa3316e2-663b-4548-a3b1-90ee6772b5b0.root",
        "T2_IT_Pisa: davs://stwebdav.pi.infn.it:8443/cms/store/mc/Run3Summer23NanoAODv12/GluGlutoHHto4B_kl-1p00_kt-1p00_c2-0p10_TuneCP5_13p6TeV_powheg-pythia8/NANOAODSIM/130X_mcRun3_2023_realistic_v15-v3/50000/fa3316e2-663b-4548-a3b1-90ee6772b5b0.root",
        "T2_UK_London_Brunel: davs://xrootdgw.brunel.ac.uk:1094/store/mc/Run3Summer23NanoAODv12/GluGlutoHHto4B_kl-1p00_kt-1p00_c2-0p10_TuneCP5_13p6TeV_powheg-pythia8/NANOAODSIM/130X_mcRun3_2023_realistic_v15-v3/50000/fa3316e2-663b-4548-a3b1-90ee6772b5b0.root"
    ],
    "cms:/store/mc/Run3Summer23NanoAODv12/GluGlutoHHto4B_kl-1p00_kt-1p00_c2-0p10_TuneCP5_13p6TeV_powheg-pythia8/NANOAODSIM/130X_mcRun3_2023_realistic_v15-v3/50000/f9ab6f4f-8b80-4b90-8c28-95883aac5bfd.root": [
        "T1_US_FNAL_Disk: davs://cmsdcadisk.fnal.gov:2880/dcache/uscmsdisk/store/mc/Run3Summer23NanoAODv12/GluGlutoHHto4B_kl-1p00_kt-1p00_c2-0p10_TuneCP5_13p6TeV_powheg-pythia8/NANOAODSIM/130X_mcRun3_2023_realistic_v15-v3/50000/f9ab6f4f-8b80-4b90-8c28-95883aac5bfd.root",
        "T1_UK_RAL_Tape: davs://antares.stfc.ac.uk:9000/eos/antares/prod/cms/store/mc/Run3Summer23NanoAODv12/GluGlutoHHto4B_kl-1p00_kt-1p00_c2-0p10_TuneCP5_13p6TeV_powheg-pythia8/NANOAODSIM/130X_mcRun3_2023_realistic_v15-v3/50000/f9ab6f4f-8b80-4b90-8c28-95883aac5bfd.root",
        "T2_BR_SPRACE: davs://osg-se.sprace.org.br:1094/store/mc/Run3Summer23NanoAODv12/GluGlutoHHto4B_kl-1p00_kt-1p00_c2-0p10_TuneCP5_13p6TeV_powheg-pythia8/NANOAODSIM/130X_mcRun3_2023_realistic_v15-v3/50000/f9ab6f4f-8b80-4b90-8c28-95883aac5bfd.root",
        "T2_HU_Budapest: davs://grid143.kfki.hu:443/dpm/kfki.hu/home/cms/phedex/store/mc/Run3Summer23NanoAODv12/GluGlutoHHto4B_kl-1p00_kt-1p00_c2-0p10_TuneCP5_13p6TeV_powheg-pythia8/NANOAODSIM/130X_mcRun3_2023_realistic_v15-v3/50000/f9ab6f4f-8b80-4b90-8c28-95883aac5bfd.root",
        "T2_EE_Estonia: davs://xrootd.hep.kbfi.ee:1094/store/mc/Run3Summer23NanoAODv12/GluGlutoHHto4B_kl-1p00_kt-1p00_c2-0p10_TuneCP5_13p6TeV_powheg-pythia8/NANOAODSIM/130X_mcRun3_2023_realistic_v15-v3/50000/f9ab6f4f-8b80-4b90-8c28-95883aac5bfd.root",
        "T2_IT_Pisa: davs://stwebdav.pi.infn.it:8443/cms/store/mc/Run3Summer23NanoAODv12/GluGlutoHHto4B_kl-1p00_kt-1p00_c2-0p10_TuneCP5_13p6TeV_powheg-pythia8/NANOAODSIM/130X_mcRun3_2023_realistic_v15-v3/50000/f9ab6f4f-8b80-4b90-8c28-95883aac5bfd.root",
        "T2_UK_London_Brunel: davs://xrootdgw.brunel.ac.uk:1094/store/mc/Run3Summer23NanoAODv12/GluGlutoHHto4B_kl-1p00_kt-1p00_c2-0p10_TuneCP5_13p6TeV_powheg-pythia8/NANOAODSIM/130X_mcRun3_2023_realistic_v15-v3/50000/f9ab6f4f-8b80-4b90-8c28-95883aac5bfd.root"
    ],
    "cms:/store/mc/Run3Summer23NanoAODv12/GluGlutoHHto4B_kl-1p00_kt-1p00_c2-0p10_TuneCP5_13p6TeV_powheg-pythia8/NANOAODSIM/130X_mcRun3_2023_realistic_v15-v3/50000/9bb0ddd7-49bf-4039-8120-a319c79e942a.root": [
        "T1_US_FNAL_Disk: davs://cmsdcadisk.fnal.gov:2880/dcache/uscmsdisk/store/mc/Run3Summer23NanoAODv12/GluGlutoHHto4B_kl-1p00_kt-1p00_c2-0p10_TuneCP5_13p6TeV_powheg-pythia8/NANOAODSIM/130X_mcRun3_2023_realistic_v15-v3/50000/9bb0ddd7-49bf-4039-8120-a319c79e942a.root",
        "T1_UK_RAL_Tape: davs://antares.stfc.ac.uk:9000/eos/antares/prod/cms/store/mc/Run3Summer23NanoAODv12/GluGlutoHHto4B_kl-1p00_kt-1p00_c2-0p10_TuneCP5_13p6TeV_powheg-pythia8/NANOAODSIM/130X_mcRun3_2023_realistic_v15-v3/50000/9bb0ddd7-49bf-4039-8120-a319c79e942a.root",
        "T2_BR_SPRACE: davs://osg-se.sprace.org.br:1094/store/mc/Run3Summer23NanoAODv12/GluGlutoHHto4B_kl-1p00_kt-1p00_c2-0p10_TuneCP5_13p6TeV_powheg-pythia8/NANOAODSIM/130X_mcRun3_2023_realistic_v15-v3/50000/9bb0ddd7-49bf-4039-8120-a319c79e942a.root",
        "T2_HU_Budapest: davs://grid143.kfki.hu:443/dpm/kfki.hu/home/cms/phedex/store/mc/Run3Summer23NanoAODv12/GluGlutoHHto4B_kl-1p00_kt-1p00_c2-0p10_TuneCP5_13p6TeV_powheg-pythia8/NANOAODSIM/130X_mcRun3_2023_realistic_v15-v3/50000/9bb0ddd7-49bf-4039-8120-a319c79e942a.root",
        "T2_EE_Estonia: davs://xrootd.hep.kbfi.ee:1094/store/mc/Run3Summer23NanoAODv12/GluGlutoHHto4B_kl-1p00_kt-1p00_c2-0p10_TuneCP5_13p6TeV_powheg-pythia8/NANOAODSIM/130X_mcRun3_2023_realistic_v15-v3/50000/9bb0ddd7-49bf-4039-8120-a319c79e942a.root",
        "T2_IT_Pisa: davs://stwebdav.pi.infn.it:8443/cms/store/mc/Run3Summer23NanoAODv12/GluGlutoHHto4B_kl-1p00_kt-1p00_c2-0p10_TuneCP5_13p6TeV_powheg-pythia8/NANOAODSIM/130X_mcRun3_2023_realistic_v15-v3/50000/9bb0ddd7-49bf-4039-8120-a319c79e942a.root",
        "T2_UK_London_Brunel: davs://xrootdgw.brunel.ac.uk:1094/store/mc/Run3Summer23NanoAODv12/GluGlutoHHto4B_kl-1p00_kt-1p00_c2-0p10_TuneCP5_13p6TeV_powheg-pythia8/NANOAODSIM/130X_mcRun3_2023_realistic_v15-v3/50000/9bb0ddd7-49bf-4039-8120-a319c79e942a.root",
        "T1_IT_CNAF_Disk: davs://xfer-cms.cr.cnaf.infn.it:8443/cmsdisk/store/mc/Run3Summer23NanoAODv12/GluGlutoHHto4B_kl-1p00_kt-1p00_c2-0p10_TuneCP5_13p6TeV_powheg-pythia8/NANOAODSIM/130X_mcRun3_2023_realistic_v15-v3/50000/9bb0ddd7-49bf-4039-8120-a319c79e942a.root"
    ],
    "cms:/store/mc/Run3Summer23NanoAODv12/GluGlutoHHto4B_kl-1p00_kt-1p00_c2-0p10_TuneCP5_13p6TeV_powheg-pythia8/NANOAODSIM/130X_mcRun3_2023_realistic_v15-v3/50000/b6a59721-b37a-4a0b-a6c8-0a1b4baf2005.root": [
        "T1_US_FNAL_Disk: davs://cmsdcadisk.fnal.gov:2880/dcache/uscmsdisk/store/mc/Run3Summer23NanoAODv12/GluGlutoHHto4B_kl-1p00_kt-1p00_c2-0p10_TuneCP5_13p6TeV_powheg-pythia8/NANOAODSIM/130X_mcRun3_2023_realistic_v15-v3/50000/b6a59721-b37a-4a0b-a6c8-0a1b4baf2005.root",
        "T1_UK_RAL_Tape: davs://antares.stfc.ac.uk:9000/eos/antares/prod/cms/store/mc/Run3Summer23NanoAODv12/GluGlutoHHto4B_kl-1p00_kt-1p00_c2-0p10_TuneCP5_13p6TeV_powheg-pythia8/NANOAODSIM/130X_mcRun3_2023_realistic_v15-v3/50000/b6a59721-b37a-4a0b-a6c8-0a1b4baf2005.root",
        "T2_BR_SPRACE: davs://osg-se.sprace.org.br:1094/store/mc/Run3Summer23NanoAODv12/GluGlutoHHto4B_kl-1p00_kt-1p00_c2-0p10_TuneCP5_13p6TeV_powheg-pythia8/NANOAODSIM/130X_mcRun3_2023_realistic_v15-v3/50000/b6a59721-b37a-4a0b-a6c8-0a1b4baf2005.root",
        "T2_HU_Budapest: davs://grid143.kfki.hu:443/dpm/kfki.hu/home/cms/phedex/store/mc/Run3Summer23NanoAODv12/GluGlutoHHto4B_kl-1p00_kt-1p00_c2-0p10_TuneCP5_13p6TeV_powheg-pythia8/NANOAODSIM/130X_mcRun3_2023_realistic_v15-v3/50000/b6a59721-b37a-4a0b-a6c8-0a1b4baf2005.root",
        "T2_EE_Estonia: davs://xrootd.hep.kbfi.ee:1094/store/mc/Run3Summer23NanoAODv12/GluGlutoHHto4B_kl-1p00_kt-1p00_c2-0p10_TuneCP5_13p6TeV_powheg-pythia8/NANOAODSIM/130X_mcRun3_2023_realistic_v15-v3/50000/b6a59721-b37a-4a0b-a6c8-0a1b4baf2005.root",
        "T2_IT_Pisa: davs://stwebdav.pi.infn.it:8443/cms/store/mc/Run3Summer23NanoAODv12/GluGlutoHHto4B_kl-1p00_kt-1p00_c2-0p10_TuneCP5_13p6TeV_powheg-pythia8/NANOAODSIM/130X_mcRun3_2023_realistic_v15-v3/50000/b6a59721-b37a-4a0b-a6c8-0a1b4baf2005.root",
        "T2_UK_London_Brunel: davs://xrootdgw.brunel.ac.uk:1094/store/mc/Run3Summer23NanoAODv12/GluGlutoHHto4B_kl-1p00_kt-1p00_c2-0p10_TuneCP5_13p6TeV_powheg-pythia8/NANOAODSIM/130X_mcRun3_2023_realistic_v15-v3/50000/b6a59721-b37a-4a0b-a6c8-0a1b4baf2005.root",
        "T1_IT_CNAF_Disk: davs://xfer-cms.cr.cnaf.infn.it:8443/cmsdisk/store/mc/Run3Summer23NanoAODv12/GluGlutoHHto4B_kl-1p00_kt-1p00_c2-0p10_TuneCP5_13p6TeV_powheg-pythia8/NANOAODSIM/130X_mcRun3_2023_realistic_v15-v3/50000/b6a59721-b37a-4a0b-a6c8-0a1b4baf2005.root"
    ],
    "cms:/store/mc/Run3Summer23NanoAODv12/GluGlutoHHto4B_kl-1p00_kt-1p00_c2-0p10_TuneCP5_13p6TeV_powheg-pythia8/NANOAODSIM/130X_mcRun3_2023_realistic_v15-v3/50000/f11a5f29-ade9-4b08-bc0f-5d84d1d2229d.root": [
        "T1_US_FNAL_Disk: davs://cmsdcadisk.fnal.gov:2880/dcache/uscmsdisk/store/mc/Run3Summer23NanoAODv12/GluGlutoHHto4B_kl-1p00_kt-1p00_c2-0p10_TuneCP5_13p6TeV_powheg-pythia8/NANOAODSIM/130X_mcRun3_2023_realistic_v15-v3/50000/f11a5f29-ade9-4b08-bc0f-5d84d1d2229d.root",
        "T1_UK_RAL_Tape: davs://antares.stfc.ac.uk:9000/eos/antares/prod/cms/store/mc/Run3Summer23NanoAODv12/GluGlutoHHto4B_kl-1p00_kt-1p00_c2-0p10_TuneCP5_13p6TeV_powheg-pythia8/NANOAODSIM/130X_mcRun3_2023_realistic_v15-v3/50000/f11a5f29-ade9-4b08-bc0f-5d84d1d2229d.root",
        "T2_BR_SPRACE: davs://osg-se.sprace.org.br:1094/store/mc/Run3Summer23NanoAODv12/GluGlutoHHto4B_kl-1p00_kt-1p00_c2-0p10_TuneCP5_13p6TeV_powheg-pythia8/NANOAODSIM/130X_mcRun3_2023_realistic_v15-v3/50000/f11a5f29-ade9-4b08-bc0f-5d84d1d2229d.root",
        "T2_HU_Budapest: davs://grid143.kfki.hu:443/dpm/kfki.hu/home/cms/phedex/store/mc/Run3Summer23NanoAODv12/GluGlutoHHto4B_kl-1p00_kt-1p00_c2-0p10_TuneCP5_13p6TeV_powheg-pythia8/NANOAODSIM/130X_mcRun3_2023_realistic_v15-v3/50000/f11a5f29-ade9-4b08-bc0f-5d84d1d2229d.root",
        "T2_EE_Estonia: davs://xrootd.hep.kbfi.ee:1094/store/mc/Run3Summer23NanoAODv12/GluGlutoHHto4B_kl-1p00_kt-1p00_c2-0p10_TuneCP5_13p6TeV_powheg-pythia8/NANOAODSIM/130X_mcRun3_2023_realistic_v15-v3/50000/f11a5f29-ade9-4b08-bc0f-5d84d1d2229d.root",
        "T2_IT_Pisa: davs://stwebdav.pi.infn.it:8443/cms/store/mc/Run3Summer23NanoAODv12/GluGlutoHHto4B_kl-1p00_kt-1p00_c2-0p10_TuneCP5_13p6TeV_powheg-pythia8/NANOAODSIM/130X_mcRun3_2023_realistic_v15-v3/50000/f11a5f29-ade9-4b08-bc0f-5d84d1d2229d.root",
        "T2_UK_London_Brunel: davs://xrootdgw.brunel.ac.uk:1094/store/mc/Run3Summer23NanoAODv12/GluGlutoHHto4B_kl-1p00_kt-1p00_c2-0p10_TuneCP5_13p6TeV_powheg-pythia8/NANOAODSIM/130X_mcRun3_2023_realistic_v15-v3/50000/f11a5f29-ade9-4b08-bc0f-5d84d1d2229d.root",
        "T1_IT_CNAF_Disk: davs://xfer-cms.cr.cnaf.infn.it:8443/cmsdisk/store/mc/Run3Summer23NanoAODv12/GluGlutoHHto4B_kl-1p00_kt-1p00_c2-0p10_TuneCP5_13p6TeV_powheg-pythia8/NANOAODSIM/130X_mcRun3_2023_realistic_v15-v3/50000/f11a5f29-ade9-4b08-bc0f-5d84d1d2229d.root"
    ],
    "cms:/store/mc/Run3Summer23NanoAODv12/GluGlutoHHto4B_kl-1p00_kt-1p00_c2-0p10_TuneCP5_13p6TeV_powheg-pythia8/NANOAODSIM/130X_mcRun3_2023_realistic_v15-v3/50000/596e90a4-2961-41a0-b647-ab8f5e9786ea.root": [
        "T1_US_FNAL_Disk: davs://cmsdcadisk.fnal.gov:2880/dcache/uscmsdisk/store/mc/Run3Summer23NanoAODv12/GluGlutoHHto4B_kl-1p00_kt-1p00_c2-0p10_TuneCP5_13p6TeV_powheg-pythia8/NANOAODSIM/130X_mcRun3_2023_realistic_v15-v3/50000/596e90a4-2961-41a0-b647-ab8f5e9786ea.root",
        "T1_UK_RAL_Tape: davs://antares.stfc.ac.uk:9000/eos/antares/prod/cms/store/mc/Run3Summer23NanoAODv12/GluGlutoHHto4B_kl-1p00_kt-1p00_c2-0p10_TuneCP5_13p6TeV_powheg-pythia8/NANOAODSIM/130X_mcRun3_2023_realistic_v15-v3/50000/596e90a4-2961-41a0-b647-ab8f5e9786ea.root",
        "T2_BE_UCL: davs://ingrid-se02.cism.ucl.ac.be:1094/store/mc/Run3Summer23NanoAODv12/GluGlutoHHto4B_kl-1p00_kt-1p00_c2-0p10_TuneCP5_13p6TeV_powheg-pythia8/NANOAODSIM/130X_mcRun3_2023_realistic_v15-v3/50000/596e90a4-2961-41a0-b647-ab8f5e9786ea.root",
        "T2_BR_SPRACE: davs://osg-se.sprace.org.br:1094/store/mc/Run3Summer23NanoAODv12/GluGlutoHHto4B_kl-1p00_kt-1p00_c2-0p10_TuneCP5_13p6TeV_powheg-pythia8/NANOAODSIM/130X_mcRun3_2023_realistic_v15-v3/50000/596e90a4-2961-41a0-b647-ab8f5e9786ea.root",
        "T2_HU_Budapest: davs://grid143.kfki.hu:443/dpm/kfki.hu/home/cms/phedex/store/mc/Run3Summer23NanoAODv12/GluGlutoHHto4B_kl-1p00_kt-1p00_c2-0p10_TuneCP5_13p6TeV_powheg-pythia8/NANOAODSIM/130X_mcRun3_2023_realistic_v15-v3/50000/596e90a4-2961-41a0-b647-ab8f5e9786ea.root",
        "T2_EE_Estonia: davs://xrootd.hep.kbfi.ee:1094/store/mc/Run3Summer23NanoAODv12/GluGlutoHHto4B_kl-1p00_kt-1p00_c2-0p10_TuneCP5_13p6TeV_powheg-pythia8/NANOAODSIM/130X_mcRun3_2023_realistic_v15-v3/50000/596e90a4-2961-41a0-b647-ab8f5e9786ea.root",
        "T2_IT_Pisa: davs://stwebdav.pi.infn.it:8443/cms/store/mc/Run3Summer23NanoAODv12/GluGlutoHHto4B_kl-1p00_kt-1p00_c2-0p10_TuneCP5_13p6TeV_powheg-pythia8/NANOAODSIM/130X_mcRun3_2023_realistic_v15-v3/50000/596e90a4-2961-41a0-b647-ab8f5e9786ea.root",
        "T2_UK_London_Brunel: davs://xrootdgw.brunel.ac.uk:1094/store/mc/Run3Summer23NanoAODv12/GluGlutoHHto4B_kl-1p00_kt-1p00_c2-0p10_TuneCP5_13p6TeV_powheg-pythia8/NANOAODSIM/130X_mcRun3_2023_realistic_v15-v3/50000/596e90a4-2961-41a0-b647-ab8f5e9786ea.root"
    ],
    "cms:/store/mc/Run3Summer23NanoAODv12/GluGlutoHHto4B_kl-1p00_kt-1p00_c2-0p10_TuneCP5_13p6TeV_powheg-pythia8/NANOAODSIM/130X_mcRun3_2023_realistic_v15-v3/50000/a792c854-ef51-47d9-80b6-cfc1ade42cee.root": [
        "T1_US_FNAL_Disk: davs://cmsdcadisk.fnal.gov:2880/dcache/uscmsdisk/store/mc/Run3Summer23NanoAODv12/GluGlutoHHto4B_kl-1p00_kt-1p00_c2-0p10_TuneCP5_13p6TeV_powheg-pythia8/NANOAODSIM/130X_mcRun3_2023_realistic_v15-v3/50000/a792c854-ef51-47d9-80b6-cfc1ade42cee.root",
        "T1_FR_CCIN2P3_Disk: davs://ccdavcms.in2p3.fr:2880/disk/data/store/mc/Run3Summer23NanoAODv12/GluGlutoHHto4B_kl-1p00_kt-1p00_c2-0p10_TuneCP5_13p6TeV_powheg-pythia8/NANOAODSIM/130X_mcRun3_2023_realistic_v15-v3/50000/a792c854-ef51-47d9-80b6-cfc1ade42cee.root",
        "T1_UK_RAL_Tape: davs://antares.stfc.ac.uk:9000/eos/antares/prod/cms/store/mc/Run3Summer23NanoAODv12/GluGlutoHHto4B_kl-1p00_kt-1p00_c2-0p10_TuneCP5_13p6TeV_powheg-pythia8/NANOAODSIM/130X_mcRun3_2023_realistic_v15-v3/50000/a792c854-ef51-47d9-80b6-cfc1ade42cee.root",
        "T2_BR_SPRACE: davs://osg-se.sprace.org.br:1094/store/mc/Run3Summer23NanoAODv12/GluGlutoHHto4B_kl-1p00_kt-1p00_c2-0p10_TuneCP5_13p6TeV_powheg-pythia8/NANOAODSIM/130X_mcRun3_2023_realistic_v15-v3/50000/a792c854-ef51-47d9-80b6-cfc1ade42cee.root",
        "T2_HU_Budapest: davs://grid143.kfki.hu:443/dpm/kfki.hu/home/cms/phedex/store/mc/Run3Summer23NanoAODv12/GluGlutoHHto4B_kl-1p00_kt-1p00_c2-0p10_TuneCP5_13p6TeV_powheg-pythia8/NANOAODSIM/130X_mcRun3_2023_realistic_v15-v3/50000/a792c854-ef51-47d9-80b6-cfc1ade42cee.root",
        "T2_EE_Estonia: davs://xrootd.hep.kbfi.ee:1094/store/mc/Run3Summer23NanoAODv12/GluGlutoHHto4B_kl-1p00_kt-1p00_c2-0p10_TuneCP5_13p6TeV_powheg-pythia8/NANOAODSIM/130X_mcRun3_2023_realistic_v15-v3/50000/a792c854-ef51-47d9-80b6-cfc1ade42cee.root",
        "T2_IT_Pisa: davs://stwebdav.pi.infn.it:8443/cms/store/mc/Run3Summer23NanoAODv12/GluGlutoHHto4B_kl-1p00_kt-1p00_c2-0p10_TuneCP5_13p6TeV_powheg-pythia8/NANOAODSIM/130X_mcRun3_2023_realistic_v15-v3/50000/a792c854-ef51-47d9-80b6-cfc1ade42cee.root",
        "T2_UK_London_Brunel: davs://xrootdgw.brunel.ac.uk:1094/store/mc/Run3Summer23NanoAODv12/GluGlutoHHto4B_kl-1p00_kt-1p00_c2-0p10_TuneCP5_13p6TeV_powheg-pythia8/NANOAODSIM/130X_mcRun3_2023_realistic_v15-v3/50000/a792c854-ef51-47d9-80b6-cfc1ade42cee.root"
    ],
    "cms:/store/mc/Run3Summer23NanoAODv12/GluGlutoHHto4B_kl-1p00_kt-1p00_c2-0p10_TuneCP5_13p6TeV_powheg-pythia8/NANOAODSIM/130X_mcRun3_2023_realistic_v15-v3/50000/d2c7d208-2240-483d-af82-f9b261826fed.root": [
        "T1_US_FNAL_Disk: davs://cmsdcadisk.fnal.gov:2880/dcache/uscmsdisk/store/mc/Run3Summer23NanoAODv12/GluGlutoHHto4B_kl-1p00_kt-1p00_c2-0p10_TuneCP5_13p6TeV_powheg-pythia8/NANOAODSIM/130X_mcRun3_2023_realistic_v15-v3/50000/d2c7d208-2240-483d-af82-f9b261826fed.root",
        "T1_FR_CCIN2P3_Disk: davs://ccdavcms.in2p3.fr:2880/disk/data/store/mc/Run3Summer23NanoAODv12/GluGlutoHHto4B_kl-1p00_kt-1p00_c2-0p10_TuneCP5_13p6TeV_powheg-pythia8/NANOAODSIM/130X_mcRun3_2023_realistic_v15-v3/50000/d2c7d208-2240-483d-af82-f9b261826fed.root",
        "T1_UK_RAL_Tape: davs://antares.stfc.ac.uk:9000/eos/antares/prod/cms/store/mc/Run3Summer23NanoAODv12/GluGlutoHHto4B_kl-1p00_kt-1p00_c2-0p10_TuneCP5_13p6TeV_powheg-pythia8/NANOAODSIM/130X_mcRun3_2023_realistic_v15-v3/50000/d2c7d208-2240-483d-af82-f9b261826fed.root",
        "T2_BR_SPRACE: davs://osg-se.sprace.org.br:1094/store/mc/Run3Summer23NanoAODv12/GluGlutoHHto4B_kl-1p00_kt-1p00_c2-0p10_TuneCP5_13p6TeV_powheg-pythia8/NANOAODSIM/130X_mcRun3_2023_realistic_v15-v3/50000/d2c7d208-2240-483d-af82-f9b261826fed.root",
        "T2_HU_Budapest: davs://grid143.kfki.hu:443/dpm/kfki.hu/home/cms/phedex/store/mc/Run3Summer23NanoAODv12/GluGlutoHHto4B_kl-1p00_kt-1p00_c2-0p10_TuneCP5_13p6TeV_powheg-pythia8/NANOAODSIM/130X_mcRun3_2023_realistic_v15-v3/50000/d2c7d208-2240-483d-af82-f9b261826fed.root",
        "T2_EE_Estonia: davs://xrootd.hep.kbfi.ee:1094/store/mc/Run3Summer23NanoAODv12/GluGlutoHHto4B_kl-1p00_kt-1p00_c2-0p10_TuneCP5_13p6TeV_powheg-pythia8/NANOAODSIM/130X_mcRun3_2023_realistic_v15-v3/50000/d2c7d208-2240-483d-af82-f9b261826fed.root",
        "T2_IT_Pisa: davs://stwebdav.pi.infn.it:8443/cms/store/mc/Run3Summer23NanoAODv12/GluGlutoHHto4B_kl-1p00_kt-1p00_c2-0p10_TuneCP5_13p6TeV_powheg-pythia8/NANOAODSIM/130X_mcRun3_2023_realistic_v15-v3/50000/d2c7d208-2240-483d-af82-f9b261826fed.root",
        "T2_UK_London_Brunel: davs://xrootdgw.brunel.ac.uk:1094/store/mc/Run3Summer23NanoAODv12/GluGlutoHHto4B_kl-1p00_kt-1p00_c2-0p10_TuneCP5_13p6TeV_powheg-pythia8/NANOAODSIM/130X_mcRun3_2023_realistic_v15-v3/50000/d2c7d208-2240-483d-af82-f9b261826fed.root"
    ],
    "cms:/store/mc/Run3Summer23NanoAODv12/GluGlutoHHto4B_kl-1p00_kt-1p00_c2-0p10_TuneCP5_13p6TeV_powheg-pythia8/NANOAODSIM/130X_mcRun3_2023_realistic_v15-v3/50000/17544ae1-d874-4506-a90d-80cb8dfb812a.root": [
        "T1_US_FNAL_Disk: davs://cmsdcadisk.fnal.gov:2880/dcache/uscmsdisk/store/mc/Run3Summer23NanoAODv12/GluGlutoHHto4B_kl-1p00_kt-1p00_c2-0p10_TuneCP5_13p6TeV_powheg-pythia8/NANOAODSIM/130X_mcRun3_2023_realistic_v15-v3/50000/17544ae1-d874-4506-a90d-80cb8dfb812a.root",
        "T1_UK_RAL_Tape: davs://antares.stfc.ac.uk:9000/eos/antares/prod/cms/store/mc/Run3Summer23NanoAODv12/GluGlutoHHto4B_kl-1p00_kt-1p00_c2-0p10_TuneCP5_13p6TeV_powheg-pythia8/NANOAODSIM/130X_mcRun3_2023_realistic_v15-v3/50000/17544ae1-d874-4506-a90d-80cb8dfb812a.root",
        "T2_BR_SPRACE: davs://osg-se.sprace.org.br:1094/store/mc/Run3Summer23NanoAODv12/GluGlutoHHto4B_kl-1p00_kt-1p00_c2-0p10_TuneCP5_13p6TeV_powheg-pythia8/NANOAODSIM/130X_mcRun3_2023_realistic_v15-v3/50000/17544ae1-d874-4506-a90d-80cb8dfb812a.root",
        "T2_HU_Budapest: davs://grid143.kfki.hu:443/dpm/kfki.hu/home/cms/phedex/store/mc/Run3Summer23NanoAODv12/GluGlutoHHto4B_kl-1p00_kt-1p00_c2-0p10_TuneCP5_13p6TeV_powheg-pythia8/NANOAODSIM/130X_mcRun3_2023_realistic_v15-v3/50000/17544ae1-d874-4506-a90d-80cb8dfb812a.root",
        "T2_RU_JINR: davs://lcgsedr08.jinr.ru:2880/pnfs/jinr.ru/data/cms/store/mc/Run3Summer23NanoAODv12/GluGlutoHHto4B_kl-1p00_kt-1p00_c2-0p10_TuneCP5_13p6TeV_powheg-pythia8/NANOAODSIM/130X_mcRun3_2023_realistic_v15-v3/50000/17544ae1-d874-4506-a90d-80cb8dfb812a.root",
        "T2_EE_Estonia: davs://xrootd.hep.kbfi.ee:1094/store/mc/Run3Summer23NanoAODv12/GluGlutoHHto4B_kl-1p00_kt-1p00_c2-0p10_TuneCP5_13p6TeV_powheg-pythia8/NANOAODSIM/130X_mcRun3_2023_realistic_v15-v3/50000/17544ae1-d874-4506-a90d-80cb8dfb812a.root",
        "T2_IT_Pisa: davs://stwebdav.pi.infn.it:8443/cms/store/mc/Run3Summer23NanoAODv12/GluGlutoHHto4B_kl-1p00_kt-1p00_c2-0p10_TuneCP5_13p6TeV_powheg-pythia8/NANOAODSIM/130X_mcRun3_2023_realistic_v15-v3/50000/17544ae1-d874-4506-a90d-80cb8dfb812a.root",
        "T2_UK_London_Brunel: davs://xrootdgw.brunel.ac.uk:1094/store/mc/Run3Summer23NanoAODv12/GluGlutoHHto4B_kl-1p00_kt-1p00_c2-0p10_TuneCP5_13p6TeV_powheg-pythia8/NANOAODSIM/130X_mcRun3_2023_realistic_v15-v3/50000/17544ae1-d874-4506-a90d-80cb8dfb812a.root"
    ],
    "cms:/store/mc/Run3Summer23NanoAODv12/GluGlutoHHto4B_kl-1p00_kt-1p00_c2-0p10_TuneCP5_13p6TeV_powheg-pythia8/NANOAODSIM/130X_mcRun3_2023_realistic_v15-v3/50000/86286381-7c47-4266-904b-590002ed80f9.root": [
        "T1_US_FNAL_Disk: davs://cmsdcadisk.fnal.gov:2880/dcache/uscmsdisk/store/mc/Run3Summer23NanoAODv12/GluGlutoHHto4B_kl-1p00_kt-1p00_c2-0p10_TuneCP5_13p6TeV_powheg-pythia8/NANOAODSIM/130X_mcRun3_2023_realistic_v15-v3/50000/86286381-7c47-4266-904b-590002ed80f9.root",
        "T1_UK_RAL_Tape: davs://antares.stfc.ac.uk:9000/eos/antares/prod/cms/store/mc/Run3Summer23NanoAODv12/GluGlutoHHto4B_kl-1p00_kt-1p00_c2-0p10_TuneCP5_13p6TeV_powheg-pythia8/NANOAODSIM/130X_mcRun3_2023_realistic_v15-v3/50000/86286381-7c47-4266-904b-590002ed80f9.root",
        "T2_BR_SPRACE: davs://osg-se.sprace.org.br:1094/store/mc/Run3Summer23NanoAODv12/GluGlutoHHto4B_kl-1p00_kt-1p00_c2-0p10_TuneCP5_13p6TeV_powheg-pythia8/NANOAODSIM/130X_mcRun3_2023_realistic_v15-v3/50000/86286381-7c47-4266-904b-590002ed80f9.root",
        "T2_HU_Budapest: davs://grid143.kfki.hu:443/dpm/kfki.hu/home/cms/phedex/store/mc/Run3Summer23NanoAODv12/GluGlutoHHto4B_kl-1p00_kt-1p00_c2-0p10_TuneCP5_13p6TeV_powheg-pythia8/NANOAODSIM/130X_mcRun3_2023_realistic_v15-v3/50000/86286381-7c47-4266-904b-590002ed80f9.root",
        "T2_EE_Estonia: davs://xrootd.hep.kbfi.ee:1094/store/mc/Run3Summer23NanoAODv12/GluGlutoHHto4B_kl-1p00_kt-1p00_c2-0p10_TuneCP5_13p6TeV_powheg-pythia8/NANOAODSIM/130X_mcRun3_2023_realistic_v15-v3/50000/86286381-7c47-4266-904b-590002ed80f9.root",
        "T2_IT_Pisa: davs://stwebdav.pi.infn.it:8443/cms/store/mc/Run3Summer23NanoAODv12/GluGlutoHHto4B_kl-1p00_kt-1p00_c2-0p10_TuneCP5_13p6TeV_powheg-pythia8/NANOAODSIM/130X_mcRun3_2023_realistic_v15-v3/50000/86286381-7c47-4266-904b-590002ed80f9.root",
        "T2_UK_London_Brunel: davs://xrootdgw.brunel.ac.uk:1094/store/mc/Run3Summer23NanoAODv12/GluGlutoHHto4B_kl-1p00_kt-1p00_c2-0p10_TuneCP5_13p6TeV_powheg-pythia8/NANOAODSIM/130X_mcRun3_2023_realistic_v15-v3/50000/86286381-7c47-4266-904b-590002ed80f9.root"
    ],
    "cms:/store/mc/Run3Summer23NanoAODv12/GluGlutoHHto4B_kl-1p00_kt-1p00_c2-0p10_TuneCP5_13p6TeV_powheg-pythia8/NANOAODSIM/130X_mcRun3_2023_realistic_v15-v3/50000/964777e6-9c68-4a5a-86cd-6b21e4235fe2.root": [
        "T1_US_FNAL_Disk: davs://cmsdcadisk.fnal.gov:2880/dcache/uscmsdisk/store/mc/Run3Summer23NanoAODv12/GluGlutoHHto4B_kl-1p00_kt-1p00_c2-0p10_TuneCP5_13p6TeV_powheg-pythia8/NANOAODSIM/130X_mcRun3_2023_realistic_v15-v3/50000/964777e6-9c68-4a5a-86cd-6b21e4235fe2.root",
        "T1_UK_RAL_Tape: davs://antares.stfc.ac.uk:9000/eos/antares/prod/cms/store/mc/Run3Summer23NanoAODv12/GluGlutoHHto4B_kl-1p00_kt-1p00_c2-0p10_TuneCP5_13p6TeV_powheg-pythia8/NANOAODSIM/130X_mcRun3_2023_realistic_v15-v3/50000/964777e6-9c68-4a5a-86cd-6b21e4235fe2.root",
        "T2_BR_SPRACE: davs://osg-se.sprace.org.br:1094/store/mc/Run3Summer23NanoAODv12/GluGlutoHHto4B_kl-1p00_kt-1p00_c2-0p10_TuneCP5_13p6TeV_powheg-pythia8/NANOAODSIM/130X_mcRun3_2023_realistic_v15-v3/50000/964777e6-9c68-4a5a-86cd-6b21e4235fe2.root",
        "T2_HU_Budapest: davs://grid143.kfki.hu:443/dpm/kfki.hu/home/cms/phedex/store/mc/Run3Summer23NanoAODv12/GluGlutoHHto4B_kl-1p00_kt-1p00_c2-0p10_TuneCP5_13p6TeV_powheg-pythia8/NANOAODSIM/130X_mcRun3_2023_realistic_v15-v3/50000/964777e6-9c68-4a5a-86cd-6b21e4235fe2.root",
        "T2_EE_Estonia: davs://xrootd.hep.kbfi.ee:1094/store/mc/Run3Summer23NanoAODv12/GluGlutoHHto4B_kl-1p00_kt-1p00_c2-0p10_TuneCP5_13p6TeV_powheg-pythia8/NANOAODSIM/130X_mcRun3_2023_realistic_v15-v3/50000/964777e6-9c68-4a5a-86cd-6b21e4235fe2.root",
        "T2_IT_Pisa: davs://stwebdav.pi.infn.it:8443/cms/store/mc/Run3Summer23NanoAODv12/GluGlutoHHto4B_kl-1p00_kt-1p00_c2-0p10_TuneCP5_13p6TeV_powheg-pythia8/NANOAODSIM/130X_mcRun3_2023_realistic_v15-v3/50000/964777e6-9c68-4a5a-86cd-6b21e4235fe2.root",
        "T2_UK_London_Brunel: davs://xrootdgw.brunel.ac.uk:1094/store/mc/Run3Summer23NanoAODv12/GluGlutoHHto4B_kl-1p00_kt-1p00_c2-0p10_TuneCP5_13p6TeV_powheg-pythia8/NANOAODSIM/130X_mcRun3_2023_realistic_v15-v3/50000/964777e6-9c68-4a5a-86cd-6b21e4235fe2.root"
    ],
    "cms:/store/mc/Run3Summer23NanoAODv12/GluGlutoHHto4B_kl-1p00_kt-1p00_c2-0p10_TuneCP5_13p6TeV_powheg-pythia8/NANOAODSIM/130X_mcRun3_2023_realistic_v15-v3/50000/b8928982-9e14-421a-be7e-2e2be09c6cf0.root": [
        "T1_US_FNAL_Disk: davs://cmsdcadisk.fnal.gov:2880/dcache/uscmsdisk/store/mc/Run3Summer23NanoAODv12/GluGlutoHHto4B_kl-1p00_kt-1p00_c2-0p10_TuneCP5_13p6TeV_powheg-pythia8/NANOAODSIM/130X_mcRun3_2023_realistic_v15-v3/50000/b8928982-9e14-421a-be7e-2e2be09c6cf0.root",
        "T1_UK_RAL_Tape: davs://antares.stfc.ac.uk:9000/eos/antares/prod/cms/store/mc/Run3Summer23NanoAODv12/GluGlutoHHto4B_kl-1p00_kt-1p00_c2-0p10_TuneCP5_13p6TeV_powheg-pythia8/NANOAODSIM/130X_mcRun3_2023_realistic_v15-v3/50000/b8928982-9e14-421a-be7e-2e2be09c6cf0.root",
        "T2_BR_SPRACE: davs://osg-se.sprace.org.br:1094/store/mc/Run3Summer23NanoAODv12/GluGlutoHHto4B_kl-1p00_kt-1p00_c2-0p10_TuneCP5_13p6TeV_powheg-pythia8/NANOAODSIM/130X_mcRun3_2023_realistic_v15-v3/50000/b8928982-9e14-421a-be7e-2e2be09c6cf0.root",
        "T2_HU_Budapest: davs://grid143.kfki.hu:443/dpm/kfki.hu/home/cms/phedex/store/mc/Run3Summer23NanoAODv12/GluGlutoHHto4B_kl-1p00_kt-1p00_c2-0p10_TuneCP5_13p6TeV_powheg-pythia8/NANOAODSIM/130X_mcRun3_2023_realistic_v15-v3/50000/b8928982-9e14-421a-be7e-2e2be09c6cf0.root",
        "T2_EE_Estonia: davs://xrootd.hep.kbfi.ee:1094/store/mc/Run3Summer23NanoAODv12/GluGlutoHHto4B_kl-1p00_kt-1p00_c2-0p10_TuneCP5_13p6TeV_powheg-pythia8/NANOAODSIM/130X_mcRun3_2023_realistic_v15-v3/50000/b8928982-9e14-421a-be7e-2e2be09c6cf0.root",
        "T2_IT_Pisa: davs://stwebdav.pi.infn.it:8443/cms/store/mc/Run3Summer23NanoAODv12/GluGlutoHHto4B_kl-1p00_kt-1p00_c2-0p10_TuneCP5_13p6TeV_powheg-pythia8/NANOAODSIM/130X_mcRun3_2023_realistic_v15-v3/50000/b8928982-9e14-421a-be7e-2e2be09c6cf0.root",
        "T2_UK_London_Brunel: davs://xrootdgw.brunel.ac.uk:1094/store/mc/Run3Summer23NanoAODv12/GluGlutoHHto4B_kl-1p00_kt-1p00_c2-0p10_TuneCP5_13p6TeV_powheg-pythia8/NANOAODSIM/130X_mcRun3_2023_realistic_v15-v3/50000/b8928982-9e14-421a-be7e-2e2be09c6cf0.root"
    ],
    "cms:/store/mc/Run3Summer23NanoAODv12/GluGlutoHHto4B_kl-1p00_kt-1p00_c2-0p10_TuneCP5_13p6TeV_powheg-pythia8/NANOAODSIM/130X_mcRun3_2023_realistic_v15-v3/50000/cf658ce7-a763-48ac-a8f2-061a4d77a14b.root": [
        "T1_US_FNAL_Disk: davs://cmsdcadisk.fnal.gov:2880/dcache/uscmsdisk/store/mc/Run3Summer23NanoAODv12/GluGlutoHHto4B_kl-1p00_kt-1p00_c2-0p10_TuneCP5_13p6TeV_powheg-pythia8/NANOAODSIM/130X_mcRun3_2023_realistic_v15-v3/50000/cf658ce7-a763-48ac-a8f2-061a4d77a14b.root",
        "T1_UK_RAL_Tape: davs://antares.stfc.ac.uk:9000/eos/antares/prod/cms/store/mc/Run3Summer23NanoAODv12/GluGlutoHHto4B_kl-1p00_kt-1p00_c2-0p10_TuneCP5_13p6TeV_powheg-pythia8/NANOAODSIM/130X_mcRun3_2023_realistic_v15-v3/50000/cf658ce7-a763-48ac-a8f2-061a4d77a14b.root",
        "T2_BR_SPRACE: davs://osg-se.sprace.org.br:1094/store/mc/Run3Summer23NanoAODv12/GluGlutoHHto4B_kl-1p00_kt-1p00_c2-0p10_TuneCP5_13p6TeV_powheg-pythia8/NANOAODSIM/130X_mcRun3_2023_realistic_v15-v3/50000/cf658ce7-a763-48ac-a8f2-061a4d77a14b.root",
        "T2_HU_Budapest: davs://grid143.kfki.hu:443/dpm/kfki.hu/home/cms/phedex/store/mc/Run3Summer23NanoAODv12/GluGlutoHHto4B_kl-1p00_kt-1p00_c2-0p10_TuneCP5_13p6TeV_powheg-pythia8/NANOAODSIM/130X_mcRun3_2023_realistic_v15-v3/50000/cf658ce7-a763-48ac-a8f2-061a4d77a14b.root",
        "T2_EE_Estonia: davs://xrootd.hep.kbfi.ee:1094/store/mc/Run3Summer23NanoAODv12/GluGlutoHHto4B_kl-1p00_kt-1p00_c2-0p10_TuneCP5_13p6TeV_powheg-pythia8/NANOAODSIM/130X_mcRun3_2023_realistic_v15-v3/50000/cf658ce7-a763-48ac-a8f2-061a4d77a14b.root",
        "T2_IT_Pisa: davs://stwebdav.pi.infn.it:8443/cms/store/mc/Run3Summer23NanoAODv12/GluGlutoHHto4B_kl-1p00_kt-1p00_c2-0p10_TuneCP5_13p6TeV_powheg-pythia8/NANOAODSIM/130X_mcRun3_2023_realistic_v15-v3/50000/cf658ce7-a763-48ac-a8f2-061a4d77a14b.root",
        "T2_UK_London_Brunel: davs://xrootdgw.brunel.ac.uk:1094/store/mc/Run3Summer23NanoAODv12/GluGlutoHHto4B_kl-1p00_kt-1p00_c2-0p10_TuneCP5_13p6TeV_powheg-pythia8/NANOAODSIM/130X_mcRun3_2023_realistic_v15-v3/50000/cf658ce7-a763-48ac-a8f2-061a4d77a14b.root"
    ],
    "cms:/store/mc/Run3Summer23NanoAODv12/GluGlutoHHto4B_kl-1p00_kt-1p00_c2-0p10_TuneCP5_13p6TeV_powheg-pythia8/NANOAODSIM/130X_mcRun3_2023_realistic_v15-v3/50000/310b6b58-2778-45ce-b65c-d20c62ec0204.root": [
        "T1_US_FNAL_Disk: davs://cmsdcadisk.fnal.gov:2880/dcache/uscmsdisk/store/mc/Run3Summer23NanoAODv12/GluGlutoHHto4B_kl-1p00_kt-1p00_c2-0p10_TuneCP5_13p6TeV_powheg-pythia8/NANOAODSIM/130X_mcRun3_2023_realistic_v15-v3/50000/310b6b58-2778-45ce-b65c-d20c62ec0204.root",
        "T2_DE_DESY: davs://dcache-cms-webdav-wan.desy.de:2880/pnfs/desy.de/cms/tier2/store/mc/Run3Summer23NanoAODv12/GluGlutoHHto4B_kl-1p00_kt-1p00_c2-0p10_TuneCP5_13p6TeV_powheg-pythia8/NANOAODSIM/130X_mcRun3_2023_realistic_v15-v3/50000/310b6b58-2778-45ce-b65c-d20c62ec0204.root",
        "T1_UK_RAL_Tape: davs://antares.stfc.ac.uk:9000/eos/antares/prod/cms/store/mc/Run3Summer23NanoAODv12/GluGlutoHHto4B_kl-1p00_kt-1p00_c2-0p10_TuneCP5_13p6TeV_powheg-pythia8/NANOAODSIM/130X_mcRun3_2023_realistic_v15-v3/50000/310b6b58-2778-45ce-b65c-d20c62ec0204.root",
        "T2_BR_SPRACE: davs://osg-se.sprace.org.br:1094/store/mc/Run3Summer23NanoAODv12/GluGlutoHHto4B_kl-1p00_kt-1p00_c2-0p10_TuneCP5_13p6TeV_powheg-pythia8/NANOAODSIM/130X_mcRun3_2023_realistic_v15-v3/50000/310b6b58-2778-45ce-b65c-d20c62ec0204.root",
        "T2_HU_Budapest: davs://grid143.kfki.hu:443/dpm/kfki.hu/home/cms/phedex/store/mc/Run3Summer23NanoAODv12/GluGlutoHHto4B_kl-1p00_kt-1p00_c2-0p10_TuneCP5_13p6TeV_powheg-pythia8/NANOAODSIM/130X_mcRun3_2023_realistic_v15-v3/50000/310b6b58-2778-45ce-b65c-d20c62ec0204.root",
        "T2_EE_Estonia: davs://xrootd.hep.kbfi.ee:1094/store/mc/Run3Summer23NanoAODv12/GluGlutoHHto4B_kl-1p00_kt-1p00_c2-0p10_TuneCP5_13p6TeV_powheg-pythia8/NANOAODSIM/130X_mcRun3_2023_realistic_v15-v3/50000/310b6b58-2778-45ce-b65c-d20c62ec0204.root",
        "T2_IT_Pisa: davs://stwebdav.pi.infn.it:8443/cms/store/mc/Run3Summer23NanoAODv12/GluGlutoHHto4B_kl-1p00_kt-1p00_c2-0p10_TuneCP5_13p6TeV_powheg-pythia8/NANOAODSIM/130X_mcRun3_2023_realistic_v15-v3/50000/310b6b58-2778-45ce-b65c-d20c62ec0204.root",
        "T2_UK_London_Brunel: davs://xrootdgw.brunel.ac.uk:1094/store/mc/Run3Summer23NanoAODv12/GluGlutoHHto4B_kl-1p00_kt-1p00_c2-0p10_TuneCP5_13p6TeV_powheg-pythia8/NANOAODSIM/130X_mcRun3_2023_realistic_v15-v3/50000/310b6b58-2778-45ce-b65c-d20c62ec0204.root"
    ],
    "cms:/store/mc/Run3Summer23NanoAODv12/GluGlutoHHto4B_kl-1p00_kt-1p00_c2-0p10_TuneCP5_13p6TeV_powheg-pythia8/NANOAODSIM/130X_mcRun3_2023_realistic_v15-v3/50000/164aa82b-1992-496a-a994-887b3af594a9.root": [
        "T1_US_FNAL_Disk: davs://cmsdcadisk.fnal.gov:2880/dcache/uscmsdisk/store/mc/Run3Summer23NanoAODv12/GluGlutoHHto4B_kl-1p00_kt-1p00_c2-0p10_TuneCP5_13p6TeV_powheg-pythia8/NANOAODSIM/130X_mcRun3_2023_realistic_v15-v3/50000/164aa82b-1992-496a-a994-887b3af594a9.root",
        "T1_UK_RAL_Tape: davs://antares.stfc.ac.uk:9000/eos/antares/prod/cms/store/mc/Run3Summer23NanoAODv12/GluGlutoHHto4B_kl-1p00_kt-1p00_c2-0p10_TuneCP5_13p6TeV_powheg-pythia8/NANOAODSIM/130X_mcRun3_2023_realistic_v15-v3/50000/164aa82b-1992-496a-a994-887b3af594a9.root",
        "T2_BR_SPRACE: davs://osg-se.sprace.org.br:1094/store/mc/Run3Summer23NanoAODv12/GluGlutoHHto4B_kl-1p00_kt-1p00_c2-0p10_TuneCP5_13p6TeV_powheg-pythia8/NANOAODSIM/130X_mcRun3_2023_realistic_v15-v3/50000/164aa82b-1992-496a-a994-887b3af594a9.root",
        "T2_HU_Budapest: davs://grid143.kfki.hu:443/dpm/kfki.hu/home/cms/phedex/store/mc/Run3Summer23NanoAODv12/GluGlutoHHto4B_kl-1p00_kt-1p00_c2-0p10_TuneCP5_13p6TeV_powheg-pythia8/NANOAODSIM/130X_mcRun3_2023_realistic_v15-v3/50000/164aa82b-1992-496a-a994-887b3af594a9.root",
        "T2_EE_Estonia: davs://xrootd.hep.kbfi.ee:1094/store/mc/Run3Summer23NanoAODv12/GluGlutoHHto4B_kl-1p00_kt-1p00_c2-0p10_TuneCP5_13p6TeV_powheg-pythia8/NANOAODSIM/130X_mcRun3_2023_realistic_v15-v3/50000/164aa82b-1992-496a-a994-887b3af594a9.root",
        "T2_IT_Pisa: davs://stwebdav.pi.infn.it:8443/cms/store/mc/Run3Summer23NanoAODv12/GluGlutoHHto4B_kl-1p00_kt-1p00_c2-0p10_TuneCP5_13p6TeV_powheg-pythia8/NANOAODSIM/130X_mcRun3_2023_realistic_v15-v3/50000/164aa82b-1992-496a-a994-887b3af594a9.root",
        "T2_UK_London_Brunel: davs://xrootdgw.brunel.ac.uk:1094/store/mc/Run3Summer23NanoAODv12/GluGlutoHHto4B_kl-1p00_kt-1p00_c2-0p10_TuneCP5_13p6TeV_powheg-pythia8/NANOAODSIM/130X_mcRun3_2023_realistic_v15-v3/50000/164aa82b-1992-496a-a994-887b3af594a9.root"
    ],
    "cms:/store/mc/Run3Summer23NanoAODv12/GluGlutoHHto4B_kl-1p00_kt-1p00_c2-0p10_TuneCP5_13p6TeV_powheg-pythia8/NANOAODSIM/130X_mcRun3_2023_realistic_v15-v3/50000/aa2cf1e5-0e88-485b-bd1a-5c79ce74d921.root": [
        "T1_US_FNAL_Disk: davs://cmsdcadisk.fnal.gov:2880/dcache/uscmsdisk/store/mc/Run3Summer23NanoAODv12/GluGlutoHHto4B_kl-1p00_kt-1p00_c2-0p10_TuneCP5_13p6TeV_powheg-pythia8/NANOAODSIM/130X_mcRun3_2023_realistic_v15-v3/50000/aa2cf1e5-0e88-485b-bd1a-5c79ce74d921.root",
        "T1_UK_RAL_Tape: davs://antares.stfc.ac.uk:9000/eos/antares/prod/cms/store/mc/Run3Summer23NanoAODv12/GluGlutoHHto4B_kl-1p00_kt-1p00_c2-0p10_TuneCP5_13p6TeV_powheg-pythia8/NANOAODSIM/130X_mcRun3_2023_realistic_v15-v3/50000/aa2cf1e5-0e88-485b-bd1a-5c79ce74d921.root",
        "T2_BR_SPRACE: davs://osg-se.sprace.org.br:1094/store/mc/Run3Summer23NanoAODv12/GluGlutoHHto4B_kl-1p00_kt-1p00_c2-0p10_TuneCP5_13p6TeV_powheg-pythia8/NANOAODSIM/130X_mcRun3_2023_realistic_v15-v3/50000/aa2cf1e5-0e88-485b-bd1a-5c79ce74d921.root",
        "T2_HU_Budapest: davs://grid143.kfki.hu:443/dpm/kfki.hu/home/cms/phedex/store/mc/Run3Summer23NanoAODv12/GluGlutoHHto4B_kl-1p00_kt-1p00_c2-0p10_TuneCP5_13p6TeV_powheg-pythia8/NANOAODSIM/130X_mcRun3_2023_realistic_v15-v3/50000/aa2cf1e5-0e88-485b-bd1a-5c79ce74d921.root",
        "T2_EE_Estonia: davs://xrootd.hep.kbfi.ee:1094/store/mc/Run3Summer23NanoAODv12/GluGlutoHHto4B_kl-1p00_kt-1p00_c2-0p10_TuneCP5_13p6TeV_powheg-pythia8/NANOAODSIM/130X_mcRun3_2023_realistic_v15-v3/50000/aa2cf1e5-0e88-485b-bd1a-5c79ce74d921.root",
        "T2_IT_Pisa: davs://stwebdav.pi.infn.it:8443/cms/store/mc/Run3Summer23NanoAODv12/GluGlutoHHto4B_kl-1p00_kt-1p00_c2-0p10_TuneCP5_13p6TeV_powheg-pythia8/NANOAODSIM/130X_mcRun3_2023_realistic_v15-v3/50000/aa2cf1e5-0e88-485b-bd1a-5c79ce74d921.root",
        "T2_UK_London_IC: davs://gfe02.grid.hep.ph.ic.ac.uk:2880/pnfs/hep.ph.ic.ac.uk/data/cms/store/mc/Run3Summer23NanoAODv12/GluGlutoHHto4B_kl-1p00_kt-1p00_c2-0p10_TuneCP5_13p6TeV_powheg-pythia8/NANOAODSIM/130X_mcRun3_2023_realistic_v15-v3/50000/aa2cf1e5-0e88-485b-bd1a-5c79ce74d921.root",
        "T2_UK_London_Brunel: davs://xrootdgw.brunel.ac.uk:1094/store/mc/Run3Summer23NanoAODv12/GluGlutoHHto4B_kl-1p00_kt-1p00_c2-0p10_TuneCP5_13p6TeV_powheg-pythia8/NANOAODSIM/130X_mcRun3_2023_realistic_v15-v3/50000/aa2cf1e5-0e88-485b-bd1a-5c79ce74d921.root"
    ],
    "cms:/store/mc/Run3Summer23NanoAODv12/GluGlutoHHto4B_kl-1p00_kt-1p00_c2-0p10_TuneCP5_13p6TeV_powheg-pythia8/NANOAODSIM/130X_mcRun3_2023_realistic_v15-v3/50000/3765115f-9328-4cec-8250-8a867d6dc96c.root": [
        "T1_US_FNAL_Disk: davs://cmsdcadisk.fnal.gov:2880/dcache/uscmsdisk/store/mc/Run3Summer23NanoAODv12/GluGlutoHHto4B_kl-1p00_kt-1p00_c2-0p10_TuneCP5_13p6TeV_powheg-pythia8/NANOAODSIM/130X_mcRun3_2023_realistic_v15-v3/50000/3765115f-9328-4cec-8250-8a867d6dc96c.root",
        "T1_UK_RAL_Tape: davs://antares.stfc.ac.uk:9000/eos/antares/prod/cms/store/mc/Run3Summer23NanoAODv12/GluGlutoHHto4B_kl-1p00_kt-1p00_c2-0p10_TuneCP5_13p6TeV_powheg-pythia8/NANOAODSIM/130X_mcRun3_2023_realistic_v15-v3/50000/3765115f-9328-4cec-8250-8a867d6dc96c.root",
        "T2_BR_SPRACE: davs://osg-se.sprace.org.br:1094/store/mc/Run3Summer23NanoAODv12/GluGlutoHHto4B_kl-1p00_kt-1p00_c2-0p10_TuneCP5_13p6TeV_powheg-pythia8/NANOAODSIM/130X_mcRun3_2023_realistic_v15-v3/50000/3765115f-9328-4cec-8250-8a867d6dc96c.root",
        "T2_HU_Budapest: davs://grid143.kfki.hu:443/dpm/kfki.hu/home/cms/phedex/store/mc/Run3Summer23NanoAODv12/GluGlutoHHto4B_kl-1p00_kt-1p00_c2-0p10_TuneCP5_13p6TeV_powheg-pythia8/NANOAODSIM/130X_mcRun3_2023_realistic_v15-v3/50000/3765115f-9328-4cec-8250-8a867d6dc96c.root",
        "T2_EE_Estonia: davs://xrootd.hep.kbfi.ee:1094/store/mc/Run3Summer23NanoAODv12/GluGlutoHHto4B_kl-1p00_kt-1p00_c2-0p10_TuneCP5_13p6TeV_powheg-pythia8/NANOAODSIM/130X_mcRun3_2023_realistic_v15-v3/50000/3765115f-9328-4cec-8250-8a867d6dc96c.root",
        "T2_IT_Pisa: davs://stwebdav.pi.infn.it:8443/cms/store/mc/Run3Summer23NanoAODv12/GluGlutoHHto4B_kl-1p00_kt-1p00_c2-0p10_TuneCP5_13p6TeV_powheg-pythia8/NANOAODSIM/130X_mcRun3_2023_realistic_v15-v3/50000/3765115f-9328-4cec-8250-8a867d6dc96c.root",
        "T2_ES_CIEMAT: davs://srm.ciemat.es:2880/pnfs/ciemat.es/data/cms/prod/store/mc/Run3Summer23NanoAODv12/GluGlutoHHto4B_kl-1p00_kt-1p00_c2-0p10_TuneCP5_13p6TeV_powheg-pythia8/NANOAODSIM/130X_mcRun3_2023_realistic_v15-v3/50000/3765115f-9328-4cec-8250-8a867d6dc96c.root",
        "T2_UK_London_Brunel: davs://xrootdgw.brunel.ac.uk:1094/store/mc/Run3Summer23NanoAODv12/GluGlutoHHto4B_kl-1p00_kt-1p00_c2-0p10_TuneCP5_13p6TeV_powheg-pythia8/NANOAODSIM/130X_mcRun3_2023_realistic_v15-v3/50000/3765115f-9328-4cec-8250-8a867d6dc96c.root"
    ],
    "cms:/store/mc/Run3Summer23NanoAODv12/GluGlutoHHto4B_kl-1p00_kt-1p00_c2-0p10_TuneCP5_13p6TeV_powheg-pythia8/NANOAODSIM/130X_mcRun3_2023_realistic_v15-v3/50000/47e3afcb-0bd8-416e-a9b2-80a160c50b49.root": [
        "T1_US_FNAL_Disk: davs://cmsdcadisk.fnal.gov:2880/dcache/uscmsdisk/store/mc/Run3Summer23NanoAODv12/GluGlutoHHto4B_kl-1p00_kt-1p00_c2-0p10_TuneCP5_13p6TeV_powheg-pythia8/NANOAODSIM/130X_mcRun3_2023_realistic_v15-v3/50000/47e3afcb-0bd8-416e-a9b2-80a160c50b49.root",
        "T1_UK_RAL_Tape: davs://antares.stfc.ac.uk:9000/eos/antares/prod/cms/store/mc/Run3Summer23NanoAODv12/GluGlutoHHto4B_kl-1p00_kt-1p00_c2-0p10_TuneCP5_13p6TeV_powheg-pythia8/NANOAODSIM/130X_mcRun3_2023_realistic_v15-v3/50000/47e3afcb-0bd8-416e-a9b2-80a160c50b49.root",
        "T2_BR_SPRACE: davs://osg-se.sprace.org.br:1094/store/mc/Run3Summer23NanoAODv12/GluGlutoHHto4B_kl-1p00_kt-1p00_c2-0p10_TuneCP5_13p6TeV_powheg-pythia8/NANOAODSIM/130X_mcRun3_2023_realistic_v15-v3/50000/47e3afcb-0bd8-416e-a9b2-80a160c50b49.root",
        "T2_HU_Budapest: davs://grid143.kfki.hu:443/dpm/kfki.hu/home/cms/phedex/store/mc/Run3Summer23NanoAODv12/GluGlutoHHto4B_kl-1p00_kt-1p00_c2-0p10_TuneCP5_13p6TeV_powheg-pythia8/NANOAODSIM/130X_mcRun3_2023_realistic_v15-v3/50000/47e3afcb-0bd8-416e-a9b2-80a160c50b49.root",
        "T2_EE_Estonia: davs://xrootd.hep.kbfi.ee:1094/store/mc/Run3Summer23NanoAODv12/GluGlutoHHto4B_kl-1p00_kt-1p00_c2-0p10_TuneCP5_13p6TeV_powheg-pythia8/NANOAODSIM/130X_mcRun3_2023_realistic_v15-v3/50000/47e3afcb-0bd8-416e-a9b2-80a160c50b49.root",
        "T2_IT_Pisa: davs://stwebdav.pi.infn.it:8443/cms/store/mc/Run3Summer23NanoAODv12/GluGlutoHHto4B_kl-1p00_kt-1p00_c2-0p10_TuneCP5_13p6TeV_powheg-pythia8/NANOAODSIM/130X_mcRun3_2023_realistic_v15-v3/50000/47e3afcb-0bd8-416e-a9b2-80a160c50b49.root",
        "T2_UK_London_Brunel: davs://xrootdgw.brunel.ac.uk:1094/store/mc/Run3Summer23NanoAODv12/GluGlutoHHto4B_kl-1p00_kt-1p00_c2-0p10_TuneCP5_13p6TeV_powheg-pythia8/NANOAODSIM/130X_mcRun3_2023_realistic_v15-v3/50000/47e3afcb-0bd8-416e-a9b2-80a160c50b49.root"
    ],
    "cms:/store/mc/Run3Summer23NanoAODv12/GluGlutoHHto4B_kl-1p00_kt-1p00_c2-0p10_TuneCP5_13p6TeV_powheg-pythia8/NANOAODSIM/130X_mcRun3_2023_realistic_v15-v3/50000/3337f788-b0cd-4254-b627-d0f945952619.root": [
        "T1_US_FNAL_Disk: davs://cmsdcadisk.fnal.gov:2880/dcache/uscmsdisk/store/mc/Run3Summer23NanoAODv12/GluGlutoHHto4B_kl-1p00_kt-1p00_c2-0p10_TuneCP5_13p6TeV_powheg-pythia8/NANOAODSIM/130X_mcRun3_2023_realistic_v15-v3/50000/3337f788-b0cd-4254-b627-d0f945952619.root",
        "T1_UK_RAL_Tape: davs://antares.stfc.ac.uk:9000/eos/antares/prod/cms/store/mc/Run3Summer23NanoAODv12/GluGlutoHHto4B_kl-1p00_kt-1p00_c2-0p10_TuneCP5_13p6TeV_powheg-pythia8/NANOAODSIM/130X_mcRun3_2023_realistic_v15-v3/50000/3337f788-b0cd-4254-b627-d0f945952619.root",
        "T2_BR_SPRACE: davs://osg-se.sprace.org.br:1094/store/mc/Run3Summer23NanoAODv12/GluGlutoHHto4B_kl-1p00_kt-1p00_c2-0p10_TuneCP5_13p6TeV_powheg-pythia8/NANOAODSIM/130X_mcRun3_2023_realistic_v15-v3/50000/3337f788-b0cd-4254-b627-d0f945952619.root",
        "T2_HU_Budapest: davs://grid143.kfki.hu:443/dpm/kfki.hu/home/cms/phedex/store/mc/Run3Summer23NanoAODv12/GluGlutoHHto4B_kl-1p00_kt-1p00_c2-0p10_TuneCP5_13p6TeV_powheg-pythia8/NANOAODSIM/130X_mcRun3_2023_realistic_v15-v3/50000/3337f788-b0cd-4254-b627-d0f945952619.root",
        "T2_EE_Estonia: davs://xrootd.hep.kbfi.ee:1094/store/mc/Run3Summer23NanoAODv12/GluGlutoHHto4B_kl-1p00_kt-1p00_c2-0p10_TuneCP5_13p6TeV_powheg-pythia8/NANOAODSIM/130X_mcRun3_2023_realistic_v15-v3/50000/3337f788-b0cd-4254-b627-d0f945952619.root",
        "T2_IT_Pisa: davs://stwebdav.pi.infn.it:8443/cms/store/mc/Run3Summer23NanoAODv12/GluGlutoHHto4B_kl-1p00_kt-1p00_c2-0p10_TuneCP5_13p6TeV_powheg-pythia8/NANOAODSIM/130X_mcRun3_2023_realistic_v15-v3/50000/3337f788-b0cd-4254-b627-d0f945952619.root",
        "T2_UK_London_Brunel: davs://xrootdgw.brunel.ac.uk:1094/store/mc/Run3Summer23NanoAODv12/GluGlutoHHto4B_kl-1p00_kt-1p00_c2-0p10_TuneCP5_13p6TeV_powheg-pythia8/NANOAODSIM/130X_mcRun3_2023_realistic_v15-v3/50000/3337f788-b0cd-4254-b627-d0f945952619.root"
    ],
    "cms:/store/mc/Run3Summer23NanoAODv12/GluGlutoHHto4B_kl-1p00_kt-1p00_c2-0p10_TuneCP5_13p6TeV_powheg-pythia8/NANOAODSIM/130X_mcRun3_2023_realistic_v15-v3/50000/57fdc7b3-26f2-40ab-9a46-611eee1af4e2.root": [
        "T1_US_FNAL_Disk: davs://cmsdcadisk.fnal.gov:2880/dcache/uscmsdisk/store/mc/Run3Summer23NanoAODv12/GluGlutoHHto4B_kl-1p00_kt-1p00_c2-0p10_TuneCP5_13p6TeV_powheg-pythia8/NANOAODSIM/130X_mcRun3_2023_realistic_v15-v3/50000/57fdc7b3-26f2-40ab-9a46-611eee1af4e2.root",
        "T1_UK_RAL_Tape: davs://antares.stfc.ac.uk:9000/eos/antares/prod/cms/store/mc/Run3Summer23NanoAODv12/GluGlutoHHto4B_kl-1p00_kt-1p00_c2-0p10_TuneCP5_13p6TeV_powheg-pythia8/NANOAODSIM/130X_mcRun3_2023_realistic_v15-v3/50000/57fdc7b3-26f2-40ab-9a46-611eee1af4e2.root",
        "T2_BR_SPRACE: davs://osg-se.sprace.org.br:1094/store/mc/Run3Summer23NanoAODv12/GluGlutoHHto4B_kl-1p00_kt-1p00_c2-0p10_TuneCP5_13p6TeV_powheg-pythia8/NANOAODSIM/130X_mcRun3_2023_realistic_v15-v3/50000/57fdc7b3-26f2-40ab-9a46-611eee1af4e2.root",
        "T2_HU_Budapest: davs://grid143.kfki.hu:443/dpm/kfki.hu/home/cms/phedex/store/mc/Run3Summer23NanoAODv12/GluGlutoHHto4B_kl-1p00_kt-1p00_c2-0p10_TuneCP5_13p6TeV_powheg-pythia8/NANOAODSIM/130X_mcRun3_2023_realistic_v15-v3/50000/57fdc7b3-26f2-40ab-9a46-611eee1af4e2.root",
        "T2_EE_Estonia: davs://xrootd.hep.kbfi.ee:1094/store/mc/Run3Summer23NanoAODv12/GluGlutoHHto4B_kl-1p00_kt-1p00_c2-0p10_TuneCP5_13p6TeV_powheg-pythia8/NANOAODSIM/130X_mcRun3_2023_realistic_v15-v3/50000/57fdc7b3-26f2-40ab-9a46-611eee1af4e2.root",
        "T2_IT_Pisa: davs://stwebdav.pi.infn.it:8443/cms/store/mc/Run3Summer23NanoAODv12/GluGlutoHHto4B_kl-1p00_kt-1p00_c2-0p10_TuneCP5_13p6TeV_powheg-pythia8/NANOAODSIM/130X_mcRun3_2023_realistic_v15-v3/50000/57fdc7b3-26f2-40ab-9a46-611eee1af4e2.root",
        "T2_UK_London_Brunel: davs://xrootdgw.brunel.ac.uk:1094/store/mc/Run3Summer23NanoAODv12/GluGlutoHHto4B_kl-1p00_kt-1p00_c2-0p10_TuneCP5_13p6TeV_powheg-pythia8/NANOAODSIM/130X_mcRun3_2023_realistic_v15-v3/50000/57fdc7b3-26f2-40ab-9a46-611eee1af4e2.root"
    ],
    "cms:/store/mc/Run3Summer23NanoAODv12/GluGlutoHHto4B_kl-1p00_kt-1p00_c2-0p10_TuneCP5_13p6TeV_powheg-pythia8/NANOAODSIM/130X_mcRun3_2023_realistic_v15-v3/50000/9e49e20a-6e52-4363-a0bc-113a17e369e2.root": [
        "T1_US_FNAL_Disk: davs://cmsdcadisk.fnal.gov:2880/dcache/uscmsdisk/store/mc/Run3Summer23NanoAODv12/GluGlutoHHto4B_kl-1p00_kt-1p00_c2-0p10_TuneCP5_13p6TeV_powheg-pythia8/NANOAODSIM/130X_mcRun3_2023_realistic_v15-v3/50000/9e49e20a-6e52-4363-a0bc-113a17e369e2.root",
        "T1_UK_RAL_Tape: davs://antares.stfc.ac.uk:9000/eos/antares/prod/cms/store/mc/Run3Summer23NanoAODv12/GluGlutoHHto4B_kl-1p00_kt-1p00_c2-0p10_TuneCP5_13p6TeV_powheg-pythia8/NANOAODSIM/130X_mcRun3_2023_realistic_v15-v3/50000/9e49e20a-6e52-4363-a0bc-113a17e369e2.root",
        "T2_BR_SPRACE: davs://osg-se.sprace.org.br:1094/store/mc/Run3Summer23NanoAODv12/GluGlutoHHto4B_kl-1p00_kt-1p00_c2-0p10_TuneCP5_13p6TeV_powheg-pythia8/NANOAODSIM/130X_mcRun3_2023_realistic_v15-v3/50000/9e49e20a-6e52-4363-a0bc-113a17e369e2.root",
        "T2_HU_Budapest: davs://grid143.kfki.hu:443/dpm/kfki.hu/home/cms/phedex/store/mc/Run3Summer23NanoAODv12/GluGlutoHHto4B_kl-1p00_kt-1p00_c2-0p10_TuneCP5_13p6TeV_powheg-pythia8/NANOAODSIM/130X_mcRun3_2023_realistic_v15-v3/50000/9e49e20a-6e52-4363-a0bc-113a17e369e2.root",
        "T2_EE_Estonia: davs://xrootd.hep.kbfi.ee:1094/store/mc/Run3Summer23NanoAODv12/GluGlutoHHto4B_kl-1p00_kt-1p00_c2-0p10_TuneCP5_13p6TeV_powheg-pythia8/NANOAODSIM/130X_mcRun3_2023_realistic_v15-v3/50000/9e49e20a-6e52-4363-a0bc-113a17e369e2.root",
        "T2_IT_Pisa: davs://stwebdav.pi.infn.it:8443/cms/store/mc/Run3Summer23NanoAODv12/GluGlutoHHto4B_kl-1p00_kt-1p00_c2-0p10_TuneCP5_13p6TeV_powheg-pythia8/NANOAODSIM/130X_mcRun3_2023_realistic_v15-v3/50000/9e49e20a-6e52-4363-a0bc-113a17e369e2.root",
        "T2_UK_London_Brunel: davs://xrootdgw.brunel.ac.uk:1094/store/mc/Run3Summer23NanoAODv12/GluGlutoHHto4B_kl-1p00_kt-1p00_c2-0p10_TuneCP5_13p6TeV_powheg-pythia8/NANOAODSIM/130X_mcRun3_2023_realistic_v15-v3/50000/9e49e20a-6e52-4363-a0bc-113a17e369e2.root"
    ],
    "cms:/store/mc/Run3Summer23NanoAODv12/GluGlutoHHto4B_kl-1p00_kt-1p00_c2-0p10_TuneCP5_13p6TeV_powheg-pythia8/NANOAODSIM/130X_mcRun3_2023_realistic_v15-v3/50000/eb8f0c57-eccb-49d9-b9d5-fb922242c5fe.root": [
        "T1_US_FNAL_Disk: davs://cmsdcadisk.fnal.gov:2880/dcache/uscmsdisk/store/mc/Run3Summer23NanoAODv12/GluGlutoHHto4B_kl-1p00_kt-1p00_c2-0p10_TuneCP5_13p6TeV_powheg-pythia8/NANOAODSIM/130X_mcRun3_2023_realistic_v15-v3/50000/eb8f0c57-eccb-49d9-b9d5-fb922242c5fe.root",
        "T1_UK_RAL_Tape: davs://antares.stfc.ac.uk:9000/eos/antares/prod/cms/store/mc/Run3Summer23NanoAODv12/GluGlutoHHto4B_kl-1p00_kt-1p00_c2-0p10_TuneCP5_13p6TeV_powheg-pythia8/NANOAODSIM/130X_mcRun3_2023_realistic_v15-v3/50000/eb8f0c57-eccb-49d9-b9d5-fb922242c5fe.root",
        "T2_IT_Bari: davs://webdav.recas.ba.infn.it:8443/cms/store/mc/Run3Summer23NanoAODv12/GluGlutoHHto4B_kl-1p00_kt-1p00_c2-0p10_TuneCP5_13p6TeV_powheg-pythia8/NANOAODSIM/130X_mcRun3_2023_realistic_v15-v3/50000/eb8f0c57-eccb-49d9-b9d5-fb922242c5fe.root",
        "T2_BR_SPRACE: davs://osg-se.sprace.org.br:1094/store/mc/Run3Summer23NanoAODv12/GluGlutoHHto4B_kl-1p00_kt-1p00_c2-0p10_TuneCP5_13p6TeV_powheg-pythia8/NANOAODSIM/130X_mcRun3_2023_realistic_v15-v3/50000/eb8f0c57-eccb-49d9-b9d5-fb922242c5fe.root",
        "T2_HU_Budapest: davs://grid143.kfki.hu:443/dpm/kfki.hu/home/cms/phedex/store/mc/Run3Summer23NanoAODv12/GluGlutoHHto4B_kl-1p00_kt-1p00_c2-0p10_TuneCP5_13p6TeV_powheg-pythia8/NANOAODSIM/130X_mcRun3_2023_realistic_v15-v3/50000/eb8f0c57-eccb-49d9-b9d5-fb922242c5fe.root",
        "T2_EE_Estonia: davs://xrootd.hep.kbfi.ee:1094/store/mc/Run3Summer23NanoAODv12/GluGlutoHHto4B_kl-1p00_kt-1p00_c2-0p10_TuneCP5_13p6TeV_powheg-pythia8/NANOAODSIM/130X_mcRun3_2023_realistic_v15-v3/50000/eb8f0c57-eccb-49d9-b9d5-fb922242c5fe.root",
        "T2_IT_Pisa: davs://stwebdav.pi.infn.it:8443/cms/store/mc/Run3Summer23NanoAODv12/GluGlutoHHto4B_kl-1p00_kt-1p00_c2-0p10_TuneCP5_13p6TeV_powheg-pythia8/NANOAODSIM/130X_mcRun3_2023_realistic_v15-v3/50000/eb8f0c57-eccb-49d9-b9d5-fb922242c5fe.root",
        "T2_UK_London_Brunel: davs://xrootdgw.brunel.ac.uk:1094/store/mc/Run3Summer23NanoAODv12/GluGlutoHHto4B_kl-1p00_kt-1p00_c2-0p10_TuneCP5_13p6TeV_powheg-pythia8/NANOAODSIM/130X_mcRun3_2023_realistic_v15-v3/50000/eb8f0c57-eccb-49d9-b9d5-fb922242c5fe.root"
    ],
    "cms:/store/mc/Run3Summer23NanoAODv12/GluGlutoHHto4B_kl-1p00_kt-1p00_c2-0p10_TuneCP5_13p6TeV_powheg-pythia8/NANOAODSIM/130X_mcRun3_2023_realistic_v15-v3/50000/3838d4e3-b9b6-40cb-903a-fd339a9cc248.root": [
        "T1_US_FNAL_Disk: davs://cmsdcadisk.fnal.gov:2880/dcache/uscmsdisk/store/mc/Run3Summer23NanoAODv12/GluGlutoHHto4B_kl-1p00_kt-1p00_c2-0p10_TuneCP5_13p6TeV_powheg-pythia8/NANOAODSIM/130X_mcRun3_2023_realistic_v15-v3/50000/3838d4e3-b9b6-40cb-903a-fd339a9cc248.root",
        "T1_UK_RAL_Tape: davs://antares.stfc.ac.uk:9000/eos/antares/prod/cms/store/mc/Run3Summer23NanoAODv12/GluGlutoHHto4B_kl-1p00_kt-1p00_c2-0p10_TuneCP5_13p6TeV_powheg-pythia8/NANOAODSIM/130X_mcRun3_2023_realistic_v15-v3/50000/3838d4e3-b9b6-40cb-903a-fd339a9cc248.root",
        "T2_BR_SPRACE: davs://osg-se.sprace.org.br:1094/store/mc/Run3Summer23NanoAODv12/GluGlutoHHto4B_kl-1p00_kt-1p00_c2-0p10_TuneCP5_13p6TeV_powheg-pythia8/NANOAODSIM/130X_mcRun3_2023_realistic_v15-v3/50000/3838d4e3-b9b6-40cb-903a-fd339a9cc248.root",
        "T2_HU_Budapest: davs://grid143.kfki.hu:443/dpm/kfki.hu/home/cms/phedex/store/mc/Run3Summer23NanoAODv12/GluGlutoHHto4B_kl-1p00_kt-1p00_c2-0p10_TuneCP5_13p6TeV_powheg-pythia8/NANOAODSIM/130X_mcRun3_2023_realistic_v15-v3/50000/3838d4e3-b9b6-40cb-903a-fd339a9cc248.root",
        "T2_EE_Estonia: davs://xrootd.hep.kbfi.ee:1094/store/mc/Run3Summer23NanoAODv12/GluGlutoHHto4B_kl-1p00_kt-1p00_c2-0p10_TuneCP5_13p6TeV_powheg-pythia8/NANOAODSIM/130X_mcRun3_2023_realistic_v15-v3/50000/3838d4e3-b9b6-40cb-903a-fd339a9cc248.root",
        "T2_IT_Pisa: davs://stwebdav.pi.infn.it:8443/cms/store/mc/Run3Summer23NanoAODv12/GluGlutoHHto4B_kl-1p00_kt-1p00_c2-0p10_TuneCP5_13p6TeV_powheg-pythia8/NANOAODSIM/130X_mcRun3_2023_realistic_v15-v3/50000/3838d4e3-b9b6-40cb-903a-fd339a9cc248.root",
        "T2_UK_London_Brunel: davs://xrootdgw.brunel.ac.uk:1094/store/mc/Run3Summer23NanoAODv12/GluGlutoHHto4B_kl-1p00_kt-1p00_c2-0p10_TuneCP5_13p6TeV_powheg-pythia8/NANOAODSIM/130X_mcRun3_2023_realistic_v15-v3/50000/3838d4e3-b9b6-40cb-903a-fd339a9cc248.root"
    ],
    "cms:/store/mc/Run3Summer23NanoAODv12/GluGlutoHHto4B_kl-1p00_kt-1p00_c2-0p10_TuneCP5_13p6TeV_powheg-pythia8/NANOAODSIM/130X_mcRun3_2023_realistic_v15-v3/50000/01befa22-86ac-42b2-97af-816fd2eee7bc.root": [
        "T1_US_FNAL_Disk: davs://cmsdcadisk.fnal.gov:2880/dcache/uscmsdisk/store/mc/Run3Summer23NanoAODv12/GluGlutoHHto4B_kl-1p00_kt-1p00_c2-0p10_TuneCP5_13p6TeV_powheg-pythia8/NANOAODSIM/130X_mcRun3_2023_realistic_v15-v3/50000/01befa22-86ac-42b2-97af-816fd2eee7bc.root",
        "T1_UK_RAL_Tape: davs://antares.stfc.ac.uk:9000/eos/antares/prod/cms/store/mc/Run3Summer23NanoAODv12/GluGlutoHHto4B_kl-1p00_kt-1p00_c2-0p10_TuneCP5_13p6TeV_powheg-pythia8/NANOAODSIM/130X_mcRun3_2023_realistic_v15-v3/50000/01befa22-86ac-42b2-97af-816fd2eee7bc.root",
        "T2_BR_SPRACE: davs://osg-se.sprace.org.br:1094/store/mc/Run3Summer23NanoAODv12/GluGlutoHHto4B_kl-1p00_kt-1p00_c2-0p10_TuneCP5_13p6TeV_powheg-pythia8/NANOAODSIM/130X_mcRun3_2023_realistic_v15-v3/50000/01befa22-86ac-42b2-97af-816fd2eee7bc.root",
        "T2_HU_Budapest: davs://grid143.kfki.hu:443/dpm/kfki.hu/home/cms/phedex/store/mc/Run3Summer23NanoAODv12/GluGlutoHHto4B_kl-1p00_kt-1p00_c2-0p10_TuneCP5_13p6TeV_powheg-pythia8/NANOAODSIM/130X_mcRun3_2023_realistic_v15-v3/50000/01befa22-86ac-42b2-97af-816fd2eee7bc.root",
        "T2_EE_Estonia: davs://xrootd.hep.kbfi.ee:1094/store/mc/Run3Summer23NanoAODv12/GluGlutoHHto4B_kl-1p00_kt-1p00_c2-0p10_TuneCP5_13p6TeV_powheg-pythia8/NANOAODSIM/130X_mcRun3_2023_realistic_v15-v3/50000/01befa22-86ac-42b2-97af-816fd2eee7bc.root",
        "T2_IT_Pisa: davs://stwebdav.pi.infn.it:8443/cms/store/mc/Run3Summer23NanoAODv12/GluGlutoHHto4B_kl-1p00_kt-1p00_c2-0p10_TuneCP5_13p6TeV_powheg-pythia8/NANOAODSIM/130X_mcRun3_2023_realistic_v15-v3/50000/01befa22-86ac-42b2-97af-816fd2eee7bc.root",
        "T2_UK_London_Brunel: davs://xrootdgw.brunel.ac.uk:1094/store/mc/Run3Summer23NanoAODv12/GluGlutoHHto4B_kl-1p00_kt-1p00_c2-0p10_TuneCP5_13p6TeV_powheg-pythia8/NANOAODSIM/130X_mcRun3_2023_realistic_v15-v3/50000/01befa22-86ac-42b2-97af-816fd2eee7bc.root"
    ],
    "cms:/store/mc/Run3Summer23NanoAODv12/GluGlutoHHto4B_kl-1p00_kt-1p00_c2-0p10_TuneCP5_13p6TeV_powheg-pythia8/NANOAODSIM/130X_mcRun3_2023_realistic_v15-v3/50000/1a11be1d-8b4d-4655-a85e-d8258e6b9b7f.root": [
        "T1_US_FNAL_Disk: davs://cmsdcadisk.fnal.gov:2880/dcache/uscmsdisk/store/mc/Run3Summer23NanoAODv12/GluGlutoHHto4B_kl-1p00_kt-1p00_c2-0p10_TuneCP5_13p6TeV_powheg-pythia8/NANOAODSIM/130X_mcRun3_2023_realistic_v15-v3/50000/1a11be1d-8b4d-4655-a85e-d8258e6b9b7f.root",
        "T1_UK_RAL_Tape: davs://antares.stfc.ac.uk:9000/eos/antares/prod/cms/store/mc/Run3Summer23NanoAODv12/GluGlutoHHto4B_kl-1p00_kt-1p00_c2-0p10_TuneCP5_13p6TeV_powheg-pythia8/NANOAODSIM/130X_mcRun3_2023_realistic_v15-v3/50000/1a11be1d-8b4d-4655-a85e-d8258e6b9b7f.root",
        "T2_BR_SPRACE: davs://osg-se.sprace.org.br:1094/store/mc/Run3Summer23NanoAODv12/GluGlutoHHto4B_kl-1p00_kt-1p00_c2-0p10_TuneCP5_13p6TeV_powheg-pythia8/NANOAODSIM/130X_mcRun3_2023_realistic_v15-v3/50000/1a11be1d-8b4d-4655-a85e-d8258e6b9b7f.root",
        "T2_HU_Budapest: davs://grid143.kfki.hu:443/dpm/kfki.hu/home/cms/phedex/store/mc/Run3Summer23NanoAODv12/GluGlutoHHto4B_kl-1p00_kt-1p00_c2-0p10_TuneCP5_13p6TeV_powheg-pythia8/NANOAODSIM/130X_mcRun3_2023_realistic_v15-v3/50000/1a11be1d-8b4d-4655-a85e-d8258e6b9b7f.root",
        "T2_EE_Estonia: davs://xrootd.hep.kbfi.ee:1094/store/mc/Run3Summer23NanoAODv12/GluGlutoHHto4B_kl-1p00_kt-1p00_c2-0p10_TuneCP5_13p6TeV_powheg-pythia8/NANOAODSIM/130X_mcRun3_2023_realistic_v15-v3/50000/1a11be1d-8b4d-4655-a85e-d8258e6b9b7f.root",
        "T2_IT_Pisa: davs://stwebdav.pi.infn.it:8443/cms/store/mc/Run3Summer23NanoAODv12/GluGlutoHHto4B_kl-1p00_kt-1p00_c2-0p10_TuneCP5_13p6TeV_powheg-pythia8/NANOAODSIM/130X_mcRun3_2023_realistic_v15-v3/50000/1a11be1d-8b4d-4655-a85e-d8258e6b9b7f.root",
        "T2_UK_London_Brunel: davs://xrootdgw.brunel.ac.uk:1094/store/mc/Run3Summer23NanoAODv12/GluGlutoHHto4B_kl-1p00_kt-1p00_c2-0p10_TuneCP5_13p6TeV_powheg-pythia8/NANOAODSIM/130X_mcRun3_2023_realistic_v15-v3/50000/1a11be1d-8b4d-4655-a85e-d8258e6b9b7f.root"
    ],
    "cms:/store/mc/Run3Summer23NanoAODv12/GluGlutoHHto4B_kl-1p00_kt-1p00_c2-0p10_TuneCP5_13p6TeV_powheg-pythia8/NANOAODSIM/130X_mcRun3_2023_realistic_v15-v3/50000/0ae41d53-85af-42ca-885b-bbb34cd18c17.root": [
        "T1_US_FNAL_Disk: davs://cmsdcadisk.fnal.gov:2880/dcache/uscmsdisk/store/mc/Run3Summer23NanoAODv12/GluGlutoHHto4B_kl-1p00_kt-1p00_c2-0p10_TuneCP5_13p6TeV_powheg-pythia8/NANOAODSIM/130X_mcRun3_2023_realistic_v15-v3/50000/0ae41d53-85af-42ca-885b-bbb34cd18c17.root",
        "T1_UK_RAL_Tape: davs://antares.stfc.ac.uk:9000/eos/antares/prod/cms/store/mc/Run3Summer23NanoAODv12/GluGlutoHHto4B_kl-1p00_kt-1p00_c2-0p10_TuneCP5_13p6TeV_powheg-pythia8/NANOAODSIM/130X_mcRun3_2023_realistic_v15-v3/50000/0ae41d53-85af-42ca-885b-bbb34cd18c17.root",
        "T2_BR_SPRACE: davs://osg-se.sprace.org.br:1094/store/mc/Run3Summer23NanoAODv12/GluGlutoHHto4B_kl-1p00_kt-1p00_c2-0p10_TuneCP5_13p6TeV_powheg-pythia8/NANOAODSIM/130X_mcRun3_2023_realistic_v15-v3/50000/0ae41d53-85af-42ca-885b-bbb34cd18c17.root",
        "T2_HU_Budapest: davs://grid143.kfki.hu:443/dpm/kfki.hu/home/cms/phedex/store/mc/Run3Summer23NanoAODv12/GluGlutoHHto4B_kl-1p00_kt-1p00_c2-0p10_TuneCP5_13p6TeV_powheg-pythia8/NANOAODSIM/130X_mcRun3_2023_realistic_v15-v3/50000/0ae41d53-85af-42ca-885b-bbb34cd18c17.root",
        "T2_US_Nebraska: davs://xrootd-local.unl.edu:1094/store/mc/Run3Summer23NanoAODv12/GluGlutoHHto4B_kl-1p00_kt-1p00_c2-0p10_TuneCP5_13p6TeV_powheg-pythia8/NANOAODSIM/130X_mcRun3_2023_realistic_v15-v3/50000/0ae41d53-85af-42ca-885b-bbb34cd18c17.root",
        "T2_EE_Estonia: davs://xrootd.hep.kbfi.ee:1094/store/mc/Run3Summer23NanoAODv12/GluGlutoHHto4B_kl-1p00_kt-1p00_c2-0p10_TuneCP5_13p6TeV_powheg-pythia8/NANOAODSIM/130X_mcRun3_2023_realistic_v15-v3/50000/0ae41d53-85af-42ca-885b-bbb34cd18c17.root",
        "T2_IT_Pisa: davs://stwebdav.pi.infn.it:8443/cms/store/mc/Run3Summer23NanoAODv12/GluGlutoHHto4B_kl-1p00_kt-1p00_c2-0p10_TuneCP5_13p6TeV_powheg-pythia8/NANOAODSIM/130X_mcRun3_2023_realistic_v15-v3/50000/0ae41d53-85af-42ca-885b-bbb34cd18c17.root",
        "T2_UK_London_Brunel: davs://xrootdgw.brunel.ac.uk:1094/store/mc/Run3Summer23NanoAODv12/GluGlutoHHto4B_kl-1p00_kt-1p00_c2-0p10_TuneCP5_13p6TeV_powheg-pythia8/NANOAODSIM/130X_mcRun3_2023_realistic_v15-v3/50000/0ae41d53-85af-42ca-885b-bbb34cd18c17.root"
    ],
    "cms:/store/mc/Run3Summer23NanoAODv12/GluGlutoHHto4B_kl-1p00_kt-1p00_c2-0p10_TuneCP5_13p6TeV_powheg-pythia8/NANOAODSIM/130X_mcRun3_2023_realistic_v15-v3/50000/f8d37b77-131a-41f1-8dd9-3cc536f57008.root": [
        "T1_US_FNAL_Disk: davs://cmsdcadisk.fnal.gov:2880/dcache/uscmsdisk/store/mc/Run3Summer23NanoAODv12/GluGlutoHHto4B_kl-1p00_kt-1p00_c2-0p10_TuneCP5_13p6TeV_powheg-pythia8/NANOAODSIM/130X_mcRun3_2023_realistic_v15-v3/50000/f8d37b77-131a-41f1-8dd9-3cc536f57008.root",
        "T1_UK_RAL_Tape: davs://antares.stfc.ac.uk:9000/eos/antares/prod/cms/store/mc/Run3Summer23NanoAODv12/GluGlutoHHto4B_kl-1p00_kt-1p00_c2-0p10_TuneCP5_13p6TeV_powheg-pythia8/NANOAODSIM/130X_mcRun3_2023_realistic_v15-v3/50000/f8d37b77-131a-41f1-8dd9-3cc536f57008.root",
        "T2_BR_SPRACE: davs://osg-se.sprace.org.br:1094/store/mc/Run3Summer23NanoAODv12/GluGlutoHHto4B_kl-1p00_kt-1p00_c2-0p10_TuneCP5_13p6TeV_powheg-pythia8/NANOAODSIM/130X_mcRun3_2023_realistic_v15-v3/50000/f8d37b77-131a-41f1-8dd9-3cc536f57008.root",
        "T2_HU_Budapest: davs://grid143.kfki.hu:443/dpm/kfki.hu/home/cms/phedex/store/mc/Run3Summer23NanoAODv12/GluGlutoHHto4B_kl-1p00_kt-1p00_c2-0p10_TuneCP5_13p6TeV_powheg-pythia8/NANOAODSIM/130X_mcRun3_2023_realistic_v15-v3/50000/f8d37b77-131a-41f1-8dd9-3cc536f57008.root",
        "T2_US_Nebraska: davs://xrootd-local.unl.edu:1094/store/mc/Run3Summer23NanoAODv12/GluGlutoHHto4B_kl-1p00_kt-1p00_c2-0p10_TuneCP5_13p6TeV_powheg-pythia8/NANOAODSIM/130X_mcRun3_2023_realistic_v15-v3/50000/f8d37b77-131a-41f1-8dd9-3cc536f57008.root",
        "T2_EE_Estonia: davs://xrootd.hep.kbfi.ee:1094/store/mc/Run3Summer23NanoAODv12/GluGlutoHHto4B_kl-1p00_kt-1p00_c2-0p10_TuneCP5_13p6TeV_powheg-pythia8/NANOAODSIM/130X_mcRun3_2023_realistic_v15-v3/50000/f8d37b77-131a-41f1-8dd9-3cc536f57008.root",
        "T2_IT_Pisa: davs://stwebdav.pi.infn.it:8443/cms/store/mc/Run3Summer23NanoAODv12/GluGlutoHHto4B_kl-1p00_kt-1p00_c2-0p10_TuneCP5_13p6TeV_powheg-pythia8/NANOAODSIM/130X_mcRun3_2023_realistic_v15-v3/50000/f8d37b77-131a-41f1-8dd9-3cc536f57008.root",
        "T2_UK_London_Brunel: davs://xrootdgw.brunel.ac.uk:1094/store/mc/Run3Summer23NanoAODv12/GluGlutoHHto4B_kl-1p00_kt-1p00_c2-0p10_TuneCP5_13p6TeV_powheg-pythia8/NANOAODSIM/130X_mcRun3_2023_realistic_v15-v3/50000/f8d37b77-131a-41f1-8dd9-3cc536f57008.root"
    ]
}