+---------------------------------------------------------------------------------------------------------------------------------------------------------------------------------------------------------------+--------+-------------+------------+----------+
| SCOPE:NAME                                                                                                                                                                                                    | GUID   | ADLER32     | FILESIZE   | EVENTS   |
|---------------------------------------------------------------------------------------------------------------------------------------------------------------------------------------------------------------+--------+-------------+------------+----------|
| cms:/store/mc/Run3Summer22NanoAODv12/GluGlutoHHto4V_kl-1p00_kt-1p00_c2-0p00_TuneCP5_13p6TeV_powheg-pythia8/NANOAODSIM/130X_mcRun3_2022_realistic_v5_ext1-v1/80000/74ab4b0c-a5b8-4787-a7e8-505e522cbbd0.root   | (None) | ad:857e807f | 7.925 MB   |          |
| cms:/store/mc/Run3Summer22NanoAODv12/GluGlutoHHto4V_kl-1p00_kt-1p00_c2-0p00_TuneCP5_13p6TeV_powheg-pythia8/NANOAODSIM/130X_mcRun3_2022_realistic_v5_ext1-v1/50000/43f34724-6499-4e87-9124-85d644ca41b9.root   | (None) | ad:f3f1a4dc | 43.056 MB  |          |
| cms:/store/mc/Run3Summer22NanoAODv12/GluGlutoHHto4V_kl-1p00_kt-1p00_c2-0p00_TuneCP5_13p6TeV_powheg-pythia8/NANOAODSIM/130X_mcRun3_2022_realistic_v5_ext1-v1/30000/04f74909-037d-488c-9098-7387ab305b41.root   | (None) | ad:4ff0e85c | 140.517 MB |          |
| cms:/store/mc/Run3Summer22NanoAODv12/GluGlutoHHto4V_kl-1p00_kt-1p00_c2-0p00_TuneCP5_13p6TeV_powheg-pythia8/NANOAODSIM/130X_mcRun3_2022_realistic_v5_ext1-v1/2550000/06f72d40-6a9c-4933-9e59-8b26a941fc4a.root | (None) | ad:243d6954 | 8.979 MB   |          |
| cms:/store/mc/Run3Summer22NanoAODv12/GluGlutoHHto4V_kl-1p00_kt-1p00_c2-0p00_TuneCP5_13p6TeV_powheg-pythia8/NANOAODSIM/130X_mcRun3_2022_realistic_v5_ext1-v1/2550000/e33a40eb-9002-4793-9ddc-abf0c0f3461e.root | (None) | ad:ec629d74 | 4.373 MB   |          |
| cms:/store/mc/Run3Summer22NanoAODv12/GluGlutoHHto4V_kl-1p00_kt-1p00_c2-0p00_TuneCP5_13p6TeV_powheg-pythia8/NANOAODSIM/130X_mcRun3_2022_realistic_v5_ext1-v1/80000/a5efcfb8-4a2c-4cf8-bb69-edd99de9460b.root   | (None) | ad:6dd2a230 | 5.089 MB   |          |
| cms:/store/mc/Run3Summer22NanoAODv12/GluGlutoHHto4V_kl-1p00_kt-1p00_c2-0p00_TuneCP5_13p6TeV_powheg-pythia8/NANOAODSIM/130X_mcRun3_2022_realistic_v5_ext1-v1/50000/f6165af3-7763-4878-bb2f-faf3603dd4bb.root   | (None) | ad:942d73f7 | 11.396 MB  |          |
| cms:/store/mc/Run3Summer22NanoAODv12/GluGlutoHHto4V_kl-1p00_kt-1p00_c2-0p00_TuneCP5_13p6TeV_powheg-pythia8/NANOAODSIM/130X_mcRun3_2022_realistic_v5_ext1-v1/50000/2a7ccb1b-c22d-4bce-afc1-a2221f84eb45.root   | (None) | ad:f5fdbd96 | 17.773 MB  |          |
| cms:/store/mc/Run3Summer22NanoAODv12/GluGlutoHHto4V_kl-1p00_kt-1p00_c2-0p00_TuneCP5_13p6TeV_powheg-pythia8/NANOAODSIM/130X_mcRun3_2022_realistic_v5_ext1-v1/30000/6ab41c01-0abc-4d98-95a9-e60171ddd7c8.root   | (None) | ad:5ed8b851 | 19.580 MB  |          |
| cms:/store/mc/Run3Summer22NanoAODv12/GluGlutoHHto4V_kl-1p00_kt-1p00_c2-0p00_TuneCP5_13p6TeV_powheg-pythia8/NANOAODSIM/130X_mcRun3_2022_realistic_v5_ext1-v1/50000/384b4edd-92d0-4cf7-8ce0-799d89709d27.root   | (None) | ad:2a9a7f61 | 23.035 MB  |          |
| cms:/store/mc/Run3Summer22NanoAODv12/GluGlutoHHto4V_kl-1p00_kt-1p00_c2-0p00_TuneCP5_13p6TeV_powheg-pythia8/NANOAODSIM/130X_mcRun3_2022_realistic_v5_ext1-v1/2540000/8bd7766e-6273-4513-b1df-436b64ffa0d4.root | (None) | ad:cd85cb41 | 7.816 MB   |          |
| cms:/store/mc/Run3Summer22NanoAODv12/GluGlutoHHto4V_kl-1p00_kt-1p00_c2-0p00_TuneCP5_13p6TeV_powheg-pythia8/NANOAODSIM/130X_mcRun3_2022_realistic_v5_ext1-v1/50000/20e519d3-7a6f-4c8e-b85e-d0c26103f022.root   | (None) | ad:89ac4ec4 | 6.007 MB   |          |
| cms:/store/mc/Run3Summer22NanoAODv12/GluGlutoHHto4V_kl-1p00_kt-1p00_c2-0p00_TuneCP5_13p6TeV_powheg-pythia8/NANOAODSIM/130X_mcRun3_2022_realistic_v5_ext1-v1/80000/c98bc21b-0f6e-4319-bd39-f4dd130d3f16.root   | (None) | ad:7bcdc6ff | 12.567 MB  |          |
| cms:/store/mc/Run3Summer22NanoAODv12/GluGlutoHHto4V_kl-1p00_kt-1p00_c2-0p00_TuneCP5_13p6TeV_powheg-pythia8/NANOAODSIM/130X_mcRun3_2022_realistic_v5_ext1-v1/2540000/0c117f2e-42d5-436c-8ef0-abc95dc9af68.root | (None) | ad:dc9875b4 | 57.856 MB  |          |
| cms:/store/mc/Run3Summer22NanoAODv12/GluGlutoHHto4V_kl-1p00_kt-1p00_c2-0p00_TuneCP5_13p6TeV_powheg-pythia8/NANOAODSIM/130X_mcRun3_2022_realistic_v5_ext1-v1/2560000/dcaf8235-276c-451e-a9be-b7e5afc872ad.root | (None) | ad:ce18059b | 4.774 MB   |          |
| cms:/store/mc/Run3Summer22NanoAODv12/GluGlutoHHto4V_kl-1p00_kt-1p00_c2-0p00_TuneCP5_13p6TeV_powheg-pythia8/NANOAODSIM/130X_mcRun3_2022_realistic_v5_ext1-v1/2560000/37bce7ea-fe26-4646-857c-bc3fbe62fd8b.root | (None) | ad:9d874cc3 | 17.423 MB  |          |
| cms:/store/mc/Run3Summer22NanoAODv12/GluGlutoHHto4V_kl-1p00_kt-1p00_c2-0p00_TuneCP5_13p6TeV_powheg-pythia8/NANOAODSIM/130X_mcRun3_2022_realistic_v5_ext1-v1/2540000/1be82670-a68c-44d2-ad9c-fc08efbad812.root | (None) | ad:e151aee3 | 17.515 MB  |          |
| cms:/store/mc/Run3Summer22NanoAODv12/GluGlutoHHto4V_kl-1p00_kt-1p00_c2-0p00_TuneCP5_13p6TeV_powheg-pythia8/NANOAODSIM/130X_mcRun3_2022_realistic_v5_ext1-v1/2560000/c226de9a-4012-4577-bde3-a6b6d46f8956.root | (None) | ad:9a2d6dba | 15.587 MB  |          |
| cms:/store/mc/Run3Summer22NanoAODv12/GluGlutoHHto4V_kl-1p00_kt-1p00_c2-0p00_TuneCP5_13p6TeV_powheg-pythia8/NANOAODSIM/130X_mcRun3_2022_realistic_v5_ext1-v1/80000/09e650c4-7cd0-4663-a6eb-58b635dbc2f8.root   | (None) | ad:9aae7a8a | 2.937 MB   |          |
| cms:/store/mc/Run3Summer22NanoAODv12/GluGlutoHHto4V_kl-1p00_kt-1p00_c2-0p00_TuneCP5_13p6TeV_powheg-pythia8/NANOAODSIM/130X_mcRun3_2022_realistic_v5_ext1-v1/50000/f6bf6784-bcef-49fe-9be1-7a9b0919c401.root   | (None) | ad:72efa788 | 15.583 MB  |          |
| cms:/store/mc/Run3Summer22NanoAODv12/GluGlutoHHto4V_kl-1p00_kt-1p00_c2-0p00_TuneCP5_13p6TeV_powheg-pythia8/NANOAODSIM/130X_mcRun3_2022_realistic_v5_ext1-v1/30000/191f6d0f-4ea1-4193-9663-055801d92033.root   | (None) | ad:7f98455f | 3.854 MB   |          |
| cms:/store/mc/Run3Summer22NanoAODv12/GluGlutoHHto4V_kl-1p00_kt-1p00_c2-0p00_TuneCP5_13p6TeV_powheg-pythia8/NANOAODSIM/130X_mcRun3_2022_realistic_v5_ext1-v1/50000/7995d021-9b75-4b4c-9c0c-f27b8cfc8e26.root   | (None) | ad:dea87f8b | 3.445 MB   |          |
| cms:/store/mc/Run3Summer22NanoAODv12/GluGlutoHHto4V_kl-1p00_kt-1p00_c2-0p00_TuneCP5_13p6TeV_powheg-pythia8/NANOAODSIM/130X_mcRun3_2022_realistic_v5_ext1-v1/50000/f4f6e6ef-e522-474a-b031-21d4155819a1.root   | (None) | ad:2af9e8a9 | 128.512 MB |          |
| cms:/store/mc/Run3Summer22NanoAODv12/GluGlutoHHto4V_kl-1p00_kt-1p00_c2-0p00_TuneCP5_13p6TeV_powheg-pythia8/NANOAODSIM/130X_mcRun3_2022_realistic_v5_ext1-v1/30000/bb738630-9ea8-4de3-844d-9a4b0d8305fa.root   | (None) | ad:8da18ecc | 123.262 MB |          |
| cms:/store/mc/Run3Summer22NanoAODv12/GluGlutoHHto4V_kl-1p00_kt-1p00_c2-0p00_TuneCP5_13p6TeV_powheg-pythia8/NANOAODSIM/130X_mcRun3_2022_realistic_v5_ext1-v1/30000/a1d1f489-9228-470b-b777-9f2969c91512.root   | (None) | ad:00fc5c64 | 9.034 MB   |          |
| cms:/store/mc/Run3Summer22NanoAODv12/GluGlutoHHto4V_kl-1p00_kt-1p00_c2-0p00_TuneCP5_13p6TeV_powheg-pythia8/NANOAODSIM/130X_mcRun3_2022_realistic_v5_ext1-v1/80000/4988e777-a4d7-4adc-846d-28b654492c61.root   | (None) | ad:9a671af9 | 23.216 MB  |          |
| cms:/store/mc/Run3Summer22NanoAODv12/GluGlutoHHto4V_kl-1p00_kt-1p00_c2-0p00_TuneCP5_13p6TeV_powheg-pythia8/NANOAODSIM/130X_mcRun3_2022_realistic_v5_ext1-v1/30000/f4c99806-ba6a-455e-92ac-55012b60760b.root   | (None) | ad:bd9e8351 | 3.094 MB   |          |
| cms:/store/mc/Run3Summer22NanoAODv12/GluGlutoHHto4V_kl-1p00_kt-1p00_c2-0p00_TuneCP5_13p6TeV_powheg-pythia8/NANOAODSIM/130X_mcRun3_2022_realistic_v5_ext1-v1/30000/016cfc87-26d5-4973-938e-de72e4d60c7d.root   | (None) | ad:8076e555 | 34.170 MB  |          |
| cms:/store/mc/Run3Summer22NanoAODv12/GluGlutoHHto4V_kl-1p00_kt-1p00_c2-0p00_TuneCP5_13p6TeV_powheg-pythia8/NANOAODSIM/130X_mcRun3_2022_realistic_v5_ext1-v1/2550000/6ffbd5da-6572-4df6-8edc-1cf2ee078fe0.root | (None) | ad:262932a8 | 6.597 MB   |          |
| cms:/store/mc/Run3Summer22NanoAODv12/GluGlutoHHto4V_kl-1p00_kt-1p00_c2-0p00_TuneCP5_13p6TeV_powheg-pythia8/NANOAODSIM/130X_mcRun3_2022_realistic_v5_ext1-v1/30000/ed2c5379-90eb-48ca-a00d-0c1a101e6ba3.root   | (None) | ad:f0d2eb08 | 19.798 MB  |          |
| cms:/store/mc/Run3Summer22NanoAODv12/GluGlutoHHto4V_kl-1p00_kt-1p00_c2-0p00_TuneCP5_13p6TeV_powheg-pythia8/NANOAODSIM/130X_mcRun3_2022_realistic_v5_ext1-v1/2540000/40a3bc58-2789-480b-832d-53d70780d051.root | (None) | ad:92be177c | 128.630 MB |          |
| cms:/store/mc/Run3Summer22NanoAODv12/GluGlutoHHto4V_kl-1p00_kt-1p00_c2-0p00_TuneCP5_13p6TeV_powheg-pythia8/NANOAODSIM/130X_mcRun3_2022_realistic_v5_ext1-v1/30000/89fe83c8-c206-46a9-a83a-2ca26def28bb.root   | (None) | ad:3fecbb66 | 4.793 MB   |          |
| cms:/store/mc/Run3Summer22NanoAODv12/GluGlutoHHto4V_kl-1p00_kt-1p00_c2-0p00_TuneCP5_13p6TeV_powheg-pythia8/NANOAODSIM/130X_mcRun3_2022_realistic_v5_ext1-v1/80000/10139e59-0b07-42ef-bd81-b4524c00f064.root   | (None) | ad:a4d8177c | 20.956 MB  |          |
| cms:/store/mc/Run3Summer22NanoAODv12/GluGlutoHHto4V_kl-1p00_kt-1p00_c2-0p00_TuneCP5_13p6TeV_powheg-pythia8/NANOAODSIM/130X_mcRun3_2022_realistic_v5_ext1-v1/2540000/b1e29e99-aa77-4dee-b384-e525652337bb.root | (None) | ad:70c5792b | 13.127 MB  |          |
| cms:/store/mc/Run3Summer22NanoAODv12/GluGlutoHHto4V_kl-1p00_kt-1p00_c2-0p00_TuneCP5_13p6TeV_powheg-pythia8/NANOAODSIM/130X_mcRun3_2022_realistic_v5_ext1-v1/2560000/32132978-97d2-4653-b916-ce3608aa1b13.root | (None) | ad:68ec9d79 | 5.729 MB   |          |
| cms:/store/mc/Run3Summer22NanoAODv12/GluGlutoHHto4V_kl-1p00_kt-1p00_c2-0p00_TuneCP5_13p6TeV_powheg-pythia8/NANOAODSIM/130X_mcRun3_2022_realistic_v5_ext1-v1/2550000/cceb5cf0-4bf8-4532-be6c-9aad86a1d324.root | (None) | ad:713cc3bd | 3.949 MB   |          |
| cms:/store/mc/Run3Summer22NanoAODv12/GluGlutoHHto4V_kl-1p00_kt-1p00_c2-0p00_TuneCP5_13p6TeV_powheg-pythia8/NANOAODSIM/130X_mcRun3_2022_realistic_v5_ext1-v1/30000/233a633e-8381-478c-8e19-2b86a9d2658b.root   | (None) | ad:e03e5efb | 13.655 MB  |          |
| cms:/store/mc/Run3Summer22NanoAODv12/GluGlutoHHto4V_kl-1p00_kt-1p00_c2-0p00_TuneCP5_13p6TeV_powheg-pythia8/NANOAODSIM/130X_mcRun3_2022_realistic_v5_ext1-v1/2560000/a609b1c3-ae60-4358-af8d-c237b13464c3.root | (None) | ad:11f30376 | 7.079 MB   |          |
| cms:/store/mc/Run3Summer22NanoAODv12/GluGlutoHHto4V_kl-1p00_kt-1p00_c2-0p00_TuneCP5_13p6TeV_powheg-pythia8/NANOAODSIM/130X_mcRun3_2022_realistic_v5_ext1-v1/2550000/a6268ca3-e6a7-4f29-98cf-3fd90f4a4acd.root | (None) | ad:0422adbe | 16.951 MB  |          |
| cms:/store/mc/Run3Summer22NanoAODv12/GluGlutoHHto4V_kl-1p00_kt-1p00_c2-0p00_TuneCP5_13p6TeV_powheg-pythia8/NANOAODSIM/130X_mcRun3_2022_realistic_v5_ext1-v1/50000/7b096646-5f69-4ae1-bd61-e037ab3f6039.root   | (None) | ad:80c5baa6 | 75.297 MB  |          |
| cms:/store/mc/Run3Summer22NanoAODv12/GluGlutoHHto4V_kl-1p00_kt-1p00_c2-0p00_TuneCP5_13p6TeV_powheg-pythia8/NANOAODSIM/130X_mcRun3_2022_realistic_v5_ext1-v1/50000/98bebda4-5db2-44b8-8597-bef03f041dbc.root   | (None) | ad:1139a73c | 46.707 MB  |          |
| cms:/store/mc/Run3Summer22NanoAODv12/GluGlutoHHto4V_kl-1p00_kt-1p00_c2-0p00_TuneCP5_13p6TeV_powheg-pythia8/NANOAODSIM/130X_mcRun3_2022_realistic_v5_ext1-v1/50000/74dfec7c-5abc-49b5-82f7-c8f513ed6cb6.root   | (None) | ad:6ab2b04f | 9.519 MB   |          |
| cms:/store/mc/Run3Summer22NanoAODv12/GluGlutoHHto4V_kl-1p00_kt-1p00_c2-0p00_TuneCP5_13p6TeV_powheg-pythia8/NANOAODSIM/130X_mcRun3_2022_realistic_v5_ext1-v1/2560000/77f65fa8-7851-43d6-af01-56be24715cd0.root | (None) | ad:39833a22 | 23.950 MB  |          |
| cms:/store/mc/Run3Summer22NanoAODv12/GluGlutoHHto4V_kl-1p00_kt-1p00_c2-0p00_TuneCP5_13p6TeV_powheg-pythia8/NANOAODSIM/130X_mcRun3_2022_realistic_v5_ext1-v1/50000/93694472-145c-43f4-9f27-aebae7f60ba7.root   | (None) | ad:3c99ae19 | 70.047 MB  |          |
| cms:/store/mc/Run3Summer22NanoAODv12/GluGlutoHHto4V_kl-1p00_kt-1p00_c2-0p00_TuneCP5_13p6TeV_powheg-pythia8/NANOAODSIM/130X_mcRun3_2022_realistic_v5_ext1-v1/2550000/52ab85b0-f216-4906-af4a-8d781b4bf55d.root | (None) | ad:c8eb90dc | 7.611 MB   |          |
| cms:/store/mc/Run3Summer22NanoAODv12/GluGlutoHHto4V_kl-1p00_kt-1p00_c2-0p00_TuneCP5_13p6TeV_powheg-pythia8/NANOAODSIM/130X_mcRun3_2022_realistic_v5_ext1-v1/2550000/c7d517ed-8051-4c05-85bd-2fa52b75e7df.root | (None) | ad:adc8c5b4 | 211.043 MB |          |
| cms:/store/mc/Run3Summer22NanoAODv12/GluGlutoHHto4V_kl-1p00_kt-1p00_c2-0p00_TuneCP5_13p6TeV_powheg-pythia8/NANOAODSIM/130X_mcRun3_2022_realistic_v5_ext1-v1/30000/d68d1cca-6bc8-413e-ba61-c003c08ffc8d.root   | (None) | ad:e8c86633 | 7.707 MB   |          |
| cms:/store/mc/Run3Summer22NanoAODv12/GluGlutoHHto4V_kl-1p00_kt-1p00_c2-0p00_TuneCP5_13p6TeV_powheg-pythia8/NANOAODSIM/130X_mcRun3_2022_realistic_v5_ext1-v1/2560000/d1acaae4-a29c-4150-b669-4398faa125da.root | (None) | ad:690bee03 | 11.747 MB  |          |
| cms:/store/mc/Run3Summer22NanoAODv12/GluGlutoHHto4V_kl-1p00_kt-1p00_c2-0p00_TuneCP5_13p6TeV_powheg-pythia8/NANOAODSIM/130X_mcRun3_2022_realistic_v5_ext1-v1/2550000/dac2d0ba-a84c-4d5f-9660-6205a26b2cdc.root | (None) | ad:206dcada | 68.601 MB  |          |
| cms:/store/mc/Run3Summer22NanoAODv12/GluGlutoHHto4V_kl-1p00_kt-1p00_c2-0p00_TuneCP5_13p6TeV_powheg-pythia8/NANOAODSIM/130X_mcRun3_2022_realistic_v5_ext1-v1/80000/8cf6ba5a-bfd3-4b6d-b2a4-19c27b267d0d.root   | (None) | ad:c6333028 | 52.804 MB  |          |
| cms:/store/mc/Run3Summer22NanoAODv12/GluGlutoHHto4V_kl-1p00_kt-1p00_c2-0p00_TuneCP5_13p6TeV_powheg-pythia8/NANOAODSIM/130X_mcRun3_2022_realistic_v5_ext1-v1/80000/9e7ee4e0-4fb5-4d52-a3d2-e386caadd16a.root   | (None) | ad:b69ace28 | 194.162 MB |          |
| cms:/store/mc/Run3Summer22NanoAODv12/GluGlutoHHto4V_kl-1p00_kt-1p00_c2-0p00_TuneCP5_13p6TeV_powheg-pythia8/NANOAODSIM/130X_mcRun3_2022_realistic_v5_ext1-v1/50000/c221f4b0-7eb5-45e0-b369-3042b7bb3e96.root   | (None) | ad:25214500 | 250.828 MB |          |
| cms:/store/mc/Run3Summer22NanoAODv12/GluGlutoHHto4V_kl-1p00_kt-1p00_c2-0p00_TuneCP5_13p6TeV_powheg-pythia8/NANOAODSIM/130X_mcRun3_2022_realistic_v5_ext1-v1/30000/02c709b4-70c4-4521-9262-2835c5075afb.root   | (None) | ad:09ddf6ae | 12.238 MB  |          |
| cms:/store/mc/Run3Summer22NanoAODv12/GluGlutoHHto4V_kl-1p00_kt-1p00_c2-0p00_TuneCP5_13p6TeV_powheg-pythia8/NANOAODSIM/130X_mcRun3_2022_realistic_v5_ext1-v1/80000/67d7becd-166c-424a-b32a-4121b750f5d1.root   | (None) | ad:b44e2dab | 16.127 MB  |          |
| cms:/store/mc/Run3Summer22NanoAODv12/GluGlutoHHto4V_kl-1p00_kt-1p00_c2-0p00_TuneCP5_13p6TeV_powheg-pythia8/NANOAODSIM/130X_mcRun3_2022_realistic_v5_ext1-v1/30000/14af1cc0-1d48-4c67-9300-6703fd325951.root   | (None) | ad:411fac50 | 3.216 MB   |          |
| cms:/store/mc/Run3Summer22NanoAODv12/GluGlutoHHto4V_kl-1p00_kt-1p00_c2-0p00_TuneCP5_13p6TeV_powheg-pythia8/NANOAODSIM/130X_mcRun3_2022_realistic_v5_ext1-v1/80000/8e52bc87-0c21-49ee-996b-9bb9491ce969.root   | (None) | ad:82b8ce61 | 4.567 MB   |          |
| cms:/store/mc/Run3Summer22NanoAODv12/GluGlutoHHto4V_kl-1p00_kt-1p00_c2-0p00_TuneCP5_13p6TeV_powheg-pythia8/NANOAODSIM/130X_mcRun3_2022_realistic_v5_ext1-v1/30000/5c6bbc24-052e-4771-aac0-2c244609483a.root   | (None) | ad:39a2bd89 | 3.212 MB   |          |
| cms:/store/mc/Run3Summer22NanoAODv12/GluGlutoHHto4V_kl-1p00_kt-1p00_c2-0p00_TuneCP5_13p6TeV_powheg-pythia8/NANOAODSIM/130X_mcRun3_2022_realistic_v5_ext1-v1/50000/b0fa488f-edb6-49a7-b819-32aaf9bff648.root   | (None) | ad:e73e55e0 | 34.059 MB  |          |
| cms:/store/mc/Run3Summer22NanoAODv12/GluGlutoHHto4V_kl-1p00_kt-1p00_c2-0p00_TuneCP5_13p6TeV_powheg-pythia8/NANOAODSIM/130X_mcRun3_2022_realistic_v5_ext1-v1/50000/8dba779b-bc5c-4f00-a9d0-1271f0b65f34.root   | (None) | ad:b6dcfa6f | 242.050 MB |          |
| cms:/store/mc/Run3Summer22NanoAODv12/GluGlutoHHto4V_kl-1p00_kt-1p00_c2-0p00_TuneCP5_13p6TeV_powheg-pythia8/NANOAODSIM/130X_mcRun3_2022_realistic_v5_ext1-v1/30000/9521dde0-a987-4bcf-aeeb-061d7e551c02.root   | (None) | ad:ae92922f | 5.082 MB   |          |
| cms:/store/mc/Run3Summer22NanoAODv12/GluGlutoHHto4V_kl-1p00_kt-1p00_c2-0p00_TuneCP5_13p6TeV_powheg-pythia8/NANOAODSIM/130X_mcRun3_2022_realistic_v5_ext1-v1/80000/f8a89122-fadc-4846-a4f8-a5dd4f007d47.root   | (None) | ad:bbd4f117 | 4.658 MB   |          |
| cms:/store/mc/Run3Summer22NanoAODv12/GluGlutoHHto4V_kl-1p00_kt-1p00_c2-0p00_TuneCP5_13p6TeV_powheg-pythia8/NANOAODSIM/130X_mcRun3_2022_realistic_v5_ext1-v1/2540000/e8f97cb0-7535-4dfa-8633-d488968ec6cc.root | (None) | ad:ddb3601b | 10.726 MB  |          |
| cms:/store/mc/Run3Summer22NanoAODv12/GluGlutoHHto4V_kl-1p00_kt-1p00_c2-0p00_TuneCP5_13p6TeV_powheg-pythia8/NANOAODSIM/130X_mcRun3_2022_realistic_v5_ext1-v1/50000/9155b571-e10e-485f-a3f6-27a1a89fcc86.root   | (None) | ad:d717845d | 30.103 MB  |          |
| cms:/store/mc/Run3Summer22NanoAODv12/GluGlutoHHto4V_kl-1p00_kt-1p00_c2-0p00_TuneCP5_13p6TeV_powheg-pythia8/NANOAODSIM/130X_mcRun3_2022_realistic_v5_ext1-v1/80000/c69f7884-4098-4404-a6fd-e4e7fadb4ae7.root   | (None) | ad:96b9e315 | 4.494 MB   |          |
| cms:/store/mc/Run3Summer22NanoAODv12/GluGlutoHHto4V_kl-1p00_kt-1p00_c2-0p00_TuneCP5_13p6TeV_powheg-pythia8/NANOAODSIM/130X_mcRun3_2022_realistic_v5_ext1-v1/80000/0430d100-602b-4123-b390-40b6da86f1b8.root   | (None) | ad:b39fdbb1 | 7.312 MB   |          |
| cms:/store/mc/Run3Summer22NanoAODv12/GluGlutoHHto4V_kl-1p00_kt-1p00_c2-0p00_TuneCP5_13p6TeV_powheg-pythia8/NANOAODSIM/130X_mcRun3_2022_realistic_v5_ext1-v1/2540000/caace9f1-2bde-4ec4-b010-a27728028f9b.root | (None) | ad:07b7b26d | 3.664 MB   |          |
| cms:/store/mc/Run3Summer22NanoAODv12/GluGlutoHHto4V_kl-1p00_kt-1p00_c2-0p00_TuneCP5_13p6TeV_powheg-pythia8/NANOAODSIM/130X_mcRun3_2022_realistic_v5_ext1-v1/2550000/58e59b46-9bf7-4e55-8821-7793435cc347.root | (None) | ad:5f29c7c8 | 6.617 MB   |          |
| cms:/store/mc/Run3Summer22NanoAODv12/GluGlutoHHto4V_kl-1p00_kt-1p00_c2-0p00_TuneCP5_13p6TeV_powheg-pythia8/NANOAODSIM/130X_mcRun3_2022_realistic_v5_ext1-v1/2540000/c3d2c82c-25fd-4ed0-bdf7-b210b9f736db.root | (None) | ad:6aa04bc8 | 27.697 MB  |          |
| cms:/store/mc/Run3Summer22NanoAODv12/GluGlutoHHto4V_kl-1p00_kt-1p00_c2-0p00_TuneCP5_13p6TeV_powheg-pythia8/NANOAODSIM/130X_mcRun3_2022_realistic_v5_ext1-v1/30000/9515e8e0-7bfc-4b61-b8cf-24da0354a223.root   | (None) | ad:9f693e6b | 16.087 MB  |          |
| cms:/store/mc/Run3Summer22NanoAODv12/GluGlutoHHto4V_kl-1p00_kt-1p00_c2-0p00_TuneCP5_13p6TeV_powheg-pythia8/NANOAODSIM/130X_mcRun3_2022_realistic_v5_ext1-v1/2550000/1adf2641-1741-484a-bc20-0e516281cb96.root | (None) | ad:a77b279b | 40.246 MB  |          |
| cms:/store/mc/Run3Summer22NanoAODv12/GluGlutoHHto4V_kl-1p00_kt-1p00_c2-0p00_TuneCP5_13p6TeV_powheg-pythia8/NANOAODSIM/130X_mcRun3_2022_realistic_v5_ext1-v1/50000/7c34933a-0f85-4e02-9fa6-99abb4b311ad.root   | (None) | ad:fce9cb06 | 18.496 MB  |          |
| cms:/store/mc/Run3Summer22NanoAODv12/GluGlutoHHto4V_kl-1p00_kt-1p00_c2-0p00_TuneCP5_13p6TeV_powheg-pythia8/NANOAODSIM/130X_mcRun3_2022_realistic_v5_ext1-v1/50000/d21a6bff-8ad1-4413-ad26-ce9deb41b785.root   | (None) | ad:c0854dec | 79.341 MB  |          |
| cms:/store/mc/Run3Summer22NanoAODv12/GluGlutoHHto4V_kl-1p00_kt-1p00_c2-0p00_TuneCP5_13p6TeV_powheg-pythia8/NANOAODSIM/130X_mcRun3_2022_realistic_v5_ext1-v1/2540000/690c2fb6-9724-4bda-8363-0f416a4b24f3.root | (None) | ad:000e8d96 | 28.370 MB  |          |
| cms:/store/mc/Run3Summer22NanoAODv12/GluGlutoHHto4V_kl-1p00_kt-1p00_c2-0p00_TuneCP5_13p6TeV_powheg-pythia8/NANOAODSIM/130X_mcRun3_2022_realistic_v5_ext1-v1/2560000/0961b999-addd-4562-98f7-b8aa8c94ee3c.root | (None) | ad:8cc7dc46 | 3.743 MB   |          |
| cms:/store/mc/Run3Summer22NanoAODv12/GluGlutoHHto4V_kl-1p00_kt-1p00_c2-0p00_TuneCP5_13p6TeV_powheg-pythia8/NANOAODSIM/130X_mcRun3_2022_realistic_v5_ext1-v1/2560000/74a4ba5d-85ec-4de6-98a8-34a06264810a.root | (None) | ad:f49cae45 | 14.541 MB  |          |
| cms:/store/mc/Run3Summer22NanoAODv12/GluGlutoHHto4V_kl-1p00_kt-1p00_c2-0p00_TuneCP5_13p6TeV_powheg-pythia8/NANOAODSIM/130X_mcRun3_2022_realistic_v5_ext1-v1/2550000/8d28b74a-b379-4b9c-8559-210634ffc7ec.root | (None) | ad:1839485f | 44.910 MB  |          |
| cms:/store/mc/Run3Summer22NanoAODv12/GluGlutoHHto4V_kl-1p00_kt-1p00_c2-0p00_TuneCP5_13p6TeV_powheg-pythia8/NANOAODSIM/130X_mcRun3_2022_realistic_v5_ext1-v1/2540000/ae3771ec-b8fa-4910-9c20-1e2af3b70b56.root | (None) | ad:197855c6 | 26.121 MB  |          |
| cms:/store/mc/Run3Summer22NanoAODv12/GluGlutoHHto4V_kl-1p00_kt-1p00_c2-0p00_TuneCP5_13p6TeV_powheg-pythia8/NANOAODSIM/130X_mcRun3_2022_realistic_v5_ext1-v1/50000/397ebe96-db8e-4be3-a176-7914366522d9.root   | (None) | ad:51fa1647 | 59.584 MB  |          |
| cms:/store/mc/Run3Summer22NanoAODv12/GluGlutoHHto4V_kl-1p00_kt-1p00_c2-0p00_TuneCP5_13p6TeV_powheg-pythia8/NANOAODSIM/130X_mcRun3_2022_realistic_v5_ext1-v1/2550000/6843970e-e169-44df-a0ed-55b8bd9c9552.root | (None) | ad:07a4a79b | 7.220 MB   |          |
| cms:/store/mc/Run3Summer22NanoAODv12/GluGlutoHHto4V_kl-1p00_kt-1p00_c2-0p00_TuneCP5_13p6TeV_powheg-pythia8/NANOAODSIM/130X_mcRun3_2022_realistic_v5_ext1-v1/80000/34fc576a-ddf5-4ef8-92ec-a5088d2d0333.root   | (None) | ad:0cea8759 | 7.895 MB   |          |
| cms:/store/mc/Run3Summer22NanoAODv12/GluGlutoHHto4V_kl-1p00_kt-1p00_c2-0p00_TuneCP5_13p6TeV_powheg-pythia8/NANOAODSIM/130X_mcRun3_2022_realistic_v5_ext1-v1/2560000/b162fff5-f527-4f1a-a0ae-54e0ca50b0a6.root | (None) | ad:b6ad59ef | 8.476 MB   |          |
| cms:/store/mc/Run3Summer22NanoAODv12/GluGlutoHHto4V_kl-1p00_kt-1p00_c2-0p00_TuneCP5_13p6TeV_powheg-pythia8/NANOAODSIM/130X_mcRun3_2022_realistic_v5_ext1-v1/80000/49494d00-a18d-48ac-8ea6-fcaf528d8746.root   | (None) | ad:6daa62ad | 8.287 MB   |          |
| cms:/store/mc/Run3Summer22NanoAODv12/GluGlutoHHto4V_kl-1p00_kt-1p00_c2-0p00_TuneCP5_13p6TeV_powheg-pythia8/NANOAODSIM/130X_mcRun3_2022_realistic_v5_ext1-v1/50000/ca369425-2f23-4529-83a8-b74ae8959cb3.root   | (None) | ad:d8adca2a | 18.666 MB  |          |
| cms:/store/mc/Run3Summer22NanoAODv12/GluGlutoHHto4V_kl-1p00_kt-1p00_c2-0p00_TuneCP5_13p6TeV_powheg-pythia8/NANOAODSIM/130X_mcRun3_2022_realistic_v5_ext1-v1/2540000/1d6cd0cb-1878-41cc-94aa-cf7e8a9dd23e.root | (None) | ad:31657edf | 15.920 MB  |          |
| cms:/store/mc/Run3Summer22NanoAODv12/GluGlutoHHto4V_kl-1p00_kt-1p00_c2-0p00_TuneCP5_13p6TeV_powheg-pythia8/NANOAODSIM/130X_mcRun3_2022_realistic_v5_ext1-v1/2540000/fab5d7af-c1a6-4700-8d76-653dc742b9d8.root | (None) | ad:e55ce14e | 200.623 MB |          |
| cms:/store/mc/Run3Summer22NanoAODv12/GluGlutoHHto4V_kl-1p00_kt-1p00_c2-0p00_TuneCP5_13p6TeV_powheg-pythia8/NANOAODSIM/130X_mcRun3_2022_realistic_v5_ext1-v1/2550000/00963916-1416-4f1b-b36e-5837e6ef8c76.root | (None) | ad:4c77092b | 3.861 MB   |          |
| cms:/store/mc/Run3Summer22NanoAODv12/GluGlutoHHto4V_kl-1p00_kt-1p00_c2-0p00_TuneCP5_13p6TeV_powheg-pythia8/NANOAODSIM/130X_mcRun3_2022_realistic_v5_ext1-v1/50000/ec5bf6a4-e2fe-40d3-8409-b892d6fcddd2.root   | (None) | ad:593391f8 | 26.159 MB  |          |
| cms:/store/mc/Run3Summer22NanoAODv12/GluGlutoHHto4V_kl-1p00_kt-1p00_c2-0p00_TuneCP5_13p6TeV_powheg-pythia8/NANOAODSIM/130X_mcRun3_2022_realistic_v5_ext1-v1/2540000/d32a7529-c91e-4964-ac17-c015c20669f7.root | (None) | ad:704d81c9 | 17.762 MB  |          |
| cms:/store/mc/Run3Summer22NanoAODv12/GluGlutoHHto4V_kl-1p00_kt-1p00_c2-0p00_TuneCP5_13p6TeV_powheg-pythia8/NANOAODSIM/130X_mcRun3_2022_realistic_v5_ext1-v1/2560000/8f087dd5-9434-4022-9fc5-1e70e392a952.root | (None) | ad:26354b77 | 55.097 MB  |          |
| cms:/store/mc/Run3Summer22NanoAODv12/GluGlutoHHto4V_kl-1p00_kt-1p00_c2-0p00_TuneCP5_13p6TeV_powheg-pythia8/NANOAODSIM/130X_mcRun3_2022_realistic_v5_ext1-v1/80000/d06e8d1a-035d-448f-a466-bb8aac6a0585.root   | (None) | ad:70139b7e | 54.117 MB  |          |
| cms:/store/mc/Run3Summer22NanoAODv12/GluGlutoHHto4V_kl-1p00_kt-1p00_c2-0p00_TuneCP5_13p6TeV_powheg-pythia8/NANOAODSIM/130X_mcRun3_2022_realistic_v5_ext1-v1/2560000/4b62f218-3a9e-4fe2-882b-5de350fc7a7f.root | (None) | ad:3ee6e98d | 19.704 MB  |          |
| cms:/store/mc/Run3Summer22NanoAODv12/GluGlutoHHto4V_kl-1p00_kt-1p00_c2-0p00_TuneCP5_13p6TeV_powheg-pythia8/NANOAODSIM/130X_mcRun3_2022_realistic_v5_ext1-v1/50000/0fb88b79-06d4-4a4b-b5f9-1909ef081ddb.root   | (None) | ad:265c97d2 | 18.742 MB  |          |
| cms:/store/mc/Run3Summer22NanoAODv12/GluGlutoHHto4V_kl-1p00_kt-1p00_c2-0p00_TuneCP5_13p6TeV_powheg-pythia8/NANOAODSIM/130X_mcRun3_2022_realistic_v5_ext1-v1/2540000/25c1cde2-38c0-400c-bcfa-1ec04e61d6e6.root | (None) | ad:ef0cb846 | 19.570 MB  |          |
| cms:/store/mc/Run3Summer22NanoAODv12/GluGlutoHHto4V_kl-1p00_kt-1p00_c2-0p00_TuneCP5_13p6TeV_powheg-pythia8/NANOAODSIM/130X_mcRun3_2022_realistic_v5_ext1-v1/2550000/57029276-4102-4b59-ab37-5232d1a71421.root | (None) | ad:f714ade1 | 9.067 MB   |          |
| cms:/store/mc/Run3Summer22NanoAODv12/GluGlutoHHto4V_kl-1p00_kt-1p00_c2-0p00_TuneCP5_13p6TeV_powheg-pythia8/NANOAODSIM/130X_mcRun3_2022_realistic_v5_ext1-v1/2550000/0dd8401a-42d8-4ad4-8401-2a814e3e9757.root | (None) | ad:2bcdc90b | 7.655 MB   |          |
| cms:/store/mc/Run3Summer22NanoAODv12/GluGlutoHHto4V_kl-1p00_kt-1p00_c2-0p00_TuneCP5_13p6TeV_powheg-pythia8/NANOAODSIM/130X_mcRun3_2022_realistic_v5_ext1-v1/80000/514e0f91-a739-46c6-8f95-21810ead11d7.root   | (None) | ad:63a96db3 | 58.359 MB  |          |
| cms:/store/mc/Run3Summer22NanoAODv12/GluGlutoHHto4V_kl-1p00_kt-1p00_c2-0p00_TuneCP5_13p6TeV_powheg-pythia8/NANOAODSIM/130X_mcRun3_2022_realistic_v5_ext1-v1/2550000/ee6f0931-8c14-4d85-9968-63e9138d8d9c.root | (None) | ad:7533c8a1 | 7.515 MB   |          |
| cms:/store/mc/Run3Summer22NanoAODv12/GluGlutoHHto4V_kl-1p00_kt-1p00_c2-0p00_TuneCP5_13p6TeV_powheg-pythia8/NANOAODSIM/130X_mcRun3_2022_realistic_v5_ext1-v1/30000/55bc767b-9ee1-4945-9426-e13849193e64.root   | (None) | ad:eb09398b | 4.586 MB   |          |
| cms:/store/mc/Run3Summer22NanoAODv12/GluGlutoHHto4V_kl-1p00_kt-1p00_c2-0p00_TuneCP5_13p6TeV_powheg-pythia8/NANOAODSIM/130X_mcRun3_2022_realistic_v5_ext1-v1/2560000/565311aa-d098-4228-95a8-46066ae9dd5d.root | (None) | ad:924eed11 | 20.581 MB  |          |
| cms:/store/mc/Run3Summer22NanoAODv12/GluGlutoHHto4V_kl-1p00_kt-1p00_c2-0p00_TuneCP5_13p6TeV_powheg-pythia8/NANOAODSIM/130X_mcRun3_2022_realistic_v5_ext1-v1/2550000/853edd90-e2d3-425b-bd6f-6be3d60ee547.root | (None) | ad:9b895f83 | 10.703 MB  |          |
| cms:/store/mc/Run3Summer22NanoAODv12/GluGlutoHHto4V_kl-1p00_kt-1p00_c2-0p00_TuneCP5_13p6TeV_powheg-pythia8/NANOAODSIM/130X_mcRun3_2022_realistic_v5_ext1-v1/80000/ec22995a-4e82-4b18-b98a-fee625d3f48c.root   | (None) | ad:0c2ded30 | 20.413 MB  |          |
| cms:/store/mc/Run3Summer22NanoAODv12/GluGlutoHHto4V_kl-1p00_kt-1p00_c2-0p00_TuneCP5_13p6TeV_powheg-pythia8/NANOAODSIM/130X_mcRun3_2022_realistic_v5_ext1-v1/2550000/d4b36e97-4e91-4eb6-b7b1-10373766ec08.root | (None) | ad:2ea301cc | 6.722 MB   |          |
| cms:/store/mc/Run3Summer22NanoAODv12/GluGlutoHHto4V_kl-1p00_kt-1p00_c2-0p00_TuneCP5_13p6TeV_powheg-pythia8/NANOAODSIM/130X_mcRun3_2022_realistic_v5_ext1-v1/30000/d01fd6d3-6d3c-4cf8-8ac0-c3663dbb584f.root   | (None) | ad:226b4eee | 2.933 MB   |          |
| cms:/store/mc/Run3Summer22NanoAODv12/GluGlutoHHto4V_kl-1p00_kt-1p00_c2-0p00_TuneCP5_13p6TeV_powheg-pythia8/NANOAODSIM/130X_mcRun3_2022_realistic_v5_ext1-v1/2560000/9f8b43c9-3256-45c5-8192-f20623f82992.root | (None) | ad:801c9ae2 | 6.412 MB   |          |
| cms:/store/mc/Run3Summer22NanoAODv12/GluGlutoHHto4V_kl-1p00_kt-1p00_c2-0p00_TuneCP5_13p6TeV_powheg-pythia8/NANOAODSIM/130X_mcRun3_2022_realistic_v5_ext1-v1/50000/da1f4bc8-e40a-4907-82d6-57087463e9b7.root   | (None) | ad:052eedc6 | 15.258 MB  |          |
| cms:/store/mc/Run3Summer22NanoAODv12/GluGlutoHHto4V_kl-1p00_kt-1p00_c2-0p00_TuneCP5_13p6TeV_powheg-pythia8/NANOAODSIM/130X_mcRun3_2022_realistic_v5_ext1-v1/2550000/8a0cf9fe-37b8-4b5d-b871-d0d2b87fcddd.root | (None) | ad:a5a917e8 | 12.576 MB  |          |
| cms:/store/mc/Run3Summer22NanoAODv12/GluGlutoHHto4V_kl-1p00_kt-1p00_c2-0p00_TuneCP5_13p6TeV_powheg-pythia8/NANOAODSIM/130X_mcRun3_2022_realistic_v5_ext1-v1/80000/e7d84246-7f8a-4cb8-9824-201342955dc5.root   | (None) | ad:c7666876 | 24.946 MB  |          |
| cms:/store/mc/Run3Summer22NanoAODv12/GluGlutoHHto4V_kl-1p00_kt-1p00_c2-0p00_TuneCP5_13p6TeV_powheg-pythia8/NANOAODSIM/130X_mcRun3_2022_realistic_v5_ext1-v1/2560000/7b9ee96a-e135-4ce2-80f4-db062b87083d.root | (None) | ad:afa00d24 | 10.758 MB  |          |
| cms:/store/mc/Run3Summer22NanoAODv12/GluGlutoHHto4V_kl-1p00_kt-1p00_c2-0p00_TuneCP5_13p6TeV_powheg-pythia8/NANOAODSIM/130X_mcRun3_2022_realistic_v5_ext1-v1/2540000/15028039-eebf-40fa-a6b6-583bad6f2398.root | (None) | ad:448ce8bd | 15.737 MB  |          |
| cms:/store/mc/Run3Summer22NanoAODv12/GluGlutoHHto4V_kl-1p00_kt-1p00_c2-0p00_TuneCP5_13p6TeV_powheg-pythia8/NANOAODSIM/130X_mcRun3_2022_realistic_v5_ext1-v1/80000/e7cca9d7-65d9-4abd-afc9-513b36f125eb.root   | (None) | ad:4e3bd2da | 17.413 MB  |          |
| cms:/store/mc/Run3Summer22NanoAODv12/GluGlutoHHto4V_kl-1p00_kt-1p00_c2-0p00_TuneCP5_13p6TeV_powheg-pythia8/NANOAODSIM/130X_mcRun3_2022_realistic_v5_ext1-v1/2540000/c66f5b37-c8f0-4186-b88d-13986e85e260.root | (None) | ad:56b9987a | 4.171 MB   |          |
| cms:/store/mc/Run3Summer22NanoAODv12/GluGlutoHHto4V_kl-1p00_kt-1p00_c2-0p00_TuneCP5_13p6TeV_powheg-pythia8/NANOAODSIM/130X_mcRun3_2022_realistic_v5_ext1-v1/2560000/34636d03-3f5a-4884-8455-5cd7b52a04f5.root | (None) | ad:a6848a85 | 3.655 MB   |          |
| cms:/store/mc/Run3Summer22NanoAODv12/GluGlutoHHto4V_kl-1p00_kt-1p00_c2-0p00_TuneCP5_13p6TeV_powheg-pythia8/NANOAODSIM/130X_mcRun3_2022_realistic_v5_ext1-v1/50000/d1dbccec-3b66-4bb5-9926-98e0cd48286f.root   | (None) | ad:35371e11 | 36.174 MB  |          |
| cms:/store/mc/Run3Summer22NanoAODv12/GluGlutoHHto4V_kl-1p00_kt-1p00_c2-0p00_TuneCP5_13p6TeV_powheg-pythia8/NANOAODSIM/130X_mcRun3_2022_realistic_v5_ext1-v1/50000/8e125ac2-c0ef-4c2a-84cc-a9f37ccd640d.root   | (None) | ad:80a48983 | 36.299 MB  |          |
| cms:/store/mc/Run3Summer22NanoAODv12/GluGlutoHHto4V_kl-1p00_kt-1p00_c2-0p00_TuneCP5_13p6TeV_powheg-pythia8/NANOAODSIM/130X_mcRun3_2022_realistic_v5_ext1-v1/80000/a2dd7ef9-2589-4ed6-9182-a689c146acc8.root   | (None) | ad:df71e01f | 22.893 MB  |          |
| cms:/store/mc/Run3Summer22NanoAODv12/GluGlutoHHto4V_kl-1p00_kt-1p00_c2-0p00_TuneCP5_13p6TeV_powheg-pythia8/NANOAODSIM/130X_mcRun3_2022_realistic_v5_ext1-v1/2550000/5ae14f01-a4d0-43aa-86e1-12443b5ce80c.root | (None) | ad:345b48b6 | 9.596 MB   |          |
| cms:/store/mc/Run3Summer22NanoAODv12/GluGlutoHHto4V_kl-1p00_kt-1p00_c2-0p00_TuneCP5_13p6TeV_powheg-pythia8/NANOAODSIM/130X_mcRun3_2022_realistic_v5_ext1-v1/80000/37080da3-d52c-4a6d-a140-bf3f7bfb040c.root   | (None) | ad:3e53e306 | 14.447 MB  |          |
| cms:/store/mc/Run3Summer22NanoAODv12/GluGlutoHHto4V_kl-1p00_kt-1p00_c2-0p00_TuneCP5_13p6TeV_powheg-pythia8/NANOAODSIM/130X_mcRun3_2022_realistic_v5_ext1-v1/2560000/87ad950a-6d79-4c06-840a-982239cc8ed3.root | (None) | ad:ef721880 | 9.228 MB   |          |
| cms:/store/mc/Run3Summer22NanoAODv12/GluGlutoHHto4V_kl-1p00_kt-1p00_c2-0p00_TuneCP5_13p6TeV_powheg-pythia8/NANOAODSIM/130X_mcRun3_2022_realistic_v5_ext1-v1/2540000/4208ff7f-bee2-45a3-bc1d-429a60722c0d.root | (None) | ad:cd8c7cb2 | 98.548 MB  |          |
| cms:/store/mc/Run3Summer22NanoAODv12/GluGlutoHHto4V_kl-1p00_kt-1p00_c2-0p00_TuneCP5_13p6TeV_powheg-pythia8/NANOAODSIM/130X_mcRun3_2022_realistic_v5_ext1-v1/2540000/936ee779-5167-4a59-9876-4e766a63cc58.root | (None) | ad:da22f114 | 24.224 MB  |          |
| cms:/store/mc/Run3Summer22NanoAODv12/GluGlutoHHto4V_kl-1p00_kt-1p00_c2-0p00_TuneCP5_13p6TeV_powheg-pythia8/NANOAODSIM/130X_mcRun3_2022_realistic_v5_ext1-v1/2540000/e4c49240-22f7-4fcf-b622-b419f18fcf54.root | (None) | ad:9dbcef4f | 14.931 MB  |          |
| cms:/store/mc/Run3Summer22NanoAODv12/GluGlutoHHto4V_kl-1p00_kt-1p00_c2-0p00_TuneCP5_13p6TeV_powheg-pythia8/NANOAODSIM/130X_mcRun3_2022_realistic_v5_ext1-v1/2550000/7f7b17f3-bdc1-4ff0-a224-702846b4f8ce.root | (None) | ad:21fdf20b | 5.873 MB   |          |
| cms:/store/mc/Run3Summer22NanoAODv12/GluGlutoHHto4V_kl-1p00_kt-1p00_c2-0p00_TuneCP5_13p6TeV_powheg-pythia8/NANOAODSIM/130X_mcRun3_2022_realistic_v5_ext1-v1/50000/755bbfb1-7789-49af-a1a7-d2356f0e2497.root   | (None) | ad:2ebc19db | 8.175 MB   |          |
| cms:/store/mc/Run3Summer22NanoAODv12/GluGlutoHHto4V_kl-1p00_kt-1p00_c2-0p00_TuneCP5_13p6TeV_powheg-pythia8/NANOAODSIM/130X_mcRun3_2022_realistic_v5_ext1-v1/2540000/985818d0-bd0a-4322-8307-4801ffa1bbc8.root | (None) | ad:eba469c3 | 33.548 MB  |          |
| cms:/store/mc/Run3Summer22NanoAODv12/GluGlutoHHto4V_kl-1p00_kt-1p00_c2-0p00_TuneCP5_13p6TeV_powheg-pythia8/NANOAODSIM/130X_mcRun3_2022_realistic_v5_ext1-v1/50000/9921685b-8e64-4345-a370-6ca004ece143.root   | (None) | ad:4c084e09 | 42.409 MB  |          |
| cms:/store/mc/Run3Summer22NanoAODv12/GluGlutoHHto4V_kl-1p00_kt-1p00_c2-0p00_TuneCP5_13p6TeV_powheg-pythia8/NANOAODSIM/130X_mcRun3_2022_realistic_v5_ext1-v1/30000/ecc855c0-9de8-4e3b-8a0c-a5fdccbadfdc.root   | (None) | ad:80b4973d | 35.994 MB  |          |
| cms:/store/mc/Run3Summer22NanoAODv12/GluGlutoHHto4V_kl-1p00_kt-1p00_c2-0p00_TuneCP5_13p6TeV_powheg-pythia8/NANOAODSIM/130X_mcRun3_2022_realistic_v5_ext1-v1/80000/9d32b0d2-136a-4e6c-9c87-35a1e4c5481c.root   | (None) | ad:3f61eb10 | 24.193 MB  |          |
| cms:/store/mc/Run3Summer22NanoAODv12/GluGlutoHHto4V_kl-1p00_kt-1p00_c2-0p00_TuneCP5_13p6TeV_powheg-pythia8/NANOAODSIM/130X_mcRun3_2022_realistic_v5_ext1-v1/2560000/e5f6390a-5eac-49cc-bd24-fcee173eeedf.root | (None) | ad:3d6f24d8 | 27.317 MB  |          |
| cms:/store/mc/Run3Summer22NanoAODv12/GluGlutoHHto4V_kl-1p00_kt-1p00_c2-0p00_TuneCP5_13p6TeV_powheg-pythia8/NANOAODSIM/130X_mcRun3_2022_realistic_v5_ext1-v1/80000/4f823d79-6df8-45d6-9047-207ceea29fc3.root   | (None) | ad:88ae83ce | 14.764 MB  |          |
| cms:/store/mc/Run3Summer22NanoAODv12/GluGlutoHHto4V_kl-1p00_kt-1p00_c2-0p00_TuneCP5_13p6TeV_powheg-pythia8/NANOAODSIM/130X_mcRun3_2022_realistic_v5_ext1-v1/30000/aa5458b8-f5e3-4650-ab4d-e49b8505321c.root   | (None) | ad:a28d5caf | 11.968 MB  |          |
| cms:/store/mc/Run3Summer22NanoAODv12/GluGlutoHHto4V_kl-1p00_kt-1p00_c2-0p00_TuneCP5_13p6TeV_powheg-pythia8/NANOAODSIM/130X_mcRun3_2022_realistic_v5_ext1-v1/2540000/f1387690-6ea2-4972-a834-78c81f9253d4.root | (None) | ad:1e93b8ea | 17.165 MB  |          |
| cms:/store/mc/Run3Summer22NanoAODv12/GluGlutoHHto4V_kl-1p00_kt-1p00_c2-0p00_TuneCP5_13p6TeV_powheg-pythia8/NANOAODSIM/130X_mcRun3_2022_realistic_v5_ext1-v1/2560000/0338fb1c-a513-435f-a93a-1abc2a49bb45.root | (None) | ad:e6eb8c67 | 4.176 MB   |          |
| cms:/store/mc/Run3Summer22NanoAODv12/GluGlutoHHto4V_kl-1p00_kt-1p00_c2-0p00_TuneCP5_13p6TeV_powheg-pythia8/NANOAODSIM/130X_mcRun3_2022_realistic_v5_ext1-v1/30000/8068e5a5-1d74-43e6-8b1f-fbe4128f7410.root   | (None) | ad:be9b1421 | 4.683 MB   |          |
| cms:/store/mc/Run3Summer22NanoAODv12/GluGlutoHHto4V_kl-1p00_kt-1p00_c2-0p00_TuneCP5_13p6TeV_powheg-pythia8/NANOAODSIM/130X_mcRun3_2022_realistic_v5_ext1-v1/30000/9ba2b226-f67b-4613-b99e-de59bb497110.root   | (None) | ad:991d064f | 7.613 MB   |          |
| cms:/store/mc/Run3Summer22NanoAODv12/GluGlutoHHto4V_kl-1p00_kt-1p00_c2-0p00_TuneCP5_13p6TeV_powheg-pythia8/NANOAODSIM/130X_mcRun3_2022_realistic_v5_ext1-v1/30000/46fc1b38-161f-4c4b-94b1-55781025a2ef.root   | (None) | ad:0f768ee1 | 7.543 MB   |          |
| cms:/store/mc/Run3Summer22NanoAODv12/GluGlutoHHto4V_kl-1p00_kt-1p00_c2-0p00_TuneCP5_13p6TeV_powheg-pythia8/NANOAODSIM/130X_mcRun3_2022_realistic_v5_ext1-v1/80000/41db3bbd-35ed-4186-afb6-51350c32706c.root   | (None) | ad:104f33be | 7.607 MB   |          |
| cms:/store/mc/Run3Summer22NanoAODv12/GluGlutoHHto4V_kl-1p00_kt-1p00_c2-0p00_TuneCP5_13p6TeV_powheg-pythia8/NANOAODSIM/130X_mcRun3_2022_realistic_v5_ext1-v1/2550000/2b50f855-02aa-4151-a6e4-a86cf860e215.root | (None) | ad:22922797 | 41.652 MB  |          |
| cms:/store/mc/Run3Summer22NanoAODv12/GluGlutoHHto4V_kl-1p00_kt-1p00_c2-0p00_TuneCP5_13p6TeV_powheg-pythia8/NANOAODSIM/130X_mcRun3_2022_realistic_v5_ext1-v1/2550000/0d4c834c-3c80-4ea6-b873-a8dca0c7c333.root | (None) | ad:0ba2b6a7 | 5.580 MB   |          |
| cms:/store/mc/Run3Summer22NanoAODv12/GluGlutoHHto4V_kl-1p00_kt-1p00_c2-0p00_TuneCP5_13p6TeV_powheg-pythia8/NANOAODSIM/130X_mcRun3_2022_realistic_v5_ext1-v1/2540000/a67221b9-77ab-497e-a63e-41a7dcb3f2cb.root | (None) | ad:cb8d57e3 | 8.355 MB   |          |
| cms:/store/mc/Run3Summer22NanoAODv12/GluGlutoHHto4V_kl-1p00_kt-1p00_c2-0p00_TuneCP5_13p6TeV_powheg-pythia8/NANOAODSIM/130X_mcRun3_2022_realistic_v5_ext1-v1/2560000/1337a2c4-7828-471b-9e0c-0474380d1144.root | (None) | ad:62a97e22 | 9.978 MB   |          |
| cms:/store/mc/Run3Summer22NanoAODv12/GluGlutoHHto4V_kl-1p00_kt-1p00_c2-0p00_TuneCP5_13p6TeV_powheg-pythia8/NANOAODSIM/130X_mcRun3_2022_realistic_v5_ext1-v1/30000/d34f16cd-1c76-43a0-ab59-58ef20fcb92c.root   | (None) | ad:c8e13c7e | 4.071 MB   |          |
| cms:/store/mc/Run3Summer22NanoAODv12/GluGlutoHHto4V_kl-1p00_kt-1p00_c2-0p00_TuneCP5_13p6TeV_powheg-pythia8/NANOAODSIM/130X_mcRun3_2022_realistic_v5_ext1-v1/2540000/e4d5a5a1-3752-4490-aac9-2b156782e5d9.root | (None) | ad:07f553bb | 6.202 MB   |          |
| cms:/store/mc/Run3Summer22NanoAODv12/GluGlutoHHto4V_kl-1p00_kt-1p00_c2-0p00_TuneCP5_13p6TeV_powheg-pythia8/NANOAODSIM/130X_mcRun3_2022_realistic_v5_ext1-v1/80000/6df8f239-5dbd-4b84-adb7-b9749f7557fc.root   | (None) | ad:4f3c659e | 3.099 MB   |          |
| cms:/store/mc/Run3Summer22NanoAODv12/GluGlutoHHto4V_kl-1p00_kt-1p00_c2-0p00_TuneCP5_13p6TeV_powheg-pythia8/NANOAODSIM/130X_mcRun3_2022_realistic_v5_ext1-v1/2540000/bbb424e7-a08a-458a-8ef3-47538656ff2e.root | (None) | ad:f83a1c57 | 23.822 MB  |          |
| cms:/store/mc/Run3Summer22NanoAODv12/GluGlutoHHto4V_kl-1p00_kt-1p00_c2-0p00_TuneCP5_13p6TeV_powheg-pythia8/NANOAODSIM/130X_mcRun3_2022_realistic_v5_ext1-v1/2540000/0dac08f8-82c4-4bac-a01a-dd5f7f9df96d.root | (None) | ad:9a2d621f | 22.509 MB  |          |
| cms:/store/mc/Run3Summer22NanoAODv12/GluGlutoHHto4V_kl-1p00_kt-1p00_c2-0p00_TuneCP5_13p6TeV_powheg-pythia8/NANOAODSIM/130X_mcRun3_2022_realistic_v5_ext1-v1/2540000/13d4d53e-f494-405b-8ed2-0cfabb367a85.root | (None) | ad:1c147460 | 11.920 MB  |          |
| cms:/store/mc/Run3Summer22NanoAODv12/GluGlutoHHto4V_kl-1p00_kt-1p00_c2-0p00_TuneCP5_13p6TeV_powheg-pythia8/NANOAODSIM/130X_mcRun3_2022_realistic_v5_ext1-v1/2560000/a9e611da-7a89-4113-9f0d-3da54233f524.root | (None) | ad:4c41e26d | 16.800 MB  |          |
| cms:/store/mc/Run3Summer22NanoAODv12/GluGlutoHHto4V_kl-1p00_kt-1p00_c2-0p00_TuneCP5_13p6TeV_powheg-pythia8/NANOAODSIM/130X_mcRun3_2022_realistic_v5_ext1-v1/80000/f5cf3ea1-f5bf-45ad-84a3-a3659cb18bc3.root   | (None) | ad:742cb81f | 3.334 MB   |          |
| cms:/store/mc/Run3Summer22NanoAODv12/GluGlutoHHto4V_kl-1p00_kt-1p00_c2-0p00_TuneCP5_13p6TeV_powheg-pythia8/NANOAODSIM/130X_mcRun3_2022_realistic_v5_ext1-v1/2560000/cf35c55d-df6f-400c-a857-cf2305c304ef.root | (None) | ad:6786fd66 | 58.544 MB  |          |
| cms:/store/mc/Run3Summer22NanoAODv12/GluGlutoHHto4V_kl-1p00_kt-1p00_c2-0p00_TuneCP5_13p6TeV_powheg-pythia8/NANOAODSIM/130X_mcRun3_2022_realistic_v5_ext1-v1/50000/02bc3e1d-640a-4828-95fb-3d626b98ceac.root   | (None) | ad:d7aabf49 | 25.018 MB  |          |
| cms:/store/mc/Run3Summer22NanoAODv12/GluGlutoHHto4V_kl-1p00_kt-1p00_c2-0p00_TuneCP5_13p6TeV_powheg-pythia8/NANOAODSIM/130X_mcRun3_2022_realistic_v5_ext1-v1/2550000/7b656ecc-e91b-4ca2-81bd-a13e5bb1f19b.root | (None) | ad:c5720c87 | 3.431 MB   |          |
| cms:/store/mc/Run3Summer22NanoAODv12/GluGlutoHHto4V_kl-1p00_kt-1p00_c2-0p00_TuneCP5_13p6TeV_powheg-pythia8/NANOAODSIM/130X_mcRun3_2022_realistic_v5_ext1-v1/50000/6eb48c9f-67ce-4a69-94ba-9926c97c8d2c.root   | (None) | ad:2ad56fef | 7.289 MB   |          |
| cms:/store/mc/Run3Summer22NanoAODv12/GluGlutoHHto4V_kl-1p00_kt-1p00_c2-0p00_TuneCP5_13p6TeV_powheg-pythia8/NANOAODSIM/130X_mcRun3_2022_realistic_v5_ext1-v1/30000/3c0e15a4-a9bc-4e81-9bfc-1971955a5422.root   | (None) | ad:fc370c7f | 27.571 MB  |          |
| cms:/store/mc/Run3Summer22NanoAODv12/GluGlutoHHto4V_kl-1p00_kt-1p00_c2-0p00_TuneCP5_13p6TeV_powheg-pythia8/NANOAODSIM/130X_mcRun3_2022_realistic_v5_ext1-v1/80000/9fa00b15-416d-4997-a960-8fb5759d9605.root   | (None) | ad:c6f443c5 | 22.961 MB  |          |
| cms:/store/mc/Run3Summer22NanoAODv12/GluGlutoHHto4V_kl-1p00_kt-1p00_c2-0p00_TuneCP5_13p6TeV_powheg-pythia8/NANOAODSIM/130X_mcRun3_2022_realistic_v5_ext1-v1/2560000/a5a1839d-6984-4f07-a183-b6e8264569c4.root | (None) | ad:0927c822 | 19.561 MB  |          |
| cms:/store/mc/Run3Summer22NanoAODv12/GluGlutoHHto4V_kl-1p00_kt-1p00_c2-0p00_TuneCP5_13p6TeV_powheg-pythia8/NANOAODSIM/130X_mcRun3_2022_realistic_v5_ext1-v1/2540000/2931bd60-148d-48ee-8205-dd4c9530a3f2.root | (None) | ad:0eba21b8 | 26.897 MB  |          |
| cms:/store/mc/Run3Summer22NanoAODv12/GluGlutoHHto4V_kl-1p00_kt-1p00_c2-0p00_TuneCP5_13p6TeV_powheg-pythia8/NANOAODSIM/130X_mcRun3_2022_realistic_v5_ext1-v1/30000/ce4a4819-40c0-405f-bdfa-c8a44fa52cda.root   | (None) | ad:ff902255 | 7.390 MB   |          |
| cms:/store/mc/Run3Summer22NanoAODv12/GluGlutoHHto4V_kl-1p00_kt-1p00_c2-0p00_TuneCP5_13p6TeV_powheg-pythia8/NANOAODSIM/130X_mcRun3_2022_realistic_v5_ext1-v1/30000/4a5a061c-351f-427c-a61f-2aa99f39e95f.root   | (None) | ad:804d18ba | 38.353 MB  |          |
| cms:/store/mc/Run3Summer22NanoAODv12/GluGlutoHHto4V_kl-1p00_kt-1p00_c2-0p00_TuneCP5_13p6TeV_powheg-pythia8/NANOAODSIM/130X_mcRun3_2022_realistic_v5_ext1-v1/80000/d2f8eb4a-c774-4dd5-88c7-2ccdb6ba4b1f.root   | (None) | ad:d1d9785d | 8.882 MB   |          |
| cms:/store/mc/Run3Summer22NanoAODv12/GluGlutoHHto4V_kl-1p00_kt-1p00_c2-0p00_TuneCP5_13p6TeV_powheg-pythia8/NANOAODSIM/130X_mcRun3_2022_realistic_v5_ext1-v1/30000/b93ef956-8e43-4722-a913-4a652f639a96.root   | (None) | ad:2a5ca72e | 2.930 MB   |          |
| cms:/store/mc/Run3Summer22NanoAODv12/GluGlutoHHto4V_kl-1p00_kt-1p00_c2-0p00_TuneCP5_13p6TeV_powheg-pythia8/NANOAODSIM/130X_mcRun3_2022_realistic_v5_ext1-v1/2540000/37666eca-7eee-426c-8d0c-0db113e8654b.root | (None) | ad:deefbed4 | 9.485 MB   |          |
| cms:/store/mc/Run3Summer22NanoAODv12/GluGlutoHHto4V_kl-1p00_kt-1p00_c2-0p00_TuneCP5_13p6TeV_powheg-pythia8/NANOAODSIM/130X_mcRun3_2022_realistic_v5_ext1-v1/2550000/000dd1fb-fd39-4a1c-b950-4bc6271588b7.root | (None) | ad:18efc36d | 9.708 MB   |          |
| cms:/store/mc/Run3Summer22NanoAODv12/GluGlutoHHto4V_kl-1p00_kt-1p00_c2-0p00_TuneCP5_13p6TeV_powheg-pythia8/NANOAODSIM/130X_mcRun3_2022_realistic_v5_ext1-v1/2550000/6f777832-e421-4668-8ec5-8941407f3cb2.root | (None) | ad:91f3efe2 | 5.604 MB   |          |
| cms:/store/mc/Run3Summer22NanoAODv12/GluGlutoHHto4V_kl-1p00_kt-1p00_c2-0p00_TuneCP5_13p6TeV_powheg-pythia8/NANOAODSIM/130X_mcRun3_2022_realistic_v5_ext1-v1/50000/89816a8d-2c75-41de-9a7f-4550f84a0017.root   | (None) | ad:bc0a1d1c | 14.358 MB  |          |
| cms:/store/mc/Run3Summer22NanoAODv12/GluGlutoHHto4V_kl-1p00_kt-1p00_c2-0p00_TuneCP5_13p6TeV_powheg-pythia8/NANOAODSIM/130X_mcRun3_2022_realistic_v5_ext1-v1/2550000/23e4ca9a-2a50-43ef-ad6a-14dd9c507797.root | (None) | ad:f407047c | 7.508 MB   |          |
| cms:/store/mc/Run3Summer22NanoAODv12/GluGlutoHHto4V_kl-1p00_kt-1p00_c2-0p00_TuneCP5_13p6TeV_powheg-pythia8/NANOAODSIM/130X_mcRun3_2022_realistic_v5_ext1-v1/80000/5f126d03-7459-48c3-a719-2ac121d6bd91.root   | (None) | ad:70aa5d3a | 3.851 MB   |          |
| cms:/store/mc/Run3Summer22NanoAODv12/GluGlutoHHto4V_kl-1p00_kt-1p00_c2-0p00_TuneCP5_13p6TeV_powheg-pythia8/NANOAODSIM/130X_mcRun3_2022_realistic_v5_ext1-v1/50000/dd870a1c-e63a-4a74-8c28-c6874ef34cb5.root   | (None) | ad:0cf43db1 | 8.252 MB   |          |
| cms:/store/mc/Run3Summer22NanoAODv12/GluGlutoHHto4V_kl-1p00_kt-1p00_c2-0p00_TuneCP5_13p6TeV_powheg-pythia8/NANOAODSIM/130X_mcRun3_2022_realistic_v5_ext1-v1/50000/e1d0d641-0458-479c-aebe-f5322e430bc4.root   | (None) | ad:ba39edee | 21.894 MB  |          |
| cms:/store/mc/Run3Summer22NanoAODv12/GluGlutoHHto4V_kl-1p00_kt-1p00_c2-0p00_TuneCP5_13p6TeV_powheg-pythia8/NANOAODSIM/130X_mcRun3_2022_realistic_v5_ext1-v1/30000/0e0f7cd6-e8f3-4cef-afca-a2caf2e07e27.root   | (None) | ad:766324f1 | 10.339 MB  |          |
| cms:/store/mc/Run3Summer22NanoAODv12/GluGlutoHHto4V_kl-1p00_kt-1p00_c2-0p00_TuneCP5_13p6TeV_powheg-pythia8/NANOAODSIM/130X_mcRun3_2022_realistic_v5_ext1-v1/30000/cf4b447c-9280-49af-bce5-84dfa4b2d9ec.root   | (None) | ad:9ec415cb | 3.962 MB   |          |
| cms:/store/mc/Run3Summer22NanoAODv12/GluGlutoHHto4V_kl-1p00_kt-1p00_c2-0p00_TuneCP5_13p6TeV_powheg-pythia8/NANOAODSIM/130X_mcRun3_2022_realistic_v5_ext1-v1/80000/a5f7d545-11da-4992-8cc1-0653e545c05b.root   | (None) | ad:c1415c2a | 3.639 MB   |          |
| cms:/store/mc/Run3Summer22NanoAODv12/GluGlutoHHto4V_kl-1p00_kt-1p00_c2-0p00_TuneCP5_13p6TeV_powheg-pythia8/NANOAODSIM/130X_mcRun3_2022_realistic_v5_ext1-v1/2540000/6f5506f1-0914-462f-8933-25a0f963b55d.root | (None) | ad:503f2fd9 | 9.672 MB   |          |
| cms:/store/mc/Run3Summer22NanoAODv12/GluGlutoHHto4V_kl-1p00_kt-1p00_c2-0p00_TuneCP5_13p6TeV_powheg-pythia8/NANOAODSIM/130X_mcRun3_2022_realistic_v5_ext1-v1/30000/4bcc5f3d-9a52-4c4b-830d-8ec1c9195b7d.root   | (None) | ad:ca306adc | 6.102 MB   |          |
| cms:/store/mc/Run3Summer22NanoAODv12/GluGlutoHHto4V_kl-1p00_kt-1p00_c2-0p00_TuneCP5_13p6TeV_powheg-pythia8/NANOAODSIM/130X_mcRun3_2022_realistic_v5_ext1-v1/30000/130d867a-26b2-4c3e-a36e-913b97202752.root   | (None) | ad:91393f55 | 4.459 MB   |          |
| cms:/store/mc/Run3Summer22NanoAODv12/GluGlutoHHto4V_kl-1p00_kt-1p00_c2-0p00_TuneCP5_13p6TeV_powheg-pythia8/NANOAODSIM/130X_mcRun3_2022_realistic_v5_ext1-v1/30000/687166cd-46bb-4371-bda0-8f29f3be403c.root   | (None) | ad:2711de48 | 3.334 MB   |          |
| cms:/store/mc/Run3Summer22NanoAODv12/GluGlutoHHto4V_kl-1p00_kt-1p00_c2-0p00_TuneCP5_13p6TeV_powheg-pythia8/NANOAODSIM/130X_mcRun3_2022_realistic_v5_ext1-v1/80000/cb06a7d1-8c30-498a-b17e-a11a0822315e.root   | (None) | ad:5dad1b2e | 50.667 MB  |          |
| cms:/store/mc/Run3Summer22NanoAODv12/GluGlutoHHto4V_kl-1p00_kt-1p00_c2-0p00_TuneCP5_13p6TeV_powheg-pythia8/NANOAODSIM/130X_mcRun3_2022_realistic_v5_ext1-v1/2560000/a6f0ed47-76d1-4340-94cc-d22c9f5568d1.root | (None) | ad:84a8e6b2 | 34.120 MB  |          |
| cms:/store/mc/Run3Summer22NanoAODv12/GluGlutoHHto4V_kl-1p00_kt-1p00_c2-0p00_TuneCP5_13p6TeV_powheg-pythia8/NANOAODSIM/130X_mcRun3_2022_realistic_v5_ext1-v1/2550000/dba6430a-b132-4a00-b90c-b1a5fdb8b7a3.root | (None) | ad:e7f3db01 | 2.928 MB   |          |
| cms:/store/mc/Run3Summer22NanoAODv12/GluGlutoHHto4V_kl-1p00_kt-1p00_c2-0p00_TuneCP5_13p6TeV_powheg-pythia8/NANOAODSIM/130X_mcRun3_2022_realistic_v5_ext1-v1/30000/b0c4a2f1-9cd4-49ff-a686-0f267ef6f8e8.root   | (None) | ad:e6c22e80 | 15.669 MB  |          |
+---------------------------------------------------------------------------------------------------------------------------------------------------------------------------------------------------------------+--------+-------------+------------+----------+
Total files : 179
Total size : 4.680 GB
