+---------------------------------------------------------------------------------------------------------------------------------------------------------------------------------------------------------+--------+-------------+------------+----------+
| SCOPE:NAME                                                                                                                                                                                              | GUID   | ADLER32     | FILESIZE   | EVENTS   |
|---------------------------------------------------------------------------------------------------------------------------------------------------------------------------------------------------------+--------+-------------+------------+----------|
| cms:/store/mc/Run3Summer22NanoAODv12/GluGlutoRadiontoHHto4B_M-800_narrow_TuneCP5_13p6TeV_madgraph-pythia8/NANOAODSIM/130X_mcRun3_2022_realistic_v5-v3/2560000/9cd89c96-b0b5-4c17-90f6-fe5ae9a59a63.root | (None) | ad:94bf67d5 | 13.788 MB  |          |
| cms:/store/mc/Run3Summer22NanoAODv12/GluGlutoRadiontoHHto4B_M-800_narrow_TuneCP5_13p6TeV_madgraph-pythia8/NANOAODSIM/130X_mcRun3_2022_realistic_v5-v3/2560000/01050350-718d-4d9e-a436-6e2375154a0f.root | (None) | ad:349f59f8 | 3.576 MB   |          |
| cms:/store/mc/Run3Summer22NanoAODv12/GluGlutoRadiontoHHto4B_M-800_narrow_TuneCP5_13p6TeV_madgraph-pythia8/NANOAODSIM/130X_mcRun3_2022_realistic_v5-v3/2560000/130c6889-09bb-474f-b18f-6ea26a36c24d.root | (None) | ad:dfb5026d | 15.452 MB  |          |
| cms:/store/mc/Run3Summer22NanoAODv12/GluGlutoRadiontoHHto4B_M-800_narrow_TuneCP5_13p6TeV_madgraph-pythia8/NANOAODSIM/130X_mcRun3_2022_realistic_v5-v3/2560000/f00c1fce-291c-4e50-b7d2-7d8e6f0d1e4b.root | (None) | ad:f859c7bc | 6.849 MB   |          |
| cms:/store/mc/Run3Summer22NanoAODv12/GluGlutoRadiontoHHto4B_M-800_narrow_TuneCP5_13p6TeV_madgraph-pythia8/NANOAODSIM/130X_mcRun3_2022_realistic_v5-v3/2560000/062c5ecf-e219-47b7-876d-ba0af0a2fe94.root | (None) | ad:f1a170c6 | 6.812 MB   |          |
| cms:/store/mc/Run3Summer22NanoAODv12/GluGlutoRadiontoHHto4B_M-800_narrow_TuneCP5_13p6TeV_madgraph-pythia8/NANOAODSIM/130X_mcRun3_2022_realistic_v5-v3/2560000/83a247c5-4087-455e-bada-732632dd6d96.root | (None) | ad:4a6df3a4 | 22.426 MB  |          |
| cms:/store/mc/Run3Summer22NanoAODv12/GluGlutoRadiontoHHto4B_M-800_narrow_TuneCP5_13p6TeV_madgraph-pythia8/NANOAODSIM/130X_mcRun3_2022_realistic_v5-v3/2560000/c1f228f8-b1d5-4ca6-8811-3e1716db6004.root | (None) | ad:b3bd8bc3 | 37.887 MB  |          |
| cms:/store/mc/Run3Summer22NanoAODv12/GluGlutoRadiontoHHto4B_M-800_narrow_TuneCP5_13p6TeV_madgraph-pythia8/NANOAODSIM/130X_mcRun3_2022_realistic_v5-v3/2560000/f725cff1-153c-4b1e-a57b-7bc1c468fb83.root | (None) | ad:3cb36ca1 | 22.410 MB  |          |
| cms:/store/mc/Run3Summer22NanoAODv12/GluGlutoRadiontoHHto4B_M-800_narrow_TuneCP5_13p6TeV_madgraph-pythia8/NANOAODSIM/130X_mcRun3_2022_realistic_v5-v3/2560000/4ba15f7b-67fd-4a58-ab77-bb633b08376d.root | (None) | ad:23e5a453 | 4.676 MB   |          |
| cms:/store/mc/Run3Summer22NanoAODv12/GluGlutoRadiontoHHto4B_M-800_narrow_TuneCP5_13p6TeV_madgraph-pythia8/NANOAODSIM/130X_mcRun3_2022_realistic_v5-v3/2560000/7a629ece-6007-44eb-928c-b1d9278481ca.root | (None) | ad:a40fba5b | 37.968 MB  |          |
| cms:/store/mc/Run3Summer22NanoAODv12/GluGlutoRadiontoHHto4B_M-800_narrow_TuneCP5_13p6TeV_madgraph-pythia8/NANOAODSIM/130X_mcRun3_2022_realistic_v5-v3/2560000/7253fa0b-9777-482f-a5a0-ef672b195f74.root | (None) | ad:592f2819 | 34.272 MB  |          |
| cms:/store/mc/Run3Summer22NanoAODv12/GluGlutoRadiontoHHto4B_M-800_narrow_TuneCP5_13p6TeV_madgraph-pythia8/NANOAODSIM/130X_mcRun3_2022_realistic_v5-v3/2560000/4811b6dc-0923-4f27-b39f-423a3b8fbeb1.root | (None) | ad:3859f75b | 55.175 MB  |          |
| cms:/store/mc/Run3Summer22NanoAODv12/GluGlutoRadiontoHHto4B_M-800_narrow_TuneCP5_13p6TeV_madgraph-pythia8/NANOAODSIM/130X_mcRun3_2022_realistic_v5-v3/2560000/34d29638-2e92-47d0-b3f7-c3a2aeab29cc.root | (None) | ad:06b32e37 | 4.667 MB   |          |
+---------------------------------------------------------------------------------------------------------------------------------------------------------------------------------------------------------+--------+-------------+------------+----------+
Total files : 13
Total size : 265.957 MB
