{
    "cms:/store/mc/Run3Summer23NanoAODv12/GluGlutoHHto4B_kl-1p00_kt-1p00_c2-3p00_TuneCP5_13p6TeV_powheg-pythia8/NANOAODSIM/130X_mcRun3_2023_realistic_v15-v3/2830000/831e7b15-dee5-4761-81ad-7b3b90541d43.root": [
        "T2_CH_CSCS: davs://storage01.lcg.cscs.ch:2880/pnfs/lcg.cscs.ch/cms/trivcat/store/mc/Run3Summer23NanoAODv12/GluGlutoHHto4B_kl-1p00_kt-1p00_c2-3p00_TuneCP5_13p6TeV_powheg-pythia8/NANOAODSIM/130X_mcRun3_2023_realistic_v15-v3/2830000/831e7b15-dee5-4761-81ad-7b3b90541d43.root",
        "T2_US_MIT: davs://xrootd.cmsaf.mit.edu:1094/store/mc/Run3Summer23NanoAODv12/GluGlutoHHto4B_kl-1p00_kt-1p00_c2-3p00_TuneCP5_13p6TeV_powheg-pythia8/NANOAODSIM/130X_mcRun3_2023_realistic_v15-v3/2830000/831e7b15-dee5-4761-81ad-7b3b90541d43.root",
        "T2_IT_Legnaro: davs://t2-xrdcms.lnl.infn.it:2880/pnfs/lnl.infn.it/data/cms/store/mc/Run3Summer23NanoAODv12/GluGlutoHHto4B_kl-1p00_kt-1p00_c2-3p00_TuneCP5_13p6TeV_powheg-pythia8/NANOAODSIM/130X_mcRun3_2023_realistic_v15-v3/2830000/831e7b15-dee5-4761-81ad-7b3b90541d43.root",
        "T1_UK_RAL_Disk: davs://rdr.echo.stfc.ac.uk:1094/store/mc/Run3Summer23NanoAODv12/GluGlutoHHto4B_kl-1p00_kt-1p00_c2-3p00_TuneCP5_13p6TeV_powheg-pythia8/NANOAODSIM/130X_mcRun3_2023_realistic_v15-v3/2830000/831e7b15-dee5-4761-81ad-7b3b90541d43.root",
        "T2_KR_KISTI: davs://cms-t2-se01.sdfarm.kr:2880/store/mc/Run3Summer23NanoAODv12/GluGlutoHHto4B_kl-1p00_kt-1p00_c2-3p00_TuneCP5_13p6TeV_powheg-pythia8/NANOAODSIM/130X_mcRun3_2023_realistic_v15-v3/2830000/831e7b15-dee5-4761-81ad-7b3b90541d43.root",
        "T2_IT_Pisa: davs://stwebdav.pi.infn.it:8443/cms/store/mc/Run3Summer23NanoAODv12/GluGlutoHHto4B_kl-1p00_kt-1p00_c2-3p00_TuneCP5_13p6TeV_powheg-pythia8/NANOAODSIM/130X_mcRun3_2023_realistic_v15-v3/2830000/831e7b15-dee5-4761-81ad-7b3b90541d43.root",
        "T2_US_Purdue: davs://eos.cms.rcac.purdue.edu:9000/store/mc/Run3Summer23NanoAODv12/GluGlutoHHto4B_kl-1p00_kt-1p00_c2-3p00_TuneCP5_13p6TeV_powheg-pythia8/NANOAODSIM/130X_mcRun3_2023_realistic_v15-v3/2830000/831e7b15-dee5-4761-81ad-7b3b90541d43.root",
        "T1_RU_JINR_Disk: davs://se-wbdv.jinr-t1.ru:2880/pnfs/jinr-t1.ru/data/cms/store/mc/Run3Summer23NanoAODv12/GluGlutoHHto4B_kl-1p00_kt-1p00_c2-3p00_TuneCP5_13p6TeV_powheg-pythia8/NANOAODSIM/130X_mcRun3_2023_realistic_v15-v3/2830000/831e7b15-dee5-4761-81ad-7b3b90541d43.root",
        "T1_US_FNAL_Tape: srm://cmsdcatape.fnal.gov:8443/srm/managerv2?SFN=/11/store/mc/Run3Summer23NanoAODv12/GluGlutoHHto4B_kl-1p00_kt-1p00_c2-3p00_TuneCP5_13p6TeV_powheg-pythia8/NANOAODSIM/130X_mcRun3_2023_realistic_v15-v3/2830000/831e7b15-dee5-4761-81ad-7b3b90541d43.root"
    ],
    "cms:/store/mc/Run3Summer23NanoAODv12/GluGlutoHHto4B_kl-1p00_kt-1p00_c2-3p00_TuneCP5_13p6TeV_powheg-pythia8/NANOAODSIM/130X_mcRun3_2023_realistic_v15-v3/2830000/c4b9564f-7c22-4de1-92f6-62c3c38a59c2.root": [
        "T2_CH_CSCS: davs://storage01.lcg.cscs.ch:2880/pnfs/lcg.cscs.ch/cms/trivcat/store/mc/Run3Summer23NanoAODv12/GluGlutoHHto4B_kl-1p00_kt-1p00_c2-3p00_TuneCP5_13p6TeV_powheg-pythia8/NANOAODSIM/130X_mcRun3_2023_realistic_v15-v3/2830000/c4b9564f-7c22-4de1-92f6-62c3c38a59c2.root",
        "T2_US_MIT: davs://xrootd.cmsaf.mit.edu:1094/store/mc/Run3Summer23NanoAODv12/GluGlutoHHto4B_kl-1p00_kt-1p00_c2-3p00_TuneCP5_13p6TeV_powheg-pythia8/NANOAODSIM/130X_mcRun3_2023_realistic_v15-v3/2830000/c4b9564f-7c22-4de1-92f6-62c3c38a59c2.root",
        "T2_TW_NCHC: davs://se01.grid.nchc.org.tw:443//cms/store/mc/Run3Summer23NanoAODv12/GluGlutoHHto4B_kl-1p00_kt-1p00_c2-3p00_TuneCP5_13p6TeV_powheg-pythia8/NANOAODSIM/130X_mcRun3_2023_realistic_v15-v3/2830000/c4b9564f-7c22-4de1-92f6-62c3c38a59c2.root",
        "T1_UK_RAL_Disk: davs://rdr.echo.stfc.ac.uk:1094/store/mc/Run3Summer23NanoAODv12/GluGlutoHHto4B_kl-1p00_kt-1p00_c2-3p00_TuneCP5_13p6TeV_powheg-pythia8/NANOAODSIM/130X_mcRun3_2023_realistic_v15-v3/2830000/c4b9564f-7c22-4de1-92f6-62c3c38a59c2.root",
        "T2_US_Nebraska: davs://xrootd-local.unl.edu:1094/store/mc/Run3Summer23NanoAODv12/GluGlutoHHto4B_kl-1p00_kt-1p00_c2-3p00_TuneCP5_13p6TeV_powheg-pythia8/NANOAODSIM/130X_mcRun3_2023_realistic_v15-v3/2830000/c4b9564f-7c22-4de1-92f6-62c3c38a59c2.root",
        "T2_IT_Pisa: davs://stwebdav.pi.infn.it:8443/cms/store/mc/Run3Summer23NanoAODv12/GluGlutoHHto4B_kl-1p00_kt-1p00_c2-3p00_TuneCP5_13p6TeV_powheg-pythia8/NANOAODSIM/130X_mcRun3_2023_realistic_v15-v3/2830000/c4b9564f-7c22-4de1-92f6-62c3c38a59c2.root",
        "T2_US_Purdue: davs://eos.cms.rcac.purdue.edu:9000/store/mc/Run3Summer23NanoAODv12/GluGlutoHHto4B_kl-1p00_kt-1p00_c2-3p00_TuneCP5_13p6TeV_powheg-pythia8/NANOAODSIM/130X_mcRun3_2023_realistic_v15-v3/2830000/c4b9564f-7c22-4de1-92f6-62c3c38a59c2.root",
        "T1_RU_JINR_Disk: davs://se-wbdv.jinr-t1.ru:2880/pnfs/jinr-t1.ru/data/cms/store/mc/Run3Summer23NanoAODv12/GluGlutoHHto4B_kl-1p00_kt-1p00_c2-3p00_TuneCP5_13p6TeV_powheg-pythia8/NANOAODSIM/130X_mcRun3_2023_realistic_v15-v3/2830000/c4b9564f-7c22-4de1-92f6-62c3c38a59c2.root",
        "T1_US_FNAL_Tape: srm://cmsdcatape.fnal.gov:8443/srm/managerv2?SFN=/11/store/mc/Run3Summer23NanoAODv12/GluGlutoHHto4B_kl-1p00_kt-1p00_c2-3p00_TuneCP5_13p6TeV_powheg-pythia8/NANOAODSIM/130X_mcRun3_2023_realistic_v15-v3/2830000/c4b9564f-7c22-4de1-92f6-62c3c38a59c2.root"
    ],
    "cms:/store/mc/Run3Summer23NanoAODv12/GluGlutoHHto4B_kl-1p00_kt-1p00_c2-3p00_TuneCP5_13p6TeV_powheg-pythia8/NANOAODSIM/130X_mcRun3_2023_realistic_v15-v3/2830000/27e91939-11ce-4cf2-8a1a-59c463c66973.root": [
        "T2_CH_CSCS: davs://storage01.lcg.cscs.ch:2880/pnfs/lcg.cscs.ch/cms/trivcat/store/mc/Run3Summer23NanoAODv12/GluGlutoHHto4B_kl-1p00_kt-1p00_c2-3p00_TuneCP5_13p6TeV_powheg-pythia8/NANOAODSIM/130X_mcRun3_2023_realistic_v15-v3/2830000/27e91939-11ce-4cf2-8a1a-59c463c66973.root",
        "T1_FR_CCIN2P3_Disk: davs://ccdavcms.in2p3.fr:2880/disk/data/store/mc/Run3Summer23NanoAODv12/GluGlutoHHto4B_kl-1p00_kt-1p00_c2-3p00_TuneCP5_13p6TeV_powheg-pythia8/NANOAODSIM/130X_mcRun3_2023_realistic_v15-v3/2830000/27e91939-11ce-4cf2-8a1a-59c463c66973.root",
        "T2_US_MIT: davs://xrootd.cmsaf.mit.edu:1094/store/mc/Run3Summer23NanoAODv12/GluGlutoHHto4B_kl-1p00_kt-1p00_c2-3p00_TuneCP5_13p6TeV_powheg-pythia8/NANOAODSIM/130X_mcRun3_2023_realistic_v15-v3/2830000/27e91939-11ce-4cf2-8a1a-59c463c66973.root",
        "T1_UK_RAL_Disk: davs://rdr.echo.stfc.ac.uk:1094/store/mc/Run3Summer23NanoAODv12/GluGlutoHHto4B_kl-1p00_kt-1p00_c2-3p00_TuneCP5_13p6TeV_powheg-pythia8/NANOAODSIM/130X_mcRun3_2023_realistic_v15-v3/2830000/27e91939-11ce-4cf2-8a1a-59c463c66973.root",
        "T2_IT_Pisa: davs://stwebdav.pi.infn.it:8443/cms/store/mc/Run3Summer23NanoAODv12/GluGlutoHHto4B_kl-1p00_kt-1p00_c2-3p00_TuneCP5_13p6TeV_powheg-pythia8/NANOAODSIM/130X_mcRun3_2023_realistic_v15-v3/2830000/27e91939-11ce-4cf2-8a1a-59c463c66973.root",
        "T2_US_Purdue: davs://eos.cms.rcac.purdue.edu:9000/store/mc/Run3Summer23NanoAODv12/GluGlutoHHto4B_kl-1p00_kt-1p00_c2-3p00_TuneCP5_13p6TeV_powheg-pythia8/NANOAODSIM/130X_mcRun3_2023_realistic_v15-v3/2830000/27e91939-11ce-4cf2-8a1a-59c463c66973.root",
        "T1_RU_JINR_Disk: davs://se-wbdv.jinr-t1.ru:2880/pnfs/jinr-t1.ru/data/cms/store/mc/Run3Summer23NanoAODv12/GluGlutoHHto4B_kl-1p00_kt-1p00_c2-3p00_TuneCP5_13p6TeV_powheg-pythia8/NANOAODSIM/130X_mcRun3_2023_realistic_v15-v3/2830000/27e91939-11ce-4cf2-8a1a-59c463c66973.root",
        "T1_US_FNAL_Tape: srm://cmsdcatape.fnal.gov:8443/srm/managerv2?SFN=/11/store/mc/Run3Summer23NanoAODv12/GluGlutoHHto4B_kl-1p00_kt-1p00_c2-3p00_TuneCP5_13p6TeV_powheg-pythia8/NANOAODSIM/130X_mcRun3_2023_realistic_v15-v3/2830000/27e91939-11ce-4cf2-8a1a-59c463c66973.root"
    ],
    "cms:/store/mc/Run3Summer23NanoAODv12/GluGlutoHHto4B_kl-1p00_kt-1p00_c2-3p00_TuneCP5_13p6TeV_powheg-pythia8/NANOAODSIM/130X_mcRun3_2023_realistic_v15-v3/2830000/89779de7-abc2-4850-a462-fee17ff985db.root": [
        "T2_DE_DESY: davs://dcache-cms-webdav-wan.desy.de:2880/pnfs/desy.de/cms/tier2/store/mc/Run3Summer23NanoAODv12/GluGlutoHHto4B_kl-1p00_kt-1p00_c2-3p00_TuneCP5_13p6TeV_powheg-pythia8/NANOAODSIM/130X_mcRun3_2023_realistic_v15-v3/2830000/89779de7-abc2-4850-a462-fee17ff985db.root",
        "T2_CH_CSCS: davs://storage01.lcg.cscs.ch:2880/pnfs/lcg.cscs.ch/cms/trivcat/store/mc/Run3Summer23NanoAODv12/GluGlutoHHto4B_kl-1p00_kt-1p00_c2-3p00_TuneCP5_13p6TeV_powheg-pythia8/NANOAODSIM/130X_mcRun3_2023_realistic_v15-v3/2830000/89779de7-abc2-4850-a462-fee17ff985db.root",
        "T2_US_MIT: davs://xrootd.cmsaf.mit.edu:1094/store/mc/Run3Summer23NanoAODv12/GluGlutoHHto4B_kl-1p00_kt-1p00_c2-3p00_TuneCP5_13p6TeV_powheg-pythia8/NANOAODSIM/130X_mcRun3_2023_realistic_v15-v3/2830000/89779de7-abc2-4850-a462-fee17ff985db.root",
        "T2_IT_Bari: davs://webdav.recas.ba.infn.it:8443/cms/store/mc/Run3Summer23NanoAODv12/GluGlutoHHto4B_kl-1p00_kt-1p00_c2-3p00_TuneCP5_13p6TeV_powheg-pythia8/NANOAODSIM/130X_mcRun3_2023_realistic_v15-v3/2830000/89779de7-abc2-4850-a462-fee17ff985db.root",
        "T1_UK_RAL_Disk: davs://rdr.echo.stfc.ac.uk:1094/store/mc/Run3Summer23NanoAODv12/GluGlutoHHto4B_kl-1p00_kt-1p00_c2-3p00_TuneCP5_13p6TeV_powheg-pythia8/NANOAODSIM/130X_mcRun3_2023_realistic_v15-v3/2830000/89779de7-abc2-4850-a462-fee17ff985db.root",
        "T2_IT_Pisa: davs://stwebdav.pi.infn.it:8443/cms/store/mc/Run3Summer23NanoAODv12/GluGlutoHHto4B_kl-1p00_kt-1p00_c2-3p00_TuneCP5_13p6TeV_powheg-pythia8/NANOAODSIM/130X_mcRun3_2023_realistic_v15-v3/2830000/89779de7-abc2-4850-a462-fee17ff985db.root",
        "T2_US_Purdue: davs://eos.cms.rcac.purdue.edu:9000/store/mc/Run3Summer23NanoAODv12/GluGlutoHHto4B_kl-1p00_kt-1p00_c2-3p00_TuneCP5_13p6TeV_powheg-pythia8/NANOAODSIM/130X_mcRun3_2023_realistic_v15-v3/2830000/89779de7-abc2-4850-a462-fee17ff985db.root",
        "T1_RU_JINR_Disk: davs://se-wbdv.jinr-t1.ru:2880/pnfs/jinr-t1.ru/data/cms/store/mc/Run3Summer23NanoAODv12/GluGlutoHHto4B_kl-1p00_kt-1p00_c2-3p00_TuneCP5_13p6TeV_powheg-pythia8/NANOAODSIM/130X_mcRun3_2023_realistic_v15-v3/2830000/89779de7-abc2-4850-a462-fee17ff985db.root",
        "T1_US_FNAL_Tape: srm://cmsdcatape.fnal.gov:8443/srm/managerv2?SFN=/11/store/mc/Run3Summer23NanoAODv12/GluGlutoHHto4B_kl-1p00_kt-1p00_c2-3p00_TuneCP5_13p6TeV_powheg-pythia8/NANOAODSIM/130X_mcRun3_2023_realistic_v15-v3/2830000/89779de7-abc2-4850-a462-fee17ff985db.root"
    ],
    "cms:/store/mc/Run3Summer23NanoAODv12/GluGlutoHHto4B_kl-1p00_kt-1p00_c2-3p00_TuneCP5_13p6TeV_powheg-pythia8/NANOAODSIM/130X_mcRun3_2023_realistic_v15-v3/2830000/ed05a64a-65dd-4af3-9dab-0cb75df2a118.root": [
        "T2_DE_DESY: davs://dcache-cms-webdav-wan.desy.de:2880/pnfs/desy.de/cms/tier2/store/mc/Run3Summer23NanoAODv12/GluGlutoHHto4B_kl-1p00_kt-1p00_c2-3p00_TuneCP5_13p6TeV_powheg-pythia8/NANOAODSIM/130X_mcRun3_2023_realistic_v15-v3/2830000/ed05a64a-65dd-4af3-9dab-0cb75df2a118.root",
        "T2_CH_CSCS: davs://storage01.lcg.cscs.ch:2880/pnfs/lcg.cscs.ch/cms/trivcat/store/mc/Run3Summer23NanoAODv12/GluGlutoHHto4B_kl-1p00_kt-1p00_c2-3p00_TuneCP5_13p6TeV_powheg-pythia8/NANOAODSIM/130X_mcRun3_2023_realistic_v15-v3/2830000/ed05a64a-65dd-4af3-9dab-0cb75df2a118.root",
        "T2_US_MIT: davs://xrootd.cmsaf.mit.edu:1094/store/mc/Run3Summer23NanoAODv12/GluGlutoHHto4B_kl-1p00_kt-1p00_c2-3p00_TuneCP5_13p6TeV_powheg-pythia8/NANOAODSIM/130X_mcRun3_2023_realistic_v15-v3/2830000/ed05a64a-65dd-4af3-9dab-0cb75df2a118.root",
        "T2_IT_Bari: davs://webdav.recas.ba.infn.it:8443/cms/store/mc/Run3Summer23NanoAODv12/GluGlutoHHto4B_kl-1p00_kt-1p00_c2-3p00_TuneCP5_13p6TeV_powheg-pythia8/NANOAODSIM/130X_mcRun3_2023_realistic_v15-v3/2830000/ed05a64a-65dd-4af3-9dab-0cb75df2a118.root",
        "T1_UK_RAL_Disk: davs://rdr.echo.stfc.ac.uk:1094/store/mc/Run3Summer23NanoAODv12/GluGlutoHHto4B_kl-1p00_kt-1p00_c2-3p00_TuneCP5_13p6TeV_powheg-pythia8/NANOAODSIM/130X_mcRun3_2023_realistic_v15-v3/2830000/ed05a64a-65dd-4af3-9dab-0cb75df2a118.root",
        "T2_IT_Pisa: davs://stwebdav.pi.infn.it:8443/cms/store/mc/Run3Summer23NanoAODv12/GluGlutoHHto4B_kl-1p00_kt-1p00_c2-3p00_TuneCP5_13p6TeV_powheg-pythia8/NANOAODSIM/130X_mcRun3_2023_realistic_v15-v3/2830000/ed05a64a-65dd-4af3-9dab-0cb75df2a118.root",
        "T2_US_Purdue: davs://eos.cms.rcac.purdue.edu:9000/store/mc/Run3Summer23NanoAODv12/GluGlutoHHto4B_kl-1p00_kt-1p00_c2-3p00_TuneCP5_13p6TeV_powheg-pythia8/NANOAODSIM/130X_mcRun3_2023_realistic_v15-v3/2830000/ed05a64a-65dd-4af3-9dab-0cb75df2a118.root",
        "T1_RU_JINR_Disk: davs://se-wbdv.jinr-t1.ru:2880/pnfs/jinr-t1.ru/data/cms/store/mc/Run3Summer23NanoAODv12/GluGlutoHHto4B_kl-1p00_kt-1p00_c2-3p00_TuneCP5_13p6TeV_powheg-pythia8/NANOAODSIM/130X_mcRun3_2023_realistic_v15-v3/2830000/ed05a64a-65dd-4af3-9dab-0cb75df2a118.root",
        "T1_US_FNAL_Tape: srm://cmsdcatape.fnal.gov:8443/srm/managerv2?SFN=/11/store/mc/Run3Summer23NanoAODv12/GluGlutoHHto4B_kl-1p00_kt-1p00_c2-3p00_TuneCP5_13p6TeV_powheg-pythia8/NANOAODSIM/130X_mcRun3_2023_realistic_v15-v3/2830000/ed05a64a-65dd-4af3-9dab-0cb75df2a118.root"
    ],
    "cms:/store/mc/Run3Summer23NanoAODv12/GluGlutoHHto4B_kl-1p00_kt-1p00_c2-3p00_TuneCP5_13p6TeV_powheg-pythia8/NANOAODSIM/130X_mcRun3_2023_realistic_v15-v3/2830000/2ab48d03-d789-4e87-a64a-70be4923eea8.root": [
        "T2_CH_CSCS: davs://storage01.lcg.cscs.ch:2880/pnfs/lcg.cscs.ch/cms/trivcat/store/mc/Run3Summer23NanoAODv12/GluGlutoHHto4B_kl-1p00_kt-1p00_c2-3p00_TuneCP5_13p6TeV_powheg-pythia8/NANOAODSIM/130X_mcRun3_2023_realistic_v15-v3/2830000/2ab48d03-d789-4e87-a64a-70be4923eea8.root",
        "T2_US_MIT: davs://xrootd.cmsaf.mit.edu:1094/store/mc/Run3Summer23NanoAODv12/GluGlutoHHto4B_kl-1p00_kt-1p00_c2-3p00_TuneCP5_13p6TeV_powheg-pythia8/NANOAODSIM/130X_mcRun3_2023_realistic_v15-v3/2830000/2ab48d03-d789-4e87-a64a-70be4923eea8.root",
        "T1_UK_RAL_Disk: davs://rdr.echo.stfc.ac.uk:1094/store/mc/Run3Summer23NanoAODv12/GluGlutoHHto4B_kl-1p00_kt-1p00_c2-3p00_TuneCP5_13p6TeV_powheg-pythia8/NANOAODSIM/130X_mcRun3_2023_realistic_v15-v3/2830000/2ab48d03-d789-4e87-a64a-70be4923eea8.root",
        "T2_IT_Pisa: davs://stwebdav.pi.infn.it:8443/cms/store/mc/Run3Summer23NanoAODv12/GluGlutoHHto4B_kl-1p00_kt-1p00_c2-3p00_TuneCP5_13p6TeV_powheg-pythia8/NANOAODSIM/130X_mcRun3_2023_realistic_v15-v3/2830000/2ab48d03-d789-4e87-a64a-70be4923eea8.root",
        "T2_US_Purdue: davs://eos.cms.rcac.purdue.edu:9000/store/mc/Run3Summer23NanoAODv12/GluGlutoHHto4B_kl-1p00_kt-1p00_c2-3p00_TuneCP5_13p6TeV_powheg-pythia8/NANOAODSIM/130X_mcRun3_2023_realistic_v15-v3/2830000/2ab48d03-d789-4e87-a64a-70be4923eea8.root",
        "T1_RU_JINR_Disk: davs://se-wbdv.jinr-t1.ru:2880/pnfs/jinr-t1.ru/data/cms/store/mc/Run3Summer23NanoAODv12/GluGlutoHHto4B_kl-1p00_kt-1p00_c2-3p00_TuneCP5_13p6TeV_powheg-pythia8/NANOAODSIM/130X_mcRun3_2023_realistic_v15-v3/2830000/2ab48d03-d789-4e87-a64a-70be4923eea8.root",
        "T1_US_FNAL_Tape: srm://cmsdcatape.fnal.gov:8443/srm/managerv2?SFN=/11/store/mc/Run3Summer23NanoAODv12/GluGlutoHHto4B_kl-1p00_kt-1p00_c2-3p00_TuneCP5_13p6TeV_powheg-pythia8/NANOAODSIM/130X_mcRun3_2023_realistic_v15-v3/2830000/2ab48d03-d789-4e87-a64a-70be4923eea8.root"
    ],
    "cms:/store/mc/Run3Summer23NanoAODv12/GluGlutoHHto4B_kl-1p00_kt-1p00_c2-3p00_TuneCP5_13p6TeV_powheg-pythia8/NANOAODSIM/130X_mcRun3_2023_realistic_v15-v3/2830000/b7f259a6-1057-437a-8267-ba73df014d24.root": [
        "T2_CH_CSCS: davs://storage01.lcg.cscs.ch:2880/pnfs/lcg.cscs.ch/cms/trivcat/store/mc/Run3Summer23NanoAODv12/GluGlutoHHto4B_kl-1p00_kt-1p00_c2-3p00_TuneCP5_13p6TeV_powheg-pythia8/NANOAODSIM/130X_mcRun3_2023_realistic_v15-v3/2830000/b7f259a6-1057-437a-8267-ba73df014d24.root",
        "T2_US_MIT: davs://xrootd.cmsaf.mit.edu:1094/store/mc/Run3Summer23NanoAODv12/GluGlutoHHto4B_kl-1p00_kt-1p00_c2-3p00_TuneCP5_13p6TeV_powheg-pythia8/NANOAODSIM/130X_mcRun3_2023_realistic_v15-v3/2830000/b7f259a6-1057-437a-8267-ba73df014d24.root",
        "T1_UK_RAL_Disk: davs://rdr.echo.stfc.ac.uk:1094/store/mc/Run3Summer23NanoAODv12/GluGlutoHHto4B_kl-1p00_kt-1p00_c2-3p00_TuneCP5_13p6TeV_powheg-pythia8/NANOAODSIM/130X_mcRun3_2023_realistic_v15-v3/2830000/b7f259a6-1057-437a-8267-ba73df014d24.root",
        "T2_IT_Pisa: davs://stwebdav.pi.infn.it:8443/cms/store/mc/Run3Summer23NanoAODv12/GluGlutoHHto4B_kl-1p00_kt-1p00_c2-3p00_TuneCP5_13p6TeV_powheg-pythia8/NANOAODSIM/130X_mcRun3_2023_realistic_v15-v3/2830000/b7f259a6-1057-437a-8267-ba73df014d24.root",
        "T2_US_Purdue: davs://eos.cms.rcac.purdue.edu:9000/store/mc/Run3Summer23NanoAODv12/GluGlutoHHto4B_kl-1p00_kt-1p00_c2-3p00_TuneCP5_13p6TeV_powheg-pythia8/NANOAODSIM/130X_mcRun3_2023_realistic_v15-v3/2830000/b7f259a6-1057-437a-8267-ba73df014d24.root",
        "T1_RU_JINR_Disk: davs://se-wbdv.jinr-t1.ru:2880/pnfs/jinr-t1.ru/data/cms/store/mc/Run3Summer23NanoAODv12/GluGlutoHHto4B_kl-1p00_kt-1p00_c2-3p00_TuneCP5_13p6TeV_powheg-pythia8/NANOAODSIM/130X_mcRun3_2023_realistic_v15-v3/2830000/b7f259a6-1057-437a-8267-ba73df014d24.root",
        "T1_US_FNAL_Tape: srm://cmsdcatape.fnal.gov:8443/srm/managerv2?SFN=/11/store/mc/Run3Summer23NanoAODv12/GluGlutoHHto4B_kl-1p00_kt-1p00_c2-3p00_TuneCP5_13p6TeV_powheg-pythia8/NANOAODSIM/130X_mcRun3_2023_realistic_v15-v3/2830000/b7f259a6-1057-437a-8267-ba73df014d24.root"
    ],
    "cms:/store/mc/Run3Summer23NanoAODv12/GluGlutoHHto4B_kl-1p00_kt-1p00_c2-3p00_TuneCP5_13p6TeV_powheg-pythia8/NANOAODSIM/130X_mcRun3_2023_realistic_v15-v3/2830000/94e9a38a-3de4-4135-abad-69a89ec8c7ba.root": [
        "T2_CH_CSCS: davs://storage01.lcg.cscs.ch:2880/pnfs/lcg.cscs.ch/cms/trivcat/store/mc/Run3Summer23NanoAODv12/GluGlutoHHto4B_kl-1p00_kt-1p00_c2-3p00_TuneCP5_13p6TeV_powheg-pythia8/NANOAODSIM/130X_mcRun3_2023_realistic_v15-v3/2830000/94e9a38a-3de4-4135-abad-69a89ec8c7ba.root",
        "T2_US_MIT: davs://xrootd.cmsaf.mit.edu:1094/store/mc/Run3Summer23NanoAODv12/GluGlutoHHto4B_kl-1p00_kt-1p00_c2-3p00_TuneCP5_13p6TeV_powheg-pythia8/NANOAODSIM/130X_mcRun3_2023_realistic_v15-v3/2830000/94e9a38a-3de4-4135-abad-69a89ec8c7ba.root",
        "T1_UK_RAL_Disk: davs://rdr.echo.stfc.ac.uk:1094/store/mc/Run3Summer23NanoAODv12/GluGlutoHHto4B_kl-1p00_kt-1p00_c2-3p00_TuneCP5_13p6TeV_powheg-pythia8/NANOAODSIM/130X_mcRun3_2023_realistic_v15-v3/2830000/94e9a38a-3de4-4135-abad-69a89ec8c7ba.root",
        "T2_US_Caltech: davs://k8s-redir-stageout.ultralight.org:1094/store/mc/Run3Summer23NanoAODv12/GluGlutoHHto4B_kl-1p00_kt-1p00_c2-3p00_TuneCP5_13p6TeV_powheg-pythia8/NANOAODSIM/130X_mcRun3_2023_realistic_v15-v3/2830000/94e9a38a-3de4-4135-abad-69a89ec8c7ba.root",
        "T2_IT_Pisa: davs://stwebdav.pi.infn.it:8443/cms/store/mc/Run3Summer23NanoAODv12/GluGlutoHHto4B_kl-1p00_kt-1p00_c2-3p00_TuneCP5_13p6TeV_powheg-pythia8/NANOAODSIM/130X_mcRun3_2023_realistic_v15-v3/2830000/94e9a38a-3de4-4135-abad-69a89ec8c7ba.root",
        "T2_US_Purdue: davs://eos.cms.rcac.purdue.edu:9000/store/mc/Run3Summer23NanoAODv12/GluGlutoHHto4B_kl-1p00_kt-1p00_c2-3p00_TuneCP5_13p6TeV_powheg-pythia8/NANOAODSIM/130X_mcRun3_2023_realistic_v15-v3/2830000/94e9a38a-3de4-4135-abad-69a89ec8c7ba.root",
        "T1_RU_JINR_Disk: davs://se-wbdv.jinr-t1.ru:2880/pnfs/jinr-t1.ru/data/cms/store/mc/Run3Summer23NanoAODv12/GluGlutoHHto4B_kl-1p00_kt-1p00_c2-3p00_TuneCP5_13p6TeV_powheg-pythia8/NANOAODSIM/130X_mcRun3_2023_realistic_v15-v3/2830000/94e9a38a-3de4-4135-abad-69a89ec8c7ba.root",
        "T2_ES_CIEMAT: davs://srm.ciemat.es:2880/pnfs/ciemat.es/data/cms/prod/store/mc/Run3Summer23NanoAODv12/GluGlutoHHto4B_kl-1p00_kt-1p00_c2-3p00_TuneCP5_13p6TeV_powheg-pythia8/NANOAODSIM/130X_mcRun3_2023_realistic_v15-v3/2830000/94e9a38a-3de4-4135-abad-69a89ec8c7ba.root",
        "T1_US_FNAL_Tape: srm://cmsdcatape.fnal.gov:8443/srm/managerv2?SFN=/11/store/mc/Run3Summer23NanoAODv12/GluGlutoHHto4B_kl-1p00_kt-1p00_c2-3p00_TuneCP5_13p6TeV_powheg-pythia8/NANOAODSIM/130X_mcRun3_2023_realistic_v15-v3/2830000/94e9a38a-3de4-4135-abad-69a89ec8c7ba.root"
    ],
    "cms:/store/mc/Run3Summer23NanoAODv12/GluGlutoHHto4B_kl-1p00_kt-1p00_c2-3p00_TuneCP5_13p6TeV_powheg-pythia8/NANOAODSIM/130X_mcRun3_2023_realistic_v15-v3/2830000/5745a1c8-966c-45dd-bda8-600ecc019599.root": [
        "T2_CH_CSCS: davs://storage01.lcg.cscs.ch:2880/pnfs/lcg.cscs.ch/cms/trivcat/store/mc/Run3Summer23NanoAODv12/GluGlutoHHto4B_kl-1p00_kt-1p00_c2-3p00_TuneCP5_13p6TeV_powheg-pythia8/NANOAODSIM/130X_mcRun3_2023_realistic_v15-v3/2830000/5745a1c8-966c-45dd-bda8-600ecc019599.root",
        "T2_US_MIT: davs://xrootd.cmsaf.mit.edu:1094/store/mc/Run3Summer23NanoAODv12/GluGlutoHHto4B_kl-1p00_kt-1p00_c2-3p00_TuneCP5_13p6TeV_powheg-pythia8/NANOAODSIM/130X_mcRun3_2023_realistic_v15-v3/2830000/5745a1c8-966c-45dd-bda8-600ecc019599.root",
        "T2_UA_KIPT: davs://cms-se0.kipt.kharkov.ua:443//dpm/kipt.kharkov.ua/home/cms/store/mc/Run3Summer23NanoAODv12/GluGlutoHHto4B_kl-1p00_kt-1p00_c2-3p00_TuneCP5_13p6TeV_powheg-pythia8/NANOAODSIM/130X_mcRun3_2023_realistic_v15-v3/2830000/5745a1c8-966c-45dd-bda8-600ecc019599.root",
        "T1_UK_RAL_Disk: davs://rdr.echo.stfc.ac.uk:1094/store/mc/Run3Summer23NanoAODv12/GluGlutoHHto4B_kl-1p00_kt-1p00_c2-3p00_TuneCP5_13p6TeV_powheg-pythia8/NANOAODSIM/130X_mcRun3_2023_realistic_v15-v3/2830000/5745a1c8-966c-45dd-bda8-600ecc019599.root",
        "T2_BE_UCL: davs://ingrid-se02.cism.ucl.ac.be:1094/store/mc/Run3Summer23NanoAODv12/GluGlutoHHto4B_kl-1p00_kt-1p00_c2-3p00_TuneCP5_13p6TeV_powheg-pythia8/NANOAODSIM/130X_mcRun3_2023_realistic_v15-v3/2830000/5745a1c8-966c-45dd-bda8-600ecc019599.root",
        "T2_IT_Pisa: davs://stwebdav.pi.infn.it:8443/cms/store/mc/Run3Summer23NanoAODv12/GluGlutoHHto4B_kl-1p00_kt-1p00_c2-3p00_TuneCP5_13p6TeV_powheg-pythia8/NANOAODSIM/130X_mcRun3_2023_realistic_v15-v3/2830000/5745a1c8-966c-45dd-bda8-600ecc019599.root",
        "T2_US_Purdue: davs://eos.cms.rcac.purdue.edu:9000/store/mc/Run3Summer23NanoAODv12/GluGlutoHHto4B_kl-1p00_kt-1p00_c2-3p00_TuneCP5_13p6TeV_powheg-pythia8/NANOAODSIM/130X_mcRun3_2023_realistic_v15-v3/2830000/5745a1c8-966c-45dd-bda8-600ecc019599.root",
        "T1_RU_JINR_Disk: davs://se-wbdv.jinr-t1.ru:2880/pnfs/jinr-t1.ru/data/cms/store/mc/Run3Summer23NanoAODv12/GluGlutoHHto4B_kl-1p00_kt-1p00_c2-3p00_TuneCP5_13p6TeV_powheg-pythia8/NANOAODSIM/130X_mcRun3_2023_realistic_v15-v3/2830000/5745a1c8-966c-45dd-bda8-600ecc019599.root",
        "T1_US_FNAL_Tape: srm://cmsdcatape.fnal.gov:8443/srm/managerv2?SFN=/11/store/mc/Run3Summer23NanoAODv12/GluGlutoHHto4B_kl-1p00_kt-1p00_c2-3p00_TuneCP5_13p6TeV_powheg-pythia8/NANOAODSIM/130X_mcRun3_2023_realistic_v15-v3/2830000/5745a1c8-966c-45dd-bda8-600ecc019599.root"
    ],
    "cms:/store/mc/Run3Summer23NanoAODv12/GluGlutoHHto4B_kl-1p00_kt-1p00_c2-3p00_TuneCP5_13p6TeV_powheg-pythia8/NANOAODSIM/130X_mcRun3_2023_realistic_v15-v3/2830000/fe7730cf-d758-4a47-a400-bcf2825bc198.root": [
        "T2_CH_CSCS: davs://storage01.lcg.cscs.ch:2880/pnfs/lcg.cscs.ch/cms/trivcat/store/mc/Run3Summer23NanoAODv12/GluGlutoHHto4B_kl-1p00_kt-1p00_c2-3p00_TuneCP5_13p6TeV_powheg-pythia8/NANOAODSIM/130X_mcRun3_2023_realistic_v15-v3/2830000/fe7730cf-d758-4a47-a400-bcf2825bc198.root",
        "T2_US_MIT: davs://xrootd.cmsaf.mit.edu:1094/store/mc/Run3Summer23NanoAODv12/GluGlutoHHto4B_kl-1p00_kt-1p00_c2-3p00_TuneCP5_13p6TeV_powheg-pythia8/NANOAODSIM/130X_mcRun3_2023_realistic_v15-v3/2830000/fe7730cf-d758-4a47-a400-bcf2825bc198.root",
        "T1_UK_RAL_Disk: davs://rdr.echo.stfc.ac.uk:1094/store/mc/Run3Summer23NanoAODv12/GluGlutoHHto4B_kl-1p00_kt-1p00_c2-3p00_TuneCP5_13p6TeV_powheg-pythia8/NANOAODSIM/130X_mcRun3_2023_realistic_v15-v3/2830000/fe7730cf-d758-4a47-a400-bcf2825bc198.root",
        "T2_FI_HIP: davs://hip-cms-se.csc.fi:2880/store/mc/Run3Summer23NanoAODv12/GluGlutoHHto4B_kl-1p00_kt-1p00_c2-3p00_TuneCP5_13p6TeV_powheg-pythia8/NANOAODSIM/130X_mcRun3_2023_realistic_v15-v3/2830000/fe7730cf-d758-4a47-a400-bcf2825bc198.root",
        "T2_RU_JINR: davs://lcgsedr08.jinr.ru:2880/pnfs/jinr.ru/data/cms/store/mc/Run3Summer23NanoAODv12/GluGlutoHHto4B_kl-1p00_kt-1p00_c2-3p00_TuneCP5_13p6TeV_powheg-pythia8/NANOAODSIM/130X_mcRun3_2023_realistic_v15-v3/2830000/fe7730cf-d758-4a47-a400-bcf2825bc198.root",
        "T2_IT_Pisa: davs://stwebdav.pi.infn.it:8443/cms/store/mc/Run3Summer23NanoAODv12/GluGlutoHHto4B_kl-1p00_kt-1p00_c2-3p00_TuneCP5_13p6TeV_powheg-pythia8/NANOAODSIM/130X_mcRun3_2023_realistic_v15-v3/2830000/fe7730cf-d758-4a47-a400-bcf2825bc198.root",
        "T2_US_Purdue: davs://eos.cms.rcac.purdue.edu:9000/store/mc/Run3Summer23NanoAODv12/GluGlutoHHto4B_kl-1p00_kt-1p00_c2-3p00_TuneCP5_13p6TeV_powheg-pythia8/NANOAODSIM/130X_mcRun3_2023_realistic_v15-v3/2830000/fe7730cf-d758-4a47-a400-bcf2825bc198.root",
        "T1_RU_JINR_Disk: davs://se-wbdv.jinr-t1.ru:2880/pnfs/jinr-t1.ru/data/cms/store/mc/Run3Summer23NanoAODv12/GluGlutoHHto4B_kl-1p00_kt-1p00_c2-3p00_TuneCP5_13p6TeV_powheg-pythia8/NANOAODSIM/130X_mcRun3_2023_realistic_v15-v3/2830000/fe7730cf-d758-4a47-a400-bcf2825bc198.root",
        "T1_US_FNAL_Tape: srm://cmsdcatape.fnal.gov:8443/srm/managerv2?SFN=/11/store/mc/Run3Summer23NanoAODv12/GluGlutoHHto4B_kl-1p00_kt-1p00_c2-3p00_TuneCP5_13p6TeV_powheg-pythia8/NANOAODSIM/130X_mcRun3_2023_realistic_v15-v3/2830000/fe7730cf-d758-4a47-a400-bcf2825bc198.root"
    ],
    "cms:/store/mc/Run3Summer23NanoAODv12/GluGlutoHHto4B_kl-1p00_kt-1p00_c2-3p00_TuneCP5_13p6TeV_powheg-pythia8/NANOAODSIM/130X_mcRun3_2023_realistic_v15-v3/2830000/deeb49cd-0ea0-4d8c-8c81-de1ccd436f13.root": [
        "T2_CH_CSCS: davs://storage01.lcg.cscs.ch:2880/pnfs/lcg.cscs.ch/cms/trivcat/store/mc/Run3Summer23NanoAODv12/GluGlutoHHto4B_kl-1p00_kt-1p00_c2-3p00_TuneCP5_13p6TeV_powheg-pythia8/NANOAODSIM/130X_mcRun3_2023_realistic_v15-v3/2830000/deeb49cd-0ea0-4d8c-8c81-de1ccd436f13.root",
        "T1_FR_CCIN2P3_Disk: davs://ccdavcms.in2p3.fr:2880/disk/data/store/mc/Run3Summer23NanoAODv12/GluGlutoHHto4B_kl-1p00_kt-1p00_c2-3p00_TuneCP5_13p6TeV_powheg-pythia8/NANOAODSIM/130X_mcRun3_2023_realistic_v15-v3/2830000/deeb49cd-0ea0-4d8c-8c81-de1ccd436f13.root",
        "T2_US_MIT: davs://xrootd.cmsaf.mit.edu:1094/store/mc/Run3Summer23NanoAODv12/GluGlutoHHto4B_kl-1p00_kt-1p00_c2-3p00_TuneCP5_13p6TeV_powheg-pythia8/NANOAODSIM/130X_mcRun3_2023_realistic_v15-v3/2830000/deeb49cd-0ea0-4d8c-8c81-de1ccd436f13.root",
        "T2_TW_NCHC: davs://se01.grid.nchc.org.tw:443//cms/store/mc/Run3Summer23NanoAODv12/GluGlutoHHto4B_kl-1p00_kt-1p00_c2-3p00_TuneCP5_13p6TeV_powheg-pythia8/NANOAODSIM/130X_mcRun3_2023_realistic_v15-v3/2830000/deeb49cd-0ea0-4d8c-8c81-de1ccd436f13.root",
        "T1_UK_RAL_Disk: davs://rdr.echo.stfc.ac.uk:1094/store/mc/Run3Summer23NanoAODv12/GluGlutoHHto4B_kl-1p00_kt-1p00_c2-3p00_TuneCP5_13p6TeV_powheg-pythia8/NANOAODSIM/130X_mcRun3_2023_realistic_v15-v3/2830000/deeb49cd-0ea0-4d8c-8c81-de1ccd436f13.root",
        "T2_IT_Pisa: davs://stwebdav.pi.infn.it:8443/cms/store/mc/Run3Summer23NanoAODv12/GluGlutoHHto4B_kl-1p00_kt-1p00_c2-3p00_TuneCP5_13p6TeV_powheg-pythia8/NANOAODSIM/130X_mcRun3_2023_realistic_v15-v3/2830000/deeb49cd-0ea0-4d8c-8c81-de1ccd436f13.root",
        "T2_US_Purdue: davs://eos.cms.rcac.purdue.edu:9000/store/mc/Run3Summer23NanoAODv12/GluGlutoHHto4B_kl-1p00_kt-1p00_c2-3p00_TuneCP5_13p6TeV_powheg-pythia8/NANOAODSIM/130X_mcRun3_2023_realistic_v15-v3/2830000/deeb49cd-0ea0-4d8c-8c81-de1ccd436f13.root",
        "T1_RU_JINR_Disk: davs://se-wbdv.jinr-t1.ru:2880/pnfs/jinr-t1.ru/data/cms/store/mc/Run3Summer23NanoAODv12/GluGlutoHHto4B_kl-1p00_kt-1p00_c2-3p00_TuneCP5_13p6TeV_powheg-pythia8/NANOAODSIM/130X_mcRun3_2023_realistic_v15-v3/2830000/deeb49cd-0ea0-4d8c-8c81-de1ccd436f13.root",
        "T1_US_FNAL_Tape: srm://cmsdcatape.fnal.gov:8443/srm/managerv2?SFN=/11/store/mc/Run3Summer23NanoAODv12/GluGlutoHHto4B_kl-1p00_kt-1p00_c2-3p00_TuneCP5_13p6TeV_powheg-pythia8/NANOAODSIM/130X_mcRun3_2023_realistic_v15-v3/2830000/deeb49cd-0ea0-4d8c-8c81-de1ccd436f13.root"
    ],
    "cms:/store/mc/Run3Summer23NanoAODv12/GluGlutoHHto4B_kl-1p00_kt-1p00_c2-3p00_TuneCP5_13p6TeV_powheg-pythia8/NANOAODSIM/130X_mcRun3_2023_realistic_v15-v3/2830000/140ca6f9-8d0d-4862-9cd6-bbe47f9ffe92.root": [
        "T2_CH_CSCS: davs://storage01.lcg.cscs.ch:2880/pnfs/lcg.cscs.ch/cms/trivcat/store/mc/Run3Summer23NanoAODv12/GluGlutoHHto4B_kl-1p00_kt-1p00_c2-3p00_TuneCP5_13p6TeV_powheg-pythia8/NANOAODSIM/130X_mcRun3_2023_realistic_v15-v3/2830000/140ca6f9-8d0d-4862-9cd6-bbe47f9ffe92.root",
        "T2_US_MIT: davs://xrootd.cmsaf.mit.edu:1094/store/mc/Run3Summer23NanoAODv12/GluGlutoHHto4B_kl-1p00_kt-1p00_c2-3p00_TuneCP5_13p6TeV_powheg-pythia8/NANOAODSIM/130X_mcRun3_2023_realistic_v15-v3/2830000/140ca6f9-8d0d-4862-9cd6-bbe47f9ffe92.root",
        "T1_UK_RAL_Disk: davs://rdr.echo.stfc.ac.uk:1094/store/mc/Run3Summer23NanoAODv12/GluGlutoHHto4B_kl-1p00_kt-1p00_c2-3p00_TuneCP5_13p6TeV_powheg-pythia8/NANOAODSIM/130X_mcRun3_2023_realistic_v15-v3/2830000/140ca6f9-8d0d-4862-9cd6-bbe47f9ffe92.root",
        "T2_KR_KISTI: davs://cms-t2-se01.sdfarm.kr:2880/store/mc/Run3Summer23NanoAODv12/GluGlutoHHto4B_kl-1p00_kt-1p00_c2-3p00_TuneCP5_13p6TeV_powheg-pythia8/NANOAODSIM/130X_mcRun3_2023_realistic_v15-v3/2830000/140ca6f9-8d0d-4862-9cd6-bbe47f9ffe92.root",
        "T2_BR_SPRACE: davs://osg-se.sprace.org.br:1094/store/mc/Run3Summer23NanoAODv12/GluGlutoHHto4B_kl-1p00_kt-1p00_c2-3p00_TuneCP5_13p6TeV_powheg-pythia8/NANOAODSIM/130X_mcRun3_2023_realistic_v15-v3/2830000/140ca6f9-8d0d-4862-9cd6-bbe47f9ffe92.root",
        "T2_IT_Pisa: davs://stwebdav.pi.infn.it:8443/cms/store/mc/Run3Summer23NanoAODv12/GluGlutoHHto4B_kl-1p00_kt-1p00_c2-3p00_TuneCP5_13p6TeV_powheg-pythia8/NANOAODSIM/130X_mcRun3_2023_realistic_v15-v3/2830000/140ca6f9-8d0d-4862-9cd6-bbe47f9ffe92.root",
        "T2_US_Purdue: davs://eos.cms.rcac.purdue.edu:9000/store/mc/Run3Summer23NanoAODv12/GluGlutoHHto4B_kl-1p00_kt-1p00_c2-3p00_TuneCP5_13p6TeV_powheg-pythia8/NANOAODSIM/130X_mcRun3_2023_realistic_v15-v3/2830000/140ca6f9-8d0d-4862-9cd6-bbe47f9ffe92.root",
        "T1_RU_JINR_Disk: davs://se-wbdv.jinr-t1.ru:2880/pnfs/jinr-t1.ru/data/cms/store/mc/Run3Summer23NanoAODv12/GluGlutoHHto4B_kl-1p00_kt-1p00_c2-3p00_TuneCP5_13p6TeV_powheg-pythia8/NANOAODSIM/130X_mcRun3_2023_realistic_v15-v3/2830000/140ca6f9-8d0d-4862-9cd6-bbe47f9ffe92.root",
        "T1_US_FNAL_Tape: srm://cmsdcatape.fnal.gov:8443/srm/managerv2?SFN=/11/store/mc/Run3Summer23NanoAODv12/GluGlutoHHto4B_kl-1p00_kt-1p00_c2-3p00_TuneCP5_13p6TeV_powheg-pythia8/NANOAODSIM/130X_mcRun3_2023_realistic_v15-v3/2830000/140ca6f9-8d0d-4862-9cd6-bbe47f9ffe92.root"
    ],
    "cms:/store/mc/Run3Summer23NanoAODv12/GluGlutoHHto4B_kl-1p00_kt-1p00_c2-3p00_TuneCP5_13p6TeV_powheg-pythia8/NANOAODSIM/130X_mcRun3_2023_realistic_v15-v3/2830000/f37692ba-df36-4f18-a345-81780c706f6c.root": [
        "T2_CH_CSCS: davs://storage01.lcg.cscs.ch:2880/pnfs/lcg.cscs.ch/cms/trivcat/store/mc/Run3Summer23NanoAODv12/GluGlutoHHto4B_kl-1p00_kt-1p00_c2-3p00_TuneCP5_13p6TeV_powheg-pythia8/NANOAODSIM/130X_mcRun3_2023_realistic_v15-v3/2830000/f37692ba-df36-4f18-a345-81780c706f6c.root",
        "T2_US_MIT: davs://xrootd.cmsaf.mit.edu:1094/store/mc/Run3Summer23NanoAODv12/GluGlutoHHto4B_kl-1p00_kt-1p00_c2-3p00_TuneCP5_13p6TeV_powheg-pythia8/NANOAODSIM/130X_mcRun3_2023_realistic_v15-v3/2830000/f37692ba-df36-4f18-a345-81780c706f6c.root",
        "T1_UK_RAL_Disk: davs://rdr.echo.stfc.ac.uk:1094/store/mc/Run3Summer23NanoAODv12/GluGlutoHHto4B_kl-1p00_kt-1p00_c2-3p00_TuneCP5_13p6TeV_powheg-pythia8/NANOAODSIM/130X_mcRun3_2023_realistic_v15-v3/2830000/f37692ba-df36-4f18-a345-81780c706f6c.root",
        "T2_IT_Pisa: davs://stwebdav.pi.infn.it:8443/cms/store/mc/Run3Summer23NanoAODv12/GluGlutoHHto4B_kl-1p00_kt-1p00_c2-3p00_TuneCP5_13p6TeV_powheg-pythia8/NANOAODSIM/130X_mcRun3_2023_realistic_v15-v3/2830000/f37692ba-df36-4f18-a345-81780c706f6c.root",
        "T2_US_Purdue: davs://eos.cms.rcac.purdue.edu:9000/store/mc/Run3Summer23NanoAODv12/GluGlutoHHto4B_kl-1p00_kt-1p00_c2-3p00_TuneCP5_13p6TeV_powheg-pythia8/NANOAODSIM/130X_mcRun3_2023_realistic_v15-v3/2830000/f37692ba-df36-4f18-a345-81780c706f6c.root",
        "T1_RU_JINR_Disk: davs://se-wbdv.jinr-t1.ru:2880/pnfs/jinr-t1.ru/data/cms/store/mc/Run3Summer23NanoAODv12/GluGlutoHHto4B_kl-1p00_kt-1p00_c2-3p00_TuneCP5_13p6TeV_powheg-pythia8/NANOAODSIM/130X_mcRun3_2023_realistic_v15-v3/2830000/f37692ba-df36-4f18-a345-81780c706f6c.root",
        "T1_US_FNAL_Tape: srm://cmsdcatape.fnal.gov:8443/srm/managerv2?SFN=/11/store/mc/Run3Summer23NanoAODv12/GluGlutoHHto4B_kl-1p00_kt-1p00_c2-3p00_TuneCP5_13p6TeV_powheg-pythia8/NANOAODSIM/130X_mcRun3_2023_realistic_v15-v3/2830000/f37692ba-df36-4f18-a345-81780c706f6c.root",
        "T2_DE_RWTH: davs://grid-webdav.physik.rwth-aachen.de:2889/store/mc/Run3Summer23NanoAODv12/GluGlutoHHto4B_kl-1p00_kt-1p00_c2-3p00_TuneCP5_13p6TeV_powheg-pythia8/NANOAODSIM/130X_mcRun3_2023_realistic_v15-v3/2830000/f37692ba-df36-4f18-a345-81780c706f6c.root",
        "T2_IN_TIFR: davs://se01.indiacms.res.in:443/dpm/indiacms.res.in/home/cms/store/mc/Run3Summer23NanoAODv12/GluGlutoHHto4B_kl-1p00_kt-1p00_c2-3p00_TuneCP5_13p6TeV_powheg-pythia8/NANOAODSIM/130X_mcRun3_2023_realistic_v15-v3/2830000/f37692ba-df36-4f18-a345-81780c706f6c.root"
    ],
    "cms:/store/mc/Run3Summer23NanoAODv12/GluGlutoHHto4B_kl-1p00_kt-1p00_c2-3p00_TuneCP5_13p6TeV_powheg-pythia8/NANOAODSIM/130X_mcRun3_2023_realistic_v15-v3/2830000/598584cb-d5a2-4944-ab15-361b3385be3b.root": [
        "T2_CH_CSCS: davs://storage01.lcg.cscs.ch:2880/pnfs/lcg.cscs.ch/cms/trivcat/store/mc/Run3Summer23NanoAODv12/GluGlutoHHto4B_kl-1p00_kt-1p00_c2-3p00_TuneCP5_13p6TeV_powheg-pythia8/NANOAODSIM/130X_mcRun3_2023_realistic_v15-v3/2830000/598584cb-d5a2-4944-ab15-361b3385be3b.root",
        "T2_US_MIT: davs://xrootd.cmsaf.mit.edu:1094/store/mc/Run3Summer23NanoAODv12/GluGlutoHHto4B_kl-1p00_kt-1p00_c2-3p00_TuneCP5_13p6TeV_powheg-pythia8/NANOAODSIM/130X_mcRun3_2023_realistic_v15-v3/2830000/598584cb-d5a2-4944-ab15-361b3385be3b.root",
        "T1_UK_RAL_Disk: davs://rdr.echo.stfc.ac.uk:1094/store/mc/Run3Summer23NanoAODv12/GluGlutoHHto4B_kl-1p00_kt-1p00_c2-3p00_TuneCP5_13p6TeV_powheg-pythia8/NANOAODSIM/130X_mcRun3_2023_realistic_v15-v3/2830000/598584cb-d5a2-4944-ab15-361b3385be3b.root",
        "T2_IT_Pisa: davs://stwebdav.pi.infn.it:8443/cms/store/mc/Run3Summer23NanoAODv12/GluGlutoHHto4B_kl-1p00_kt-1p00_c2-3p00_TuneCP5_13p6TeV_powheg-pythia8/NANOAODSIM/130X_mcRun3_2023_realistic_v15-v3/2830000/598584cb-d5a2-4944-ab15-361b3385be3b.root",
        "T2_US_Purdue: davs://eos.cms.rcac.purdue.edu:9000/store/mc/Run3Summer23NanoAODv12/GluGlutoHHto4B_kl-1p00_kt-1p00_c2-3p00_TuneCP5_13p6TeV_powheg-pythia8/NANOAODSIM/130X_mcRun3_2023_realistic_v15-v3/2830000/598584cb-d5a2-4944-ab15-361b3385be3b.root",
        "T1_RU_JINR_Disk: davs://se-wbdv.jinr-t1.ru:2880/pnfs/jinr-t1.ru/data/cms/store/mc/Run3Summer23NanoAODv12/GluGlutoHHto4B_kl-1p00_kt-1p00_c2-3p00_TuneCP5_13p6TeV_powheg-pythia8/NANOAODSIM/130X_mcRun3_2023_realistic_v15-v3/2830000/598584cb-d5a2-4944-ab15-361b3385be3b.root",
        "T2_UK_London_Brunel: davs://xrootdgw.brunel.ac.uk:1094/store/mc/Run3Summer23NanoAODv12/GluGlutoHHto4B_kl-1p00_kt-1p00_c2-3p00_TuneCP5_13p6TeV_powheg-pythia8/NANOAODSIM/130X_mcRun3_2023_realistic_v15-v3/2830000/598584cb-d5a2-4944-ab15-361b3385be3b.root",
        "T1_US_FNAL_Tape: srm://cmsdcatape.fnal.gov:8443/srm/managerv2?SFN=/11/store/mc/Run3Summer23NanoAODv12/GluGlutoHHto4B_kl-1p00_kt-1p00_c2-3p00_TuneCP5_13p6TeV_powheg-pythia8/NANOAODSIM/130X_mcRun3_2023_realistic_v15-v3/2830000/598584cb-d5a2-4944-ab15-361b3385be3b.root"
    ],
    "cms:/store/mc/Run3Summer23NanoAODv12/GluGlutoHHto4B_kl-1p00_kt-1p00_c2-3p00_TuneCP5_13p6TeV_powheg-pythia8/NANOAODSIM/130X_mcRun3_2023_realistic_v15-v3/2830000/293ff822-f308-402b-b3ed-a4b401cef4d7.root": [
        "T2_CH_CSCS: davs://storage01.lcg.cscs.ch:2880/pnfs/lcg.cscs.ch/cms/trivcat/store/mc/Run3Summer23NanoAODv12/GluGlutoHHto4B_kl-1p00_kt-1p00_c2-3p00_TuneCP5_13p6TeV_powheg-pythia8/NANOAODSIM/130X_mcRun3_2023_realistic_v15-v3/2830000/293ff822-f308-402b-b3ed-a4b401cef4d7.root",
        "T2_US_MIT: davs://xrootd.cmsaf.mit.edu:1094/store/mc/Run3Summer23NanoAODv12/GluGlutoHHto4B_kl-1p00_kt-1p00_c2-3p00_TuneCP5_13p6TeV_powheg-pythia8/NANOAODSIM/130X_mcRun3_2023_realistic_v15-v3/2830000/293ff822-f308-402b-b3ed-a4b401cef4d7.root",
        "T2_FR_IPHC: davs://sbgdcache.in2p3.fr:443/cms/phedex/store/mc/Run3Summer23NanoAODv12/GluGlutoHHto4B_kl-1p00_kt-1p00_c2-3p00_TuneCP5_13p6TeV_powheg-pythia8/NANOAODSIM/130X_mcRun3_2023_realistic_v15-v3/2830000/293ff822-f308-402b-b3ed-a4b401cef4d7.root",
        "T2_US_UCSD: davs://redirector.t2.ucsd.edu:1095/store/mc/Run3Summer23NanoAODv12/GluGlutoHHto4B_kl-1p00_kt-1p00_c2-3p00_TuneCP5_13p6TeV_powheg-pythia8/NANOAODSIM/130X_mcRun3_2023_realistic_v15-v3/2830000/293ff822-f308-402b-b3ed-a4b401cef4d7.root",
        "T1_UK_RAL_Disk: davs://rdr.echo.stfc.ac.uk:1094/store/mc/Run3Summer23NanoAODv12/GluGlutoHHto4B_kl-1p00_kt-1p00_c2-3p00_TuneCP5_13p6TeV_powheg-pythia8/NANOAODSIM/130X_mcRun3_2023_realistic_v15-v3/2830000/293ff822-f308-402b-b3ed-a4b401cef4d7.root",
        "T2_IT_Pisa: davs://stwebdav.pi.infn.it:8443/cms/store/mc/Run3Summer23NanoAODv12/GluGlutoHHto4B_kl-1p00_kt-1p00_c2-3p00_TuneCP5_13p6TeV_powheg-pythia8/NANOAODSIM/130X_mcRun3_2023_realistic_v15-v3/2830000/293ff822-f308-402b-b3ed-a4b401cef4d7.root",
        "T2_US_Purdue: davs://eos.cms.rcac.purdue.edu:9000/store/mc/Run3Summer23NanoAODv12/GluGlutoHHto4B_kl-1p00_kt-1p00_c2-3p00_TuneCP5_13p6TeV_powheg-pythia8/NANOAODSIM/130X_mcRun3_2023_realistic_v15-v3/2830000/293ff822-f308-402b-b3ed-a4b401cef4d7.root",
        "T1_RU_JINR_Disk: davs://se-wbdv.jinr-t1.ru:2880/pnfs/jinr-t1.ru/data/cms/store/mc/Run3Summer23NanoAODv12/GluGlutoHHto4B_kl-1p00_kt-1p00_c2-3p00_TuneCP5_13p6TeV_powheg-pythia8/NANOAODSIM/130X_mcRun3_2023_realistic_v15-v3/2830000/293ff822-f308-402b-b3ed-a4b401cef4d7.root",
        "T1_US_FNAL_Tape: srm://cmsdcatape.fnal.gov:8443/srm/managerv2?SFN=/11/store/mc/Run3Summer23NanoAODv12/GluGlutoHHto4B_kl-1p00_kt-1p00_c2-3p00_TuneCP5_13p6TeV_powheg-pythia8/NANOAODSIM/130X_mcRun3_2023_realistic_v15-v3/2830000/293ff822-f308-402b-b3ed-a4b401cef4d7.root"
    ],
    "cms:/store/mc/Run3Summer23NanoAODv12/GluGlutoHHto4B_kl-1p00_kt-1p00_c2-3p00_TuneCP5_13p6TeV_powheg-pythia8/NANOAODSIM/130X_mcRun3_2023_realistic_v15-v3/2830000/f608c848-d650-4c46-bf07-4a576b56d52c.root": [
        "T2_CH_CSCS: davs://storage01.lcg.cscs.ch:2880/pnfs/lcg.cscs.ch/cms/trivcat/store/mc/Run3Summer23NanoAODv12/GluGlutoHHto4B_kl-1p00_kt-1p00_c2-3p00_TuneCP5_13p6TeV_powheg-pythia8/NANOAODSIM/130X_mcRun3_2023_realistic_v15-v3/2830000/f608c848-d650-4c46-bf07-4a576b56d52c.root",
        "T2_UK_SGrid_RALPP: davs://mover.pp.rl.ac.uk:2880/pnfs/pp.rl.ac.uk/data/cms/store/mc/Run3Summer23NanoAODv12/GluGlutoHHto4B_kl-1p00_kt-1p00_c2-3p00_TuneCP5_13p6TeV_powheg-pythia8/NANOAODSIM/130X_mcRun3_2023_realistic_v15-v3/2830000/f608c848-d650-4c46-bf07-4a576b56d52c.root",
        "T2_US_MIT: davs://xrootd.cmsaf.mit.edu:1094/store/mc/Run3Summer23NanoAODv12/GluGlutoHHto4B_kl-1p00_kt-1p00_c2-3p00_TuneCP5_13p6TeV_powheg-pythia8/NANOAODSIM/130X_mcRun3_2023_realistic_v15-v3/2830000/f608c848-d650-4c46-bf07-4a576b56d52c.root",
        "T2_IT_Bari: davs://webdav.recas.ba.infn.it:8443/cms/store/mc/Run3Summer23NanoAODv12/GluGlutoHHto4B_kl-1p00_kt-1p00_c2-3p00_TuneCP5_13p6TeV_powheg-pythia8/NANOAODSIM/130X_mcRun3_2023_realistic_v15-v3/2830000/f608c848-d650-4c46-bf07-4a576b56d52c.root",
        "T1_UK_RAL_Disk: davs://rdr.echo.stfc.ac.uk:1094/store/mc/Run3Summer23NanoAODv12/GluGlutoHHto4B_kl-1p00_kt-1p00_c2-3p00_TuneCP5_13p6TeV_powheg-pythia8/NANOAODSIM/130X_mcRun3_2023_realistic_v15-v3/2830000/f608c848-d650-4c46-bf07-4a576b56d52c.root",
        "T2_IT_Pisa: davs://stwebdav.pi.infn.it:8443/cms/store/mc/Run3Summer23NanoAODv12/GluGlutoHHto4B_kl-1p00_kt-1p00_c2-3p00_TuneCP5_13p6TeV_powheg-pythia8/NANOAODSIM/130X_mcRun3_2023_realistic_v15-v3/2830000/f608c848-d650-4c46-bf07-4a576b56d52c.root",
        "T2_US_Purdue: davs://eos.cms.rcac.purdue.edu:9000/store/mc/Run3Summer23NanoAODv12/GluGlutoHHto4B_kl-1p00_kt-1p00_c2-3p00_TuneCP5_13p6TeV_powheg-pythia8/NANOAODSIM/130X_mcRun3_2023_realistic_v15-v3/2830000/f608c848-d650-4c46-bf07-4a576b56d52c.root",
        "T1_RU_JINR_Disk: davs://se-wbdv.jinr-t1.ru:2880/pnfs/jinr-t1.ru/data/cms/store/mc/Run3Summer23NanoAODv12/GluGlutoHHto4B_kl-1p00_kt-1p00_c2-3p00_TuneCP5_13p6TeV_powheg-pythia8/NANOAODSIM/130X_mcRun3_2023_realistic_v15-v3/2830000/f608c848-d650-4c46-bf07-4a576b56d52c.root",
        "T1_US_FNAL_Tape: srm://cmsdcatape.fnal.gov:8443/srm/managerv2?SFN=/11/store/mc/Run3Summer23NanoAODv12/GluGlutoHHto4B_kl-1p00_kt-1p00_c2-3p00_TuneCP5_13p6TeV_powheg-pythia8/NANOAODSIM/130X_mcRun3_2023_realistic_v15-v3/2830000/f608c848-d650-4c46-bf07-4a576b56d52c.root"
    ],
    "cms:/store/mc/Run3Summer23NanoAODv12/GluGlutoHHto4B_kl-1p00_kt-1p00_c2-3p00_TuneCP5_13p6TeV_powheg-pythia8/NANOAODSIM/130X_mcRun3_2023_realistic_v15-v3/2830000/8f13d284-e265-4a33-aedd-013c0a1af12c.root": [
        "T2_CH_CSCS: davs://storage01.lcg.cscs.ch:2880/pnfs/lcg.cscs.ch/cms/trivcat/store/mc/Run3Summer23NanoAODv12/GluGlutoHHto4B_kl-1p00_kt-1p00_c2-3p00_TuneCP5_13p6TeV_powheg-pythia8/NANOAODSIM/130X_mcRun3_2023_realistic_v15-v3/2830000/8f13d284-e265-4a33-aedd-013c0a1af12c.root",
        "T1_FR_CCIN2P3_Disk: davs://ccdavcms.in2p3.fr:2880/disk/data/store/mc/Run3Summer23NanoAODv12/GluGlutoHHto4B_kl-1p00_kt-1p00_c2-3p00_TuneCP5_13p6TeV_powheg-pythia8/NANOAODSIM/130X_mcRun3_2023_realistic_v15-v3/2830000/8f13d284-e265-4a33-aedd-013c0a1af12c.root",
        "T2_US_MIT: davs://xrootd.cmsaf.mit.edu:1094/store/mc/Run3Summer23NanoAODv12/GluGlutoHHto4B_kl-1p00_kt-1p00_c2-3p00_TuneCP5_13p6TeV_powheg-pythia8/NANOAODSIM/130X_mcRun3_2023_realistic_v15-v3/2830000/8f13d284-e265-4a33-aedd-013c0a1af12c.root",
        "T2_US_Vanderbilt: davs://xrootd-vanderbilt.sites.opensciencegrid.org:1094/store/mc/Run3Summer23NanoAODv12/GluGlutoHHto4B_kl-1p00_kt-1p00_c2-3p00_TuneCP5_13p6TeV_powheg-pythia8/NANOAODSIM/130X_mcRun3_2023_realistic_v15-v3/2830000/8f13d284-e265-4a33-aedd-013c0a1af12c.root",
        "T1_UK_RAL_Disk: davs://rdr.echo.stfc.ac.uk:1094/store/mc/Run3Summer23NanoAODv12/GluGlutoHHto4B_kl-1p00_kt-1p00_c2-3p00_TuneCP5_13p6TeV_powheg-pythia8/NANOAODSIM/130X_mcRun3_2023_realistic_v15-v3/2830000/8f13d284-e265-4a33-aedd-013c0a1af12c.root",
        "T2_IT_Pisa: davs://stwebdav.pi.infn.it:8443/cms/store/mc/Run3Summer23NanoAODv12/GluGlutoHHto4B_kl-1p00_kt-1p00_c2-3p00_TuneCP5_13p6TeV_powheg-pythia8/NANOAODSIM/130X_mcRun3_2023_realistic_v15-v3/2830000/8f13d284-e265-4a33-aedd-013c0a1af12c.root",
        "T2_US_Purdue: davs://eos.cms.rcac.purdue.edu:9000/store/mc/Run3Summer23NanoAODv12/GluGlutoHHto4B_kl-1p00_kt-1p00_c2-3p00_TuneCP5_13p6TeV_powheg-pythia8/NANOAODSIM/130X_mcRun3_2023_realistic_v15-v3/2830000/8f13d284-e265-4a33-aedd-013c0a1af12c.root",
        "T1_RU_JINR_Disk: davs://se-wbdv.jinr-t1.ru:2880/pnfs/jinr-t1.ru/data/cms/store/mc/Run3Summer23NanoAODv12/GluGlutoHHto4B_kl-1p00_kt-1p00_c2-3p00_TuneCP5_13p6TeV_powheg-pythia8/NANOAODSIM/130X_mcRun3_2023_realistic_v15-v3/2830000/8f13d284-e265-4a33-aedd-013c0a1af12c.root",
        "T1_US_FNAL_Tape: srm://cmsdcatape.fnal.gov:8443/srm/managerv2?SFN=/11/store/mc/Run3Summer23NanoAODv12/GluGlutoHHto4B_kl-1p00_kt-1p00_c2-3p00_TuneCP5_13p6TeV_powheg-pythia8/NANOAODSIM/130X_mcRun3_2023_realistic_v15-v3/2830000/8f13d284-e265-4a33-aedd-013c0a1af12c.root"
    ],
    "cms:/store/mc/Run3Summer23NanoAODv12/GluGlutoHHto4B_kl-1p00_kt-1p00_c2-3p00_TuneCP5_13p6TeV_powheg-pythia8/NANOAODSIM/130X_mcRun3_2023_realistic_v15-v3/2830000/56983efa-997f-4bb8-9309-f91c53ab08ff.root": [
        "T2_DE_DESY: davs://dcache-cms-webdav-wan.desy.de:2880/pnfs/desy.de/cms/tier2/store/mc/Run3Summer23NanoAODv12/GluGlutoHHto4B_kl-1p00_kt-1p00_c2-3p00_TuneCP5_13p6TeV_powheg-pythia8/NANOAODSIM/130X_mcRun3_2023_realistic_v15-v3/2830000/56983efa-997f-4bb8-9309-f91c53ab08ff.root",
        "T2_CH_CSCS: davs://storage01.lcg.cscs.ch:2880/pnfs/lcg.cscs.ch/cms/trivcat/store/mc/Run3Summer23NanoAODv12/GluGlutoHHto4B_kl-1p00_kt-1p00_c2-3p00_TuneCP5_13p6TeV_powheg-pythia8/NANOAODSIM/130X_mcRun3_2023_realistic_v15-v3/2830000/56983efa-997f-4bb8-9309-f91c53ab08ff.root",
        "T2_US_MIT: davs://xrootd.cmsaf.mit.edu:1094/store/mc/Run3Summer23NanoAODv12/GluGlutoHHto4B_kl-1p00_kt-1p00_c2-3p00_TuneCP5_13p6TeV_powheg-pythia8/NANOAODSIM/130X_mcRun3_2023_realistic_v15-v3/2830000/56983efa-997f-4bb8-9309-f91c53ab08ff.root",
        "T1_UK_RAL_Disk: davs://rdr.echo.stfc.ac.uk:1094/store/mc/Run3Summer23NanoAODv12/GluGlutoHHto4B_kl-1p00_kt-1p00_c2-3p00_TuneCP5_13p6TeV_powheg-pythia8/NANOAODSIM/130X_mcRun3_2023_realistic_v15-v3/2830000/56983efa-997f-4bb8-9309-f91c53ab08ff.root",
        "T2_US_Wisconsin: davs://cmsxrootd.hep.wisc.edu:1094/store/mc/Run3Summer23NanoAODv12/GluGlutoHHto4B_kl-1p00_kt-1p00_c2-3p00_TuneCP5_13p6TeV_powheg-pythia8/NANOAODSIM/130X_mcRun3_2023_realistic_v15-v3/2830000/56983efa-997f-4bb8-9309-f91c53ab08ff.root",
        "T2_IT_Pisa: davs://stwebdav.pi.infn.it:8443/cms/store/mc/Run3Summer23NanoAODv12/GluGlutoHHto4B_kl-1p00_kt-1p00_c2-3p00_TuneCP5_13p6TeV_powheg-pythia8/NANOAODSIM/130X_mcRun3_2023_realistic_v15-v3/2830000/56983efa-997f-4bb8-9309-f91c53ab08ff.root",
        "T2_US_Purdue: davs://eos.cms.rcac.purdue.edu:9000/store/mc/Run3Summer23NanoAODv12/GluGlutoHHto4B_kl-1p00_kt-1p00_c2-3p00_TuneCP5_13p6TeV_powheg-pythia8/NANOAODSIM/130X_mcRun3_2023_realistic_v15-v3/2830000/56983efa-997f-4bb8-9309-f91c53ab08ff.root",
        "T1_RU_JINR_Disk: davs://se-wbdv.jinr-t1.ru:2880/pnfs/jinr-t1.ru/data/cms/store/mc/Run3Summer23NanoAODv12/GluGlutoHHto4B_kl-1p00_kt-1p00_c2-3p00_TuneCP5_13p6TeV_powheg-pythia8/NANOAODSIM/130X_mcRun3_2023_realistic_v15-v3/2830000/56983efa-997f-4bb8-9309-f91c53ab08ff.root",
        "T1_US_FNAL_Tape: srm://cmsdcatape.fnal.gov:8443/srm/managerv2?SFN=/11/store/mc/Run3Summer23NanoAODv12/GluGlutoHHto4B_kl-1p00_kt-1p00_c2-3p00_TuneCP5_13p6TeV_powheg-pythia8/NANOAODSIM/130X_mcRun3_2023_realistic_v15-v3/2830000/56983efa-997f-4bb8-9309-f91c53ab08ff.root"
    ],
    "cms:/store/mc/Run3Summer23NanoAODv12/GluGlutoHHto4B_kl-1p00_kt-1p00_c2-3p00_TuneCP5_13p6TeV_powheg-pythia8/NANOAODSIM/130X_mcRun3_2023_realistic_v15-v3/2830000/4cfe5735-69ca-4a8b-867e-bccc39bd6d4c.root": [
        "T2_CH_CSCS: davs://storage01.lcg.cscs.ch:2880/pnfs/lcg.cscs.ch/cms/trivcat/store/mc/Run3Summer23NanoAODv12/GluGlutoHHto4B_kl-1p00_kt-1p00_c2-3p00_TuneCP5_13p6TeV_powheg-pythia8/NANOAODSIM/130X_mcRun3_2023_realistic_v15-v3/2830000/4cfe5735-69ca-4a8b-867e-bccc39bd6d4c.root",
        "T1_DE_KIT_Disk: davs://cmsdcache-kit-disk.gridka.de:2880/pnfs/gridka.de/cms/disk-only/store/mc/Run3Summer23NanoAODv12/GluGlutoHHto4B_kl-1p00_kt-1p00_c2-3p00_TuneCP5_13p6TeV_powheg-pythia8/NANOAODSIM/130X_mcRun3_2023_realistic_v15-v3/2830000/4cfe5735-69ca-4a8b-867e-bccc39bd6d4c.root",
        "T2_US_MIT: davs://xrootd.cmsaf.mit.edu:1094/store/mc/Run3Summer23NanoAODv12/GluGlutoHHto4B_kl-1p00_kt-1p00_c2-3p00_TuneCP5_13p6TeV_powheg-pythia8/NANOAODSIM/130X_mcRun3_2023_realistic_v15-v3/2830000/4cfe5735-69ca-4a8b-867e-bccc39bd6d4c.root",
        "T2_FR_IPHC: davs://sbgdcache.in2p3.fr:443/cms/phedex/store/mc/Run3Summer23NanoAODv12/GluGlutoHHto4B_kl-1p00_kt-1p00_c2-3p00_TuneCP5_13p6TeV_powheg-pythia8/NANOAODSIM/130X_mcRun3_2023_realistic_v15-v3/2830000/4cfe5735-69ca-4a8b-867e-bccc39bd6d4c.root",
        "T1_UK_RAL_Disk: davs://rdr.echo.stfc.ac.uk:1094/store/mc/Run3Summer23NanoAODv12/GluGlutoHHto4B_kl-1p00_kt-1p00_c2-3p00_TuneCP5_13p6TeV_powheg-pythia8/NANOAODSIM/130X_mcRun3_2023_realistic_v15-v3/2830000/4cfe5735-69ca-4a8b-867e-bccc39bd6d4c.root",
        "T2_IT_Pisa: davs://stwebdav.pi.infn.it:8443/cms/store/mc/Run3Summer23NanoAODv12/GluGlutoHHto4B_kl-1p00_kt-1p00_c2-3p00_TuneCP5_13p6TeV_powheg-pythia8/NANOAODSIM/130X_mcRun3_2023_realistic_v15-v3/2830000/4cfe5735-69ca-4a8b-867e-bccc39bd6d4c.root",
        "T2_US_Purdue: davs://eos.cms.rcac.purdue.edu:9000/store/mc/Run3Summer23NanoAODv12/GluGlutoHHto4B_kl-1p00_kt-1p00_c2-3p00_TuneCP5_13p6TeV_powheg-pythia8/NANOAODSIM/130X_mcRun3_2023_realistic_v15-v3/2830000/4cfe5735-69ca-4a8b-867e-bccc39bd6d4c.root",
        "T1_RU_JINR_Disk: davs://se-wbdv.jinr-t1.ru:2880/pnfs/jinr-t1.ru/data/cms/store/mc/Run3Summer23NanoAODv12/GluGlutoHHto4B_kl-1p00_kt-1p00_c2-3p00_TuneCP5_13p6TeV_powheg-pythia8/NANOAODSIM/130X_mcRun3_2023_realistic_v15-v3/2830000/4cfe5735-69ca-4a8b-867e-bccc39bd6d4c.root",
        "T1_US_FNAL_Tape: srm://cmsdcatape.fnal.gov:8443/srm/managerv2?SFN=/11/store/mc/Run3Summer23NanoAODv12/GluGlutoHHto4B_kl-1p00_kt-1p00_c2-3p00_TuneCP5_13p6TeV_powheg-pythia8/NANOAODSIM/130X_mcRun3_2023_realistic_v15-v3/2830000/4cfe5735-69ca-4a8b-867e-bccc39bd6d4c.root"
    ],
    "cms:/store/mc/Run3Summer23NanoAODv12/GluGlutoHHto4B_kl-1p00_kt-1p00_c2-3p00_TuneCP5_13p6TeV_powheg-pythia8/NANOAODSIM/130X_mcRun3_2023_realistic_v15-v3/2830000/4716d106-a0d4-49dc-a60d-007bc9fb72a4.root": [
        "T2_CH_CSCS: davs://storage01.lcg.cscs.ch:2880/pnfs/lcg.cscs.ch/cms/trivcat/store/mc/Run3Summer23NanoAODv12/GluGlutoHHto4B_kl-1p00_kt-1p00_c2-3p00_TuneCP5_13p6TeV_powheg-pythia8/NANOAODSIM/130X_mcRun3_2023_realistic_v15-v3/2830000/4716d106-a0d4-49dc-a60d-007bc9fb72a4.root",
        "T2_US_MIT: davs://xrootd.cmsaf.mit.edu:1094/store/mc/Run3Summer23NanoAODv12/GluGlutoHHto4B_kl-1p00_kt-1p00_c2-3p00_TuneCP5_13p6TeV_powheg-pythia8/NANOAODSIM/130X_mcRun3_2023_realistic_v15-v3/2830000/4716d106-a0d4-49dc-a60d-007bc9fb72a4.root",
        "T2_IT_Bari: davs://webdav.recas.ba.infn.it:8443/cms/store/mc/Run3Summer23NanoAODv12/GluGlutoHHto4B_kl-1p00_kt-1p00_c2-3p00_TuneCP5_13p6TeV_powheg-pythia8/NANOAODSIM/130X_mcRun3_2023_realistic_v15-v3/2830000/4716d106-a0d4-49dc-a60d-007bc9fb72a4.root",
        "T1_UK_RAL_Disk: davs://rdr.echo.stfc.ac.uk:1094/store/mc/Run3Summer23NanoAODv12/GluGlutoHHto4B_kl-1p00_kt-1p00_c2-3p00_TuneCP5_13p6TeV_powheg-pythia8/NANOAODSIM/130X_mcRun3_2023_realistic_v15-v3/2830000/4716d106-a0d4-49dc-a60d-007bc9fb72a4.root",
        "T2_IT_Pisa: davs://stwebdav.pi.infn.it:8443/cms/store/mc/Run3Summer23NanoAODv12/GluGlutoHHto4B_kl-1p00_kt-1p00_c2-3p00_TuneCP5_13p6TeV_powheg-pythia8/NANOAODSIM/130X_mcRun3_2023_realistic_v15-v3/2830000/4716d106-a0d4-49dc-a60d-007bc9fb72a4.root",
        "T2_US_Purdue: davs://eos.cms.rcac.purdue.edu:9000/store/mc/Run3Summer23NanoAODv12/GluGlutoHHto4B_kl-1p00_kt-1p00_c2-3p00_TuneCP5_13p6TeV_powheg-pythia8/NANOAODSIM/130X_mcRun3_2023_realistic_v15-v3/2830000/4716d106-a0d4-49dc-a60d-007bc9fb72a4.root",
        "T1_RU_JINR_Disk: davs://se-wbdv.jinr-t1.ru:2880/pnfs/jinr-t1.ru/data/cms/store/mc/Run3Summer23NanoAODv12/GluGlutoHHto4B_kl-1p00_kt-1p00_c2-3p00_TuneCP5_13p6TeV_powheg-pythia8/NANOAODSIM/130X_mcRun3_2023_realistic_v15-v3/2830000/4716d106-a0d4-49dc-a60d-007bc9fb72a4.root",
        "T2_UK_London_IC: davs://gfe02.grid.hep.ph.ic.ac.uk:2880/pnfs/hep.ph.ic.ac.uk/data/cms/store/mc/Run3Summer23NanoAODv12/GluGlutoHHto4B_kl-1p00_kt-1p00_c2-3p00_TuneCP5_13p6TeV_powheg-pythia8/NANOAODSIM/130X_mcRun3_2023_realistic_v15-v3/2830000/4716d106-a0d4-49dc-a60d-007bc9fb72a4.root",
        "T1_US_FNAL_Tape: srm://cmsdcatape.fnal.gov:8443/srm/managerv2?SFN=/11/store/mc/Run3Summer23NanoAODv12/GluGlutoHHto4B_kl-1p00_kt-1p00_c2-3p00_TuneCP5_13p6TeV_powheg-pythia8/NANOAODSIM/130X_mcRun3_2023_realistic_v15-v3/2830000/4716d106-a0d4-49dc-a60d-007bc9fb72a4.root"
    ],
    "cms:/store/mc/Run3Summer23NanoAODv12/GluGlutoHHto4B_kl-1p00_kt-1p00_c2-3p00_TuneCP5_13p6TeV_powheg-pythia8/NANOAODSIM/130X_mcRun3_2023_realistic_v15-v3/2830000/97c795b9-a5dc-44a1-a593-9bc336bd085e.root": [
        "T1_US_FNAL_Disk: davs://cmsdcadisk.fnal.gov:2880/dcache/uscmsdisk/store/mc/Run3Summer23NanoAODv12/GluGlutoHHto4B_kl-1p00_kt-1p00_c2-3p00_TuneCP5_13p6TeV_powheg-pythia8/NANOAODSIM/130X_mcRun3_2023_realistic_v15-v3/2830000/97c795b9-a5dc-44a1-a593-9bc336bd085e.root",
        "T2_CH_CSCS: davs://storage01.lcg.cscs.ch:2880/pnfs/lcg.cscs.ch/cms/trivcat/store/mc/Run3Summer23NanoAODv12/GluGlutoHHto4B_kl-1p00_kt-1p00_c2-3p00_TuneCP5_13p6TeV_powheg-pythia8/NANOAODSIM/130X_mcRun3_2023_realistic_v15-v3/2830000/97c795b9-a5dc-44a1-a593-9bc336bd085e.root",
        "T2_US_MIT: davs://xrootd.cmsaf.mit.edu:1094/store/mc/Run3Summer23NanoAODv12/GluGlutoHHto4B_kl-1p00_kt-1p00_c2-3p00_TuneCP5_13p6TeV_powheg-pythia8/NANOAODSIM/130X_mcRun3_2023_realistic_v15-v3/2830000/97c795b9-a5dc-44a1-a593-9bc336bd085e.root",
        "T1_UK_RAL_Disk: davs://rdr.echo.stfc.ac.uk:1094/store/mc/Run3Summer23NanoAODv12/GluGlutoHHto4B_kl-1p00_kt-1p00_c2-3p00_TuneCP5_13p6TeV_powheg-pythia8/NANOAODSIM/130X_mcRun3_2023_realistic_v15-v3/2830000/97c795b9-a5dc-44a1-a593-9bc336bd085e.root",
        "T2_IT_Pisa: davs://stwebdav.pi.infn.it:8443/cms/store/mc/Run3Summer23NanoAODv12/GluGlutoHHto4B_kl-1p00_kt-1p00_c2-3p00_TuneCP5_13p6TeV_powheg-pythia8/NANOAODSIM/130X_mcRun3_2023_realistic_v15-v3/2830000/97c795b9-a5dc-44a1-a593-9bc336bd085e.root",
        "T2_US_Purdue: davs://eos.cms.rcac.purdue.edu:9000/store/mc/Run3Summer23NanoAODv12/GluGlutoHHto4B_kl-1p00_kt-1p00_c2-3p00_TuneCP5_13p6TeV_powheg-pythia8/NANOAODSIM/130X_mcRun3_2023_realistic_v15-v3/2830000/97c795b9-a5dc-44a1-a593-9bc336bd085e.root",
        "T1_RU_JINR_Disk: davs://se-wbdv.jinr-t1.ru:2880/pnfs/jinr-t1.ru/data/cms/store/mc/Run3Summer23NanoAODv12/GluGlutoHHto4B_kl-1p00_kt-1p00_c2-3p00_TuneCP5_13p6TeV_powheg-pythia8/NANOAODSIM/130X_mcRun3_2023_realistic_v15-v3/2830000/97c795b9-a5dc-44a1-a593-9bc336bd085e.root",
        "T1_US_FNAL_Tape: srm://cmsdcatape.fnal.gov:8443/srm/managerv2?SFN=/11/store/mc/Run3Summer23NanoAODv12/GluGlutoHHto4B_kl-1p00_kt-1p00_c2-3p00_TuneCP5_13p6TeV_powheg-pythia8/NANOAODSIM/130X_mcRun3_2023_realistic_v15-v3/2830000/97c795b9-a5dc-44a1-a593-9bc336bd085e.root"
    ],
    "cms:/store/mc/Run3Summer23NanoAODv12/GluGlutoHHto4B_kl-1p00_kt-1p00_c2-3p00_TuneCP5_13p6TeV_powheg-pythia8/NANOAODSIM/130X_mcRun3_2023_realistic_v15-v3/2830000/94806bea-8872-41dd-b710-3e8d03e3c401.root": [
        "T2_CH_CSCS: davs://storage01.lcg.cscs.ch:2880/pnfs/lcg.cscs.ch/cms/trivcat/store/mc/Run3Summer23NanoAODv12/GluGlutoHHto4B_kl-1p00_kt-1p00_c2-3p00_TuneCP5_13p6TeV_powheg-pythia8/NANOAODSIM/130X_mcRun3_2023_realistic_v15-v3/2830000/94806bea-8872-41dd-b710-3e8d03e3c401.root",
        "T2_US_MIT: davs://xrootd.cmsaf.mit.edu:1094/store/mc/Run3Summer23NanoAODv12/GluGlutoHHto4B_kl-1p00_kt-1p00_c2-3p00_TuneCP5_13p6TeV_powheg-pythia8/NANOAODSIM/130X_mcRun3_2023_realistic_v15-v3/2830000/94806bea-8872-41dd-b710-3e8d03e3c401.root",
        "T2_IT_Bari: davs://webdav.recas.ba.infn.it:8443/cms/store/mc/Run3Summer23NanoAODv12/GluGlutoHHto4B_kl-1p00_kt-1p00_c2-3p00_TuneCP5_13p6TeV_powheg-pythia8/NANOAODSIM/130X_mcRun3_2023_realistic_v15-v3/2830000/94806bea-8872-41dd-b710-3e8d03e3c401.root",
        "T1_UK_RAL_Disk: davs://rdr.echo.stfc.ac.uk:1094/store/mc/Run3Summer23NanoAODv12/GluGlutoHHto4B_kl-1p00_kt-1p00_c2-3p00_TuneCP5_13p6TeV_powheg-pythia8/NANOAODSIM/130X_mcRun3_2023_realistic_v15-v3/2830000/94806bea-8872-41dd-b710-3e8d03e3c401.root",
        "T2_EE_Estonia: davs://xrootd.hep.kbfi.ee:1094/store/mc/Run3Summer23NanoAODv12/GluGlutoHHto4B_kl-1p00_kt-1p00_c2-3p00_TuneCP5_13p6TeV_powheg-pythia8/NANOAODSIM/130X_mcRun3_2023_realistic_v15-v3/2830000/94806bea-8872-41dd-b710-3e8d03e3c401.root",
        "T2_IT_Pisa: davs://stwebdav.pi.infn.it:8443/cms/store/mc/Run3Summer23NanoAODv12/GluGlutoHHto4B_kl-1p00_kt-1p00_c2-3p00_TuneCP5_13p6TeV_powheg-pythia8/NANOAODSIM/130X_mcRun3_2023_realistic_v15-v3/2830000/94806bea-8872-41dd-b710-3e8d03e3c401.root",
        "T2_US_Purdue: davs://eos.cms.rcac.purdue.edu:9000/store/mc/Run3Summer23NanoAODv12/GluGlutoHHto4B_kl-1p00_kt-1p00_c2-3p00_TuneCP5_13p6TeV_powheg-pythia8/NANOAODSIM/130X_mcRun3_2023_realistic_v15-v3/2830000/94806bea-8872-41dd-b710-3e8d03e3c401.root",
        "T1_RU_JINR_Disk: davs://se-wbdv.jinr-t1.ru:2880/pnfs/jinr-t1.ru/data/cms/store/mc/Run3Summer23NanoAODv12/GluGlutoHHto4B_kl-1p00_kt-1p00_c2-3p00_TuneCP5_13p6TeV_powheg-pythia8/NANOAODSIM/130X_mcRun3_2023_realistic_v15-v3/2830000/94806bea-8872-41dd-b710-3e8d03e3c401.root",
        "T1_US_FNAL_Tape: srm://cmsdcatape.fnal.gov:8443/srm/managerv2?SFN=/11/store/mc/Run3Summer23NanoAODv12/GluGlutoHHto4B_kl-1p00_kt-1p00_c2-3p00_TuneCP5_13p6TeV_powheg-pythia8/NANOAODSIM/130X_mcRun3_2023_realistic_v15-v3/2830000/94806bea-8872-41dd-b710-3e8d03e3c401.root"
    ],
    "cms:/store/mc/Run3Summer23NanoAODv12/GluGlutoHHto4B_kl-1p00_kt-1p00_c2-3p00_TuneCP5_13p6TeV_powheg-pythia8/NANOAODSIM/130X_mcRun3_2023_realistic_v15-v3/2830000/11ba2cce-6b2e-4c7b-850a-bbacc5225fb4.root": [
        "T2_CH_CSCS: davs://storage01.lcg.cscs.ch:2880/pnfs/lcg.cscs.ch/cms/trivcat/store/mc/Run3Summer23NanoAODv12/GluGlutoHHto4B_kl-1p00_kt-1p00_c2-3p00_TuneCP5_13p6TeV_powheg-pythia8/NANOAODSIM/130X_mcRun3_2023_realistic_v15-v3/2830000/11ba2cce-6b2e-4c7b-850a-bbacc5225fb4.root",
        "T2_UK_SGrid_RALPP: davs://mover.pp.rl.ac.uk:2880/pnfs/pp.rl.ac.uk/data/cms/store/mc/Run3Summer23NanoAODv12/GluGlutoHHto4B_kl-1p00_kt-1p00_c2-3p00_TuneCP5_13p6TeV_powheg-pythia8/NANOAODSIM/130X_mcRun3_2023_realistic_v15-v3/2830000/11ba2cce-6b2e-4c7b-850a-bbacc5225fb4.root",
        "T2_US_MIT: davs://xrootd.cmsaf.mit.edu:1094/store/mc/Run3Summer23NanoAODv12/GluGlutoHHto4B_kl-1p00_kt-1p00_c2-3p00_TuneCP5_13p6TeV_powheg-pythia8/NANOAODSIM/130X_mcRun3_2023_realistic_v15-v3/2830000/11ba2cce-6b2e-4c7b-850a-bbacc5225fb4.root",
        "T1_UK_RAL_Disk: davs://rdr.echo.stfc.ac.uk:1094/store/mc/Run3Summer23NanoAODv12/GluGlutoHHto4B_kl-1p00_kt-1p00_c2-3p00_TuneCP5_13p6TeV_powheg-pythia8/NANOAODSIM/130X_mcRun3_2023_realistic_v15-v3/2830000/11ba2cce-6b2e-4c7b-850a-bbacc5225fb4.root",
        "T2_FI_HIP: davs://hip-cms-se.csc.fi:2880/store/mc/Run3Summer23NanoAODv12/GluGlutoHHto4B_kl-1p00_kt-1p00_c2-3p00_TuneCP5_13p6TeV_powheg-pythia8/NANOAODSIM/130X_mcRun3_2023_realistic_v15-v3/2830000/11ba2cce-6b2e-4c7b-850a-bbacc5225fb4.root",
        "T2_IT_Pisa: davs://stwebdav.pi.infn.it:8443/cms/store/mc/Run3Summer23NanoAODv12/GluGlutoHHto4B_kl-1p00_kt-1p00_c2-3p00_TuneCP5_13p6TeV_powheg-pythia8/NANOAODSIM/130X_mcRun3_2023_realistic_v15-v3/2830000/11ba2cce-6b2e-4c7b-850a-bbacc5225fb4.root",
        "T2_US_Purdue: davs://eos.cms.rcac.purdue.edu:9000/store/mc/Run3Summer23NanoAODv12/GluGlutoHHto4B_kl-1p00_kt-1p00_c2-3p00_TuneCP5_13p6TeV_powheg-pythia8/NANOAODSIM/130X_mcRun3_2023_realistic_v15-v3/2830000/11ba2cce-6b2e-4c7b-850a-bbacc5225fb4.root",
        "T1_RU_JINR_Disk: davs://se-wbdv.jinr-t1.ru:2880/pnfs/jinr-t1.ru/data/cms/store/mc/Run3Summer23NanoAODv12/GluGlutoHHto4B_kl-1p00_kt-1p00_c2-3p00_TuneCP5_13p6TeV_powheg-pythia8/NANOAODSIM/130X_mcRun3_2023_realistic_v15-v3/2830000/11ba2cce-6b2e-4c7b-850a-bbacc5225fb4.root",
        "T1_US_FNAL_Tape: srm://cmsdcatape.fnal.gov:8443/srm/managerv2?SFN=/11/store/mc/Run3Summer23NanoAODv12/GluGlutoHHto4B_kl-1p00_kt-1p00_c2-3p00_TuneCP5_13p6TeV_powheg-pythia8/NANOAODSIM/130X_mcRun3_2023_realistic_v15-v3/2830000/11ba2cce-6b2e-4c7b-850a-bbacc5225fb4.root"
    ],
    "cms:/store/mc/Run3Summer23NanoAODv12/GluGlutoHHto4B_kl-1p00_kt-1p00_c2-3p00_TuneCP5_13p6TeV_powheg-pythia8/NANOAODSIM/130X_mcRun3_2023_realistic_v15-v3/2830000/3d054763-c395-4abf-9e24-c0df8eac1baf.root": [
        "T1_US_FNAL_Disk: davs://cmsdcadisk.fnal.gov:2880/dcache/uscmsdisk/store/mc/Run3Summer23NanoAODv12/GluGlutoHHto4B_kl-1p00_kt-1p00_c2-3p00_TuneCP5_13p6TeV_powheg-pythia8/NANOAODSIM/130X_mcRun3_2023_realistic_v15-v3/2830000/3d054763-c395-4abf-9e24-c0df8eac1baf.root",
        "T2_CH_CSCS: davs://storage01.lcg.cscs.ch:2880/pnfs/lcg.cscs.ch/cms/trivcat/store/mc/Run3Summer23NanoAODv12/GluGlutoHHto4B_kl-1p00_kt-1p00_c2-3p00_TuneCP5_13p6TeV_powheg-pythia8/NANOAODSIM/130X_mcRun3_2023_realistic_v15-v3/2830000/3d054763-c395-4abf-9e24-c0df8eac1baf.root",
        "T1_DE_KIT_Disk: davs://cmsdcache-kit-disk.gridka.de:2880/pnfs/gridka.de/cms/disk-only/store/mc/Run3Summer23NanoAODv12/GluGlutoHHto4B_kl-1p00_kt-1p00_c2-3p00_TuneCP5_13p6TeV_powheg-pythia8/NANOAODSIM/130X_mcRun3_2023_realistic_v15-v3/2830000/3d054763-c395-4abf-9e24-c0df8eac1baf.root",
        "T2_US_MIT: davs://xrootd.cmsaf.mit.edu:1094/store/mc/Run3Summer23NanoAODv12/GluGlutoHHto4B_kl-1p00_kt-1p00_c2-3p00_TuneCP5_13p6TeV_powheg-pythia8/NANOAODSIM/130X_mcRun3_2023_realistic_v15-v3/2830000/3d054763-c395-4abf-9e24-c0df8eac1baf.root",
        "T1_UK_RAL_Disk: davs://rdr.echo.stfc.ac.uk:1094/store/mc/Run3Summer23NanoAODv12/GluGlutoHHto4B_kl-1p00_kt-1p00_c2-3p00_TuneCP5_13p6TeV_powheg-pythia8/NANOAODSIM/130X_mcRun3_2023_realistic_v15-v3/2830000/3d054763-c395-4abf-9e24-c0df8eac1baf.root",
        "T2_IT_Pisa: davs://stwebdav.pi.infn.it:8443/cms/store/mc/Run3Summer23NanoAODv12/GluGlutoHHto4B_kl-1p00_kt-1p00_c2-3p00_TuneCP5_13p6TeV_powheg-pythia8/NANOAODSIM/130X_mcRun3_2023_realistic_v15-v3/2830000/3d054763-c395-4abf-9e24-c0df8eac1baf.root",
        "T2_US_Purdue: davs://eos.cms.rcac.purdue.edu:9000/store/mc/Run3Summer23NanoAODv12/GluGlutoHHto4B_kl-1p00_kt-1p00_c2-3p00_TuneCP5_13p6TeV_powheg-pythia8/NANOAODSIM/130X_mcRun3_2023_realistic_v15-v3/2830000/3d054763-c395-4abf-9e24-c0df8eac1baf.root",
        "T1_RU_JINR_Disk: davs://se-wbdv.jinr-t1.ru:2880/pnfs/jinr-t1.ru/data/cms/store/mc/Run3Summer23NanoAODv12/GluGlutoHHto4B_kl-1p00_kt-1p00_c2-3p00_TuneCP5_13p6TeV_powheg-pythia8/NANOAODSIM/130X_mcRun3_2023_realistic_v15-v3/2830000/3d054763-c395-4abf-9e24-c0df8eac1baf.root",
        "T1_US_FNAL_Tape: srm://cmsdcatape.fnal.gov:8443/srm/managerv2?SFN=/11/store/mc/Run3Summer23NanoAODv12/GluGlutoHHto4B_kl-1p00_kt-1p00_c2-3p00_TuneCP5_13p6TeV_powheg-pythia8/NANOAODSIM/130X_mcRun3_2023_realistic_v15-v3/2830000/3d054763-c395-4abf-9e24-c0df8eac1baf.root"
    ],
    "cms:/store/mc/Run3Summer23NanoAODv12/GluGlutoHHto4B_kl-1p00_kt-1p00_c2-3p00_TuneCP5_13p6TeV_powheg-pythia8/NANOAODSIM/130X_mcRun3_2023_realistic_v15-v3/2830000/fd6703e8-1535-4ff6-90a6-e2c3c778aa6d.root": [
        "T2_AT_Vienna: davs://eos.grid.vbc.ac.at:8443/eos/vbc/experiments/cms/store/mc/Run3Summer23NanoAODv12/GluGlutoHHto4B_kl-1p00_kt-1p00_c2-3p00_TuneCP5_13p6TeV_powheg-pythia8/NANOAODSIM/130X_mcRun3_2023_realistic_v15-v3/2830000/fd6703e8-1535-4ff6-90a6-e2c3c778aa6d.root",
        "T2_CH_CSCS: davs://storage01.lcg.cscs.ch:2880/pnfs/lcg.cscs.ch/cms/trivcat/store/mc/Run3Summer23NanoAODv12/GluGlutoHHto4B_kl-1p00_kt-1p00_c2-3p00_TuneCP5_13p6TeV_powheg-pythia8/NANOAODSIM/130X_mcRun3_2023_realistic_v15-v3/2830000/fd6703e8-1535-4ff6-90a6-e2c3c778aa6d.root",
        "T2_US_MIT: davs://xrootd.cmsaf.mit.edu:1094/store/mc/Run3Summer23NanoAODv12/GluGlutoHHto4B_kl-1p00_kt-1p00_c2-3p00_TuneCP5_13p6TeV_powheg-pythia8/NANOAODSIM/130X_mcRun3_2023_realistic_v15-v3/2830000/fd6703e8-1535-4ff6-90a6-e2c3c778aa6d.root",
        "T1_UK_RAL_Disk: davs://rdr.echo.stfc.ac.uk:1094/store/mc/Run3Summer23NanoAODv12/GluGlutoHHto4B_kl-1p00_kt-1p00_c2-3p00_TuneCP5_13p6TeV_powheg-pythia8/NANOAODSIM/130X_mcRun3_2023_realistic_v15-v3/2830000/fd6703e8-1535-4ff6-90a6-e2c3c778aa6d.root",
        "T2_IT_Pisa: davs://stwebdav.pi.infn.it:8443/cms/store/mc/Run3Summer23NanoAODv12/GluGlutoHHto4B_kl-1p00_kt-1p00_c2-3p00_TuneCP5_13p6TeV_powheg-pythia8/NANOAODSIM/130X_mcRun3_2023_realistic_v15-v3/2830000/fd6703e8-1535-4ff6-90a6-e2c3c778aa6d.root",
        "T2_US_Purdue: davs://eos.cms.rcac.purdue.edu:9000/store/mc/Run3Summer23NanoAODv12/GluGlutoHHto4B_kl-1p00_kt-1p00_c2-3p00_TuneCP5_13p6TeV_powheg-pythia8/NANOAODSIM/130X_mcRun3_2023_realistic_v15-v3/2830000/fd6703e8-1535-4ff6-90a6-e2c3c778aa6d.root",
        "T1_RU_JINR_Disk: davs://se-wbdv.jinr-t1.ru:2880/pnfs/jinr-t1.ru/data/cms/store/mc/Run3Summer23NanoAODv12/GluGlutoHHto4B_kl-1p00_kt-1p00_c2-3p00_TuneCP5_13p6TeV_powheg-pythia8/NANOAODSIM/130X_mcRun3_2023_realistic_v15-v3/2830000/fd6703e8-1535-4ff6-90a6-e2c3c778aa6d.root",
        "T1_US_FNAL_Tape: srm://cmsdcatape.fnal.gov:8443/srm/managerv2?SFN=/11/store/mc/Run3Summer23NanoAODv12/GluGlutoHHto4B_kl-1p00_kt-1p00_c2-3p00_TuneCP5_13p6TeV_powheg-pythia8/NANOAODSIM/130X_mcRun3_2023_realistic_v15-v3/2830000/fd6703e8-1535-4ff6-90a6-e2c3c778aa6d.root",
        "T2_DE_RWTH: davs://grid-webdav.physik.rwth-aachen.de:2889/store/mc/Run3Summer23NanoAODv12/GluGlutoHHto4B_kl-1p00_kt-1p00_c2-3p00_TuneCP5_13p6TeV_powheg-pythia8/NANOAODSIM/130X_mcRun3_2023_realistic_v15-v3/2830000/fd6703e8-1535-4ff6-90a6-e2c3c778aa6d.root"
    ],
    "cms:/store/mc/Run3Summer23NanoAODv12/GluGlutoHHto4B_kl-1p00_kt-1p00_c2-3p00_TuneCP5_13p6TeV_powheg-pythia8/NANOAODSIM/130X_mcRun3_2023_realistic_v15-v3/2830000/08bcf843-98e4-490e-87b9-fbe1da18cd29.root": [
        "T2_CH_CSCS: davs://storage01.lcg.cscs.ch:2880/pnfs/lcg.cscs.ch/cms/trivcat/store/mc/Run3Summer23NanoAODv12/GluGlutoHHto4B_kl-1p00_kt-1p00_c2-3p00_TuneCP5_13p6TeV_powheg-pythia8/NANOAODSIM/130X_mcRun3_2023_realistic_v15-v3/2830000/08bcf843-98e4-490e-87b9-fbe1da18cd29.root",
        "T2_US_MIT: davs://xrootd.cmsaf.mit.edu:1094/store/mc/Run3Summer23NanoAODv12/GluGlutoHHto4B_kl-1p00_kt-1p00_c2-3p00_TuneCP5_13p6TeV_powheg-pythia8/NANOAODSIM/130X_mcRun3_2023_realistic_v15-v3/2830000/08bcf843-98e4-490e-87b9-fbe1da18cd29.root",
        "T2_TW_NCHC: davs://se01.grid.nchc.org.tw:443//cms/store/mc/Run3Summer23NanoAODv12/GluGlutoHHto4B_kl-1p00_kt-1p00_c2-3p00_TuneCP5_13p6TeV_powheg-pythia8/NANOAODSIM/130X_mcRun3_2023_realistic_v15-v3/2830000/08bcf843-98e4-490e-87b9-fbe1da18cd29.root",
        "T1_UK_RAL_Disk: davs://rdr.echo.stfc.ac.uk:1094/store/mc/Run3Summer23NanoAODv12/GluGlutoHHto4B_kl-1p00_kt-1p00_c2-3p00_TuneCP5_13p6TeV_powheg-pythia8/NANOAODSIM/130X_mcRun3_2023_realistic_v15-v3/2830000/08bcf843-98e4-490e-87b9-fbe1da18cd29.root",
        "T2_IT_Pisa: davs://stwebdav.pi.infn.it:8443/cms/store/mc/Run3Summer23NanoAODv12/GluGlutoHHto4B_kl-1p00_kt-1p00_c2-3p00_TuneCP5_13p6TeV_powheg-pythia8/NANOAODSIM/130X_mcRun3_2023_realistic_v15-v3/2830000/08bcf843-98e4-490e-87b9-fbe1da18cd29.root",
        "T2_US_Purdue: davs://eos.cms.rcac.purdue.edu:9000/store/mc/Run3Summer23NanoAODv12/GluGlutoHHto4B_kl-1p00_kt-1p00_c2-3p00_TuneCP5_13p6TeV_powheg-pythia8/NANOAODSIM/130X_mcRun3_2023_realistic_v15-v3/2830000/08bcf843-98e4-490e-87b9-fbe1da18cd29.root",
        "T1_RU_JINR_Disk: davs://se-wbdv.jinr-t1.ru:2880/pnfs/jinr-t1.ru/data/cms/store/mc/Run3Summer23NanoAODv12/GluGlutoHHto4B_kl-1p00_kt-1p00_c2-3p00_TuneCP5_13p6TeV_powheg-pythia8/NANOAODSIM/130X_mcRun3_2023_realistic_v15-v3/2830000/08bcf843-98e4-490e-87b9-fbe1da18cd29.root",
        "T2_IT_Rome: davs://cmsrm-xrootd01.roma1.infn.it:2880//mc/Run3Summer23NanoAODv12/GluGlutoHHto4B_kl-1p00_kt-1p00_c2-3p00_TuneCP5_13p6TeV_powheg-pythia8/NANOAODSIM/130X_mcRun3_2023_realistic_v15-v3/2830000/08bcf843-98e4-490e-87b9-fbe1da18cd29.root",
        "T1_US_FNAL_Tape: srm://cmsdcatape.fnal.gov:8443/srm/managerv2?SFN=/11/store/mc/Run3Summer23NanoAODv12/GluGlutoHHto4B_kl-1p00_kt-1p00_c2-3p00_TuneCP5_13p6TeV_powheg-pythia8/NANOAODSIM/130X_mcRun3_2023_realistic_v15-v3/2830000/08bcf843-98e4-490e-87b9-fbe1da18cd29.root"
    ],
    "cms:/store/mc/Run3Summer23NanoAODv12/GluGlutoHHto4B_kl-1p00_kt-1p00_c2-3p00_TuneCP5_13p6TeV_powheg-pythia8/NANOAODSIM/130X_mcRun3_2023_realistic_v15-v3/2830000/c289a380-ac17-425b-bf97-d2aba29cfa28.root": [
        "T2_CH_CSCS: davs://storage01.lcg.cscs.ch:2880/pnfs/lcg.cscs.ch/cms/trivcat/store/mc/Run3Summer23NanoAODv12/GluGlutoHHto4B_kl-1p00_kt-1p00_c2-3p00_TuneCP5_13p6TeV_powheg-pythia8/NANOAODSIM/130X_mcRun3_2023_realistic_v15-v3/2830000/c289a380-ac17-425b-bf97-d2aba29cfa28.root",
        "T2_US_MIT: davs://xrootd.cmsaf.mit.edu:1094/store/mc/Run3Summer23NanoAODv12/GluGlutoHHto4B_kl-1p00_kt-1p00_c2-3p00_TuneCP5_13p6TeV_powheg-pythia8/NANOAODSIM/130X_mcRun3_2023_realistic_v15-v3/2830000/c289a380-ac17-425b-bf97-d2aba29cfa28.root",
        "T2_FR_IPHC: davs://sbgdcache.in2p3.fr:443/cms/phedex/store/mc/Run3Summer23NanoAODv12/GluGlutoHHto4B_kl-1p00_kt-1p00_c2-3p00_TuneCP5_13p6TeV_powheg-pythia8/NANOAODSIM/130X_mcRun3_2023_realistic_v15-v3/2830000/c289a380-ac17-425b-bf97-d2aba29cfa28.root",
        "T1_UK_RAL_Disk: davs://rdr.echo.stfc.ac.uk:1094/store/mc/Run3Summer23NanoAODv12/GluGlutoHHto4B_kl-1p00_kt-1p00_c2-3p00_TuneCP5_13p6TeV_powheg-pythia8/NANOAODSIM/130X_mcRun3_2023_realistic_v15-v3/2830000/c289a380-ac17-425b-bf97-d2aba29cfa28.root",
        "T2_IT_Pisa: davs://stwebdav.pi.infn.it:8443/cms/store/mc/Run3Summer23NanoAODv12/GluGlutoHHto4B_kl-1p00_kt-1p00_c2-3p00_TuneCP5_13p6TeV_powheg-pythia8/NANOAODSIM/130X_mcRun3_2023_realistic_v15-v3/2830000/c289a380-ac17-425b-bf97-d2aba29cfa28.root",
        "T2_US_Purdue: davs://eos.cms.rcac.purdue.edu:9000/store/mc/Run3Summer23NanoAODv12/GluGlutoHHto4B_kl-1p00_kt-1p00_c2-3p00_TuneCP5_13p6TeV_powheg-pythia8/NANOAODSIM/130X_mcRun3_2023_realistic_v15-v3/2830000/c289a380-ac17-425b-bf97-d2aba29cfa28.root",
        "T1_RU_JINR_Disk: davs://se-wbdv.jinr-t1.ru:2880/pnfs/jinr-t1.ru/data/cms/store/mc/Run3Summer23NanoAODv12/GluGlutoHHto4B_kl-1p00_kt-1p00_c2-3p00_TuneCP5_13p6TeV_powheg-pythia8/NANOAODSIM/130X_mcRun3_2023_realistic_v15-v3/2830000/c289a380-ac17-425b-bf97-d2aba29cfa28.root",
        "T1_US_FNAL_Tape: srm://cmsdcatape.fnal.gov:8443/srm/managerv2?SFN=/11/store/mc/Run3Summer23NanoAODv12/GluGlutoHHto4B_kl-1p00_kt-1p00_c2-3p00_TuneCP5_13p6TeV_powheg-pythia8/NANOAODSIM/130X_mcRun3_2023_realistic_v15-v3/2830000/c289a380-ac17-425b-bf97-d2aba29cfa28.root"
    ],
    "cms:/store/mc/Run3Summer23NanoAODv12/GluGlutoHHto4B_kl-1p00_kt-1p00_c2-3p00_TuneCP5_13p6TeV_powheg-pythia8/NANOAODSIM/130X_mcRun3_2023_realistic_v15-v3/2830000/95583029-6c4b-4788-9771-630d30ed9eed.root": [
        "T2_CH_CSCS: davs://storage01.lcg.cscs.ch:2880/pnfs/lcg.cscs.ch/cms/trivcat/store/mc/Run3Summer23NanoAODv12/GluGlutoHHto4B_kl-1p00_kt-1p00_c2-3p00_TuneCP5_13p6TeV_powheg-pythia8/NANOAODSIM/130X_mcRun3_2023_realistic_v15-v3/2830000/95583029-6c4b-4788-9771-630d30ed9eed.root",
        "T2_US_MIT: davs://xrootd.cmsaf.mit.edu:1094/store/mc/Run3Summer23NanoAODv12/GluGlutoHHto4B_kl-1p00_kt-1p00_c2-3p00_TuneCP5_13p6TeV_powheg-pythia8/NANOAODSIM/130X_mcRun3_2023_realistic_v15-v3/2830000/95583029-6c4b-4788-9771-630d30ed9eed.root",
        "T2_UA_KIPT: davs://cms-se0.kipt.kharkov.ua:443//dpm/kipt.kharkov.ua/home/cms/store/mc/Run3Summer23NanoAODv12/GluGlutoHHto4B_kl-1p00_kt-1p00_c2-3p00_TuneCP5_13p6TeV_powheg-pythia8/NANOAODSIM/130X_mcRun3_2023_realistic_v15-v3/2830000/95583029-6c4b-4788-9771-630d30ed9eed.root",
        "T2_CH_CERN: davs://eoscms.cern.ch:443/eos/cms/store/mc/Run3Summer23NanoAODv12/GluGlutoHHto4B_kl-1p00_kt-1p00_c2-3p00_TuneCP5_13p6TeV_powheg-pythia8/NANOAODSIM/130X_mcRun3_2023_realistic_v15-v3/2830000/95583029-6c4b-4788-9771-630d30ed9eed.root",
        "T1_UK_RAL_Disk: davs://rdr.echo.stfc.ac.uk:1094/store/mc/Run3Summer23NanoAODv12/GluGlutoHHto4B_kl-1p00_kt-1p00_c2-3p00_TuneCP5_13p6TeV_powheg-pythia8/NANOAODSIM/130X_mcRun3_2023_realistic_v15-v3/2830000/95583029-6c4b-4788-9771-630d30ed9eed.root",
        "T2_IT_Pisa: davs://stwebdav.pi.infn.it:8443/cms/store/mc/Run3Summer23NanoAODv12/GluGlutoHHto4B_kl-1p00_kt-1p00_c2-3p00_TuneCP5_13p6TeV_powheg-pythia8/NANOAODSIM/130X_mcRun3_2023_realistic_v15-v3/2830000/95583029-6c4b-4788-9771-630d30ed9eed.root",
        "T2_US_Purdue: davs://eos.cms.rcac.purdue.edu:9000/store/mc/Run3Summer23NanoAODv12/GluGlutoHHto4B_kl-1p00_kt-1p00_c2-3p00_TuneCP5_13p6TeV_powheg-pythia8/NANOAODSIM/130X_mcRun3_2023_realistic_v15-v3/2830000/95583029-6c4b-4788-9771-630d30ed9eed.root",
        "T1_RU_JINR_Disk: davs://se-wbdv.jinr-t1.ru:2880/pnfs/jinr-t1.ru/data/cms/store/mc/Run3Summer23NanoAODv12/GluGlutoHHto4B_kl-1p00_kt-1p00_c2-3p00_TuneCP5_13p6TeV_powheg-pythia8/NANOAODSIM/130X_mcRun3_2023_realistic_v15-v3/2830000/95583029-6c4b-4788-9771-630d30ed9eed.root",
        "T1_US_FNAL_Tape: srm://cmsdcatape.fnal.gov:8443/srm/managerv2?SFN=/11/store/mc/Run3Summer23NanoAODv12/GluGlutoHHto4B_kl-1p00_kt-1p00_c2-3p00_TuneCP5_13p6TeV_powheg-pythia8/NANOAODSIM/130X_mcRun3_2023_realistic_v15-v3/2830000/95583029-6c4b-4788-9771-630d30ed9eed.root"
    ],
    "cms:/store/mc/Run3Summer23NanoAODv12/GluGlutoHHto4B_kl-1p00_kt-1p00_c2-3p00_TuneCP5_13p6TeV_powheg-pythia8/NANOAODSIM/130X_mcRun3_2023_realistic_v15-v3/2830000/e99d5470-e902-4498-a3d6-38156758c0ec.root": [
        "T2_CH_CSCS: davs://storage01.lcg.cscs.ch:2880/pnfs/lcg.cscs.ch/cms/trivcat/store/mc/Run3Summer23NanoAODv12/GluGlutoHHto4B_kl-1p00_kt-1p00_c2-3p00_TuneCP5_13p6TeV_powheg-pythia8/NANOAODSIM/130X_mcRun3_2023_realistic_v15-v3/2830000/e99d5470-e902-4498-a3d6-38156758c0ec.root",
        "T2_US_MIT: davs://xrootd.cmsaf.mit.edu:1094/store/mc/Run3Summer23NanoAODv12/GluGlutoHHto4B_kl-1p00_kt-1p00_c2-3p00_TuneCP5_13p6TeV_powheg-pythia8/NANOAODSIM/130X_mcRun3_2023_realistic_v15-v3/2830000/e99d5470-e902-4498-a3d6-38156758c0ec.root",
        "T2_UA_KIPT: davs://cms-se0.kipt.kharkov.ua:443//dpm/kipt.kharkov.ua/home/cms/store/mc/Run3Summer23NanoAODv12/GluGlutoHHto4B_kl-1p00_kt-1p00_c2-3p00_TuneCP5_13p6TeV_powheg-pythia8/NANOAODSIM/130X_mcRun3_2023_realistic_v15-v3/2830000/e99d5470-e902-4498-a3d6-38156758c0ec.root",
        "T2_CH_CERN: davs://eoscms.cern.ch:443/eos/cms/store/mc/Run3Summer23NanoAODv12/GluGlutoHHto4B_kl-1p00_kt-1p00_c2-3p00_TuneCP5_13p6TeV_powheg-pythia8/NANOAODSIM/130X_mcRun3_2023_realistic_v15-v3/2830000/e99d5470-e902-4498-a3d6-38156758c0ec.root",
        "T1_UK_RAL_Disk: davs://rdr.echo.stfc.ac.uk:1094/store/mc/Run3Summer23NanoAODv12/GluGlutoHHto4B_kl-1p00_kt-1p00_c2-3p00_TuneCP5_13p6TeV_powheg-pythia8/NANOAODSIM/130X_mcRun3_2023_realistic_v15-v3/2830000/e99d5470-e902-4498-a3d6-38156758c0ec.root",
        "T2_IT_Pisa: davs://stwebdav.pi.infn.it:8443/cms/store/mc/Run3Summer23NanoAODv12/GluGlutoHHto4B_kl-1p00_kt-1p00_c2-3p00_TuneCP5_13p6TeV_powheg-pythia8/NANOAODSIM/130X_mcRun3_2023_realistic_v15-v3/2830000/e99d5470-e902-4498-a3d6-38156758c0ec.root",
        "T2_US_Purdue: davs://eos.cms.rcac.purdue.edu:9000/store/mc/Run3Summer23NanoAODv12/GluGlutoHHto4B_kl-1p00_kt-1p00_c2-3p00_TuneCP5_13p6TeV_powheg-pythia8/NANOAODSIM/130X_mcRun3_2023_realistic_v15-v3/2830000/e99d5470-e902-4498-a3d6-38156758c0ec.root",
        "T1_RU_JINR_Disk: davs://se-wbdv.jinr-t1.ru:2880/pnfs/jinr-t1.ru/data/cms/store/mc/Run3Summer23NanoAODv12/GluGlutoHHto4B_kl-1p00_kt-1p00_c2-3p00_TuneCP5_13p6TeV_powheg-pythia8/NANOAODSIM/130X_mcRun3_2023_realistic_v15-v3/2830000/e99d5470-e902-4498-a3d6-38156758c0ec.root",
        "T1_US_FNAL_Tape: srm://cmsdcatape.fnal.gov:8443/srm/managerv2?SFN=/11/store/mc/Run3Summer23NanoAODv12/GluGlutoHHto4B_kl-1p00_kt-1p00_c2-3p00_TuneCP5_13p6TeV_powheg-pythia8/NANOAODSIM/130X_mcRun3_2023_realistic_v15-v3/2830000/e99d5470-e902-4498-a3d6-38156758c0ec.root"
    ]
}