+-----------------------------------------------------------------------------------------------------------------------------------------------------------------------------------------------------------------+--------+-------------+------------+----------+
| SCOPE:NAME                                                                                                                                                                                                      | GUID   | ADLER32     | FILESIZE   | EVENTS   |
|-----------------------------------------------------------------------------------------------------------------------------------------------------------------------------------------------------------------+--------+-------------+------------+----------|
| cms:/store/mc/Run3Summer22EENanoAODv12/GluGlutoRadiontoHHto4B_M-1400_narrow_TuneCP5_13p6TeV_madgraph-pythia8/NANOAODSIM/130X_mcRun3_2022_realistic_postEE_v6-v4/80000/8be34ac4-0ed3-4160-b3b6-f8e16d18a7b6.root | (None) | ad:f8e95cd8 | 4.620 MB   |          |
| cms:/store/mc/Run3Summer22EENanoAODv12/GluGlutoRadiontoHHto4B_M-1400_narrow_TuneCP5_13p6TeV_madgraph-pythia8/NANOAODSIM/130X_mcRun3_2022_realistic_postEE_v6-v4/80000/5d415821-e9d8-40c8-850d-2def603607b4.root | (None) | ad:5139642a | 4.614 MB   |          |
| cms:/store/mc/Run3Summer22EENanoAODv12/GluGlutoRadiontoHHto4B_M-1400_narrow_TuneCP5_13p6TeV_madgraph-pythia8/NANOAODSIM/130X_mcRun3_2022_realistic_postEE_v6-v4/80000/06e3d5be-8059-415c-9d95-9d7ba54a594e.root | (None) | ad:e4a2651f | 4.619 MB   |          |
| cms:/store/mc/Run3Summer22EENanoAODv12/GluGlutoRadiontoHHto4B_M-1400_narrow_TuneCP5_13p6TeV_madgraph-pythia8/NANOAODSIM/130X_mcRun3_2022_realistic_postEE_v6-v4/80000/9b1a38d1-746f-4a39-a309-59a3722023cc.root | (None) | ad:876199f0 | 166.250 MB |          |
| cms:/store/mc/Run3Summer22EENanoAODv12/GluGlutoRadiontoHHto4B_M-1400_narrow_TuneCP5_13p6TeV_madgraph-pythia8/NANOAODSIM/130X_mcRun3_2022_realistic_postEE_v6-v4/80000/c8f834ed-50b4-4758-8ab6-b08090d55fc8.root | (None) | ad:c4bb3429 | 20.680 MB  |          |
| cms:/store/mc/Run3Summer22EENanoAODv12/GluGlutoRadiontoHHto4B_M-1400_narrow_TuneCP5_13p6TeV_madgraph-pythia8/NANOAODSIM/130X_mcRun3_2022_realistic_postEE_v6-v4/80000/48b0fdd5-3c99-4426-8c64-e6028401e410.root | (None) | ad:76ffc6c1 | 20.658 MB  |          |
| cms:/store/mc/Run3Summer22EENanoAODv12/GluGlutoRadiontoHHto4B_M-1400_narrow_TuneCP5_13p6TeV_madgraph-pythia8/NANOAODSIM/130X_mcRun3_2022_realistic_postEE_v6-v4/80000/fa2ec952-9a51-4740-a289-077caecd602f.root | (None) | ad:fa38de0f | 11.210 MB  |          |
+-----------------------------------------------------------------------------------------------------------------------------------------------------------------------------------------------------------------+--------+-------------+------------+----------+
Total files : 7
Total size : 232.650 MB
