{
    "cms:/store/mc/Run3Summer22NanoAODv12/GluGlutoBulkGravitontoHHto4B_M-280_narrow_TuneCP5_13p6TeV_madgraph-pythia8/NANOAODSIM/130X_mcRun3_2022_realistic_v5-v3/50000/8b7f16f8-538b-4798-b74d-2efda2d216bd.root": [
        "T2_US_MIT: davs://xrootd.cmsaf.mit.edu:1094/store/mc/Run3Summer22NanoAODv12/GluGlutoBulkGravitontoHHto4B_M-280_narrow_TuneCP5_13p6TeV_madgraph-pythia8/NANOAODSIM/130X_mcRun3_2022_realistic_v5-v3/50000/8b7f16f8-538b-4798-b74d-2efda2d216bd.root",
        "T1_UK_RAL_Tape: davs://antares.stfc.ac.uk:9000/eos/antares/prod/cms/store/mc/Run3Summer22NanoAODv12/GluGlutoBulkGravitontoHHto4B_M-280_narrow_TuneCP5_13p6TeV_madgraph-pythia8/NANOAODSIM/130X_mcRun3_2022_realistic_v5-v3/50000/8b7f16f8-538b-4798-b74d-2efda2d216bd.root",
        "T2_IT_Bari: davs://webdav.recas.ba.infn.it:8443/cms/store/mc/Run3Summer22NanoAODv12/GluGlutoBulkGravitontoHHto4B_M-280_narrow_TuneCP5_13p6TeV_madgraph-pythia8/NANOAODSIM/130X_mcRun3_2022_realistic_v5-v3/50000/8b7f16f8-538b-4798-b74d-2efda2d216bd.root",
        "T2_US_Vanderbilt: davs://xrootd-vanderbilt.sites.opensciencegrid.org:1094/store/mc/Run3Summer22NanoAODv12/GluGlutoBulkGravitontoHHto4B_M-280_narrow_TuneCP5_13p6TeV_madgraph-pythia8/NANOAODSIM/130X_mcRun3_2022_realistic_v5-v3/50000/8b7f16f8-538b-4798-b74d-2efda2d216bd.root",
        "T1_ES_PIC_Disk: davs://webdav-cms.pic.es:8459/pnfs/pic.es/data/cms/disk/store/mc/Run3Summer22NanoAODv12/GluGlutoBulkGravitontoHHto4B_M-280_narrow_TuneCP5_13p6TeV_madgraph-pythia8/NANOAODSIM/130X_mcRun3_2022_realistic_v5-v3/50000/8b7f16f8-538b-4798-b74d-2efda2d216bd.root",
        "T2_KR_KISTI: davs://cms-t2-se01.sdfarm.kr:2880/store/mc/Run3Summer22NanoAODv12/GluGlutoBulkGravitontoHHto4B_M-280_narrow_TuneCP5_13p6TeV_madgraph-pythia8/NANOAODSIM/130X_mcRun3_2022_realistic_v5-v3/50000/8b7f16f8-538b-4798-b74d-2efda2d216bd.root",
        "T2_IT_Rome: davs://cmsrm-xrootd01.roma1.infn.it:2880//mc/Run3Summer22NanoAODv12/GluGlutoBulkGravitontoHHto4B_M-280_narrow_TuneCP5_13p6TeV_madgraph-pythia8/NANOAODSIM/130X_mcRun3_2022_realistic_v5-v3/50000/8b7f16f8-538b-4798-b74d-2efda2d216bd.root"
    ],
    "cms:/store/mc/Run3Summer22NanoAODv12/GluGlutoBulkGravitontoHHto4B_M-280_narrow_TuneCP5_13p6TeV_madgraph-pythia8/NANOAODSIM/130X_mcRun3_2022_realistic_v5-v3/50000/c1caacd2-c9c7-4c85-b99c-1b93cd5004dc.root": [
        "T2_CN_Beijing: davs://cceos.ihep.ac.cn:9000/eos/ihep/cms/store/mc/Run3Summer22NanoAODv12/GluGlutoBulkGravitontoHHto4B_M-280_narrow_TuneCP5_13p6TeV_madgraph-pythia8/NANOAODSIM/130X_mcRun3_2022_realistic_v5-v3/50000/c1caacd2-c9c7-4c85-b99c-1b93cd5004dc.root",
        "T1_UK_RAL_Tape: davs://antares.stfc.ac.uk:9000/eos/antares/prod/cms/store/mc/Run3Summer22NanoAODv12/GluGlutoBulkGravitontoHHto4B_M-280_narrow_TuneCP5_13p6TeV_madgraph-pythia8/NANOAODSIM/130X_mcRun3_2022_realistic_v5-v3/50000/c1caacd2-c9c7-4c85-b99c-1b93cd5004dc.root",
        "T2_IT_Bari: davs://webdav.recas.ba.infn.it:8443/cms/store/mc/Run3Summer22NanoAODv12/GluGlutoBulkGravitontoHHto4B_M-280_narrow_TuneCP5_13p6TeV_madgraph-pythia8/NANOAODSIM/130X_mcRun3_2022_realistic_v5-v3/50000/c1caacd2-c9c7-4c85-b99c-1b93cd5004dc.root",
        "T2_US_Florida: davs://cmsio2.rc.ufl.edu:1094/store/mc/Run3Summer22NanoAODv12/GluGlutoBulkGravitontoHHto4B_M-280_narrow_TuneCP5_13p6TeV_madgraph-pythia8/NANOAODSIM/130X_mcRun3_2022_realistic_v5-v3/50000/c1caacd2-c9c7-4c85-b99c-1b93cd5004dc.root",
        "T2_HU_Budapest: davs://grid143.kfki.hu:443/dpm/kfki.hu/home/cms/phedex/store/mc/Run3Summer22NanoAODv12/GluGlutoBulkGravitontoHHto4B_M-280_narrow_TuneCP5_13p6TeV_madgraph-pythia8/NANOAODSIM/130X_mcRun3_2022_realistic_v5-v3/50000/c1caacd2-c9c7-4c85-b99c-1b93cd5004dc.root",
        "T2_US_Nebraska: davs://xrootd-local.unl.edu:1094/store/mc/Run3Summer22NanoAODv12/GluGlutoBulkGravitontoHHto4B_M-280_narrow_TuneCP5_13p6TeV_madgraph-pythia8/NANOAODSIM/130X_mcRun3_2022_realistic_v5-v3/50000/c1caacd2-c9c7-4c85-b99c-1b93cd5004dc.root",
        "T2_DE_RWTH: davs://grid-webdav.physik.rwth-aachen.de:2889/store/mc/Run3Summer22NanoAODv12/GluGlutoBulkGravitontoHHto4B_M-280_narrow_TuneCP5_13p6TeV_madgraph-pythia8/NANOAODSIM/130X_mcRun3_2022_realistic_v5-v3/50000/c1caacd2-c9c7-4c85-b99c-1b93cd5004dc.root"
    ],
    "cms:/store/mc/Run3Summer22NanoAODv12/GluGlutoBulkGravitontoHHto4B_M-280_narrow_TuneCP5_13p6TeV_madgraph-pythia8/NANOAODSIM/130X_mcRun3_2022_realistic_v5-v3/50000/ddd1c046-82e6-4295-a800-b38306db3c5f.root": [
        "T2_US_MIT: davs://xrootd.cmsaf.mit.edu:1094/store/mc/Run3Summer22NanoAODv12/GluGlutoBulkGravitontoHHto4B_M-280_narrow_TuneCP5_13p6TeV_madgraph-pythia8/NANOAODSIM/130X_mcRun3_2022_realistic_v5-v3/50000/ddd1c046-82e6-4295-a800-b38306db3c5f.root",
        "T1_UK_RAL_Tape: davs://antares.stfc.ac.uk:9000/eos/antares/prod/cms/store/mc/Run3Summer22NanoAODv12/GluGlutoBulkGravitontoHHto4B_M-280_narrow_TuneCP5_13p6TeV_madgraph-pythia8/NANOAODSIM/130X_mcRun3_2022_realistic_v5-v3/50000/ddd1c046-82e6-4295-a800-b38306db3c5f.root",
        "T2_IT_Bari: davs://webdav.recas.ba.infn.it:8443/cms/store/mc/Run3Summer22NanoAODv12/GluGlutoBulkGravitontoHHto4B_M-280_narrow_TuneCP5_13p6TeV_madgraph-pythia8/NANOAODSIM/130X_mcRun3_2022_realistic_v5-v3/50000/ddd1c046-82e6-4295-a800-b38306db3c5f.root",
        "T2_US_Vanderbilt: davs://xrootd-vanderbilt.sites.opensciencegrid.org:1094/store/mc/Run3Summer22NanoAODv12/GluGlutoBulkGravitontoHHto4B_M-280_narrow_TuneCP5_13p6TeV_madgraph-pythia8/NANOAODSIM/130X_mcRun3_2022_realistic_v5-v3/50000/ddd1c046-82e6-4295-a800-b38306db3c5f.root",
        "T1_ES_PIC_Disk: davs://webdav-cms.pic.es:8459/pnfs/pic.es/data/cms/disk/store/mc/Run3Summer22NanoAODv12/GluGlutoBulkGravitontoHHto4B_M-280_narrow_TuneCP5_13p6TeV_madgraph-pythia8/NANOAODSIM/130X_mcRun3_2022_realistic_v5-v3/50000/ddd1c046-82e6-4295-a800-b38306db3c5f.root",
        "T2_KR_KISTI: davs://cms-t2-se01.sdfarm.kr:2880/store/mc/Run3Summer22NanoAODv12/GluGlutoBulkGravitontoHHto4B_M-280_narrow_TuneCP5_13p6TeV_madgraph-pythia8/NANOAODSIM/130X_mcRun3_2022_realistic_v5-v3/50000/ddd1c046-82e6-4295-a800-b38306db3c5f.root",
        "T2_IT_Rome: davs://cmsrm-xrootd01.roma1.infn.it:2880//mc/Run3Summer22NanoAODv12/GluGlutoBulkGravitontoHHto4B_M-280_narrow_TuneCP5_13p6TeV_madgraph-pythia8/NANOAODSIM/130X_mcRun3_2022_realistic_v5-v3/50000/ddd1c046-82e6-4295-a800-b38306db3c5f.root"
    ],
    "cms:/store/mc/Run3Summer22NanoAODv12/GluGlutoBulkGravitontoHHto4B_M-280_narrow_TuneCP5_13p6TeV_madgraph-pythia8/NANOAODSIM/130X_mcRun3_2022_realistic_v5-v3/50000/71bba17f-0677-43e4-833f-fd2f3bd5b169.root": [
        "T2_US_MIT: davs://xrootd.cmsaf.mit.edu:1094/store/mc/Run3Summer22NanoAODv12/GluGlutoBulkGravitontoHHto4B_M-280_narrow_TuneCP5_13p6TeV_madgraph-pythia8/NANOAODSIM/130X_mcRun3_2022_realistic_v5-v3/50000/71bba17f-0677-43e4-833f-fd2f3bd5b169.root",
        "T1_UK_RAL_Tape: davs://antares.stfc.ac.uk:9000/eos/antares/prod/cms/store/mc/Run3Summer22NanoAODv12/GluGlutoBulkGravitontoHHto4B_M-280_narrow_TuneCP5_13p6TeV_madgraph-pythia8/NANOAODSIM/130X_mcRun3_2022_realistic_v5-v3/50000/71bba17f-0677-43e4-833f-fd2f3bd5b169.root",
        "T2_IT_Bari: davs://webdav.recas.ba.infn.it:8443/cms/store/mc/Run3Summer22NanoAODv12/GluGlutoBulkGravitontoHHto4B_M-280_narrow_TuneCP5_13p6TeV_madgraph-pythia8/NANOAODSIM/130X_mcRun3_2022_realistic_v5-v3/50000/71bba17f-0677-43e4-833f-fd2f3bd5b169.root",
        "T2_US_Vanderbilt: davs://xrootd-vanderbilt.sites.opensciencegrid.org:1094/store/mc/Run3Summer22NanoAODv12/GluGlutoBulkGravitontoHHto4B_M-280_narrow_TuneCP5_13p6TeV_madgraph-pythia8/NANOAODSIM/130X_mcRun3_2022_realistic_v5-v3/50000/71bba17f-0677-43e4-833f-fd2f3bd5b169.root",
        "T1_ES_PIC_Disk: davs://webdav-cms.pic.es:8459/pnfs/pic.es/data/cms/disk/store/mc/Run3Summer22NanoAODv12/GluGlutoBulkGravitontoHHto4B_M-280_narrow_TuneCP5_13p6TeV_madgraph-pythia8/NANOAODSIM/130X_mcRun3_2022_realistic_v5-v3/50000/71bba17f-0677-43e4-833f-fd2f3bd5b169.root",
        "T2_KR_KISTI: davs://cms-t2-se01.sdfarm.kr:2880/store/mc/Run3Summer22NanoAODv12/GluGlutoBulkGravitontoHHto4B_M-280_narrow_TuneCP5_13p6TeV_madgraph-pythia8/NANOAODSIM/130X_mcRun3_2022_realistic_v5-v3/50000/71bba17f-0677-43e4-833f-fd2f3bd5b169.root",
        "T2_IT_Rome: davs://cmsrm-xrootd01.roma1.infn.it:2880//mc/Run3Summer22NanoAODv12/GluGlutoBulkGravitontoHHto4B_M-280_narrow_TuneCP5_13p6TeV_madgraph-pythia8/NANOAODSIM/130X_mcRun3_2022_realistic_v5-v3/50000/71bba17f-0677-43e4-833f-fd2f3bd5b169.root"
    ]
}