+-------------------------------------------------------------------------------------------------------------------------------------------------------------------------------------------------------------------------+--------+-------------+------------+----------+
| SCOPE:NAME                                                                                                                                                                                                              | GUID   | ADLER32     | FILESIZE   | EVENTS   |
|-------------------------------------------------------------------------------------------------------------------------------------------------------------------------------------------------------------------------+--------+-------------+------------+----------|
| cms:/store/mc/Run3Summer23BPixNanoAODv12/GluGlutoHHto4B_kl-1p00_kt-1p00_c2-0p00_TuneCP5_13p6TeV_powheg-pythia8/NANOAODSIM/tsg_130X_mcRun3_2023_realistic_postBPix_v6-v2/40000/3415d77d-5194-4314-8f3e-3d3b6066a663.root | (None) | ad:67231a12 | 13.260 MB  |          |
| cms:/store/mc/Run3Summer23BPixNanoAODv12/GluGlutoHHto4B_kl-1p00_kt-1p00_c2-0p00_TuneCP5_13p6TeV_powheg-pythia8/NANOAODSIM/tsg_130X_mcRun3_2023_realistic_postBPix_v6-v2/40000/5ca18caf-be93-48a3-a079-5eaeb47ea76f.root | (None) | ad:31c15411 | 9.667 MB   |          |
| cms:/store/mc/Run3Summer23BPixNanoAODv12/GluGlutoHHto4B_kl-1p00_kt-1p00_c2-0p00_TuneCP5_13p6TeV_powheg-pythia8/NANOAODSIM/tsg_130X_mcRun3_2023_realistic_postBPix_v6-v2/40000/d0789f94-95b4-411c-aab7-478da6ba95f3.root | (None) | ad:3de5eeeb | 14.744 MB  |          |
| cms:/store/mc/Run3Summer23BPixNanoAODv12/GluGlutoHHto4B_kl-1p00_kt-1p00_c2-0p00_TuneCP5_13p6TeV_powheg-pythia8/NANOAODSIM/tsg_130X_mcRun3_2023_realistic_postBPix_v6-v2/40000/7473571f-111a-4ffd-8c6a-b4bccce50604.root | (None) | ad:952d2296 | 57.658 MB  |          |
| cms:/store/mc/Run3Summer23BPixNanoAODv12/GluGlutoHHto4B_kl-1p00_kt-1p00_c2-0p00_TuneCP5_13p6TeV_powheg-pythia8/NANOAODSIM/tsg_130X_mcRun3_2023_realistic_postBPix_v6-v2/40000/c93b635d-02a0-45b9-9314-84e461b688ef.root | (None) | ad:1cbdf6ab | 11.177 MB  |          |
| cms:/store/mc/Run3Summer23BPixNanoAODv12/GluGlutoHHto4B_kl-1p00_kt-1p00_c2-0p00_TuneCP5_13p6TeV_powheg-pythia8/NANOAODSIM/tsg_130X_mcRun3_2023_realistic_postBPix_v6-v2/40000/2ec6939b-5baf-4334-b0fc-4235f3e9130c.root | (None) | ad:5e12284a | 24.563 MB  |          |
| cms:/store/mc/Run3Summer23BPixNanoAODv12/GluGlutoHHto4B_kl-1p00_kt-1p00_c2-0p00_TuneCP5_13p6TeV_powheg-pythia8/NANOAODSIM/tsg_130X_mcRun3_2023_realistic_postBPix_v6-v2/40000/0fec9e1a-adb3-4d6a-b3d5-4cab2425ac7e.root | (None) | ad:6e181e7d | 116.874 MB |          |
| cms:/store/mc/Run3Summer23BPixNanoAODv12/GluGlutoHHto4B_kl-1p00_kt-1p00_c2-0p00_TuneCP5_13p6TeV_powheg-pythia8/NANOAODSIM/tsg_130X_mcRun3_2023_realistic_postBPix_v6-v2/40000/83ee1dfd-4445-4c15-9d5e-5b4448853248.root | (None) | ad:c954f5b4 | 8.130 MB   |          |
| cms:/store/mc/Run3Summer23BPixNanoAODv12/GluGlutoHHto4B_kl-1p00_kt-1p00_c2-0p00_TuneCP5_13p6TeV_powheg-pythia8/NANOAODSIM/tsg_130X_mcRun3_2023_realistic_postBPix_v6-v2/40000/482db083-d7d5-413c-9a74-f3cab5abfe04.root | (None) | ad:056711da | 14.709 MB  |          |
| cms:/store/mc/Run3Summer23BPixNanoAODv12/GluGlutoHHto4B_kl-1p00_kt-1p00_c2-0p00_TuneCP5_13p6TeV_powheg-pythia8/NANOAODSIM/tsg_130X_mcRun3_2023_realistic_postBPix_v6-v2/40000/b3b8228a-406c-4cad-801e-785415e433f1.root | (None) | ad:1d2ab6da | 22.988 MB  |          |
| cms:/store/mc/Run3Summer23BPixNanoAODv12/GluGlutoHHto4B_kl-1p00_kt-1p00_c2-0p00_TuneCP5_13p6TeV_powheg-pythia8/NANOAODSIM/tsg_130X_mcRun3_2023_realistic_postBPix_v6-v2/40000/b363ee7c-9f64-4898-9e40-226bba83390e.root | (None) | ad:a5ce07aa | 4.503 MB   |          |
| cms:/store/mc/Run3Summer23BPixNanoAODv12/GluGlutoHHto4B_kl-1p00_kt-1p00_c2-0p00_TuneCP5_13p6TeV_powheg-pythia8/NANOAODSIM/tsg_130X_mcRun3_2023_realistic_postBPix_v6-v2/40000/42308970-cab1-4c2e-a931-a1167a3a3a2a.root | (None) | ad:2d6a9929 | 8.102 MB   |          |
| cms:/store/mc/Run3Summer23BPixNanoAODv12/GluGlutoHHto4B_kl-1p00_kt-1p00_c2-0p00_TuneCP5_13p6TeV_powheg-pythia8/NANOAODSIM/tsg_130X_mcRun3_2023_realistic_postBPix_v6-v2/40000/a9219496-91bd-4145-8987-0a6616e788d6.root | (None) | ad:8d777613 | 13.212 MB  |          |
| cms:/store/mc/Run3Summer23BPixNanoAODv12/GluGlutoHHto4B_kl-1p00_kt-1p00_c2-0p00_TuneCP5_13p6TeV_powheg-pythia8/NANOAODSIM/tsg_130X_mcRun3_2023_realistic_postBPix_v6-v2/40000/dadfeba5-fd3c-4e0c-9cc9-71eff2545b13.root | (None) | ad:6ba681c7 | 13.137 MB  |          |
| cms:/store/mc/Run3Summer23BPixNanoAODv12/GluGlutoHHto4B_kl-1p00_kt-1p00_c2-0p00_TuneCP5_13p6TeV_powheg-pythia8/NANOAODSIM/tsg_130X_mcRun3_2023_realistic_postBPix_v6-v2/40000/b98987f6-2e1a-4db0-be6b-65555200bd52.root | (None) | ad:026deaad | 156.576 MB |          |
| cms:/store/mc/Run3Summer23BPixNanoAODv12/GluGlutoHHto4B_kl-1p00_kt-1p00_c2-0p00_TuneCP5_13p6TeV_powheg-pythia8/NANOAODSIM/tsg_130X_mcRun3_2023_realistic_postBPix_v6-v2/40000/4eacc8ad-7688-4047-9eb1-204546fc9aae.root | (None) | ad:3168f8c9 | 39.575 MB  |          |
| cms:/store/mc/Run3Summer23BPixNanoAODv12/GluGlutoHHto4B_kl-1p00_kt-1p00_c2-0p00_TuneCP5_13p6TeV_powheg-pythia8/NANOAODSIM/tsg_130X_mcRun3_2023_realistic_postBPix_v6-v2/40000/98ad7a08-3095-4593-b4da-34d881b618c8.root | (None) | ad:ccaf0b4b | 4.506 MB   |          |
| cms:/store/mc/Run3Summer23BPixNanoAODv12/GluGlutoHHto4B_kl-1p00_kt-1p00_c2-0p00_TuneCP5_13p6TeV_powheg-pythia8/NANOAODSIM/tsg_130X_mcRun3_2023_realistic_postBPix_v6-v2/40000/d77a7de2-65e8-4848-8874-0d52a85c0d53.root | (None) | ad:1ca534a4 | 4.481 MB   |          |
| cms:/store/mc/Run3Summer23BPixNanoAODv12/GluGlutoHHto4B_kl-1p00_kt-1p00_c2-0p00_TuneCP5_13p6TeV_powheg-pythia8/NANOAODSIM/tsg_130X_mcRun3_2023_realistic_postBPix_v6-v2/40000/8805adb2-d433-4b16-9e16-0e2f387b61e7.root | (None) | ad:a9a54297 | 14.737 MB  |          |
| cms:/store/mc/Run3Summer23BPixNanoAODv12/GluGlutoHHto4B_kl-1p00_kt-1p00_c2-0p00_TuneCP5_13p6TeV_powheg-pythia8/NANOAODSIM/tsg_130X_mcRun3_2023_realistic_postBPix_v6-v2/40000/1d341d0a-266c-45c2-a5de-77f3dcb93e39.root | (None) | ad:ff42e917 | 41.031 MB  |          |
| cms:/store/mc/Run3Summer23BPixNanoAODv12/GluGlutoHHto4B_kl-1p00_kt-1p00_c2-0p00_TuneCP5_13p6TeV_powheg-pythia8/NANOAODSIM/tsg_130X_mcRun3_2023_realistic_postBPix_v6-v2/40000/ad0eb38a-06c2-4e3a-8c2b-093b4e5a890f.root | (None) | ad:456efb22 | 13.171 MB  |          |
| cms:/store/mc/Run3Summer23BPixNanoAODv12/GluGlutoHHto4B_kl-1p00_kt-1p00_c2-0p00_TuneCP5_13p6TeV_powheg-pythia8/NANOAODSIM/tsg_130X_mcRun3_2023_realistic_postBPix_v6-v2/40000/f743d672-768e-4c67-9ba1-1b4c077d7a63.root | (None) | ad:c192f58d | 8.077 MB   |          |
| cms:/store/mc/Run3Summer23BPixNanoAODv12/GluGlutoHHto4B_kl-1p00_kt-1p00_c2-0p00_TuneCP5_13p6TeV_powheg-pythia8/NANOAODSIM/tsg_130X_mcRun3_2023_realistic_postBPix_v6-v2/40000/9fa4f3fb-21da-4f2d-a840-228a8af63f49.root | (None) | ad:cea5b545 | 6.514 MB   |          |
| cms:/store/mc/Run3Summer23BPixNanoAODv12/GluGlutoHHto4B_kl-1p00_kt-1p00_c2-0p00_TuneCP5_13p6TeV_powheg-pythia8/NANOAODSIM/tsg_130X_mcRun3_2023_realistic_postBPix_v6-v2/40000/067ce611-051f-4de2-849f-8486772589b4.root | (None) | ad:f0a32aa9 | 4.523 MB   |          |
| cms:/store/mc/Run3Summer23BPixNanoAODv12/GluGlutoHHto4B_kl-1p00_kt-1p00_c2-0p00_TuneCP5_13p6TeV_powheg-pythia8/NANOAODSIM/tsg_130X_mcRun3_2023_realistic_postBPix_v6-v2/40000/b990b3a3-ce77-46a3-9670-84c68a3983d6.root | (None) | ad:5ca31b76 | 44.098 MB  |          |
| cms:/store/mc/Run3Summer23BPixNanoAODv12/GluGlutoHHto4B_kl-1p00_kt-1p00_c2-0p00_TuneCP5_13p6TeV_powheg-pythia8/NANOAODSIM/tsg_130X_mcRun3_2023_realistic_postBPix_v6-v2/40000/cecf1fbd-4032-4af1-b923-9db0a9b0ea97.root | (None) | ad:3af42fdf | 401.065 MB |          |
| cms:/store/mc/Run3Summer23BPixNanoAODv12/GluGlutoHHto4B_kl-1p00_kt-1p00_c2-0p00_TuneCP5_13p6TeV_powheg-pythia8/NANOAODSIM/tsg_130X_mcRun3_2023_realistic_postBPix_v6-v2/40000/13aed9b8-97cd-4b74-b718-6caca6ee36da.root | (None) | ad:e59adb3c | 4.514 MB   |          |
| cms:/store/mc/Run3Summer23BPixNanoAODv12/GluGlutoHHto4B_kl-1p00_kt-1p00_c2-0p00_TuneCP5_13p6TeV_powheg-pythia8/NANOAODSIM/tsg_130X_mcRun3_2023_realistic_postBPix_v6-v2/40000/0c300e19-ad7e-4a8a-b192-fbc8e6538086.root | (None) | ad:920ae9e6 | 6.532 MB   |          |
| cms:/store/mc/Run3Summer23BPixNanoAODv12/GluGlutoHHto4B_kl-1p00_kt-1p00_c2-0p00_TuneCP5_13p6TeV_powheg-pythia8/NANOAODSIM/tsg_130X_mcRun3_2023_realistic_postBPix_v6-v2/40000/56021ed4-0ea4-4d70-b120-907ea06de196.root | (None) | ad:42872b7a | 66.015 MB  |          |
| cms:/store/mc/Run3Summer23BPixNanoAODv12/GluGlutoHHto4B_kl-1p00_kt-1p00_c2-0p00_TuneCP5_13p6TeV_powheg-pythia8/NANOAODSIM/tsg_130X_mcRun3_2023_realistic_postBPix_v6-v2/40000/0a5f6add-48d9-4049-9ff8-435fa9ca10e2.root | (None) | ad:2dd950e9 | 9.621 MB   |          |
+-------------------------------------------------------------------------------------------------------------------------------------------------------------------------------------------------------------------------+--------+-------------+------------+----------+
Total files : 30
Total size : 1.158 GB
