+--------------------------------------------------------------------------------------------------------------------------------------------------------------------------------------------------------+--------+-------------+------------+----------+
| SCOPE:NAME                                                                                                                                                                                             | GUID   | ADLER32     | FILESIZE   | EVENTS   |
|--------------------------------------------------------------------------------------------------------------------------------------------------------------------------------------------------------+--------+-------------+------------+----------|
| cms:/store/mc/Run3Summer22NanoAODv12/GluGlutoHHto4B_kl-5p00_kt-1p00_c2-0p00_TuneCP5_13p6TeV_powheg-pythia8/NANOAODSIM/130X_mcRun3_2022_realistic_v5-v2/40000/847e7cbb-0f6c-4f7c-aa2a-2457479b11c3.root | (None) | ad:399a46d0 | 102.984 MB |          |
| cms:/store/mc/Run3Summer22NanoAODv12/GluGlutoHHto4B_kl-5p00_kt-1p00_c2-0p00_TuneCP5_13p6TeV_powheg-pythia8/NANOAODSIM/130X_mcRun3_2022_realistic_v5-v2/30000/7689b223-634a-4461-bd9b-29b5d12e9c12.root | (None) | ad:8f8ed9d4 | 92.607 MB  |          |
+--------------------------------------------------------------------------------------------------------------------------------------------------------------------------------------------------------+--------+-------------+------------+----------+
Total files : 2
Total size : 195.591 MB
