#/GluGluToHToZATo2L2B_MH-335p40_MA-82p14_tb-1p50_TuneCP5_13TeV-madgraph-pythia8/RunIISummer20UL18NanoAODv9-106X_upgrade2018_realistic_v16_L1v1-v1/NANOAODSIM
+----------------------------------------------------------------------------------------------------------------------------------------------------------------------------------------------------------------------------+--------+-------------+------------+----------+
| SCOPE:NAME                                                                                                                                                                                                                 | GUID   | ADLER32     | FILESIZE   | EVENTS   |
|----------------------------------------------------------------------------------------------------------------------------------------------------------------------------------------------------------------------------+--------+-------------+------------+----------|
| cms:/store/mc/RunIISummer20UL18NanoAODv9/GluGluToHToZATo2L2B_MH-335p40_MA-82p14_tb-1p50_TuneCP5_13TeV-madgraph-pythia8/NANOAODSIM/106X_upgrade2018_realistic_v16_L1v1-v1/2430000/56A2DE52-68E2-C646-843D-84F390B59018.root | (None) | ad:6cd6fdc2 | 9.336 MB   |          |
| cms:/store/mc/RunIISummer20UL18NanoAODv9/GluGluToHToZATo2L2B_MH-335p40_MA-82p14_tb-1p50_TuneCP5_13TeV-madgraph-pythia8/NANOAODSIM/106X_upgrade2018_realistic_v16_L1v1-v1/2430000/5D4E0886-06CD-054B-85CA-1C66B131BC09.root | (None) | ad:2cb4b95b | 9.319 MB   |          |
| cms:/store/mc/RunIISummer20UL18NanoAODv9/GluGluToHToZATo2L2B_MH-335p40_MA-82p14_tb-1p50_TuneCP5_13TeV-madgraph-pythia8/NANOAODSIM/106X_upgrade2018_realistic_v16_L1v1-v1/2430000/1D929C9B-33F2-5346-9E62-14418AC5CE6D.root | (None) | ad:424c66e0 | 9.353 MB   |          |
| cms:/store/mc/RunIISummer20UL18NanoAODv9/GluGluToHToZATo2L2B_MH-335p40_MA-82p14_tb-1p50_TuneCP5_13TeV-madgraph-pythia8/NANOAODSIM/106X_upgrade2018_realistic_v16_L1v1-v1/2430000/25DA7568-358E-6F42-8880-B64DE2DFDA74.root | (None) | ad:41ffaf8f | 9.318 MB   |          |
| cms:/store/mc/RunIISummer20UL18NanoAODv9/GluGluToHToZATo2L2B_MH-335p40_MA-82p14_tb-1p50_TuneCP5_13TeV-madgraph-pythia8/NANOAODSIM/106X_upgrade2018_realistic_v16_L1v1-v1/2430000/8EDE1920-2263-004F-B7A4-AD43FC1B25E5.root | (None) | ad:0a3adc88 | 9.317 MB   |          |
| cms:/store/mc/RunIISummer20UL18NanoAODv9/GluGluToHToZATo2L2B_MH-335p40_MA-82p14_tb-1p50_TuneCP5_13TeV-madgraph-pythia8/NANOAODSIM/106X_upgrade2018_realistic_v16_L1v1-v1/2430000/7652E6C3-991A-7342-B4BE-665C3F6D0572.root | (None) | ad:06105822 | 9.309 MB   |          |
| cms:/store/mc/RunIISummer20UL18NanoAODv9/GluGluToHToZATo2L2B_MH-335p40_MA-82p14_tb-1p50_TuneCP5_13TeV-madgraph-pythia8/NANOAODSIM/106X_upgrade2018_realistic_v16_L1v1-v1/2430000/507A2E16-82DE-BD4F-8067-576FB6F19334.root | (None) | ad:a1bcbedd | 27.812 MB  |          |
+----------------------------------------------------------------------------------------------------------------------------------------------------------------------------------------------------------------------------+--------+-------------+------------+----------+
Total files : 7
Total size : 83.763 MB
