{
    "cms:/store/mc/Run3Summer22NanoAODv12/GluGlutoBulkGravitontoHHto4B_M-4000_narrow_TuneCP5_13p6TeV_madgraph-pythia8/NANOAODSIM/130X_mcRun3_2022_realistic_v5-v3/50000/c0d9c66c-ba1b-4e9d-83bc-2721a4d56db7.root": [
        "T1_US_FNAL_Disk: davs://cmsdcadisk.fnal.gov:2880/dcache/uscmsdisk/store/mc/Run3Summer22NanoAODv12/GluGlutoBulkGravitontoHHto4B_M-4000_narrow_TuneCP5_13p6TeV_madgraph-pythia8/NANOAODSIM/130X_mcRun3_2022_realistic_v5-v3/50000/c0d9c66c-ba1b-4e9d-83bc-2721a4d56db7.root",
        "T2_FR_IPHC: davs://sbgdcache.in2p3.fr:443/cms/phedex/store/mc/Run3Summer22NanoAODv12/GluGlutoBulkGravitontoHHto4B_M-4000_narrow_TuneCP5_13p6TeV_madgraph-pythia8/NANOAODSIM/130X_mcRun3_2022_realistic_v5-v3/50000/c0d9c66c-ba1b-4e9d-83bc-2721a4d56db7.root",
        "T2_RU_IHEP: davs://dp0015.m45.ihep.su:2880/pnfs/m45.ihep.su/data/cms/store/mc/Run3Summer22NanoAODv12/GluGlutoBulkGravitontoHHto4B_M-4000_narrow_TuneCP5_13p6TeV_madgraph-pythia8/NANOAODSIM/130X_mcRun3_2022_realistic_v5-v3/50000/c0d9c66c-ba1b-4e9d-83bc-2721a4d56db7.root",
        "T2_US_Vanderbilt: davs://xrootd-vanderbilt.sites.opensciencegrid.org:1094/store/mc/Run3Summer22NanoAODv12/GluGlutoBulkGravitontoHHto4B_M-4000_narrow_TuneCP5_13p6TeV_madgraph-pythia8/NANOAODSIM/130X_mcRun3_2022_realistic_v5-v3/50000/c0d9c66c-ba1b-4e9d-83bc-2721a4d56db7.root",
        "T1_UK_RAL_Disk: davs://rdr.echo.stfc.ac.uk:1094/store/mc/Run3Summer22NanoAODv12/GluGlutoBulkGravitontoHHto4B_M-4000_narrow_TuneCP5_13p6TeV_madgraph-pythia8/NANOAODSIM/130X_mcRun3_2022_realistic_v5-v3/50000/c0d9c66c-ba1b-4e9d-83bc-2721a4d56db7.root",
        "T2_ES_CIEMAT: davs://srm.ciemat.es:2880/pnfs/ciemat.es/data/cms/prod/store/mc/Run3Summer22NanoAODv12/GluGlutoBulkGravitontoHHto4B_M-4000_narrow_TuneCP5_13p6TeV_madgraph-pythia8/NANOAODSIM/130X_mcRun3_2022_realistic_v5-v3/50000/c0d9c66c-ba1b-4e9d-83bc-2721a4d56db7.root",
        "T0_CH_CERN_Tape: davs://eosctacms.cern.ch:8444//eos/ctacms/archive/cms/store/mc/Run3Summer22NanoAODv12/GluGlutoBulkGravitontoHHto4B_M-4000_narrow_TuneCP5_13p6TeV_madgraph-pythia8/NANOAODSIM/130X_mcRun3_2022_realistic_v5-v3/50000/c0d9c66c-ba1b-4e9d-83bc-2721a4d56db7.root"
    ]
}