{
    "cms:/store/mc/Run3Summer22NanoAODv12/GluGlutoBulkGravitontoHHto4B_M-250_narrow_TuneCP5_13p6TeV_madgraph-pythia8/NANOAODSIM/130X_mcRun3_2022_realistic_v5-v3/50000/82cbd812-bdbe-4c19-8757-744531464b72.root": [
        "T1_US_FNAL_Disk: davs://cmsdcadisk.fnal.gov:2880/dcache/uscmsdisk/store/mc/Run3Summer22NanoAODv12/GluGlutoBulkGravitontoHHto4B_M-250_narrow_TuneCP5_13p6TeV_madgraph-pythia8/NANOAODSIM/130X_mcRun3_2022_realistic_v5-v3/50000/82cbd812-bdbe-4c19-8757-744531464b72.root",
        "T2_CH_CSCS: davs://storage01.lcg.cscs.ch:2880/pnfs/lcg.cscs.ch/cms/trivcat/store/mc/Run3Summer22NanoAODv12/GluGlutoBulkGravitontoHHto4B_M-250_narrow_TuneCP5_13p6TeV_madgraph-pythia8/NANOAODSIM/130X_mcRun3_2022_realistic_v5-v3/50000/82cbd812-bdbe-4c19-8757-744531464b72.root",
        "T2_US_UCSD: davs://redirector.t2.ucsd.edu:1095/store/mc/Run3Summer22NanoAODv12/GluGlutoBulkGravitontoHHto4B_M-250_narrow_TuneCP5_13p6TeV_madgraph-pythia8/NANOAODSIM/130X_mcRun3_2022_realistic_v5-v3/50000/82cbd812-bdbe-4c19-8757-744531464b72.root",
        "T1_IT_CNAF_Tape: davs://xfer-cms.cr.cnaf.infn.it:8443/cmstape/store/mc/Run3Summer22NanoAODv12/GluGlutoBulkGravitontoHHto4B_M-250_narrow_TuneCP5_13p6TeV_madgraph-pythia8/NANOAODSIM/130X_mcRun3_2022_realistic_v5-v3/50000/82cbd812-bdbe-4c19-8757-744531464b72.root",
        "T2_IT_Rome: davs://cmsrm-xrootd01.roma1.infn.it:2880//mc/Run3Summer22NanoAODv12/GluGlutoBulkGravitontoHHto4B_M-250_narrow_TuneCP5_13p6TeV_madgraph-pythia8/NANOAODSIM/130X_mcRun3_2022_realistic_v5-v3/50000/82cbd812-bdbe-4c19-8757-744531464b72.root",
        "T1_IT_CNAF_Disk: davs://xfer-cms.cr.cnaf.infn.it:8443/cmsdisk/store/mc/Run3Summer22NanoAODv12/GluGlutoBulkGravitontoHHto4B_M-250_narrow_TuneCP5_13p6TeV_madgraph-pythia8/NANOAODSIM/130X_mcRun3_2022_realistic_v5-v3/50000/82cbd812-bdbe-4c19-8757-744531464b72.root",
        "T2_IN_TIFR: davs://se01.indiacms.res.in:443/dpm/indiacms.res.in/home/cms/store/mc/Run3Summer22NanoAODv12/GluGlutoBulkGravitontoHHto4B_M-250_narrow_TuneCP5_13p6TeV_madgraph-pythia8/NANOAODSIM/130X_mcRun3_2022_realistic_v5-v3/50000/82cbd812-bdbe-4c19-8757-744531464b72.root"
    ]
}