+-------------------------------------------------------------------------------------------------------------------------------------------------------------------------------------------------------------------------+--------+-------------+------------+----------+
| SCOPE:NAME                                                                                                                                                                                                              | GUID   | ADLER32     | FILESIZE   | EVENTS   |
|-------------------------------------------------------------------------------------------------------------------------------------------------------------------------------------------------------------------------+--------+-------------+------------+----------|
| cms:/store/mc/Run3Summer22EENanoAODv12/GluGlutoBulkGravitontoHHto4B_M-5000_narrow_TuneCP5_13p6TeV_madgraph-pythia8/NANOAODSIM/130X_mcRun3_2022_realistic_postEE_v6-v3/2550000/77485292-8373-4669-9dd4-c4baf2be91a0.root | (None) | ad:d47f7984 | 4.732 MB   |          |
| cms:/store/mc/Run3Summer22EENanoAODv12/GluGlutoBulkGravitontoHHto4B_M-5000_narrow_TuneCP5_13p6TeV_madgraph-pythia8/NANOAODSIM/130X_mcRun3_2022_realistic_postEE_v6-v3/2550000/f12de278-40a1-41ba-b35a-5207d11b4972.root | (None) | ad:0762d8a2 | 8.786 MB   |          |
| cms:/store/mc/Run3Summer22EENanoAODv12/GluGlutoBulkGravitontoHHto4B_M-5000_narrow_TuneCP5_13p6TeV_madgraph-pythia8/NANOAODSIM/130X_mcRun3_2022_realistic_postEE_v6-v3/2550000/ea83ecaa-1b53-4300-a166-eee45d94c174.root | (None) | ad:e0a839e4 | 19.916 MB  |          |
| cms:/store/mc/Run3Summer22EENanoAODv12/GluGlutoBulkGravitontoHHto4B_M-5000_narrow_TuneCP5_13p6TeV_madgraph-pythia8/NANOAODSIM/130X_mcRun3_2022_realistic_postEE_v6-v3/2550000/9c3507fe-fb12-4cb8-8aa3-5be50ce7e807.root | (None) | ad:9be76b42 | 7.003 MB   |          |
| cms:/store/mc/Run3Summer22EENanoAODv12/GluGlutoBulkGravitontoHHto4B_M-5000_narrow_TuneCP5_13p6TeV_madgraph-pythia8/NANOAODSIM/130X_mcRun3_2022_realistic_postEE_v6-v3/2550000/20a84540-52b3-4cf7-bff2-5fd3bec3b38f.root | (None) | ad:96ed8d5c | 46.193 MB  |          |
| cms:/store/mc/Run3Summer22EENanoAODv12/GluGlutoBulkGravitontoHHto4B_M-5000_narrow_TuneCP5_13p6TeV_madgraph-pythia8/NANOAODSIM/130X_mcRun3_2022_realistic_postEE_v6-v3/2550000/3563bffe-758f-43ac-92bd-039fda956315.root | (None) | ad:f8e4ab08 | 8.854 MB   |          |
| cms:/store/mc/Run3Summer22EENanoAODv12/GluGlutoBulkGravitontoHHto4B_M-5000_narrow_TuneCP5_13p6TeV_madgraph-pythia8/NANOAODSIM/130X_mcRun3_2022_realistic_postEE_v6-v3/2550000/0f5e1a38-502a-4147-b7ca-af5e46be798b.root | (None) | ad:2c0e016f | 76.228 MB  |          |
| cms:/store/mc/Run3Summer22EENanoAODv12/GluGlutoBulkGravitontoHHto4B_M-5000_narrow_TuneCP5_13p6TeV_madgraph-pythia8/NANOAODSIM/130X_mcRun3_2022_realistic_postEE_v6-v3/2550000/e6000110-6a46-44ae-a2f8-9cfc00c2aa6e.root | (None) | ad:7eed3705 | 6.994 MB   |          |
| cms:/store/mc/Run3Summer22EENanoAODv12/GluGlutoBulkGravitontoHHto4B_M-5000_narrow_TuneCP5_13p6TeV_madgraph-pythia8/NANOAODSIM/130X_mcRun3_2022_realistic_postEE_v6-v3/2550000/1f6fa821-9a7d-425a-8e95-7f1afde35064.root | (None) | ad:e4fc17a7 | 4.717 MB   |          |
| cms:/store/mc/Run3Summer22EENanoAODv12/GluGlutoBulkGravitontoHHto4B_M-5000_narrow_TuneCP5_13p6TeV_madgraph-pythia8/NANOAODSIM/130X_mcRun3_2022_realistic_postEE_v6-v3/2550000/95e40798-89d6-4f4d-9523-84c012c30fd7.root | (None) | ad:3fd97d6f | 4.732 MB   |          |
| cms:/store/mc/Run3Summer22EENanoAODv12/GluGlutoBulkGravitontoHHto4B_M-5000_narrow_TuneCP5_13p6TeV_madgraph-pythia8/NANOAODSIM/130X_mcRun3_2022_realistic_postEE_v6-v3/2550000/5a2d13f9-ee0a-4730-829b-5c8c4e54a9f7.root | (None) | ad:d938471f | 4.734 MB   |          |
| cms:/store/mc/Run3Summer22EENanoAODv12/GluGlutoBulkGravitontoHHto4B_M-5000_narrow_TuneCP5_13p6TeV_madgraph-pythia8/NANOAODSIM/130X_mcRun3_2022_realistic_postEE_v6-v3/2550000/ea3167f4-c607-4cf7-8b54-8bf7afd73e69.root | (None) | ad:969f242c | 4.727 MB   |          |
| cms:/store/mc/Run3Summer22EENanoAODv12/GluGlutoBulkGravitontoHHto4B_M-5000_narrow_TuneCP5_13p6TeV_madgraph-pythia8/NANOAODSIM/130X_mcRun3_2022_realistic_postEE_v6-v3/2550000/9244246e-52ca-4911-ac09-31aee60799a0.root | (None) | ad:f1d929fd | 85.501 MB  |          |
| cms:/store/mc/Run3Summer22EENanoAODv12/GluGlutoBulkGravitontoHHto4B_M-5000_narrow_TuneCP5_13p6TeV_madgraph-pythia8/NANOAODSIM/130X_mcRun3_2022_realistic_postEE_v6-v3/2550000/2697c32b-9788-4389-ba35-5f32be34c4a7.root | (None) | ad:50e3c9e4 | 4.705 MB   |          |
| cms:/store/mc/Run3Summer22EENanoAODv12/GluGlutoBulkGravitontoHHto4B_M-5000_narrow_TuneCP5_13p6TeV_madgraph-pythia8/NANOAODSIM/130X_mcRun3_2022_realistic_postEE_v6-v3/2550000/ae614494-fef3-4fe9-9d79-845eb29e9f96.root | (None) | ad:5b11f6d7 | 3.183 MB   |          |
+-------------------------------------------------------------------------------------------------------------------------------------------------------------------------------------------------------------------------+--------+-------------+------------+----------+
Total files : 15
Total size : 291.004 MB
