+-------------------------------------------------------------------------------------------------------------+--------+-------------+------------+----------+
| SCOPE:NAME                                                                                                  | GUID   | ADLER32     | FILESIZE   | EVENTS   |
|-------------------------------------------------------------------------------------------------------------+--------+-------------+------------+----------|
| cms:/store/data/Run2023C/JetMET0/NANOAOD/22Sep2023_v4-v1/30000/39652d19-fbb7-47a9-84c5-6266880dad30.root    | (None) | ad:8da76cec | 39.776 MB  |          |
| cms:/store/data/Run2023C/JetMET0/NANOAOD/22Sep2023_v4-v1/30000/77ff6dab-65e7-4dfe-b9e4-87288f33d418.root    | (None) | ad:d8c5aaae | 1.240 GB   |          |
| cms:/store/data/Run2023C/JetMET0/NANOAOD/22Sep2023_v4-v1/30000/95d44ad8-a982-454e-85f1-cede2e29120a.root    | (None) | ad:f009f18e | 1.249 GB   |          |
| cms:/store/data/Run2023C/JetMET0/NANOAOD/22Sep2023_v4-v1/30000/d066e8dc-7088-4b5e-8fe2-6639dc0aff3f.root    | (None) | ad:144f6afb | 939.638 MB |          |
| cms:/store/data/Run2023C/JetMET0/NANOAOD/22Sep2023_v4-v1/50000/9779960a-e69d-46dc-ae80-80981ceb4776.root    | (None) | ad:dcd2af7e | 182.486 MB |          |
| cms:/store/data/Run2023C/JetMET0/NANOAOD/22Sep2023_v4-v1/30000/0039d2b2-2d35-47eb-be59-2661609e6ab8.root    | (None) | ad:fa1dc3a4 | 976.765 MB |          |
| cms:/store/data/Run2023C/JetMET0/NANOAOD/22Sep2023_v4-v1/30000/09fc71e5-302c-40ef-87dc-68cdaea6ce5e.root    | (None) | ad:6de6e5b7 | 491.071 MB |          |
| cms:/store/data/Run2023C/JetMET0/NANOAOD/22Sep2023_v4-v1/30000/54461588-a21c-4920-976f-552daa22d300.root    | (None) | ad:6b56d698 | 1.128 GB   |          |
| cms:/store/data/Run2023C/JetMET0/NANOAOD/22Sep2023_v4-v1/30000/7a7c83b4-c288-400c-abc2-ad0c5f48dde9.root    | (None) | ad:3d38620b | 1.242 GB   |          |
| cms:/store/data/Run2023C/JetMET0/NANOAOD/22Sep2023_v4-v1/30000/f448e2fd-b6af-46d5-9641-469acbe11a6c.root    | (None) | ad:1258ac8e | 1.024 GB   |          |
| cms:/store/data/Run2023C/JetMET0/NANOAOD/22Sep2023_v4-v1/2540000/000ddcf4-658b-42c8-a742-bbcf7060f1ab.root  | (None) | ad:f385b0f9 | 819.488 MB |          |
| cms:/store/data/Run2023C/JetMET0/NANOAOD/22Sep2023_v4-v1/2540000/50ec2079-573b-4bee-b93d-5d5aeb9731b5.root  | (None) | ad:0827848a | 986.320 MB |          |
| cms:/store/data/Run2023C/JetMET0/NANOAOD/22Sep2023_v4-v1/2540000/cc701dc9-f0f8-42dd-a57f-abd330da1e41.root  | (None) | ad:9c9c112f | 32.932 MB  |          |
| cms:/store/data/Run2023C/JetMET0/NANOAOD/22Sep2023_v4-v1/30000/3e1f73e4-c91a-4090-b6d1-dae2cc3a571f.root    | (None) | ad:88df1c1d | 991.047 MB |          |
| cms:/store/data/Run2023C/JetMET0/NANOAOD/22Sep2023_v4-v1/30000/3e66edc2-861d-412f-9219-acdced4ce464.root    | (None) | ad:a9402727 | 214.396 MB |          |
| cms:/store/data/Run2023C/JetMET0/NANOAOD/22Sep2023_v4-v1/30000/5320c3e3-cca1-47b8-84bd-1ff36d3de103.root    | (None) | ad:64ec50bb | 1.581 GB   |          |
| cms:/store/data/Run2023C/JetMET0/NANOAOD/22Sep2023_v4-v1/30000/7eeed125-8a39-4f15-87f1-253491cdbbe3.root    | (None) | ad:093f848b | 1.011 GB   |          |
| cms:/store/data/Run2023C/JetMET0/NANOAOD/22Sep2023_v4-v1/30000/87ab5402-368f-435c-a679-0ad7fab69eca.root    | (None) | ad:3e26ec78 | 1.034 GB   |          |
| cms:/store/data/Run2023C/JetMET0/NANOAOD/22Sep2023_v4-v1/30000/8f2e6996-faca-4ff2-be70-20100eee5bc0.root    | (None) | ad:9af025ee | 1.767 GB   |          |
| cms:/store/data/Run2023C/JetMET0/NANOAOD/22Sep2023_v4-v1/30000/b4b80fc5-1a40-4dfb-8264-ab39ce1104c4.root    | (None) | ad:02b773ce | 1.552 GB   |          |
| cms:/store/data/Run2023C/JetMET0/NANOAOD/22Sep2023_v4-v1/30000/bd3b9ea6-5722-4ba2-9dc8-28f61a831d53.root    | (None) | ad:bdfe36b0 | 992.311 MB |          |
| cms:/store/data/Run2023C/JetMET0/NANOAOD/22Sep2023_v4-v1/30000/d3de0a26-cdf5-4bd5-b14a-4bdb1295497c.root    | (None) | ad:b43744d0 | 1.173 GB   |          |
| cms:/store/data/Run2023C/JetMET0/NANOAOD/22Sep2023_v4-v1/30000/e3b95bd1-212e-4c31-86d3-cfb458846406.root    | (None) | ad:32e6c8b7 | 1.126 GB   |          |
| cms:/store/data/Run2023C/JetMET0/NANOAOD/22Sep2023_v4-v1/30000/f351a049-dacb-4a6f-8811-1553a9e902a9.root    | (None) | ad:a266b09a | 1.004 GB   |          |
| cms:/store/data/Run2023C/JetMET0/NANOAOD/22Sep2023_v4-v1/30000/fb066937-3afe-417f-aabe-727b99c463e1.root    | (None) | ad:5e820be4 | 1.231 GB   |          |
| cms:/store/data/Run2023C/JetMET0/NANOAOD/22Sep2023_v4-v1/40000/189f1e63-f122-46c8-855e-9e92b1061369.root    | (None) | ad:1ece0dde | 985.454 MB |          |
| cms:/store/data/Run2023C/JetMET0/NANOAOD/22Sep2023_v4-v1/40000/2d2533a1-3ac4-473c-9282-7125c4ad23ec.root    | (None) | ad:2f2069da | 1.578 GB   |          |
| cms:/store/data/Run2023C/JetMET0/NANOAOD/22Sep2023_v4-v1/40000/3ca8738e-49a0-4c18-8fe6-fc1771c15fd1.root    | (None) | ad:30e8fc0f | 311.968 MB |          |
| cms:/store/data/Run2023C/JetMET0/NANOAOD/22Sep2023_v4-v1/40000/5095825f-ed93-45ea-8cef-dd598f0aab4d.root    | (None) | ad:006c72ef | 1.193 GB   |          |
| cms:/store/data/Run2023C/JetMET0/NANOAOD/22Sep2023_v4-v1/40000/a2fc824d-91ba-41b9-b96a-70face3d4265.root    | (None) | ad:17ffdfb2 | 1.514 GB   |          |
| cms:/store/data/Run2023C/JetMET0/NANOAOD/22Sep2023_v4-v1/30000/5ed62da7-634d-400a-98eb-d8be2847607d.root    | (None) | ad:c7d593be | 1.193 GB   |          |
| cms:/store/data/Run2023C/JetMET0/NANOAOD/22Sep2023_v4-v1/30000/6af14f14-6314-473f-8fef-509a6b0bbefa.root    | (None) | ad:66863b35 | 562.993 MB |          |
| cms:/store/data/Run2023C/JetMET0/NANOAOD/22Sep2023_v4-v1/30000/71333c5f-fccc-4553-8e24-b347ff92b0dd.root    | (None) | ad:7d38cf54 | 1.049 GB   |          |
| cms:/store/data/Run2023C/JetMET0/NANOAOD/22Sep2023_v4-v1/30000/829b6818-4dbc-4bd4-8f72-f7855ea234d2.root    | (None) | ad:f374829d | 853.282 MB |          |
| cms:/store/data/Run2023C/JetMET0/NANOAOD/22Sep2023_v4-v1/30000/87a0b505-ceed-4fc9-9d35-dcf780b0b1d5.root    | (None) | ad:5e6a4d96 | 980.591 MB |          |
| cms:/store/data/Run2023C/JetMET0/NANOAOD/22Sep2023_v4-v1/30000/9fe3fbfa-5e5b-4317-acb3-ada3a2d64138.root    | (None) | ad:140c5c03 | 1.007 GB   |          |
| cms:/store/data/Run2023C/JetMET0/NANOAOD/22Sep2023_v4-v1/30000/e1a53334-8183-4458-a499-1677db9c5838.root    | (None) | ad:99087282 | 1.396 GB   |          |
| cms:/store/data/Run2023C/JetMET0/NANOAOD/22Sep2023_v4-v1/30000/e5a208ed-554b-49c1-8264-2fbf7afb7985.root    | (None) | ad:86ec0f0d | 1.222 GB   |          |
| cms:/store/data/Run2023C/JetMET0/NANOAOD/22Sep2023_v4-v1/30000/fa2130b1-4632-4b18-9105-ca5397e8715f.root    | (None) | ad:c6b486ef | 1.769 GB   |          |
| cms:/store/data/Run2023C/JetMET0/NANOAOD/22Sep2023_v4-v1/40000/00178097-3ab8-45f6-ad95-92894d2f3a34.root    | (None) | ad:6f0ce777 | 1.888 GB   |          |
| cms:/store/data/Run2023C/JetMET0/NANOAOD/22Sep2023_v4-v1/40000/173c57a3-5f42-441c-95b6-f75bb20f8963.root    | (None) | ad:2602a797 | 1.855 GB   |          |
| cms:/store/data/Run2023C/JetMET0/NANOAOD/22Sep2023_v4-v1/40000/3a353381-65b4-4bbb-8fc6-8c6af2d3f578.root    | (None) | ad:3843e2f7 | 1.403 GB   |          |
| cms:/store/data/Run2023C/JetMET0/NANOAOD/22Sep2023_v4-v1/40000/4cb41ffe-a150-4085-aba9-1701f6a29a3a.root    | (None) | ad:a7cb53e4 | 1.671 GB   |          |
| cms:/store/data/Run2023C/JetMET0/NANOAOD/22Sep2023_v4-v1/40000/722003a8-1601-4ebc-b6bc-60bc17b4e190.root    | (None) | ad:4a08f217 | 1.368 GB   |          |
| cms:/store/data/Run2023C/JetMET0/NANOAOD/22Sep2023_v4-v1/40000/99cf097c-e1bd-4ff3-bbf8-2f958cb0bdde.root    | (None) | ad:dd950565 | 1.102 GB   |          |
| cms:/store/data/Run2023C/JetMET0/NANOAOD/22Sep2023_v4-v1/40000/bb527a50-d736-4e90-b458-a5da87c33fbc.root    | (None) | ad:274d3ed8 | 1.900 GB   |          |
| cms:/store/data/Run2023C/JetMET0/NANOAOD/22Sep2023_v4-v1/40000/de28e3bc-3417-45b5-961c-ead7fb0f590c.root    | (None) | ad:3e54fcf6 | 1.427 GB   |          |
| cms:/store/data/Run2023C/JetMET0/NANOAOD/22Sep2023_v4-v1/40000/e2b17554-8bff-4c75-8c1b-ba80bb67f033.root    | (None) | ad:ab7e789e | 1.100 GB   |          |
| cms:/store/data/Run2023C/JetMET0/NANOAOD/22Sep2023_v4-v1/40000/ee953984-28b2-4345-b451-d73e8a29aba3.root    | (None) | ad:1bfdbae0 | 836.316 MB |          |
| cms:/store/data/Run2023C/JetMET0/NANOAOD/22Sep2023_v4-v1/40000/016f0d61-99b1-4681-a8ae-a2337677069e.root    | (None) | ad:feb33122 | 1.090 GB   |          |
| cms:/store/data/Run2023C/JetMET0/NANOAOD/22Sep2023_v4-v1/40000/126d65f5-458c-4bdd-92fa-5b767e40be6a.root    | (None) | ad:f8b85a82 | 1.062 GB   |          |
| cms:/store/data/Run2023C/JetMET0/NANOAOD/22Sep2023_v4-v1/40000/34efc180-ef28-4031-b5fe-11ceca0b1f08.root    | (None) | ad:a3d66c35 | 1.182 GB   |          |
| cms:/store/data/Run2023C/JetMET0/NANOAOD/22Sep2023_v4-v1/40000/36d47266-1ab2-45b7-bd06-1bce5ba68fd8.root    | (None) | ad:08c8e3b6 | 955.158 MB |          |
| cms:/store/data/Run2023C/JetMET0/NANOAOD/22Sep2023_v4-v1/40000/43311e9f-aff8-4c3e-95a3-d3afa65d5434.root    | (None) | ad:1ea9eb29 | 990.101 MB |          |
| cms:/store/data/Run2023C/JetMET0/NANOAOD/22Sep2023_v4-v1/40000/5f2daa15-1486-4650-b7d5-b04bed01e4f0.root    | (None) | ad:9747496b | 1.027 GB   |          |
| cms:/store/data/Run2023C/JetMET0/NANOAOD/22Sep2023_v4-v1/40000/8dba646f-22b7-4eb4-ba09-35cb9153a640.root    | (None) | ad:3a084ebf | 1.900 GB   |          |
| cms:/store/data/Run2023C/JetMET0/NANOAOD/22Sep2023_v4-v1/40000/9e8fa8fa-e4fd-47b4-8a9c-e774a5117f4a.root    | (None) | ad:fbacbaf1 | 1.399 GB   |          |
| cms:/store/data/Run2023C/JetMET0/NANOAOD/22Sep2023_v4-v1/40000/a46a7741-384d-474a-ad9a-b873a56496ee.root    | (None) | ad:3ba87e0e | 1.049 GB   |          |
| cms:/store/data/Run2023C/JetMET0/NANOAOD/22Sep2023_v4-v1/40000/ac3ea564-7455-425b-ae3e-3626f7a33b9d.root    | (None) | ad:874081f0 | 1.299 GB   |          |
| cms:/store/data/Run2023C/JetMET0/NANOAOD/22Sep2023_v4-v1/40000/b8b6c437-f74d-4db9-aff2-f2d0e8cb317e.root    | (None) | ad:213f8f8c | 1.050 GB   |          |
| cms:/store/data/Run2023C/JetMET0/NANOAOD/22Sep2023_v4-v1/40000/de3c3520-b3ea-4d54-a32b-672f2fbe5caf.root    | (None) | ad:78274d30 | 1.917 GB   |          |
| cms:/store/data/Run2023C/JetMET0/NANOAOD/22Sep2023_v4-v1/40000/deeb97e2-db20-4cb7-86e2-b768b2f8eb98.root    | (None) | ad:e5fc9068 | 1.917 GB   |          |
| cms:/store/data/Run2023C/JetMET0/NANOAOD/22Sep2023_v4-v1/40000/f3c27ffe-a6c7-4349-8fb6-792743fc2428.root    | (None) | ad:a19a1714 | 1.093 GB   |          |
| cms:/store/data/Run2023C/JetMET0/NANOAOD/22Sep2023_v4-v1/40000/fafa1b13-be1e-4f6d-87f6-064aae779e0b.root    | (None) | ad:27de4d1c | 145.923 MB |          |
| cms:/store/data/Run2023C/JetMET0/NANOAOD/22Sep2023_v4-v1/50000/5609372b-690e-4d01-8ed2-4f34792f1283.root    | (None) | ad:b333ebc8 | 963.312 MB |          |
| cms:/store/data/Run2023C/JetMET0/NANOAOD/22Sep2023_v4-v1/50000/bebc88d3-f283-4292-a129-770317738f43.root    | (None) | ad:7b6ed1aa | 1.008 GB   |          |
| cms:/store/data/Run2023C/JetMET0/NANOAOD/22Sep2023_v4-v1/30000/3e74cdb5-9735-4d28-9e31-09b4710dcfcd.root    | (None) | ad:a083aa6e | 961.240 MB |          |
| cms:/store/data/Run2023C/JetMET0/NANOAOD/22Sep2023_v4-v1/30000/870ba9a0-3e52-4583-9e56-287aee40f34e.root    | (None) | ad:9d2933fd | 1.039 GB   |          |
| cms:/store/data/Run2023C/JetMET0/NANOAOD/22Sep2023_v4-v1/30000/ae49f591-bf08-4e4d-8861-f7458a22f11c.root    | (None) | ad:ebd8061c | 689.505 MB |          |
| cms:/store/data/Run2023C/JetMET0/NANOAOD/22Sep2023_v4-v1/30000/f001052a-99c2-4460-94e1-6044ee280d1e.root    | (None) | ad:24cf9bee | 1.119 GB   |          |
| cms:/store/data/Run2023C/JetMET0/NANOAOD/22Sep2023_v4-v1/25410000/1f858d53-5fb4-497f-bd83-8bd5dcd1c199.root | (None) | ad:3e8ad3f9 | 114.793 MB |          |
| cms:/store/data/Run2023C/JetMET0/NANOAOD/22Sep2023_v4-v1/50000/21f80494-f3c3-4047-8a3f-f3358609b14a.root    | (None) | ad:4b6a8bb0 | 136.781 MB |          |
| cms:/store/data/Run2023C/JetMET0/NANOAOD/22Sep2023_v4-v1/50000/2bee452c-c342-44be-a783-59b23d271e55.root    | (None) | ad:11702f83 | 923.334 MB |          |
| cms:/store/data/Run2023C/JetMET0/NANOAOD/22Sep2023_v4-v1/40000/02fd6c21-4017-43b7-aac2-3f563bc732e1.root    | (None) | ad:5ff49661 | 1.395 GB   |          |
| cms:/store/data/Run2023C/JetMET0/NANOAOD/22Sep2023_v4-v1/40000/29467739-e5d5-4f4a-bc93-53921ff58078.root    | (None) | ad:7dc25bc3 | 1.057 GB   |          |
| cms:/store/data/Run2023C/JetMET0/NANOAOD/22Sep2023_v4-v1/40000/4d56da58-a2f6-4aff-88b1-e646a0197ff9.root    | (None) | ad:c9a15c09 | 999.316 MB |          |
| cms:/store/data/Run2023C/JetMET0/NANOAOD/22Sep2023_v4-v1/40000/c305f5da-328e-4a7e-88d6-332f1544a60c.root    | (None) | ad:affe6fee | 958.100 MB |          |
| cms:/store/data/Run2023C/JetMET0/NANOAOD/22Sep2023_v4-v1/40000/e041142a-ed97-4072-9c97-70e6ce83eebb.root    | (None) | ad:efa50900 | 835.669 MB |          |
| cms:/store/data/Run2023C/JetMET0/NANOAOD/22Sep2023_v4-v1/50000/9fa9826b-c238-4a9e-8ac9-db5298f99485.root    | (None) | ad:21bf313f | 74.859 MB  |          |
| cms:/store/data/Run2023C/JetMET0/NANOAOD/22Sep2023_v4-v1/40000/0502bc95-2033-42f0-a0f5-3bfabec69dd9.root    | (None) | ad:67759328 | 1.718 GB   |          |
| cms:/store/data/Run2023C/JetMET0/NANOAOD/22Sep2023_v4-v1/40000/086203b4-ef99-458f-a1af-5af62816b408.root    | (None) | ad:b450ab32 | 1.049 GB   |          |
| cms:/store/data/Run2023C/JetMET0/NANOAOD/22Sep2023_v4-v1/40000/0e25577d-2d78-44a0-8b01-b5ccb6ca5663.root    | (None) | ad:e3a70501 | 1.885 GB   |          |
| cms:/store/data/Run2023C/JetMET0/NANOAOD/22Sep2023_v4-v1/40000/25541ff9-fb7e-402b-9c81-2b0e17573a27.root    | (None) | ad:7455863e | 1.440 GB   |          |
| cms:/store/data/Run2023C/JetMET0/NANOAOD/22Sep2023_v4-v1/40000/353e57d7-1fbd-44eb-b931-244a41eb4b49.root    | (None) | ad:3875feb9 | 1.886 GB   |          |
| cms:/store/data/Run2023C/JetMET0/NANOAOD/22Sep2023_v4-v1/40000/44cb9006-3b2e-4534-8d7a-3d7d01012033.root    | (None) | ad:37a7152e | 1.875 GB   |          |
| cms:/store/data/Run2023C/JetMET0/NANOAOD/22Sep2023_v4-v1/40000/617e6ca6-b00b-40e5-9cc2-0ed03df1b961.root    | (None) | ad:2dc19f94 | 1.416 GB   |          |
| cms:/store/data/Run2023C/JetMET0/NANOAOD/22Sep2023_v4-v1/40000/63234a23-866e-4fd8-b297-5ca67dbf7ee6.root    | (None) | ad:1ad0c51d | 1.697 GB   |          |
| cms:/store/data/Run2023C/JetMET0/NANOAOD/22Sep2023_v4-v1/40000/64564c75-cf50-47b8-b98c-c6c7c46b27c1.root    | (None) | ad:c1165975 | 1.541 GB   |          |
| cms:/store/data/Run2023C/JetMET0/NANOAOD/22Sep2023_v4-v1/40000/7c69b272-f0e5-4b4c-acc5-355b909d30d5.root    | (None) | ad:645d0d55 | 1.903 GB   |          |
| cms:/store/data/Run2023C/JetMET0/NANOAOD/22Sep2023_v4-v1/40000/9021b4b2-1b65-416c-b10a-08948acc558a.root    | (None) | ad:67770aad | 1.201 GB   |          |
| cms:/store/data/Run2023C/JetMET0/NANOAOD/22Sep2023_v4-v1/40000/93ed7a60-cce2-4fee-9cdd-8b395cd01f2b.root    | (None) | ad:ebe3235f | 1.025 GB   |          |
| cms:/store/data/Run2023C/JetMET0/NANOAOD/22Sep2023_v4-v1/40000/9770539c-7fa7-436c-ad50-02dff610e435.root    | (None) | ad:e689580c | 1.859 GB   |          |
| cms:/store/data/Run2023C/JetMET0/NANOAOD/22Sep2023_v4-v1/40000/9cec931d-9070-43d2-bfe9-83e455b700d5.root    | (None) | ad:0ac3e8b2 | 986.929 MB |          |
| cms:/store/data/Run2023C/JetMET0/NANOAOD/22Sep2023_v4-v1/40000/b8dbbcc9-a9b0-4389-9ef0-c58f767f688c.root    | (None) | ad:afdb9117 | 1.827 GB   |          |
| cms:/store/data/Run2023C/JetMET0/NANOAOD/22Sep2023_v4-v1/40000/d08e5648-3c5d-4fc0-97c2-c59eebcc7cdd.root    | (None) | ad:e3415f48 | 1.393 GB   |          |
| cms:/store/data/Run2023C/JetMET0/NANOAOD/22Sep2023_v4-v1/40000/d5111545-a7f0-4522-9efe-8b28b230794e.root    | (None) | ad:ac8092ed | 312.669 MB |          |
| cms:/store/data/Run2023C/JetMET0/NANOAOD/22Sep2023_v4-v1/40000/e31f8e22-8464-422b-b25f-b54c827dfde9.root    | (None) | ad:f2cd1b3b | 1.318 GB   |          |
| cms:/store/data/Run2023C/JetMET0/NANOAOD/22Sep2023_v4-v1/40000/e56a631a-d660-4437-8367-2c8e41d8e2e1.root    | (None) | ad:bb704705 | 1.414 GB   |          |
| cms:/store/data/Run2023C/JetMET0/NANOAOD/22Sep2023_v4-v1/40000/f2110088-6430-49dd-bbb3-7dec1d1df2cb.root    | (None) | ad:68c3c6cd | 1.298 GB   |          |
| cms:/store/data/Run2023C/JetMET0/NANOAOD/22Sep2023_v4-v1/40000/fc456efe-fd28-4b23-8886-cd5c9032f282.root    | (None) | ad:46da7bb0 | 1.239 GB   |          |
| cms:/store/data/Run2023C/JetMET0/NANOAOD/22Sep2023_v4-v1/50000/14e7d363-7a5f-4048-bdc6-eca00dbd3184.root    | (None) | ad:bbf9bd2e | 139.559 MB |          |
| cms:/store/data/Run2023C/JetMET0/NANOAOD/22Sep2023_v4-v1/50000/213627e2-e6c1-4788-8fc6-1665830e4aa8.root    | (None) | ad:0c763e25 | 437.647 MB |          |
| cms:/store/data/Run2023C/JetMET0/NANOAOD/22Sep2023_v4-v1/50000/5757a1a2-100f-4f46-b904-a0f3a2568778.root    | (None) | ad:6b0cfe39 | 1.331 GB   |          |
| cms:/store/data/Run2023C/JetMET0/NANOAOD/22Sep2023_v4-v1/50000/5241726e-299f-44d0-9a6a-db6bdbadd775.root    | (None) | ad:e0f002e5 | 654.304 MB |          |
| cms:/store/data/Run2023C/JetMET0/NANOAOD/22Sep2023_v4-v1/40000/441d86b6-c057-45b3-9569-68a0fa699de6.root    | (None) | ad:596d7683 | 973.184 MB |          |
| cms:/store/data/Run2023C/JetMET0/NANOAOD/22Sep2023_v4-v1/40000/4a2f1ca2-0971-44e7-ac1c-077a482ece2a.root    | (None) | ad:b4d97adb | 772.417 MB |          |
| cms:/store/data/Run2023C/JetMET0/NANOAOD/22Sep2023_v4-v1/40000/672ffbd1-b6c0-4468-8091-4fc250c43584.root    | (None) | ad:e8830956 | 355.420 MB |          |
| cms:/store/data/Run2023C/JetMET0/NANOAOD/22Sep2023_v4-v1/40000/f23df36d-3178-45fe-a6a3-969ae8ba9550.root    | (None) | ad:4651d994 | 1.010 GB   |          |
| cms:/store/data/Run2023C/JetMET0/NANOAOD/22Sep2023_v4-v1/40000/a05df004-e129-4965-a6cc-2473b72603d6.root    | (None) | ad:5e2eafd4 | 419.972 MB |          |
| cms:/store/data/Run2023C/JetMET0/NANOAOD/22Sep2023_v4-v1/50000/65b290a5-b339-44f8-8873-8ac66af624de.root    | (None) | ad:aa520e89 | 975.679 MB |          |
| cms:/store/data/Run2023C/JetMET0/NANOAOD/22Sep2023_v4-v1/50000/d51332d6-a125-40cc-84f9-84f12df9d0e1.root    | (None) | ad:6c7ddd1a | 322.146 MB |          |
| cms:/store/data/Run2023C/JetMET0/NANOAOD/22Sep2023_v4-v1/30000/1169b3fd-8935-4eff-816d-2121036ca2df.root    | (None) | ad:9c1057e3 | 933.707 MB |          |
| cms:/store/data/Run2023C/JetMET0/NANOAOD/22Sep2023_v4-v1/30000/3fc3efaa-7bf8-4f73-b1b9-ca450c7c2907.root    | (None) | ad:639c8444 | 357.720 MB |          |
| cms:/store/data/Run2023C/JetMET0/NANOAOD/22Sep2023_v4-v1/30000/6ed7e5ae-20fb-43d3-8a71-0a2615457ad2.root    | (None) | ad:30e25fcf | 796.528 MB |          |
| cms:/store/data/Run2023C/JetMET0/NANOAOD/22Sep2023_v4-v1/30000/89db2729-c432-4869-b4ca-86fd7c438225.root    | (None) | ad:0b31dd22 | 962.552 MB |          |
| cms:/store/data/Run2023C/JetMET0/NANOAOD/22Sep2023_v4-v1/30000/b8d0ebd1-9a30-4092-84a2-b936d2ac3655.root    | (None) | ad:bd2758ae | 246.749 MB |          |
| cms:/store/data/Run2023C/JetMET0/NANOAOD/22Sep2023_v4-v1/50000/2dd6d630-277c-497e-a374-7854031e4b69.root    | (None) | ad:ba17c53c | 1.124 GB   |          |
| cms:/store/data/Run2023C/JetMET0/NANOAOD/22Sep2023_v4-v1/50000/6f77d31c-9800-4b6e-a219-d88f64ecdcd6.root    | (None) | ad:6acbe17c | 1.261 GB   |          |
| cms:/store/data/Run2023C/JetMET0/NANOAOD/22Sep2023_v4-v1/50000/b5ca694c-e682-4ac1-8e32-76858486b057.root    | (None) | ad:250e61f0 | 1.030 GB   |          |
| cms:/store/data/Run2023C/JetMET0/NANOAOD/22Sep2023_v4-v1/50000/cf09f604-b959-4a88-9fe2-72dd205500b0.root    | (None) | ad:0cf41886 | 978.831 MB |          |
| cms:/store/data/Run2023C/JetMET0/NANOAOD/22Sep2023_v4-v1/40000/675f52c6-4d68-43cc-b40a-92e3cb145c4b.root    | (None) | ad:9d94e225 | 1.033 GB   |          |
| cms:/store/data/Run2023C/JetMET0/NANOAOD/22Sep2023_v4-v1/40000/8a27d999-b632-4944-a321-5731eaf005c8.root    | (None) | ad:7e8f8c50 | 39.109 MB  |          |
| cms:/store/data/Run2023C/JetMET0/NANOAOD/22Sep2023_v4-v1/40000/a8842e76-e965-4a9b-9405-469e7f3dd47b.root    | (None) | ad:92857571 | 1.087 GB   |          |
| cms:/store/data/Run2023C/JetMET0/NANOAOD/22Sep2023_v4-v1/40000/f40110dc-841b-486c-b44c-2bb22a9e839a.root    | (None) | ad:072f04ac | 1.248 GB   |          |
| cms:/store/data/Run2023C/JetMET0/NANOAOD/22Sep2023_v4-v1/40000/fddb0a1c-48f1-48ad-b50d-57b78ddf025c.root    | (None) | ad:7d36b1d1 | 785.610 MB |          |
+-------------------------------------------------------------------------------------------------------------+--------+-------------+------------+----------+
Total files : 125
Total size : 134.106 GB
