+-------------------------------------------------------------------------------------------------------------+--------+-------------+------------+----------+
| SCOPE:NAME                                                                                                  | GUID   | ADLER32     | FILESIZE   | EVENTS   |
|-------------------------------------------------------------------------------------------------------------+--------+-------------+------------+----------|
| cms:/store/data/Run2023D/JetMET1/NANOAOD/22Sep2023_v1-v1/40000/9267d092-1e88-4fe6-acac-041b870499b3.root    | (None) | ad:fa360c3d | 872.420 MB |          |
| cms:/store/data/Run2023D/JetMET1/NANOAOD/22Sep2023_v1-v1/40000/d733c257-92f3-4f5c-9154-1b3e3a45a89f.root    | (None) | ad:a9ca964a | 1.231 GB   |          |
| cms:/store/data/Run2023D/JetMET1/NANOAOD/22Sep2023_v1-v1/40000/daab2206-f0c4-4789-afdb-9277f8a5a3d2.root    | (None) | ad:18df3fa7 | 950.594 MB |          |
| cms:/store/data/Run2023D/JetMET1/NANOAOD/22Sep2023_v1-v1/40000/dca10c09-b4a4-414a-8668-f8d9b6a304a8.root    | (None) | ad:97db44e8 | 1.229 GB   |          |
| cms:/store/data/Run2023D/JetMET1/NANOAOD/22Sep2023_v1-v1/2540000/1753fd82-54ba-4d7e-9181-214bca771101.root  | (None) | ad:96980325 | 580.753 MB |          |
| cms:/store/data/Run2023D/JetMET1/NANOAOD/22Sep2023_v1-v1/2540000/0137c4fc-1f9e-4c8a-818e-d5b5e46852f8.root  | (None) | ad:0c741c29 | 38.377 MB  |          |
| cms:/store/data/Run2023D/JetMET1/NANOAOD/22Sep2023_v1-v1/2540000/da3d075c-23dc-4ca5-8bb8-4be3337a6cbd.root  | (None) | ad:505c5800 | 872.814 MB |          |
| cms:/store/data/Run2023D/JetMET1/NANOAOD/22Sep2023_v1-v1/2540000/1b0e5358-6ea6-4e70-883e-a8a741be5baa.root  | (None) | ad:cc966ecb | 669.969 MB |          |
| cms:/store/data/Run2023D/JetMET1/NANOAOD/22Sep2023_v1-v1/2540000/a4d41387-1353-4cce-92c2-1d81c6937cd4.root  | (None) | ad:45a13bd0 | 995.146 MB |          |
| cms:/store/data/Run2023D/JetMET1/NANOAOD/22Sep2023_v1-v1/2540000/9725aa65-b843-4995-89b9-93aa5340ad34.root  | (None) | ad:a8f15630 | 281.347 MB |          |
| cms:/store/data/Run2023D/JetMET1/NANOAOD/22Sep2023_v1-v1/40000/b15b2c96-5d15-4465-a57b-5a2736404fbd.root    | (None) | ad:7faddaac | 210.909 MB |          |
| cms:/store/data/Run2023D/JetMET1/NANOAOD/22Sep2023_v1-v1/40000/df5e5663-ad05-467b-9659-a8f02681946b.root    | (None) | ad:8ee9615f | 1.035 GB   |          |
| cms:/store/data/Run2023D/JetMET1/NANOAOD/22Sep2023_v1-v1/25410000/c1b8d568-d449-4dff-b754-1b9da32030c2.root | (None) | ad:1def7e97 | 950.620 MB |          |
| cms:/store/data/Run2023D/JetMET1/NANOAOD/22Sep2023_v1-v1/40000/0112c331-71f1-471b-a3e0-4fcd3a237121.root    | (None) | ad:2985792a | 1.099 GB   |          |
| cms:/store/data/Run2023D/JetMET1/NANOAOD/22Sep2023_v1-v1/40000/17c470f3-f73b-4f65-99b6-b4c3fbce4aa4.root    | (None) | ad:35b25ce0 | 410.459 MB |          |
| cms:/store/data/Run2023D/JetMET1/NANOAOD/22Sep2023_v1-v1/40000/227353da-22b5-4bd4-a7d2-a19a7125439f.root    | (None) | ad:94237c95 | 1.089 GB   |          |
| cms:/store/data/Run2023D/JetMET1/NANOAOD/22Sep2023_v1-v1/40000/41c77b2b-9bf2-42b4-bc4a-c65f70d70d7d.root    | (None) | ad:c928ae14 | 935.257 MB |          |
| cms:/store/data/Run2023D/JetMET1/NANOAOD/22Sep2023_v1-v1/40000/85b19a89-02b8-4044-919d-07c03dea2660.root    | (None) | ad:e9271e39 | 1.073 GB   |          |
| cms:/store/data/Run2023D/JetMET1/NANOAOD/22Sep2023_v1-v1/40000/fa45f78f-905b-486f-9dff-f1822ab2e708.root    | (None) | ad:a222713a | 1.141 GB   |          |
| cms:/store/data/Run2023D/JetMET1/NANOAOD/22Sep2023_v1-v1/50000/b2809b70-4da8-4fca-8aef-a98be685bb26.root    | (None) | ad:07ae1a8e | 183.420 MB |          |
| cms:/store/data/Run2023D/JetMET1/NANOAOD/22Sep2023_v1-v1/2540000/262fd5dc-90c1-4181-834c-acd5b4182db3.root  | (None) | ad:fa86727c | 242.264 MB |          |
| cms:/store/data/Run2023D/JetMET1/NANOAOD/22Sep2023_v1-v1/2540000/2a1070ac-14fd-4a89-9a22-9ab500ad31a9.root  | (None) | ad:80310db8 | 166.462 MB |          |
| cms:/store/data/Run2023D/JetMET1/NANOAOD/22Sep2023_v1-v1/30000/52c8bd46-62ad-44c6-9c27-cdc02e1f0df6.root    | (None) | ad:4327beab | 641.451 MB |          |
| cms:/store/data/Run2023D/JetMET1/NANOAOD/22Sep2023_v1-v1/2540000/0772b1f1-3901-4b4f-a102-ca7a2c36af1e.root  | (None) | ad:c0ce2d18 | 36.737 MB  |          |
| cms:/store/data/Run2023D/JetMET1/NANOAOD/22Sep2023_v1-v1/2540000/215d9034-e456-43f5-b334-afb4942c9e58.root  | (None) | ad:47225b4e | 1.112 GB   |          |
| cms:/store/data/Run2023D/JetMET1/NANOAOD/22Sep2023_v1-v1/2540000/87e786f3-869f-468d-b8c4-ec39fec24912.root  | (None) | ad:0cfbfe02 | 963.878 MB |          |
| cms:/store/data/Run2023D/JetMET1/NANOAOD/22Sep2023_v1-v1/2540000/f9b5dc2d-d799-47c9-8698-0d2f0f2abc3d.root  | (None) | ad:7223cd48 | 953.617 MB |          |
| cms:/store/data/Run2023D/JetMET1/NANOAOD/22Sep2023_v1-v1/30000/3fcc4383-a283-415d-ab88-a0f2ad200de1.root    | (None) | ad:5eb209d3 | 1.106 GB   |          |
| cms:/store/data/Run2023D/JetMET1/NANOAOD/22Sep2023_v1-v1/30000/43d51c10-4875-4016-a2e7-51fb7c5c10dd.root    | (None) | ad:fc53cd29 | 904.664 MB |          |
| cms:/store/data/Run2023D/JetMET1/NANOAOD/22Sep2023_v1-v1/30000/b219a529-36ae-4453-802d-1e1934fbb6ad.root    | (None) | ad:99b5c6c8 | 869.900 MB |          |
| cms:/store/data/Run2023D/JetMET1/NANOAOD/22Sep2023_v1-v1/30000/d41faab4-8a54-4b9c-a1e4-4ddb985af032.root    | (None) | ad:8bfd3a93 | 1.142 GB   |          |
| cms:/store/data/Run2023D/JetMET1/NANOAOD/22Sep2023_v1-v1/40000/a4870523-169f-4db7-be24-a07bae167b64.root    | (None) | ad:244ccd9b | 36.265 MB  |          |
| cms:/store/data/Run2023D/JetMET1/NANOAOD/22Sep2023_v1-v1/50000/50ca5c08-5953-4fe3-afdf-e2a002225a41.root    | (None) | ad:16a06b40 | 155.847 MB |          |
| cms:/store/data/Run2023D/JetMET1/NANOAOD/22Sep2023_v1-v1/40000/2d3ae551-47a2-4d00-a59d-93fd6bdb2ba1.root    | (None) | ad:23c8512b | 1.258 GB   |          |
| cms:/store/data/Run2023D/JetMET1/NANOAOD/22Sep2023_v1-v1/40000/2df0fd53-d299-4753-8f1e-568be995971b.root    | (None) | ad:99a72868 | 1.285 GB   |          |
| cms:/store/data/Run2023D/JetMET1/NANOAOD/22Sep2023_v1-v1/40000/2f729f2a-67ce-4f0e-856f-4c7f6c3746fe.root    | (None) | ad:af28b99f | 1.880 GB   |          |
| cms:/store/data/Run2023D/JetMET1/NANOAOD/22Sep2023_v1-v1/40000/985d9a44-5d6f-4ea2-8558-080288801b66.root    | (None) | ad:c14dbbb9 | 986.927 MB |          |
| cms:/store/data/Run2023D/JetMET1/NANOAOD/22Sep2023_v1-v1/40000/b051c1c0-3790-4a65-bacf-ff929e7b37ef.root    | (None) | ad:7d8a09d3 | 1.699 GB   |          |
| cms:/store/data/Run2023D/JetMET1/NANOAOD/22Sep2023_v1-v1/40000/c30b7a49-89b8-40fd-a0cd-9738ccab0bf1.root    | (None) | ad:63c216f1 | 738.640 MB |          |
| cms:/store/data/Run2023D/JetMET1/NANOAOD/22Sep2023_v1-v1/40000/ffdf0262-2cf9-4848-9373-6259b14e254e.root    | (None) | ad:130189be | 1.315 GB   |          |
| cms:/store/data/Run2023D/JetMET1/NANOAOD/22Sep2023_v1-v1/30000/552b6b7e-8a40-4ba3-8c72-f97d5bbee4f7.root    | (None) | ad:be421ee1 | 1.054 GB   |          |
| cms:/store/data/Run2023D/JetMET1/NANOAOD/22Sep2023_v1-v1/30000/bbb8689e-a696-43d8-826e-284556797395.root    | (None) | ad:b596ca7e | 682.291 MB |          |
| cms:/store/data/Run2023D/JetMET1/NANOAOD/22Sep2023_v1-v1/2540000/385b9e1f-d18d-46d9-8834-227cc1284def.root  | (None) | ad:fbd1cbe4 | 986.985 MB |          |
| cms:/store/data/Run2023D/JetMET1/NANOAOD/22Sep2023_v1-v1/2540000/8fbfde00-b3c7-4110-88e3-48a9750772f6.root  | (None) | ad:4ed89dc3 | 949.401 MB |          |
| cms:/store/data/Run2023D/JetMET1/NANOAOD/22Sep2023_v1-v1/2540000/b5b2fa79-422e-4777-950f-ed7912fc9e35.root  | (None) | ad:88a6cac4 | 537.333 MB |          |
| cms:/store/data/Run2023D/JetMET1/NANOAOD/22Sep2023_v1-v1/2540000/c15eefb5-b86a-4e2e-9799-65c01a052f66.root  | (None) | ad:27b53d6b | 948.458 MB |          |
| cms:/store/data/Run2023D/JetMET1/NANOAOD/22Sep2023_v1-v1/40000/010293ac-ef9e-4ef4-8f8d-ed2250a9c7b8.root    | (None) | ad:5eaeeed6 | 1.364 GB   |          |
| cms:/store/data/Run2023D/JetMET1/NANOAOD/22Sep2023_v1-v1/40000/13a8bf55-c01f-4378-ac9b-a98e61ff35b0.root    | (None) | ad:4ccc9552 | 1.583 GB   |          |
| cms:/store/data/Run2023D/JetMET1/NANOAOD/22Sep2023_v1-v1/40000/1f78fcce-9a0d-476e-b401-70923306deaa.root    | (None) | ad:a9341102 | 958.461 MB |          |
| cms:/store/data/Run2023D/JetMET1/NANOAOD/22Sep2023_v1-v1/40000/7c1fc1d9-50b6-414b-9936-20ee697d31a4.root    | (None) | ad:2f4deff2 | 1.056 GB   |          |
| cms:/store/data/Run2023D/JetMET1/NANOAOD/22Sep2023_v1-v1/40000/88644119-2871-43bb-ae69-d5610ac7398e.root    | (None) | ad:a39bf889 | 1.195 GB   |          |
| cms:/store/data/Run2023D/JetMET1/NANOAOD/22Sep2023_v1-v1/40000/91a906ac-b17a-449f-909e-314f33d44212.root    | (None) | ad:032b8be1 | 464.517 MB |          |
| cms:/store/data/Run2023D/JetMET1/NANOAOD/22Sep2023_v1-v1/40000/9b103652-f9b9-43fe-95c9-725ebcde9334.root    | (None) | ad:691ba5eb | 1.029 GB   |          |
| cms:/store/data/Run2023D/JetMET1/NANOAOD/22Sep2023_v1-v1/40000/a829d6f7-63e6-443c-9a68-e14a3d2f6543.root    | (None) | ad:36573421 | 1.104 GB   |          |
| cms:/store/data/Run2023D/JetMET1/NANOAOD/22Sep2023_v1-v1/40000/dfe7e999-66a7-4026-b6c9-df9ee0720488.root    | (None) | ad:803e2bca | 978.332 MB |          |
| cms:/store/data/Run2023D/JetMET1/NANOAOD/22Sep2023_v1-v1/50000/3ed3eaa5-126b-4f25-9938-df01a33cf952.root    | (None) | ad:4a2d1343 | 259.328 MB |          |
| cms:/store/data/Run2023D/JetMET1/NANOAOD/22Sep2023_v1-v1/50000/c2c788d7-0ffd-492a-b7f3-4139ec3f7ab6.root    | (None) | ad:2e9e5dc2 | 1.126 GB   |          |
| cms:/store/data/Run2023D/JetMET1/NANOAOD/22Sep2023_v1-v1/30000/91ebb7a2-a81c-4841-8713-08bd871ebbe5.root    | (None) | ad:c8aeab92 | 1.008 GB   |          |
| cms:/store/data/Run2023D/JetMET1/NANOAOD/22Sep2023_v1-v1/30000/e78213ed-03ba-4108-9743-c885b8f28563.root    | (None) | ad:9dc9147a | 773.799 MB |          |
| cms:/store/data/Run2023D/JetMET1/NANOAOD/22Sep2023_v1-v1/30000/8feaa256-2c77-400e-847d-481514f29c30.root    | (None) | ad:032e1333 | 347.099 MB |          |
| cms:/store/data/Run2023D/JetMET1/NANOAOD/22Sep2023_v1-v1/50000/98819f55-aa65-4820-91b8-4f5baa7cf9f1.root    | (None) | ad:68437f90 | 33.516 MB  |          |
| cms:/store/data/Run2023D/JetMET1/NANOAOD/22Sep2023_v1-v1/40000/2e5d0362-4f6c-4f47-9509-f848d58a2074.root    | (None) | ad:47361d6d | 1.826 GB   |          |
| cms:/store/data/Run2023D/JetMET1/NANOAOD/22Sep2023_v1-v1/40000/4d347833-977f-458a-ba60-39d33c173344.root    | (None) | ad:08ace754 | 1.157 GB   |          |
| cms:/store/data/Run2023D/JetMET1/NANOAOD/22Sep2023_v1-v1/40000/8365c134-d2d8-4c11-b5b4-cfaa52fd6c8a.root    | (None) | ad:e6b343de | 1.013 GB   |          |
| cms:/store/data/Run2023D/JetMET1/NANOAOD/22Sep2023_v1-v1/40000/8af40ca7-afd2-45e3-9906-ed43c31b19d5.root    | (None) | ad:55c0c80f | 751.957 MB |          |
| cms:/store/data/Run2023D/JetMET1/NANOAOD/22Sep2023_v1-v1/40000/b12741d1-8cc9-4f73-8608-656392178d28.root    | (None) | ad:d4fed683 | 1.732 GB   |          |
| cms:/store/data/Run2023D/JetMET1/NANOAOD/22Sep2023_v1-v1/40000/d36c1ae9-63fc-4ea4-b6b2-628ec912a295.root    | (None) | ad:b73596f5 | 1.586 GB   |          |
| cms:/store/data/Run2023D/JetMET1/NANOAOD/22Sep2023_v1-v1/50000/3076a97e-8073-4467-9bbf-f9ac2bbb4e03.root    | (None) | ad:f082e2f7 | 822.695 MB |          |
| cms:/store/data/Run2023D/JetMET1/NANOAOD/22Sep2023_v1-v1/30000/2fcfb609-dc12-46e8-8149-22c3935501c9.root    | (None) | ad:52082d3e | 806.927 MB |          |
| cms:/store/data/Run2023D/JetMET1/NANOAOD/22Sep2023_v1-v1/30000/64059ad0-5a03-433d-adef-9d667d3b570f.root    | (None) | ad:241ecf38 | 1.337 GB   |          |
| cms:/store/data/Run2023D/JetMET1/NANOAOD/22Sep2023_v1-v1/30000/b11b07de-1c06-4204-958d-219d8042b63a.root    | (None) | ad:679a8ab4 | 1.792 GB   |          |
| cms:/store/data/Run2023D/JetMET1/NANOAOD/22Sep2023_v1-v1/30000/e6276291-376c-4f88-aaa8-37a4b394b48a.root    | (None) | ad:e9da4d7b | 1.649 GB   |          |
| cms:/store/data/Run2023D/JetMET1/NANOAOD/22Sep2023_v1-v1/30000/fc5db550-4757-4788-ba53-c5c9bafccde4.root    | (None) | ad:6da9341b | 1.175 GB   |          |
| cms:/store/data/Run2023D/JetMET1/NANOAOD/22Sep2023_v1-v1/40000/68fe943d-57c1-4638-b7ea-b353387c49b8.root    | (None) | ad:a1fe2a67 | 1.289 GB   |          |
| cms:/store/data/Run2023D/JetMET1/NANOAOD/22Sep2023_v1-v1/40000/97a11306-9a95-4def-9c83-c8bc248c8ac4.root    | (None) | ad:0e00af55 | 922.159 MB |          |
| cms:/store/data/Run2023D/JetMET1/NANOAOD/22Sep2023_v1-v1/30000/7aa6b2bf-4d9d-4b1c-b709-6dda1990c998.root    | (None) | ad:6272ebbf | 847.711 MB |          |
| cms:/store/data/Run2023D/JetMET1/NANOAOD/22Sep2023_v1-v1/2540000/1432d037-de87-4417-b6ba-23b3be521ddc.root  | (None) | ad:2fb765f9 | 1.024 GB   |          |
| cms:/store/data/Run2023D/JetMET1/NANOAOD/22Sep2023_v1-v1/2540000/3f670b88-9208-4831-87f8-6c56cd99931c.root  | (None) | ad:8337049b | 1.194 GB   |          |
| cms:/store/data/Run2023D/JetMET1/NANOAOD/22Sep2023_v1-v1/2540000/da416e8d-e962-40b4-9a60-f6c0d0d03066.root  | (None) | ad:75bb7803 | 950.286 MB |          |
| cms:/store/data/Run2023D/JetMET1/NANOAOD/22Sep2023_v1-v1/2540000/f2a1a675-e8cd-4466-bb82-3de05c7b61c4.root  | (None) | ad:7ff19d74 | 716.864 MB |          |
+-------------------------------------------------------------------------------------------------------------+--------+-------------+------------+----------+
Total files : 80
Total size : 74.376 GB
