+-----------------------------------------------------------------------------------------------------------+--------+-------------+------------+----------+
| SCOPE:NAME                                                                                                | GUID   | ADLER32     | FILESIZE   | EVENTS   |
|-----------------------------------------------------------------------------------------------------------+--------+-------------+------------+----------|
| cms:/store/data/Run2023C/JetMET1/NANOAOD/22Sep2023_v4-v1/40000/694cf21d-44df-4d2f-a099-5a1a65a26042.root  | (None) | ad:7ce83f32 | 926.965 MB |          |
| cms:/store/data/Run2023C/JetMET1/NANOAOD/22Sep2023_v4-v1/30000/5f589819-c9c7-4603-85ed-b1f0fdab9a37.root  | (None) | ad:5a501683 | 1.064 GB   |          |
| cms:/store/data/Run2023C/JetMET1/NANOAOD/22Sep2023_v4-v1/30000/75a5c405-7eae-4df3-8d07-82259f78da24.root  | (None) | ad:ba5da67c | 630.068 MB |          |
| cms:/store/data/Run2023C/JetMET1/NANOAOD/22Sep2023_v4-v1/30000/a15364c8-66f3-4293-a897-69a47e1eeaf5.root  | (None) | ad:ca76e35a | 1.004 GB   |          |
| cms:/store/data/Run2023C/JetMET1/NANOAOD/22Sep2023_v4-v1/30000/1d8f08be-a7d3-4103-8062-ee31280b0be4.root  | (None) | ad:643639e1 | 1.114 GB   |          |
| cms:/store/data/Run2023C/JetMET1/NANOAOD/22Sep2023_v4-v1/30000/2817b061-ab7f-41bc-babe-7be89427f501.root  | (None) | ad:ea4d95bc | 1.492 GB   |          |
| cms:/store/data/Run2023C/JetMET1/NANOAOD/22Sep2023_v4-v1/30000/7765c302-2d69-4f08-a581-9411b750f04f.root  | (None) | ad:61b82af6 | 977.780 MB |          |
| cms:/store/data/Run2023C/JetMET1/NANOAOD/22Sep2023_v4-v1/30000/834e64b9-1908-49ea-b584-6855d16edf10.root  | (None) | ad:8418fa51 | 1.199 GB   |          |
| cms:/store/data/Run2023C/JetMET1/NANOAOD/22Sep2023_v4-v1/30000/86bfab16-7e08-436b-b8b7-79901b26ace3.root  | (None) | ad:5a644170 | 1.402 GB   |          |
| cms:/store/data/Run2023C/JetMET1/NANOAOD/22Sep2023_v4-v1/30000/96fa3b27-0f72-4c33-8d57-12232e050def.root  | (None) | ad:0523e78e | 1.127 GB   |          |
| cms:/store/data/Run2023C/JetMET1/NANOAOD/22Sep2023_v4-v1/30000/b924715e-0236-4385-b2d3-7aaac70587d1.root  | (None) | ad:2b5d8969 | 891.731 MB |          |
| cms:/store/data/Run2023C/JetMET1/NANOAOD/22Sep2023_v4-v1/30000/c2d901c8-d01e-4d70-9098-058c794b1ffc.root  | (None) | ad:e9debbb1 | 285.220 MB |          |
| cms:/store/data/Run2023C/JetMET1/NANOAOD/22Sep2023_v4-v1/50000/3e1ae761-ebe1-4954-ba49-223cf274d4dd.root  | (None) | ad:d9483aaf | 345.517 MB |          |
| cms:/store/data/Run2023C/JetMET1/NANOAOD/22Sep2023_v4-v1/50000/4472f369-adb4-488d-a396-9836c96676be.root  | (None) | ad:e68cbf40 | 963.603 MB |          |
| cms:/store/data/Run2023C/JetMET1/NANOAOD/22Sep2023_v4-v1/50000/5e0b7169-4a06-4c9d-9864-e8fdbdaeeef5.root  | (None) | ad:43263709 | 999.538 MB |          |
| cms:/store/data/Run2023C/JetMET1/NANOAOD/22Sep2023_v4-v1/50000/9f800991-7a58-4064-9055-0c75c61e56ec.root  | (None) | ad:ae02e541 | 1.151 GB   |          |
| cms:/store/data/Run2023C/JetMET1/NANOAOD/22Sep2023_v4-v1/50000/a318f6b8-6210-42af-85f4-b954976f3c96.root  | (None) | ad:9c034099 | 1.544 GB   |          |
| cms:/store/data/Run2023C/JetMET1/NANOAOD/22Sep2023_v4-v1/50000/a64becd2-5671-4448-a9f8-97bcd8700fd4.root  | (None) | ad:7835c49a | 1.015 GB   |          |
| cms:/store/data/Run2023C/JetMET1/NANOAOD/22Sep2023_v4-v1/50000/a9fcf724-8b00-4ab2-ab6b-37b6cf560f9a.root  | (None) | ad:2e943d45 | 1.034 GB   |          |
| cms:/store/data/Run2023C/JetMET1/NANOAOD/22Sep2023_v4-v1/50000/bf8921c9-c46e-4ba5-ad2f-6c2bfade9530.root  | (None) | ad:7b794181 | 1.260 GB   |          |
| cms:/store/data/Run2023C/JetMET1/NANOAOD/22Sep2023_v4-v1/50000/d0a22c38-0d73-4fae-aa82-6fd39c10c624.root  | (None) | ad:5d29f168 | 1.015 GB   |          |
| cms:/store/data/Run2023C/JetMET1/NANOAOD/22Sep2023_v4-v1/40000/6b6ec35e-98a5-47d4-bb4c-17ef1ba8db02.root  | (None) | ad:bf466ae0 | 879.062 MB |          |
| cms:/store/data/Run2023C/JetMET1/NANOAOD/22Sep2023_v4-v1/40000/8c631ed6-1afb-4bfe-8be7-71be6cb66fb2.root  | (None) | ad:f7b0396e | 1.394 GB   |          |
| cms:/store/data/Run2023C/JetMET1/NANOAOD/22Sep2023_v4-v1/50000/0f113b92-c063-46af-a949-02f7006a850b.root  | (None) | ad:d42a25fd | 1.637 GB   |          |
| cms:/store/data/Run2023C/JetMET1/NANOAOD/22Sep2023_v4-v1/50000/2880b824-026a-4c41-a645-ff0cbf0a7101.root  | (None) | ad:f8a66b73 | 865.768 MB |          |
| cms:/store/data/Run2023C/JetMET1/NANOAOD/22Sep2023_v4-v1/50000/37199136-732c-4e6b-9de3-c9c7c067d4f3.root  | (None) | ad:a8f8f514 | 1.019 GB   |          |
| cms:/store/data/Run2023C/JetMET1/NANOAOD/22Sep2023_v4-v1/50000/435381e8-87f1-4358-bed1-eafe05c97115.root  | (None) | ad:31485665 | 379.563 MB |          |
| cms:/store/data/Run2023C/JetMET1/NANOAOD/22Sep2023_v4-v1/50000/aeff76d3-348b-483b-8a1e-96311da419e3.root  | (None) | ad:db2c3504 | 1.841 GB   |          |
| cms:/store/data/Run2023C/JetMET1/NANOAOD/22Sep2023_v4-v1/50000/ec5cc67a-ee61-419d-afa8-4783ff7794fe.root  | (None) | ad:fd4338ca | 971.376 MB |          |
| cms:/store/data/Run2023C/JetMET1/NANOAOD/22Sep2023_v4-v1/50000/03f96fff-2b54-40d1-a8bf-8fc473c626ff.root  | (None) | ad:9c68e3f2 | 1.314 GB   |          |
| cms:/store/data/Run2023C/JetMET1/NANOAOD/22Sep2023_v4-v1/50000/245c64c1-c678-4865-8cfc-db97708289e4.root  | (None) | ad:2876afd3 | 1.011 GB   |          |
| cms:/store/data/Run2023C/JetMET1/NANOAOD/22Sep2023_v4-v1/50000/4caf080a-5c6b-4e32-a5dd-503c075983d9.root  | (None) | ad:1f44f0f6 | 1.712 GB   |          |
| cms:/store/data/Run2023C/JetMET1/NANOAOD/22Sep2023_v4-v1/50000/5e6b8f63-e6a4-4a5c-b626-64341ec77c63.root  | (None) | ad:a3c0c676 | 1.886 GB   |          |
| cms:/store/data/Run2023C/JetMET1/NANOAOD/22Sep2023_v4-v1/50000/6f0168e3-ca85-48ac-b2e6-365f051be861.root  | (None) | ad:bf84c1c3 | 1.165 GB   |          |
| cms:/store/data/Run2023C/JetMET1/NANOAOD/22Sep2023_v4-v1/50000/702cdd6c-2839-4442-b399-fd9b50599c1c.root  | (None) | ad:ff5d5a92 | 1.266 GB   |          |
| cms:/store/data/Run2023C/JetMET1/NANOAOD/22Sep2023_v4-v1/50000/73e8e066-59e0-4c01-8207-6a9be06566fd.root  | (None) | ad:aa3b3cc0 | 1.258 GB   |          |
| cms:/store/data/Run2023C/JetMET1/NANOAOD/22Sep2023_v4-v1/50000/84b9136d-d5b6-4bcc-a15c-bdd03db067b6.root  | (None) | ad:9be25f81 | 1.910 GB   |          |
| cms:/store/data/Run2023C/JetMET1/NANOAOD/22Sep2023_v4-v1/50000/8e23fa71-e216-4465-9d21-46cba4a6721d.root  | (None) | ad:78a5b4b1 | 1.312 GB   |          |
| cms:/store/data/Run2023C/JetMET1/NANOAOD/22Sep2023_v4-v1/50000/8f75e5c3-7126-47df-8a59-5cb4d1a10dca.root  | (None) | ad:01f16e68 | 979.619 MB |          |
| cms:/store/data/Run2023C/JetMET1/NANOAOD/22Sep2023_v4-v1/50000/936bd369-56ba-48ae-8560-01ca6dd3cd40.root  | (None) | ad:156f214a | 1.055 GB   |          |
| cms:/store/data/Run2023C/JetMET1/NANOAOD/22Sep2023_v4-v1/50000/98174732-6fc1-4872-a74e-8156d746fecf.root  | (None) | ad:f1c70167 | 1.905 GB   |          |
| cms:/store/data/Run2023C/JetMET1/NANOAOD/22Sep2023_v4-v1/50000/9bf0b759-b0f1-4af9-9651-1576bf326b31.root  | (None) | ad:907b5407 | 1.810 GB   |          |
| cms:/store/data/Run2023C/JetMET1/NANOAOD/22Sep2023_v4-v1/50000/a9ccc733-0b49-4d0e-9457-c40c94a4cc52.root  | (None) | ad:0e7a1f24 | 974.199 MB |          |
| cms:/store/data/Run2023C/JetMET1/NANOAOD/22Sep2023_v4-v1/50000/b2ebbfa9-89bd-483f-a8c0-f0eb1c47b34b.root  | (None) | ad:12a40932 | 1.101 GB   |          |
| cms:/store/data/Run2023C/JetMET1/NANOAOD/22Sep2023_v4-v1/50000/bc0290f8-94d5-483c-8af6-fbac2b83dc4b.root  | (None) | ad:3317cdd5 | 1.241 GB   |          |
| cms:/store/data/Run2023C/JetMET1/NANOAOD/22Sep2023_v4-v1/50000/cd3e717f-a978-497a-9636-612bc8b02829.root  | (None) | ad:970db38c | 413.416 MB |          |
| cms:/store/data/Run2023C/JetMET1/NANOAOD/22Sep2023_v4-v1/50000/ff5b2149-04a5-4fec-87e8-0b367f04f5e4.root  | (None) | ad:68025f3f | 1.898 GB   |          |
| cms:/store/data/Run2023C/JetMET1/NANOAOD/22Sep2023_v4-v1/510000/c4edb7b9-c985-447d-a513-17551e76cc09.root | (None) | ad:8ca3c0e8 | 37.197 MB  |          |
| cms:/store/data/Run2023C/JetMET1/NANOAOD/22Sep2023_v4-v1/50000/74a3dedf-195a-4c6d-b669-8adca8fbd407.root  | (None) | ad:f3a9a320 | 276.342 MB |          |
| cms:/store/data/Run2023C/JetMET1/NANOAOD/22Sep2023_v4-v1/50000/b42b0e63-a51e-41de-84e5-014438b3085e.root  | (None) | ad:05e0e978 | 1.078 GB   |          |
| cms:/store/data/Run2023C/JetMET1/NANOAOD/22Sep2023_v4-v1/50000/befbc20e-0610-45c7-827b-fb4b9fd6b5ba.root  | (None) | ad:298dc4a0 | 480.626 MB |          |
| cms:/store/data/Run2023C/JetMET1/NANOAOD/22Sep2023_v4-v1/30000/1c1901c0-48f8-4547-963c-961a68c01620.root  | (None) | ad:2aae1d3f | 1.904 GB   |          |
| cms:/store/data/Run2023C/JetMET1/NANOAOD/22Sep2023_v4-v1/30000/38745c50-7f61-4b01-85ac-729fdf712d2a.root  | (None) | ad:95875bda | 1.508 GB   |          |
| cms:/store/data/Run2023C/JetMET1/NANOAOD/22Sep2023_v4-v1/30000/4dc5acd4-fdf0-4f4f-b403-5034abeb4848.root  | (None) | ad:69c48c21 | 1.016 GB   |          |
| cms:/store/data/Run2023C/JetMET1/NANOAOD/22Sep2023_v4-v1/30000/565a8a28-2a88-4f25-8d16-e3e9231b53cb.root  | (None) | ad:4d672587 | 1.890 GB   |          |
| cms:/store/data/Run2023C/JetMET1/NANOAOD/22Sep2023_v4-v1/30000/67b83eb3-19eb-45c2-aa3e-9b9886affa0b.root  | (None) | ad:7388c81e | 1.590 GB   |          |
| cms:/store/data/Run2023C/JetMET1/NANOAOD/22Sep2023_v4-v1/30000/771d9b43-c38f-45c4-8ed5-49cfb7b877ff.root  | (None) | ad:a201b4c4 | 1.240 GB   |          |
| cms:/store/data/Run2023C/JetMET1/NANOAOD/22Sep2023_v4-v1/30000/97e34fc6-8923-4e31-98e7-c1065c2071de.root  | (None) | ad:074e07b1 | 965.066 MB |          |
| cms:/store/data/Run2023C/JetMET1/NANOAOD/22Sep2023_v4-v1/30000/ac3125a6-ef20-457e-aefd-cfc8858070de.root  | (None) | ad:77cac2a1 | 1.886 GB   |          |
| cms:/store/data/Run2023C/JetMET1/NANOAOD/22Sep2023_v4-v1/30000/d9b8f911-9b71-4e40-9ee9-d0ca453d04e6.root  | (None) | ad:f60c1e01 | 792.499 MB |          |
| cms:/store/data/Run2023C/JetMET1/NANOAOD/22Sep2023_v4-v1/30000/fa399893-1e07-4386-a93a-14aa732d2f77.root  | (None) | ad:7ed0a4c3 | 973.435 MB |          |
| cms:/store/data/Run2023C/JetMET1/NANOAOD/22Sep2023_v4-v1/40000/36dca88f-ed1b-4e95-b571-d1aece6cb4c4.root  | (None) | ad:07c6132b | 482.889 MB |          |
| cms:/store/data/Run2023C/JetMET1/NANOAOD/22Sep2023_v4-v1/40000/3e80eeed-1404-46b2-8f61-7e49bc1b73c1.root  | (None) | ad:723a5e19 | 975.140 MB |          |
| cms:/store/data/Run2023C/JetMET1/NANOAOD/22Sep2023_v4-v1/40000/4fd49667-bc9e-4f6a-9f4d-af8a0eadca70.root  | (None) | ad:0bf09b6f | 1.291 GB   |          |
| cms:/store/data/Run2023C/JetMET1/NANOAOD/22Sep2023_v4-v1/40000/7b740293-3e84-478d-8355-8cb9fdd9ee5b.root  | (None) | ad:c4506d62 | 1.048 GB   |          |
| cms:/store/data/Run2023C/JetMET1/NANOAOD/22Sep2023_v4-v1/40000/dd2fd165-54ef-4120-9fa5-63e80fb231c8.root  | (None) | ad:29c1a1e0 | 1.484 GB   |          |
| cms:/store/data/Run2023C/JetMET1/NANOAOD/22Sep2023_v4-v1/30000/5a210610-f4c0-465b-be6b-002581154965.root  | (None) | ad:155d84e6 | 719.044 MB |          |
| cms:/store/data/Run2023C/JetMET1/NANOAOD/22Sep2023_v4-v1/40000/17ebf830-636f-41a4-a519-6172e4469ba6.root  | (None) | ad:116686d3 | 1.647 GB   |          |
| cms:/store/data/Run2023C/JetMET1/NANOAOD/22Sep2023_v4-v1/40000/2ceed886-fff4-483e-8f17-09fce6b3e8ca.root  | (None) | ad:88f8bd6b | 1.288 GB   |          |
| cms:/store/data/Run2023C/JetMET1/NANOAOD/22Sep2023_v4-v1/40000/35a9d9dc-cb4f-47a4-84e9-7b7ee2a95398.root  | (None) | ad:094b9053 | 1.320 GB   |          |
| cms:/store/data/Run2023C/JetMET1/NANOAOD/22Sep2023_v4-v1/40000/3c3ef5a0-e0e7-430e-a7fd-64753be8d05b.root  | (None) | ad:e81b9b9c | 378.213 MB |          |
| cms:/store/data/Run2023C/JetMET1/NANOAOD/22Sep2023_v4-v1/40000/41b910cc-9fa3-49d1-89f9-70c6daa18a37.root  | (None) | ad:348be1d2 | 1.090 GB   |          |
| cms:/store/data/Run2023C/JetMET1/NANOAOD/22Sep2023_v4-v1/40000/7dbd5ee5-0e02-4876-bff6-68f77c51a0fc.root  | (None) | ad:45eb7e7d | 1.383 GB   |          |
| cms:/store/data/Run2023C/JetMET1/NANOAOD/22Sep2023_v4-v1/40000/8081b8c0-f4e1-400f-9f7e-b00e2ef739d1.root  | (None) | ad:56c21815 | 1.143 GB   |          |
| cms:/store/data/Run2023C/JetMET1/NANOAOD/22Sep2023_v4-v1/40000/a0156c63-a011-422a-b00a-238b6b4cc92e.root  | (None) | ad:57c0d579 | 1.117 GB   |          |
| cms:/store/data/Run2023C/JetMET1/NANOAOD/22Sep2023_v4-v1/40000/adbe6410-9cae-4364-9e81-f32680eb3d07.root  | (None) | ad:0eb93491 | 1.281 GB   |          |
| cms:/store/data/Run2023C/JetMET1/NANOAOD/22Sep2023_v4-v1/40000/b1c207c7-aeda-4765-acce-c2bb878e6a75.root  | (None) | ad:21247347 | 1.486 GB   |          |
| cms:/store/data/Run2023C/JetMET1/NANOAOD/22Sep2023_v4-v1/40000/ca8fef75-29be-4e4d-80ab-7ac6a5db8ada.root  | (None) | ad:958f2e64 | 1.744 GB   |          |
| cms:/store/data/Run2023C/JetMET1/NANOAOD/22Sep2023_v4-v1/40000/f8dad644-8f72-4859-81b3-7e3f4b371c2e.root  | (None) | ad:ff8143cb | 1.597 GB   |          |
| cms:/store/data/Run2023C/JetMET1/NANOAOD/22Sep2023_v4-v1/50000/13e20aa3-f19d-45d1-8119-c58327d2a506.root  | (None) | ad:ccd6939a | 333.632 MB |          |
| cms:/store/data/Run2023C/JetMET1/NANOAOD/22Sep2023_v4-v1/50000/5108ce86-72c4-47b2-b2ee-f4a14ba66a9d.root  | (None) | ad:9f15f182 | 338.225 MB |          |
| cms:/store/data/Run2023C/JetMET1/NANOAOD/22Sep2023_v4-v1/50000/96230520-9d23-4209-8edb-3a42776003c5.root  | (None) | ad:cd0e2292 | 80.176 MB  |          |
| cms:/store/data/Run2023C/JetMET1/NANOAOD/22Sep2023_v4-v1/40000/11b29360-74f6-48ea-be1e-cdbaad8f317f.root  | (None) | ad:e34e3e2d | 75.176 MB  |          |
| cms:/store/data/Run2023C/JetMET1/NANOAOD/22Sep2023_v4-v1/50000/62cfba36-f264-43c6-a3d0-69d2e7a61eaf.root  | (None) | ad:b74d8192 | 34.182 MB  |          |
| cms:/store/data/Run2023C/JetMET1/NANOAOD/22Sep2023_v4-v1/40000/250a2e49-41c7-4f10-b782-24ea374f5868.root  | (None) | ad:62c5d6a2 | 959.063 MB |          |
| cms:/store/data/Run2023C/JetMET1/NANOAOD/22Sep2023_v4-v1/40000/3df17853-ec5c-4e8d-97ee-c4de96261f49.root  | (None) | ad:9dbe0a71 | 1.074 GB   |          |
| cms:/store/data/Run2023C/JetMET1/NANOAOD/22Sep2023_v4-v1/40000/6def8d17-82fd-411d-8341-412b8e53e29e.root  | (None) | ad:9025a71d | 619.851 MB |          |
| cms:/store/data/Run2023C/JetMET1/NANOAOD/22Sep2023_v4-v1/40000/89e9d9e5-cb01-48ef-b124-c40d3f8168c0.root  | (None) | ad:39da752d | 1.125 GB   |          |
| cms:/store/data/Run2023C/JetMET1/NANOAOD/22Sep2023_v4-v1/30000/15279c28-f3b5-42ba-9193-609f7c7479bf.root  | (None) | ad:67298a6e | 992.983 MB |          |
| cms:/store/data/Run2023C/JetMET1/NANOAOD/22Sep2023_v4-v1/30000/6242aeee-3cae-4dc2-b602-3c1d7eb9fa50.root  | (None) | ad:8fe36636 | 1.242 GB   |          |
| cms:/store/data/Run2023C/JetMET1/NANOAOD/22Sep2023_v4-v1/30000/aa74abc9-ec02-4b47-87cb-c719526d6336.root  | (None) | ad:f7847f24 | 108.940 MB |          |
| cms:/store/data/Run2023C/JetMET1/NANOAOD/22Sep2023_v4-v1/30000/356cba7f-bd78-4fe8-9803-f029caf74d6b.root  | (None) | ad:460ce3e8 | 210.102 MB |          |
| cms:/store/data/Run2023C/JetMET1/NANOAOD/22Sep2023_v4-v1/30000/55596dd3-63d1-4c1b-a94d-b251f4ac6649.root  | (None) | ad:5c5514ff | 982.564 MB |          |
| cms:/store/data/Run2023C/JetMET1/NANOAOD/22Sep2023_v4-v1/30000/c7148e16-a28b-4954-a545-ede5022825bf.root  | (None) | ad:9e689755 | 1.237 GB   |          |
| cms:/store/data/Run2023C/JetMET1/NANOAOD/22Sep2023_v4-v1/30000/80cd071f-2df8-4cbf-8eb7-75c2777c16a7.root  | (None) | ad:8222cfd1 | 1.022 GB   |          |
| cms:/store/data/Run2023C/JetMET1/NANOAOD/22Sep2023_v4-v1/30000/8e70d6ae-3deb-4d1f-86a2-acbfef85d234.root  | (None) | ad:e9d68efd | 1.275 GB   |          |
| cms:/store/data/Run2023C/JetMET1/NANOAOD/22Sep2023_v4-v1/30000/9d784f28-c63a-477c-a937-f31396ca4c3d.root  | (None) | ad:90618a8c | 1.660 GB   |          |
| cms:/store/data/Run2023C/JetMET1/NANOAOD/22Sep2023_v4-v1/30000/c263ef01-d9f2-47d3-9b8b-afdc27e1fae3.root  | (None) | ad:a8891eff | 1.452 GB   |          |
| cms:/store/data/Run2023C/JetMET1/NANOAOD/22Sep2023_v4-v1/30000/cf86bcca-f659-4043-8f1a-7e33d706c7e4.root  | (None) | ad:ed6a0a51 | 1.037 GB   |          |
| cms:/store/data/Run2023C/JetMET1/NANOAOD/22Sep2023_v4-v1/30000/d840cef0-e5aa-4899-8e40-ba76561e5f48.root  | (None) | ad:767e0c1c | 726.536 MB |          |
| cms:/store/data/Run2023C/JetMET1/NANOAOD/22Sep2023_v4-v1/30000/fe8abfee-bf06-4840-8652-439d49cde9d4.root  | (None) | ad:d48116c8 | 40.795 MB  |          |
| cms:/store/data/Run2023C/JetMET1/NANOAOD/22Sep2023_v4-v1/50000/43bd48a5-11db-4cab-8931-a44281563f58.root  | (None) | ad:9fedd4d0 | 791.103 MB |          |
| cms:/store/data/Run2023C/JetMET1/NANOAOD/22Sep2023_v4-v1/50000/4e48f3b9-2dba-4d59-bb80-e865ecb00575.root  | (None) | ad:6fe37db6 | 1.231 GB   |          |
| cms:/store/data/Run2023C/JetMET1/NANOAOD/22Sep2023_v4-v1/50000/5c739a2e-8163-4067-bfe9-6f6465f48785.root  | (None) | ad:101ed882 | 1.253 GB   |          |
| cms:/store/data/Run2023C/JetMET1/NANOAOD/22Sep2023_v4-v1/50000/739284d9-18bd-4044-b202-9a9e4a44827b.root  | (None) | ad:de4a98ae | 1.037 GB   |          |
| cms:/store/data/Run2023C/JetMET1/NANOAOD/22Sep2023_v4-v1/50000/78763b21-2908-4db7-96fb-0c7c2de7e9ab.root  | (None) | ad:9dae4190 | 1.367 GB   |          |
| cms:/store/data/Run2023C/JetMET1/NANOAOD/22Sep2023_v4-v1/50000/86e96e3d-a476-4ea1-8d02-2b2fe9ab97c5.root  | (None) | ad:6147b213 | 1.552 GB   |          |
| cms:/store/data/Run2023C/JetMET1/NANOAOD/22Sep2023_v4-v1/40000/1e84a448-54be-47b1-b166-7e82b0ad7daf.root  | (None) | ad:8e6a6b22 | 1.180 GB   |          |
| cms:/store/data/Run2023C/JetMET1/NANOAOD/22Sep2023_v4-v1/40000/546848c2-3e52-43ef-ba0f-2f6db3dfe45c.root  | (None) | ad:08eb0ed0 | 1.120 GB   |          |
| cms:/store/data/Run2023C/JetMET1/NANOAOD/22Sep2023_v4-v1/40000/54eae791-f778-49ec-b318-b8aaedd30a4a.root  | (None) | ad:3c649021 | 1.890 GB   |          |
| cms:/store/data/Run2023C/JetMET1/NANOAOD/22Sep2023_v4-v1/40000/8b048e0a-95c1-42c4-95fa-5437d9cd5348.root  | (None) | ad:e60a5c16 | 1.086 GB   |          |
| cms:/store/data/Run2023C/JetMET1/NANOAOD/22Sep2023_v4-v1/40000/9cf88cbc-60d4-47cc-a143-c2fdcc73df60.root  | (None) | ad:8a5ca45e | 955.798 MB |          |
| cms:/store/data/Run2023C/JetMET1/NANOAOD/22Sep2023_v4-v1/40000/a61ac281-9833-47d1-a76f-87b4b6e82304.root  | (None) | ad:bf7d71ed | 516.509 MB |          |
| cms:/store/data/Run2023C/JetMET1/NANOAOD/22Sep2023_v4-v1/40000/cde0d971-3fe2-49c0-8692-6b9ec25e5038.root  | (None) | ad:1e480ab2 | 958.009 MB |          |
| cms:/store/data/Run2023C/JetMET1/NANOAOD/22Sep2023_v4-v1/40000/18fd4f43-5360-4792-8414-30818defc562.root  | (None) | ad:7c478a25 | 853.396 MB |          |
| cms:/store/data/Run2023C/JetMET1/NANOAOD/22Sep2023_v4-v1/40000/4dfa0212-60fe-4d1c-88b7-03bf11fc4873.root  | (None) | ad:0cafd592 | 1.225 GB   |          |
| cms:/store/data/Run2023C/JetMET1/NANOAOD/22Sep2023_v4-v1/40000/853b0e6f-5448-415b-800c-27ab9959929d.root  | (None) | ad:dc3c8401 | 1.796 GB   |          |
| cms:/store/data/Run2023C/JetMET1/NANOAOD/22Sep2023_v4-v1/40000/87309369-8c56-4e20-b232-ef0f2c885bc2.root  | (None) | ad:fe6a0435 | 1.224 GB   |          |
| cms:/store/data/Run2023C/JetMET1/NANOAOD/22Sep2023_v4-v1/40000/c68b4e13-e63b-48be-92cd-9a58de026591.root  | (None) | ad:50a84db2 | 1.000 GB   |          |
| cms:/store/data/Run2023C/JetMET1/NANOAOD/22Sep2023_v4-v1/40000/d8f7be84-aac0-413c-ad11-e5111afdfc6b.root  | (None) | ad:10d99bdb | 1.318 GB   |          |
| cms:/store/data/Run2023C/JetMET1/NANOAOD/22Sep2023_v4-v1/40000/f426635a-a118-4d39-86bf-a378dcf9c951.root  | (None) | ad:a4023581 | 803.715 MB |          |
| cms:/store/data/Run2023C/JetMET1/NANOAOD/22Sep2023_v4-v1/50000/43bd4433-286a-45db-bf22-5738b2188bae.root  | (None) | ad:55e64155 | 1.050 GB   |          |
| cms:/store/data/Run2023C/JetMET1/NANOAOD/22Sep2023_v4-v1/50000/89fc85fd-4026-4e23-aeba-ddafb077af62.root  | (None) | ad:c878e0a8 | 426.307 MB |          |
| cms:/store/data/Run2023C/JetMET1/NANOAOD/22Sep2023_v4-v1/50000/9b6b0e27-6745-4e88-86ca-91fdb25e265b.root  | (None) | ad:a377e9df | 1.015 GB   |          |
+-----------------------------------------------------------------------------------------------------------+--------+-------------+------------+----------+
Total files : 124
Total size : 134.027 GB
