+------------------------------------------------------------------------------------------------------+--------+-------------+------------+----------+
| SCOPE:NAME                                                                                           | GUID   | ADLER32     | FILESIZE   | EVENTS   |
|------------------------------------------------------------------------------------------------------+--------+-------------+------------+----------|
| cms:/store/data/Run2022E/JetMET/NANOAOD/22Sep2023-v1/30000/002cde4c-efa1-430d-b651-61b6dff4d208.root | (None) | ad:3eb64f01 | 1.880 GB   |          |
| cms:/store/data/Run2022E/JetMET/NANOAOD/22Sep2023-v1/30000/0efe213c-7977-443c-9d43-6f7673866eb8.root | (None) | ad:bd5d72a7 | 1.854 GB   |          |
| cms:/store/data/Run2022E/JetMET/NANOAOD/22Sep2023-v1/30000/13716210-6041-403e-99af-acab5965f07f.root | (None) | ad:af5433d0 | 1.356 GB   |          |
| cms:/store/data/Run2022E/JetMET/NANOAOD/22Sep2023-v1/30000/1581a42a-1258-4915-aca0-91f71c65f081.root | (None) | ad:8120a23f | 1.443 GB   |          |
| cms:/store/data/Run2022E/JetMET/NANOAOD/22Sep2023-v1/30000/1642f39e-1542-4dc4-8e99-fdd3d42d5f90.root | (None) | ad:552f7042 | 1.508 GB   |          |
| cms:/store/data/Run2022E/JetMET/NANOAOD/22Sep2023-v1/30000/16f3b21b-9896-4020-8463-56fd9a21f41a.root | (None) | ad:255dbe72 | 1.832 GB   |          |
| cms:/store/data/Run2022E/JetMET/NANOAOD/22Sep2023-v1/30000/181901f6-0f65-4b29-98dc-a7e716893fe7.root | (None) | ad:c17d62ef | 1.731 GB   |          |
| cms:/store/data/Run2022E/JetMET/NANOAOD/22Sep2023-v1/30000/1e0ffbe3-8f47-49c1-a576-17ed69885e95.root | (None) | ad:2ed3be72 | 1.917 GB   |          |
| cms:/store/data/Run2022E/JetMET/NANOAOD/22Sep2023-v1/30000/1e230fa3-4826-45a0-bee6-0ebef4939db1.root | (None) | ad:397459f6 | 1.881 GB   |          |
| cms:/store/data/Run2022E/JetMET/NANOAOD/22Sep2023-v1/30000/1f3cc102-795a-4dd2-a4e1-2958183a6ae1.root | (None) | ad:8cbcfb33 | 1.911 GB   |          |
| cms:/store/data/Run2022E/JetMET/NANOAOD/22Sep2023-v1/30000/239484fe-e4c3-4fd1-a723-49aa5c5bb397.root | (None) | ad:c31f63e8 | 1.087 GB   |          |
| cms:/store/data/Run2022E/JetMET/NANOAOD/22Sep2023-v1/30000/2b355c21-2c9d-4d70-9323-657556e7fb68.root | (None) | ad:e8adbbf5 | 1.868 GB   |          |
| cms:/store/data/Run2022E/JetMET/NANOAOD/22Sep2023-v1/30000/36f13a63-4a67-432d-9b27-a32759ba2aff.root | (None) | ad:028699d7 | 1.888 GB   |          |
| cms:/store/data/Run2022E/JetMET/NANOAOD/22Sep2023-v1/30000/40b3ad6a-6583-4c96-85b6-47b7c38c1161.root | (None) | ad:a1b57387 | 1.893 GB   |          |
| cms:/store/data/Run2022E/JetMET/NANOAOD/22Sep2023-v1/30000/4b89701d-9a3f-4309-92d3-f57cb17470a1.root | (None) | ad:f36be66f | 1.778 GB   |          |
| cms:/store/data/Run2022E/JetMET/NANOAOD/22Sep2023-v1/30000/4cc1fb4e-51ee-437e-ac4f-4745c57c90a0.root | (None) | ad:9c2c3d41 | 1.547 GB   |          |
| cms:/store/data/Run2022E/JetMET/NANOAOD/22Sep2023-v1/30000/4ef1c4b4-94cb-4ace-9dfd-7150045aa8ce.root | (None) | ad:4793e447 | 1.146 GB   |          |
| cms:/store/data/Run2022E/JetMET/NANOAOD/22Sep2023-v1/30000/505b89aa-ff32-4490-b088-03311862474f.root | (None) | ad:1ee226a9 | 1.002 GB   |          |
| cms:/store/data/Run2022E/JetMET/NANOAOD/22Sep2023-v1/30000/651c79cc-4cd3-44ea-bb97-4bb9363ec568.root | (None) | ad:0f86943d | 1.070 GB   |          |
| cms:/store/data/Run2022E/JetMET/NANOAOD/22Sep2023-v1/30000/66cf567a-0e7e-407c-bdab-19f83b71ed96.root | (None) | ad:eb109e8a | 1.198 GB   |          |
| cms:/store/data/Run2022E/JetMET/NANOAOD/22Sep2023-v1/30000/70e974ea-ff14-422b-88f4-a346b2eb64fe.root | (None) | ad:401b8aa6 | 1.047 GB   |          |
| cms:/store/data/Run2022E/JetMET/NANOAOD/22Sep2023-v1/30000/74e0f6d6-abe9-4ab5-88b9-67eb8e7bd2b5.root | (None) | ad:8895d8e6 | 1.126 GB   |          |
| cms:/store/data/Run2022E/JetMET/NANOAOD/22Sep2023-v1/30000/751d2959-4bab-4663-a3f5-6d96b61a29cb.root | (None) | ad:95a16aee | 1.356 GB   |          |
| cms:/store/data/Run2022E/JetMET/NANOAOD/22Sep2023-v1/30000/76961c20-ec67-4cc9-8bbc-16a09f9665c1.root | (None) | ad:d4e1e0ce | 1.250 GB   |          |
| cms:/store/data/Run2022E/JetMET/NANOAOD/22Sep2023-v1/30000/816cf2c5-8226-498e-a3db-4dd943ae0b8b.root | (None) | ad:f1f5458b | 1.236 GB   |          |
| cms:/store/data/Run2022E/JetMET/NANOAOD/22Sep2023-v1/30000/91bfc55a-df1e-488a-b4d2-8446a2b6816f.root | (None) | ad:c478a508 | 1.037 GB   |          |
| cms:/store/data/Run2022E/JetMET/NANOAOD/22Sep2023-v1/30000/950c3afd-ea01-4002-a594-3121d9b9c500.root | (None) | ad:16dd3663 | 473.236 MB |          |
| cms:/store/data/Run2022E/JetMET/NANOAOD/22Sep2023-v1/30000/99fbe33b-176c-4303-92c9-b55181c9b030.root | (None) | ad:3fc6a55b | 1.158 GB   |          |
| cms:/store/data/Run2022E/JetMET/NANOAOD/22Sep2023-v1/30000/afc8fc0d-8221-40c7-a4e9-62dac5fbcf21.root | (None) | ad:a0dc3516 | 1.078 GB   |          |
| cms:/store/data/Run2022E/JetMET/NANOAOD/22Sep2023-v1/30000/b4bf652b-1439-47cd-92ab-199a5d8b3c30.root | (None) | ad:15eb1b0d | 1.031 GB   |          |
| cms:/store/data/Run2022E/JetMET/NANOAOD/22Sep2023-v1/30000/b9abd851-9be2-4a00-809c-1b57677d45a6.root | (None) | ad:b829144b | 1.885 GB   |          |
| cms:/store/data/Run2022E/JetMET/NANOAOD/22Sep2023-v1/30000/c0b3ae5e-aa71-49f0-91ad-ac10099704f7.root | (None) | ad:d197b3a0 | 1.892 GB   |          |
| cms:/store/data/Run2022E/JetMET/NANOAOD/22Sep2023-v1/30000/ca1a25cc-bf9c-487a-9d65-7c359b1745ca.root | (None) | ad:f5d2a52d | 1.827 GB   |          |
| cms:/store/data/Run2022E/JetMET/NANOAOD/22Sep2023-v1/30000/cebc138d-a3cf-49e0-9af4-96dcf5d1019b.root | (None) | ad:d9f3b50e | 1.869 GB   |          |
| cms:/store/data/Run2022E/JetMET/NANOAOD/22Sep2023-v1/30000/d1e1ed31-b3ad-4e61-9914-ef56960f39ef.root | (None) | ad:7968ea71 | 1.049 GB   |          |
| cms:/store/data/Run2022E/JetMET/NANOAOD/22Sep2023-v1/30000/d2f3c242-6d56-44d6-ab49-317deb89dfc2.root | (None) | ad:a517349f | 1.842 GB   |          |
| cms:/store/data/Run2022E/JetMET/NANOAOD/22Sep2023-v1/30000/d63a8f41-0284-4872-9bcf-6f24def6810d.root | (None) | ad:fb42c8d1 | 1.013 GB   |          |
| cms:/store/data/Run2022E/JetMET/NANOAOD/22Sep2023-v1/30000/d94c3232-e7e8-4092-81c4-685cb1c82895.root | (None) | ad:efc4d8d2 | 1.895 GB   |          |
| cms:/store/data/Run2022E/JetMET/NANOAOD/22Sep2023-v1/30000/d9768107-560a-49a4-a7a2-65dc9a9abfc7.root | (None) | ad:7cebe1cb | 1.357 GB   |          |
| cms:/store/data/Run2022E/JetMET/NANOAOD/22Sep2023-v1/30000/da43c13d-3bbd-448e-907c-13e9824216a3.root | (None) | ad:0ea1a388 | 1.001 GB   |          |
| cms:/store/data/Run2022E/JetMET/NANOAOD/22Sep2023-v1/30000/dbd79e36-fb94-40a6-902c-532117f51dd4.root | (None) | ad:084ac7d1 | 1.883 GB   |          |
| cms:/store/data/Run2022E/JetMET/NANOAOD/22Sep2023-v1/30000/dcee596d-abf4-44e9-afc4-5ed859b6b660.root | (None) | ad:de9ca3e9 | 1.003 GB   |          |
| cms:/store/data/Run2022E/JetMET/NANOAOD/22Sep2023-v1/30000/dfb9bb64-b0fa-4ab0-8378-34d7e8ff290a.root | (None) | ad:d2c84e5e | 1.875 GB   |          |
| cms:/store/data/Run2022E/JetMET/NANOAOD/22Sep2023-v1/30000/e1573533-6adc-44e0-9e5a-8fc047b21476.root | (None) | ad:b5a915be | 1.888 GB   |          |
| cms:/store/data/Run2022E/JetMET/NANOAOD/22Sep2023-v1/30000/edb9eb31-02db-4358-a930-60b1f4096559.root | (None) | ad:9270d0a6 | 1.126 GB   |          |
| cms:/store/data/Run2022E/JetMET/NANOAOD/22Sep2023-v1/30000/f10f45ea-a121-4b2e-9000-5156e6f358cc.root | (None) | ad:619aa749 | 1.893 GB   |          |
| cms:/store/data/Run2022E/JetMET/NANOAOD/22Sep2023-v1/30000/f8de7a6b-9fc1-4e5c-b35e-1510562be5dc.root | (None) | ad:d41ba150 | 992.140 MB |          |
| cms:/store/data/Run2022E/JetMET/NANOAOD/22Sep2023-v1/30000/fd265779-8db4-4fa4-b8bc-1fb348b837ab.root | (None) | ad:4cfc3379 | 1.636 GB   |          |
| cms:/store/data/Run2022E/JetMET/NANOAOD/22Sep2023-v1/30000/ff850c52-5f05-490d-b6b8-20b53215d270.root | (None) | ad:45a51f19 | 1.696 GB   |          |
| cms:/store/data/Run2022E/JetMET/NANOAOD/22Sep2023-v1/30000/1c50d190-5161-4783-9870-71dd70d3beff.root | (None) | ad:43326973 | 878.872 MB |          |
| cms:/store/data/Run2022E/JetMET/NANOAOD/22Sep2023-v1/30000/2680bf32-0d36-4fbb-8c15-c3a6dbba14c5.root | (None) | ad:af478add | 943.729 MB |          |
| cms:/store/data/Run2022E/JetMET/NANOAOD/22Sep2023-v1/30000/4c5234fd-eeb8-45e9-9f04-20cdef971c17.root | (None) | ad:bb66dc39 | 1.044 GB   |          |
| cms:/store/data/Run2022E/JetMET/NANOAOD/22Sep2023-v1/30000/90e154ab-91ed-4641-9e65-2d5563c5652f.root | (None) | ad:ad356e24 | 1.037 GB   |          |
| cms:/store/data/Run2022E/JetMET/NANOAOD/22Sep2023-v1/30000/9141bdc4-82a2-4a8e-84c3-42a509c86a33.root | (None) | ad:54cfc8f0 | 874.094 MB |          |
| cms:/store/data/Run2022E/JetMET/NANOAOD/22Sep2023-v1/30000/adba03ad-a779-4c99-87e0-ccbca6c7621e.root | (None) | ad:53cb8670 | 935.293 MB |          |
| cms:/store/data/Run2022E/JetMET/NANOAOD/22Sep2023-v1/30000/c88471e0-16ee-476e-a06c-abb13c9d258f.root | (None) | ad:9201f631 | 989.486 MB |          |
| cms:/store/data/Run2022E/JetMET/NANOAOD/22Sep2023-v1/30000/01ad1d05-17e3-40a1-b7f3-9a6538126b5b.root | (None) | ad:573b728d | 948.698 MB |          |
| cms:/store/data/Run2022E/JetMET/NANOAOD/22Sep2023-v1/30000/1435bf09-946f-421a-89f8-42987f93daf4.root | (None) | ad:73a80f79 | 1.165 GB   |          |
| cms:/store/data/Run2022E/JetMET/NANOAOD/22Sep2023-v1/30000/18c4cc06-9a1f-4633-b205-135920dfaa6d.root | (None) | ad:68052a4a | 1.566 GB   |          |
| cms:/store/data/Run2022E/JetMET/NANOAOD/22Sep2023-v1/30000/3082aa7d-422b-42fb-9da4-9cda6d150529.root | (None) | ad:75ee2d5c | 1.513 GB   |          |
| cms:/store/data/Run2022E/JetMET/NANOAOD/22Sep2023-v1/30000/3535eeb6-089b-4a30-9ab6-515e30a55e3a.root | (None) | ad:913aadb3 | 1.654 GB   |          |
| cms:/store/data/Run2022E/JetMET/NANOAOD/22Sep2023-v1/30000/36f7ac0c-3854-4afe-88c4-8f15cc0f1969.root | (None) | ad:d2c2051e | 1.290 GB   |          |
| cms:/store/data/Run2022E/JetMET/NANOAOD/22Sep2023-v1/30000/373d3148-200c-4de4-af17-f21ed05cf364.root | (None) | ad:f541818a | 1.264 GB   |          |
| cms:/store/data/Run2022E/JetMET/NANOAOD/22Sep2023-v1/30000/4dd29638-a8fa-44f1-ac12-f0efdd530da8.root | (None) | ad:5c8f72a7 | 1.851 GB   |          |
| cms:/store/data/Run2022E/JetMET/NANOAOD/22Sep2023-v1/30000/50fdc42d-fbe8-4001-9ff8-bb8f0f576f9c.root | (None) | ad:0a13c170 | 908.862 MB |          |
| cms:/store/data/Run2022E/JetMET/NANOAOD/22Sep2023-v1/30000/53d1dea8-611b-45a0-9130-4fe18d0ced1a.root | (None) | ad:b674b1d0 | 1.698 GB   |          |
| cms:/store/data/Run2022E/JetMET/NANOAOD/22Sep2023-v1/30000/74aaa33b-ffb6-4dc1-80a7-918b24007441.root | (None) | ad:fae4e52d | 1.242 GB   |          |
| cms:/store/data/Run2022E/JetMET/NANOAOD/22Sep2023-v1/30000/8a8e5161-f4e8-438d-a867-c1b874b41812.root | (None) | ad:154fd1ea | 1.389 GB   |          |
| cms:/store/data/Run2022E/JetMET/NANOAOD/22Sep2023-v1/30000/9292f7f9-8885-40b4-a939-4e8f69cc3d4a.root | (None) | ad:45d38d86 | 844.695 MB |          |
| cms:/store/data/Run2022E/JetMET/NANOAOD/22Sep2023-v1/30000/a486540f-d24b-45ec-a1a9-da03d18c9756.root | (None) | ad:94298f8f | 1.425 GB   |          |
| cms:/store/data/Run2022E/JetMET/NANOAOD/22Sep2023-v1/30000/a7dd1717-974c-4221-a6dc-5a9fde67ce70.root | (None) | ad:a91ee44f | 1.130 GB   |          |
| cms:/store/data/Run2022E/JetMET/NANOAOD/22Sep2023-v1/30000/c0daccc6-22d5-4fb3-8aad-66a6972797b7.root | (None) | ad:d7d7da35 | 996.872 MB |          |
| cms:/store/data/Run2022E/JetMET/NANOAOD/22Sep2023-v1/30000/d2844578-6970-4aff-9e3e-24c492c4cb3a.root | (None) | ad:032be757 | 882.740 MB |          |
| cms:/store/data/Run2022E/JetMET/NANOAOD/22Sep2023-v1/30000/e25ac060-0f22-4114-bd6c-c58b49618d32.root | (None) | ad:1ba553a5 | 885.041 MB |          |
| cms:/store/data/Run2022E/JetMET/NANOAOD/22Sep2023-v1/30000/e532ba89-af49-40e2-bc1c-8d8d0dd51d56.root | (None) | ad:a3ab7f62 | 969.356 MB |          |
| cms:/store/data/Run2022E/JetMET/NANOAOD/22Sep2023-v1/30000/f6a5a8cd-da96-4f66-9fc6-92db31d2c6ce.root | (None) | ad:abc09887 | 1.630 GB   |          |
| cms:/store/data/Run2022E/JetMET/NANOAOD/22Sep2023-v1/30000/079c5283-7c94-4fbb-b720-521682e25da5.root | (None) | ad:4ab09a0e | 937.334 MB |          |
| cms:/store/data/Run2022E/JetMET/NANOAOD/22Sep2023-v1/30000/2366a855-0a6b-40e0-a77e-a3460d866ba6.root | (None) | ad:d62a7641 | 758.762 MB |          |
| cms:/store/data/Run2022E/JetMET/NANOAOD/22Sep2023-v1/30000/27c4a09f-17e4-43a8-9aa3-d86d03c30e0e.root | (None) | ad:95e16cf6 | 1.004 GB   |          |
| cms:/store/data/Run2022E/JetMET/NANOAOD/22Sep2023-v1/30000/62e9af13-9bc4-4da6-8f9a-17421fc441fb.root | (None) | ad:b130e2d4 | 1.750 GB   |          |
| cms:/store/data/Run2022E/JetMET/NANOAOD/22Sep2023-v1/30000/71dc63b8-12e3-42c4-be64-a6da3067653a.root | (None) | ad:8d703530 | 1.112 GB   |          |
| cms:/store/data/Run2022E/JetMET/NANOAOD/22Sep2023-v1/30000/7bc28bcb-6dc7-44dd-a8ce-c1f752509b6f.root | (None) | ad:1cec12aa | 1.199 GB   |          |
| cms:/store/data/Run2022E/JetMET/NANOAOD/22Sep2023-v1/30000/7bfe5610-109e-4e45-9889-f8b97bbc1090.root | (None) | ad:5dfd5085 | 1.020 GB   |          |
| cms:/store/data/Run2022E/JetMET/NANOAOD/22Sep2023-v1/30000/c79f7986-877d-4626-b813-6a9c8fb9d194.root | (None) | ad:8edfcd89 | 958.241 MB |          |
| cms:/store/data/Run2022E/JetMET/NANOAOD/22Sep2023-v1/30000/d562b43a-2f8c-4f46-8278-bbdb9dfde3c5.root | (None) | ad:20cf5466 | 1.116 GB   |          |
| cms:/store/data/Run2022E/JetMET/NANOAOD/22Sep2023-v1/30000/e8378133-12aa-49e6-873a-fc64ec934bce.root | (None) | ad:1dfa3eab | 97.967 MB  |          |
| cms:/store/data/Run2022E/JetMET/NANOAOD/22Sep2023-v1/30000/18257e76-440a-49a9-9e6b-fbc9450dceb8.root | (None) | ad:e71b1b96 | 1.287 GB   |          |
| cms:/store/data/Run2022E/JetMET/NANOAOD/22Sep2023-v1/30000/18ebf057-0d4b-4c6d-8b3c-cf4198c05d6c.root | (None) | ad:70e609f6 | 1.002 GB   |          |
| cms:/store/data/Run2022E/JetMET/NANOAOD/22Sep2023-v1/30000/1e9b1108-40b7-43bf-bcd7-b221093cfd85.root | (None) | ad:f010f3a8 | 1.368 GB   |          |
| cms:/store/data/Run2022E/JetMET/NANOAOD/22Sep2023-v1/30000/370cac8b-8a3f-42c2-86f5-9494f0e875e5.root | (None) | ad:58b657d6 | 994.603 MB |          |
| cms:/store/data/Run2022E/JetMET/NANOAOD/22Sep2023-v1/30000/3fa21894-ff76-4d9e-9891-7d16fdf5f46d.root | (None) | ad:ca4e5329 | 1.247 GB   |          |
| cms:/store/data/Run2022E/JetMET/NANOAOD/22Sep2023-v1/30000/5eb36fc0-f826-4c99-a4aa-fb79eaa81190.root | (None) | ad:954d49c0 | 1.005 GB   |          |
| cms:/store/data/Run2022E/JetMET/NANOAOD/22Sep2023-v1/30000/6fbc5719-daaa-4690-bd9b-13d54a62ec31.root | (None) | ad:6bf5a94a | 1.026 GB   |          |
| cms:/store/data/Run2022E/JetMET/NANOAOD/22Sep2023-v1/30000/7b49ce08-9402-402e-9906-6a335ecdffdb.root | (None) | ad:de037b7e | 669.700 MB |          |
| cms:/store/data/Run2022E/JetMET/NANOAOD/22Sep2023-v1/30000/7b550612-3761-422a-bfa5-df54a7e4ad95.root | (None) | ad:ec64885f | 1.008 GB   |          |
| cms:/store/data/Run2022E/JetMET/NANOAOD/22Sep2023-v1/30000/87a31cba-79fe-4eda-86b8-33951dfa55c5.root | (None) | ad:304bf77d | 35.709 MB  |          |
| cms:/store/data/Run2022E/JetMET/NANOAOD/22Sep2023-v1/30000/94f53af1-9090-4045-94bf-2d6c9dc21d69.root | (None) | ad:657d153d | 1.905 GB   |          |
| cms:/store/data/Run2022E/JetMET/NANOAOD/22Sep2023-v1/30000/a2528de5-0ccb-4e65-a4bf-cafbfdb28430.root | (None) | ad:122926ee | 1.278 GB   |          |
| cms:/store/data/Run2022E/JetMET/NANOAOD/22Sep2023-v1/30000/ae2a3f9f-65d7-4a34-8a97-1f113dfcb303.root | (None) | ad:358521f6 | 982.627 MB |          |
| cms:/store/data/Run2022E/JetMET/NANOAOD/22Sep2023-v1/30000/c31b4f7e-8d5c-4637-a396-37beecd00e48.root | (None) | ad:5795f27e | 1.331 GB   |          |
| cms:/store/data/Run2022E/JetMET/NANOAOD/22Sep2023-v1/30000/d1273b94-f51b-4331-96bc-aad18ad1e793.root | (None) | ad:291edc7a | 1.176 GB   |          |
| cms:/store/data/Run2022E/JetMET/NANOAOD/22Sep2023-v1/30000/db14a379-937d-41d3-bebc-94aff084bc52.root | (None) | ad:9e9cca61 | 1.210 GB   |          |
| cms:/store/data/Run2022E/JetMET/NANOAOD/22Sep2023-v1/30000/dd683059-4737-4b6e-8b9e-5e2852f49d16.root | (None) | ad:27c05ad0 | 945.868 MB |          |
| cms:/store/data/Run2022E/JetMET/NANOAOD/22Sep2023-v1/30000/de7e2264-9c64-4d8e-aeb5-fab0f427b59b.root | (None) | ad:e7a59759 | 992.422 MB |          |
| cms:/store/data/Run2022E/JetMET/NANOAOD/22Sep2023-v1/30000/e98d24e2-f7d7-473a-86a4-6573f6ca0019.root | (None) | ad:e7ac49eb | 1.641 GB   |          |
| cms:/store/data/Run2022E/JetMET/NANOAOD/22Sep2023-v1/50000/96af3f24-df73-4c3d-8808-bab384f9e7eb.root | (None) | ad:9254b1ff | 552.095 MB |          |
| cms:/store/data/Run2022E/JetMET/NANOAOD/22Sep2023-v1/50000/6891cb43-0ea1-4868-947d-63c20e572f99.root | (None) | ad:41b73563 | 414.210 MB |          |
| cms:/store/data/Run2022E/JetMET/NANOAOD/22Sep2023-v1/30000/dbc9e2fb-722d-473f-b07a-624b73852353.root | (None) | ad:75384304 | 32.295 MB  |          |
| cms:/store/data/Run2022E/JetMET/NANOAOD/22Sep2023-v1/50000/88f96140-3a7f-4f66-a3f4-1999f5a43b18.root | (None) | ad:f6944e1a | 631.118 MB |          |
| cms:/store/data/Run2022E/JetMET/NANOAOD/22Sep2023-v1/30000/950a77c8-6e78-4037-b6e8-711a4bba6a88.root | (None) | ad:ba536812 | 63.310 MB  |          |
| cms:/store/data/Run2022E/JetMET/NANOAOD/22Sep2023-v1/30000/a40c2bfb-66f0-4256-bd02-a161285a48fc.root | (None) | ad:2c76497d | 959.818 MB |          |
| cms:/store/data/Run2022E/JetMET/NANOAOD/22Sep2023-v1/50000/47e9de40-e44a-4cad-a0e0-edac4b758a75.root | (None) | ad:53c47bc5 | 56.398 MB  |          |
| cms:/store/data/Run2022E/JetMET/NANOAOD/22Sep2023-v1/50000/aec7ad26-182c-4d86-bb2e-5e07605722c2.root | (None) | ad:d9266240 | 898.211 MB |          |
| cms:/store/data/Run2022E/JetMET/NANOAOD/22Sep2023-v1/50000/f8532f41-b58b-4cf9-90b7-71338c59c559.root | (None) | ad:3f503010 | 924.613 MB |          |
| cms:/store/data/Run2022E/JetMET/NANOAOD/22Sep2023-v1/30000/006861e7-2e38-4421-9584-2d9f0131f2ba.root | (None) | ad:dfe7e80f | 1.754 GB   |          |
| cms:/store/data/Run2022E/JetMET/NANOAOD/22Sep2023-v1/30000/04cc57da-a00d-417e-a818-87ccb35fc396.root | (None) | ad:6c2b2e39 | 1.841 GB   |          |
| cms:/store/data/Run2022E/JetMET/NANOAOD/22Sep2023-v1/30000/38bf1fc2-d39c-4e4b-b1a8-bc8a1cfb2a54.root | (None) | ad:6d6f258c | 993.098 MB |          |
| cms:/store/data/Run2022E/JetMET/NANOAOD/22Sep2023-v1/30000/3b38e78d-2231-4f19-97c1-752b2e7bff79.root | (None) | ad:257548e9 | 1.363 GB   |          |
| cms:/store/data/Run2022E/JetMET/NANOAOD/22Sep2023-v1/30000/3db94511-aeb3-4871-9b81-fa85b507786e.root | (None) | ad:76238bf8 | 1.402 GB   |          |
| cms:/store/data/Run2022E/JetMET/NANOAOD/22Sep2023-v1/30000/477803c9-bb8c-4ab4-a402-dd3ee257610a.root | (None) | ad:b812feed | 608.642 MB |          |
| cms:/store/data/Run2022E/JetMET/NANOAOD/22Sep2023-v1/30000/5e035f4c-f154-4239-ae24-7a247d7328d0.root | (None) | ad:42f82611 | 958.154 MB |          |
| cms:/store/data/Run2022E/JetMET/NANOAOD/22Sep2023-v1/30000/5f7a6a42-c5b4-4157-8edc-b1d299111616.root | (None) | ad:28993285 | 1.534 GB   |          |
| cms:/store/data/Run2022E/JetMET/NANOAOD/22Sep2023-v1/30000/7fb35a06-ba37-48b6-a442-e1fb085d8cc1.root | (None) | ad:dc926b38 | 995.658 MB |          |
| cms:/store/data/Run2022E/JetMET/NANOAOD/22Sep2023-v1/30000/9aa18c27-d388-4e7d-af10-23550d4e8993.root | (None) | ad:34ea395b | 1.231 GB   |          |
| cms:/store/data/Run2022E/JetMET/NANOAOD/22Sep2023-v1/30000/9cb16a75-a1e5-4d36-94cf-84451f91f45a.root | (None) | ad:15e14e3e | 1.393 GB   |          |
| cms:/store/data/Run2022E/JetMET/NANOAOD/22Sep2023-v1/30000/a1f41c9e-e563-4f73-b9e7-90cdc5d927d4.root | (None) | ad:2cded5ee | 1.662 GB   |          |
| cms:/store/data/Run2022E/JetMET/NANOAOD/22Sep2023-v1/30000/a7dc3f6a-22f4-44c7-8c9b-51afa114a330.root | (None) | ad:50658e95 | 1.835 GB   |          |
| cms:/store/data/Run2022E/JetMET/NANOAOD/22Sep2023-v1/30000/a8dc7156-681e-409a-b4ac-764d3947c305.root | (None) | ad:4bbbb8bc | 1.034 GB   |          |
| cms:/store/data/Run2022E/JetMET/NANOAOD/22Sep2023-v1/30000/b93d8063-a111-45b5-aa78-0022f43b2449.root | (None) | ad:a274246a | 1.167 GB   |          |
| cms:/store/data/Run2022E/JetMET/NANOAOD/22Sep2023-v1/30000/e2003a5a-4ee1-4863-9a31-07634fa84fa7.root | (None) | ad:012ce3f5 | 1.511 GB   |          |
| cms:/store/data/Run2022E/JetMET/NANOAOD/22Sep2023-v1/30000/fef931ed-22d9-4b3b-9286-da30494ce869.root | (None) | ad:eae4044e | 1.399 GB   |          |
| cms:/store/data/Run2022E/JetMET/NANOAOD/22Sep2023-v1/50000/775b6a17-0035-472a-be26-f11940adda7e.root | (None) | ad:095eaa8e | 55.539 MB  |          |
| cms:/store/data/Run2022E/JetMET/NANOAOD/22Sep2023-v1/30000/00829dd3-a4bd-463b-8ec4-28b528ed9aaf.root | (None) | ad:142d119c | 1.139 GB   |          |
| cms:/store/data/Run2022E/JetMET/NANOAOD/22Sep2023-v1/30000/05e2e4e1-e55a-453a-bf11-7ef3980fc3f1.root | (None) | ad:2837b3be | 1.131 GB   |          |
| cms:/store/data/Run2022E/JetMET/NANOAOD/22Sep2023-v1/30000/15039933-452a-4cdf-8358-a8028484f484.root | (None) | ad:5588b7ff | 1.012 GB   |          |
| cms:/store/data/Run2022E/JetMET/NANOAOD/22Sep2023-v1/30000/35fe4e79-640e-48c7-bc92-0c0f7ac573a2.root | (None) | ad:9fe181c5 | 1.740 GB   |          |
| cms:/store/data/Run2022E/JetMET/NANOAOD/22Sep2023-v1/30000/8c274dd4-c907-476b-b589-4a801efa422f.root | (None) | ad:2503e627 | 1.054 GB   |          |
| cms:/store/data/Run2022E/JetMET/NANOAOD/22Sep2023-v1/30000/8c8e9add-445f-4a28-8e4a-f72e3da6d418.root | (None) | ad:04a05154 | 1.093 GB   |          |
| cms:/store/data/Run2022E/JetMET/NANOAOD/22Sep2023-v1/30000/8f3f0701-b553-4818-b420-31577ea0eaf4.root | (None) | ad:fb3413bf | 1.017 GB   |          |
| cms:/store/data/Run2022E/JetMET/NANOAOD/22Sep2023-v1/30000/b8f4c32d-9c19-4d09-b176-917cc20d38b5.root | (None) | ad:60e93ea7 | 1.294 GB   |          |
| cms:/store/data/Run2022E/JetMET/NANOAOD/22Sep2023-v1/30000/ebf5b860-1e0f-4a8a-a60a-2e6212389939.root | (None) | ad:d5e6d4e4 | 1.188 GB   |          |
| cms:/store/data/Run2022E/JetMET/NANOAOD/22Sep2023-v1/30000/f66461f6-4b9f-4e3e-a7f9-d603bf48d08d.root | (None) | ad:b4309ef0 | 1.037 GB   |          |
| cms:/store/data/Run2022E/JetMET/NANOAOD/22Sep2023-v1/30000/fab024fe-253b-4161-8f04-2be13bed4484.root | (None) | ad:1c2aaa45 | 511.711 MB |          |
| cms:/store/data/Run2022E/JetMET/NANOAOD/22Sep2023-v1/50000/4ee021ab-b93e-48f4-a260-cb45ce943009.root | (None) | ad:de111f10 | 587.317 MB |          |
| cms:/store/data/Run2022E/JetMET/NANOAOD/22Sep2023-v1/50000/1e60b65b-098a-49e8-98d0-9038cb7c65da.root | (None) | ad:8a99846d | 782.397 MB |          |
| cms:/store/data/Run2022E/JetMET/NANOAOD/22Sep2023-v1/50000/4d437e73-4c80-4892-bed7-343093258aac.root | (None) | ad:861bbc3e | 18.831 MB  |          |
| cms:/store/data/Run2022E/JetMET/NANOAOD/22Sep2023-v1/50000/fafddb85-5661-402c-ac8c-0ef5255feec5.root | (None) | ad:bb105a3b | 874.193 MB |          |
| cms:/store/data/Run2022E/JetMET/NANOAOD/22Sep2023-v1/50000/a054a15a-d10b-4d83-b510-dc94413c8b44.root | (None) | ad:6bd86f4c | 161.638 MB |          |
+------------------------------------------------------------------------------------------------------+--------+-------------+------------+----------+
Total files : 148
Total size : 177.127 GB
