+------------------------------------------------------------------------------------------------------------------+--------+-------------+------------+----------+
| SCOPE:NAME                                                                                                       | GUID   | ADLER32     | FILESIZE   | EVENTS   |
|------------------------------------------------------------------------------------------------------------------+--------+-------------+------------+----------|
| cms:/store/data/Run2024E/Muon1/NANOAOD/PromptReco-v1/000/381/364/00000/ce9cb4ef-04c5-44a9-a6c1-bef07982bb76.root | (None) | ad:97e2a5ab | 12.985 MB  |          |
| cms:/store/data/Run2024E/Muon1/NANOAOD/PromptReco-v1/000/381/379/00000/b6e2798d-61ae-474a-aac5-e75250538a50.root | (None) | ad:ff14fcce | 181.719 MB |          |
| cms:/store/data/Run2024E/Muon1/NANOAOD/PromptReco-v1/000/381/380/00000/5093929c-c80c-407f-90cb-9c65d2663f12.root | (None) | ad:5edfc937 | 414.613 MB |          |
| cms:/store/data/Run2024E/Muon1/NANOAOD/PromptReco-v1/000/380/963/00000/1062df65-ca8f-4651-8a4b-1be35107b61a.root | (None) | ad:5d643a61 | 340.175 MB |          |
| cms:/store/data/Run2024E/Muon1/NANOAOD/PromptReco-v1/000/380/963/00000/1409e9d4-5e80-4bc2-9f93-ec69420d44e8.root | (None) | ad:7fefc1b2 | 497.261 MB |          |
| cms:/store/data/Run2024E/Muon1/NANOAOD/PromptReco-v1/000/380/963/00000/3b31c1f7-9153-4ccc-8995-065cb0b318c3.root | (None) | ad:29e81c59 | 430.578 MB |          |
| cms:/store/data/Run2024E/Muon1/NANOAOD/PromptReco-v1/000/380/963/00000/4e37a575-d40a-406e-ada5-3ef23e2fbc8a.root | (None) | ad:5f8cc974 | 1.025 GB   |          |
| cms:/store/data/Run2024E/Muon1/NANOAOD/PromptReco-v1/000/380/963/00000/60acb381-2747-4087-b7cf-0e60ac8ec3ef.root | (None) | ad:13d8a085 | 805.771 MB |          |
| cms:/store/data/Run2024E/Muon1/NANOAOD/PromptReco-v1/000/380/963/00000/9e1636d5-4d1e-482d-88c4-334ac2368d53.root | (None) | ad:77f94c40 | 714.711 MB |          |
| cms:/store/data/Run2024E/Muon1/NANOAOD/PromptReco-v1/000/380/963/00000/9e297038-e084-4276-9017-828e8db363f1.root | (None) | ad:48272514 | 415.719 MB |          |
| cms:/store/data/Run2024E/Muon1/NANOAOD/PromptReco-v1/000/380/963/00000/d22f1dbb-0d0f-4119-8280-65f33a014dc5.root | (None) | ad:e5d4013a | 544.883 MB |          |
| cms:/store/data/Run2024E/Muon1/NANOAOD/PromptReco-v1/000/380/963/00000/da0052ae-196a-476c-b1c2-097b095e7f35.root | (None) | ad:12317931 | 845.861 MB |          |
| cms:/store/data/Run2024E/Muon1/NANOAOD/PromptReco-v1/000/380/963/00000/fbe6f665-d953-48f0-80e7-ce28b93e4a82.root | (None) | ad:c1eb5eac | 458.772 MB |          |
| cms:/store/data/Run2024E/Muon1/NANOAOD/PromptReco-v1/000/381/012/00000/1a68791f-b554-4212-903f-5d94cb9952ca.root | (None) | ad:ac52dddf | 9.047 MB   |          |
| cms:/store/data/Run2024E/Muon1/NANOAOD/PromptReco-v1/000/381/017/00000/830e964e-cf49-42ee-ba0b-660d167dd76f.root | (None) | ad:9723074a | 5.859 MB   |          |
| cms:/store/data/Run2024E/Muon1/NANOAOD/PromptReco-v1/000/381/199/00000/7700c541-b999-46a1-b9e2-c9389bfe4dbb.root | (None) | ad:a9fa3768 | 104.124 MB |          |
| cms:/store/data/Run2024E/Muon1/NANOAOD/PromptReco-v1/000/381/212/00000/7a3e0133-2348-4127-a05d-339b1c826065.root | (None) | ad:c2f2a7e1 | 13.083 MB  |          |
| cms:/store/data/Run2024E/Muon1/NANOAOD/PromptReco-v1/000/381/212/00000/c66f2be7-ee7f-42bf-a2d3-5110818380d2.root | (None) | ad:b4fbffc4 | 377.199 MB |          |
| cms:/store/data/Run2024E/Muon1/NANOAOD/PromptReco-v1/000/381/286/00000/0a8f0d39-e8b6-461c-b6eb-012858a7e0a7.root | (None) | ad:04440fa0 | 592.986 MB |          |
| cms:/store/data/Run2024E/Muon1/NANOAOD/PromptReco-v1/000/381/286/00000/20bb73b4-5f87-4bf8-9ab2-7591b0232679.root | (None) | ad:22793cb2 | 560.514 MB |          |
| cms:/store/data/Run2024E/Muon1/NANOAOD/PromptReco-v1/000/381/286/00000/5cf77760-383d-422e-954e-352d97214ce7.root | (None) | ad:9d5b7454 | 487.225 MB |          |
| cms:/store/data/Run2024E/Muon1/NANOAOD/PromptReco-v1/000/381/286/00000/7714d2d1-14ec-4c3f-b88e-8a0f35efd397.root | (None) | ad:7ebac91b | 580.164 MB |          |
| cms:/store/data/Run2024E/Muon1/NANOAOD/PromptReco-v1/000/381/286/00000/785d2dd7-dc3d-450f-a4ce-1616a8f3bc16.root | (None) | ad:cde4584b | 542.710 MB |          |
| cms:/store/data/Run2024E/Muon1/NANOAOD/PromptReco-v1/000/381/286/00000/97939ea5-9a84-45f7-851d-73250600b57a.root | (None) | ad:785e0dca | 587.382 MB |          |
| cms:/store/data/Run2024E/Muon1/NANOAOD/PromptReco-v1/000/381/286/00000/b192e7eb-4919-49da-82fc-d5f9cacedd71.root | (None) | ad:c3358b9d | 549.275 MB |          |
| cms:/store/data/Run2024E/Muon1/NANOAOD/PromptReco-v1/000/381/286/00000/d9feab61-e819-4b70-8b17-c8afc330682e.root | (None) | ad:43ba30ef | 542.327 MB |          |
| cms:/store/data/Run2024E/Muon1/NANOAOD/PromptReco-v1/000/381/286/00000/effadb3e-3700-4161-91d4-796201ab13e0.root | (None) | ad:1f026844 | 580.005 MB |          |
| cms:/store/data/Run2024E/Muon1/NANOAOD/PromptReco-v1/000/381/286/00000/f352fa13-0935-4768-800b-56a3b73530fd.root | (None) | ad:429e436a | 599.096 MB |          |
| cms:/store/data/Run2024E/Muon1/NANOAOD/PromptReco-v1/000/381/309/00000/05639334-4535-4dd9-a44f-a02e8b597faf.root | (None) | ad:85b3b17a | 598.704 MB |          |
| cms:/store/data/Run2024E/Muon1/NANOAOD/PromptReco-v1/000/381/309/00000/51322dce-15c8-42ac-abb8-f5e6d969e93c.root | (None) | ad:ca82e649 | 399.457 MB |          |
| cms:/store/data/Run2024E/Muon1/NANOAOD/PromptReco-v1/000/381/309/00000/69c609df-561d-47b4-8b27-f83b12292cd0.root | (None) | ad:d373227a | 542.367 MB |          |
| cms:/store/data/Run2024E/Muon1/NANOAOD/PromptReco-v1/000/381/309/00000/7bf1c093-9846-4999-8253-400b0e92f72d.root | (None) | ad:05f4af74 | 568.252 MB |          |
| cms:/store/data/Run2024E/Muon1/NANOAOD/PromptReco-v1/000/381/338/00000/3834b6d9-c9a0-4b4a-8bbd-57406a58db0d.root | (None) | ad:b309dac4 | 3.701 MB   |          |
| cms:/store/data/Run2024E/Muon1/NANOAOD/PromptReco-v1/000/381/341/00000/f92d5036-2eac-4a21-ae57-114961dfb198.root | (None) | ad:1d083e2d | 4.172 MB   |          |
| cms:/store/data/Run2024E/Muon1/NANOAOD/PromptReco-v1/000/381/351/00000/85ac5405-0b40-4559-bdb3-dc8e175a9984.root | (None) | ad:de25f171 | 3.085 MB   |          |
| cms:/store/data/Run2024E/Muon1/NANOAOD/PromptReco-v1/000/381/358/00000/b6009cef-8e56-4530-a154-f0a42f879675.root | (None) | ad:cc55c40b | 36.842 MB  |          |
| cms:/store/data/Run2024E/Muon1/NANOAOD/PromptReco-v1/000/381/364/00000/2fafc272-c33d-4832-8e69-bafda8330945.root | (None) | ad:277f4e00 | 508.004 MB |          |
| cms:/store/data/Run2024E/Muon1/NANOAOD/PromptReco-v1/000/381/364/00000/76020590-8cbb-4bfc-9670-a1ce50346bc4.root | (None) | ad:2c9e01dc | 555.615 MB |          |
| cms:/store/data/Run2024E/Muon1/NANOAOD/PromptReco-v1/000/381/364/00000/79d62419-67e3-47fe-8f61-2fc75114cbd7.root | (None) | ad:3a6d7f6e | 378.977 MB |          |
| cms:/store/data/Run2024E/Muon1/NANOAOD/PromptReco-v1/000/381/364/00000/8a958bda-7320-45e4-9ad9-76c22a0b9d3d.root | (None) | ad:33294e60 | 629.395 MB |          |
| cms:/store/data/Run2024E/Muon1/NANOAOD/PromptReco-v1/000/381/364/00000/c1de3870-5733-4290-9227-79e80dec8cc5.root | (None) | ad:5e43d023 | 729.639 MB |          |
| cms:/store/data/Run2024E/Muon1/NANOAOD/PromptReco-v1/000/380/963/00000/3771c933-0615-4dc1-bad0-d8bc418b5a66.root | (None) | ad:d98b1fcb | 502.208 MB |          |
| cms:/store/data/Run2024E/Muon1/NANOAOD/PromptReco-v1/000/380/963/00000/6e032948-fea4-4b5f-8bdf-bea8809ddfd6.root | (None) | ad:5daf53dd | 66.545 MB  |          |
| cms:/store/data/Run2024E/Muon1/NANOAOD/PromptReco-v1/000/381/022/00000/5a84f79e-eb86-49d4-9a36-2ca34bc91e5b.root | (None) | ad:1e38b529 | 360.404 MB |          |
| cms:/store/data/Run2024E/Muon1/NANOAOD/PromptReco-v1/000/381/022/00000/aff0a2f1-9a1c-4738-a57f-bbe29c8160b6.root | (None) | ad:4c9b2170 | 528.348 MB |          |
| cms:/store/data/Run2024E/Muon1/NANOAOD/PromptReco-v1/000/381/022/00000/ba9c78d8-d7c3-4995-a35e-406149ed5292.root | (None) | ad:4f4f1cd2 | 526.468 MB |          |
| cms:/store/data/Run2024E/Muon1/NANOAOD/PromptReco-v1/000/381/022/00000/c60b8ead-4b30-4a79-be35-d222ffe433e2.root | (None) | ad:ef295f53 | 738.347 MB |          |
| cms:/store/data/Run2024E/Muon1/NANOAOD/PromptReco-v1/000/381/022/00000/d97f8739-b105-4f6f-b2e4-1cb65a355606.root | (None) | ad:9b6f4a2f | 536.669 MB |          |
| cms:/store/data/Run2024E/Muon1/NANOAOD/PromptReco-v1/000/381/022/00000/dcf3f5d6-5489-430e-8f7c-44baf5b27ff3.root | (None) | ad:d83d98e7 | 477.597 MB |          |
| cms:/store/data/Run2024E/Muon1/NANOAOD/PromptReco-v1/000/381/022/00000/ea1f1911-2284-465e-be62-3c693e4727d8.root | (None) | ad:28037915 | 503.287 MB |          |
| cms:/store/data/Run2024E/Muon1/NANOAOD/PromptReco-v1/000/381/053/00000/560d230f-da14-4d69-a913-29ab8500268d.root | (None) | ad:e6a4906e | 359.796 MB |          |
| cms:/store/data/Run2024E/Muon1/NANOAOD/PromptReco-v1/000/381/065/00000/085e0ed1-9656-4b67-850f-9a0179757d6e.root | (None) | ad:5ecbb490 | 578.420 MB |          |
| cms:/store/data/Run2024E/Muon1/NANOAOD/PromptReco-v1/000/381/065/00000/321260eb-74a5-4287-99f3-c41b692c7c2b.root | (None) | ad:96a317b2 | 619.331 MB |          |
| cms:/store/data/Run2024E/Muon1/NANOAOD/PromptReco-v1/000/381/065/00000/50dd051b-0cf9-4330-9e8a-fc694d0177e6.root | (None) | ad:09eb25af | 732.244 MB |          |
| cms:/store/data/Run2024E/Muon1/NANOAOD/PromptReco-v1/000/381/065/00000/620a6c19-d1a9-47db-ad16-be49b1ee297f.root | (None) | ad:32a159cc | 620.859 MB |          |
| cms:/store/data/Run2024E/Muon1/NANOAOD/PromptReco-v1/000/381/065/00000/95d9b79f-9b10-456a-9076-9478ce8fddaf.root | (None) | ad:c252effc | 527.582 MB |          |
| cms:/store/data/Run2024E/Muon1/NANOAOD/PromptReco-v1/000/381/065/00000/9d8e15b2-fd0a-4851-aed5-96ed7e79731c.root | (None) | ad:e6cc2d50 | 659.636 MB |          |
| cms:/store/data/Run2024E/Muon1/NANOAOD/PromptReco-v1/000/381/065/00000/b4f644ce-5551-43d7-b776-6fe9d8a9bc68.root | (None) | ad:35a05d52 | 567.713 MB |          |
| cms:/store/data/Run2024E/Muon1/NANOAOD/PromptReco-v1/000/381/065/00000/c28eb453-dad2-4e89-b563-88f4b4b1dbfe.root | (None) | ad:b6112df4 | 571.482 MB |          |
| cms:/store/data/Run2024E/Muon1/NANOAOD/PromptReco-v1/000/381/065/00000/c97aa44c-5df9-4e06-9168-45e22cea4a28.root | (None) | ad:ba75ed35 | 378.159 MB |          |
| cms:/store/data/Run2024E/Muon1/NANOAOD/PromptReco-v1/000/381/065/00000/f22c8eb8-4500-481a-aab0-d9d4ad32ed3e.root | (None) | ad:db1cacdb | 721.348 MB |          |
| cms:/store/data/Run2024E/Muon1/NANOAOD/PromptReco-v1/000/381/065/00000/f8151ba7-604a-4cb5-9e1d-221793140e70.root | (None) | ad:2cf3ddd9 | 589.142 MB |          |
| cms:/store/data/Run2024E/Muon1/NANOAOD/PromptReco-v1/000/381/115/00000/891b7d70-e795-4554-af61-a5162aa3908a.root | (None) | ad:a1259a95 | 353.620 MB |          |
| cms:/store/data/Run2024E/Muon1/NANOAOD/PromptReco-v1/000/381/147/00000/bcb9cad7-ca4d-49f1-a29e-4a8a6b121111.root | (None) | ad:0bef5c1f | 443.718 MB |          |
| cms:/store/data/Run2024E/Muon1/NANOAOD/PromptReco-v1/000/381/148/00000/2093abd2-51bd-4aef-b297-c01335603b1e.root | (None) | ad:a6ed1645 | 324.717 MB |          |
| cms:/store/data/Run2024E/Muon1/NANOAOD/PromptReco-v1/000/381/149/00000/a1decedc-3e75-41e4-931d-34df3a4610da.root | (None) | ad:615e3607 | 536.535 MB |          |
| cms:/store/data/Run2024E/Muon1/NANOAOD/PromptReco-v1/000/381/150/00000/998bc230-4c88-40d5-9b98-2ea2f0c5ce68.root | (None) | ad:8eccdd28 | 349.489 MB |          |
| cms:/store/data/Run2024E/Muon1/NANOAOD/PromptReco-v1/000/381/151/00000/204e7e7b-8e22-4b8c-b979-7cb7931eae36.root | (None) | ad:644c90c7 | 327.158 MB |          |
| cms:/store/data/Run2024E/Muon1/NANOAOD/PromptReco-v1/000/381/151/00000/4e6f9ca8-55cb-441a-999e-0fc2786cbd79.root | (None) | ad:2bffbc50 | 468.257 MB |          |
| cms:/store/data/Run2024E/Muon1/NANOAOD/PromptReco-v1/000/381/151/00000/5fe235a4-62d0-440d-943b-748e426a6df1.root | (None) | ad:7c47a380 | 602.181 MB |          |
| cms:/store/data/Run2024E/Muon1/NANOAOD/PromptReco-v1/000/381/151/00000/93cc515a-c9f4-4aa9-9852-bcd0d4b7caa4.root | (None) | ad:0e7c9dcf | 409.378 MB |          |
| cms:/store/data/Run2024E/Muon1/NANOAOD/PromptReco-v1/000/381/151/00000/a9839220-0066-4df2-84c2-5578a024219d.root | (None) | ad:65aa1738 | 748.980 MB |          |
| cms:/store/data/Run2024E/Muon1/NANOAOD/PromptReco-v1/000/381/151/00000/c8e0509c-ae0d-4494-870f-4b740c4099a3.root | (None) | ad:d3c27c5e | 419.777 MB |          |
| cms:/store/data/Run2024E/Muon1/NANOAOD/PromptReco-v1/000/381/151/00000/d1e47e49-84fd-4675-aac6-04daadb04a6b.root | (None) | ad:17bca73f | 531.384 MB |          |
| cms:/store/data/Run2024E/Muon1/NANOAOD/PromptReco-v1/000/381/151/00000/dce1d2bc-17c1-4108-9ac4-31804c444cfb.root | (None) | ad:076f806a | 526.696 MB |          |
| cms:/store/data/Run2024E/Muon1/NANOAOD/PromptReco-v1/000/381/151/00000/f4a94465-5821-456f-91f1-ee105e5c4826.root | (None) | ad:78d4ead4 | 481.533 MB |          |
| cms:/store/data/Run2024E/Muon1/NANOAOD/PromptReco-v1/000/381/151/00000/f8275966-1108-4ac2-addc-2d1b49dd0ce6.root | (None) | ad:d38ad391 | 459.421 MB |          |
| cms:/store/data/Run2024E/Muon1/NANOAOD/PromptReco-v1/000/381/152/00000/0bad9c1c-36ff-4915-88e2-322d3e7da13f.root | (None) | ad:e172703d | 322.737 MB |          |
| cms:/store/data/Run2024E/Muon1/NANOAOD/PromptReco-v1/000/381/152/00000/3375d314-b42e-4ca7-a6f9-26741259d8fe.root | (None) | ad:3719b3fb | 154.280 MB |          |
| cms:/store/data/Run2024E/Muon1/NANOAOD/PromptReco-v1/000/381/152/00000/bc1ea19e-bbcb-43da-9372-c3e6655445ab.root | (None) | ad:87fd1b50 | 311.307 MB |          |
| cms:/store/data/Run2024E/Muon1/NANOAOD/PromptReco-v1/000/381/166/00000/26a37017-91f4-4a82-9f0e-cf9083a17f08.root | (None) | ad:51cf56da | 3.256 MB   |          |
| cms:/store/data/Run2024E/Muon1/NANOAOD/PromptReco-v1/000/381/189/00000/f6c80acc-b096-4c01-9c35-797d56a71659.root | (None) | ad:9a3c7e0a | 3.385 MB   |          |
| cms:/store/data/Run2024E/Muon1/NANOAOD/PromptReco-v1/000/381/148/00000/5be142b4-3911-40e2-9633-ddb622c48e62.root | (None) | ad:acac7d39 | 21.598 MB  |          |
| cms:/store/data/Run2024E/Muon1/NANOAOD/PromptReco-v1/000/381/149/00000/b0e8c271-b787-4cbb-8b05-3e3abbc83250.root | (None) | ad:ae94af6f | 39.632 MB  |          |
| cms:/store/data/Run2024E/Muon1/NANOAOD/PromptReco-v1/000/381/151/00000/21056c97-dca2-45b0-a7d0-0bd11b8322bb.root | (None) | ad:06e3bd98 | 77.013 MB  |          |
| cms:/store/data/Run2024E/Muon1/NANOAOD/PromptReco-v1/000/381/164/00000/0247df4b-2d6a-4352-8849-261ea68c18e4.root | (None) | ad:624426d6 | 629.982 MB |          |
| cms:/store/data/Run2024E/Muon1/NANOAOD/PromptReco-v1/000/381/164/00000/08661668-8aaf-4403-b983-03fe6682232f.root | (None) | ad:da23abd8 | 537.320 MB |          |
| cms:/store/data/Run2024E/Muon1/NANOAOD/PromptReco-v1/000/381/164/00000/106980d9-6547-420a-9ebf-63517d43f351.root | (None) | ad:4ea136b4 | 602.180 MB |          |
| cms:/store/data/Run2024E/Muon1/NANOAOD/PromptReco-v1/000/381/164/00000/35de55c1-efd2-43ce-b0a6-7470d759b6ae.root | (None) | ad:938f9061 | 542.083 MB |          |
| cms:/store/data/Run2024E/Muon1/NANOAOD/PromptReco-v1/000/381/164/00000/4d81caa4-fbef-4bba-aba5-a97a94c29e79.root | (None) | ad:22384004 | 1.069 GB   |          |
| cms:/store/data/Run2024E/Muon1/NANOAOD/PromptReco-v1/000/381/164/00000/5e14527d-1a07-4724-b793-e706b8409747.root | (None) | ad:c9512e34 | 678.513 MB |          |
| cms:/store/data/Run2024E/Muon1/NANOAOD/PromptReco-v1/000/381/164/00000/62fe2ebd-f140-43fe-b7c8-e624d1bebcab.root | (None) | ad:f22bee41 | 501.589 MB |          |
| cms:/store/data/Run2024E/Muon1/NANOAOD/PromptReco-v1/000/381/164/00000/7e92bca4-5e55-45af-88e6-c436d020909a.root | (None) | ad:b34025fe | 795.476 MB |          |
| cms:/store/data/Run2024E/Muon1/NANOAOD/PromptReco-v1/000/381/164/00000/822a0a1f-a955-4afd-aa4a-da288bbe0923.root | (None) | ad:786bfa87 | 765.276 MB |          |
| cms:/store/data/Run2024E/Muon1/NANOAOD/PromptReco-v1/000/381/164/00000/96c77cfb-9a00-414d-bec4-5f3d40700890.root | (None) | ad:a38e52fe | 581.162 MB |          |
| cms:/store/data/Run2024E/Muon1/NANOAOD/PromptReco-v1/000/381/164/00000/9cd7527a-439c-4072-a145-94aa0b3d5ca1.root | (None) | ad:3f0c4f0c | 353.240 MB |          |
| cms:/store/data/Run2024E/Muon1/NANOAOD/PromptReco-v1/000/381/164/00000/d52ec905-f86a-4b13-88b1-decc7b4a9170.root | (None) | ad:786ef64e | 615.568 MB |          |
| cms:/store/data/Run2024E/Muon1/NANOAOD/PromptReco-v1/000/381/164/00000/e2310264-72c8-41b9-99a3-516f9b804855.root | (None) | ad:503b928e | 526.371 MB |          |
| cms:/store/data/Run2024E/Muon1/NANOAOD/PromptReco-v1/000/381/164/00000/f2a23b56-ef72-49a2-a97b-a09edd93841a.root | (None) | ad:56283f6d | 1.045 GB   |          |
| cms:/store/data/Run2024E/Muon1/NANOAOD/PromptReco-v1/000/381/190/00000/185fb84c-3e3f-46d7-94f4-b4ec22ded30c.root | (None) | ad:350da069 | 962.329 MB |          |
| cms:/store/data/Run2024E/Muon1/NANOAOD/PromptReco-v1/000/381/190/00000/2856e512-3f4c-495a-a2f6-1bcdf6da25d2.root | (None) | ad:a0d235d8 | 600.590 MB |          |
| cms:/store/data/Run2024E/Muon1/NANOAOD/PromptReco-v1/000/381/190/00000/36df5912-aa0b-4d96-abfa-2971c8386c4b.root | (None) | ad:d94a7343 | 499.705 MB |          |
| cms:/store/data/Run2024E/Muon1/NANOAOD/PromptReco-v1/000/381/190/00000/53783dd4-9b5f-42e8-9696-6a3ef4ada9a6.root | (None) | ad:ae81906a | 546.018 MB |          |
| cms:/store/data/Run2024E/Muon1/NANOAOD/PromptReco-v1/000/381/190/00000/645047a8-480d-4c32-bd08-0694d3f1c0cb.root | (None) | ad:9f394d2a | 545.638 MB |          |
| cms:/store/data/Run2024E/Muon1/NANOAOD/PromptReco-v1/000/381/190/00000/8a62c650-389d-4c53-a1a1-389e4f477e1d.root | (None) | ad:25d9ab2c | 1.073 GB   |          |
| cms:/store/data/Run2024E/Muon1/NANOAOD/PromptReco-v1/000/381/190/00000/9141c426-ebe3-42e5-8bb2-1262d52f2bc5.root | (None) | ad:9e70026d | 554.887 MB |          |
| cms:/store/data/Run2024E/Muon1/NANOAOD/PromptReco-v1/000/381/190/00000/badbc5a9-176e-4d80-946c-d07d1fe4b355.root | (None) | ad:21bae64c | 803.299 MB |          |
| cms:/store/data/Run2024E/Muon1/NANOAOD/PromptReco-v1/000/381/190/00000/c3d319e1-9775-4425-bc98-a321b748b159.root | (None) | ad:a5d413e0 | 494.470 MB |          |
| cms:/store/data/Run2024E/Muon1/NANOAOD/PromptReco-v1/000/381/190/00000/d388593f-e32a-4ce3-bdb9-0c2c22ca0e54.root | (None) | ad:f4c3dc37 | 370.739 MB |          |
| cms:/store/data/Run2024E/Muon1/NANOAOD/PromptReco-v1/000/381/190/00000/d7269eca-9ee1-41c3-b17f-397172f6752e.root | (None) | ad:e5c5bd16 | 527.026 MB |          |
| cms:/store/data/Run2024E/Muon1/NANOAOD/PromptReco-v1/000/381/190/00000/e0c66ec2-6b31-4cca-b6ea-26aa61a26bf1.root | (None) | ad:d30a63b6 | 760.369 MB |          |
| cms:/store/data/Run2024E/Muon1/NANOAOD/PromptReco-v1/000/381/190/00000/eae21fea-90a0-49bc-aec3-cb04d6ae0daf.root | (None) | ad:1a6c4d59 | 1.078 GB   |          |
| cms:/store/data/Run2024E/Muon1/NANOAOD/PromptReco-v1/000/381/191/00000/0675f5ef-0b8a-4a8a-b47e-9be1c73dab25.root | (None) | ad:b07cba10 | 277.817 MB |          |
| cms:/store/data/Run2024E/Muon1/NANOAOD/PromptReco-v1/000/381/191/00000/9500aaae-42f1-432f-aefe-2814784e1c28.root | (None) | ad:51c3a80b | 316.975 MB |          |
| cms:/store/data/Run2024E/Muon1/NANOAOD/PromptReco-v1/000/381/286/00000/cb1bff93-a982-421a-8a09-71f4a667727a.root | (None) | ad:2fdb2adf | 13.141 MB  |          |
| cms:/store/data/Run2024E/Muon1/NANOAOD/PromptReco-v1/000/381/286/00000/f2fa73fd-943c-484e-ac42-43242625cba8.root | (None) | ad:2fd5e56f | 236.983 MB |          |
| cms:/store/data/Run2024E/Muon1/NANOAOD/PromptReco-v1/000/381/309/00000/32050f47-c830-49fe-8490-b79f77ffb71a.root | (None) | ad:58a0982b | 552.356 MB |          |
| cms:/store/data/Run2024E/Muon1/NANOAOD/PromptReco-v1/000/381/309/00000/c6291fb0-19b1-4436-8ca0-45965c483d66.root | (None) | ad:cbef5f37 | 544.730 MB |          |
| cms:/store/data/Run2024E/Muon1/NANOAOD/PromptReco-v1/000/381/364/00000/f160a657-8d3d-4657-8c66-11015e5fbc8a.root | (None) | ad:f01e7ac7 | 546.719 MB |          |
| cms:/store/data/Run2024E/Muon1/NANOAOD/PromptReco-v1/000/381/365/00000/2cd74655-673d-42ac-8821-1b79127031f5.root | (None) | ad:05809a19 | 591.774 MB |          |
| cms:/store/data/Run2024E/Muon1/NANOAOD/PromptReco-v1/000/381/365/00000/785cd099-3386-413f-b685-45bf88adffe3.root | (None) | ad:0adcc16a | 526.156 MB |          |
| cms:/store/data/Run2024E/Muon1/NANOAOD/PromptReco-v1/000/381/365/00000/829d34c6-eb5d-4312-8a8a-84f065feef0d.root | (None) | ad:82fe076b | 839.087 MB |          |
| cms:/store/data/Run2024E/Muon1/NANOAOD/PromptReco-v1/000/381/365/00000/8bb9b5bf-240c-4906-a098-9837eb7892ee.root | (None) | ad:b48f4564 | 777.756 MB |          |
| cms:/store/data/Run2024E/Muon1/NANOAOD/PromptReco-v1/000/381/365/00000/8e75ce01-41f8-4616-9b21-4c3468e9a2d3.root | (None) | ad:cd86723b | 531.653 MB |          |
| cms:/store/data/Run2024E/Muon1/NANOAOD/PromptReco-v1/000/381/365/00000/8f0dab93-7693-400c-905f-440e839e1328.root | (None) | ad:e2d9cb36 | 563.356 MB |          |
| cms:/store/data/Run2024E/Muon1/NANOAOD/PromptReco-v1/000/381/365/00000/b16dc1ac-98ee-48b7-a503-f97e787b7555.root | (None) | ad:fe413652 | 497.561 MB |          |
| cms:/store/data/Run2024E/Muon1/NANOAOD/PromptReco-v1/000/381/365/00000/cb16dd0c-175a-415d-a0d4-3878869e02ef.root | (None) | ad:969253a7 | 541.457 MB |          |
| cms:/store/data/Run2024E/Muon1/NANOAOD/PromptReco-v1/000/381/371/00000/78d2bdf7-5243-485c-a7c6-42874a599a02.root | (None) | ad:7141efce | 376.084 MB |          |
| cms:/store/data/Run2024E/Muon1/NANOAOD/PromptReco-v1/000/381/371/00000/cd063392-b11c-401b-bc86-fb54f9cbf410.root | (None) | ad:8e6e25e1 | 543.787 MB |          |
| cms:/store/data/Run2024E/Muon1/NANOAOD/PromptReco-v1/000/381/379/00000/17710712-1156-42c1-bd12-7bbd484ee842.root | (None) | ad:0eb46fff | 368.465 MB |          |
| cms:/store/data/Run2024E/Muon1/NANOAOD/PromptReco-v1/000/381/379/00000/25da30cf-4997-464a-a124-fa50e8276d9a.root | (None) | ad:589d9ffc | 710.034 MB |          |
| cms:/store/data/Run2024E/Muon1/NANOAOD/PromptReco-v1/000/381/379/00000/2b653ce7-09fe-464b-a5ef-f7b7ca5c365f.root | (None) | ad:b85302c5 | 499.808 MB |          |
| cms:/store/data/Run2024E/Muon1/NANOAOD/PromptReco-v1/000/381/379/00000/37303583-7aa0-444a-8305-9eb2e4db305d.root | (None) | ad:1e99cb55 | 754.832 MB |          |
| cms:/store/data/Run2024E/Muon1/NANOAOD/PromptReco-v1/000/381/379/00000/c3f0ef69-2c9d-4843-a9d9-2483a417f054.root | (None) | ad:25676f09 | 561.297 MB |          |
| cms:/store/data/Run2024E/Muon1/NANOAOD/PromptReco-v1/000/381/379/00000/e78c7d93-5830-4716-bb98-2f77649ec94b.root | (None) | ad:bffb3b45 | 650.355 MB |          |
| cms:/store/data/Run2024E/Muon1/NANOAOD/PromptReco-v1/000/381/379/00000/eb5e15b2-0741-4076-9c43-5e9ec8769a1d.root | (None) | ad:736eb2bb | 547.108 MB |          |
| cms:/store/data/Run2024E/Muon1/NANOAOD/PromptReco-v1/000/381/164/00000/5d296030-cdc5-43e4-92ca-29d8fe31b8ee.root | (None) | ad:46a2007f | 522.356 MB |          |
| cms:/store/data/Run2024E/Muon1/NANOAOD/PromptReco-v1/000/381/164/00000/7e6cb437-2a80-4a84-9f24-4d72fa0d7a43.root | (None) | ad:5f4fe755 | 13.111 MB  |          |
| cms:/store/data/Run2024E/Muon1/NANOAOD/PromptReco-v1/000/381/190/00000/6ed49d97-18d4-4275-8338-43c57ea97bbb.root | (None) | ad:d996bfdc | 490.097 MB |          |
| cms:/store/data/Run2024E/Muon1/NANOAOD/PromptReco-v1/000/381/191/00000/057d5163-68f4-4fa9-96ee-6350ec55fd5f.root | (None) | ad:7e0071ab | 615.429 MB |          |
| cms:/store/data/Run2024E/Muon1/NANOAOD/PromptReco-v1/000/381/191/00000/0f02b221-da0b-46d8-8151-53e12ee56da2.root | (None) | ad:8e8e48e2 | 519.697 MB |          |
| cms:/store/data/Run2024E/Muon1/NANOAOD/PromptReco-v1/000/381/191/00000/1c9caa96-5393-4930-9896-deb2a3a512ef.root | (None) | ad:8abef7ca | 336.271 MB |          |
| cms:/store/data/Run2024E/Muon1/NANOAOD/PromptReco-v1/000/381/191/00000/2012819e-a1f0-4f31-a9b8-0a3794b51d80.root | (None) | ad:51590749 | 76.375 MB  |          |
| cms:/store/data/Run2024E/Muon1/NANOAOD/PromptReco-v1/000/381/191/00000/32d5a4be-56e7-46e1-b926-ac1e9c6a03f1.root | (None) | ad:011c8b8d | 352.431 MB |          |
| cms:/store/data/Run2024E/Muon1/NANOAOD/PromptReco-v1/000/381/191/00000/553dfb1a-f8f5-41d9-b2ba-6c93e631cd70.root | (None) | ad:2a8400bf | 429.427 MB |          |
| cms:/store/data/Run2024E/Muon1/NANOAOD/PromptReco-v1/000/381/191/00000/563bfaea-42b5-4d4a-a010-beae89161367.root | (None) | ad:fe990f69 | 328.980 MB |          |
| cms:/store/data/Run2024E/Muon1/NANOAOD/PromptReco-v1/000/381/191/00000/58baac5c-7160-490c-9f7b-c8e1aa65d306.root | (None) | ad:a2f73d56 | 564.885 MB |          |
| cms:/store/data/Run2024E/Muon1/NANOAOD/PromptReco-v1/000/381/191/00000/5e0f58ec-2150-42f4-97aa-cdfec109ad3c.root | (None) | ad:f501b820 | 294.750 MB |          |
| cms:/store/data/Run2024E/Muon1/NANOAOD/PromptReco-v1/000/381/191/00000/6710687b-8bb0-4cde-8b50-0923fa54cd17.root | (None) | ad:b566c712 | 388.741 MB |          |
| cms:/store/data/Run2024E/Muon1/NANOAOD/PromptReco-v1/000/381/191/00000/6e77420d-4248-4ba6-848d-5f236fc3c8e8.root | (None) | ad:80b438d5 | 368.713 MB |          |
| cms:/store/data/Run2024E/Muon1/NANOAOD/PromptReco-v1/000/381/191/00000/fcc3186f-9288-40c2-917f-6a489e550008.root | (None) | ad:71e15af7 | 360.079 MB |          |
| cms:/store/data/Run2024E/Muon1/NANOAOD/PromptReco-v1/000/381/199/00000/31122ad7-1730-49fd-8ee9-6e08a87891c7.root | (None) | ad:3a554319 | 538.948 MB |          |
| cms:/store/data/Run2024E/Muon1/NANOAOD/PromptReco-v1/000/381/199/00000/be9bdc47-6bca-44d8-9d5a-06cecfa4469c.root | (None) | ad:5152e3ba | 407.668 MB |          |
| cms:/store/data/Run2024E/Muon1/NANOAOD/PromptReco-v1/000/381/212/00000/0a798d6e-535b-49e4-8308-a1012edd3e87.root | (None) | ad:f9af8419 | 578.273 MB |          |
| cms:/store/data/Run2024E/Muon1/NANOAOD/PromptReco-v1/000/381/212/00000/9372ae43-006a-467f-9539-1241f3828c49.root | (None) | ad:441ca1c3 | 670.502 MB |          |
| cms:/store/data/Run2024E/Muon1/NANOAOD/PromptReco-v1/000/381/212/00000/a16352b2-67e2-400b-a927-aaa4de3267a7.root | (None) | ad:6ecb05ee | 601.647 MB |          |
| cms:/store/data/Run2024E/Muon1/NANOAOD/PromptReco-v1/000/381/212/00000/cc9ac562-5c76-43f7-84b2-eea62607b002.root | (None) | ad:da4dfcc3 | 440.698 MB |          |
| cms:/store/data/Run2024E/Muon1/NANOAOD/PromptReco-v1/000/381/212/00000/f2bf01c5-2035-4346-8f13-943fc78ebb4a.root | (None) | ad:20dddb26 | 532.144 MB |          |
| cms:/store/data/Run2024E/Muon1/NANOAOD/PromptReco-v1/000/381/277/00000/333a2e57-2c83-425c-bfa3-ea6177b5348a.root | (None) | ad:d0e2b14d | 3.331 MB   |          |
| cms:/store/data/Run2024E/Muon1/NANOAOD/PromptReco-v1/000/381/286/00000/122a1137-eb51-4eaf-a52c-466198c2bea3.root | (None) | ad:40558ea0 | 394.479 MB |          |
| cms:/store/data/Run2024E/Muon1/NANOAOD/PromptReco-v1/000/381/289/00000/f7e1746a-a2de-4b1a-ba98-cd87f890d36b.root | (None) | ad:0a942021 | 3.144 MB   |          |
| cms:/store/data/Run2024E/Muon1/NANOAOD/PromptReco-v1/000/381/290/00000/3ff9d814-87cf-4992-a948-85ee11301386.root | (None) | ad:6e96d1b6 | 3.391 MB   |          |
| cms:/store/data/Run2024E/Muon1/NANOAOD/PromptReco-v1/000/381/291/00000/c030cb54-8f86-4f6e-813e-7c56bc07eb6c.root | (None) | ad:5df86383 | 3.354 MB   |          |
| cms:/store/data/Run2024E/Muon1/NANOAOD/PromptReco-v1/000/381/292/00000/aa6da5be-03bb-4051-a4f9-2d47e67a24b9.root | (None) | ad:d7f8367f | 3.797 MB   |          |
| cms:/store/data/Run2024E/Muon1/NANOAOD/PromptReco-v1/000/381/294/00000/0001296f-1247-4a9f-87af-5add0eebc140.root | (None) | ad:51f29162 | 3.422 MB   |          |
| cms:/store/data/Run2024E/Muon1/NANOAOD/PromptReco-v1/000/381/298/00000/fb442639-d50e-4247-97ad-3ee105cfa7ba.root | (None) | ad:93d6bee1 | 3.926 MB   |          |
| cms:/store/data/Run2024E/Muon1/NANOAOD/PromptReco-v1/000/381/304/00000/b2a4f026-61a2-4a70-9606-eb7227f2644d.root | (None) | ad:237767b8 | 4.116 MB   |          |
| cms:/store/data/Run2024E/Muon1/NANOAOD/PromptReco-v1/000/381/309/00000/4b34aa34-c3c3-49a1-a0bc-25341b0bd7a6.root | (None) | ad:dd441738 | 494.328 MB |          |
| cms:/store/data/Run2024E/Muon1/NANOAOD/PromptReco-v1/000/381/309/00000/7a6a0fb2-261e-4a79-8aa9-3233f28b3cb9.root | (None) | ad:348bb4bd | 13.068 MB  |          |
| cms:/store/data/Run2024E/Muon1/NANOAOD/PromptReco-v1/000/381/364/00000/a120b7b2-82df-47d6-ba16-952407081be0.root | (None) | ad:a8d307ec | 159.405 MB |          |
| cms:/store/data/Run2024E/Muon1/NANOAOD/PromptReco-v1/000/381/365/00000/d22a01d5-7664-4cbf-8a71-b52a43381aaf.root | (None) | ad:265daed2 | 268.716 MB |          |
| cms:/store/data/Run2024E/Muon1/NANOAOD/PromptReco-v1/000/381/371/00000/052f9aaf-9315-4b6f-8bac-55e6e7f78b0e.root | (None) | ad:aadd55dd | 545.571 MB |          |
| cms:/store/data/Run2024E/Muon1/NANOAOD/PromptReco-v1/000/381/371/00000/e7ab52da-8a06-4313-a140-a2b48e9b7958.root | (None) | ad:ae295ce3 | 30.814 MB  |          |
| cms:/store/data/Run2024E/Muon1/NANOAOD/PromptReco-v1/000/381/379/00000/1ec2ff9f-249a-4974-8f31-391cee77c294.root | (None) | ad:e8c20968 | 596.122 MB |          |
| cms:/store/data/Run2024E/Muon1/NANOAOD/PromptReco-v1/000/381/379/00000/266c0ad6-6a84-4dd4-a6cb-3475fe73e368.root | (None) | ad:0b0dc99c | 573.309 MB |          |
| cms:/store/data/Run2024E/Muon1/NANOAOD/PromptReco-v1/000/381/379/00000/76c65bcb-3765-4ba9-86c3-fd5604b7099e.root | (None) | ad:c9278759 | 564.642 MB |          |
| cms:/store/data/Run2024E/Muon1/NANOAOD/PromptReco-v1/000/381/379/00000/890876bf-a4e5-45ff-b33e-e75b8a76e94b.root | (None) | ad:526f46fc | 543.854 MB |          |
| cms:/store/data/Run2024E/Muon1/NANOAOD/PromptReco-v1/000/381/379/00000/a7901cc7-7270-4b96-b73c-d439c98430fe.root | (None) | ad:9f113227 | 607.661 MB |          |
| cms:/store/data/Run2024E/Muon1/NANOAOD/PromptReco-v1/000/381/380/00000/067dd8db-2b87-4493-81f5-52edbe3a1810.root | (None) | ad:a8927c2c | 590.106 MB |          |
| cms:/store/data/Run2024E/Muon1/NANOAOD/PromptReco-v1/000/381/380/00000/215a05ca-2d68-4ede-997d-2e79a7abe427.root | (None) | ad:251823a8 | 273.463 MB |          |
| cms:/store/data/Run2024E/Muon1/NANOAOD/PromptReco-v1/000/381/380/00000/4721f3a8-a9cb-430e-ad74-fde94d5d625f.root | (None) | ad:34a895f0 | 614.876 MB |          |
| cms:/store/data/Run2024E/Muon1/NANOAOD/PromptReco-v1/000/381/380/00000/51b87b0b-04b3-40a8-9367-c9a4a13f0a38.root | (None) | ad:2c81657e | 811.153 MB |          |
| cms:/store/data/Run2024E/Muon1/NANOAOD/PromptReco-v1/000/381/380/00000/6215d048-59ce-4442-9174-79b434ccd49f.root | (None) | ad:fab9e5a0 | 422.226 MB |          |
| cms:/store/data/Run2024E/Muon1/NANOAOD/PromptReco-v1/000/381/380/00000/66e08f45-4ef9-403c-90b8-8a31aba017d9.root | (None) | ad:c564b313 | 530.955 MB |          |
| cms:/store/data/Run2024E/Muon1/NANOAOD/PromptReco-v1/000/381/380/00000/732b2297-4be8-47e1-95ce-7a8eb6d44c4c.root | (None) | ad:114af1c3 | 526.511 MB |          |
| cms:/store/data/Run2024E/Muon1/NANOAOD/PromptReco-v1/000/381/380/00000/7dabc43a-ccbb-487f-8f99-26e79a875293.root | (None) | ad:6ab67214 | 911.975 MB |          |
| cms:/store/data/Run2024E/Muon1/NANOAOD/PromptReco-v1/000/381/380/00000/a479d5e4-01d1-4503-91bf-545d298be8b5.root | (None) | ad:2e264be7 | 322.508 MB |          |
| cms:/store/data/Run2024E/Muon1/NANOAOD/PromptReco-v1/000/381/380/00000/a6bc4ba8-3bc0-4ce8-84ff-dec0325d2d6d.root | (None) | ad:1b863429 | 749.373 MB |          |
| cms:/store/data/Run2024E/Muon1/NANOAOD/PromptReco-v1/000/381/380/00000/dc5dfb3f-b93a-45a4-9668-8faad1c510b5.root | (None) | ad:f0ab5a22 | 342.931 MB |          |
| cms:/store/data/Run2024E/Muon1/NANOAOD/PromptReco-v1/000/381/075/00000/33487798-fe88-483d-8410-faed7ad371e9.root | (None) | ad:ecaff7f9 | 538.691 MB |          |
| cms:/store/data/Run2024E/Muon1/NANOAOD/PromptReco-v1/000/381/075/00000/86de9bd2-c270-4cb3-870f-d9e3e86873c3.root | (None) | ad:8f95f615 | 532.007 MB |          |
| cms:/store/data/Run2024E/Muon1/NANOAOD/PromptReco-v1/000/381/078/00000/059f8214-f5a8-4853-8707-a0628c2636dc.root | (None) | ad:4d353ebe | 589.791 MB |          |
| cms:/store/data/Run2024E/Muon1/NANOAOD/PromptReco-v1/000/381/078/00000/6506146d-7fe7-4018-825b-66ddd55dc8d7.root | (None) | ad:063586c7 | 551.642 MB |          |
| cms:/store/data/Run2024E/Muon1/NANOAOD/PromptReco-v1/000/381/078/00000/d2a381ec-5129-4193-8517-3165eca0e555.root | (None) | ad:7acdb326 | 515.233 MB |          |
| cms:/store/data/Run2024E/Muon1/NANOAOD/PromptReco-v1/000/381/078/00000/fe621149-6f12-44b3-93c5-988792b884ba.root | (None) | ad:eeab99d6 | 498.305 MB |          |
| cms:/store/data/Run2024E/Muon1/NANOAOD/PromptReco-v1/000/381/079/00000/5502832f-c740-4335-baea-8a264716c61b.root | (None) | ad:adbdeaf6 | 797.435 MB |          |
| cms:/store/data/Run2024E/Muon1/NANOAOD/PromptReco-v1/000/381/079/00000/6b17e64c-bea8-4afe-a75a-9f6e80e474a8.root | (None) | ad:3e3d047e | 140.304 MB |          |
| cms:/store/data/Run2024E/Muon1/NANOAOD/PromptReco-v1/000/381/079/00000/d82b6799-01d8-4064-9bdb-a28d3e364642.root | (None) | ad:9f9b580b | 410.654 MB |          |
| cms:/store/data/Run2024E/Muon1/NANOAOD/PromptReco-v1/000/381/079/00000/defca864-3576-477a-a835-e6655bf4b2dd.root | (None) | ad:c5870876 | 432.549 MB |          |
| cms:/store/data/Run2024E/Muon1/NANOAOD/PromptReco-v1/000/381/079/00000/fe162748-efa6-4dc6-9110-aa395bb11fcd.root | (None) | ad:943fa5f4 | 505.079 MB |          |
| cms:/store/data/Run2024E/Muon1/NANOAOD/PromptReco-v1/000/381/080/00000/623f1435-d8d6-46d4-9cae-f7b11ba21824.root | (None) | ad:ddfb3fae | 92.750 MB  |          |
| cms:/store/data/Run2024E/Muon1/NANOAOD/PromptReco-v1/000/381/080/00000/7db2266e-a316-474c-9b80-6f8f18400bf8.root | (None) | ad:a835b900 | 333.269 MB |          |
| cms:/store/data/Run2024E/Muon1/NANOAOD/PromptReco-v1/000/381/080/00000/81ced54c-3646-45e5-8929-24b259eb9e19.root | (None) | ad:ea685406 | 522.707 MB |          |
| cms:/store/data/Run2024E/Muon1/NANOAOD/PromptReco-v1/000/381/080/00000/b85c2e6c-07de-4178-9cf9-8dc5be8eef9a.root | (None) | ad:93e8b74e | 634.657 MB |          |
| cms:/store/data/Run2024E/Muon1/NANOAOD/PromptReco-v1/000/381/113/00000/bf1a41ad-d6db-4a06-8905-4e05b8afc6c4.root | (None) | ad:2bb681e2 | 509.270 MB |          |
| cms:/store/data/Run2024E/Muon1/NANOAOD/PromptReco-v1/000/381/113/00000/d29fb57e-0353-4787-94b2-db7fc2bf40ea.root | (None) | ad:187d70c6 | 406.179 MB |          |
| cms:/store/data/Run2024E/Muon1/NANOAOD/PromptReco-v1/000/381/113/00000/e3026046-b25e-4e24-b515-247f11d96231.root | (None) | ad:dd535201 | 587.075 MB |          |
| cms:/store/data/Run2024E/Muon1/NANOAOD/PromptReco-v1/000/381/114/00000/2635e698-d02b-4f7f-a67b-cf1a14607e9c.root | (None) | ad:e8472d7a | 738.678 MB |          |
| cms:/store/data/Run2024E/Muon1/NANOAOD/PromptReco-v1/000/381/114/00000/4b2c5de3-bb6f-469c-87cd-71769a42d9aa.root | (None) | ad:e58bd919 | 635.527 MB |          |
| cms:/store/data/Run2024E/Muon1/NANOAOD/PromptReco-v1/000/381/114/00000/9533fb9f-afaf-43fc-b778-a22763d3a9e8.root | (None) | ad:20d6fbba | 531.623 MB |          |
| cms:/store/data/Run2024E/Muon1/NANOAOD/PromptReco-v1/000/381/114/00000/b395412d-c4e6-4e81-bb5b-f07dc5bbf88b.root | (None) | ad:9f7c2364 | 526.839 MB |          |
| cms:/store/data/Run2024E/Muon1/NANOAOD/PromptReco-v1/000/381/114/00000/b4e033f4-d0cd-4c8c-9504-fe2d075d8768.root | (None) | ad:bd4bffd1 | 546.551 MB |          |
| cms:/store/data/Run2024E/Muon1/NANOAOD/PromptReco-v1/000/381/379/00000/843536ec-b538-4dd6-903e-b3adca7a42f1.root | (None) | ad:08307bff | 13.055 MB  |          |
| cms:/store/data/Run2024E/Muon1/NANOAOD/PromptReco-v1/000/380/956/00000/5a747c73-3748-4b23-836f-b5e41e08a0c9.root | (None) | ad:667f4a2f | 3.822 MB   |          |
| cms:/store/data/Run2024E/Muon1/NANOAOD/PromptReco-v1/000/381/022/00000/500f3126-4923-48a1-8760-ad701bcc0673.root | (None) | ad:96400a3d | 388.908 MB |          |
| cms:/store/data/Run2024E/Muon1/NANOAOD/PromptReco-v1/000/381/053/00000/56f459c9-345d-4f1d-b560-b3d3922b57c5.root | (None) | ad:a6540d6e | 197.760 MB |          |
| cms:/store/data/Run2024E/Muon1/NANOAOD/PromptReco-v1/000/381/065/00000/aa9fcd7b-9ae0-4f8b-8df1-2c727461c5cb.root | (None) | ad:2e3b6e6b | 56.538 MB  |          |
| cms:/store/data/Run2024E/Muon1/NANOAOD/PromptReco-v1/000/381/067/00000/301ca8c8-ac54-46cf-b087-dcb7a1b6fd8b.root | (None) | ad:5402ee89 | 482.404 MB |          |
| cms:/store/data/Run2024E/Muon1/NANOAOD/PromptReco-v1/000/381/067/00000/493f5688-a45f-4048-98e1-3014d0f2fc8d.root | (None) | ad:fd98b0eb | 267.009 MB |          |
| cms:/store/data/Run2024E/Muon1/NANOAOD/PromptReco-v1/000/381/067/00000/4fe166b6-ec84-427a-8d6d-caf6d1118514.root | (None) | ad:a012dd4c | 607.874 MB |          |
| cms:/store/data/Run2024E/Muon1/NANOAOD/PromptReco-v1/000/381/067/00000/a4bad32e-9980-49e3-9962-bbfdb897d600.root | (None) | ad:b589e0d2 | 501.212 MB |          |
| cms:/store/data/Run2024E/Muon1/NANOAOD/PromptReco-v1/000/381/067/00000/eaa86b1e-5aea-403a-8634-63269fc3f65f.root | (None) | ad:25cca0d2 | 446.895 MB |          |
| cms:/store/data/Run2024E/Muon1/NANOAOD/PromptReco-v1/000/381/068/00000/42f1a39d-7b36-4501-8334-360afa3ab725.root | (None) | ad:65db217a | 251.686 MB |          |
| cms:/store/data/Run2024E/Muon1/NANOAOD/PromptReco-v1/000/381/069/00000/32c49c2a-92ab-4211-9b40-ab624f5c9971.root | (None) | ad:91e9c7e4 | 397.147 MB |          |
| cms:/store/data/Run2024E/Muon1/NANOAOD/PromptReco-v1/000/381/069/00000/450890bf-cf8b-40b0-a05f-510b9b482f55.root | (None) | ad:659be4b8 | 119.231 MB |          |
| cms:/store/data/Run2024E/Muon1/NANOAOD/PromptReco-v1/000/381/069/00000/4d4cf3b4-c4e5-4eb3-9e1a-ab1795b970fb.root | (None) | ad:9ddd6386 | 496.883 MB |          |
| cms:/store/data/Run2024E/Muon1/NANOAOD/PromptReco-v1/000/381/069/00000/cce23056-66b9-4a4d-9744-15f1ee9420aa.root | (None) | ad:2a19ecf2 | 516.782 MB |          |
| cms:/store/data/Run2024E/Muon1/NANOAOD/PromptReco-v1/000/381/070/00000/857c579e-da11-414e-b2e4-d85cbb158f26.root | (None) | ad:a5dc1c46 | 536.683 MB |          |
| cms:/store/data/Run2024E/Muon1/NANOAOD/PromptReco-v1/000/381/070/00000/8cf54c83-37bb-4f84-bc2e-06b044fe8a8d.root | (None) | ad:9c051483 | 243.973 MB |          |
| cms:/store/data/Run2024E/Muon1/NANOAOD/PromptReco-v1/000/381/070/00000/90beea39-12e0-432a-acad-4a64fae80dc9.root | (None) | ad:32bf2e7f | 494.112 MB |          |
| cms:/store/data/Run2024E/Muon1/NANOAOD/PromptReco-v1/000/381/070/00000/e195c582-34a2-416a-8077-8dc52aedbb14.root | (None) | ad:e389d7c3 | 471.718 MB |          |
| cms:/store/data/Run2024E/Muon1/NANOAOD/PromptReco-v1/000/381/075/00000/24d53c78-0b5b-402e-a09f-c98ac6f77fc8.root | (None) | ad:a80b1d50 | 522.504 MB |          |
| cms:/store/data/Run2024E/Muon1/NANOAOD/PromptReco-v1/000/381/075/00000/3a428d2a-b0b9-4551-90ff-f940256afa28.root | (None) | ad:4ce51851 | 547.951 MB |          |
| cms:/store/data/Run2024E/Muon1/NANOAOD/PromptReco-v1/000/381/075/00000/45f65932-1922-4a83-854d-9d6c508a9a63.root | (None) | ad:ce579f16 | 358.946 MB |          |
| cms:/store/data/Run2024E/Muon1/NANOAOD/PromptReco-v1/000/381/075/00000/8be3b5c0-bc77-40d8-b15e-4b655f9fbdb4.root | (None) | ad:82cf5d48 | 564.635 MB |          |
| cms:/store/data/Run2024E/Muon1/NANOAOD/PromptReco-v1/000/381/075/00000/9b7954c1-3c9d-4651-a374-74fccaf699bc.root | (None) | ad:67f4972a | 30.562 MB  |          |
| cms:/store/data/Run2024E/Muon1/NANOAOD/PromptReco-v1/000/381/075/00000/9e01b341-017e-4545-903a-e912214f0389.root | (None) | ad:7f13f88a | 461.154 MB |          |
| cms:/store/data/Run2024E/Muon1/NANOAOD/PromptReco-v1/000/381/078/00000/32d4cced-ef41-4a2a-8fef-a436ca28ecf1.root | (None) | ad:09d63f4d | 454.871 MB |          |
| cms:/store/data/Run2024E/Muon1/NANOAOD/PromptReco-v1/000/381/078/00000/b0a23856-d05a-43bb-a2a2-a1dbbb3aef4e.root | (None) | ad:dc2eb1e5 | 31.090 MB  |          |
| cms:/store/data/Run2024E/Muon1/NANOAOD/PromptReco-v1/000/381/113/00000/38543a0e-0e2f-4036-8e86-4dcba114c9d6.root | (None) | ad:b574dafe | 48.200 MB  |          |
| cms:/store/data/Run2024E/Muon1/NANOAOD/PromptReco-v1/000/381/113/00000/ee88f6ec-f5b5-4468-be87-288fc77b46cb.root | (None) | ad:75285fc7 | 397.463 MB |          |
| cms:/store/data/Run2024E/Muon1/NANOAOD/PromptReco-v1/000/381/114/00000/31a02f24-75ff-4ea2-bb39-02bd11bbcbfd.root | (None) | ad:7ef2d47e | 532.605 MB |          |
| cms:/store/data/Run2024E/Muon1/NANOAOD/PromptReco-v1/000/381/114/00000/71a9f0e3-daf9-4707-b226-c215a076f3f9.root | (None) | ad:cb05f384 | 464.140 MB |          |
| cms:/store/data/Run2024E/Muon1/NANOAOD/PromptReco-v1/000/381/115/00000/053d211f-5850-4555-a2a9-ddc89202ec30.root | (None) | ad:098bb4c4 | 720.622 MB |          |
| cms:/store/data/Run2024E/Muon1/NANOAOD/PromptReco-v1/000/381/115/00000/1207d2f8-8af1-4c3c-9279-b4a8c9b0e3e9.root | (None) | ad:1966a89b | 293.189 MB |          |
| cms:/store/data/Run2024E/Muon1/NANOAOD/PromptReco-v1/000/381/115/00000/1952ee6a-1a17-4838-8f87-d6b1be7ef877.root | (None) | ad:16929c5e | 435.164 MB |          |
| cms:/store/data/Run2024E/Muon1/NANOAOD/PromptReco-v1/000/381/115/00000/196ceb5a-290d-4b8d-9d46-3af2bca3ceb6.root | (None) | ad:2dad5def | 362.757 MB |          |
| cms:/store/data/Run2024E/Muon1/NANOAOD/PromptReco-v1/000/381/115/00000/1a13a25d-acc4-45ab-893b-cbe2ed7868cd.root | (None) | ad:6cf07166 | 550.261 MB |          |
| cms:/store/data/Run2024E/Muon1/NANOAOD/PromptReco-v1/000/381/115/00000/2832a625-b92c-4a17-ac43-29606cf0927f.root | (None) | ad:cb27f275 | 418.441 MB |          |
| cms:/store/data/Run2024E/Muon1/NANOAOD/PromptReco-v1/000/381/115/00000/553476ae-8aa3-49a3-a358-377bc48f1a11.root | (None) | ad:bd0aeeea | 349.633 MB |          |
| cms:/store/data/Run2024E/Muon1/NANOAOD/PromptReco-v1/000/381/115/00000/60b983c7-1e06-4e13-86b0-8a6f8d72bdb0.root | (None) | ad:778d60ad | 564.295 MB |          |
| cms:/store/data/Run2024E/Muon1/NANOAOD/PromptReco-v1/000/381/115/00000/6d47f374-6967-425b-a598-3c33df77b8e5.root | (None) | ad:87690745 | 332.465 MB |          |
| cms:/store/data/Run2024E/Muon1/NANOAOD/PromptReco-v1/000/381/115/00000/82632e5c-9a7c-45dd-af8f-a0ecc324657d.root | (None) | ad:001e2862 | 408.798 MB |          |
| cms:/store/data/Run2024E/Muon1/NANOAOD/PromptReco-v1/000/381/115/00000/8548b50b-5ba9-483e-9ed2-bd544d033d54.root | (None) | ad:be4c928d | 455.908 MB |          |
| cms:/store/data/Run2024E/Muon1/NANOAOD/PromptReco-v1/000/381/115/00000/87659c62-f634-43be-8eff-cc1b5c8c989f.root | (None) | ad:2b7c1d69 | 491.652 MB |          |
| cms:/store/data/Run2024E/Muon1/NANOAOD/PromptReco-v1/000/381/115/00000/8e078af5-3d90-4bcb-9812-106475d9b0d5.root | (None) | ad:22d30cad | 352.386 MB |          |
| cms:/store/data/Run2024E/Muon1/NANOAOD/PromptReco-v1/000/381/115/00000/a4e7b4c2-197a-429a-9c67-03734b32548e.root | (None) | ad:ff3c27dc | 480.387 MB |          |
| cms:/store/data/Run2024E/Muon1/NANOAOD/PromptReco-v1/000/381/147/00000/0206cc4c-a4ea-4bd1-91dd-a4dd464a6593.root | (None) | ad:835b3ef8 | 397.875 MB |          |
| cms:/store/data/Run2024E/Muon1/NANOAOD/PromptReco-v1/000/381/147/00000/c24940d7-48f0-4561-8433-0f9badf23275.root | (None) | ad:ad55c50c | 543.688 MB |          |
| cms:/store/data/Run2024E/Muon1/NANOAOD/PromptReco-v1/000/381/148/00000/55376531-846b-45eb-b169-6f98e34d2269.root | (None) | ad:0d19d75b | 499.636 MB |          |
| cms:/store/data/Run2024E/Muon1/NANOAOD/PromptReco-v1/000/381/148/00000/a5235123-643a-4a74-b25c-e0b38d478893.root | (None) | ad:c85c140b | 572.750 MB |          |
| cms:/store/data/Run2024E/Muon1/NANOAOD/PromptReco-v1/000/381/148/00000/d16dd583-f86e-4265-b1bc-723e64acfa04.root | (None) | ad:b54e8efd | 547.913 MB |          |
| cms:/store/data/Run2024E/Muon1/NANOAOD/PromptReco-v1/000/381/148/00000/ede327c1-e543-489e-a697-456a0efb9a16.root | (None) | ad:6dd0f4b0 | 539.294 MB |          |
| cms:/store/data/Run2024E/Muon1/NANOAOD/PromptReco-v1/000/381/149/00000/7edb3f7e-65ea-42a2-af4d-92627db575de.root | (None) | ad:df3ea7f3 | 610.665 MB |          |
+------------------------------------------------------------------------------------------------------------------+--------+-------------+------------+----------+
Total files : 264
Total size : 120.047 GB
