+------------------------------------------------------------------------------------------------------------------+--------+-------------+------------+----------+
| SCOPE:NAME                                                                                                       | GUID   | ADLER32     | FILESIZE   | EVENTS   |
|------------------------------------------------------------------------------------------------------------------+--------+-------------+------------+----------|
| cms:/store/data/Run2024E/Muon0/NANOAOD/PromptReco-v2/000/381/515/00000/dcaf315e-4bdf-415c-ac97-4586e1324936.root | (None) | ad:22e7a2cd | 31.845 MB  |          |
| cms:/store/data/Run2024E/Muon0/NANOAOD/PromptReco-v2/000/381/516/00000/58157583-00e8-44ff-9a0b-acd4acfbe4f8.root | (None) | ad:2fa34d60 | 101.926 MB |          |
| cms:/store/data/Run2024E/Muon0/NANOAOD/PromptReco-v2/000/381/543/00000/e910fd91-b461-4f25-99d2-80981d5a549c.root | (None) | ad:59bb4f19 | 827.650 MB |          |
| cms:/store/data/Run2024E/Muon0/NANOAOD/PromptReco-v2/000/381/544/00000/06580323-c50c-439a-a594-41778a9e3729.root | (None) | ad:d3e269ca | 1.072 GB   |          |
| cms:/store/data/Run2024E/Muon0/NANOAOD/PromptReco-v2/000/381/544/00000/7c12debe-2d64-4fb2-b9ab-7177496b0d1f.root | (None) | ad:b0b0e51f | 844.455 MB |          |
| cms:/store/data/Run2024E/Muon0/NANOAOD/PromptReco-v2/000/381/544/00000/7d9444a5-e986-4473-bf7e-b89911a59847.root | (None) | ad:9bfdbaed | 538.313 MB |          |
| cms:/store/data/Run2024E/Muon0/NANOAOD/PromptReco-v2/000/381/544/00000/d92ae56e-6f5b-4dbb-a48e-2e2d8ffdf84b.root | (None) | ad:680fe883 | 934.261 MB |          |
| cms:/store/data/Run2024E/Muon0/NANOAOD/PromptReco-v2/000/381/544/00000/ddc79eca-50b5-4c9e-a33d-3cdf3079c002.root | (None) | ad:f8a2a383 | 1.028 GB   |          |
| cms:/store/data/Run2024E/Muon0/NANOAOD/PromptReco-v2/000/381/544/00000/f7da85e4-aa41-42f5-9f93-804800a7805e.root | (None) | ad:3412c20d | 711.002 MB |          |
| cms:/store/data/Run2024E/Muon0/NANOAOD/PromptReco-v2/000/381/594/00000/739df569-4cf2-4331-908e-2d4ace7319cd.root | (None) | ad:585f2b00 | 29.442 MB  |          |
| cms:/store/data/Run2024E/Muon0/NANOAOD/PromptReco-v2/000/381/417/00000/799afe3c-7a8b-47e1-a245-cc9bae3a95af.root | (None) | ad:efd11a05 | 13.227 MB  |          |
| cms:/store/data/Run2024E/Muon0/NANOAOD/PromptReco-v2/000/381/417/00000/6a95df91-075d-46d9-99c4-cc6e88b24446.root | (None) | ad:2c299c61 | 465.859 MB |          |
| cms:/store/data/Run2024E/Muon0/NANOAOD/PromptReco-v2/000/381/443/00000/3472817b-4cc1-40e6-9b4c-a7ad552d6b64.root | (None) | ad:302cc2fe | 521.969 MB |          |
| cms:/store/data/Run2024E/Muon0/NANOAOD/PromptReco-v2/000/381/443/00000/4993401b-e606-4e2c-8864-b984a3dc8235.root | (None) | ad:90fc16d9 | 610.055 MB |          |
| cms:/store/data/Run2024E/Muon0/NANOAOD/PromptReco-v2/000/381/443/00000/91a352c4-1571-4f81-a163-0a04393e137b.root | (None) | ad:3c40a1b5 | 523.901 MB |          |
| cms:/store/data/Run2024E/Muon0/NANOAOD/PromptReco-v2/000/381/443/00000/98599216-496d-4918-bffc-fef3ff763fd1.root | (None) | ad:91e4f933 | 511.119 MB |          |
| cms:/store/data/Run2024E/Muon0/NANOAOD/PromptReco-v2/000/381/458/00000/3e215cc1-fc59-4104-ac0b-158ed459fe80.root | (None) | ad:5b411daa | 6.360 MB   |          |
| cms:/store/data/Run2024E/Muon0/NANOAOD/PromptReco-v2/000/381/465/00000/c2be82de-2a2d-49da-9504-5808aabb8376.root | (None) | ad:2be1e456 | 3.771 MB   |          |
| cms:/store/data/Run2024E/Muon0/NANOAOD/PromptReco-v2/000/381/477/00000/0d87955c-c427-49d6-a1d1-fb2a2a3d0b4c.root | (None) | ad:b5e53bda | 598.042 MB |          |
| cms:/store/data/Run2024E/Muon0/NANOAOD/PromptReco-v2/000/381/477/00000/744b9b66-1bf5-4ad4-b304-608af5e1c3dc.root | (None) | ad:070306bf | 370.764 MB |          |
| cms:/store/data/Run2024E/Muon0/NANOAOD/PromptReco-v2/000/381/477/00000/902a09dd-9935-4238-bd9d-df6a0b1c25a6.root | (None) | ad:bc48e1f0 | 561.913 MB |          |
| cms:/store/data/Run2024E/Muon0/NANOAOD/PromptReco-v2/000/381/477/00000/bd70e47d-795d-4a56-867b-0b437691d4b4.root | (None) | ad:af7b6745 | 659.798 MB |          |
| cms:/store/data/Run2024E/Muon0/NANOAOD/PromptReco-v2/000/381/478/00000/869fcb72-a054-4622-9dac-cf61e988637a.root | (None) | ad:ec57c0dc | 69.502 MB  |          |
| cms:/store/data/Run2024E/Muon0/NANOAOD/PromptReco-v2/000/381/479/00000/3d6260de-950b-4a05-bee8-7141b6371673.root | (None) | ad:7ffcc9ce | 646.226 MB |          |
| cms:/store/data/Run2024E/Muon0/NANOAOD/PromptReco-v2/000/381/479/00000/602f94ae-0a03-4205-8dda-487d12fbcea7.root | (None) | ad:b202eb57 | 561.946 MB |          |
| cms:/store/data/Run2024E/Muon0/NANOAOD/PromptReco-v2/000/381/479/00000/76578e58-7f5c-4eb7-8b74-992de50fb8ba.root | (None) | ad:4cf77c75 | 618.385 MB |          |
| cms:/store/data/Run2024E/Muon0/NANOAOD/PromptReco-v2/000/381/479/00000/b3ebb6b9-f746-48c6-98fc-ec0051cfa6d3.root | (None) | ad:609dade6 | 587.983 MB |          |
| cms:/store/data/Run2024E/Muon0/NANOAOD/PromptReco-v2/000/381/479/00000/ce7f1ec5-9a05-4ac3-b9bd-15b0adab2955.root | (None) | ad:9c71a579 | 575.099 MB |          |
| cms:/store/data/Run2024E/Muon0/NANOAOD/PromptReco-v2/000/381/479/00000/ec28268c-46e9-4994-99df-16107202de0f.root | (None) | ad:0c6df5bb | 595.922 MB |          |
| cms:/store/data/Run2024E/Muon0/NANOAOD/PromptReco-v2/000/381/543/00000/f15fe169-cf15-4c14-89b4-293ba3660cf5.root | (None) | ad:44b2794c | 148.561 MB |          |
| cms:/store/data/Run2024E/Muon0/NANOAOD/PromptReco-v2/000/381/544/00000/14c3f45d-21f1-48a6-9a74-24570f680a29.root | (None) | ad:43322797 | 508.418 MB |          |
| cms:/store/data/Run2024E/Muon0/NANOAOD/PromptReco-v2/000/381/384/00000/0706007f-d3ca-4b30-a0ff-79882b7b3e34.root | (None) | ad:fcbf896e | 539.974 MB |          |
| cms:/store/data/Run2024E/Muon0/NANOAOD/PromptReco-v2/000/381/384/00000/11ede0a9-6338-4789-b3c9-fce3b372a57a.root | (None) | ad:09d4fae4 | 267.996 MB |          |
| cms:/store/data/Run2024E/Muon0/NANOAOD/PromptReco-v2/000/381/384/00000/1746e95b-b6ae-45ec-963a-9da453bdb82c.root | (None) | ad:149ab870 | 583.876 MB |          |
| cms:/store/data/Run2024E/Muon0/NANOAOD/PromptReco-v2/000/381/384/00000/2c1d3fef-7ca7-48fb-bbe2-c567af4cc8db.root | (None) | ad:3ba68a97 | 628.062 MB |          |
| cms:/store/data/Run2024E/Muon0/NANOAOD/PromptReco-v2/000/381/384/00000/2ca60099-0a6a-4a81-a629-f7b222cb96e1.root | (None) | ad:ea01f2b1 | 1.079 GB   |          |
| cms:/store/data/Run2024E/Muon0/NANOAOD/PromptReco-v2/000/381/384/00000/335b6bd6-be92-4531-8030-db2d19aa92e6.root | (None) | ad:4b82368f | 734.347 MB |          |
| cms:/store/data/Run2024E/Muon0/NANOAOD/PromptReco-v2/000/381/384/00000/411bdbf6-3951-42a6-9084-421cc0776c67.root | (None) | ad:8427b3b3 | 646.263 MB |          |
| cms:/store/data/Run2024E/Muon0/NANOAOD/PromptReco-v2/000/381/384/00000/553ca381-5861-4ce6-b760-7c89efb7a464.root | (None) | ad:777bfbfd | 1.072 GB   |          |
| cms:/store/data/Run2024E/Muon0/NANOAOD/PromptReco-v2/000/381/384/00000/58bfe827-6ae1-4789-8c52-8cd8bd48d21c.root | (None) | ad:c22b12d1 | 714.683 MB |          |
| cms:/store/data/Run2024E/Muon0/NANOAOD/PromptReco-v2/000/381/384/00000/5fd9ccbc-50d6-4aae-9317-a2c1d38b1c3a.root | (None) | ad:eac675c5 | 817.905 MB |          |
| cms:/store/data/Run2024E/Muon0/NANOAOD/PromptReco-v2/000/381/384/00000/602fede5-5c50-409f-9250-1172b3fca3e3.root | (None) | ad:9c0a9de2 | 730.601 MB |          |
| cms:/store/data/Run2024E/Muon0/NANOAOD/PromptReco-v2/000/381/384/00000/64213875-eb78-4c51-9226-f404e013cab5.root | (None) | ad:ac31fe8d | 588.985 MB |          |
| cms:/store/data/Run2024E/Muon0/NANOAOD/PromptReco-v2/000/381/384/00000/65e5889f-bdaf-4481-baaf-f005f21272c0.root | (None) | ad:970af3fe | 774.067 MB |          |
| cms:/store/data/Run2024E/Muon0/NANOAOD/PromptReco-v2/000/381/384/00000/6d459e81-8f16-4f81-9843-daa7d5c89fd4.root | (None) | ad:0f47b843 | 381.385 MB |          |
| cms:/store/data/Run2024E/Muon0/NANOAOD/PromptReco-v2/000/381/384/00000/761aaff4-2d34-4cae-a9bc-6c53f1170c7e.root | (None) | ad:d95ac27a | 499.367 MB |          |
| cms:/store/data/Run2024E/Muon0/NANOAOD/PromptReco-v2/000/381/384/00000/a19e39ac-d849-4be6-935b-5c0ab3feacbf.root | (None) | ad:59fbdac0 | 554.835 MB |          |
| cms:/store/data/Run2024E/Muon0/NANOAOD/PromptReco-v2/000/381/384/00000/a57e6776-ff04-4360-abd1-a2addec60288.root | (None) | ad:62012036 | 619.172 MB |          |
| cms:/store/data/Run2024E/Muon0/NANOAOD/PromptReco-v2/000/381/384/00000/a9febde5-0784-40c4-8280-c92d1eda810b.root | (None) | ad:5aed38ee | 632.962 MB |          |
| cms:/store/data/Run2024E/Muon0/NANOAOD/PromptReco-v2/000/381/384/00000/c73b418a-3e8b-44e8-bb7e-6ec2c306fbde.root | (None) | ad:e24abad8 | 682.510 MB |          |
| cms:/store/data/Run2024E/Muon0/NANOAOD/PromptReco-v2/000/381/384/00000/cfbaf77e-61bc-403e-b968-3426cb48f4d3.root | (None) | ad:18dcc12b | 451.551 MB |          |
| cms:/store/data/Run2024E/Muon0/NANOAOD/PromptReco-v2/000/381/384/00000/d1b8a723-dfd3-4d53-a15a-46794cefe9ff.root | (None) | ad:9dbe3aec | 882.233 MB |          |
| cms:/store/data/Run2024E/Muon0/NANOAOD/PromptReco-v2/000/381/384/00000/e405943f-8325-448b-91e1-ee89469c2659.root | (None) | ad:cea03599 | 1.028 GB   |          |
| cms:/store/data/Run2024E/Muon0/NANOAOD/PromptReco-v2/000/381/384/00000/e8ae7d18-0d17-4634-9591-a5d0ef69a28c.root | (None) | ad:f105b0e8 | 781.650 MB |          |
| cms:/store/data/Run2024E/Muon0/NANOAOD/PromptReco-v2/000/381/384/00000/f6bdfb72-b5ab-418d-ab24-2411cdba187a.root | (None) | ad:9ee2892f | 1.070 GB   |          |
| cms:/store/data/Run2024E/Muon0/NANOAOD/PromptReco-v2/000/381/443/00000/d4edb837-f3b0-4722-8e6f-310642697baf.root | (None) | ad:d6218785 | 184.234 MB |          |
| cms:/store/data/Run2024E/Muon0/NANOAOD/PromptReco-v2/000/381/477/00000/6e8c108f-f8f1-44ee-8a52-9c99eb368433.root | (None) | ad:2bcbf8ae | 315.854 MB |          |
| cms:/store/data/Run2024E/Muon0/NANOAOD/PromptReco-v2/000/381/479/00000/f008da67-dfd2-43ff-85a0-0f91d5ede74b.root | (None) | ad:8f9180ff | 411.439 MB |          |
| cms:/store/data/Run2024E/Muon0/NANOAOD/PromptReco-v2/000/381/480/00000/167553c8-2239-45e2-877b-5afb3e394c60.root | (None) | ad:c46b6953 | 282.180 MB |          |
| cms:/store/data/Run2024E/Muon0/NANOAOD/PromptReco-v2/000/381/480/00000/323fc470-1ad9-4c69-b54b-13ec16494d58.root | (None) | ad:4703dddf | 568.494 MB |          |
| cms:/store/data/Run2024E/Muon0/NANOAOD/PromptReco-v2/000/381/480/00000/3fa3830c-047c-4942-8b44-d513ba11e9af.root | (None) | ad:0f218183 | 605.899 MB |          |
| cms:/store/data/Run2024E/Muon0/NANOAOD/PromptReco-v2/000/381/480/00000/43f55bc4-63a6-4d81-9fad-d34dd3608ea1.root | (None) | ad:3e9b8225 | 660.706 MB |          |
| cms:/store/data/Run2024E/Muon0/NANOAOD/PromptReco-v2/000/381/480/00000/453f1a56-c687-483b-92ff-89793f72e162.root | (None) | ad:74ab1b7c | 505.733 MB |          |
| cms:/store/data/Run2024E/Muon0/NANOAOD/PromptReco-v2/000/381/480/00000/6c0a0ed3-1ec6-4f6b-9f9f-9bf7184cb2fa.root | (None) | ad:6bbc6a69 | 322.477 MB |          |
| cms:/store/data/Run2024E/Muon0/NANOAOD/PromptReco-v2/000/381/480/00000/7cf0886a-af9d-4f46-8783-fd92fd1f6889.root | (None) | ad:29ea7c2b | 651.096 MB |          |
| cms:/store/data/Run2024E/Muon0/NANOAOD/PromptReco-v2/000/381/480/00000/8271af5e-0ba7-4e57-9c79-93cbf01e001d.root | (None) | ad:ead5d04b | 732.101 MB |          |
| cms:/store/data/Run2024E/Muon0/NANOAOD/PromptReco-v2/000/381/480/00000/8c168217-6b8a-4354-b1d1-975e00f3af98.root | (None) | ad:370b7d46 | 534.464 MB |          |
| cms:/store/data/Run2024E/Muon0/NANOAOD/PromptReco-v2/000/381/480/00000/a1fbf7d2-b253-470b-85e3-7b3407205fe9.root | (None) | ad:ca26a87d | 489.718 MB |          |
| cms:/store/data/Run2024E/Muon0/NANOAOD/PromptReco-v2/000/381/480/00000/c4bc4fe3-f7d1-4cb4-bb65-ebcd5cf8b7bf.root | (None) | ad:9c572ce1 | 453.257 MB |          |
| cms:/store/data/Run2024E/Muon0/NANOAOD/PromptReco-v2/000/381/480/00000/c926dd77-37a3-4e4b-b25c-8c3b5b01b350.root | (None) | ad:376146ff | 482.977 MB |          |
| cms:/store/data/Run2024E/Muon0/NANOAOD/PromptReco-v2/000/381/480/00000/f1e27ccc-f2f8-4bf6-ba98-58075e59b240.root | (None) | ad:b0173807 | 598.444 MB |          |
| cms:/store/data/Run2024E/Muon0/NANOAOD/PromptReco-v2/000/381/484/00000/09195873-0366-4676-b6ac-a8f3d5358e25.root | (None) | ad:7f654e92 | 545.941 MB |          |
| cms:/store/data/Run2024E/Muon0/NANOAOD/PromptReco-v2/000/381/484/00000/15d824fe-66b4-460a-9ddf-4cd60049b0fd.root | (None) | ad:18b42ecb | 504.061 MB |          |
| cms:/store/data/Run2024E/Muon0/NANOAOD/PromptReco-v2/000/381/484/00000/17de4d14-46f8-4457-bda0-40220c547d89.root | (None) | ad:9a4e4726 | 591.551 MB |          |
| cms:/store/data/Run2024E/Muon0/NANOAOD/PromptReco-v2/000/381/484/00000/1eba2ec3-a2c9-4890-b016-6f02c28ff2ff.root | (None) | ad:57478d85 | 702.985 MB |          |
| cms:/store/data/Run2024E/Muon0/NANOAOD/PromptReco-v2/000/381/484/00000/20a2c1a2-fbe2-4349-81c3-4849cee1e092.root | (None) | ad:eaad50b9 | 1.013 GB   |          |
| cms:/store/data/Run2024E/Muon0/NANOAOD/PromptReco-v2/000/381/484/00000/321e0c6a-9869-45af-bc15-4c4b43faa0eb.root | (None) | ad:718cc48b | 554.028 MB |          |
| cms:/store/data/Run2024E/Muon0/NANOAOD/PromptReco-v2/000/381/484/00000/6defdb65-9c33-491e-b51d-8dfea74b63ac.root | (None) | ad:70913354 | 555.981 MB |          |
| cms:/store/data/Run2024E/Muon0/NANOAOD/PromptReco-v2/000/381/484/00000/73d127a4-c235-440f-81b0-e6d2b3d4133a.root | (None) | ad:216421eb | 615.607 MB |          |
| cms:/store/data/Run2024E/Muon0/NANOAOD/PromptReco-v2/000/381/484/00000/8f82c89c-d12a-4310-8764-da41b8c42f52.root | (None) | ad:38976441 | 1.187 GB   |          |
| cms:/store/data/Run2024E/Muon0/NANOAOD/PromptReco-v2/000/381/484/00000/98f28651-fbd3-4700-824b-31f6c541a10a.root | (None) | ad:6137058e | 1.080 GB   |          |
| cms:/store/data/Run2024E/Muon0/NANOAOD/PromptReco-v2/000/381/484/00000/b92522c7-d61d-45b1-b8ae-be0ce6c81068.root | (None) | ad:44dd2c52 | 667.688 MB |          |
| cms:/store/data/Run2024E/Muon0/NANOAOD/PromptReco-v2/000/381/484/00000/c6469c21-3c44-4c56-a109-39cd233c4760.root | (None) | ad:1d08c95e | 671.569 MB |          |
| cms:/store/data/Run2024E/Muon0/NANOAOD/PromptReco-v2/000/381/484/00000/db0aa084-41a5-4c26-8795-c3a73db6d29d.root | (None) | ad:77a5c648 | 628.964 MB |          |
| cms:/store/data/Run2024E/Muon0/NANOAOD/PromptReco-v2/000/381/484/00000/e7167e20-f735-46cb-9471-acba46f41aa6.root | (None) | ad:a5de5c6c | 909.946 MB |          |
| cms:/store/data/Run2024E/Muon0/NANOAOD/PromptReco-v2/000/381/484/00000/e8c65dc5-815b-4baf-ae96-19901f5f4562.root | (None) | ad:bc637293 | 621.034 MB |          |
| cms:/store/data/Run2024E/Muon0/NANOAOD/PromptReco-v2/000/381/499/00000/3c9d3368-c54a-4d2e-a0b3-dd58ddec66a1.root | (None) | ad:7ed28447 | 532.194 MB |          |
| cms:/store/data/Run2024E/Muon0/NANOAOD/PromptReco-v2/000/381/499/00000/98273ea7-4f82-4767-bc0b-93d9e8f89ca5.root | (None) | ad:306cf225 | 366.190 MB |          |
| cms:/store/data/Run2024E/Muon0/NANOAOD/PromptReco-v2/000/381/500/00000/94be6f6c-98c2-4bcc-99c5-50f205e762f9.root | (None) | ad:f20b69bb | 566.683 MB |          |
| cms:/store/data/Run2024E/Muon0/NANOAOD/PromptReco-v2/000/381/515/00000/04df9be2-9c1f-47dd-b09b-f3c3840f324e.root | (None) | ad:07a78b3d | 551.608 MB |          |
| cms:/store/data/Run2024E/Muon0/NANOAOD/PromptReco-v2/000/381/515/00000/313b2a2a-d358-40f8-acd3-f3b41b4d40eb.root | (None) | ad:6789cf0a | 504.704 MB |          |
| cms:/store/data/Run2024E/Muon0/NANOAOD/PromptReco-v2/000/381/515/00000/ad6957ed-317e-4799-9f17-486d2c0ce523.root | (None) | ad:f596f01e | 725.455 MB |          |
| cms:/store/data/Run2024E/Muon0/NANOAOD/PromptReco-v2/000/381/515/00000/df7cfe24-68de-46f3-92d5-606ab94ecefe.root | (None) | ad:0467edc0 | 721.062 MB |          |
| cms:/store/data/Run2024E/Muon0/NANOAOD/PromptReco-v2/000/381/515/00000/fc0de718-2f55-4a23-af41-4df058600545.root | (None) | ad:7dec4bb9 | 710.492 MB |          |
| cms:/store/data/Run2024E/Muon0/NANOAOD/PromptReco-v2/000/381/515/00000/fd9021ca-9afb-42d5-88c5-775fa7212f65.root | (None) | ad:efdce6d2 | 632.184 MB |          |
| cms:/store/data/Run2024E/Muon0/NANOAOD/PromptReco-v2/000/381/484/00000/34dbd098-f4a6-4abb-b754-912ed1fa3f0b.root | (None) | ad:190203a1 | 244.874 MB |          |
| cms:/store/data/Run2024E/Muon0/NANOAOD/PromptReco-v2/000/381/484/00000/3d1b3d21-433c-43e5-9ab0-e8d6f33118f6.root | (None) | ad:15d25ba4 | 31.854 MB  |          |
| cms:/store/data/Run2024E/Muon0/NANOAOD/PromptReco-v2/000/381/500/00000/2fd807c9-8d36-4099-8120-58a740f82e22.root | (None) | ad:14b70d59 | 269.451 MB |          |
| cms:/store/data/Run2024E/Muon0/NANOAOD/PromptReco-v2/000/381/515/00000/223d04b9-1c03-4040-bf65-999102cededd.root | (None) | ad:b2936ff8 | 545.837 MB |          |
| cms:/store/data/Run2024E/Muon0/NANOAOD/PromptReco-v2/000/381/516/00000/671464d9-6e0d-4fb3-829a-725477adc106.root | (None) | ad:e49888ea | 475.742 MB |          |
| cms:/store/data/Run2024E/Muon0/NANOAOD/PromptReco-v2/000/381/543/00000/3ee59cb3-6d37-4793-9678-5c0b55404948.root | (None) | ad:7ece9bf2 | 1.092 GB   |          |
| cms:/store/data/Run2024E/Muon0/NANOAOD/PromptReco-v2/000/381/543/00000/991d9d69-0d78-41e3-bd1f-79eb40bcf5bd.root | (None) | ad:723719a4 | 689.117 MB |          |
| cms:/store/data/Run2024E/Muon0/NANOAOD/PromptReco-v2/000/381/543/00000/b068ee8d-f040-4ea3-8ded-1970d528c98c.root | (None) | ad:1ba92ba8 | 1.005 GB   |          |
| cms:/store/data/Run2024E/Muon0/NANOAOD/PromptReco-v2/000/381/543/00000/c9db4fcc-c08a-4012-ab7b-1eb7a0430adb.root | (None) | ad:412de9f8 | 82.831 MB  |          |
| cms:/store/data/Run2024E/Muon0/NANOAOD/PromptReco-v2/000/381/543/00000/fcca5ebe-55fd-49ba-93cd-2fa3608a3d0e.root | (None) | ad:3472c925 | 798.904 MB |          |
| cms:/store/data/Run2024E/Muon0/NANOAOD/PromptReco-v2/000/381/544/00000/0e0ae63e-d046-45ea-9f8b-a149433fc042.root | (None) | ad:9a4b4c52 | 642.500 MB |          |
| cms:/store/data/Run2024E/Muon0/NANOAOD/PromptReco-v2/000/381/544/00000/6a47df46-9cb2-4aef-b0b5-a70adc1bc9d4.root | (None) | ad:73172c7f | 279.221 MB |          |
| cms:/store/data/Run2024E/Muon0/NANOAOD/PromptReco-v2/000/381/544/00000/80b63387-f914-4899-b787-e1836dc69042.root | (None) | ad:5c06365c | 577.351 MB |          |
| cms:/store/data/Run2024E/Muon0/NANOAOD/PromptReco-v2/000/381/544/00000/8c18eadd-24c2-4bfc-9b51-3e3565e29111.root | (None) | ad:0a6c4e5d | 702.662 MB |          |
| cms:/store/data/Run2024E/Muon0/NANOAOD/PromptReco-v2/000/381/544/00000/98cd4cb5-c25c-4f25-a259-923b34fe7a2e.root | (None) | ad:d203a31b | 624.667 MB |          |
| cms:/store/data/Run2024E/Muon0/NANOAOD/PromptReco-v2/000/381/544/00000/a5f893a8-b5d5-422a-925d-a569317d3d30.root | (None) | ad:3c68f0de | 677.327 MB |          |
| cms:/store/data/Run2024E/Muon0/NANOAOD/PromptReco-v2/000/381/544/00000/caccc40a-3565-483e-a7e3-13e8f9b57518.root | (None) | ad:fd977bf8 | 687.302 MB |          |
| cms:/store/data/Run2024E/Muon0/NANOAOD/PromptReco-v2/000/381/544/00000/ea14f31c-5696-4033-a989-153ef2708759.root | (None) | ad:97b361e3 | 765.381 MB |          |
| cms:/store/data/Run2024E/Muon0/NANOAOD/PromptReco-v2/000/381/544/00000/f72ca0e2-e3ad-4b1a-9d10-0ec11aa04a41.root | (None) | ad:4d6bd25c | 359.839 MB |          |
| cms:/store/data/Run2024E/Muon0/NANOAOD/PromptReco-v2/000/381/593/00000/9b37a3b7-a0b9-4fa0-9f4b-6ffd67070e7d.root | (None) | ad:02b41e9b | 3.081 MB   |          |
| cms:/store/data/Run2024E/Muon0/NANOAOD/PromptReco-v2/000/381/479/00000/8a37cdeb-bb03-49c0-b206-25102ed22223.root | (None) | ad:dcedc7ec | 12.833 MB  |          |
| cms:/store/data/Run2024E/Muon0/NANOAOD/PromptReco-v2/000/381/499/00000/3e538173-c1b9-49a7-80df-781de86fdb7c.root | (None) | ad:e24a923e | 541.796 MB |          |
| cms:/store/data/Run2024E/Muon0/NANOAOD/PromptReco-v2/000/381/516/00000/12dd3030-8c49-4113-b9b1-bf1da2d8c3d4.root | (None) | ad:fb24ee1a | 813.853 MB |          |
| cms:/store/data/Run2024E/Muon0/NANOAOD/PromptReco-v2/000/381/516/00000/1e5e3a6f-27eb-4efd-b10e-f4740ebccbec.root | (None) | ad:7097d9b7 | 958.825 MB |          |
| cms:/store/data/Run2024E/Muon0/NANOAOD/PromptReco-v2/000/381/516/00000/216f4e5c-3ef1-4dad-b89b-4a48948546b4.root | (None) | ad:7a9a66bf | 333.463 MB |          |
| cms:/store/data/Run2024E/Muon0/NANOAOD/PromptReco-v2/000/381/516/00000/4623f17f-55fa-479b-a738-78165fa50993.root | (None) | ad:50410834 | 459.357 MB |          |
| cms:/store/data/Run2024E/Muon0/NANOAOD/PromptReco-v2/000/381/516/00000/769381bb-0226-407c-8926-a6dd5382bb84.root | (None) | ad:2bb9e88e | 798.403 MB |          |
| cms:/store/data/Run2024E/Muon0/NANOAOD/PromptReco-v2/000/381/516/00000/7bc39dc6-7441-4cfc-b7a2-3f2c2f86594c.root | (None) | ad:0d40229c | 594.108 MB |          |
| cms:/store/data/Run2024E/Muon0/NANOAOD/PromptReco-v2/000/381/516/00000/88e69332-995c-422a-a5bd-58e3eaab8fe2.root | (None) | ad:a5546b27 | 626.007 MB |          |
| cms:/store/data/Run2024E/Muon0/NANOAOD/PromptReco-v2/000/381/516/00000/90074efa-3215-45fd-aa07-49e2609e57fc.root | (None) | ad:ea06c68f | 668.266 MB |          |
| cms:/store/data/Run2024E/Muon0/NANOAOD/PromptReco-v2/000/381/516/00000/9167a064-01e5-4683-b673-c429c4a0ca70.root | (None) | ad:598c936b | 535.794 MB |          |
| cms:/store/data/Run2024E/Muon0/NANOAOD/PromptReco-v2/000/381/516/00000/a15435f5-7ced-4296-a43f-bc8e3a86bd41.root | (None) | ad:989e96f9 | 816.014 MB |          |
| cms:/store/data/Run2024E/Muon0/NANOAOD/PromptReco-v2/000/381/516/00000/b578fe98-70d6-4283-8c2c-ebf7dbaf4dfc.root | (None) | ad:12ae7232 | 712.559 MB |          |
| cms:/store/data/Run2024E/Muon0/NANOAOD/PromptReco-v2/000/381/516/00000/c402cb15-31f2-4b0b-b7a2-93fdf659e299.root | (None) | ad:d60bb3bb | 431.675 MB |          |
| cms:/store/data/Run2024E/Muon0/NANOAOD/PromptReco-v2/000/381/516/00000/d6010cf6-cfb8-4f3c-b26f-4d2626814c03.root | (None) | ad:8fa10238 | 826.111 MB |          |
| cms:/store/data/Run2024E/Muon0/NANOAOD/PromptReco-v2/000/381/516/00000/fb29e744-b6fe-48e3-ab5a-9d371fe53410.root | (None) | ad:3a476883 | 777.519 MB |          |
| cms:/store/data/Run2024E/Muon0/NANOAOD/PromptReco-v2/000/381/542/00000/c9c1224b-5390-46eb-9514-b69bb9333824.root | (None) | ad:f6c4588d | 3.155 MB   |          |
| cms:/store/data/Run2024E/Muon0/NANOAOD/PromptReco-v2/000/381/384/00000/0b15acd0-a5dc-4595-964e-6a15e5f4c0ee.root | (None) | ad:70434723 | 293.616 MB |          |
| cms:/store/data/Run2024E/Muon0/NANOAOD/PromptReco-v2/000/381/384/00000/76fc4869-5cc8-4a4c-8546-9e0571fc9121.root | (None) | ad:0cca850d | 548.069 MB |          |
| cms:/store/data/Run2024E/Muon0/NANOAOD/PromptReco-v2/000/381/417/00000/1a3ae7fd-ceb1-47ac-a54e-eff8a294772c.root | (None) | ad:5c5a5ec7 | 759.415 MB |          |
| cms:/store/data/Run2024E/Muon0/NANOAOD/PromptReco-v2/000/381/417/00000/39bc0292-065d-4bed-b8e7-2b7642fc9cdc.root | (None) | ad:02d36a21 | 1.090 GB   |          |
| cms:/store/data/Run2024E/Muon0/NANOAOD/PromptReco-v2/000/381/417/00000/46fb1ad3-dfec-4766-b326-2ac0a4cdc471.root | (None) | ad:5d67bdf5 | 591.253 MB |          |
| cms:/store/data/Run2024E/Muon0/NANOAOD/PromptReco-v2/000/381/417/00000/481ec6cc-6ec3-4abc-8a37-f27df0393bff.root | (None) | ad:162c65a8 | 459.108 MB |          |
| cms:/store/data/Run2024E/Muon0/NANOAOD/PromptReco-v2/000/381/417/00000/4e01a0c6-d17f-458c-ba42-dd158ae6836a.root | (None) | ad:df395adc | 365.163 MB |          |
| cms:/store/data/Run2024E/Muon0/NANOAOD/PromptReco-v2/000/381/417/00000/56c87c0f-e811-4166-8bb5-df26e3fae45a.root | (None) | ad:2fdb8d66 | 463.585 MB |          |
| cms:/store/data/Run2024E/Muon0/NANOAOD/PromptReco-v2/000/381/417/00000/5fb2c893-228b-47a5-9ef1-01e4778f84d2.root | (None) | ad:a7e2e70d | 415.239 MB |          |
| cms:/store/data/Run2024E/Muon0/NANOAOD/PromptReco-v2/000/381/417/00000/72417103-db6b-4293-b437-4863326e80b6.root | (None) | ad:f1920e2e | 432.467 MB |          |
| cms:/store/data/Run2024E/Muon0/NANOAOD/PromptReco-v2/000/381/417/00000/72ea73eb-f59a-4b52-ba1b-e8beaf235415.root | (None) | ad:d4d81bef | 355.214 MB |          |
| cms:/store/data/Run2024E/Muon0/NANOAOD/PromptReco-v2/000/381/417/00000/7615f058-85cf-41c7-a0e8-f1c6bc7ca298.root | (None) | ad:777f85b5 | 828.293 MB |          |
| cms:/store/data/Run2024E/Muon0/NANOAOD/PromptReco-v2/000/381/417/00000/7a7ce5c8-aa80-47b3-8e87-8c6ebf6c0dee.root | (None) | ad:d74f3d09 | 510.270 MB |          |
| cms:/store/data/Run2024E/Muon0/NANOAOD/PromptReco-v2/000/381/417/00000/7acaaf98-beb1-4be7-9cdb-ac45560ab06f.root | (None) | ad:aa9da015 | 512.935 MB |          |
| cms:/store/data/Run2024E/Muon0/NANOAOD/PromptReco-v2/000/381/417/00000/85d3b828-d84a-48fd-8e16-ca267bdd83cc.root | (None) | ad:c66855b7 | 456.169 MB |          |
| cms:/store/data/Run2024E/Muon0/NANOAOD/PromptReco-v2/000/381/417/00000/9c769840-d1b8-48be-acad-9f3996381c23.root | (None) | ad:2f1484a9 | 422.050 MB |          |
| cms:/store/data/Run2024E/Muon0/NANOAOD/PromptReco-v2/000/381/417/00000/b0f7c7e3-9121-4fec-b492-4f66f9c1debb.root | (None) | ad:3b9aed1c | 391.709 MB |          |
| cms:/store/data/Run2024E/Muon0/NANOAOD/PromptReco-v2/000/381/417/00000/c01cc49e-e34d-417f-a7ca-44d9854399df.root | (None) | ad:52206341 | 582.997 MB |          |
| cms:/store/data/Run2024E/Muon0/NANOAOD/PromptReco-v2/000/381/417/00000/c34894b2-666d-4616-8cf5-b5fac0c7189d.root | (None) | ad:49727e2e | 527.577 MB |          |
| cms:/store/data/Run2024E/Muon0/NANOAOD/PromptReco-v2/000/381/417/00000/cb7d3d52-1b24-4fe4-8b75-05dbb2e0388b.root | (None) | ad:b22d02dc | 599.672 MB |          |
| cms:/store/data/Run2024E/Muon0/NANOAOD/PromptReco-v2/000/381/417/00000/d72e8e5f-7f61-44aa-adc8-257a7ff26d14.root | (None) | ad:a24df514 | 444.359 MB |          |
| cms:/store/data/Run2024E/Muon0/NANOAOD/PromptReco-v2/000/381/417/00000/db513d8e-4f1e-4228-95df-268e0c695235.root | (None) | ad:2af2f406 | 588.555 MB |          |
| cms:/store/data/Run2024E/Muon0/NANOAOD/PromptReco-v2/000/381/417/00000/dce6fed7-d81c-4113-bc77-4f96b05b0944.root | (None) | ad:28f92d3b | 571.641 MB |          |
| cms:/store/data/Run2024E/Muon0/NANOAOD/PromptReco-v2/000/381/417/00000/f00bd08f-f8a6-4773-bc10-630945d040e9.root | (None) | ad:0cfa2aef | 535.710 MB |          |
| cms:/store/data/Run2024E/Muon0/NANOAOD/PromptReco-v2/000/381/417/00000/fce75ea8-3663-4634-929f-faa08aae2f6d.root | (None) | ad:07045188 | 528.985 MB |          |
| cms:/store/data/Run2024E/Muon0/NANOAOD/PromptReco-v2/000/381/443/00000/0b21e5ec-6401-4328-86ee-bcbb0320c122.root | (None) | ad:327cb700 | 532.374 MB |          |
| cms:/store/data/Run2024E/Muon0/NANOAOD/PromptReco-v2/000/381/443/00000/0dddba4e-87c6-46b0-afbd-cb5596332859.root | (None) | ad:b0ace4f2 | 551.695 MB |          |
| cms:/store/data/Run2024E/Muon0/NANOAOD/PromptReco-v2/000/381/443/00000/11326b1d-ece5-4d20-aec1-94d30f46e38d.root | (None) | ad:a0e4f66a | 581.835 MB |          |
| cms:/store/data/Run2024E/Muon0/NANOAOD/PromptReco-v2/000/381/443/00000/256d496b-7f5b-4975-b1d9-2e36c74fa20d.root | (None) | ad:2ea38353 | 623.508 MB |          |
| cms:/store/data/Run2024E/Muon0/NANOAOD/PromptReco-v2/000/381/443/00000/3b1b96f5-4b41-441a-8a5a-53383f68b1bc.root | (None) | ad:233d62a6 | 505.034 MB |          |
| cms:/store/data/Run2024E/Muon0/NANOAOD/PromptReco-v2/000/381/443/00000/40b85958-ee41-490f-b291-d5f8f6e143ea.root | (None) | ad:782a39c4 | 466.673 MB |          |
| cms:/store/data/Run2024E/Muon0/NANOAOD/PromptReco-v2/000/381/443/00000/66a24d0d-cb08-4963-9546-38ba10eb5e86.root | (None) | ad:098f514f | 575.500 MB |          |
| cms:/store/data/Run2024E/Muon0/NANOAOD/PromptReco-v2/000/381/443/00000/722bf53f-705e-4fb4-9085-5504cc426033.root | (None) | ad:a308c3d5 | 395.963 MB |          |
| cms:/store/data/Run2024E/Muon0/NANOAOD/PromptReco-v2/000/381/443/00000/72d36381-3e48-46fe-a4f7-c838c2e996be.root | (None) | ad:8555fd2f | 564.874 MB |          |
| cms:/store/data/Run2024E/Muon0/NANOAOD/PromptReco-v2/000/381/443/00000/a284d4e4-ea46-4562-8fe0-4191b49d6176.root | (None) | ad:bf0561e0 | 591.923 MB |          |
| cms:/store/data/Run2024E/Muon0/NANOAOD/PromptReco-v2/000/381/443/00000/b99c538e-c3c2-436e-ad89-6df68d718ff4.root | (None) | ad:4d45820f | 540.629 MB |          |
| cms:/store/data/Run2024E/Muon0/NANOAOD/PromptReco-v2/000/381/443/00000/bab8d22e-7f66-4ae4-a93c-df4bcce929ab.root | (None) | ad:22f53b2d | 651.006 MB |          |
| cms:/store/data/Run2024E/Muon0/NANOAOD/PromptReco-v2/000/381/443/00000/bde0cf59-ffbd-4464-934a-47bb9f07bd32.root | (None) | ad:ba383244 | 451.014 MB |          |
| cms:/store/data/Run2024E/Muon0/NANOAOD/PromptReco-v2/000/381/443/00000/e04b53d6-f01c-48d2-9a2a-df0061f34067.root | (None) | ad:1cc2ea27 | 478.752 MB |          |
| cms:/store/data/Run2024E/Muon0/NANOAOD/PromptReco-v2/000/381/443/00000/e72f2c3c-0c20-4d9e-bbc3-61bfb12928ed.root | (None) | ad:fdab3487 | 647.326 MB |          |
| cms:/store/data/Run2024E/Muon0/NANOAOD/PromptReco-v2/000/381/443/00000/e99bc562-fc0a-4dbe-8fc1-e61168585162.root | (None) | ad:eb9ea0de | 762.204 MB |          |
| cms:/store/data/Run2024E/Muon0/NANOAOD/PromptReco-v2/000/381/544/00000/08a1e632-b19a-4ba0-8972-dc682b9e1f5c.root | (None) | ad:e91a86b4 | 42.045 MB  |          |
| cms:/store/data/Run2024E/Muon0/NANOAOD/PromptReco-v2/000/381/544/00000/949afefa-4d8e-4836-8f77-5b76206fe627.root | (None) | ad:3ed5c4a3 | 133.513 MB |          |
| cms:/store/data/Run2024E/Muon0/NANOAOD/PromptReco-v2/000/381/543/00000/d02be561-206d-41b5-b873-72d400062447.root | (None) | ad:3ef78a0e | 41.956 MB  |          |
+------------------------------------------------------------------------------------------------------------------+--------+-------------+------------+----------+
Total files : 176
Total size : 98.875 GB
