{
    "cms:/store/mc/Run3Summer22EENanoAODv12/NMSSM_XtoYHto4B_MX-2000_MY-70_TuneCP5_13p6TeV_madgraph-pythia8/NANOAODSIM/130X_mcRun3_2022_realistic_postEE_v6-v2/60000/e6d45059-11c1-43e7-be9c-bb07e6be7749.root": [
        "T1_US_FNAL_Disk: davs://cmsdcadisk.fnal.gov:2880/dcache/uscmsdisk/store/mc/Run3Summer22EENanoAODv12/NMSSM_XtoYHto4B_MX-2000_MY-70_TuneCP5_13p6TeV_madgraph-pythia8/NANOAODSIM/130X_mcRun3_2022_realistic_postEE_v6-v2/60000/e6d45059-11c1-43e7-be9c-bb07e6be7749.root",
        "T2_CH_CSCS: davs://storage01.lcg.cscs.ch:2880/pnfs/lcg.cscs.ch/cms/trivcat/store/mc/Run3Summer22EENanoAODv12/NMSSM_XtoYHto4B_MX-2000_MY-70_TuneCP5_13p6TeV_madgraph-pythia8/NANOAODSIM/130X_mcRun3_2022_realistic_postEE_v6-v2/60000/e6d45059-11c1-43e7-be9c-bb07e6be7749.root",
        "T2_FR_GRIF: davs://eos.grif.fr:11000/eos/grif/cms/grif/store/mc/Run3Summer22EENanoAODv12/NMSSM_XtoYHto4B_MX-2000_MY-70_TuneCP5_13p6TeV_madgraph-pythia8/NANOAODSIM/130X_mcRun3_2022_realistic_postEE_v6-v2/60000/e6d45059-11c1-43e7-be9c-bb07e6be7749.root",
        "T2_US_Vanderbilt: davs://xrootd-vanderbilt.sites.opensciencegrid.org:1094/store/mc/Run3Summer22EENanoAODv12/NMSSM_XtoYHto4B_MX-2000_MY-70_TuneCP5_13p6TeV_madgraph-pythia8/NANOAODSIM/130X_mcRun3_2022_realistic_postEE_v6-v2/60000/e6d45059-11c1-43e7-be9c-bb07e6be7749.root",
        "T2_BE_UCL: davs://ingrid-se02.cism.ucl.ac.be:1094/store/mc/Run3Summer22EENanoAODv12/NMSSM_XtoYHto4B_MX-2000_MY-70_TuneCP5_13p6TeV_madgraph-pythia8/NANOAODSIM/130X_mcRun3_2022_realistic_postEE_v6-v2/60000/e6d45059-11c1-43e7-be9c-bb07e6be7749.root",
        "T2_EE_Estonia: davs://xrootd.hep.kbfi.ee:1094/store/mc/Run3Summer22EENanoAODv12/NMSSM_XtoYHto4B_MX-2000_MY-70_TuneCP5_13p6TeV_madgraph-pythia8/NANOAODSIM/130X_mcRun3_2022_realistic_postEE_v6-v2/60000/e6d45059-11c1-43e7-be9c-bb07e6be7749.root",
        "T1_US_FNAL_Tape: davs://cmsdcatape.fnal.gov:2880/WAX/11/store/mc/Run3Summer22EENanoAODv12/NMSSM_XtoYHto4B_MX-2000_MY-70_TuneCP5_13p6TeV_madgraph-pythia8/NANOAODSIM/130X_mcRun3_2022_realistic_postEE_v6-v2/60000/e6d45059-11c1-43e7-be9c-bb07e6be7749.root"
    ]
}