#/NMSSM_XtoYHto4B_MX-900_MY-600_TuneCP5_13p6TeV_madgraph-pythia8/Run3Summer22NanoAODv12-130X_mcRun3_2022_realistic_v5-v2/NANOAODSIM
+---------------------------------------------------------------------------------------------------------------------------------------------------------------------------------------------------+--------+-------------+------------+----------+
| SCOPE:NAME                                                                                                                                                                                        | GUID   | ADLER32     | FILESIZE   | EVENTS   |
|---------------------------------------------------------------------------------------------------------------------------------------------------------------------------------------------------+--------+-------------+------------+----------|
| cms:/store/mc/Run3Summer22NanoAODv12/NMSSM_XtoYHto4B_MX-900_MY-600_TuneCP5_13p6TeV_madgraph-pythia8/NANOAODSIM/130X_mcRun3_2022_realistic_v5-v2/2830000/b11ffd49-d043-42ce-b1fc-1dd28b468c39.root | (None) | ad:c13fcea3 | 7.304 MB   |          |
| cms:/store/mc/Run3Summer22NanoAODv12/NMSSM_XtoYHto4B_MX-900_MY-600_TuneCP5_13p6TeV_madgraph-pythia8/NANOAODSIM/130X_mcRun3_2022_realistic_v5-v2/2830000/97dd1f34-d127-434e-aaab-2a9d4d888dd8.root | (None) | ad:77b428b8 | 4.917 MB   |          |
| cms:/store/mc/Run3Summer22NanoAODv12/NMSSM_XtoYHto4B_MX-900_MY-600_TuneCP5_13p6TeV_madgraph-pythia8/NANOAODSIM/130X_mcRun3_2022_realistic_v5-v2/2830000/3126abed-c726-4002-b470-828c498d4c23.root | (None) | ad:1e03b25f | 4.908 MB   |          |
| cms:/store/mc/Run3Summer22NanoAODv12/NMSSM_XtoYHto4B_MX-900_MY-600_TuneCP5_13p6TeV_madgraph-pythia8/NANOAODSIM/130X_mcRun3_2022_realistic_v5-v2/2830000/22cdd625-e082-4517-baf2-5ecfadcda9d0.root | (None) | ad:ba01dd65 | 13.261 MB  |          |
| cms:/store/mc/Run3Summer22NanoAODv12/NMSSM_XtoYHto4B_MX-900_MY-600_TuneCP5_13p6TeV_madgraph-pythia8/NANOAODSIM/130X_mcRun3_2022_realistic_v5-v2/2830000/ef1964d5-39b4-4cac-8c68-ad181191d3dd.root | (None) | ad:28438b34 | 7.246 MB   |          |
| cms:/store/mc/Run3Summer22NanoAODv12/NMSSM_XtoYHto4B_MX-900_MY-600_TuneCP5_13p6TeV_madgraph-pythia8/NANOAODSIM/130X_mcRun3_2022_realistic_v5-v2/2830000/415f9223-6ec4-4c5f-90d5-ec1eeda4bd1b.root | (None) | ad:5db4d84f | 7.297 MB   |          |
| cms:/store/mc/Run3Summer22NanoAODv12/NMSSM_XtoYHto4B_MX-900_MY-600_TuneCP5_13p6TeV_madgraph-pythia8/NANOAODSIM/130X_mcRun3_2022_realistic_v5-v2/2830000/bfcd4fe5-2091-44c6-bd03-7e5a78d0d784.root | (None) | ad:09e91128 | 7.220 MB   |          |
| cms:/store/mc/Run3Summer22NanoAODv12/NMSSM_XtoYHto4B_MX-900_MY-600_TuneCP5_13p6TeV_madgraph-pythia8/NANOAODSIM/130X_mcRun3_2022_realistic_v5-v2/2830000/cc4b3206-4cbb-417c-8b89-8c7b722502cc.root | (None) | ad:ebd8b52a | 4.938 MB   |          |
| cms:/store/mc/Run3Summer22NanoAODv12/NMSSM_XtoYHto4B_MX-900_MY-600_TuneCP5_13p6TeV_madgraph-pythia8/NANOAODSIM/130X_mcRun3_2022_realistic_v5-v2/2830000/51f7575f-6057-4bcc-ad8d-add3b2d8ab7d.root | (None) | ad:2a4bfbe6 | 4.911 MB   |          |
| cms:/store/mc/Run3Summer22NanoAODv12/NMSSM_XtoYHto4B_MX-900_MY-600_TuneCP5_13p6TeV_madgraph-pythia8/NANOAODSIM/130X_mcRun3_2022_realistic_v5-v2/2830000/7c3b2670-6b79-4742-87f3-54b45d3da85d.root | (None) | ad:0c961d14 | 7.281 MB   |          |
| cms:/store/mc/Run3Summer22NanoAODv12/NMSSM_XtoYHto4B_MX-900_MY-600_TuneCP5_13p6TeV_madgraph-pythia8/NANOAODSIM/130X_mcRun3_2022_realistic_v5-v2/2830000/49058601-1b94-453c-964e-b36cd6fc4bc7.root | (None) | ad:1d4e3847 | 7.280 MB   |          |
| cms:/store/mc/Run3Summer22NanoAODv12/NMSSM_XtoYHto4B_MX-900_MY-600_TuneCP5_13p6TeV_madgraph-pythia8/NANOAODSIM/130X_mcRun3_2022_realistic_v5-v2/2830000/405215bf-1738-4f59-9f34-3b4fc19bb3bd.root | (None) | ad:ed337fc2 | 4.922 MB   |          |
| cms:/store/mc/Run3Summer22NanoAODv12/NMSSM_XtoYHto4B_MX-900_MY-600_TuneCP5_13p6TeV_madgraph-pythia8/NANOAODSIM/130X_mcRun3_2022_realistic_v5-v2/2830000/eb3905e3-cac2-4338-af17-1c5be6022e64.root | (None) | ad:75bac048 | 15.179 MB  |          |
| cms:/store/mc/Run3Summer22NanoAODv12/NMSSM_XtoYHto4B_MX-900_MY-600_TuneCP5_13p6TeV_madgraph-pythia8/NANOAODSIM/130X_mcRun3_2022_realistic_v5-v2/2830000/b1d0c13a-f9fc-4ae4-96f9-ad65258bdf14.root | (None) | ad:ac6b8c66 | 4.912 MB   |          |
| cms:/store/mc/Run3Summer22NanoAODv12/NMSSM_XtoYHto4B_MX-900_MY-600_TuneCP5_13p6TeV_madgraph-pythia8/NANOAODSIM/130X_mcRun3_2022_realistic_v5-v2/2830000/4ee179f8-6f2e-46ab-86b2-67b96df3721d.root | (None) | ad:2c692d09 | 7.290 MB   |          |
+---------------------------------------------------------------------------------------------------------------------------------------------------------------------------------------------------+--------+-------------+------------+----------+
Total files : 15
Total size : 108.866 MB
