#/NMSSM_XtoYHto4B_MX-4000_MY-1200_TuneCP5_13p6TeV_madgraph-pythia8/Run3Summer23BPixNanoAODv12-130X_mcRun3_2023_realistic_postBPix_v6-v3/NANOAODSIM
+-------------------------------------------------------------------------------------------------------------------------------------------------------------------------------------------------------------------+--------+-------------+------------+----------+
| SCOPE:NAME                                                                                                                                                                                                        | GUID   | ADLER32     | FILESIZE   | EVENTS   |
|-------------------------------------------------------------------------------------------------------------------------------------------------------------------------------------------------------------------+--------+-------------+------------+----------|
| cms:/store/mc/Run3Summer23BPixNanoAODv12/NMSSM_XtoYHto4B_MX-4000_MY-1200_TuneCP5_13p6TeV_madgraph-pythia8/NANOAODSIM/130X_mcRun3_2023_realistic_postBPix_v6-v3/2550000/11df05ac-8910-4ec7-9002-05b038447059.root  | (None) | ad:895a50b4 | 10.096 MB  |          |
| cms:/store/mc/Run3Summer23BPixNanoAODv12/NMSSM_XtoYHto4B_MX-4000_MY-1200_TuneCP5_13p6TeV_madgraph-pythia8/NANOAODSIM/130X_mcRun3_2023_realistic_postBPix_v6-v3/25510000/da3fa148-16d6-4f1d-a05f-a7dc90c6d038.root | (None) | ad:1c52eafb | 10.099 MB  |          |
| cms:/store/mc/Run3Summer23BPixNanoAODv12/NMSSM_XtoYHto4B_MX-4000_MY-1200_TuneCP5_13p6TeV_madgraph-pythia8/NANOAODSIM/130X_mcRun3_2023_realistic_postBPix_v6-v3/2550000/80798185-fa8e-47f5-b89b-14446acd1038.root  | (None) | ad:aae6baf4 | 10.110 MB  |          |
| cms:/store/mc/Run3Summer23BPixNanoAODv12/NMSSM_XtoYHto4B_MX-4000_MY-1200_TuneCP5_13p6TeV_madgraph-pythia8/NANOAODSIM/130X_mcRun3_2023_realistic_postBPix_v6-v3/2550000/c0d2de23-9c83-4f42-b5fe-f9cc77b54581.root  | (None) | ad:c765f7c8 | 44.659 MB  |          |
| cms:/store/mc/Run3Summer23BPixNanoAODv12/NMSSM_XtoYHto4B_MX-4000_MY-1200_TuneCP5_13p6TeV_madgraph-pythia8/NANOAODSIM/130X_mcRun3_2023_realistic_postBPix_v6-v3/2550000/9b6819dd-c3e6-41f7-a99d-66d126c200fc.root  | (None) | ad:99e38e7e | 10.134 MB  |          |
| cms:/store/mc/Run3Summer23BPixNanoAODv12/NMSSM_XtoYHto4B_MX-4000_MY-1200_TuneCP5_13p6TeV_madgraph-pythia8/NANOAODSIM/130X_mcRun3_2023_realistic_postBPix_v6-v3/2550000/ef4dd764-5f50-48c4-8002-f068afeaa08c.root  | (None) | ad:f88568f9 | 10.091 MB  |          |
| cms:/store/mc/Run3Summer23BPixNanoAODv12/NMSSM_XtoYHto4B_MX-4000_MY-1200_TuneCP5_13p6TeV_madgraph-pythia8/NANOAODSIM/130X_mcRun3_2023_realistic_postBPix_v6-v3/2550000/931e0658-f7b1-4245-a29f-8ce0327c16b4.root  | (None) | ad:86aaab37 | 10.089 MB  |          |
| cms:/store/mc/Run3Summer23BPixNanoAODv12/NMSSM_XtoYHto4B_MX-4000_MY-1200_TuneCP5_13p6TeV_madgraph-pythia8/NANOAODSIM/130X_mcRun3_2023_realistic_postBPix_v6-v3/2550000/95a3a9e7-d7c9-4ce7-9fff-610fc30048f8.root  | (None) | ad:b82d9b4d | 27.402 MB  |          |
| cms:/store/mc/Run3Summer23BPixNanoAODv12/NMSSM_XtoYHto4B_MX-4000_MY-1200_TuneCP5_13p6TeV_madgraph-pythia8/NANOAODSIM/130X_mcRun3_2023_realistic_postBPix_v6-v3/2550000/9db0031b-a20d-4729-a7cb-590712f5ec59.root  | (None) | ad:3de9157f | 10.120 MB  |          |
+-------------------------------------------------------------------------------------------------------------------------------------------------------------------------------------------------------------------+--------+-------------+------------+----------+
Total files : 9
Total size : 142.800 MB
