#/NMSSM_XtoYHto4B_MX-1000_MY-600_TuneCP5_13p6TeV_madgraph-pythia8/Run3Summer23NanoAODv12-130X_mcRun3_2023_realistic_v15-v2/NANOAODSIM
+-----------------------------------------------------------------------------------------------------------------------------------------------------------------------------------------------------+--------+-------------+------------+----------+
| SCOPE:NAME                                                                                                                                                                                          | GUID   | ADLER32     | FILESIZE   | EVENTS   |
|-----------------------------------------------------------------------------------------------------------------------------------------------------------------------------------------------------+--------+-------------+------------+----------|
| cms:/store/mc/Run3Summer23NanoAODv12/NMSSM_XtoYHto4B_MX-1000_MY-600_TuneCP5_13p6TeV_madgraph-pythia8/NANOAODSIM/130X_mcRun3_2023_realistic_v15-v2/2810000/85a3af42-51eb-4906-a63b-3a0300603d7e.root | (None) | ad:dd8a77bd | 11.692 MB  |          |
| cms:/store/mc/Run3Summer23NanoAODv12/NMSSM_XtoYHto4B_MX-1000_MY-600_TuneCP5_13p6TeV_madgraph-pythia8/NANOAODSIM/130X_mcRun3_2023_realistic_v15-v2/2810000/f067e135-6385-45c8-bba9-9330acecad26.root | (None) | ad:b343d788 | 5.778 MB   |          |
| cms:/store/mc/Run3Summer23NanoAODv12/NMSSM_XtoYHto4B_MX-1000_MY-600_TuneCP5_13p6TeV_madgraph-pythia8/NANOAODSIM/130X_mcRun3_2023_realistic_v15-v2/2810000/714b41f4-3061-4242-963f-48404f8c1232.root | (None) | ad:2eb41e46 | 11.656 MB  |          |
| cms:/store/mc/Run3Summer23NanoAODv12/NMSSM_XtoYHto4B_MX-1000_MY-600_TuneCP5_13p6TeV_madgraph-pythia8/NANOAODSIM/130X_mcRun3_2023_realistic_v15-v2/2810000/de9ed267-e689-43bd-8671-2690684a0d25.root | (None) | ad:aac7b746 | 11.681 MB  |          |
| cms:/store/mc/Run3Summer23NanoAODv12/NMSSM_XtoYHto4B_MX-1000_MY-600_TuneCP5_13p6TeV_madgraph-pythia8/NANOAODSIM/130X_mcRun3_2023_realistic_v15-v2/2810000/23057aa8-b70e-4fd5-b1bb-0669660145ed.root | (None) | ad:3d199409 | 11.699 MB  |          |
| cms:/store/mc/Run3Summer23NanoAODv12/NMSSM_XtoYHto4B_MX-1000_MY-600_TuneCP5_13p6TeV_madgraph-pythia8/NANOAODSIM/130X_mcRun3_2023_realistic_v15-v2/2810000/be15f999-b73c-4275-a08f-b3538f3f184e.root | (None) | ad:c31ff574 | 11.684 MB  |          |
| cms:/store/mc/Run3Summer23NanoAODv12/NMSSM_XtoYHto4B_MX-1000_MY-600_TuneCP5_13p6TeV_madgraph-pythia8/NANOAODSIM/130X_mcRun3_2023_realistic_v15-v2/2810000/d58a8f0a-7fe0-4faf-b84e-639332871647.root | (None) | ad:64fbd24d | 11.684 MB  |          |
| cms:/store/mc/Run3Summer23NanoAODv12/NMSSM_XtoYHto4B_MX-1000_MY-600_TuneCP5_13p6TeV_madgraph-pythia8/NANOAODSIM/130X_mcRun3_2023_realistic_v15-v2/2810000/93a65ed1-a7c5-48d3-9245-69f7687f9893.root | (None) | ad:223613ab | 20.269 MB  |          |
| cms:/store/mc/Run3Summer23NanoAODv12/NMSSM_XtoYHto4B_MX-1000_MY-600_TuneCP5_13p6TeV_madgraph-pythia8/NANOAODSIM/130X_mcRun3_2023_realistic_v15-v2/2810000/f03c6bfd-59f6-4a79-ba65-9adeff6fb625.root | (None) | ad:b079e669 | 28.906 MB  |          |
| cms:/store/mc/Run3Summer23NanoAODv12/NMSSM_XtoYHto4B_MX-1000_MY-600_TuneCP5_13p6TeV_madgraph-pythia8/NANOAODSIM/130X_mcRun3_2023_realistic_v15-v2/2810000/4293c97b-5e12-4418-a90a-f17c005b5ee8.root | (None) | ad:d0ecca57 | 54.694 MB  |          |
| cms:/store/mc/Run3Summer23NanoAODv12/NMSSM_XtoYHto4B_MX-1000_MY-600_TuneCP5_13p6TeV_madgraph-pythia8/NANOAODSIM/130X_mcRun3_2023_realistic_v15-v2/2810000/238bf429-cb3a-4ab0-a531-265a166bf6bd.root | (None) | ad:3c4ffcc4 | 37.530 MB  |          |
+-----------------------------------------------------------------------------------------------------------------------------------------------------------------------------------------------------+--------+-------------+------------+----------+
Total files : 11
Total size : 217.275 MB
