#/NMSSM_XtoYHto4B_MX-900_MY-90_TuneCP5_13p6TeV_madgraph-pythia8/Run3Summer23BPixNanoAODv12-130X_mcRun3_2023_realistic_postBPix_v6-v2/NANOAODSIM
+--------------------------------------------------------------------------------------------------------------------------------------------------------------------------------------------------------------+--------+-------------+------------+----------+
| SCOPE:NAME                                                                                                                                                                                                   | GUID   | ADLER32     | FILESIZE   | EVENTS   |
|--------------------------------------------------------------------------------------------------------------------------------------------------------------------------------------------------------------+--------+-------------+------------+----------|
| cms:/store/mc/Run3Summer23BPixNanoAODv12/NMSSM_XtoYHto4B_MX-900_MY-90_TuneCP5_13p6TeV_madgraph-pythia8/NANOAODSIM/130X_mcRun3_2023_realistic_postBPix_v6-v2/140000/2b6183d2-40cd-49d3-9f32-4ce97514af9d.root | (None) | ad:b6cb3de5 | 10.924 MB  |          |
| cms:/store/mc/Run3Summer23BPixNanoAODv12/NMSSM_XtoYHto4B_MX-900_MY-90_TuneCP5_13p6TeV_madgraph-pythia8/NANOAODSIM/130X_mcRun3_2023_realistic_postBPix_v6-v2/140000/86d2c323-6a7d-4741-81b1-116a0faecb92.root | (None) | ad:4c3b9452 | 10.933 MB  |          |
| cms:/store/mc/Run3Summer23BPixNanoAODv12/NMSSM_XtoYHto4B_MX-900_MY-90_TuneCP5_13p6TeV_madgraph-pythia8/NANOAODSIM/130X_mcRun3_2023_realistic_postBPix_v6-v2/140000/dc7ba016-4f01-4ca2-8983-772327ccd21e.root | (None) | ad:f848010b | 10.922 MB  |          |
| cms:/store/mc/Run3Summer23BPixNanoAODv12/NMSSM_XtoYHto4B_MX-900_MY-90_TuneCP5_13p6TeV_madgraph-pythia8/NANOAODSIM/130X_mcRun3_2023_realistic_postBPix_v6-v2/140000/bcd5876e-38a6-43d4-969b-d97a7bfcbe36.root | (None) | ad:8a503493 | 10.931 MB  |          |
| cms:/store/mc/Run3Summer23BPixNanoAODv12/NMSSM_XtoYHto4B_MX-900_MY-90_TuneCP5_13p6TeV_madgraph-pythia8/NANOAODSIM/130X_mcRun3_2023_realistic_postBPix_v6-v2/140000/4add73f1-4892-4f97-bbd5-a8b63a4ad4e7.root | (None) | ad:6bf33877 | 10.926 MB  |          |
| cms:/store/mc/Run3Summer23BPixNanoAODv12/NMSSM_XtoYHto4B_MX-900_MY-90_TuneCP5_13p6TeV_madgraph-pythia8/NANOAODSIM/130X_mcRun3_2023_realistic_postBPix_v6-v2/140000/64bbbd16-964c-4da2-a0e3-e9730c8f4e48.root | (None) | ad:5ea2f94b | 50.312 MB  |          |
+--------------------------------------------------------------------------------------------------------------------------------------------------------------------------------------------------------------+--------+-------------+------------+----------+
Total files : 6
Total size : 104.947 MB
