#/NMSSM_XtoYHto4B_MX-4000_MY-2600_TuneCP5_13p6TeV_madgraph-pythia8/Run3Summer22EENanoAODv12-130X_mcRun3_2022_realistic_postEE_v6-v2/NANOAODSIM
+--------------------------------------------------------------------------------------------------------------------------------------------------------------------------------------------------------------+--------+-------------+------------+----------+
| SCOPE:NAME                                                                                                                                                                                                   | GUID   | ADLER32     | FILESIZE   | EVENTS   |
|--------------------------------------------------------------------------------------------------------------------------------------------------------------------------------------------------------------+--------+-------------+------------+----------|
| cms:/store/mc/Run3Summer22EENanoAODv12/NMSSM_XtoYHto4B_MX-4000_MY-2600_TuneCP5_13p6TeV_madgraph-pythia8/NANOAODSIM/130X_mcRun3_2022_realistic_postEE_v6-v2/2820000/8a0330ed-07e9-4a61-8d5f-d640154d923a.root | (None) | ad:35872f13 | 7.801 MB   |          |
| cms:/store/mc/Run3Summer22EENanoAODv12/NMSSM_XtoYHto4B_MX-4000_MY-2600_TuneCP5_13p6TeV_madgraph-pythia8/NANOAODSIM/130X_mcRun3_2022_realistic_postEE_v6-v2/2820000/0997b646-0f05-408a-be29-ead01702b8e0.root | (None) | ad:820ccc1c | 7.797 MB   |          |
| cms:/store/mc/Run3Summer22EENanoAODv12/NMSSM_XtoYHto4B_MX-4000_MY-2600_TuneCP5_13p6TeV_madgraph-pythia8/NANOAODSIM/130X_mcRun3_2022_realistic_postEE_v6-v2/2820000/a6cddc2e-c15e-4661-acb0-3397a19b4de8.root | (None) | ad:d121cfc0 | 9.958 MB   |          |
| cms:/store/mc/Run3Summer22EENanoAODv12/NMSSM_XtoYHto4B_MX-4000_MY-2600_TuneCP5_13p6TeV_madgraph-pythia8/NANOAODSIM/130X_mcRun3_2022_realistic_postEE_v6-v2/2820000/629f1d02-0583-4e99-93ab-405ea7b53c73.root | (None) | ad:5ef2bb14 | 2.758 MB   |          |
| cms:/store/mc/Run3Summer22EENanoAODv12/NMSSM_XtoYHto4B_MX-4000_MY-2600_TuneCP5_13p6TeV_madgraph-pythia8/NANOAODSIM/130X_mcRun3_2022_realistic_postEE_v6-v2/2820000/8131a4fb-701c-4c34-a534-48fe5655ca30.root | (None) | ad:05246f23 | 14.723 MB  |          |
| cms:/store/mc/Run3Summer22EENanoAODv12/NMSSM_XtoYHto4B_MX-4000_MY-2600_TuneCP5_13p6TeV_madgraph-pythia8/NANOAODSIM/130X_mcRun3_2022_realistic_postEE_v6-v2/2820000/e742975e-1775-4860-8ab5-9e86a38aea41.root | (None) | ad:36fb4ee7 | 5.126 MB   |          |
| cms:/store/mc/Run3Summer22EENanoAODv12/NMSSM_XtoYHto4B_MX-4000_MY-2600_TuneCP5_13p6TeV_madgraph-pythia8/NANOAODSIM/130X_mcRun3_2022_realistic_postEE_v6-v2/2820000/5ce854d1-63c5-4646-b7dc-e9ca71acb846.root | (None) | ad:1f6f4623 | 7.808 MB   |          |
| cms:/store/mc/Run3Summer22EENanoAODv12/NMSSM_XtoYHto4B_MX-4000_MY-2600_TuneCP5_13p6TeV_madgraph-pythia8/NANOAODSIM/130X_mcRun3_2022_realistic_postEE_v6-v2/2820000/85113290-7652-4a3c-9c9c-3783ca046e5d.root | (None) | ad:0225890e | 53.061 MB  |          |
| cms:/store/mc/Run3Summer22EENanoAODv12/NMSSM_XtoYHto4B_MX-4000_MY-2600_TuneCP5_13p6TeV_madgraph-pythia8/NANOAODSIM/130X_mcRun3_2022_realistic_postEE_v6-v2/2820000/c5ef640d-f062-4a76-bf88-c3cf2188ecd5.root | (None) | ad:f9ea2a2b | 5.130 MB   |          |
| cms:/store/mc/Run3Summer22EENanoAODv12/NMSSM_XtoYHto4B_MX-4000_MY-2600_TuneCP5_13p6TeV_madgraph-pythia8/NANOAODSIM/130X_mcRun3_2022_realistic_postEE_v6-v2/2820000/906c3e1e-b2c8-41f9-be36-553e12ed7970.root | (None) | ad:7a2ec539 | 9.969 MB   |          |
| cms:/store/mc/Run3Summer22EENanoAODv12/NMSSM_XtoYHto4B_MX-4000_MY-2600_TuneCP5_13p6TeV_madgraph-pythia8/NANOAODSIM/130X_mcRun3_2022_realistic_postEE_v6-v2/2820000/a52b3bca-df83-40fa-8338-f44eb0c601a6.root | (None) | ad:b5675845 | 9.970 MB   |          |
| cms:/store/mc/Run3Summer22EENanoAODv12/NMSSM_XtoYHto4B_MX-4000_MY-2600_TuneCP5_13p6TeV_madgraph-pythia8/NANOAODSIM/130X_mcRun3_2022_realistic_postEE_v6-v2/2820000/88ad7883-b0a0-4210-a5a7-7c9c1b66b8d0.root | (None) | ad:fe4e29ff | 7.800 MB   |          |
| cms:/store/mc/Run3Summer22EENanoAODv12/NMSSM_XtoYHto4B_MX-4000_MY-2600_TuneCP5_13p6TeV_madgraph-pythia8/NANOAODSIM/130X_mcRun3_2022_realistic_postEE_v6-v2/2820000/49f5d249-2495-41fa-8257-7ef5458c2d09.root | (None) | ad:b8438411 | 66.562 MB  |          |
| cms:/store/mc/Run3Summer22EENanoAODv12/NMSSM_XtoYHto4B_MX-4000_MY-2600_TuneCP5_13p6TeV_madgraph-pythia8/NANOAODSIM/130X_mcRun3_2022_realistic_postEE_v6-v2/2820000/9f4c812b-9990-4501-a155-4cf334874f89.root | (None) | ad:c00d6ef1 | 25.831 MB  |          |
| cms:/store/mc/Run3Summer22EENanoAODv12/NMSSM_XtoYHto4B_MX-4000_MY-2600_TuneCP5_13p6TeV_madgraph-pythia8/NANOAODSIM/130X_mcRun3_2022_realistic_postEE_v6-v2/2820000/62d246bb-dd35-418f-bc97-5d1d5e80376c.root | (None) | ad:ef81626e | 5.131 MB   |          |
| cms:/store/mc/Run3Summer22EENanoAODv12/NMSSM_XtoYHto4B_MX-4000_MY-2600_TuneCP5_13p6TeV_madgraph-pythia8/NANOAODSIM/130X_mcRun3_2022_realistic_postEE_v6-v2/2820000/15e5be02-4fd0-49b0-be12-c6393e9b5e78.root | (None) | ad:58b336ac | 5.120 MB   |          |
| cms:/store/mc/Run3Summer22EENanoAODv12/NMSSM_XtoYHto4B_MX-4000_MY-2600_TuneCP5_13p6TeV_madgraph-pythia8/NANOAODSIM/130X_mcRun3_2022_realistic_postEE_v6-v2/2820000/86114453-5a43-4824-ac5b-5d22989bcb24.root | (None) | ad:b33228b8 | 30.592 MB  |          |
| cms:/store/mc/Run3Summer22EENanoAODv12/NMSSM_XtoYHto4B_MX-4000_MY-2600_TuneCP5_13p6TeV_madgraph-pythia8/NANOAODSIM/130X_mcRun3_2022_realistic_postEE_v6-v2/2820000/12a3551b-e24d-4afc-ac1f-c4eec57f28cb.root | (None) | ad:b7382450 | 32.747 MB  |          |
| cms:/store/mc/Run3Summer22EENanoAODv12/NMSSM_XtoYHto4B_MX-4000_MY-2600_TuneCP5_13p6TeV_madgraph-pythia8/NANOAODSIM/130X_mcRun3_2022_realistic_postEE_v6-v2/2820000/95f35a84-d3cb-4819-bfcd-54e02b412a4a.root | (None) | ad:f074eab2 | 25.887 MB  |          |
| cms:/store/mc/Run3Summer22EENanoAODv12/NMSSM_XtoYHto4B_MX-4000_MY-2600_TuneCP5_13p6TeV_madgraph-pythia8/NANOAODSIM/130X_mcRun3_2022_realistic_postEE_v6-v2/2820000/2e765c83-7956-4abf-a66a-f9ef4cff521d.root | (None) | ad:765a0444 | 7.753 MB   |          |
+--------------------------------------------------------------------------------------------------------------------------------------------------------------------------------------------------------------+--------+-------------+------------+----------+
Total files : 20
Total size : 341.522 MB
