{
    "cms:/store/mc/Run3Summer23BPixNanoAODv12/NMSSM_XtoYHto4B_MX-700_MY-100_TuneCP5_13p6TeV_madgraph-pythia8/NANOAODSIM/130X_mcRun3_2023_realistic_postBPix_v6-v2/130000/e5c5677c-0b37-4a8e-b3bf-b75851a88b3b.root": [
        "T1_US_FNAL_Disk: davs://cmsdcadisk.fnal.gov:2880/dcache/uscmsdisk/store/mc/Run3Summer23BPixNanoAODv12/NMSSM_XtoYHto4B_MX-700_MY-100_TuneCP5_13p6TeV_madgraph-pythia8/NANOAODSIM/130X_mcRun3_2023_realistic_postBPix_v6-v2/130000/e5c5677c-0b37-4a8e-b3bf-b75851a88b3b.root",
        "T2_DE_DESY: davs://dcache-cms-webdav.desy.de:2880/pnfs/desy.de/cms/tier2/store/mc/Run3Summer23BPixNanoAODv12/NMSSM_XtoYHto4B_MX-700_MY-100_TuneCP5_13p6TeV_madgraph-pythia8/NANOAODSIM/130X_mcRun3_2023_realistic_postBPix_v6-v2/130000/e5c5677c-0b37-4a8e-b3bf-b75851a88b3b.root",
        "T1_DE_KIT_Disk: davs://cmsdcache-kit-disk.gridka.de:2880/pnfs/gridka.de/cms/disk-only/store/mc/Run3Summer23BPixNanoAODv12/NMSSM_XtoYHto4B_MX-700_MY-100_TuneCP5_13p6TeV_madgraph-pythia8/NANOAODSIM/130X_mcRun3_2023_realistic_postBPix_v6-v2/130000/e5c5677c-0b37-4a8e-b3bf-b75851a88b3b.root",
        "T2_UA_KIPT: davs://cms-se0.kipt.kharkov.ua:443//dpm/kipt.kharkov.ua/home/cms/store/mc/Run3Summer23BPixNanoAODv12/NMSSM_XtoYHto4B_MX-700_MY-100_TuneCP5_13p6TeV_madgraph-pythia8/NANOAODSIM/130X_mcRun3_2023_realistic_postBPix_v6-v2/130000/e5c5677c-0b37-4a8e-b3bf-b75851a88b3b.root",
        "T2_KR_KISTI: davs://cms-t2-se01.sdfarm.kr:2880/store/mc/Run3Summer23BPixNanoAODv12/NMSSM_XtoYHto4B_MX-700_MY-100_TuneCP5_13p6TeV_madgraph-pythia8/NANOAODSIM/130X_mcRun3_2023_realistic_postBPix_v6-v2/130000/e5c5677c-0b37-4a8e-b3bf-b75851a88b3b.root",
        "T1_US_FNAL_Tape_Test: davs://cmstnvm1.fnal.gov:2880/store/mc/Run3Summer23BPixNanoAODv12/NMSSM_XtoYHto4B_MX-700_MY-100_TuneCP5_13p6TeV_madgraph-pythia8/NANOAODSIM/130X_mcRun3_2023_realistic_postBPix_v6-v2/130000/e5c5677c-0b37-4a8e-b3bf-b75851a88b3b.root",
        "T2_BR_SPRACE: davs://osg-se.sprace.org.br:1094/store/mc/Run3Summer23BPixNanoAODv12/NMSSM_XtoYHto4B_MX-700_MY-100_TuneCP5_13p6TeV_madgraph-pythia8/NANOAODSIM/130X_mcRun3_2023_realistic_postBPix_v6-v2/130000/e5c5677c-0b37-4a8e-b3bf-b75851a88b3b.root",
        "T2_US_MIT_Tape: davs://dtn20.nese.mghpcc.org:443/store/mc/Run3Summer23BPixNanoAODv12/NMSSM_XtoYHto4B_MX-700_MY-100_TuneCP5_13p6TeV_madgraph-pythia8/NANOAODSIM/130X_mcRun3_2023_realistic_postBPix_v6-v2/130000/e5c5677c-0b37-4a8e-b3bf-b75851a88b3b.root"
    ]
}