{
    "cms:/store/mc/Run3Summer22EENanoAODv12/NMSSM_XtoYHto4B_MX-550_MY-150_TuneCP5_13p6TeV_madgraph-pythia8/NANOAODSIM/130X_mcRun3_2022_realistic_postEE_v6-v2/2830000/9cae4d8c-1b26-4131-b689-9dcfa27e4391.root": [
        "T1_FR_CCIN2P3_Disk: davs://ccdavcms.in2p3.fr:2880/disk/data/store/mc/Run3Summer22EENanoAODv12/NMSSM_XtoYHto4B_MX-550_MY-150_TuneCP5_13p6TeV_madgraph-pythia8/NANOAODSIM/130X_mcRun3_2022_realistic_postEE_v6-v2/2830000/9cae4d8c-1b26-4131-b689-9dcfa27e4391.root",
        "T2_IT_Bari: davs://webdav.recas.ba.infn.it:8443/cms/store/mc/Run3Summer22EENanoAODv12/NMSSM_XtoYHto4B_MX-550_MY-150_TuneCP5_13p6TeV_madgraph-pythia8/NANOAODSIM/130X_mcRun3_2022_realistic_postEE_v6-v2/2830000/9cae4d8c-1b26-4131-b689-9dcfa27e4391.root",
        "T2_US_Vanderbilt: davs://xrootd-vanderbilt.sites.opensciencegrid.org:1094/store/mc/Run3Summer22EENanoAODv12/NMSSM_XtoYHto4B_MX-550_MY-150_TuneCP5_13p6TeV_madgraph-pythia8/NANOAODSIM/130X_mcRun3_2022_realistic_postEE_v6-v2/2830000/9cae4d8c-1b26-4131-b689-9dcfa27e4391.root",
        "T2_US_Caltech: davs://k8s-redir-stageout.ultralight.org:1094/store/mc/Run3Summer22EENanoAODv12/NMSSM_XtoYHto4B_MX-550_MY-150_TuneCP5_13p6TeV_madgraph-pythia8/NANOAODSIM/130X_mcRun3_2022_realistic_postEE_v6-v2/2830000/9cae4d8c-1b26-4131-b689-9dcfa27e4391.root",
        "T1_RU_JINR_Disk: davs://se-wbdv.jinr-t1.ru:2880/pnfs/jinr-t1.ru/data/cms/store/mc/Run3Summer22EENanoAODv12/NMSSM_XtoYHto4B_MX-550_MY-150_TuneCP5_13p6TeV_madgraph-pythia8/NANOAODSIM/130X_mcRun3_2022_realistic_postEE_v6-v2/2830000/9cae4d8c-1b26-4131-b689-9dcfa27e4391.root",
        "T1_US_FNAL_Tape: davs://cmsdcatape.fnal.gov:2880/WAX/11/store/mc/Run3Summer22EENanoAODv12/NMSSM_XtoYHto4B_MX-550_MY-150_TuneCP5_13p6TeV_madgraph-pythia8/NANOAODSIM/130X_mcRun3_2022_realistic_postEE_v6-v2/2830000/9cae4d8c-1b26-4131-b689-9dcfa27e4391.root",
        "T1_IT_CNAF_Disk: davs://xfer-cms.cr.cnaf.infn.it:8443/cmsdisk/store/mc/Run3Summer22EENanoAODv12/NMSSM_XtoYHto4B_MX-550_MY-150_TuneCP5_13p6TeV_madgraph-pythia8/NANOAODSIM/130X_mcRun3_2022_realistic_postEE_v6-v2/2830000/9cae4d8c-1b26-4131-b689-9dcfa27e4391.root"
    ],
    "cms:/store/mc/Run3Summer22EENanoAODv12/NMSSM_XtoYHto4B_MX-550_MY-150_TuneCP5_13p6TeV_madgraph-pythia8/NANOAODSIM/130X_mcRun3_2022_realistic_postEE_v6-v2/2830000/b19356a7-e40d-4cfd-906c-47963f4bbe3a.root": [
        "T1_FR_CCIN2P3_Disk: davs://ccdavcms.in2p3.fr:2880/disk/data/store/mc/Run3Summer22EENanoAODv12/NMSSM_XtoYHto4B_MX-550_MY-150_TuneCP5_13p6TeV_madgraph-pythia8/NANOAODSIM/130X_mcRun3_2022_realistic_postEE_v6-v2/2830000/b19356a7-e40d-4cfd-906c-47963f4bbe3a.root",
        "T2_US_Florida: davs://cmsio2.rc.ufl.edu:1094/store/mc/Run3Summer22EENanoAODv12/NMSSM_XtoYHto4B_MX-550_MY-150_TuneCP5_13p6TeV_madgraph-pythia8/NANOAODSIM/130X_mcRun3_2022_realistic_postEE_v6-v2/2830000/b19356a7-e40d-4cfd-906c-47963f4bbe3a.root",
        "T2_US_Nebraska: davs://xrootd-local.unl.edu:1094/store/mc/Run3Summer22EENanoAODv12/NMSSM_XtoYHto4B_MX-550_MY-150_TuneCP5_13p6TeV_madgraph-pythia8/NANOAODSIM/130X_mcRun3_2022_realistic_postEE_v6-v2/2830000/b19356a7-e40d-4cfd-906c-47963f4bbe3a.root",
        "T2_BE_IIHE: davs://maite.iihe.ac.be:2880/pnfs/iihe/cms/ph/sc4/store/mc/Run3Summer22EENanoAODv12/NMSSM_XtoYHto4B_MX-550_MY-150_TuneCP5_13p6TeV_madgraph-pythia8/NANOAODSIM/130X_mcRun3_2022_realistic_postEE_v6-v2/2830000/b19356a7-e40d-4cfd-906c-47963f4bbe3a.root",
        "T1_RU_JINR_Disk: davs://se-wbdv.jinr-t1.ru:2880/pnfs/jinr-t1.ru/data/cms/store/mc/Run3Summer22EENanoAODv12/NMSSM_XtoYHto4B_MX-550_MY-150_TuneCP5_13p6TeV_madgraph-pythia8/NANOAODSIM/130X_mcRun3_2022_realistic_postEE_v6-v2/2830000/b19356a7-e40d-4cfd-906c-47963f4bbe3a.root",
        "T2_IT_Rome: davs://cmsrm-xrootd01.roma1.infn.it:2880//mc/Run3Summer22EENanoAODv12/NMSSM_XtoYHto4B_MX-550_MY-150_TuneCP5_13p6TeV_madgraph-pythia8/NANOAODSIM/130X_mcRun3_2022_realistic_postEE_v6-v2/2830000/b19356a7-e40d-4cfd-906c-47963f4bbe3a.root",
        "T1_US_FNAL_Tape: davs://cmsdcatape.fnal.gov:2880/WAX/11/store/mc/Run3Summer22EENanoAODv12/NMSSM_XtoYHto4B_MX-550_MY-150_TuneCP5_13p6TeV_madgraph-pythia8/NANOAODSIM/130X_mcRun3_2022_realistic_postEE_v6-v2/2830000/b19356a7-e40d-4cfd-906c-47963f4bbe3a.root"
    ],
    "cms:/store/mc/Run3Summer22EENanoAODv12/NMSSM_XtoYHto4B_MX-550_MY-150_TuneCP5_13p6TeV_madgraph-pythia8/NANOAODSIM/130X_mcRun3_2022_realistic_postEE_v6-v2/2830000/b3ca598c-563b-4c41-8157-8886c124200d.root": [
        "T1_FR_CCIN2P3_Disk: davs://ccdavcms.in2p3.fr:2880/disk/data/store/mc/Run3Summer22EENanoAODv12/NMSSM_XtoYHto4B_MX-550_MY-150_TuneCP5_13p6TeV_madgraph-pythia8/NANOAODSIM/130X_mcRun3_2022_realistic_postEE_v6-v2/2830000/b3ca598c-563b-4c41-8157-8886c124200d.root",
        "T2_US_Florida: davs://cmsio2.rc.ufl.edu:1094/store/mc/Run3Summer22EENanoAODv12/NMSSM_XtoYHto4B_MX-550_MY-150_TuneCP5_13p6TeV_madgraph-pythia8/NANOAODSIM/130X_mcRun3_2022_realistic_postEE_v6-v2/2830000/b3ca598c-563b-4c41-8157-8886c124200d.root",
        "T2_US_Nebraska: davs://xrootd-local.unl.edu:1094/store/mc/Run3Summer22EENanoAODv12/NMSSM_XtoYHto4B_MX-550_MY-150_TuneCP5_13p6TeV_madgraph-pythia8/NANOAODSIM/130X_mcRun3_2022_realistic_postEE_v6-v2/2830000/b3ca598c-563b-4c41-8157-8886c124200d.root",
        "T2_BE_IIHE: davs://maite.iihe.ac.be:2880/pnfs/iihe/cms/ph/sc4/store/mc/Run3Summer22EENanoAODv12/NMSSM_XtoYHto4B_MX-550_MY-150_TuneCP5_13p6TeV_madgraph-pythia8/NANOAODSIM/130X_mcRun3_2022_realistic_postEE_v6-v2/2830000/b3ca598c-563b-4c41-8157-8886c124200d.root",
        "T1_RU_JINR_Disk: davs://se-wbdv.jinr-t1.ru:2880/pnfs/jinr-t1.ru/data/cms/store/mc/Run3Summer22EENanoAODv12/NMSSM_XtoYHto4B_MX-550_MY-150_TuneCP5_13p6TeV_madgraph-pythia8/NANOAODSIM/130X_mcRun3_2022_realistic_postEE_v6-v2/2830000/b3ca598c-563b-4c41-8157-8886c124200d.root",
        "T2_IT_Rome: davs://cmsrm-xrootd01.roma1.infn.it:2880//mc/Run3Summer22EENanoAODv12/NMSSM_XtoYHto4B_MX-550_MY-150_TuneCP5_13p6TeV_madgraph-pythia8/NANOAODSIM/130X_mcRun3_2022_realistic_postEE_v6-v2/2830000/b3ca598c-563b-4c41-8157-8886c124200d.root",
        "T1_US_FNAL_Tape: davs://cmsdcatape.fnal.gov:2880/WAX/11/store/mc/Run3Summer22EENanoAODv12/NMSSM_XtoYHto4B_MX-550_MY-150_TuneCP5_13p6TeV_madgraph-pythia8/NANOAODSIM/130X_mcRun3_2022_realistic_postEE_v6-v2/2830000/b3ca598c-563b-4c41-8157-8886c124200d.root"
    ],
    "cms:/store/mc/Run3Summer22EENanoAODv12/NMSSM_XtoYHto4B_MX-550_MY-150_TuneCP5_13p6TeV_madgraph-pythia8/NANOAODSIM/130X_mcRun3_2022_realistic_postEE_v6-v2/2830000/ecccdde6-c8d8-4cf5-94e2-9a558e35b1e8.root": [
        "T1_FR_CCIN2P3_Disk: davs://ccdavcms.in2p3.fr:2880/disk/data/store/mc/Run3Summer22EENanoAODv12/NMSSM_XtoYHto4B_MX-550_MY-150_TuneCP5_13p6TeV_madgraph-pythia8/NANOAODSIM/130X_mcRun3_2022_realistic_postEE_v6-v2/2830000/ecccdde6-c8d8-4cf5-94e2-9a558e35b1e8.root",
        "T2_US_Florida: davs://cmsio2.rc.ufl.edu:1094/store/mc/Run3Summer22EENanoAODv12/NMSSM_XtoYHto4B_MX-550_MY-150_TuneCP5_13p6TeV_madgraph-pythia8/NANOAODSIM/130X_mcRun3_2022_realistic_postEE_v6-v2/2830000/ecccdde6-c8d8-4cf5-94e2-9a558e35b1e8.root",
        "T2_US_Nebraska: davs://xrootd-local.unl.edu:1094/store/mc/Run3Summer22EENanoAODv12/NMSSM_XtoYHto4B_MX-550_MY-150_TuneCP5_13p6TeV_madgraph-pythia8/NANOAODSIM/130X_mcRun3_2022_realistic_postEE_v6-v2/2830000/ecccdde6-c8d8-4cf5-94e2-9a558e35b1e8.root",
        "T2_BE_IIHE: davs://maite.iihe.ac.be:2880/pnfs/iihe/cms/ph/sc4/store/mc/Run3Summer22EENanoAODv12/NMSSM_XtoYHto4B_MX-550_MY-150_TuneCP5_13p6TeV_madgraph-pythia8/NANOAODSIM/130X_mcRun3_2022_realistic_postEE_v6-v2/2830000/ecccdde6-c8d8-4cf5-94e2-9a558e35b1e8.root",
        "T1_RU_JINR_Disk: davs://se-wbdv.jinr-t1.ru:2880/pnfs/jinr-t1.ru/data/cms/store/mc/Run3Summer22EENanoAODv12/NMSSM_XtoYHto4B_MX-550_MY-150_TuneCP5_13p6TeV_madgraph-pythia8/NANOAODSIM/130X_mcRun3_2022_realistic_postEE_v6-v2/2830000/ecccdde6-c8d8-4cf5-94e2-9a558e35b1e8.root",
        "T2_IT_Rome: davs://cmsrm-xrootd01.roma1.infn.it:2880//mc/Run3Summer22EENanoAODv12/NMSSM_XtoYHto4B_MX-550_MY-150_TuneCP5_13p6TeV_madgraph-pythia8/NANOAODSIM/130X_mcRun3_2022_realistic_postEE_v6-v2/2830000/ecccdde6-c8d8-4cf5-94e2-9a558e35b1e8.root",
        "T1_US_FNAL_Tape: davs://cmsdcatape.fnal.gov:2880/WAX/11/store/mc/Run3Summer22EENanoAODv12/NMSSM_XtoYHto4B_MX-550_MY-150_TuneCP5_13p6TeV_madgraph-pythia8/NANOAODSIM/130X_mcRun3_2022_realistic_postEE_v6-v2/2830000/ecccdde6-c8d8-4cf5-94e2-9a558e35b1e8.root"
    ],
    "cms:/store/mc/Run3Summer22EENanoAODv12/NMSSM_XtoYHto4B_MX-550_MY-150_TuneCP5_13p6TeV_madgraph-pythia8/NANOAODSIM/130X_mcRun3_2022_realistic_postEE_v6-v2/2830000/65ac3a9b-28f9-43ba-a72a-84cbf1c08b3d.root": [
        "T1_FR_CCIN2P3_Disk: davs://ccdavcms.in2p3.fr:2880/disk/data/store/mc/Run3Summer22EENanoAODv12/NMSSM_XtoYHto4B_MX-550_MY-150_TuneCP5_13p6TeV_madgraph-pythia8/NANOAODSIM/130X_mcRun3_2022_realistic_postEE_v6-v2/2830000/65ac3a9b-28f9-43ba-a72a-84cbf1c08b3d.root",
        "T2_US_Florida: davs://cmsio2.rc.ufl.edu:1094/store/mc/Run3Summer22EENanoAODv12/NMSSM_XtoYHto4B_MX-550_MY-150_TuneCP5_13p6TeV_madgraph-pythia8/NANOAODSIM/130X_mcRun3_2022_realistic_postEE_v6-v2/2830000/65ac3a9b-28f9-43ba-a72a-84cbf1c08b3d.root",
        "T2_US_Nebraska: davs://xrootd-local.unl.edu:1094/store/mc/Run3Summer22EENanoAODv12/NMSSM_XtoYHto4B_MX-550_MY-150_TuneCP5_13p6TeV_madgraph-pythia8/NANOAODSIM/130X_mcRun3_2022_realistic_postEE_v6-v2/2830000/65ac3a9b-28f9-43ba-a72a-84cbf1c08b3d.root",
        "T2_BE_IIHE: davs://maite.iihe.ac.be:2880/pnfs/iihe/cms/ph/sc4/store/mc/Run3Summer22EENanoAODv12/NMSSM_XtoYHto4B_MX-550_MY-150_TuneCP5_13p6TeV_madgraph-pythia8/NANOAODSIM/130X_mcRun3_2022_realistic_postEE_v6-v2/2830000/65ac3a9b-28f9-43ba-a72a-84cbf1c08b3d.root",
        "T1_RU_JINR_Disk: davs://se-wbdv.jinr-t1.ru:2880/pnfs/jinr-t1.ru/data/cms/store/mc/Run3Summer22EENanoAODv12/NMSSM_XtoYHto4B_MX-550_MY-150_TuneCP5_13p6TeV_madgraph-pythia8/NANOAODSIM/130X_mcRun3_2022_realistic_postEE_v6-v2/2830000/65ac3a9b-28f9-43ba-a72a-84cbf1c08b3d.root",
        "T2_IT_Rome: davs://cmsrm-xrootd01.roma1.infn.it:2880//mc/Run3Summer22EENanoAODv12/NMSSM_XtoYHto4B_MX-550_MY-150_TuneCP5_13p6TeV_madgraph-pythia8/NANOAODSIM/130X_mcRun3_2022_realistic_postEE_v6-v2/2830000/65ac3a9b-28f9-43ba-a72a-84cbf1c08b3d.root",
        "T1_US_FNAL_Tape: davs://cmsdcatape.fnal.gov:2880/WAX/11/store/mc/Run3Summer22EENanoAODv12/NMSSM_XtoYHto4B_MX-550_MY-150_TuneCP5_13p6TeV_madgraph-pythia8/NANOAODSIM/130X_mcRun3_2022_realistic_postEE_v6-v2/2830000/65ac3a9b-28f9-43ba-a72a-84cbf1c08b3d.root"
    ],
    "cms:/store/mc/Run3Summer22EENanoAODv12/NMSSM_XtoYHto4B_MX-550_MY-150_TuneCP5_13p6TeV_madgraph-pythia8/NANOAODSIM/130X_mcRun3_2022_realistic_postEE_v6-v2/2830000/43ab8723-b2af-4880-bced-87dbfebf6411.root": [
        "T1_FR_CCIN2P3_Disk: davs://ccdavcms.in2p3.fr:2880/disk/data/store/mc/Run3Summer22EENanoAODv12/NMSSM_XtoYHto4B_MX-550_MY-150_TuneCP5_13p6TeV_madgraph-pythia8/NANOAODSIM/130X_mcRun3_2022_realistic_postEE_v6-v2/2830000/43ab8723-b2af-4880-bced-87dbfebf6411.root",
        "T2_US_Florida: davs://cmsio2.rc.ufl.edu:1094/store/mc/Run3Summer22EENanoAODv12/NMSSM_XtoYHto4B_MX-550_MY-150_TuneCP5_13p6TeV_madgraph-pythia8/NANOAODSIM/130X_mcRun3_2022_realistic_postEE_v6-v2/2830000/43ab8723-b2af-4880-bced-87dbfebf6411.root",
        "T2_US_Nebraska: davs://xrootd-local.unl.edu:1094/store/mc/Run3Summer22EENanoAODv12/NMSSM_XtoYHto4B_MX-550_MY-150_TuneCP5_13p6TeV_madgraph-pythia8/NANOAODSIM/130X_mcRun3_2022_realistic_postEE_v6-v2/2830000/43ab8723-b2af-4880-bced-87dbfebf6411.root",
        "T2_BE_IIHE: davs://maite.iihe.ac.be:2880/pnfs/iihe/cms/ph/sc4/store/mc/Run3Summer22EENanoAODv12/NMSSM_XtoYHto4B_MX-550_MY-150_TuneCP5_13p6TeV_madgraph-pythia8/NANOAODSIM/130X_mcRun3_2022_realistic_postEE_v6-v2/2830000/43ab8723-b2af-4880-bced-87dbfebf6411.root",
        "T1_RU_JINR_Disk: davs://se-wbdv.jinr-t1.ru:2880/pnfs/jinr-t1.ru/data/cms/store/mc/Run3Summer22EENanoAODv12/NMSSM_XtoYHto4B_MX-550_MY-150_TuneCP5_13p6TeV_madgraph-pythia8/NANOAODSIM/130X_mcRun3_2022_realistic_postEE_v6-v2/2830000/43ab8723-b2af-4880-bced-87dbfebf6411.root",
        "T2_IT_Rome: davs://cmsrm-xrootd01.roma1.infn.it:2880//mc/Run3Summer22EENanoAODv12/NMSSM_XtoYHto4B_MX-550_MY-150_TuneCP5_13p6TeV_madgraph-pythia8/NANOAODSIM/130X_mcRun3_2022_realistic_postEE_v6-v2/2830000/43ab8723-b2af-4880-bced-87dbfebf6411.root",
        "T1_US_FNAL_Tape: davs://cmsdcatape.fnal.gov:2880/WAX/11/store/mc/Run3Summer22EENanoAODv12/NMSSM_XtoYHto4B_MX-550_MY-150_TuneCP5_13p6TeV_madgraph-pythia8/NANOAODSIM/130X_mcRun3_2022_realistic_postEE_v6-v2/2830000/43ab8723-b2af-4880-bced-87dbfebf6411.root"
    ],
    "cms:/store/mc/Run3Summer22EENanoAODv12/NMSSM_XtoYHto4B_MX-550_MY-150_TuneCP5_13p6TeV_madgraph-pythia8/NANOAODSIM/130X_mcRun3_2022_realistic_postEE_v6-v2/2830000/479ed9a8-1baa-4bd8-a999-d1fa2e119c4e.root": [
        "T2_DE_DESY: davs://dcache-cms-webdav.desy.de:2880/pnfs/desy.de/cms/tier2/store/mc/Run3Summer22EENanoAODv12/NMSSM_XtoYHto4B_MX-550_MY-150_TuneCP5_13p6TeV_madgraph-pythia8/NANOAODSIM/130X_mcRun3_2022_realistic_postEE_v6-v2/2830000/479ed9a8-1baa-4bd8-a999-d1fa2e119c4e.root",
        "T2_TW_NCHC: davs://se01.grid.nchc.org.tw:443//cms/store/mc/Run3Summer22EENanoAODv12/NMSSM_XtoYHto4B_MX-550_MY-150_TuneCP5_13p6TeV_madgraph-pythia8/NANOAODSIM/130X_mcRun3_2022_realistic_postEE_v6-v2/2830000/479ed9a8-1baa-4bd8-a999-d1fa2e119c4e.root",
        "T2_US_Vanderbilt: davs://xrootd-vanderbilt.sites.opensciencegrid.org:1094/store/mc/Run3Summer22EENanoAODv12/NMSSM_XtoYHto4B_MX-550_MY-150_TuneCP5_13p6TeV_madgraph-pythia8/NANOAODSIM/130X_mcRun3_2022_realistic_postEE_v6-v2/2830000/479ed9a8-1baa-4bd8-a999-d1fa2e119c4e.root",
        "T1_ES_PIC_Disk: davs://webdav-cms.pic.es:8459/pnfs/pic.es/data/cms/disk/store/mc/Run3Summer22EENanoAODv12/NMSSM_XtoYHto4B_MX-550_MY-150_TuneCP5_13p6TeV_madgraph-pythia8/NANOAODSIM/130X_mcRun3_2022_realistic_postEE_v6-v2/2830000/479ed9a8-1baa-4bd8-a999-d1fa2e119c4e.root",
        "T2_US_Caltech: davs://k8s-redir-stageout.ultralight.org:1094/store/mc/Run3Summer22EENanoAODv12/NMSSM_XtoYHto4B_MX-550_MY-150_TuneCP5_13p6TeV_madgraph-pythia8/NANOAODSIM/130X_mcRun3_2022_realistic_postEE_v6-v2/2830000/479ed9a8-1baa-4bd8-a999-d1fa2e119c4e.root",
        "T2_UK_London_IC: davs://gfe02.grid.hep.ph.ic.ac.uk:2880/pnfs/hep.ph.ic.ac.uk/data/cms/store/mc/Run3Summer22EENanoAODv12/NMSSM_XtoYHto4B_MX-550_MY-150_TuneCP5_13p6TeV_madgraph-pythia8/NANOAODSIM/130X_mcRun3_2022_realistic_postEE_v6-v2/2830000/479ed9a8-1baa-4bd8-a999-d1fa2e119c4e.root",
        "T1_US_FNAL_Tape: davs://cmsdcatape.fnal.gov:2880/WAX/11/store/mc/Run3Summer22EENanoAODv12/NMSSM_XtoYHto4B_MX-550_MY-150_TuneCP5_13p6TeV_madgraph-pythia8/NANOAODSIM/130X_mcRun3_2022_realistic_postEE_v6-v2/2830000/479ed9a8-1baa-4bd8-a999-d1fa2e119c4e.root"
    ],
    "cms:/store/mc/Run3Summer22EENanoAODv12/NMSSM_XtoYHto4B_MX-550_MY-150_TuneCP5_13p6TeV_madgraph-pythia8/NANOAODSIM/130X_mcRun3_2022_realistic_postEE_v6-v2/2830000/cb185627-6dca-4ea5-bc39-3149ed3c9cca.root": [
        "T1_FR_CCIN2P3_Disk: davs://ccdavcms.in2p3.fr:2880/disk/data/store/mc/Run3Summer22EENanoAODv12/NMSSM_XtoYHto4B_MX-550_MY-150_TuneCP5_13p6TeV_madgraph-pythia8/NANOAODSIM/130X_mcRun3_2022_realistic_postEE_v6-v2/2830000/cb185627-6dca-4ea5-bc39-3149ed3c9cca.root",
        "T2_US_Florida: davs://cmsio2.rc.ufl.edu:1094/store/mc/Run3Summer22EENanoAODv12/NMSSM_XtoYHto4B_MX-550_MY-150_TuneCP5_13p6TeV_madgraph-pythia8/NANOAODSIM/130X_mcRun3_2022_realistic_postEE_v6-v2/2830000/cb185627-6dca-4ea5-bc39-3149ed3c9cca.root",
        "T2_US_Nebraska: davs://xrootd-local.unl.edu:1094/store/mc/Run3Summer22EENanoAODv12/NMSSM_XtoYHto4B_MX-550_MY-150_TuneCP5_13p6TeV_madgraph-pythia8/NANOAODSIM/130X_mcRun3_2022_realistic_postEE_v6-v2/2830000/cb185627-6dca-4ea5-bc39-3149ed3c9cca.root",
        "T2_BE_IIHE: davs://maite.iihe.ac.be:2880/pnfs/iihe/cms/ph/sc4/store/mc/Run3Summer22EENanoAODv12/NMSSM_XtoYHto4B_MX-550_MY-150_TuneCP5_13p6TeV_madgraph-pythia8/NANOAODSIM/130X_mcRun3_2022_realistic_postEE_v6-v2/2830000/cb185627-6dca-4ea5-bc39-3149ed3c9cca.root",
        "T1_RU_JINR_Disk: davs://se-wbdv.jinr-t1.ru:2880/pnfs/jinr-t1.ru/data/cms/store/mc/Run3Summer22EENanoAODv12/NMSSM_XtoYHto4B_MX-550_MY-150_TuneCP5_13p6TeV_madgraph-pythia8/NANOAODSIM/130X_mcRun3_2022_realistic_postEE_v6-v2/2830000/cb185627-6dca-4ea5-bc39-3149ed3c9cca.root",
        "T2_IT_Rome: davs://cmsrm-xrootd01.roma1.infn.it:2880//mc/Run3Summer22EENanoAODv12/NMSSM_XtoYHto4B_MX-550_MY-150_TuneCP5_13p6TeV_madgraph-pythia8/NANOAODSIM/130X_mcRun3_2022_realistic_postEE_v6-v2/2830000/cb185627-6dca-4ea5-bc39-3149ed3c9cca.root",
        "T1_US_FNAL_Tape: davs://cmsdcatape.fnal.gov:2880/WAX/11/store/mc/Run3Summer22EENanoAODv12/NMSSM_XtoYHto4B_MX-550_MY-150_TuneCP5_13p6TeV_madgraph-pythia8/NANOAODSIM/130X_mcRun3_2022_realistic_postEE_v6-v2/2830000/cb185627-6dca-4ea5-bc39-3149ed3c9cca.root"
    ],
    "cms:/store/mc/Run3Summer22EENanoAODv12/NMSSM_XtoYHto4B_MX-550_MY-150_TuneCP5_13p6TeV_madgraph-pythia8/NANOAODSIM/130X_mcRun3_2022_realistic_postEE_v6-v2/2830000/c6e3f8c0-c390-44bc-8584-6a972e5615f1.root": [
        "T1_FR_CCIN2P3_Disk: davs://ccdavcms.in2p3.fr:2880/disk/data/store/mc/Run3Summer22EENanoAODv12/NMSSM_XtoYHto4B_MX-550_MY-150_TuneCP5_13p6TeV_madgraph-pythia8/NANOAODSIM/130X_mcRun3_2022_realistic_postEE_v6-v2/2830000/c6e3f8c0-c390-44bc-8584-6a972e5615f1.root",
        "T2_US_Florida: davs://cmsio2.rc.ufl.edu:1094/store/mc/Run3Summer22EENanoAODv12/NMSSM_XtoYHto4B_MX-550_MY-150_TuneCP5_13p6TeV_madgraph-pythia8/NANOAODSIM/130X_mcRun3_2022_realistic_postEE_v6-v2/2830000/c6e3f8c0-c390-44bc-8584-6a972e5615f1.root",
        "T2_US_Nebraska: davs://xrootd-local.unl.edu:1094/store/mc/Run3Summer22EENanoAODv12/NMSSM_XtoYHto4B_MX-550_MY-150_TuneCP5_13p6TeV_madgraph-pythia8/NANOAODSIM/130X_mcRun3_2022_realistic_postEE_v6-v2/2830000/c6e3f8c0-c390-44bc-8584-6a972e5615f1.root",
        "T2_BE_IIHE: davs://maite.iihe.ac.be:2880/pnfs/iihe/cms/ph/sc4/store/mc/Run3Summer22EENanoAODv12/NMSSM_XtoYHto4B_MX-550_MY-150_TuneCP5_13p6TeV_madgraph-pythia8/NANOAODSIM/130X_mcRun3_2022_realistic_postEE_v6-v2/2830000/c6e3f8c0-c390-44bc-8584-6a972e5615f1.root",
        "T1_RU_JINR_Disk: davs://se-wbdv.jinr-t1.ru:2880/pnfs/jinr-t1.ru/data/cms/store/mc/Run3Summer22EENanoAODv12/NMSSM_XtoYHto4B_MX-550_MY-150_TuneCP5_13p6TeV_madgraph-pythia8/NANOAODSIM/130X_mcRun3_2022_realistic_postEE_v6-v2/2830000/c6e3f8c0-c390-44bc-8584-6a972e5615f1.root",
        "T2_IT_Rome: davs://cmsrm-xrootd01.roma1.infn.it:2880//mc/Run3Summer22EENanoAODv12/NMSSM_XtoYHto4B_MX-550_MY-150_TuneCP5_13p6TeV_madgraph-pythia8/NANOAODSIM/130X_mcRun3_2022_realistic_postEE_v6-v2/2830000/c6e3f8c0-c390-44bc-8584-6a972e5615f1.root",
        "T1_US_FNAL_Tape: davs://cmsdcatape.fnal.gov:2880/WAX/11/store/mc/Run3Summer22EENanoAODv12/NMSSM_XtoYHto4B_MX-550_MY-150_TuneCP5_13p6TeV_madgraph-pythia8/NANOAODSIM/130X_mcRun3_2022_realistic_postEE_v6-v2/2830000/c6e3f8c0-c390-44bc-8584-6a972e5615f1.root"
    ],
    "cms:/store/mc/Run3Summer22EENanoAODv12/NMSSM_XtoYHto4B_MX-550_MY-150_TuneCP5_13p6TeV_madgraph-pythia8/NANOAODSIM/130X_mcRun3_2022_realistic_postEE_v6-v2/2830000/d79fcb37-f302-463b-aed3-d0d85082d327.root": [
        "T1_FR_CCIN2P3_Disk: davs://ccdavcms.in2p3.fr:2880/disk/data/store/mc/Run3Summer22EENanoAODv12/NMSSM_XtoYHto4B_MX-550_MY-150_TuneCP5_13p6TeV_madgraph-pythia8/NANOAODSIM/130X_mcRun3_2022_realistic_postEE_v6-v2/2830000/d79fcb37-f302-463b-aed3-d0d85082d327.root",
        "T2_US_Florida: davs://cmsio2.rc.ufl.edu:1094/store/mc/Run3Summer22EENanoAODv12/NMSSM_XtoYHto4B_MX-550_MY-150_TuneCP5_13p6TeV_madgraph-pythia8/NANOAODSIM/130X_mcRun3_2022_realistic_postEE_v6-v2/2830000/d79fcb37-f302-463b-aed3-d0d85082d327.root",
        "T2_US_Nebraska: davs://xrootd-local.unl.edu:1094/store/mc/Run3Summer22EENanoAODv12/NMSSM_XtoYHto4B_MX-550_MY-150_TuneCP5_13p6TeV_madgraph-pythia8/NANOAODSIM/130X_mcRun3_2022_realistic_postEE_v6-v2/2830000/d79fcb37-f302-463b-aed3-d0d85082d327.root",
        "T2_BE_IIHE: davs://maite.iihe.ac.be:2880/pnfs/iihe/cms/ph/sc4/store/mc/Run3Summer22EENanoAODv12/NMSSM_XtoYHto4B_MX-550_MY-150_TuneCP5_13p6TeV_madgraph-pythia8/NANOAODSIM/130X_mcRun3_2022_realistic_postEE_v6-v2/2830000/d79fcb37-f302-463b-aed3-d0d85082d327.root",
        "T1_RU_JINR_Disk: davs://se-wbdv.jinr-t1.ru:2880/pnfs/jinr-t1.ru/data/cms/store/mc/Run3Summer22EENanoAODv12/NMSSM_XtoYHto4B_MX-550_MY-150_TuneCP5_13p6TeV_madgraph-pythia8/NANOAODSIM/130X_mcRun3_2022_realistic_postEE_v6-v2/2830000/d79fcb37-f302-463b-aed3-d0d85082d327.root",
        "T2_IT_Rome: davs://cmsrm-xrootd01.roma1.infn.it:2880//mc/Run3Summer22EENanoAODv12/NMSSM_XtoYHto4B_MX-550_MY-150_TuneCP5_13p6TeV_madgraph-pythia8/NANOAODSIM/130X_mcRun3_2022_realistic_postEE_v6-v2/2830000/d79fcb37-f302-463b-aed3-d0d85082d327.root",
        "T1_US_FNAL_Tape: davs://cmsdcatape.fnal.gov:2880/WAX/11/store/mc/Run3Summer22EENanoAODv12/NMSSM_XtoYHto4B_MX-550_MY-150_TuneCP5_13p6TeV_madgraph-pythia8/NANOAODSIM/130X_mcRun3_2022_realistic_postEE_v6-v2/2830000/d79fcb37-f302-463b-aed3-d0d85082d327.root"
    ],
    "cms:/store/mc/Run3Summer22EENanoAODv12/NMSSM_XtoYHto4B_MX-550_MY-150_TuneCP5_13p6TeV_madgraph-pythia8/NANOAODSIM/130X_mcRun3_2022_realistic_postEE_v6-v2/2830000/231a3bbb-96d6-4ce1-835d-acb9c10046f3.root": [
        "T1_FR_CCIN2P3_Disk: davs://ccdavcms.in2p3.fr:2880/disk/data/store/mc/Run3Summer22EENanoAODv12/NMSSM_XtoYHto4B_MX-550_MY-150_TuneCP5_13p6TeV_madgraph-pythia8/NANOAODSIM/130X_mcRun3_2022_realistic_postEE_v6-v2/2830000/231a3bbb-96d6-4ce1-835d-acb9c10046f3.root",
        "T2_US_Florida: davs://cmsio2.rc.ufl.edu:1094/store/mc/Run3Summer22EENanoAODv12/NMSSM_XtoYHto4B_MX-550_MY-150_TuneCP5_13p6TeV_madgraph-pythia8/NANOAODSIM/130X_mcRun3_2022_realistic_postEE_v6-v2/2830000/231a3bbb-96d6-4ce1-835d-acb9c10046f3.root",
        "T2_US_Nebraska: davs://xrootd-local.unl.edu:1094/store/mc/Run3Summer22EENanoAODv12/NMSSM_XtoYHto4B_MX-550_MY-150_TuneCP5_13p6TeV_madgraph-pythia8/NANOAODSIM/130X_mcRun3_2022_realistic_postEE_v6-v2/2830000/231a3bbb-96d6-4ce1-835d-acb9c10046f3.root",
        "T2_BE_IIHE: davs://maite.iihe.ac.be:2880/pnfs/iihe/cms/ph/sc4/store/mc/Run3Summer22EENanoAODv12/NMSSM_XtoYHto4B_MX-550_MY-150_TuneCP5_13p6TeV_madgraph-pythia8/NANOAODSIM/130X_mcRun3_2022_realistic_postEE_v6-v2/2830000/231a3bbb-96d6-4ce1-835d-acb9c10046f3.root",
        "T1_RU_JINR_Disk: davs://se-wbdv.jinr-t1.ru:2880/pnfs/jinr-t1.ru/data/cms/store/mc/Run3Summer22EENanoAODv12/NMSSM_XtoYHto4B_MX-550_MY-150_TuneCP5_13p6TeV_madgraph-pythia8/NANOAODSIM/130X_mcRun3_2022_realistic_postEE_v6-v2/2830000/231a3bbb-96d6-4ce1-835d-acb9c10046f3.root",
        "T2_IT_Rome: davs://cmsrm-xrootd01.roma1.infn.it:2880//mc/Run3Summer22EENanoAODv12/NMSSM_XtoYHto4B_MX-550_MY-150_TuneCP5_13p6TeV_madgraph-pythia8/NANOAODSIM/130X_mcRun3_2022_realistic_postEE_v6-v2/2830000/231a3bbb-96d6-4ce1-835d-acb9c10046f3.root",
        "T1_US_FNAL_Tape: davs://cmsdcatape.fnal.gov:2880/WAX/11/store/mc/Run3Summer22EENanoAODv12/NMSSM_XtoYHto4B_MX-550_MY-150_TuneCP5_13p6TeV_madgraph-pythia8/NANOAODSIM/130X_mcRun3_2022_realistic_postEE_v6-v2/2830000/231a3bbb-96d6-4ce1-835d-acb9c10046f3.root"
    ],
    "cms:/store/mc/Run3Summer22EENanoAODv12/NMSSM_XtoYHto4B_MX-550_MY-150_TuneCP5_13p6TeV_madgraph-pythia8/NANOAODSIM/130X_mcRun3_2022_realistic_postEE_v6-v2/2830000/64ab290e-dfd5-469f-af3f-1110b23f726a.root": [
        "T2_DE_DESY: davs://dcache-cms-webdav.desy.de:2880/pnfs/desy.de/cms/tier2/store/mc/Run3Summer22EENanoAODv12/NMSSM_XtoYHto4B_MX-550_MY-150_TuneCP5_13p6TeV_madgraph-pythia8/NANOAODSIM/130X_mcRun3_2022_realistic_postEE_v6-v2/2830000/64ab290e-dfd5-469f-af3f-1110b23f726a.root",
        "T2_TW_NCHC: davs://se01.grid.nchc.org.tw:443//cms/store/mc/Run3Summer22EENanoAODv12/NMSSM_XtoYHto4B_MX-550_MY-150_TuneCP5_13p6TeV_madgraph-pythia8/NANOAODSIM/130X_mcRun3_2022_realistic_postEE_v6-v2/2830000/64ab290e-dfd5-469f-af3f-1110b23f726a.root",
        "T2_US_Vanderbilt: davs://xrootd-vanderbilt.sites.opensciencegrid.org:1094/store/mc/Run3Summer22EENanoAODv12/NMSSM_XtoYHto4B_MX-550_MY-150_TuneCP5_13p6TeV_madgraph-pythia8/NANOAODSIM/130X_mcRun3_2022_realistic_postEE_v6-v2/2830000/64ab290e-dfd5-469f-af3f-1110b23f726a.root",
        "T1_ES_PIC_Disk: davs://webdav-cms.pic.es:8459/pnfs/pic.es/data/cms/disk/store/mc/Run3Summer22EENanoAODv12/NMSSM_XtoYHto4B_MX-550_MY-150_TuneCP5_13p6TeV_madgraph-pythia8/NANOAODSIM/130X_mcRun3_2022_realistic_postEE_v6-v2/2830000/64ab290e-dfd5-469f-af3f-1110b23f726a.root",
        "T2_US_Caltech: davs://k8s-redir-stageout.ultralight.org:1094/store/mc/Run3Summer22EENanoAODv12/NMSSM_XtoYHto4B_MX-550_MY-150_TuneCP5_13p6TeV_madgraph-pythia8/NANOAODSIM/130X_mcRun3_2022_realistic_postEE_v6-v2/2830000/64ab290e-dfd5-469f-af3f-1110b23f726a.root",
        "T2_UK_London_IC: davs://gfe02.grid.hep.ph.ic.ac.uk:2880/pnfs/hep.ph.ic.ac.uk/data/cms/store/mc/Run3Summer22EENanoAODv12/NMSSM_XtoYHto4B_MX-550_MY-150_TuneCP5_13p6TeV_madgraph-pythia8/NANOAODSIM/130X_mcRun3_2022_realistic_postEE_v6-v2/2830000/64ab290e-dfd5-469f-af3f-1110b23f726a.root",
        "T1_US_FNAL_Tape: davs://cmsdcatape.fnal.gov:2880/WAX/11/store/mc/Run3Summer22EENanoAODv12/NMSSM_XtoYHto4B_MX-550_MY-150_TuneCP5_13p6TeV_madgraph-pythia8/NANOAODSIM/130X_mcRun3_2022_realistic_postEE_v6-v2/2830000/64ab290e-dfd5-469f-af3f-1110b23f726a.root"
    ],
    "cms:/store/mc/Run3Summer22EENanoAODv12/NMSSM_XtoYHto4B_MX-550_MY-150_TuneCP5_13p6TeV_madgraph-pythia8/NANOAODSIM/130X_mcRun3_2022_realistic_postEE_v6-v2/2830000/e4d678a3-3d51-42b1-8501-b8826a4b94d7.root": [
        "T1_FR_CCIN2P3_Disk: davs://ccdavcms.in2p3.fr:2880/disk/data/store/mc/Run3Summer22EENanoAODv12/NMSSM_XtoYHto4B_MX-550_MY-150_TuneCP5_13p6TeV_madgraph-pythia8/NANOAODSIM/130X_mcRun3_2022_realistic_postEE_v6-v2/2830000/e4d678a3-3d51-42b1-8501-b8826a4b94d7.root",
        "T2_US_Florida: davs://cmsio2.rc.ufl.edu:1094/store/mc/Run3Summer22EENanoAODv12/NMSSM_XtoYHto4B_MX-550_MY-150_TuneCP5_13p6TeV_madgraph-pythia8/NANOAODSIM/130X_mcRun3_2022_realistic_postEE_v6-v2/2830000/e4d678a3-3d51-42b1-8501-b8826a4b94d7.root",
        "T2_US_Nebraska: davs://xrootd-local.unl.edu:1094/store/mc/Run3Summer22EENanoAODv12/NMSSM_XtoYHto4B_MX-550_MY-150_TuneCP5_13p6TeV_madgraph-pythia8/NANOAODSIM/130X_mcRun3_2022_realistic_postEE_v6-v2/2830000/e4d678a3-3d51-42b1-8501-b8826a4b94d7.root",
        "T2_BE_IIHE: davs://maite.iihe.ac.be:2880/pnfs/iihe/cms/ph/sc4/store/mc/Run3Summer22EENanoAODv12/NMSSM_XtoYHto4B_MX-550_MY-150_TuneCP5_13p6TeV_madgraph-pythia8/NANOAODSIM/130X_mcRun3_2022_realistic_postEE_v6-v2/2830000/e4d678a3-3d51-42b1-8501-b8826a4b94d7.root",
        "T1_RU_JINR_Disk: davs://se-wbdv.jinr-t1.ru:2880/pnfs/jinr-t1.ru/data/cms/store/mc/Run3Summer22EENanoAODv12/NMSSM_XtoYHto4B_MX-550_MY-150_TuneCP5_13p6TeV_madgraph-pythia8/NANOAODSIM/130X_mcRun3_2022_realistic_postEE_v6-v2/2830000/e4d678a3-3d51-42b1-8501-b8826a4b94d7.root",
        "T2_IT_Rome: davs://cmsrm-xrootd01.roma1.infn.it:2880//mc/Run3Summer22EENanoAODv12/NMSSM_XtoYHto4B_MX-550_MY-150_TuneCP5_13p6TeV_madgraph-pythia8/NANOAODSIM/130X_mcRun3_2022_realistic_postEE_v6-v2/2830000/e4d678a3-3d51-42b1-8501-b8826a4b94d7.root",
        "T1_US_FNAL_Tape: davs://cmsdcatape.fnal.gov:2880/WAX/11/store/mc/Run3Summer22EENanoAODv12/NMSSM_XtoYHto4B_MX-550_MY-150_TuneCP5_13p6TeV_madgraph-pythia8/NANOAODSIM/130X_mcRun3_2022_realistic_postEE_v6-v2/2830000/e4d678a3-3d51-42b1-8501-b8826a4b94d7.root"
    ],
    "cms:/store/mc/Run3Summer22EENanoAODv12/NMSSM_XtoYHto4B_MX-550_MY-150_TuneCP5_13p6TeV_madgraph-pythia8/NANOAODSIM/130X_mcRun3_2022_realistic_postEE_v6-v2/2830000/284f0528-1806-4d5c-a86d-d5590b049b72.root": [
        "T2_DE_DESY: davs://dcache-cms-webdav.desy.de:2880/pnfs/desy.de/cms/tier2/store/mc/Run3Summer22EENanoAODv12/NMSSM_XtoYHto4B_MX-550_MY-150_TuneCP5_13p6TeV_madgraph-pythia8/NANOAODSIM/130X_mcRun3_2022_realistic_postEE_v6-v2/2830000/284f0528-1806-4d5c-a86d-d5590b049b72.root",
        "T2_TW_NCHC: davs://se01.grid.nchc.org.tw:443//cms/store/mc/Run3Summer22EENanoAODv12/NMSSM_XtoYHto4B_MX-550_MY-150_TuneCP5_13p6TeV_madgraph-pythia8/NANOAODSIM/130X_mcRun3_2022_realistic_postEE_v6-v2/2830000/284f0528-1806-4d5c-a86d-d5590b049b72.root",
        "T2_US_Vanderbilt: davs://xrootd-vanderbilt.sites.opensciencegrid.org:1094/store/mc/Run3Summer22EENanoAODv12/NMSSM_XtoYHto4B_MX-550_MY-150_TuneCP5_13p6TeV_madgraph-pythia8/NANOAODSIM/130X_mcRun3_2022_realistic_postEE_v6-v2/2830000/284f0528-1806-4d5c-a86d-d5590b049b72.root",
        "T1_ES_PIC_Disk: davs://webdav-cms.pic.es:8459/pnfs/pic.es/data/cms/disk/store/mc/Run3Summer22EENanoAODv12/NMSSM_XtoYHto4B_MX-550_MY-150_TuneCP5_13p6TeV_madgraph-pythia8/NANOAODSIM/130X_mcRun3_2022_realistic_postEE_v6-v2/2830000/284f0528-1806-4d5c-a86d-d5590b049b72.root",
        "T2_US_Caltech: davs://k8s-redir-stageout.ultralight.org:1094/store/mc/Run3Summer22EENanoAODv12/NMSSM_XtoYHto4B_MX-550_MY-150_TuneCP5_13p6TeV_madgraph-pythia8/NANOAODSIM/130X_mcRun3_2022_realistic_postEE_v6-v2/2830000/284f0528-1806-4d5c-a86d-d5590b049b72.root",
        "T2_UK_London_IC: davs://gfe02.grid.hep.ph.ic.ac.uk:2880/pnfs/hep.ph.ic.ac.uk/data/cms/store/mc/Run3Summer22EENanoAODv12/NMSSM_XtoYHto4B_MX-550_MY-150_TuneCP5_13p6TeV_madgraph-pythia8/NANOAODSIM/130X_mcRun3_2022_realistic_postEE_v6-v2/2830000/284f0528-1806-4d5c-a86d-d5590b049b72.root",
        "T1_US_FNAL_Tape: davs://cmsdcatape.fnal.gov:2880/WAX/11/store/mc/Run3Summer22EENanoAODv12/NMSSM_XtoYHto4B_MX-550_MY-150_TuneCP5_13p6TeV_madgraph-pythia8/NANOAODSIM/130X_mcRun3_2022_realistic_postEE_v6-v2/2830000/284f0528-1806-4d5c-a86d-d5590b049b72.root"
    ],
    "cms:/store/mc/Run3Summer22EENanoAODv12/NMSSM_XtoYHto4B_MX-550_MY-150_TuneCP5_13p6TeV_madgraph-pythia8/NANOAODSIM/130X_mcRun3_2022_realistic_postEE_v6-v2/2830000/49a1ea1e-543b-41e2-bd1b-52ebf82c3098.root": [
        "T2_DE_DESY: davs://dcache-cms-webdav.desy.de:2880/pnfs/desy.de/cms/tier2/store/mc/Run3Summer22EENanoAODv12/NMSSM_XtoYHto4B_MX-550_MY-150_TuneCP5_13p6TeV_madgraph-pythia8/NANOAODSIM/130X_mcRun3_2022_realistic_postEE_v6-v2/2830000/49a1ea1e-543b-41e2-bd1b-52ebf82c3098.root",
        "T2_TW_NCHC: davs://se01.grid.nchc.org.tw:443//cms/store/mc/Run3Summer22EENanoAODv12/NMSSM_XtoYHto4B_MX-550_MY-150_TuneCP5_13p6TeV_madgraph-pythia8/NANOAODSIM/130X_mcRun3_2022_realistic_postEE_v6-v2/2830000/49a1ea1e-543b-41e2-bd1b-52ebf82c3098.root",
        "T2_US_Vanderbilt: davs://xrootd-vanderbilt.sites.opensciencegrid.org:1094/store/mc/Run3Summer22EENanoAODv12/NMSSM_XtoYHto4B_MX-550_MY-150_TuneCP5_13p6TeV_madgraph-pythia8/NANOAODSIM/130X_mcRun3_2022_realistic_postEE_v6-v2/2830000/49a1ea1e-543b-41e2-bd1b-52ebf82c3098.root",
        "T1_ES_PIC_Disk: davs://webdav-cms.pic.es:8459/pnfs/pic.es/data/cms/disk/store/mc/Run3Summer22EENanoAODv12/NMSSM_XtoYHto4B_MX-550_MY-150_TuneCP5_13p6TeV_madgraph-pythia8/NANOAODSIM/130X_mcRun3_2022_realistic_postEE_v6-v2/2830000/49a1ea1e-543b-41e2-bd1b-52ebf82c3098.root",
        "T2_US_Caltech: davs://k8s-redir-stageout.ultralight.org:1094/store/mc/Run3Summer22EENanoAODv12/NMSSM_XtoYHto4B_MX-550_MY-150_TuneCP5_13p6TeV_madgraph-pythia8/NANOAODSIM/130X_mcRun3_2022_realistic_postEE_v6-v2/2830000/49a1ea1e-543b-41e2-bd1b-52ebf82c3098.root",
        "T2_UK_London_IC: davs://gfe02.grid.hep.ph.ic.ac.uk:2880/pnfs/hep.ph.ic.ac.uk/data/cms/store/mc/Run3Summer22EENanoAODv12/NMSSM_XtoYHto4B_MX-550_MY-150_TuneCP5_13p6TeV_madgraph-pythia8/NANOAODSIM/130X_mcRun3_2022_realistic_postEE_v6-v2/2830000/49a1ea1e-543b-41e2-bd1b-52ebf82c3098.root",
        "T1_US_FNAL_Tape: davs://cmsdcatape.fnal.gov:2880/WAX/11/store/mc/Run3Summer22EENanoAODv12/NMSSM_XtoYHto4B_MX-550_MY-150_TuneCP5_13p6TeV_madgraph-pythia8/NANOAODSIM/130X_mcRun3_2022_realistic_postEE_v6-v2/2830000/49a1ea1e-543b-41e2-bd1b-52ebf82c3098.root"
    ],
    "cms:/store/mc/Run3Summer22EENanoAODv12/NMSSM_XtoYHto4B_MX-550_MY-150_TuneCP5_13p6TeV_madgraph-pythia8/NANOAODSIM/130X_mcRun3_2022_realistic_postEE_v6-v2/2830000/f99aaebe-e49e-47d7-a944-eaf4d0056e80.root": [
        "T2_DE_DESY: davs://dcache-cms-webdav.desy.de:2880/pnfs/desy.de/cms/tier2/store/mc/Run3Summer22EENanoAODv12/NMSSM_XtoYHto4B_MX-550_MY-150_TuneCP5_13p6TeV_madgraph-pythia8/NANOAODSIM/130X_mcRun3_2022_realistic_postEE_v6-v2/2830000/f99aaebe-e49e-47d7-a944-eaf4d0056e80.root",
        "T2_TW_NCHC: davs://se01.grid.nchc.org.tw:443//cms/store/mc/Run3Summer22EENanoAODv12/NMSSM_XtoYHto4B_MX-550_MY-150_TuneCP5_13p6TeV_madgraph-pythia8/NANOAODSIM/130X_mcRun3_2022_realistic_postEE_v6-v2/2830000/f99aaebe-e49e-47d7-a944-eaf4d0056e80.root",
        "T2_US_Vanderbilt: davs://xrootd-vanderbilt.sites.opensciencegrid.org:1094/store/mc/Run3Summer22EENanoAODv12/NMSSM_XtoYHto4B_MX-550_MY-150_TuneCP5_13p6TeV_madgraph-pythia8/NANOAODSIM/130X_mcRun3_2022_realistic_postEE_v6-v2/2830000/f99aaebe-e49e-47d7-a944-eaf4d0056e80.root",
        "T1_ES_PIC_Disk: davs://webdav-cms.pic.es:8459/pnfs/pic.es/data/cms/disk/store/mc/Run3Summer22EENanoAODv12/NMSSM_XtoYHto4B_MX-550_MY-150_TuneCP5_13p6TeV_madgraph-pythia8/NANOAODSIM/130X_mcRun3_2022_realistic_postEE_v6-v2/2830000/f99aaebe-e49e-47d7-a944-eaf4d0056e80.root",
        "T2_US_Caltech: davs://k8s-redir-stageout.ultralight.org:1094/store/mc/Run3Summer22EENanoAODv12/NMSSM_XtoYHto4B_MX-550_MY-150_TuneCP5_13p6TeV_madgraph-pythia8/NANOAODSIM/130X_mcRun3_2022_realistic_postEE_v6-v2/2830000/f99aaebe-e49e-47d7-a944-eaf4d0056e80.root",
        "T2_UK_London_IC: davs://gfe02.grid.hep.ph.ic.ac.uk:2880/pnfs/hep.ph.ic.ac.uk/data/cms/store/mc/Run3Summer22EENanoAODv12/NMSSM_XtoYHto4B_MX-550_MY-150_TuneCP5_13p6TeV_madgraph-pythia8/NANOAODSIM/130X_mcRun3_2022_realistic_postEE_v6-v2/2830000/f99aaebe-e49e-47d7-a944-eaf4d0056e80.root",
        "T1_US_FNAL_Tape: davs://cmsdcatape.fnal.gov:2880/WAX/11/store/mc/Run3Summer22EENanoAODv12/NMSSM_XtoYHto4B_MX-550_MY-150_TuneCP5_13p6TeV_madgraph-pythia8/NANOAODSIM/130X_mcRun3_2022_realistic_postEE_v6-v2/2830000/f99aaebe-e49e-47d7-a944-eaf4d0056e80.root"
    ],
    "cms:/store/mc/Run3Summer22EENanoAODv12/NMSSM_XtoYHto4B_MX-550_MY-150_TuneCP5_13p6TeV_madgraph-pythia8/NANOAODSIM/130X_mcRun3_2022_realistic_postEE_v6-v2/2830000/8a44c532-8bac-4d26-9309-f691cc8f4c22.root": [
        "T2_DE_DESY: davs://dcache-cms-webdav.desy.de:2880/pnfs/desy.de/cms/tier2/store/mc/Run3Summer22EENanoAODv12/NMSSM_XtoYHto4B_MX-550_MY-150_TuneCP5_13p6TeV_madgraph-pythia8/NANOAODSIM/130X_mcRun3_2022_realistic_postEE_v6-v2/2830000/8a44c532-8bac-4d26-9309-f691cc8f4c22.root",
        "T2_TW_NCHC: davs://se01.grid.nchc.org.tw:443//cms/store/mc/Run3Summer22EENanoAODv12/NMSSM_XtoYHto4B_MX-550_MY-150_TuneCP5_13p6TeV_madgraph-pythia8/NANOAODSIM/130X_mcRun3_2022_realistic_postEE_v6-v2/2830000/8a44c532-8bac-4d26-9309-f691cc8f4c22.root",
        "T2_US_Vanderbilt: davs://xrootd-vanderbilt.sites.opensciencegrid.org:1094/store/mc/Run3Summer22EENanoAODv12/NMSSM_XtoYHto4B_MX-550_MY-150_TuneCP5_13p6TeV_madgraph-pythia8/NANOAODSIM/130X_mcRun3_2022_realistic_postEE_v6-v2/2830000/8a44c532-8bac-4d26-9309-f691cc8f4c22.root",
        "T1_ES_PIC_Disk: davs://webdav-cms.pic.es:8459/pnfs/pic.es/data/cms/disk/store/mc/Run3Summer22EENanoAODv12/NMSSM_XtoYHto4B_MX-550_MY-150_TuneCP5_13p6TeV_madgraph-pythia8/NANOAODSIM/130X_mcRun3_2022_realistic_postEE_v6-v2/2830000/8a44c532-8bac-4d26-9309-f691cc8f4c22.root",
        "T2_US_Caltech: davs://k8s-redir-stageout.ultralight.org:1094/store/mc/Run3Summer22EENanoAODv12/NMSSM_XtoYHto4B_MX-550_MY-150_TuneCP5_13p6TeV_madgraph-pythia8/NANOAODSIM/130X_mcRun3_2022_realistic_postEE_v6-v2/2830000/8a44c532-8bac-4d26-9309-f691cc8f4c22.root",
        "T2_UK_London_IC: davs://gfe02.grid.hep.ph.ic.ac.uk:2880/pnfs/hep.ph.ic.ac.uk/data/cms/store/mc/Run3Summer22EENanoAODv12/NMSSM_XtoYHto4B_MX-550_MY-150_TuneCP5_13p6TeV_madgraph-pythia8/NANOAODSIM/130X_mcRun3_2022_realistic_postEE_v6-v2/2830000/8a44c532-8bac-4d26-9309-f691cc8f4c22.root",
        "T1_US_FNAL_Tape: davs://cmsdcatape.fnal.gov:2880/WAX/11/store/mc/Run3Summer22EENanoAODv12/NMSSM_XtoYHto4B_MX-550_MY-150_TuneCP5_13p6TeV_madgraph-pythia8/NANOAODSIM/130X_mcRun3_2022_realistic_postEE_v6-v2/2830000/8a44c532-8bac-4d26-9309-f691cc8f4c22.root"
    ],
    "cms:/store/mc/Run3Summer22EENanoAODv12/NMSSM_XtoYHto4B_MX-550_MY-150_TuneCP5_13p6TeV_madgraph-pythia8/NANOAODSIM/130X_mcRun3_2022_realistic_postEE_v6-v2/2830000/cd755102-2df7-4ddc-bbba-43017f391498.root": [
        "T2_DE_DESY: davs://dcache-cms-webdav.desy.de:2880/pnfs/desy.de/cms/tier2/store/mc/Run3Summer22EENanoAODv12/NMSSM_XtoYHto4B_MX-550_MY-150_TuneCP5_13p6TeV_madgraph-pythia8/NANOAODSIM/130X_mcRun3_2022_realistic_postEE_v6-v2/2830000/cd755102-2df7-4ddc-bbba-43017f391498.root",
        "T2_TW_NCHC: davs://se01.grid.nchc.org.tw:443//cms/store/mc/Run3Summer22EENanoAODv12/NMSSM_XtoYHto4B_MX-550_MY-150_TuneCP5_13p6TeV_madgraph-pythia8/NANOAODSIM/130X_mcRun3_2022_realistic_postEE_v6-v2/2830000/cd755102-2df7-4ddc-bbba-43017f391498.root",
        "T2_US_Vanderbilt: davs://xrootd-vanderbilt.sites.opensciencegrid.org:1094/store/mc/Run3Summer22EENanoAODv12/NMSSM_XtoYHto4B_MX-550_MY-150_TuneCP5_13p6TeV_madgraph-pythia8/NANOAODSIM/130X_mcRun3_2022_realistic_postEE_v6-v2/2830000/cd755102-2df7-4ddc-bbba-43017f391498.root",
        "T1_ES_PIC_Disk: davs://webdav-cms.pic.es:8459/pnfs/pic.es/data/cms/disk/store/mc/Run3Summer22EENanoAODv12/NMSSM_XtoYHto4B_MX-550_MY-150_TuneCP5_13p6TeV_madgraph-pythia8/NANOAODSIM/130X_mcRun3_2022_realistic_postEE_v6-v2/2830000/cd755102-2df7-4ddc-bbba-43017f391498.root",
        "T2_US_Caltech: davs://k8s-redir-stageout.ultralight.org:1094/store/mc/Run3Summer22EENanoAODv12/NMSSM_XtoYHto4B_MX-550_MY-150_TuneCP5_13p6TeV_madgraph-pythia8/NANOAODSIM/130X_mcRun3_2022_realistic_postEE_v6-v2/2830000/cd755102-2df7-4ddc-bbba-43017f391498.root",
        "T2_UK_London_IC: davs://gfe02.grid.hep.ph.ic.ac.uk:2880/pnfs/hep.ph.ic.ac.uk/data/cms/store/mc/Run3Summer22EENanoAODv12/NMSSM_XtoYHto4B_MX-550_MY-150_TuneCP5_13p6TeV_madgraph-pythia8/NANOAODSIM/130X_mcRun3_2022_realistic_postEE_v6-v2/2830000/cd755102-2df7-4ddc-bbba-43017f391498.root",
        "T1_US_FNAL_Tape: davs://cmsdcatape.fnal.gov:2880/WAX/11/store/mc/Run3Summer22EENanoAODv12/NMSSM_XtoYHto4B_MX-550_MY-150_TuneCP5_13p6TeV_madgraph-pythia8/NANOAODSIM/130X_mcRun3_2022_realistic_postEE_v6-v2/2830000/cd755102-2df7-4ddc-bbba-43017f391498.root"
    ],
    "cms:/store/mc/Run3Summer22EENanoAODv12/NMSSM_XtoYHto4B_MX-550_MY-150_TuneCP5_13p6TeV_madgraph-pythia8/NANOAODSIM/130X_mcRun3_2022_realistic_postEE_v6-v2/2830000/fefd0de5-1235-4037-a486-972659bb96d5.root": [
        "T2_DE_DESY: davs://dcache-cms-webdav.desy.de:2880/pnfs/desy.de/cms/tier2/store/mc/Run3Summer22EENanoAODv12/NMSSM_XtoYHto4B_MX-550_MY-150_TuneCP5_13p6TeV_madgraph-pythia8/NANOAODSIM/130X_mcRun3_2022_realistic_postEE_v6-v2/2830000/fefd0de5-1235-4037-a486-972659bb96d5.root",
        "T2_TW_NCHC: davs://se01.grid.nchc.org.tw:443//cms/store/mc/Run3Summer22EENanoAODv12/NMSSM_XtoYHto4B_MX-550_MY-150_TuneCP5_13p6TeV_madgraph-pythia8/NANOAODSIM/130X_mcRun3_2022_realistic_postEE_v6-v2/2830000/fefd0de5-1235-4037-a486-972659bb96d5.root",
        "T2_US_Vanderbilt: davs://xrootd-vanderbilt.sites.opensciencegrid.org:1094/store/mc/Run3Summer22EENanoAODv12/NMSSM_XtoYHto4B_MX-550_MY-150_TuneCP5_13p6TeV_madgraph-pythia8/NANOAODSIM/130X_mcRun3_2022_realistic_postEE_v6-v2/2830000/fefd0de5-1235-4037-a486-972659bb96d5.root",
        "T1_ES_PIC_Disk: davs://webdav-cms.pic.es:8459/pnfs/pic.es/data/cms/disk/store/mc/Run3Summer22EENanoAODv12/NMSSM_XtoYHto4B_MX-550_MY-150_TuneCP5_13p6TeV_madgraph-pythia8/NANOAODSIM/130X_mcRun3_2022_realistic_postEE_v6-v2/2830000/fefd0de5-1235-4037-a486-972659bb96d5.root",
        "T2_US_Caltech: davs://k8s-redir-stageout.ultralight.org:1094/store/mc/Run3Summer22EENanoAODv12/NMSSM_XtoYHto4B_MX-550_MY-150_TuneCP5_13p6TeV_madgraph-pythia8/NANOAODSIM/130X_mcRun3_2022_realistic_postEE_v6-v2/2830000/fefd0de5-1235-4037-a486-972659bb96d5.root",
        "T2_UK_London_IC: davs://gfe02.grid.hep.ph.ic.ac.uk:2880/pnfs/hep.ph.ic.ac.uk/data/cms/store/mc/Run3Summer22EENanoAODv12/NMSSM_XtoYHto4B_MX-550_MY-150_TuneCP5_13p6TeV_madgraph-pythia8/NANOAODSIM/130X_mcRun3_2022_realistic_postEE_v6-v2/2830000/fefd0de5-1235-4037-a486-972659bb96d5.root",
        "T1_US_FNAL_Tape: davs://cmsdcatape.fnal.gov:2880/WAX/11/store/mc/Run3Summer22EENanoAODv12/NMSSM_XtoYHto4B_MX-550_MY-150_TuneCP5_13p6TeV_madgraph-pythia8/NANOAODSIM/130X_mcRun3_2022_realistic_postEE_v6-v2/2830000/fefd0de5-1235-4037-a486-972659bb96d5.root"
    ]
}