#/NMSSM_XtoYHto4B_MX-1000_MY-80_TuneCP5_13p6TeV_madgraph-pythia8/Run3Summer22EENanoAODv12-130X_mcRun3_2022_realistic_postEE_v6-v2/NANOAODSIM
+------------------------------------------------------------------------------------------------------------------------------------------------------------------------------------------------------------+--------+-------------+------------+----------+
| SCOPE:NAME                                                                                                                                                                                                 | GUID   | ADLER32     | FILESIZE   | EVENTS   |
|------------------------------------------------------------------------------------------------------------------------------------------------------------------------------------------------------------+--------+-------------+------------+----------|
| cms:/store/mc/Run3Summer22EENanoAODv12/NMSSM_XtoYHto4B_MX-1000_MY-80_TuneCP5_13p6TeV_madgraph-pythia8/NANOAODSIM/130X_mcRun3_2022_realistic_postEE_v6-v2/2820000/64cd6995-92ed-423d-b471-d9d412634143.root | (None) | ad:ad49d3d2 | 8.589 MB   |          |
| cms:/store/mc/Run3Summer22EENanoAODv12/NMSSM_XtoYHto4B_MX-1000_MY-80_TuneCP5_13p6TeV_madgraph-pythia8/NANOAODSIM/130X_mcRun3_2022_realistic_postEE_v6-v2/2820000/f02d4644-390d-4adc-b3f9-226b31be6284.root | (None) | ad:6e0f3af5 | 8.597 MB   |          |
| cms:/store/mc/Run3Summer22EENanoAODv12/NMSSM_XtoYHto4B_MX-1000_MY-80_TuneCP5_13p6TeV_madgraph-pythia8/NANOAODSIM/130X_mcRun3_2022_realistic_postEE_v6-v2/2820000/ee273896-5e91-497a-a3d1-d7d7b9e5b713.root | (None) | ad:ccfc8bbc | 12.388 MB  |          |
| cms:/store/mc/Run3Summer22EENanoAODv12/NMSSM_XtoYHto4B_MX-1000_MY-80_TuneCP5_13p6TeV_madgraph-pythia8/NANOAODSIM/130X_mcRun3_2022_realistic_postEE_v6-v2/2820000/7fc800db-7d40-4550-bd1e-d82835916e43.root | (None) | ad:7a523c07 | 44.437 MB  |          |
| cms:/store/mc/Run3Summer22EENanoAODv12/NMSSM_XtoYHto4B_MX-1000_MY-80_TuneCP5_13p6TeV_madgraph-pythia8/NANOAODSIM/130X_mcRun3_2022_realistic_postEE_v6-v2/2820000/76a50be9-6ca7-4fbe-8c52-fc129f96a7bf.root | (None) | ad:c763a065 | 4.650 MB   |          |
| cms:/store/mc/Run3Summer22EENanoAODv12/NMSSM_XtoYHto4B_MX-1000_MY-80_TuneCP5_13p6TeV_madgraph-pythia8/NANOAODSIM/130X_mcRun3_2022_realistic_postEE_v6-v2/2820000/455e17ca-50b4-4de8-b96c-c651d2ee8ee9.root | (None) | ad:56fd5cc4 | 19.364 MB  |          |
| cms:/store/mc/Run3Summer22EENanoAODv12/NMSSM_XtoYHto4B_MX-1000_MY-80_TuneCP5_13p6TeV_madgraph-pythia8/NANOAODSIM/130X_mcRun3_2022_realistic_postEE_v6-v2/2820000/c52d4a0c-76c9-467c-bdd3-483fcf2dae20.root | (None) | ad:a1153627 | 6.848 MB   |          |
| cms:/store/mc/Run3Summer22EENanoAODv12/NMSSM_XtoYHto4B_MX-1000_MY-80_TuneCP5_13p6TeV_madgraph-pythia8/NANOAODSIM/130X_mcRun3_2022_realistic_postEE_v6-v2/2820000/9aa73ad4-865d-42f0-ae53-f9e3bc7f46bc.root | (None) | ad:2e50d812 | 4.648 MB   |          |
| cms:/store/mc/Run3Summer22EENanoAODv12/NMSSM_XtoYHto4B_MX-1000_MY-80_TuneCP5_13p6TeV_madgraph-pythia8/NANOAODSIM/130X_mcRun3_2022_realistic_postEE_v6-v2/2820000/1a58120b-4e15-46d7-8ec2-991c4f50d823.root | (None) | ad:a331c9ac | 4.633 MB   |          |
| cms:/store/mc/Run3Summer22EENanoAODv12/NMSSM_XtoYHto4B_MX-1000_MY-80_TuneCP5_13p6TeV_madgraph-pythia8/NANOAODSIM/130X_mcRun3_2022_realistic_postEE_v6-v2/2820000/8051a93b-ed26-40cc-9a58-ce1c2a5116ed.root | (None) | ad:e7151bf3 | 17.667 MB  |          |
| cms:/store/mc/Run3Summer22EENanoAODv12/NMSSM_XtoYHto4B_MX-1000_MY-80_TuneCP5_13p6TeV_madgraph-pythia8/NANOAODSIM/130X_mcRun3_2022_realistic_postEE_v6-v2/2820000/95e49584-89d3-4139-8f82-0c8d182bd38c.root | (None) | ad:dd8fcd67 | 4.671 MB   |          |
| cms:/store/mc/Run3Summer22EENanoAODv12/NMSSM_XtoYHto4B_MX-1000_MY-80_TuneCP5_13p6TeV_madgraph-pythia8/NANOAODSIM/130X_mcRun3_2022_realistic_postEE_v6-v2/2820000/024dcf06-83b1-4dea-8ff7-c6d9c0abcf8a.root | (None) | ad:7b15356f | 14.153 MB  |          |
| cms:/store/mc/Run3Summer22EENanoAODv12/NMSSM_XtoYHto4B_MX-1000_MY-80_TuneCP5_13p6TeV_madgraph-pythia8/NANOAODSIM/130X_mcRun3_2022_realistic_postEE_v6-v2/2820000/40360b6f-000b-4047-b99e-332f84ee4a27.root | (None) | ad:44713f84 | 14.138 MB  |          |
| cms:/store/mc/Run3Summer22EENanoAODv12/NMSSM_XtoYHto4B_MX-1000_MY-80_TuneCP5_13p6TeV_madgraph-pythia8/NANOAODSIM/130X_mcRun3_2022_realistic_postEE_v6-v2/2820000/b37d0def-a5bc-46e2-b106-e26215662534.root | (None) | ad:596e3204 | 17.576 MB  |          |
| cms:/store/mc/Run3Summer22EENanoAODv12/NMSSM_XtoYHto4B_MX-1000_MY-80_TuneCP5_13p6TeV_madgraph-pythia8/NANOAODSIM/130X_mcRun3_2022_realistic_postEE_v6-v2/2820000/ede3e0fd-4fe5-45c3-aea9-c02a03065bc0.root | (None) | ad:c27f684e | 8.580 MB   |          |
| cms:/store/mc/Run3Summer22EENanoAODv12/NMSSM_XtoYHto4B_MX-1000_MY-80_TuneCP5_13p6TeV_madgraph-pythia8/NANOAODSIM/130X_mcRun3_2022_realistic_postEE_v6-v2/2820000/18adaca5-59bf-423d-9085-95a67331a559.root | (None) | ad:d40d4397 | 6.857 MB   |          |
| cms:/store/mc/Run3Summer22EENanoAODv12/NMSSM_XtoYHto4B_MX-1000_MY-80_TuneCP5_13p6TeV_madgraph-pythia8/NANOAODSIM/130X_mcRun3_2022_realistic_postEE_v6-v2/2820000/61380e6a-532e-4e44-8070-991a32d2450f.root | (None) | ad:fcc410f6 | 4.684 MB   |          |
| cms:/store/mc/Run3Summer22EENanoAODv12/NMSSM_XtoYHto4B_MX-1000_MY-80_TuneCP5_13p6TeV_madgraph-pythia8/NANOAODSIM/130X_mcRun3_2022_realistic_postEE_v6-v2/2820000/220d0768-cdc2-4031-90c8-0c2564f5ba7b.root | (None) | ad:ff4a03bf | 14.184 MB  |          |
| cms:/store/mc/Run3Summer22EENanoAODv12/NMSSM_XtoYHto4B_MX-1000_MY-80_TuneCP5_13p6TeV_madgraph-pythia8/NANOAODSIM/130X_mcRun3_2022_realistic_postEE_v6-v2/2820000/f1de382d-4b4d-44b8-a28d-c3e4b9b7dd04.root | (None) | ad:46d380b5 | 8.563 MB   |          |
| cms:/store/mc/Run3Summer22EENanoAODv12/NMSSM_XtoYHto4B_MX-1000_MY-80_TuneCP5_13p6TeV_madgraph-pythia8/NANOAODSIM/130X_mcRun3_2022_realistic_postEE_v6-v2/2820000/aa3a40ee-6482-4d40-bb75-af004808d16a.root | (None) | ad:6d91997a | 4.675 MB   |          |
| cms:/store/mc/Run3Summer22EENanoAODv12/NMSSM_XtoYHto4B_MX-1000_MY-80_TuneCP5_13p6TeV_madgraph-pythia8/NANOAODSIM/130X_mcRun3_2022_realistic_postEE_v6-v2/2820000/a6f8a4e7-ac39-48ee-8046-d74b19f1d2ba.root | (None) | ad:b85a34da | 6.890 MB   |          |
| cms:/store/mc/Run3Summer22EENanoAODv12/NMSSM_XtoYHto4B_MX-1000_MY-80_TuneCP5_13p6TeV_madgraph-pythia8/NANOAODSIM/130X_mcRun3_2022_realistic_postEE_v6-v2/2820000/c7429185-fb21-47c5-87c1-16e9b7491ffb.root | (None) | ad:106033f0 | 19.156 MB  |          |
| cms:/store/mc/Run3Summer22EENanoAODv12/NMSSM_XtoYHto4B_MX-1000_MY-80_TuneCP5_13p6TeV_madgraph-pythia8/NANOAODSIM/130X_mcRun3_2022_realistic_postEE_v6-v2/2820000/717b8c7e-3191-46b5-8bd3-eda27294b8c5.root | (None) | ad:0d49f6ae | 14.180 MB  |          |
| cms:/store/mc/Run3Summer22EENanoAODv12/NMSSM_XtoYHto4B_MX-1000_MY-80_TuneCP5_13p6TeV_madgraph-pythia8/NANOAODSIM/130X_mcRun3_2022_realistic_postEE_v6-v2/2820000/fb8c3cf0-a8bd-406d-a35b-75489aac70ae.root | (None) | ad:4c1385ee | 4.674 MB   |          |
| cms:/store/mc/Run3Summer22EENanoAODv12/NMSSM_XtoYHto4B_MX-1000_MY-80_TuneCP5_13p6TeV_madgraph-pythia8/NANOAODSIM/130X_mcRun3_2022_realistic_postEE_v6-v2/2820000/a009a325-b427-40d1-9db6-6d316bba3794.root | (None) | ad:152d728a | 4.667 MB   |          |
+------------------------------------------------------------------------------------------------------------------------------------------------------------------------------------------------------------+--------+-------------+------------+----------+
Total files : 25
Total size : 279.469 MB
