{
    "cms:/store/mc/Run3Summer23NanoAODv12/NMSSM_XtoYHto4B_MX-1600_MY-150_TuneCP5_13p6TeV_madgraph-pythia8/NANOAODSIM/130X_mcRun3_2023_realistic_v15-v2/2810000/7e9c02d4-d06e-4246-a73e-ed338fef317f.root": [
        "T1_US_FNAL_Disk: davs://cmsdcadisk.fnal.gov:2880/dcache/uscmsdisk/store/mc/Run3Summer23NanoAODv12/NMSSM_XtoYHto4B_MX-1600_MY-150_TuneCP5_13p6TeV_madgraph-pythia8/NANOAODSIM/130X_mcRun3_2023_realistic_v15-v2/2810000/7e9c02d4-d06e-4246-a73e-ed338fef317f.root",
        "T1_DE_KIT_Disk: davs://cmsdcache-kit-disk.gridka.de:2880/pnfs/gridka.de/cms/disk-only/store/mc/Run3Summer23NanoAODv12/NMSSM_XtoYHto4B_MX-1600_MY-150_TuneCP5_13p6TeV_madgraph-pythia8/NANOAODSIM/130X_mcRun3_2023_realistic_v15-v2/2810000/7e9c02d4-d06e-4246-a73e-ed338fef317f.root",
        "T2_PL_Swierk: davs://se.cis.gov.pl:2880/grid/cms/store/mc/Run3Summer23NanoAODv12/NMSSM_XtoYHto4B_MX-1600_MY-150_TuneCP5_13p6TeV_madgraph-pythia8/NANOAODSIM/130X_mcRun3_2023_realistic_v15-v2/2810000/7e9c02d4-d06e-4246-a73e-ed338fef317f.root",
        "T1_US_FNAL_Tape_Test: davs://cmstnvm1.fnal.gov:2880/store/mc/Run3Summer23NanoAODv12/NMSSM_XtoYHto4B_MX-1600_MY-150_TuneCP5_13p6TeV_madgraph-pythia8/NANOAODSIM/130X_mcRun3_2023_realistic_v15-v2/2810000/7e9c02d4-d06e-4246-a73e-ed338fef317f.root",
        "T2_BR_SPRACE: davs://osg-se.sprace.org.br:1094/store/mc/Run3Summer23NanoAODv12/NMSSM_XtoYHto4B_MX-1600_MY-150_TuneCP5_13p6TeV_madgraph-pythia8/NANOAODSIM/130X_mcRun3_2023_realistic_v15-v2/2810000/7e9c02d4-d06e-4246-a73e-ed338fef317f.root",
        "T2_HU_Budapest: davs://grid143.kfki.hu:443/dpm/kfki.hu/home/cms/phedex/store/mc/Run3Summer23NanoAODv12/NMSSM_XtoYHto4B_MX-1600_MY-150_TuneCP5_13p6TeV_madgraph-pythia8/NANOAODSIM/130X_mcRun3_2023_realistic_v15-v2/2810000/7e9c02d4-d06e-4246-a73e-ed338fef317f.root",
        "T2_IT_Pisa: davs://stwebdav.pi.infn.it:8443/cms/store/mc/Run3Summer23NanoAODv12/NMSSM_XtoYHto4B_MX-1600_MY-150_TuneCP5_13p6TeV_madgraph-pythia8/NANOAODSIM/130X_mcRun3_2023_realistic_v15-v2/2810000/7e9c02d4-d06e-4246-a73e-ed338fef317f.root",
        "T2_US_MIT_Tape: davs://dtn20.nese.mghpcc.org:443/store/mc/Run3Summer23NanoAODv12/NMSSM_XtoYHto4B_MX-1600_MY-150_TuneCP5_13p6TeV_madgraph-pythia8/NANOAODSIM/130X_mcRun3_2023_realistic_v15-v2/2810000/7e9c02d4-d06e-4246-a73e-ed338fef317f.root"
    ],
    "cms:/store/mc/Run3Summer23NanoAODv12/NMSSM_XtoYHto4B_MX-1600_MY-150_TuneCP5_13p6TeV_madgraph-pythia8/NANOAODSIM/130X_mcRun3_2023_realistic_v15-v2/2810000/b9ccc887-ee26-44d5-b184-2afc07deca00.root": [
        "T1_US_FNAL_Disk: davs://cmsdcadisk.fnal.gov:2880/dcache/uscmsdisk/store/mc/Run3Summer23NanoAODv12/NMSSM_XtoYHto4B_MX-1600_MY-150_TuneCP5_13p6TeV_madgraph-pythia8/NANOAODSIM/130X_mcRun3_2023_realistic_v15-v2/2810000/b9ccc887-ee26-44d5-b184-2afc07deca00.root",
        "T1_DE_KIT_Disk: davs://cmsdcache-kit-disk.gridka.de:2880/pnfs/gridka.de/cms/disk-only/store/mc/Run3Summer23NanoAODv12/NMSSM_XtoYHto4B_MX-1600_MY-150_TuneCP5_13p6TeV_madgraph-pythia8/NANOAODSIM/130X_mcRun3_2023_realistic_v15-v2/2810000/b9ccc887-ee26-44d5-b184-2afc07deca00.root",
        "T2_PL_Swierk: davs://se.cis.gov.pl:2880/grid/cms/store/mc/Run3Summer23NanoAODv12/NMSSM_XtoYHto4B_MX-1600_MY-150_TuneCP5_13p6TeV_madgraph-pythia8/NANOAODSIM/130X_mcRun3_2023_realistic_v15-v2/2810000/b9ccc887-ee26-44d5-b184-2afc07deca00.root",
        "T1_US_FNAL_Tape_Test: davs://cmstnvm1.fnal.gov:2880/store/mc/Run3Summer23NanoAODv12/NMSSM_XtoYHto4B_MX-1600_MY-150_TuneCP5_13p6TeV_madgraph-pythia8/NANOAODSIM/130X_mcRun3_2023_realistic_v15-v2/2810000/b9ccc887-ee26-44d5-b184-2afc07deca00.root",
        "T2_BR_SPRACE: davs://osg-se.sprace.org.br:1094/store/mc/Run3Summer23NanoAODv12/NMSSM_XtoYHto4B_MX-1600_MY-150_TuneCP5_13p6TeV_madgraph-pythia8/NANOAODSIM/130X_mcRun3_2023_realistic_v15-v2/2810000/b9ccc887-ee26-44d5-b184-2afc07deca00.root",
        "T2_HU_Budapest: davs://grid143.kfki.hu:443/dpm/kfki.hu/home/cms/phedex/store/mc/Run3Summer23NanoAODv12/NMSSM_XtoYHto4B_MX-1600_MY-150_TuneCP5_13p6TeV_madgraph-pythia8/NANOAODSIM/130X_mcRun3_2023_realistic_v15-v2/2810000/b9ccc887-ee26-44d5-b184-2afc07deca00.root",
        "T2_IT_Pisa: davs://stwebdav.pi.infn.it:8443/cms/store/mc/Run3Summer23NanoAODv12/NMSSM_XtoYHto4B_MX-1600_MY-150_TuneCP5_13p6TeV_madgraph-pythia8/NANOAODSIM/130X_mcRun3_2023_realistic_v15-v2/2810000/b9ccc887-ee26-44d5-b184-2afc07deca00.root",
        "T1_RU_JINR_Disk: davs://se-wbdv.jinr-t1.ru:2880/pnfs/jinr-t1.ru/data/cms/store/mc/Run3Summer23NanoAODv12/NMSSM_XtoYHto4B_MX-1600_MY-150_TuneCP5_13p6TeV_madgraph-pythia8/NANOAODSIM/130X_mcRun3_2023_realistic_v15-v2/2810000/b9ccc887-ee26-44d5-b184-2afc07deca00.root",
        "T2_US_MIT_Tape: davs://dtn20.nese.mghpcc.org:443/store/mc/Run3Summer23NanoAODv12/NMSSM_XtoYHto4B_MX-1600_MY-150_TuneCP5_13p6TeV_madgraph-pythia8/NANOAODSIM/130X_mcRun3_2023_realistic_v15-v2/2810000/b9ccc887-ee26-44d5-b184-2afc07deca00.root",
        "T1_IT_CNAF_Disk: davs://xfer-cms.cr.cnaf.infn.it:8443/cmsdisk/store/mc/Run3Summer23NanoAODv12/NMSSM_XtoYHto4B_MX-1600_MY-150_TuneCP5_13p6TeV_madgraph-pythia8/NANOAODSIM/130X_mcRun3_2023_realistic_v15-v2/2810000/b9ccc887-ee26-44d5-b184-2afc07deca00.root"
    ],
    "cms:/store/mc/Run3Summer23NanoAODv12/NMSSM_XtoYHto4B_MX-1600_MY-150_TuneCP5_13p6TeV_madgraph-pythia8/NANOAODSIM/130X_mcRun3_2023_realistic_v15-v2/2810000/83ef4bc5-cd17-4d02-9115-720bb0c68e3d.root": [
        "T1_US_FNAL_Disk: davs://cmsdcadisk.fnal.gov:2880/dcache/uscmsdisk/store/mc/Run3Summer23NanoAODv12/NMSSM_XtoYHto4B_MX-1600_MY-150_TuneCP5_13p6TeV_madgraph-pythia8/NANOAODSIM/130X_mcRun3_2023_realistic_v15-v2/2810000/83ef4bc5-cd17-4d02-9115-720bb0c68e3d.root",
        "T2_CH_CSCS: davs://storage01.lcg.cscs.ch:2880/pnfs/lcg.cscs.ch/cms/trivcat/store/mc/Run3Summer23NanoAODv12/NMSSM_XtoYHto4B_MX-1600_MY-150_TuneCP5_13p6TeV_madgraph-pythia8/NANOAODSIM/130X_mcRun3_2023_realistic_v15-v2/2810000/83ef4bc5-cd17-4d02-9115-720bb0c68e3d.root",
        "T1_DE_KIT_Disk: davs://cmsdcache-kit-disk.gridka.de:2880/pnfs/gridka.de/cms/disk-only/store/mc/Run3Summer23NanoAODv12/NMSSM_XtoYHto4B_MX-1600_MY-150_TuneCP5_13p6TeV_madgraph-pythia8/NANOAODSIM/130X_mcRun3_2023_realistic_v15-v2/2810000/83ef4bc5-cd17-4d02-9115-720bb0c68e3d.root",
        "T2_PL_Swierk: davs://se.cis.gov.pl:2880/grid/cms/store/mc/Run3Summer23NanoAODv12/NMSSM_XtoYHto4B_MX-1600_MY-150_TuneCP5_13p6TeV_madgraph-pythia8/NANOAODSIM/130X_mcRun3_2023_realistic_v15-v2/2810000/83ef4bc5-cd17-4d02-9115-720bb0c68e3d.root",
        "T1_US_FNAL_Tape_Test: davs://cmstnvm1.fnal.gov:2880/store/mc/Run3Summer23NanoAODv12/NMSSM_XtoYHto4B_MX-1600_MY-150_TuneCP5_13p6TeV_madgraph-pythia8/NANOAODSIM/130X_mcRun3_2023_realistic_v15-v2/2810000/83ef4bc5-cd17-4d02-9115-720bb0c68e3d.root",
        "T2_BR_SPRACE: davs://osg-se.sprace.org.br:1094/store/mc/Run3Summer23NanoAODv12/NMSSM_XtoYHto4B_MX-1600_MY-150_TuneCP5_13p6TeV_madgraph-pythia8/NANOAODSIM/130X_mcRun3_2023_realistic_v15-v2/2810000/83ef4bc5-cd17-4d02-9115-720bb0c68e3d.root",
        "T2_HU_Budapest: davs://grid143.kfki.hu:443/dpm/kfki.hu/home/cms/phedex/store/mc/Run3Summer23NanoAODv12/NMSSM_XtoYHto4B_MX-1600_MY-150_TuneCP5_13p6TeV_madgraph-pythia8/NANOAODSIM/130X_mcRun3_2023_realistic_v15-v2/2810000/83ef4bc5-cd17-4d02-9115-720bb0c68e3d.root",
        "T2_IT_Pisa: davs://stwebdav.pi.infn.it:8443/cms/store/mc/Run3Summer23NanoAODv12/NMSSM_XtoYHto4B_MX-1600_MY-150_TuneCP5_13p6TeV_madgraph-pythia8/NANOAODSIM/130X_mcRun3_2023_realistic_v15-v2/2810000/83ef4bc5-cd17-4d02-9115-720bb0c68e3d.root",
        "T2_US_MIT_Tape: davs://dtn20.nese.mghpcc.org:443/store/mc/Run3Summer23NanoAODv12/NMSSM_XtoYHto4B_MX-1600_MY-150_TuneCP5_13p6TeV_madgraph-pythia8/NANOAODSIM/130X_mcRun3_2023_realistic_v15-v2/2810000/83ef4bc5-cd17-4d02-9115-720bb0c68e3d.root"
    ],
    "cms:/store/mc/Run3Summer23NanoAODv12/NMSSM_XtoYHto4B_MX-1600_MY-150_TuneCP5_13p6TeV_madgraph-pythia8/NANOAODSIM/130X_mcRun3_2023_realistic_v15-v2/2810000/e29729b0-c908-4c94-96b4-d8b474c82fbf.root": [
        "T1_US_FNAL_Disk: davs://cmsdcadisk.fnal.gov:2880/dcache/uscmsdisk/store/mc/Run3Summer23NanoAODv12/NMSSM_XtoYHto4B_MX-1600_MY-150_TuneCP5_13p6TeV_madgraph-pythia8/NANOAODSIM/130X_mcRun3_2023_realistic_v15-v2/2810000/e29729b0-c908-4c94-96b4-d8b474c82fbf.root",
        "T1_DE_KIT_Disk: davs://cmsdcache-kit-disk.gridka.de:2880/pnfs/gridka.de/cms/disk-only/store/mc/Run3Summer23NanoAODv12/NMSSM_XtoYHto4B_MX-1600_MY-150_TuneCP5_13p6TeV_madgraph-pythia8/NANOAODSIM/130X_mcRun3_2023_realistic_v15-v2/2810000/e29729b0-c908-4c94-96b4-d8b474c82fbf.root",
        "T2_PL_Swierk: davs://se.cis.gov.pl:2880/grid/cms/store/mc/Run3Summer23NanoAODv12/NMSSM_XtoYHto4B_MX-1600_MY-150_TuneCP5_13p6TeV_madgraph-pythia8/NANOAODSIM/130X_mcRun3_2023_realistic_v15-v2/2810000/e29729b0-c908-4c94-96b4-d8b474c82fbf.root",
        "T1_US_FNAL_Tape_Test: davs://cmstnvm1.fnal.gov:2880/store/mc/Run3Summer23NanoAODv12/NMSSM_XtoYHto4B_MX-1600_MY-150_TuneCP5_13p6TeV_madgraph-pythia8/NANOAODSIM/130X_mcRun3_2023_realistic_v15-v2/2810000/e29729b0-c908-4c94-96b4-d8b474c82fbf.root",
        "T2_BR_SPRACE: davs://osg-se.sprace.org.br:1094/store/mc/Run3Summer23NanoAODv12/NMSSM_XtoYHto4B_MX-1600_MY-150_TuneCP5_13p6TeV_madgraph-pythia8/NANOAODSIM/130X_mcRun3_2023_realistic_v15-v2/2810000/e29729b0-c908-4c94-96b4-d8b474c82fbf.root",
        "T2_HU_Budapest: davs://grid143.kfki.hu:443/dpm/kfki.hu/home/cms/phedex/store/mc/Run3Summer23NanoAODv12/NMSSM_XtoYHto4B_MX-1600_MY-150_TuneCP5_13p6TeV_madgraph-pythia8/NANOAODSIM/130X_mcRun3_2023_realistic_v15-v2/2810000/e29729b0-c908-4c94-96b4-d8b474c82fbf.root",
        "T2_IT_Pisa: davs://stwebdav.pi.infn.it:8443/cms/store/mc/Run3Summer23NanoAODv12/NMSSM_XtoYHto4B_MX-1600_MY-150_TuneCP5_13p6TeV_madgraph-pythia8/NANOAODSIM/130X_mcRun3_2023_realistic_v15-v2/2810000/e29729b0-c908-4c94-96b4-d8b474c82fbf.root",
        "T2_US_MIT_Tape: davs://dtn20.nese.mghpcc.org:443/store/mc/Run3Summer23NanoAODv12/NMSSM_XtoYHto4B_MX-1600_MY-150_TuneCP5_13p6TeV_madgraph-pythia8/NANOAODSIM/130X_mcRun3_2023_realistic_v15-v2/2810000/e29729b0-c908-4c94-96b4-d8b474c82fbf.root"
    ],
    "cms:/store/mc/Run3Summer23NanoAODv12/NMSSM_XtoYHto4B_MX-1600_MY-150_TuneCP5_13p6TeV_madgraph-pythia8/NANOAODSIM/130X_mcRun3_2023_realistic_v15-v2/2810000/58fd81cc-b11d-4874-abd6-5ea0df21c2e4.root": [
        "T1_US_FNAL_Disk: davs://cmsdcadisk.fnal.gov:2880/dcache/uscmsdisk/store/mc/Run3Summer23NanoAODv12/NMSSM_XtoYHto4B_MX-1600_MY-150_TuneCP5_13p6TeV_madgraph-pythia8/NANOAODSIM/130X_mcRun3_2023_realistic_v15-v2/2810000/58fd81cc-b11d-4874-abd6-5ea0df21c2e4.root",
        "T1_DE_KIT_Disk: davs://cmsdcache-kit-disk.gridka.de:2880/pnfs/gridka.de/cms/disk-only/store/mc/Run3Summer23NanoAODv12/NMSSM_XtoYHto4B_MX-1600_MY-150_TuneCP5_13p6TeV_madgraph-pythia8/NANOAODSIM/130X_mcRun3_2023_realistic_v15-v2/2810000/58fd81cc-b11d-4874-abd6-5ea0df21c2e4.root",
        "T2_PL_Swierk: davs://se.cis.gov.pl:2880/grid/cms/store/mc/Run3Summer23NanoAODv12/NMSSM_XtoYHto4B_MX-1600_MY-150_TuneCP5_13p6TeV_madgraph-pythia8/NANOAODSIM/130X_mcRun3_2023_realistic_v15-v2/2810000/58fd81cc-b11d-4874-abd6-5ea0df21c2e4.root",
        "T1_US_FNAL_Tape_Test: davs://cmstnvm1.fnal.gov:2880/store/mc/Run3Summer23NanoAODv12/NMSSM_XtoYHto4B_MX-1600_MY-150_TuneCP5_13p6TeV_madgraph-pythia8/NANOAODSIM/130X_mcRun3_2023_realistic_v15-v2/2810000/58fd81cc-b11d-4874-abd6-5ea0df21c2e4.root",
        "T2_BR_SPRACE: davs://osg-se.sprace.org.br:1094/store/mc/Run3Summer23NanoAODv12/NMSSM_XtoYHto4B_MX-1600_MY-150_TuneCP5_13p6TeV_madgraph-pythia8/NANOAODSIM/130X_mcRun3_2023_realistic_v15-v2/2810000/58fd81cc-b11d-4874-abd6-5ea0df21c2e4.root",
        "T2_HU_Budapest: davs://grid143.kfki.hu:443/dpm/kfki.hu/home/cms/phedex/store/mc/Run3Summer23NanoAODv12/NMSSM_XtoYHto4B_MX-1600_MY-150_TuneCP5_13p6TeV_madgraph-pythia8/NANOAODSIM/130X_mcRun3_2023_realistic_v15-v2/2810000/58fd81cc-b11d-4874-abd6-5ea0df21c2e4.root",
        "T2_IT_Pisa: davs://stwebdav.pi.infn.it:8443/cms/store/mc/Run3Summer23NanoAODv12/NMSSM_XtoYHto4B_MX-1600_MY-150_TuneCP5_13p6TeV_madgraph-pythia8/NANOAODSIM/130X_mcRun3_2023_realistic_v15-v2/2810000/58fd81cc-b11d-4874-abd6-5ea0df21c2e4.root",
        "T2_UK_London_IC: davs://gfe02.grid.hep.ph.ic.ac.uk:2880/pnfs/hep.ph.ic.ac.uk/data/cms/store/mc/Run3Summer23NanoAODv12/NMSSM_XtoYHto4B_MX-1600_MY-150_TuneCP5_13p6TeV_madgraph-pythia8/NANOAODSIM/130X_mcRun3_2023_realistic_v15-v2/2810000/58fd81cc-b11d-4874-abd6-5ea0df21c2e4.root",
        "T2_US_MIT_Tape: davs://dtn20.nese.mghpcc.org:443/store/mc/Run3Summer23NanoAODv12/NMSSM_XtoYHto4B_MX-1600_MY-150_TuneCP5_13p6TeV_madgraph-pythia8/NANOAODSIM/130X_mcRun3_2023_realistic_v15-v2/2810000/58fd81cc-b11d-4874-abd6-5ea0df21c2e4.root"
    ],
    "cms:/store/mc/Run3Summer23NanoAODv12/NMSSM_XtoYHto4B_MX-1600_MY-150_TuneCP5_13p6TeV_madgraph-pythia8/NANOAODSIM/130X_mcRun3_2023_realistic_v15-v2/2810000/de890c2c-f653-471e-aabf-b1c77ac17667.root": [
        "T1_US_FNAL_Disk: davs://cmsdcadisk.fnal.gov:2880/dcache/uscmsdisk/store/mc/Run3Summer23NanoAODv12/NMSSM_XtoYHto4B_MX-1600_MY-150_TuneCP5_13p6TeV_madgraph-pythia8/NANOAODSIM/130X_mcRun3_2023_realistic_v15-v2/2810000/de890c2c-f653-471e-aabf-b1c77ac17667.root",
        "T1_DE_KIT_Disk: davs://cmsdcache-kit-disk.gridka.de:2880/pnfs/gridka.de/cms/disk-only/store/mc/Run3Summer23NanoAODv12/NMSSM_XtoYHto4B_MX-1600_MY-150_TuneCP5_13p6TeV_madgraph-pythia8/NANOAODSIM/130X_mcRun3_2023_realistic_v15-v2/2810000/de890c2c-f653-471e-aabf-b1c77ac17667.root",
        "T2_PL_Swierk: davs://se.cis.gov.pl:2880/grid/cms/store/mc/Run3Summer23NanoAODv12/NMSSM_XtoYHto4B_MX-1600_MY-150_TuneCP5_13p6TeV_madgraph-pythia8/NANOAODSIM/130X_mcRun3_2023_realistic_v15-v2/2810000/de890c2c-f653-471e-aabf-b1c77ac17667.root",
        "T1_US_FNAL_Tape_Test: davs://cmstnvm1.fnal.gov:2880/store/mc/Run3Summer23NanoAODv12/NMSSM_XtoYHto4B_MX-1600_MY-150_TuneCP5_13p6TeV_madgraph-pythia8/NANOAODSIM/130X_mcRun3_2023_realistic_v15-v2/2810000/de890c2c-f653-471e-aabf-b1c77ac17667.root",
        "T2_BR_SPRACE: davs://osg-se.sprace.org.br:1094/store/mc/Run3Summer23NanoAODv12/NMSSM_XtoYHto4B_MX-1600_MY-150_TuneCP5_13p6TeV_madgraph-pythia8/NANOAODSIM/130X_mcRun3_2023_realistic_v15-v2/2810000/de890c2c-f653-471e-aabf-b1c77ac17667.root",
        "T2_HU_Budapest: davs://grid143.kfki.hu:443/dpm/kfki.hu/home/cms/phedex/store/mc/Run3Summer23NanoAODv12/NMSSM_XtoYHto4B_MX-1600_MY-150_TuneCP5_13p6TeV_madgraph-pythia8/NANOAODSIM/130X_mcRun3_2023_realistic_v15-v2/2810000/de890c2c-f653-471e-aabf-b1c77ac17667.root",
        "T2_IT_Pisa: davs://stwebdav.pi.infn.it:8443/cms/store/mc/Run3Summer23NanoAODv12/NMSSM_XtoYHto4B_MX-1600_MY-150_TuneCP5_13p6TeV_madgraph-pythia8/NANOAODSIM/130X_mcRun3_2023_realistic_v15-v2/2810000/de890c2c-f653-471e-aabf-b1c77ac17667.root",
        "T2_US_MIT_Tape: davs://dtn20.nese.mghpcc.org:443/store/mc/Run3Summer23NanoAODv12/NMSSM_XtoYHto4B_MX-1600_MY-150_TuneCP5_13p6TeV_madgraph-pythia8/NANOAODSIM/130X_mcRun3_2023_realistic_v15-v2/2810000/de890c2c-f653-471e-aabf-b1c77ac17667.root"
    ],
    "cms:/store/mc/Run3Summer23NanoAODv12/NMSSM_XtoYHto4B_MX-1600_MY-150_TuneCP5_13p6TeV_madgraph-pythia8/NANOAODSIM/130X_mcRun3_2023_realistic_v15-v2/2810000/f4154c3f-7dda-4289-a065-a1e8556c976f.root": [
        "T1_US_FNAL_Disk: davs://cmsdcadisk.fnal.gov:2880/dcache/uscmsdisk/store/mc/Run3Summer23NanoAODv12/NMSSM_XtoYHto4B_MX-1600_MY-150_TuneCP5_13p6TeV_madgraph-pythia8/NANOAODSIM/130X_mcRun3_2023_realistic_v15-v2/2810000/f4154c3f-7dda-4289-a065-a1e8556c976f.root",
        "T2_CH_CSCS: davs://storage01.lcg.cscs.ch:2880/pnfs/lcg.cscs.ch/cms/trivcat/store/mc/Run3Summer23NanoAODv12/NMSSM_XtoYHto4B_MX-1600_MY-150_TuneCP5_13p6TeV_madgraph-pythia8/NANOAODSIM/130X_mcRun3_2023_realistic_v15-v2/2810000/f4154c3f-7dda-4289-a065-a1e8556c976f.root",
        "T1_DE_KIT_Disk: davs://cmsdcache-kit-disk.gridka.de:2880/pnfs/gridka.de/cms/disk-only/store/mc/Run3Summer23NanoAODv12/NMSSM_XtoYHto4B_MX-1600_MY-150_TuneCP5_13p6TeV_madgraph-pythia8/NANOAODSIM/130X_mcRun3_2023_realistic_v15-v2/2810000/f4154c3f-7dda-4289-a065-a1e8556c976f.root",
        "T2_PL_Swierk: davs://se.cis.gov.pl:2880/grid/cms/store/mc/Run3Summer23NanoAODv12/NMSSM_XtoYHto4B_MX-1600_MY-150_TuneCP5_13p6TeV_madgraph-pythia8/NANOAODSIM/130X_mcRun3_2023_realistic_v15-v2/2810000/f4154c3f-7dda-4289-a065-a1e8556c976f.root",
        "T1_US_FNAL_Tape_Test: davs://cmstnvm1.fnal.gov:2880/store/mc/Run3Summer23NanoAODv12/NMSSM_XtoYHto4B_MX-1600_MY-150_TuneCP5_13p6TeV_madgraph-pythia8/NANOAODSIM/130X_mcRun3_2023_realistic_v15-v2/2810000/f4154c3f-7dda-4289-a065-a1e8556c976f.root",
        "T2_BR_SPRACE: davs://osg-se.sprace.org.br:1094/store/mc/Run3Summer23NanoAODv12/NMSSM_XtoYHto4B_MX-1600_MY-150_TuneCP5_13p6TeV_madgraph-pythia8/NANOAODSIM/130X_mcRun3_2023_realistic_v15-v2/2810000/f4154c3f-7dda-4289-a065-a1e8556c976f.root",
        "T2_HU_Budapest: davs://grid143.kfki.hu:443/dpm/kfki.hu/home/cms/phedex/store/mc/Run3Summer23NanoAODv12/NMSSM_XtoYHto4B_MX-1600_MY-150_TuneCP5_13p6TeV_madgraph-pythia8/NANOAODSIM/130X_mcRun3_2023_realistic_v15-v2/2810000/f4154c3f-7dda-4289-a065-a1e8556c976f.root",
        "T2_IT_Pisa: davs://stwebdav.pi.infn.it:8443/cms/store/mc/Run3Summer23NanoAODv12/NMSSM_XtoYHto4B_MX-1600_MY-150_TuneCP5_13p6TeV_madgraph-pythia8/NANOAODSIM/130X_mcRun3_2023_realistic_v15-v2/2810000/f4154c3f-7dda-4289-a065-a1e8556c976f.root",
        "T2_US_MIT_Tape: davs://dtn20.nese.mghpcc.org:443/store/mc/Run3Summer23NanoAODv12/NMSSM_XtoYHto4B_MX-1600_MY-150_TuneCP5_13p6TeV_madgraph-pythia8/NANOAODSIM/130X_mcRun3_2023_realistic_v15-v2/2810000/f4154c3f-7dda-4289-a065-a1e8556c976f.root"
    ],
    "cms:/store/mc/Run3Summer23NanoAODv12/NMSSM_XtoYHto4B_MX-1600_MY-150_TuneCP5_13p6TeV_madgraph-pythia8/NANOAODSIM/130X_mcRun3_2023_realistic_v15-v2/2810000/d6a2e38d-04be-4be6-9a99-85472ba2a7d6.root": [
        "T1_US_FNAL_Disk: davs://cmsdcadisk.fnal.gov:2880/dcache/uscmsdisk/store/mc/Run3Summer23NanoAODv12/NMSSM_XtoYHto4B_MX-1600_MY-150_TuneCP5_13p6TeV_madgraph-pythia8/NANOAODSIM/130X_mcRun3_2023_realistic_v15-v2/2810000/d6a2e38d-04be-4be6-9a99-85472ba2a7d6.root",
        "T1_DE_KIT_Disk: davs://cmsdcache-kit-disk.gridka.de:2880/pnfs/gridka.de/cms/disk-only/store/mc/Run3Summer23NanoAODv12/NMSSM_XtoYHto4B_MX-1600_MY-150_TuneCP5_13p6TeV_madgraph-pythia8/NANOAODSIM/130X_mcRun3_2023_realistic_v15-v2/2810000/d6a2e38d-04be-4be6-9a99-85472ba2a7d6.root",
        "T2_PL_Swierk: davs://se.cis.gov.pl:2880/grid/cms/store/mc/Run3Summer23NanoAODv12/NMSSM_XtoYHto4B_MX-1600_MY-150_TuneCP5_13p6TeV_madgraph-pythia8/NANOAODSIM/130X_mcRun3_2023_realistic_v15-v2/2810000/d6a2e38d-04be-4be6-9a99-85472ba2a7d6.root",
        "T1_US_FNAL_Tape_Test: davs://cmstnvm1.fnal.gov:2880/store/mc/Run3Summer23NanoAODv12/NMSSM_XtoYHto4B_MX-1600_MY-150_TuneCP5_13p6TeV_madgraph-pythia8/NANOAODSIM/130X_mcRun3_2023_realistic_v15-v2/2810000/d6a2e38d-04be-4be6-9a99-85472ba2a7d6.root",
        "T2_BR_SPRACE: davs://osg-se.sprace.org.br:1094/store/mc/Run3Summer23NanoAODv12/NMSSM_XtoYHto4B_MX-1600_MY-150_TuneCP5_13p6TeV_madgraph-pythia8/NANOAODSIM/130X_mcRun3_2023_realistic_v15-v2/2810000/d6a2e38d-04be-4be6-9a99-85472ba2a7d6.root",
        "T2_HU_Budapest: davs://grid143.kfki.hu:443/dpm/kfki.hu/home/cms/phedex/store/mc/Run3Summer23NanoAODv12/NMSSM_XtoYHto4B_MX-1600_MY-150_TuneCP5_13p6TeV_madgraph-pythia8/NANOAODSIM/130X_mcRun3_2023_realistic_v15-v2/2810000/d6a2e38d-04be-4be6-9a99-85472ba2a7d6.root",
        "T2_IT_Pisa: davs://stwebdav.pi.infn.it:8443/cms/store/mc/Run3Summer23NanoAODv12/NMSSM_XtoYHto4B_MX-1600_MY-150_TuneCP5_13p6TeV_madgraph-pythia8/NANOAODSIM/130X_mcRun3_2023_realistic_v15-v2/2810000/d6a2e38d-04be-4be6-9a99-85472ba2a7d6.root",
        "T2_US_MIT_Tape: davs://dtn20.nese.mghpcc.org:443/store/mc/Run3Summer23NanoAODv12/NMSSM_XtoYHto4B_MX-1600_MY-150_TuneCP5_13p6TeV_madgraph-pythia8/NANOAODSIM/130X_mcRun3_2023_realistic_v15-v2/2810000/d6a2e38d-04be-4be6-9a99-85472ba2a7d6.root"
    ],
    "cms:/store/mc/Run3Summer23NanoAODv12/NMSSM_XtoYHto4B_MX-1600_MY-150_TuneCP5_13p6TeV_madgraph-pythia8/NANOAODSIM/130X_mcRun3_2023_realistic_v15-v2/2810000/db4c3679-1812-4c13-961e-70660efaf264.root": [
        "T1_US_FNAL_Disk: davs://cmsdcadisk.fnal.gov:2880/dcache/uscmsdisk/store/mc/Run3Summer23NanoAODv12/NMSSM_XtoYHto4B_MX-1600_MY-150_TuneCP5_13p6TeV_madgraph-pythia8/NANOAODSIM/130X_mcRun3_2023_realistic_v15-v2/2810000/db4c3679-1812-4c13-961e-70660efaf264.root",
        "T1_DE_KIT_Disk: davs://cmsdcache-kit-disk.gridka.de:2880/pnfs/gridka.de/cms/disk-only/store/mc/Run3Summer23NanoAODv12/NMSSM_XtoYHto4B_MX-1600_MY-150_TuneCP5_13p6TeV_madgraph-pythia8/NANOAODSIM/130X_mcRun3_2023_realistic_v15-v2/2810000/db4c3679-1812-4c13-961e-70660efaf264.root",
        "T2_PL_Swierk: davs://se.cis.gov.pl:2880/grid/cms/store/mc/Run3Summer23NanoAODv12/NMSSM_XtoYHto4B_MX-1600_MY-150_TuneCP5_13p6TeV_madgraph-pythia8/NANOAODSIM/130X_mcRun3_2023_realistic_v15-v2/2810000/db4c3679-1812-4c13-961e-70660efaf264.root",
        "T1_US_FNAL_Tape_Test: davs://cmstnvm1.fnal.gov:2880/store/mc/Run3Summer23NanoAODv12/NMSSM_XtoYHto4B_MX-1600_MY-150_TuneCP5_13p6TeV_madgraph-pythia8/NANOAODSIM/130X_mcRun3_2023_realistic_v15-v2/2810000/db4c3679-1812-4c13-961e-70660efaf264.root",
        "T2_BR_SPRACE: davs://osg-se.sprace.org.br:1094/store/mc/Run3Summer23NanoAODv12/NMSSM_XtoYHto4B_MX-1600_MY-150_TuneCP5_13p6TeV_madgraph-pythia8/NANOAODSIM/130X_mcRun3_2023_realistic_v15-v2/2810000/db4c3679-1812-4c13-961e-70660efaf264.root",
        "T2_HU_Budapest: davs://grid143.kfki.hu:443/dpm/kfki.hu/home/cms/phedex/store/mc/Run3Summer23NanoAODv12/NMSSM_XtoYHto4B_MX-1600_MY-150_TuneCP5_13p6TeV_madgraph-pythia8/NANOAODSIM/130X_mcRun3_2023_realistic_v15-v2/2810000/db4c3679-1812-4c13-961e-70660efaf264.root",
        "T2_IT_Pisa: davs://stwebdav.pi.infn.it:8443/cms/store/mc/Run3Summer23NanoAODv12/NMSSM_XtoYHto4B_MX-1600_MY-150_TuneCP5_13p6TeV_madgraph-pythia8/NANOAODSIM/130X_mcRun3_2023_realistic_v15-v2/2810000/db4c3679-1812-4c13-961e-70660efaf264.root",
        "T1_RU_JINR_Disk: davs://se-wbdv.jinr-t1.ru:2880/pnfs/jinr-t1.ru/data/cms/store/mc/Run3Summer23NanoAODv12/NMSSM_XtoYHto4B_MX-1600_MY-150_TuneCP5_13p6TeV_madgraph-pythia8/NANOAODSIM/130X_mcRun3_2023_realistic_v15-v2/2810000/db4c3679-1812-4c13-961e-70660efaf264.root",
        "T2_US_MIT_Tape: davs://dtn20.nese.mghpcc.org:443/store/mc/Run3Summer23NanoAODv12/NMSSM_XtoYHto4B_MX-1600_MY-150_TuneCP5_13p6TeV_madgraph-pythia8/NANOAODSIM/130X_mcRun3_2023_realistic_v15-v2/2810000/db4c3679-1812-4c13-961e-70660efaf264.root"
    ],
    "cms:/store/mc/Run3Summer23NanoAODv12/NMSSM_XtoYHto4B_MX-1600_MY-150_TuneCP5_13p6TeV_madgraph-pythia8/NANOAODSIM/130X_mcRun3_2023_realistic_v15-v2/2810000/17c91942-1b41-452e-ba90-1b88b6725952.root": [
        "T1_US_FNAL_Disk: davs://cmsdcadisk.fnal.gov:2880/dcache/uscmsdisk/store/mc/Run3Summer23NanoAODv12/NMSSM_XtoYHto4B_MX-1600_MY-150_TuneCP5_13p6TeV_madgraph-pythia8/NANOAODSIM/130X_mcRun3_2023_realistic_v15-v2/2810000/17c91942-1b41-452e-ba90-1b88b6725952.root",
        "T1_DE_KIT_Disk: davs://cmsdcache-kit-disk.gridka.de:2880/pnfs/gridka.de/cms/disk-only/store/mc/Run3Summer23NanoAODv12/NMSSM_XtoYHto4B_MX-1600_MY-150_TuneCP5_13p6TeV_madgraph-pythia8/NANOAODSIM/130X_mcRun3_2023_realistic_v15-v2/2810000/17c91942-1b41-452e-ba90-1b88b6725952.root",
        "T2_PL_Swierk: davs://se.cis.gov.pl:2880/grid/cms/store/mc/Run3Summer23NanoAODv12/NMSSM_XtoYHto4B_MX-1600_MY-150_TuneCP5_13p6TeV_madgraph-pythia8/NANOAODSIM/130X_mcRun3_2023_realistic_v15-v2/2810000/17c91942-1b41-452e-ba90-1b88b6725952.root",
        "T1_US_FNAL_Tape_Test: davs://cmstnvm1.fnal.gov:2880/store/mc/Run3Summer23NanoAODv12/NMSSM_XtoYHto4B_MX-1600_MY-150_TuneCP5_13p6TeV_madgraph-pythia8/NANOAODSIM/130X_mcRun3_2023_realistic_v15-v2/2810000/17c91942-1b41-452e-ba90-1b88b6725952.root",
        "T2_BR_SPRACE: davs://osg-se.sprace.org.br:1094/store/mc/Run3Summer23NanoAODv12/NMSSM_XtoYHto4B_MX-1600_MY-150_TuneCP5_13p6TeV_madgraph-pythia8/NANOAODSIM/130X_mcRun3_2023_realistic_v15-v2/2810000/17c91942-1b41-452e-ba90-1b88b6725952.root",
        "T2_HU_Budapest: davs://grid143.kfki.hu:443/dpm/kfki.hu/home/cms/phedex/store/mc/Run3Summer23NanoAODv12/NMSSM_XtoYHto4B_MX-1600_MY-150_TuneCP5_13p6TeV_madgraph-pythia8/NANOAODSIM/130X_mcRun3_2023_realistic_v15-v2/2810000/17c91942-1b41-452e-ba90-1b88b6725952.root",
        "T2_IT_Pisa: davs://stwebdav.pi.infn.it:8443/cms/store/mc/Run3Summer23NanoAODv12/NMSSM_XtoYHto4B_MX-1600_MY-150_TuneCP5_13p6TeV_madgraph-pythia8/NANOAODSIM/130X_mcRun3_2023_realistic_v15-v2/2810000/17c91942-1b41-452e-ba90-1b88b6725952.root",
        "T2_US_MIT_Tape: davs://dtn20.nese.mghpcc.org:443/store/mc/Run3Summer23NanoAODv12/NMSSM_XtoYHto4B_MX-1600_MY-150_TuneCP5_13p6TeV_madgraph-pythia8/NANOAODSIM/130X_mcRun3_2023_realistic_v15-v2/2810000/17c91942-1b41-452e-ba90-1b88b6725952.root"
    ],
    "cms:/store/mc/Run3Summer23NanoAODv12/NMSSM_XtoYHto4B_MX-1600_MY-150_TuneCP5_13p6TeV_madgraph-pythia8/NANOAODSIM/130X_mcRun3_2023_realistic_v15-v2/2810000/8784a28b-979d-4d1c-8ec2-aae93b3709ed.root": [
        "T1_US_FNAL_Disk: davs://cmsdcadisk.fnal.gov:2880/dcache/uscmsdisk/store/mc/Run3Summer23NanoAODv12/NMSSM_XtoYHto4B_MX-1600_MY-150_TuneCP5_13p6TeV_madgraph-pythia8/NANOAODSIM/130X_mcRun3_2023_realistic_v15-v2/2810000/8784a28b-979d-4d1c-8ec2-aae93b3709ed.root",
        "T1_DE_KIT_Disk: davs://cmsdcache-kit-disk.gridka.de:2880/pnfs/gridka.de/cms/disk-only/store/mc/Run3Summer23NanoAODv12/NMSSM_XtoYHto4B_MX-1600_MY-150_TuneCP5_13p6TeV_madgraph-pythia8/NANOAODSIM/130X_mcRun3_2023_realistic_v15-v2/2810000/8784a28b-979d-4d1c-8ec2-aae93b3709ed.root",
        "T2_PL_Swierk: davs://se.cis.gov.pl:2880/grid/cms/store/mc/Run3Summer23NanoAODv12/NMSSM_XtoYHto4B_MX-1600_MY-150_TuneCP5_13p6TeV_madgraph-pythia8/NANOAODSIM/130X_mcRun3_2023_realistic_v15-v2/2810000/8784a28b-979d-4d1c-8ec2-aae93b3709ed.root",
        "T3_US_Colorado: davs://hepxrd01-colorado.sites.opensciencegrid.org:1094/store/mc/Run3Summer23NanoAODv12/NMSSM_XtoYHto4B_MX-1600_MY-150_TuneCP5_13p6TeV_madgraph-pythia8/NANOAODSIM/130X_mcRun3_2023_realistic_v15-v2/2810000/8784a28b-979d-4d1c-8ec2-aae93b3709ed.root",
        "T2_ES_IFCA: davs://webdav.ifca.es:1094/store/mc/Run3Summer23NanoAODv12/NMSSM_XtoYHto4B_MX-1600_MY-150_TuneCP5_13p6TeV_madgraph-pythia8/NANOAODSIM/130X_mcRun3_2023_realistic_v15-v2/2810000/8784a28b-979d-4d1c-8ec2-aae93b3709ed.root",
        "T1_US_FNAL_Tape_Test: davs://cmstnvm1.fnal.gov:2880/store/mc/Run3Summer23NanoAODv12/NMSSM_XtoYHto4B_MX-1600_MY-150_TuneCP5_13p6TeV_madgraph-pythia8/NANOAODSIM/130X_mcRun3_2023_realistic_v15-v2/2810000/8784a28b-979d-4d1c-8ec2-aae93b3709ed.root",
        "T2_BR_SPRACE: davs://osg-se.sprace.org.br:1094/store/mc/Run3Summer23NanoAODv12/NMSSM_XtoYHto4B_MX-1600_MY-150_TuneCP5_13p6TeV_madgraph-pythia8/NANOAODSIM/130X_mcRun3_2023_realistic_v15-v2/2810000/8784a28b-979d-4d1c-8ec2-aae93b3709ed.root",
        "T2_HU_Budapest: davs://grid143.kfki.hu:443/dpm/kfki.hu/home/cms/phedex/store/mc/Run3Summer23NanoAODv12/NMSSM_XtoYHto4B_MX-1600_MY-150_TuneCP5_13p6TeV_madgraph-pythia8/NANOAODSIM/130X_mcRun3_2023_realistic_v15-v2/2810000/8784a28b-979d-4d1c-8ec2-aae93b3709ed.root",
        "T2_IT_Pisa: davs://stwebdav.pi.infn.it:8443/cms/store/mc/Run3Summer23NanoAODv12/NMSSM_XtoYHto4B_MX-1600_MY-150_TuneCP5_13p6TeV_madgraph-pythia8/NANOAODSIM/130X_mcRun3_2023_realistic_v15-v2/2810000/8784a28b-979d-4d1c-8ec2-aae93b3709ed.root",
        "T2_US_MIT_Tape: davs://dtn20.nese.mghpcc.org:443/store/mc/Run3Summer23NanoAODv12/NMSSM_XtoYHto4B_MX-1600_MY-150_TuneCP5_13p6TeV_madgraph-pythia8/NANOAODSIM/130X_mcRun3_2023_realistic_v15-v2/2810000/8784a28b-979d-4d1c-8ec2-aae93b3709ed.root"
    ],
    "cms:/store/mc/Run3Summer23NanoAODv12/NMSSM_XtoYHto4B_MX-1600_MY-150_TuneCP5_13p6TeV_madgraph-pythia8/NANOAODSIM/130X_mcRun3_2023_realistic_v15-v2/2810000/7381c4bc-9136-495b-86ae-b17d63f894a4.root": [
        "T1_US_FNAL_Disk: davs://cmsdcadisk.fnal.gov:2880/dcache/uscmsdisk/store/mc/Run3Summer23NanoAODv12/NMSSM_XtoYHto4B_MX-1600_MY-150_TuneCP5_13p6TeV_madgraph-pythia8/NANOAODSIM/130X_mcRun3_2023_realistic_v15-v2/2810000/7381c4bc-9136-495b-86ae-b17d63f894a4.root",
        "T1_DE_KIT_Disk: davs://cmsdcache-kit-disk.gridka.de:2880/pnfs/gridka.de/cms/disk-only/store/mc/Run3Summer23NanoAODv12/NMSSM_XtoYHto4B_MX-1600_MY-150_TuneCP5_13p6TeV_madgraph-pythia8/NANOAODSIM/130X_mcRun3_2023_realistic_v15-v2/2810000/7381c4bc-9136-495b-86ae-b17d63f894a4.root",
        "T2_PL_Swierk: davs://se.cis.gov.pl:2880/grid/cms/store/mc/Run3Summer23NanoAODv12/NMSSM_XtoYHto4B_MX-1600_MY-150_TuneCP5_13p6TeV_madgraph-pythia8/NANOAODSIM/130X_mcRun3_2023_realistic_v15-v2/2810000/7381c4bc-9136-495b-86ae-b17d63f894a4.root",
        "T1_US_FNAL_Tape_Test: davs://cmstnvm1.fnal.gov:2880/store/mc/Run3Summer23NanoAODv12/NMSSM_XtoYHto4B_MX-1600_MY-150_TuneCP5_13p6TeV_madgraph-pythia8/NANOAODSIM/130X_mcRun3_2023_realistic_v15-v2/2810000/7381c4bc-9136-495b-86ae-b17d63f894a4.root",
        "T2_BR_SPRACE: davs://osg-se.sprace.org.br:1094/store/mc/Run3Summer23NanoAODv12/NMSSM_XtoYHto4B_MX-1600_MY-150_TuneCP5_13p6TeV_madgraph-pythia8/NANOAODSIM/130X_mcRun3_2023_realistic_v15-v2/2810000/7381c4bc-9136-495b-86ae-b17d63f894a4.root",
        "T2_HU_Budapest: davs://grid143.kfki.hu:443/dpm/kfki.hu/home/cms/phedex/store/mc/Run3Summer23NanoAODv12/NMSSM_XtoYHto4B_MX-1600_MY-150_TuneCP5_13p6TeV_madgraph-pythia8/NANOAODSIM/130X_mcRun3_2023_realistic_v15-v2/2810000/7381c4bc-9136-495b-86ae-b17d63f894a4.root",
        "T2_IT_Pisa: davs://stwebdav.pi.infn.it:8443/cms/store/mc/Run3Summer23NanoAODv12/NMSSM_XtoYHto4B_MX-1600_MY-150_TuneCP5_13p6TeV_madgraph-pythia8/NANOAODSIM/130X_mcRun3_2023_realistic_v15-v2/2810000/7381c4bc-9136-495b-86ae-b17d63f894a4.root",
        "T2_US_MIT_Tape: davs://dtn20.nese.mghpcc.org:443/store/mc/Run3Summer23NanoAODv12/NMSSM_XtoYHto4B_MX-1600_MY-150_TuneCP5_13p6TeV_madgraph-pythia8/NANOAODSIM/130X_mcRun3_2023_realistic_v15-v2/2810000/7381c4bc-9136-495b-86ae-b17d63f894a4.root"
    ],
    "cms:/store/mc/Run3Summer23NanoAODv12/NMSSM_XtoYHto4B_MX-1600_MY-150_TuneCP5_13p6TeV_madgraph-pythia8/NANOAODSIM/130X_mcRun3_2023_realistic_v15-v2/2810000/613d5920-7022-4970-8a49-9f59a09b1125.root": [
        "T1_US_FNAL_Disk: davs://cmsdcadisk.fnal.gov:2880/dcache/uscmsdisk/store/mc/Run3Summer23NanoAODv12/NMSSM_XtoYHto4B_MX-1600_MY-150_TuneCP5_13p6TeV_madgraph-pythia8/NANOAODSIM/130X_mcRun3_2023_realistic_v15-v2/2810000/613d5920-7022-4970-8a49-9f59a09b1125.root",
        "T1_DE_KIT_Disk: davs://cmsdcache-kit-disk.gridka.de:2880/pnfs/gridka.de/cms/disk-only/store/mc/Run3Summer23NanoAODv12/NMSSM_XtoYHto4B_MX-1600_MY-150_TuneCP5_13p6TeV_madgraph-pythia8/NANOAODSIM/130X_mcRun3_2023_realistic_v15-v2/2810000/613d5920-7022-4970-8a49-9f59a09b1125.root",
        "T2_PL_Swierk: davs://se.cis.gov.pl:2880/grid/cms/store/mc/Run3Summer23NanoAODv12/NMSSM_XtoYHto4B_MX-1600_MY-150_TuneCP5_13p6TeV_madgraph-pythia8/NANOAODSIM/130X_mcRun3_2023_realistic_v15-v2/2810000/613d5920-7022-4970-8a49-9f59a09b1125.root",
        "T1_UK_RAL_Disk: davs://rdr.echo.stfc.ac.uk:1094/store/mc/Run3Summer23NanoAODv12/NMSSM_XtoYHto4B_MX-1600_MY-150_TuneCP5_13p6TeV_madgraph-pythia8/NANOAODSIM/130X_mcRun3_2023_realistic_v15-v2/2810000/613d5920-7022-4970-8a49-9f59a09b1125.root",
        "T1_US_FNAL_Tape_Test: davs://cmstnvm1.fnal.gov:2880/store/mc/Run3Summer23NanoAODv12/NMSSM_XtoYHto4B_MX-1600_MY-150_TuneCP5_13p6TeV_madgraph-pythia8/NANOAODSIM/130X_mcRun3_2023_realistic_v15-v2/2810000/613d5920-7022-4970-8a49-9f59a09b1125.root",
        "T2_BR_SPRACE: davs://osg-se.sprace.org.br:1094/store/mc/Run3Summer23NanoAODv12/NMSSM_XtoYHto4B_MX-1600_MY-150_TuneCP5_13p6TeV_madgraph-pythia8/NANOAODSIM/130X_mcRun3_2023_realistic_v15-v2/2810000/613d5920-7022-4970-8a49-9f59a09b1125.root",
        "T2_HU_Budapest: davs://grid143.kfki.hu:443/dpm/kfki.hu/home/cms/phedex/store/mc/Run3Summer23NanoAODv12/NMSSM_XtoYHto4B_MX-1600_MY-150_TuneCP5_13p6TeV_madgraph-pythia8/NANOAODSIM/130X_mcRun3_2023_realistic_v15-v2/2810000/613d5920-7022-4970-8a49-9f59a09b1125.root",
        "T2_IT_Pisa: davs://stwebdav.pi.infn.it:8443/cms/store/mc/Run3Summer23NanoAODv12/NMSSM_XtoYHto4B_MX-1600_MY-150_TuneCP5_13p6TeV_madgraph-pythia8/NANOAODSIM/130X_mcRun3_2023_realistic_v15-v2/2810000/613d5920-7022-4970-8a49-9f59a09b1125.root",
        "T1_RU_JINR_Disk: davs://se-wbdv.jinr-t1.ru:2880/pnfs/jinr-t1.ru/data/cms/store/mc/Run3Summer23NanoAODv12/NMSSM_XtoYHto4B_MX-1600_MY-150_TuneCP5_13p6TeV_madgraph-pythia8/NANOAODSIM/130X_mcRun3_2023_realistic_v15-v2/2810000/613d5920-7022-4970-8a49-9f59a09b1125.root",
        "T2_US_MIT_Tape: davs://dtn20.nese.mghpcc.org:443/store/mc/Run3Summer23NanoAODv12/NMSSM_XtoYHto4B_MX-1600_MY-150_TuneCP5_13p6TeV_madgraph-pythia8/NANOAODSIM/130X_mcRun3_2023_realistic_v15-v2/2810000/613d5920-7022-4970-8a49-9f59a09b1125.root"
    ]
}