{
    "cms:/store/mc/Run3Summer23NanoAODv12/NMSSM_XtoYHto4B_MX-1400_MY-400_TuneCP5_13p6TeV_madgraph-pythia8/NANOAODSIM/130X_mcRun3_2023_realistic_v15-v2/130000/7d069259-f69d-4e30-b08f-c3e239755cc0.root": [
        "T1_US_FNAL_Disk: davs://cmsdcadisk.fnal.gov:2880/dcache/uscmsdisk/store/mc/Run3Summer23NanoAODv12/NMSSM_XtoYHto4B_MX-1400_MY-400_TuneCP5_13p6TeV_madgraph-pythia8/NANOAODSIM/130X_mcRun3_2023_realistic_v15-v2/130000/7d069259-f69d-4e30-b08f-c3e239755cc0.root",
        "T2_US_MIT: davs://xrootd.cmsaf.mit.edu:1094/store/mc/Run3Summer23NanoAODv12/NMSSM_XtoYHto4B_MX-1400_MY-400_TuneCP5_13p6TeV_madgraph-pythia8/NANOAODSIM/130X_mcRun3_2023_realistic_v15-v2/130000/7d069259-f69d-4e30-b08f-c3e239755cc0.root",
        "T2_FR_GRIF: davs://eos.grif.fr:11000/eos/grif/cms/grif/store/mc/Run3Summer23NanoAODv12/NMSSM_XtoYHto4B_MX-1400_MY-400_TuneCP5_13p6TeV_madgraph-pythia8/NANOAODSIM/130X_mcRun3_2023_realistic_v15-v2/130000/7d069259-f69d-4e30-b08f-c3e239755cc0.root",
        "T1_UK_RAL_Disk: davs://rdr.echo.stfc.ac.uk:1094/store/mc/Run3Summer23NanoAODv12/NMSSM_XtoYHto4B_MX-1400_MY-400_TuneCP5_13p6TeV_madgraph-pythia8/NANOAODSIM/130X_mcRun3_2023_realistic_v15-v2/130000/7d069259-f69d-4e30-b08f-c3e239755cc0.root",
        "T2_KR_KISTI: davs://cms-t2-se01.sdfarm.kr:2880/store/mc/Run3Summer23NanoAODv12/NMSSM_XtoYHto4B_MX-1400_MY-400_TuneCP5_13p6TeV_madgraph-pythia8/NANOAODSIM/130X_mcRun3_2023_realistic_v15-v2/130000/7d069259-f69d-4e30-b08f-c3e239755cc0.root",
        "T1_US_FNAL_Tape_Test: davs://cmstnvm1.fnal.gov:2880/store/mc/Run3Summer23NanoAODv12/NMSSM_XtoYHto4B_MX-1400_MY-400_TuneCP5_13p6TeV_madgraph-pythia8/NANOAODSIM/130X_mcRun3_2023_realistic_v15-v2/130000/7d069259-f69d-4e30-b08f-c3e239755cc0.root",
        "T2_US_MIT_Tape: davs://dtn20.nese.mghpcc.org:443/store/mc/Run3Summer23NanoAODv12/NMSSM_XtoYHto4B_MX-1400_MY-400_TuneCP5_13p6TeV_madgraph-pythia8/NANOAODSIM/130X_mcRun3_2023_realistic_v15-v2/130000/7d069259-f69d-4e30-b08f-c3e239755cc0.root",
        "T1_IT_CNAF_Disk: davs://xfer-cms.cr.cnaf.infn.it:8443/cmsdisk/store/mc/Run3Summer23NanoAODv12/NMSSM_XtoYHto4B_MX-1400_MY-400_TuneCP5_13p6TeV_madgraph-pythia8/NANOAODSIM/130X_mcRun3_2023_realistic_v15-v2/130000/7d069259-f69d-4e30-b08f-c3e239755cc0.root"
    ]
}