{
    "cms:/store/mc/Run3Summer22NanoAODv12/NMSSM_XtoYHto4B_MX-1800_MY-200_TuneCP5_13p6TeV_madgraph-pythia8/NANOAODSIM/130X_mcRun3_2022_realistic_v5-v2/60000/bc202159-c7ed-4a6d-a3c2-0b1efd24b10b.root": [
        "T1_US_FNAL_Disk: davs://cmsdcadisk.fnal.gov:2880/dcache/uscmsdisk/store/mc/Run3Summer22NanoAODv12/NMSSM_XtoYHto4B_MX-1800_MY-200_TuneCP5_13p6TeV_madgraph-pythia8/NANOAODSIM/130X_mcRun3_2022_realistic_v5-v2/60000/bc202159-c7ed-4a6d-a3c2-0b1efd24b10b.root",
        "T2_BE_UCL: davs://ingrid-se02.cism.ucl.ac.be:1094/store/mc/Run3Summer22NanoAODv12/NMSSM_XtoYHto4B_MX-1800_MY-200_TuneCP5_13p6TeV_madgraph-pythia8/NANOAODSIM/130X_mcRun3_2022_realistic_v5-v2/60000/bc202159-c7ed-4a6d-a3c2-0b1efd24b10b.root",
        "T2_US_Florida: davs://cmsio2.rc.ufl.edu:1094/store/mc/Run3Summer22NanoAODv12/NMSSM_XtoYHto4B_MX-1800_MY-200_TuneCP5_13p6TeV_madgraph-pythia8/NANOAODSIM/130X_mcRun3_2022_realistic_v5-v2/60000/bc202159-c7ed-4a6d-a3c2-0b1efd24b10b.root",
        "T2_EE_Estonia: davs://xrootd.hep.kbfi.ee:1094/store/mc/Run3Summer22NanoAODv12/NMSSM_XtoYHto4B_MX-1800_MY-200_TuneCP5_13p6TeV_madgraph-pythia8/NANOAODSIM/130X_mcRun3_2022_realistic_v5-v2/60000/bc202159-c7ed-4a6d-a3c2-0b1efd24b10b.root",
        "T2_UK_London_IC: davs://gfe02.grid.hep.ph.ic.ac.uk:2880/pnfs/hep.ph.ic.ac.uk/data/cms/store/mc/Run3Summer22NanoAODv12/NMSSM_XtoYHto4B_MX-1800_MY-200_TuneCP5_13p6TeV_madgraph-pythia8/NANOAODSIM/130X_mcRun3_2022_realistic_v5-v2/60000/bc202159-c7ed-4a6d-a3c2-0b1efd24b10b.root",
        "T2_UK_London_Brunel: davs://xrootdgw.brunel.ac.uk:1094/store/mc/Run3Summer22NanoAODv12/NMSSM_XtoYHto4B_MX-1800_MY-200_TuneCP5_13p6TeV_madgraph-pythia8/NANOAODSIM/130X_mcRun3_2022_realistic_v5-v2/60000/bc202159-c7ed-4a6d-a3c2-0b1efd24b10b.root",
        "T1_US_FNAL_Tape: davs://cmsdcatape.fnal.gov:2880/WAX/11/store/mc/Run3Summer22NanoAODv12/NMSSM_XtoYHto4B_MX-1800_MY-200_TuneCP5_13p6TeV_madgraph-pythia8/NANOAODSIM/130X_mcRun3_2022_realistic_v5-v2/60000/bc202159-c7ed-4a6d-a3c2-0b1efd24b10b.root"
    ]
}