{
    "cms:/store/mc/Run3Summer22EENanoAODv12/NMSSM_XtoYHto4B_MX-1200_MY-100_TuneCP5_13p6TeV_madgraph-pythia8/NANOAODSIM/130X_mcRun3_2022_realistic_postEE_v6-v2/2830000/23ec30d0-7b5c-426c-bcd7-b352ee5b2327.root": [
        "T1_US_FNAL_Disk: root://cmsdcadisk.fnal.gov:1094//dcache/uscmsdisk/store/mc/Run3Summer22EENanoAODv12/NMSSM_XtoYHto4B_MX-1200_MY-100_TuneCP5_13p6TeV_madgraph-pythia8/NANOAODSIM/130X_mcRun3_2022_realistic_postEE_v6-v2/2830000/23ec30d0-7b5c-426c-bcd7-b352ee5b2327.root",
        "T2_PL_Cyfronet: davs://eos01.grid.cyfronet.pl:8443/eos/cms/store/mc/Run3Summer22EENanoAODv12/NMSSM_XtoYHto4B_MX-1200_MY-100_TuneCP5_13p6TeV_madgraph-pythia8/NANOAODSIM/130X_mcRun3_2022_realistic_postEE_v6-v2/2830000/23ec30d0-7b5c-426c-bcd7-b352ee5b2327.root",
        "T2_CH_CERN: davs://eoscms.cern.ch:443/eos/cms/store/mc/Run3Summer22EENanoAODv12/NMSSM_XtoYHto4B_MX-1200_MY-100_TuneCP5_13p6TeV_madgraph-pythia8/NANOAODSIM/130X_mcRun3_2022_realistic_postEE_v6-v2/2830000/23ec30d0-7b5c-426c-bcd7-b352ee5b2327.root",
        "T2_US_Vanderbilt: davs://xrootd-vanderbilt.sites.opensciencegrid.org:1094/store/mc/Run3Summer22EENanoAODv12/NMSSM_XtoYHto4B_MX-1200_MY-100_TuneCP5_13p6TeV_madgraph-pythia8/NANOAODSIM/130X_mcRun3_2022_realistic_postEE_v6-v2/2830000/23ec30d0-7b5c-426c-bcd7-b352ee5b2327.root",
        "T2_KR_KISTI: davs://cms-t2-se01.sdfarm.kr:2880/store/mc/Run3Summer22EENanoAODv12/NMSSM_XtoYHto4B_MX-1200_MY-100_TuneCP5_13p6TeV_madgraph-pythia8/NANOAODSIM/130X_mcRun3_2022_realistic_postEE_v6-v2/2830000/23ec30d0-7b5c-426c-bcd7-b352ee5b2327.root",
        "T2_BE_IIHE: davs://maite.iihe.ac.be:2880/pnfs/iihe/cms/ph/sc4/store/mc/Run3Summer22EENanoAODv12/NMSSM_XtoYHto4B_MX-1200_MY-100_TuneCP5_13p6TeV_madgraph-pythia8/NANOAODSIM/130X_mcRun3_2022_realistic_postEE_v6-v2/2830000/23ec30d0-7b5c-426c-bcd7-b352ee5b2327.root",
        "T2_UK_London_IC: davs://gfe02.grid.hep.ph.ic.ac.uk:2880/pnfs/hep.ph.ic.ac.uk/data/cms/store/mc/Run3Summer22EENanoAODv12/NMSSM_XtoYHto4B_MX-1200_MY-100_TuneCP5_13p6TeV_madgraph-pythia8/NANOAODSIM/130X_mcRun3_2022_realistic_postEE_v6-v2/2830000/23ec30d0-7b5c-426c-bcd7-b352ee5b2327.root",
        "T1_US_FNAL_Tape: davs://cmsdcatape.fnal.gov:2880/WAX/11/store/mc/Run3Summer22EENanoAODv12/NMSSM_XtoYHto4B_MX-1200_MY-100_TuneCP5_13p6TeV_madgraph-pythia8/NANOAODSIM/130X_mcRun3_2022_realistic_postEE_v6-v2/2830000/23ec30d0-7b5c-426c-bcd7-b352ee5b2327.root"
    ],
    "cms:/store/mc/Run3Summer22EENanoAODv12/NMSSM_XtoYHto4B_MX-1200_MY-100_TuneCP5_13p6TeV_madgraph-pythia8/NANOAODSIM/130X_mcRun3_2022_realistic_postEE_v6-v2/2830000/e974e48e-72c0-4b06-af71-ec9b7368a5bf.root": [
        "T1_US_FNAL_Disk: davs://cmsdcadisk.fnal.gov:2880/dcache/uscmsdisk/store/mc/Run3Summer22EENanoAODv12/NMSSM_XtoYHto4B_MX-1200_MY-100_TuneCP5_13p6TeV_madgraph-pythia8/NANOAODSIM/130X_mcRun3_2022_realistic_postEE_v6-v2/2830000/e974e48e-72c0-4b06-af71-ec9b7368a5bf.root",
        "T2_CH_CERN: davs://eoscms.cern.ch:443/eos/cms/store/mc/Run3Summer22EENanoAODv12/NMSSM_XtoYHto4B_MX-1200_MY-100_TuneCP5_13p6TeV_madgraph-pythia8/NANOAODSIM/130X_mcRun3_2022_realistic_postEE_v6-v2/2830000/e974e48e-72c0-4b06-af71-ec9b7368a5bf.root",
        "T2_US_Vanderbilt: davs://xrootd-vanderbilt.sites.opensciencegrid.org:1094/store/mc/Run3Summer22EENanoAODv12/NMSSM_XtoYHto4B_MX-1200_MY-100_TuneCP5_13p6TeV_madgraph-pythia8/NANOAODSIM/130X_mcRun3_2022_realistic_postEE_v6-v2/2830000/e974e48e-72c0-4b06-af71-ec9b7368a5bf.root",
        "T2_KR_KISTI: davs://cms-t2-se01.sdfarm.kr:2880/store/mc/Run3Summer22EENanoAODv12/NMSSM_XtoYHto4B_MX-1200_MY-100_TuneCP5_13p6TeV_madgraph-pythia8/NANOAODSIM/130X_mcRun3_2022_realistic_postEE_v6-v2/2830000/e974e48e-72c0-4b06-af71-ec9b7368a5bf.root",
        "T2_BE_IIHE: davs://maite.iihe.ac.be:2880/pnfs/iihe/cms/ph/sc4/store/mc/Run3Summer22EENanoAODv12/NMSSM_XtoYHto4B_MX-1200_MY-100_TuneCP5_13p6TeV_madgraph-pythia8/NANOAODSIM/130X_mcRun3_2022_realistic_postEE_v6-v2/2830000/e974e48e-72c0-4b06-af71-ec9b7368a5bf.root",
        "T2_UK_London_IC: davs://gfe02.grid.hep.ph.ic.ac.uk:2880/pnfs/hep.ph.ic.ac.uk/data/cms/store/mc/Run3Summer22EENanoAODv12/NMSSM_XtoYHto4B_MX-1200_MY-100_TuneCP5_13p6TeV_madgraph-pythia8/NANOAODSIM/130X_mcRun3_2022_realistic_postEE_v6-v2/2830000/e974e48e-72c0-4b06-af71-ec9b7368a5bf.root",
        "T1_US_FNAL_Tape: davs://cmsdcatape.fnal.gov:2880/WAX/11/store/mc/Run3Summer22EENanoAODv12/NMSSM_XtoYHto4B_MX-1200_MY-100_TuneCP5_13p6TeV_madgraph-pythia8/NANOAODSIM/130X_mcRun3_2022_realistic_postEE_v6-v2/2830000/e974e48e-72c0-4b06-af71-ec9b7368a5bf.root"
    ],
    "cms:/store/mc/Run3Summer22EENanoAODv12/NMSSM_XtoYHto4B_MX-1200_MY-100_TuneCP5_13p6TeV_madgraph-pythia8/NANOAODSIM/130X_mcRun3_2022_realistic_postEE_v6-v2/2830000/923b9cce-1d19-41bb-9522-da919b729667.root": [
        "T1_US_FNAL_Disk: root://cmsdcadisk.fnal.gov:1094//dcache/uscmsdisk/store/mc/Run3Summer22EENanoAODv12/NMSSM_XtoYHto4B_MX-1200_MY-100_TuneCP5_13p6TeV_madgraph-pythia8/NANOAODSIM/130X_mcRun3_2022_realistic_postEE_v6-v2/2830000/923b9cce-1d19-41bb-9522-da919b729667.root",
        "T2_CH_CERN: davs://eoscms.cern.ch:443/eos/cms/store/mc/Run3Summer22EENanoAODv12/NMSSM_XtoYHto4B_MX-1200_MY-100_TuneCP5_13p6TeV_madgraph-pythia8/NANOAODSIM/130X_mcRun3_2022_realistic_postEE_v6-v2/2830000/923b9cce-1d19-41bb-9522-da919b729667.root",
        "T2_US_Vanderbilt: davs://xrootd-vanderbilt.sites.opensciencegrid.org:1094/store/mc/Run3Summer22EENanoAODv12/NMSSM_XtoYHto4B_MX-1200_MY-100_TuneCP5_13p6TeV_madgraph-pythia8/NANOAODSIM/130X_mcRun3_2022_realistic_postEE_v6-v2/2830000/923b9cce-1d19-41bb-9522-da919b729667.root",
        "T2_KR_KISTI: davs://cms-t2-se01.sdfarm.kr:2880/store/mc/Run3Summer22EENanoAODv12/NMSSM_XtoYHto4B_MX-1200_MY-100_TuneCP5_13p6TeV_madgraph-pythia8/NANOAODSIM/130X_mcRun3_2022_realistic_postEE_v6-v2/2830000/923b9cce-1d19-41bb-9522-da919b729667.root",
        "T2_BE_IIHE: davs://maite.iihe.ac.be:2880/pnfs/iihe/cms/ph/sc4/store/mc/Run3Summer22EENanoAODv12/NMSSM_XtoYHto4B_MX-1200_MY-100_TuneCP5_13p6TeV_madgraph-pythia8/NANOAODSIM/130X_mcRun3_2022_realistic_postEE_v6-v2/2830000/923b9cce-1d19-41bb-9522-da919b729667.root",
        "T2_UK_London_IC: davs://gfe02.grid.hep.ph.ic.ac.uk:2880/pnfs/hep.ph.ic.ac.uk/data/cms/store/mc/Run3Summer22EENanoAODv12/NMSSM_XtoYHto4B_MX-1200_MY-100_TuneCP5_13p6TeV_madgraph-pythia8/NANOAODSIM/130X_mcRun3_2022_realistic_postEE_v6-v2/2830000/923b9cce-1d19-41bb-9522-da919b729667.root",
        "T1_US_FNAL_Tape: davs://cmsdcatape.fnal.gov:2880/WAX/11/store/mc/Run3Summer22EENanoAODv12/NMSSM_XtoYHto4B_MX-1200_MY-100_TuneCP5_13p6TeV_madgraph-pythia8/NANOAODSIM/130X_mcRun3_2022_realistic_postEE_v6-v2/2830000/923b9cce-1d19-41bb-9522-da919b729667.root"
    ],
    "cms:/store/mc/Run3Summer22EENanoAODv12/NMSSM_XtoYHto4B_MX-1200_MY-100_TuneCP5_13p6TeV_madgraph-pythia8/NANOAODSIM/130X_mcRun3_2022_realistic_postEE_v6-v2/2830000/e7fc520e-26d7-4090-9bc7-341f386a3a90.root": [
        "T1_US_FNAL_Disk: davs://cmsdcadisk.fnal.gov:2880/dcache/uscmsdisk/store/mc/Run3Summer22EENanoAODv12/NMSSM_XtoYHto4B_MX-1200_MY-100_TuneCP5_13p6TeV_madgraph-pythia8/NANOAODSIM/130X_mcRun3_2022_realistic_postEE_v6-v2/2830000/e7fc520e-26d7-4090-9bc7-341f386a3a90.root",
        "T2_CH_CERN: davs://eoscms.cern.ch:443/eos/cms/store/mc/Run3Summer22EENanoAODv12/NMSSM_XtoYHto4B_MX-1200_MY-100_TuneCP5_13p6TeV_madgraph-pythia8/NANOAODSIM/130X_mcRun3_2022_realistic_postEE_v6-v2/2830000/e7fc520e-26d7-4090-9bc7-341f386a3a90.root",
        "T2_US_Vanderbilt: davs://xrootd-vanderbilt.sites.opensciencegrid.org:1094/store/mc/Run3Summer22EENanoAODv12/NMSSM_XtoYHto4B_MX-1200_MY-100_TuneCP5_13p6TeV_madgraph-pythia8/NANOAODSIM/130X_mcRun3_2022_realistic_postEE_v6-v2/2830000/e7fc520e-26d7-4090-9bc7-341f386a3a90.root",
        "T2_KR_KISTI: davs://cms-t2-se01.sdfarm.kr:2880/store/mc/Run3Summer22EENanoAODv12/NMSSM_XtoYHto4B_MX-1200_MY-100_TuneCP5_13p6TeV_madgraph-pythia8/NANOAODSIM/130X_mcRun3_2022_realistic_postEE_v6-v2/2830000/e7fc520e-26d7-4090-9bc7-341f386a3a90.root",
        "T2_BE_IIHE: davs://maite.iihe.ac.be:2880/pnfs/iihe/cms/ph/sc4/store/mc/Run3Summer22EENanoAODv12/NMSSM_XtoYHto4B_MX-1200_MY-100_TuneCP5_13p6TeV_madgraph-pythia8/NANOAODSIM/130X_mcRun3_2022_realistic_postEE_v6-v2/2830000/e7fc520e-26d7-4090-9bc7-341f386a3a90.root",
        "T2_UK_London_IC: davs://gfe02.grid.hep.ph.ic.ac.uk:2880/pnfs/hep.ph.ic.ac.uk/data/cms/store/mc/Run3Summer22EENanoAODv12/NMSSM_XtoYHto4B_MX-1200_MY-100_TuneCP5_13p6TeV_madgraph-pythia8/NANOAODSIM/130X_mcRun3_2022_realistic_postEE_v6-v2/2830000/e7fc520e-26d7-4090-9bc7-341f386a3a90.root",
        "T1_US_FNAL_Tape: davs://cmsdcatape.fnal.gov:2880/WAX/11/store/mc/Run3Summer22EENanoAODv12/NMSSM_XtoYHto4B_MX-1200_MY-100_TuneCP5_13p6TeV_madgraph-pythia8/NANOAODSIM/130X_mcRun3_2022_realistic_postEE_v6-v2/2830000/e7fc520e-26d7-4090-9bc7-341f386a3a90.root"
    ],
    "cms:/store/mc/Run3Summer22EENanoAODv12/NMSSM_XtoYHto4B_MX-1200_MY-100_TuneCP5_13p6TeV_madgraph-pythia8/NANOAODSIM/130X_mcRun3_2022_realistic_postEE_v6-v2/2830000/4e1681cd-9bea-4b7b-9edb-90d0530e4190.root": [
        "T1_US_FNAL_Disk: davs://cmsdcadisk.fnal.gov:2880/dcache/uscmsdisk/store/mc/Run3Summer22EENanoAODv12/NMSSM_XtoYHto4B_MX-1200_MY-100_TuneCP5_13p6TeV_madgraph-pythia8/NANOAODSIM/130X_mcRun3_2022_realistic_postEE_v6-v2/2830000/4e1681cd-9bea-4b7b-9edb-90d0530e4190.root",
        "T2_CH_CERN: davs://eoscms.cern.ch:443/eos/cms/store/mc/Run3Summer22EENanoAODv12/NMSSM_XtoYHto4B_MX-1200_MY-100_TuneCP5_13p6TeV_madgraph-pythia8/NANOAODSIM/130X_mcRun3_2022_realistic_postEE_v6-v2/2830000/4e1681cd-9bea-4b7b-9edb-90d0530e4190.root",
        "T2_US_Vanderbilt: davs://xrootd-vanderbilt.sites.opensciencegrid.org:1094/store/mc/Run3Summer22EENanoAODv12/NMSSM_XtoYHto4B_MX-1200_MY-100_TuneCP5_13p6TeV_madgraph-pythia8/NANOAODSIM/130X_mcRun3_2022_realistic_postEE_v6-v2/2830000/4e1681cd-9bea-4b7b-9edb-90d0530e4190.root",
        "T2_KR_KISTI: davs://cms-t2-se01.sdfarm.kr:2880/store/mc/Run3Summer22EENanoAODv12/NMSSM_XtoYHto4B_MX-1200_MY-100_TuneCP5_13p6TeV_madgraph-pythia8/NANOAODSIM/130X_mcRun3_2022_realistic_postEE_v6-v2/2830000/4e1681cd-9bea-4b7b-9edb-90d0530e4190.root",
        "T2_BE_IIHE: davs://maite.iihe.ac.be:2880/pnfs/iihe/cms/ph/sc4/store/mc/Run3Summer22EENanoAODv12/NMSSM_XtoYHto4B_MX-1200_MY-100_TuneCP5_13p6TeV_madgraph-pythia8/NANOAODSIM/130X_mcRun3_2022_realistic_postEE_v6-v2/2830000/4e1681cd-9bea-4b7b-9edb-90d0530e4190.root",
        "T2_UK_London_IC: davs://gfe02.grid.hep.ph.ic.ac.uk:2880/pnfs/hep.ph.ic.ac.uk/data/cms/store/mc/Run3Summer22EENanoAODv12/NMSSM_XtoYHto4B_MX-1200_MY-100_TuneCP5_13p6TeV_madgraph-pythia8/NANOAODSIM/130X_mcRun3_2022_realistic_postEE_v6-v2/2830000/4e1681cd-9bea-4b7b-9edb-90d0530e4190.root",
        "T1_US_FNAL_Tape: davs://cmsdcatape.fnal.gov:2880/WAX/11/store/mc/Run3Summer22EENanoAODv12/NMSSM_XtoYHto4B_MX-1200_MY-100_TuneCP5_13p6TeV_madgraph-pythia8/NANOAODSIM/130X_mcRun3_2022_realistic_postEE_v6-v2/2830000/4e1681cd-9bea-4b7b-9edb-90d0530e4190.root"
    ],
    "cms:/store/mc/Run3Summer22EENanoAODv12/NMSSM_XtoYHto4B_MX-1200_MY-100_TuneCP5_13p6TeV_madgraph-pythia8/NANOAODSIM/130X_mcRun3_2022_realistic_postEE_v6-v2/2830000/13ed3912-03c1-41d6-a056-d439a8c24142.root": [
        "T1_US_FNAL_Disk: root://cmsdcadisk.fnal.gov:1094//dcache/uscmsdisk/store/mc/Run3Summer22EENanoAODv12/NMSSM_XtoYHto4B_MX-1200_MY-100_TuneCP5_13p6TeV_madgraph-pythia8/NANOAODSIM/130X_mcRun3_2022_realistic_postEE_v6-v2/2830000/13ed3912-03c1-41d6-a056-d439a8c24142.root",
        "T2_CH_CERN: davs://eoscms.cern.ch:443/eos/cms/store/mc/Run3Summer22EENanoAODv12/NMSSM_XtoYHto4B_MX-1200_MY-100_TuneCP5_13p6TeV_madgraph-pythia8/NANOAODSIM/130X_mcRun3_2022_realistic_postEE_v6-v2/2830000/13ed3912-03c1-41d6-a056-d439a8c24142.root",
        "T2_US_Vanderbilt: davs://xrootd-vanderbilt.sites.opensciencegrid.org:1094/store/mc/Run3Summer22EENanoAODv12/NMSSM_XtoYHto4B_MX-1200_MY-100_TuneCP5_13p6TeV_madgraph-pythia8/NANOAODSIM/130X_mcRun3_2022_realistic_postEE_v6-v2/2830000/13ed3912-03c1-41d6-a056-d439a8c24142.root",
        "T2_KR_KISTI: davs://cms-t2-se01.sdfarm.kr:2880/store/mc/Run3Summer22EENanoAODv12/NMSSM_XtoYHto4B_MX-1200_MY-100_TuneCP5_13p6TeV_madgraph-pythia8/NANOAODSIM/130X_mcRun3_2022_realistic_postEE_v6-v2/2830000/13ed3912-03c1-41d6-a056-d439a8c24142.root",
        "T2_BE_IIHE: davs://maite.iihe.ac.be:2880/pnfs/iihe/cms/ph/sc4/store/mc/Run3Summer22EENanoAODv12/NMSSM_XtoYHto4B_MX-1200_MY-100_TuneCP5_13p6TeV_madgraph-pythia8/NANOAODSIM/130X_mcRun3_2022_realistic_postEE_v6-v2/2830000/13ed3912-03c1-41d6-a056-d439a8c24142.root",
        "T2_UK_London_IC: davs://gfe02.grid.hep.ph.ic.ac.uk:2880/pnfs/hep.ph.ic.ac.uk/data/cms/store/mc/Run3Summer22EENanoAODv12/NMSSM_XtoYHto4B_MX-1200_MY-100_TuneCP5_13p6TeV_madgraph-pythia8/NANOAODSIM/130X_mcRun3_2022_realistic_postEE_v6-v2/2830000/13ed3912-03c1-41d6-a056-d439a8c24142.root",
        "T1_US_FNAL_Tape: davs://cmsdcatape.fnal.gov:2880/WAX/11/store/mc/Run3Summer22EENanoAODv12/NMSSM_XtoYHto4B_MX-1200_MY-100_TuneCP5_13p6TeV_madgraph-pythia8/NANOAODSIM/130X_mcRun3_2022_realistic_postEE_v6-v2/2830000/13ed3912-03c1-41d6-a056-d439a8c24142.root"
    ],
    "cms:/store/mc/Run3Summer22EENanoAODv12/NMSSM_XtoYHto4B_MX-1200_MY-100_TuneCP5_13p6TeV_madgraph-pythia8/NANOAODSIM/130X_mcRun3_2022_realistic_postEE_v6-v2/2830000/0a53b462-10d7-4400-9785-ad855651ba90.root": [
        "T1_US_FNAL_Disk: davs://cmsdcadisk.fnal.gov:2880/dcache/uscmsdisk/store/mc/Run3Summer22EENanoAODv12/NMSSM_XtoYHto4B_MX-1200_MY-100_TuneCP5_13p6TeV_madgraph-pythia8/NANOAODSIM/130X_mcRun3_2022_realistic_postEE_v6-v2/2830000/0a53b462-10d7-4400-9785-ad855651ba90.root",
        "T2_CH_CERN: davs://eoscms.cern.ch:443/eos/cms/store/mc/Run3Summer22EENanoAODv12/NMSSM_XtoYHto4B_MX-1200_MY-100_TuneCP5_13p6TeV_madgraph-pythia8/NANOAODSIM/130X_mcRun3_2022_realistic_postEE_v6-v2/2830000/0a53b462-10d7-4400-9785-ad855651ba90.root",
        "T2_US_Vanderbilt: davs://xrootd-vanderbilt.sites.opensciencegrid.org:1094/store/mc/Run3Summer22EENanoAODv12/NMSSM_XtoYHto4B_MX-1200_MY-100_TuneCP5_13p6TeV_madgraph-pythia8/NANOAODSIM/130X_mcRun3_2022_realistic_postEE_v6-v2/2830000/0a53b462-10d7-4400-9785-ad855651ba90.root",
        "T2_KR_KISTI: davs://cms-t2-se01.sdfarm.kr:2880/store/mc/Run3Summer22EENanoAODv12/NMSSM_XtoYHto4B_MX-1200_MY-100_TuneCP5_13p6TeV_madgraph-pythia8/NANOAODSIM/130X_mcRun3_2022_realistic_postEE_v6-v2/2830000/0a53b462-10d7-4400-9785-ad855651ba90.root",
        "T2_BE_IIHE: davs://maite.iihe.ac.be:2880/pnfs/iihe/cms/ph/sc4/store/mc/Run3Summer22EENanoAODv12/NMSSM_XtoYHto4B_MX-1200_MY-100_TuneCP5_13p6TeV_madgraph-pythia8/NANOAODSIM/130X_mcRun3_2022_realistic_postEE_v6-v2/2830000/0a53b462-10d7-4400-9785-ad855651ba90.root",
        "T2_UK_London_IC: davs://gfe02.grid.hep.ph.ic.ac.uk:2880/pnfs/hep.ph.ic.ac.uk/data/cms/store/mc/Run3Summer22EENanoAODv12/NMSSM_XtoYHto4B_MX-1200_MY-100_TuneCP5_13p6TeV_madgraph-pythia8/NANOAODSIM/130X_mcRun3_2022_realistic_postEE_v6-v2/2830000/0a53b462-10d7-4400-9785-ad855651ba90.root",
        "T1_US_FNAL_Tape: davs://cmsdcatape.fnal.gov:2880/WAX/11/store/mc/Run3Summer22EENanoAODv12/NMSSM_XtoYHto4B_MX-1200_MY-100_TuneCP5_13p6TeV_madgraph-pythia8/NANOAODSIM/130X_mcRun3_2022_realistic_postEE_v6-v2/2830000/0a53b462-10d7-4400-9785-ad855651ba90.root"
    ],
    "cms:/store/mc/Run3Summer22EENanoAODv12/NMSSM_XtoYHto4B_MX-1200_MY-100_TuneCP5_13p6TeV_madgraph-pythia8/NANOAODSIM/130X_mcRun3_2022_realistic_postEE_v6-v2/2830000/a6c12bcf-da3e-4458-9572-4730e8ed83d1.root": [
        "T1_US_FNAL_Disk: davs://cmsdcadisk.fnal.gov:2880/dcache/uscmsdisk/store/mc/Run3Summer22EENanoAODv12/NMSSM_XtoYHto4B_MX-1200_MY-100_TuneCP5_13p6TeV_madgraph-pythia8/NANOAODSIM/130X_mcRun3_2022_realistic_postEE_v6-v2/2830000/a6c12bcf-da3e-4458-9572-4730e8ed83d1.root",
        "T2_CH_CERN: davs://eoscms.cern.ch:443/eos/cms/store/mc/Run3Summer22EENanoAODv12/NMSSM_XtoYHto4B_MX-1200_MY-100_TuneCP5_13p6TeV_madgraph-pythia8/NANOAODSIM/130X_mcRun3_2022_realistic_postEE_v6-v2/2830000/a6c12bcf-da3e-4458-9572-4730e8ed83d1.root",
        "T2_US_Vanderbilt: davs://xrootd-vanderbilt.sites.opensciencegrid.org:1094/store/mc/Run3Summer22EENanoAODv12/NMSSM_XtoYHto4B_MX-1200_MY-100_TuneCP5_13p6TeV_madgraph-pythia8/NANOAODSIM/130X_mcRun3_2022_realistic_postEE_v6-v2/2830000/a6c12bcf-da3e-4458-9572-4730e8ed83d1.root",
        "T2_KR_KISTI: davs://cms-t2-se01.sdfarm.kr:2880/store/mc/Run3Summer22EENanoAODv12/NMSSM_XtoYHto4B_MX-1200_MY-100_TuneCP5_13p6TeV_madgraph-pythia8/NANOAODSIM/130X_mcRun3_2022_realistic_postEE_v6-v2/2830000/a6c12bcf-da3e-4458-9572-4730e8ed83d1.root",
        "T2_BE_IIHE: davs://maite.iihe.ac.be:2880/pnfs/iihe/cms/ph/sc4/store/mc/Run3Summer22EENanoAODv12/NMSSM_XtoYHto4B_MX-1200_MY-100_TuneCP5_13p6TeV_madgraph-pythia8/NANOAODSIM/130X_mcRun3_2022_realistic_postEE_v6-v2/2830000/a6c12bcf-da3e-4458-9572-4730e8ed83d1.root",
        "T2_UK_London_IC: davs://gfe02.grid.hep.ph.ic.ac.uk:2880/pnfs/hep.ph.ic.ac.uk/data/cms/store/mc/Run3Summer22EENanoAODv12/NMSSM_XtoYHto4B_MX-1200_MY-100_TuneCP5_13p6TeV_madgraph-pythia8/NANOAODSIM/130X_mcRun3_2022_realistic_postEE_v6-v2/2830000/a6c12bcf-da3e-4458-9572-4730e8ed83d1.root",
        "T1_US_FNAL_Tape: davs://cmsdcatape.fnal.gov:2880/WAX/11/store/mc/Run3Summer22EENanoAODv12/NMSSM_XtoYHto4B_MX-1200_MY-100_TuneCP5_13p6TeV_madgraph-pythia8/NANOAODSIM/130X_mcRun3_2022_realistic_postEE_v6-v2/2830000/a6c12bcf-da3e-4458-9572-4730e8ed83d1.root"
    ],
    "cms:/store/mc/Run3Summer22EENanoAODv12/NMSSM_XtoYHto4B_MX-1200_MY-100_TuneCP5_13p6TeV_madgraph-pythia8/NANOAODSIM/130X_mcRun3_2022_realistic_postEE_v6-v2/2830000/0dd42b34-0797-4f03-8a44-45999bc53c88.root": [
        "T1_US_FNAL_Disk: davs://cmsdcadisk.fnal.gov:2880/dcache/uscmsdisk/store/mc/Run3Summer22EENanoAODv12/NMSSM_XtoYHto4B_MX-1200_MY-100_TuneCP5_13p6TeV_madgraph-pythia8/NANOAODSIM/130X_mcRun3_2022_realistic_postEE_v6-v2/2830000/0dd42b34-0797-4f03-8a44-45999bc53c88.root",
        "T2_CH_CERN: davs://eoscms.cern.ch:443/eos/cms/store/mc/Run3Summer22EENanoAODv12/NMSSM_XtoYHto4B_MX-1200_MY-100_TuneCP5_13p6TeV_madgraph-pythia8/NANOAODSIM/130X_mcRun3_2022_realistic_postEE_v6-v2/2830000/0dd42b34-0797-4f03-8a44-45999bc53c88.root",
        "T2_US_Vanderbilt: davs://xrootd-vanderbilt.sites.opensciencegrid.org:1094/store/mc/Run3Summer22EENanoAODv12/NMSSM_XtoYHto4B_MX-1200_MY-100_TuneCP5_13p6TeV_madgraph-pythia8/NANOAODSIM/130X_mcRun3_2022_realistic_postEE_v6-v2/2830000/0dd42b34-0797-4f03-8a44-45999bc53c88.root",
        "T2_KR_KISTI: davs://cms-t2-se01.sdfarm.kr:2880/store/mc/Run3Summer22EENanoAODv12/NMSSM_XtoYHto4B_MX-1200_MY-100_TuneCP5_13p6TeV_madgraph-pythia8/NANOAODSIM/130X_mcRun3_2022_realistic_postEE_v6-v2/2830000/0dd42b34-0797-4f03-8a44-45999bc53c88.root",
        "T2_BE_IIHE: davs://maite.iihe.ac.be:2880/pnfs/iihe/cms/ph/sc4/store/mc/Run3Summer22EENanoAODv12/NMSSM_XtoYHto4B_MX-1200_MY-100_TuneCP5_13p6TeV_madgraph-pythia8/NANOAODSIM/130X_mcRun3_2022_realistic_postEE_v6-v2/2830000/0dd42b34-0797-4f03-8a44-45999bc53c88.root",
        "T2_UK_London_IC: davs://gfe02.grid.hep.ph.ic.ac.uk:2880/pnfs/hep.ph.ic.ac.uk/data/cms/store/mc/Run3Summer22EENanoAODv12/NMSSM_XtoYHto4B_MX-1200_MY-100_TuneCP5_13p6TeV_madgraph-pythia8/NANOAODSIM/130X_mcRun3_2022_realistic_postEE_v6-v2/2830000/0dd42b34-0797-4f03-8a44-45999bc53c88.root",
        "T1_US_FNAL_Tape: davs://cmsdcatape.fnal.gov:2880/WAX/11/store/mc/Run3Summer22EENanoAODv12/NMSSM_XtoYHto4B_MX-1200_MY-100_TuneCP5_13p6TeV_madgraph-pythia8/NANOAODSIM/130X_mcRun3_2022_realistic_postEE_v6-v2/2830000/0dd42b34-0797-4f03-8a44-45999bc53c88.root"
    ],
    "cms:/store/mc/Run3Summer22EENanoAODv12/NMSSM_XtoYHto4B_MX-1200_MY-100_TuneCP5_13p6TeV_madgraph-pythia8/NANOAODSIM/130X_mcRun3_2022_realistic_postEE_v6-v2/2830000/3618bd79-c5df-4fb5-8990-b201b8f353dc.root": [
        "T1_US_FNAL_Disk: davs://cmsdcadisk.fnal.gov:2880/dcache/uscmsdisk/store/mc/Run3Summer22EENanoAODv12/NMSSM_XtoYHto4B_MX-1200_MY-100_TuneCP5_13p6TeV_madgraph-pythia8/NANOAODSIM/130X_mcRun3_2022_realistic_postEE_v6-v2/2830000/3618bd79-c5df-4fb5-8990-b201b8f353dc.root",
        "T2_CH_CERN: davs://eoscms.cern.ch:443/eos/cms/store/mc/Run3Summer22EENanoAODv12/NMSSM_XtoYHto4B_MX-1200_MY-100_TuneCP5_13p6TeV_madgraph-pythia8/NANOAODSIM/130X_mcRun3_2022_realistic_postEE_v6-v2/2830000/3618bd79-c5df-4fb5-8990-b201b8f353dc.root",
        "T2_US_Vanderbilt: davs://xrootd-vanderbilt.sites.opensciencegrid.org:1094/store/mc/Run3Summer22EENanoAODv12/NMSSM_XtoYHto4B_MX-1200_MY-100_TuneCP5_13p6TeV_madgraph-pythia8/NANOAODSIM/130X_mcRun3_2022_realistic_postEE_v6-v2/2830000/3618bd79-c5df-4fb5-8990-b201b8f353dc.root",
        "T2_KR_KISTI: davs://cms-t2-se01.sdfarm.kr:2880/store/mc/Run3Summer22EENanoAODv12/NMSSM_XtoYHto4B_MX-1200_MY-100_TuneCP5_13p6TeV_madgraph-pythia8/NANOAODSIM/130X_mcRun3_2022_realistic_postEE_v6-v2/2830000/3618bd79-c5df-4fb5-8990-b201b8f353dc.root",
        "T2_BE_IIHE: davs://maite.iihe.ac.be:2880/pnfs/iihe/cms/ph/sc4/store/mc/Run3Summer22EENanoAODv12/NMSSM_XtoYHto4B_MX-1200_MY-100_TuneCP5_13p6TeV_madgraph-pythia8/NANOAODSIM/130X_mcRun3_2022_realistic_postEE_v6-v2/2830000/3618bd79-c5df-4fb5-8990-b201b8f353dc.root",
        "T2_UK_London_IC: davs://gfe02.grid.hep.ph.ic.ac.uk:2880/pnfs/hep.ph.ic.ac.uk/data/cms/store/mc/Run3Summer22EENanoAODv12/NMSSM_XtoYHto4B_MX-1200_MY-100_TuneCP5_13p6TeV_madgraph-pythia8/NANOAODSIM/130X_mcRun3_2022_realistic_postEE_v6-v2/2830000/3618bd79-c5df-4fb5-8990-b201b8f353dc.root",
        "T1_US_FNAL_Tape: davs://cmsdcatape.fnal.gov:2880/WAX/11/store/mc/Run3Summer22EENanoAODv12/NMSSM_XtoYHto4B_MX-1200_MY-100_TuneCP5_13p6TeV_madgraph-pythia8/NANOAODSIM/130X_mcRun3_2022_realistic_postEE_v6-v2/2830000/3618bd79-c5df-4fb5-8990-b201b8f353dc.root"
    ],
    "cms:/store/mc/Run3Summer22EENanoAODv12/NMSSM_XtoYHto4B_MX-1200_MY-100_TuneCP5_13p6TeV_madgraph-pythia8/NANOAODSIM/130X_mcRun3_2022_realistic_postEE_v6-v2/2830000/fde5f8fb-bf5d-42a6-8ae1-ed09218603cc.root": [
        "T1_US_FNAL_Disk: davs://cmsdcadisk.fnal.gov:2880/dcache/uscmsdisk/store/mc/Run3Summer22EENanoAODv12/NMSSM_XtoYHto4B_MX-1200_MY-100_TuneCP5_13p6TeV_madgraph-pythia8/NANOAODSIM/130X_mcRun3_2022_realistic_postEE_v6-v2/2830000/fde5f8fb-bf5d-42a6-8ae1-ed09218603cc.root",
        "T2_CH_CERN: davs://eoscms.cern.ch:443/eos/cms/store/mc/Run3Summer22EENanoAODv12/NMSSM_XtoYHto4B_MX-1200_MY-100_TuneCP5_13p6TeV_madgraph-pythia8/NANOAODSIM/130X_mcRun3_2022_realistic_postEE_v6-v2/2830000/fde5f8fb-bf5d-42a6-8ae1-ed09218603cc.root",
        "T2_US_Vanderbilt: davs://xrootd-vanderbilt.sites.opensciencegrid.org:1094/store/mc/Run3Summer22EENanoAODv12/NMSSM_XtoYHto4B_MX-1200_MY-100_TuneCP5_13p6TeV_madgraph-pythia8/NANOAODSIM/130X_mcRun3_2022_realistic_postEE_v6-v2/2830000/fde5f8fb-bf5d-42a6-8ae1-ed09218603cc.root",
        "T2_KR_KISTI: davs://cms-t2-se01.sdfarm.kr:2880/store/mc/Run3Summer22EENanoAODv12/NMSSM_XtoYHto4B_MX-1200_MY-100_TuneCP5_13p6TeV_madgraph-pythia8/NANOAODSIM/130X_mcRun3_2022_realistic_postEE_v6-v2/2830000/fde5f8fb-bf5d-42a6-8ae1-ed09218603cc.root",
        "T2_BE_IIHE: davs://maite.iihe.ac.be:2880/pnfs/iihe/cms/ph/sc4/store/mc/Run3Summer22EENanoAODv12/NMSSM_XtoYHto4B_MX-1200_MY-100_TuneCP5_13p6TeV_madgraph-pythia8/NANOAODSIM/130X_mcRun3_2022_realistic_postEE_v6-v2/2830000/fde5f8fb-bf5d-42a6-8ae1-ed09218603cc.root",
        "T2_UK_London_IC: davs://gfe02.grid.hep.ph.ic.ac.uk:2880/pnfs/hep.ph.ic.ac.uk/data/cms/store/mc/Run3Summer22EENanoAODv12/NMSSM_XtoYHto4B_MX-1200_MY-100_TuneCP5_13p6TeV_madgraph-pythia8/NANOAODSIM/130X_mcRun3_2022_realistic_postEE_v6-v2/2830000/fde5f8fb-bf5d-42a6-8ae1-ed09218603cc.root",
        "T1_US_FNAL_Tape: davs://cmsdcatape.fnal.gov:2880/WAX/11/store/mc/Run3Summer22EENanoAODv12/NMSSM_XtoYHto4B_MX-1200_MY-100_TuneCP5_13p6TeV_madgraph-pythia8/NANOAODSIM/130X_mcRun3_2022_realistic_postEE_v6-v2/2830000/fde5f8fb-bf5d-42a6-8ae1-ed09218603cc.root"
    ],
    "cms:/store/mc/Run3Summer22EENanoAODv12/NMSSM_XtoYHto4B_MX-1200_MY-100_TuneCP5_13p6TeV_madgraph-pythia8/NANOAODSIM/130X_mcRun3_2022_realistic_postEE_v6-v2/2830000/814ba38a-d51e-4633-961b-52f3b5bfa477.root": [
        "T1_US_FNAL_Disk: root://cmsdcadisk.fnal.gov:1094//dcache/uscmsdisk/store/mc/Run3Summer22EENanoAODv12/NMSSM_XtoYHto4B_MX-1200_MY-100_TuneCP5_13p6TeV_madgraph-pythia8/NANOAODSIM/130X_mcRun3_2022_realistic_postEE_v6-v2/2830000/814ba38a-d51e-4633-961b-52f3b5bfa477.root",
        "T2_CH_CERN: davs://eoscms.cern.ch:443/eos/cms/store/mc/Run3Summer22EENanoAODv12/NMSSM_XtoYHto4B_MX-1200_MY-100_TuneCP5_13p6TeV_madgraph-pythia8/NANOAODSIM/130X_mcRun3_2022_realistic_postEE_v6-v2/2830000/814ba38a-d51e-4633-961b-52f3b5bfa477.root",
        "T2_US_Vanderbilt: davs://xrootd-vanderbilt.sites.opensciencegrid.org:1094/store/mc/Run3Summer22EENanoAODv12/NMSSM_XtoYHto4B_MX-1200_MY-100_TuneCP5_13p6TeV_madgraph-pythia8/NANOAODSIM/130X_mcRun3_2022_realistic_postEE_v6-v2/2830000/814ba38a-d51e-4633-961b-52f3b5bfa477.root",
        "T2_KR_KISTI: davs://cms-t2-se01.sdfarm.kr:2880/store/mc/Run3Summer22EENanoAODv12/NMSSM_XtoYHto4B_MX-1200_MY-100_TuneCP5_13p6TeV_madgraph-pythia8/NANOAODSIM/130X_mcRun3_2022_realistic_postEE_v6-v2/2830000/814ba38a-d51e-4633-961b-52f3b5bfa477.root",
        "T2_BE_IIHE: davs://maite.iihe.ac.be:2880/pnfs/iihe/cms/ph/sc4/store/mc/Run3Summer22EENanoAODv12/NMSSM_XtoYHto4B_MX-1200_MY-100_TuneCP5_13p6TeV_madgraph-pythia8/NANOAODSIM/130X_mcRun3_2022_realistic_postEE_v6-v2/2830000/814ba38a-d51e-4633-961b-52f3b5bfa477.root",
        "T2_UK_London_IC: davs://gfe02.grid.hep.ph.ic.ac.uk:2880/pnfs/hep.ph.ic.ac.uk/data/cms/store/mc/Run3Summer22EENanoAODv12/NMSSM_XtoYHto4B_MX-1200_MY-100_TuneCP5_13p6TeV_madgraph-pythia8/NANOAODSIM/130X_mcRun3_2022_realistic_postEE_v6-v2/2830000/814ba38a-d51e-4633-961b-52f3b5bfa477.root",
        "T1_US_FNAL_Tape: davs://cmsdcatape.fnal.gov:2880/WAX/11/store/mc/Run3Summer22EENanoAODv12/NMSSM_XtoYHto4B_MX-1200_MY-100_TuneCP5_13p6TeV_madgraph-pythia8/NANOAODSIM/130X_mcRun3_2022_realistic_postEE_v6-v2/2830000/814ba38a-d51e-4633-961b-52f3b5bfa477.root"
    ],
    "cms:/store/mc/Run3Summer22EENanoAODv12/NMSSM_XtoYHto4B_MX-1200_MY-100_TuneCP5_13p6TeV_madgraph-pythia8/NANOAODSIM/130X_mcRun3_2022_realistic_postEE_v6-v2/2830000/2df03231-bdff-4720-b59f-fc026927c663.root": [
        "T1_US_FNAL_Disk: davs://cmsdcadisk.fnal.gov:2880/dcache/uscmsdisk/store/mc/Run3Summer22EENanoAODv12/NMSSM_XtoYHto4B_MX-1200_MY-100_TuneCP5_13p6TeV_madgraph-pythia8/NANOAODSIM/130X_mcRun3_2022_realistic_postEE_v6-v2/2830000/2df03231-bdff-4720-b59f-fc026927c663.root",
        "T2_CH_CERN: davs://eoscms.cern.ch:443/eos/cms/store/mc/Run3Summer22EENanoAODv12/NMSSM_XtoYHto4B_MX-1200_MY-100_TuneCP5_13p6TeV_madgraph-pythia8/NANOAODSIM/130X_mcRun3_2022_realistic_postEE_v6-v2/2830000/2df03231-bdff-4720-b59f-fc026927c663.root",
        "T2_US_Vanderbilt: davs://xrootd-vanderbilt.sites.opensciencegrid.org:1094/store/mc/Run3Summer22EENanoAODv12/NMSSM_XtoYHto4B_MX-1200_MY-100_TuneCP5_13p6TeV_madgraph-pythia8/NANOAODSIM/130X_mcRun3_2022_realistic_postEE_v6-v2/2830000/2df03231-bdff-4720-b59f-fc026927c663.root",
        "T2_KR_KISTI: davs://cms-t2-se01.sdfarm.kr:2880/store/mc/Run3Summer22EENanoAODv12/NMSSM_XtoYHto4B_MX-1200_MY-100_TuneCP5_13p6TeV_madgraph-pythia8/NANOAODSIM/130X_mcRun3_2022_realistic_postEE_v6-v2/2830000/2df03231-bdff-4720-b59f-fc026927c663.root",
        "T2_BE_IIHE: davs://maite.iihe.ac.be:2880/pnfs/iihe/cms/ph/sc4/store/mc/Run3Summer22EENanoAODv12/NMSSM_XtoYHto4B_MX-1200_MY-100_TuneCP5_13p6TeV_madgraph-pythia8/NANOAODSIM/130X_mcRun3_2022_realistic_postEE_v6-v2/2830000/2df03231-bdff-4720-b59f-fc026927c663.root",
        "T2_UK_London_IC: davs://gfe02.grid.hep.ph.ic.ac.uk:2880/pnfs/hep.ph.ic.ac.uk/data/cms/store/mc/Run3Summer22EENanoAODv12/NMSSM_XtoYHto4B_MX-1200_MY-100_TuneCP5_13p6TeV_madgraph-pythia8/NANOAODSIM/130X_mcRun3_2022_realistic_postEE_v6-v2/2830000/2df03231-bdff-4720-b59f-fc026927c663.root",
        "T1_US_FNAL_Tape: davs://cmsdcatape.fnal.gov:2880/WAX/11/store/mc/Run3Summer22EENanoAODv12/NMSSM_XtoYHto4B_MX-1200_MY-100_TuneCP5_13p6TeV_madgraph-pythia8/NANOAODSIM/130X_mcRun3_2022_realistic_postEE_v6-v2/2830000/2df03231-bdff-4720-b59f-fc026927c663.root"
    ],
    "cms:/store/mc/Run3Summer22EENanoAODv12/NMSSM_XtoYHto4B_MX-1200_MY-100_TuneCP5_13p6TeV_madgraph-pythia8/NANOAODSIM/130X_mcRun3_2022_realistic_postEE_v6-v2/2830000/60a4e9b3-e7eb-4d2e-b2b7-2f58bde7b81e.root": [
        "T1_US_FNAL_Disk: davs://cmsdcadisk.fnal.gov:2880/dcache/uscmsdisk/store/mc/Run3Summer22EENanoAODv12/NMSSM_XtoYHto4B_MX-1200_MY-100_TuneCP5_13p6TeV_madgraph-pythia8/NANOAODSIM/130X_mcRun3_2022_realistic_postEE_v6-v2/2830000/60a4e9b3-e7eb-4d2e-b2b7-2f58bde7b81e.root",
        "T2_CH_CERN: davs://eoscms.cern.ch:443/eos/cms/store/mc/Run3Summer22EENanoAODv12/NMSSM_XtoYHto4B_MX-1200_MY-100_TuneCP5_13p6TeV_madgraph-pythia8/NANOAODSIM/130X_mcRun3_2022_realistic_postEE_v6-v2/2830000/60a4e9b3-e7eb-4d2e-b2b7-2f58bde7b81e.root",
        "T2_US_Vanderbilt: davs://xrootd-vanderbilt.sites.opensciencegrid.org:1094/store/mc/Run3Summer22EENanoAODv12/NMSSM_XtoYHto4B_MX-1200_MY-100_TuneCP5_13p6TeV_madgraph-pythia8/NANOAODSIM/130X_mcRun3_2022_realistic_postEE_v6-v2/2830000/60a4e9b3-e7eb-4d2e-b2b7-2f58bde7b81e.root",
        "T2_KR_KISTI: davs://cms-t2-se01.sdfarm.kr:2880/store/mc/Run3Summer22EENanoAODv12/NMSSM_XtoYHto4B_MX-1200_MY-100_TuneCP5_13p6TeV_madgraph-pythia8/NANOAODSIM/130X_mcRun3_2022_realistic_postEE_v6-v2/2830000/60a4e9b3-e7eb-4d2e-b2b7-2f58bde7b81e.root",
        "T2_BE_IIHE: davs://maite.iihe.ac.be:2880/pnfs/iihe/cms/ph/sc4/store/mc/Run3Summer22EENanoAODv12/NMSSM_XtoYHto4B_MX-1200_MY-100_TuneCP5_13p6TeV_madgraph-pythia8/NANOAODSIM/130X_mcRun3_2022_realistic_postEE_v6-v2/2830000/60a4e9b3-e7eb-4d2e-b2b7-2f58bde7b81e.root",
        "T2_UK_London_IC: davs://gfe02.grid.hep.ph.ic.ac.uk:2880/pnfs/hep.ph.ic.ac.uk/data/cms/store/mc/Run3Summer22EENanoAODv12/NMSSM_XtoYHto4B_MX-1200_MY-100_TuneCP5_13p6TeV_madgraph-pythia8/NANOAODSIM/130X_mcRun3_2022_realistic_postEE_v6-v2/2830000/60a4e9b3-e7eb-4d2e-b2b7-2f58bde7b81e.root",
        "T1_US_FNAL_Tape: davs://cmsdcatape.fnal.gov:2880/WAX/11/store/mc/Run3Summer22EENanoAODv12/NMSSM_XtoYHto4B_MX-1200_MY-100_TuneCP5_13p6TeV_madgraph-pythia8/NANOAODSIM/130X_mcRun3_2022_realistic_postEE_v6-v2/2830000/60a4e9b3-e7eb-4d2e-b2b7-2f58bde7b81e.root"
    ],
    "cms:/store/mc/Run3Summer22EENanoAODv12/NMSSM_XtoYHto4B_MX-1200_MY-100_TuneCP5_13p6TeV_madgraph-pythia8/NANOAODSIM/130X_mcRun3_2022_realistic_postEE_v6-v2/2830000/3c81cf94-7b71-454b-82c7-45ac657ae38b.root": [
        "T1_US_FNAL_Disk: davs://cmsdcadisk.fnal.gov:2880/dcache/uscmsdisk/store/mc/Run3Summer22EENanoAODv12/NMSSM_XtoYHto4B_MX-1200_MY-100_TuneCP5_13p6TeV_madgraph-pythia8/NANOAODSIM/130X_mcRun3_2022_realistic_postEE_v6-v2/2830000/3c81cf94-7b71-454b-82c7-45ac657ae38b.root",
        "T2_CH_CERN: davs://eoscms.cern.ch:443/eos/cms/store/mc/Run3Summer22EENanoAODv12/NMSSM_XtoYHto4B_MX-1200_MY-100_TuneCP5_13p6TeV_madgraph-pythia8/NANOAODSIM/130X_mcRun3_2022_realistic_postEE_v6-v2/2830000/3c81cf94-7b71-454b-82c7-45ac657ae38b.root",
        "T2_US_Vanderbilt: davs://xrootd-vanderbilt.sites.opensciencegrid.org:1094/store/mc/Run3Summer22EENanoAODv12/NMSSM_XtoYHto4B_MX-1200_MY-100_TuneCP5_13p6TeV_madgraph-pythia8/NANOAODSIM/130X_mcRun3_2022_realistic_postEE_v6-v2/2830000/3c81cf94-7b71-454b-82c7-45ac657ae38b.root",
        "T2_KR_KISTI: davs://cms-t2-se01.sdfarm.kr:2880/store/mc/Run3Summer22EENanoAODv12/NMSSM_XtoYHto4B_MX-1200_MY-100_TuneCP5_13p6TeV_madgraph-pythia8/NANOAODSIM/130X_mcRun3_2022_realistic_postEE_v6-v2/2830000/3c81cf94-7b71-454b-82c7-45ac657ae38b.root",
        "T2_BE_IIHE: davs://maite.iihe.ac.be:2880/pnfs/iihe/cms/ph/sc4/store/mc/Run3Summer22EENanoAODv12/NMSSM_XtoYHto4B_MX-1200_MY-100_TuneCP5_13p6TeV_madgraph-pythia8/NANOAODSIM/130X_mcRun3_2022_realistic_postEE_v6-v2/2830000/3c81cf94-7b71-454b-82c7-45ac657ae38b.root",
        "T2_UK_London_IC: davs://gfe02.grid.hep.ph.ic.ac.uk:2880/pnfs/hep.ph.ic.ac.uk/data/cms/store/mc/Run3Summer22EENanoAODv12/NMSSM_XtoYHto4B_MX-1200_MY-100_TuneCP5_13p6TeV_madgraph-pythia8/NANOAODSIM/130X_mcRun3_2022_realistic_postEE_v6-v2/2830000/3c81cf94-7b71-454b-82c7-45ac657ae38b.root",
        "T1_US_FNAL_Tape: davs://cmsdcatape.fnal.gov:2880/WAX/11/store/mc/Run3Summer22EENanoAODv12/NMSSM_XtoYHto4B_MX-1200_MY-100_TuneCP5_13p6TeV_madgraph-pythia8/NANOAODSIM/130X_mcRun3_2022_realistic_postEE_v6-v2/2830000/3c81cf94-7b71-454b-82c7-45ac657ae38b.root"
    ],
    "cms:/store/mc/Run3Summer22EENanoAODv12/NMSSM_XtoYHto4B_MX-1200_MY-100_TuneCP5_13p6TeV_madgraph-pythia8/NANOAODSIM/130X_mcRun3_2022_realistic_postEE_v6-v2/2830000/0a41a9cb-f9d5-4aa9-9bbd-071030b946c7.root": [
        "T1_US_FNAL_Disk: davs://cmsdcadisk.fnal.gov:2880/dcache/uscmsdisk/store/mc/Run3Summer22EENanoAODv12/NMSSM_XtoYHto4B_MX-1200_MY-100_TuneCP5_13p6TeV_madgraph-pythia8/NANOAODSIM/130X_mcRun3_2022_realistic_postEE_v6-v2/2830000/0a41a9cb-f9d5-4aa9-9bbd-071030b946c7.root",
        "T2_CH_CERN: davs://eoscms.cern.ch:443/eos/cms/store/mc/Run3Summer22EENanoAODv12/NMSSM_XtoYHto4B_MX-1200_MY-100_TuneCP5_13p6TeV_madgraph-pythia8/NANOAODSIM/130X_mcRun3_2022_realistic_postEE_v6-v2/2830000/0a41a9cb-f9d5-4aa9-9bbd-071030b946c7.root",
        "T2_US_Vanderbilt: davs://xrootd-vanderbilt.sites.opensciencegrid.org:1094/store/mc/Run3Summer22EENanoAODv12/NMSSM_XtoYHto4B_MX-1200_MY-100_TuneCP5_13p6TeV_madgraph-pythia8/NANOAODSIM/130X_mcRun3_2022_realistic_postEE_v6-v2/2830000/0a41a9cb-f9d5-4aa9-9bbd-071030b946c7.root",
        "T2_KR_KISTI: davs://cms-t2-se01.sdfarm.kr:2880/store/mc/Run3Summer22EENanoAODv12/NMSSM_XtoYHto4B_MX-1200_MY-100_TuneCP5_13p6TeV_madgraph-pythia8/NANOAODSIM/130X_mcRun3_2022_realistic_postEE_v6-v2/2830000/0a41a9cb-f9d5-4aa9-9bbd-071030b946c7.root",
        "T2_BE_IIHE: davs://maite.iihe.ac.be:2880/pnfs/iihe/cms/ph/sc4/store/mc/Run3Summer22EENanoAODv12/NMSSM_XtoYHto4B_MX-1200_MY-100_TuneCP5_13p6TeV_madgraph-pythia8/NANOAODSIM/130X_mcRun3_2022_realistic_postEE_v6-v2/2830000/0a41a9cb-f9d5-4aa9-9bbd-071030b946c7.root",
        "T2_UK_London_IC: davs://gfe02.grid.hep.ph.ic.ac.uk:2880/pnfs/hep.ph.ic.ac.uk/data/cms/store/mc/Run3Summer22EENanoAODv12/NMSSM_XtoYHto4B_MX-1200_MY-100_TuneCP5_13p6TeV_madgraph-pythia8/NANOAODSIM/130X_mcRun3_2022_realistic_postEE_v6-v2/2830000/0a41a9cb-f9d5-4aa9-9bbd-071030b946c7.root",
        "T1_US_FNAL_Tape: davs://cmsdcatape.fnal.gov:2880/WAX/11/store/mc/Run3Summer22EENanoAODv12/NMSSM_XtoYHto4B_MX-1200_MY-100_TuneCP5_13p6TeV_madgraph-pythia8/NANOAODSIM/130X_mcRun3_2022_realistic_postEE_v6-v2/2830000/0a41a9cb-f9d5-4aa9-9bbd-071030b946c7.root"
    ],
    "cms:/store/mc/Run3Summer22EENanoAODv12/NMSSM_XtoYHto4B_MX-1200_MY-100_TuneCP5_13p6TeV_madgraph-pythia8/NANOAODSIM/130X_mcRun3_2022_realistic_postEE_v6-v2/2830000/72e49a7f-2ed6-4042-bc3e-134918e12772.root": [
        "T1_US_FNAL_Disk: davs://cmsdcadisk.fnal.gov:2880/dcache/uscmsdisk/store/mc/Run3Summer22EENanoAODv12/NMSSM_XtoYHto4B_MX-1200_MY-100_TuneCP5_13p6TeV_madgraph-pythia8/NANOAODSIM/130X_mcRun3_2022_realistic_postEE_v6-v2/2830000/72e49a7f-2ed6-4042-bc3e-134918e12772.root",
        "T2_CH_CERN: davs://eoscms.cern.ch:443/eos/cms/store/mc/Run3Summer22EENanoAODv12/NMSSM_XtoYHto4B_MX-1200_MY-100_TuneCP5_13p6TeV_madgraph-pythia8/NANOAODSIM/130X_mcRun3_2022_realistic_postEE_v6-v2/2830000/72e49a7f-2ed6-4042-bc3e-134918e12772.root",
        "T2_US_Vanderbilt: davs://xrootd-vanderbilt.sites.opensciencegrid.org:1094/store/mc/Run3Summer22EENanoAODv12/NMSSM_XtoYHto4B_MX-1200_MY-100_TuneCP5_13p6TeV_madgraph-pythia8/NANOAODSIM/130X_mcRun3_2022_realistic_postEE_v6-v2/2830000/72e49a7f-2ed6-4042-bc3e-134918e12772.root",
        "T2_KR_KISTI: davs://cms-t2-se01.sdfarm.kr:2880/store/mc/Run3Summer22EENanoAODv12/NMSSM_XtoYHto4B_MX-1200_MY-100_TuneCP5_13p6TeV_madgraph-pythia8/NANOAODSIM/130X_mcRun3_2022_realistic_postEE_v6-v2/2830000/72e49a7f-2ed6-4042-bc3e-134918e12772.root",
        "T2_BE_IIHE: davs://maite.iihe.ac.be:2880/pnfs/iihe/cms/ph/sc4/store/mc/Run3Summer22EENanoAODv12/NMSSM_XtoYHto4B_MX-1200_MY-100_TuneCP5_13p6TeV_madgraph-pythia8/NANOAODSIM/130X_mcRun3_2022_realistic_postEE_v6-v2/2830000/72e49a7f-2ed6-4042-bc3e-134918e12772.root",
        "T2_UK_London_IC: davs://gfe02.grid.hep.ph.ic.ac.uk:2880/pnfs/hep.ph.ic.ac.uk/data/cms/store/mc/Run3Summer22EENanoAODv12/NMSSM_XtoYHto4B_MX-1200_MY-100_TuneCP5_13p6TeV_madgraph-pythia8/NANOAODSIM/130X_mcRun3_2022_realistic_postEE_v6-v2/2830000/72e49a7f-2ed6-4042-bc3e-134918e12772.root",
        "T1_US_FNAL_Tape: davs://cmsdcatape.fnal.gov:2880/WAX/11/store/mc/Run3Summer22EENanoAODv12/NMSSM_XtoYHto4B_MX-1200_MY-100_TuneCP5_13p6TeV_madgraph-pythia8/NANOAODSIM/130X_mcRun3_2022_realistic_postEE_v6-v2/2830000/72e49a7f-2ed6-4042-bc3e-134918e12772.root"
    ],
    "cms:/store/mc/Run3Summer22EENanoAODv12/NMSSM_XtoYHto4B_MX-1200_MY-100_TuneCP5_13p6TeV_madgraph-pythia8/NANOAODSIM/130X_mcRun3_2022_realistic_postEE_v6-v2/2830000/1a5af8b3-e409-40c6-9793-ecd6a35975eb.root": [
        "T1_US_FNAL_Disk: davs://cmsdcadisk.fnal.gov:2880/dcache/uscmsdisk/store/mc/Run3Summer22EENanoAODv12/NMSSM_XtoYHto4B_MX-1200_MY-100_TuneCP5_13p6TeV_madgraph-pythia8/NANOAODSIM/130X_mcRun3_2022_realistic_postEE_v6-v2/2830000/1a5af8b3-e409-40c6-9793-ecd6a35975eb.root",
        "T2_CH_CERN: davs://eoscms.cern.ch:443/eos/cms/store/mc/Run3Summer22EENanoAODv12/NMSSM_XtoYHto4B_MX-1200_MY-100_TuneCP5_13p6TeV_madgraph-pythia8/NANOAODSIM/130X_mcRun3_2022_realistic_postEE_v6-v2/2830000/1a5af8b3-e409-40c6-9793-ecd6a35975eb.root",
        "T2_US_Vanderbilt: davs://xrootd-vanderbilt.sites.opensciencegrid.org:1094/store/mc/Run3Summer22EENanoAODv12/NMSSM_XtoYHto4B_MX-1200_MY-100_TuneCP5_13p6TeV_madgraph-pythia8/NANOAODSIM/130X_mcRun3_2022_realistic_postEE_v6-v2/2830000/1a5af8b3-e409-40c6-9793-ecd6a35975eb.root",
        "T2_KR_KISTI: davs://cms-t2-se01.sdfarm.kr:2880/store/mc/Run3Summer22EENanoAODv12/NMSSM_XtoYHto4B_MX-1200_MY-100_TuneCP5_13p6TeV_madgraph-pythia8/NANOAODSIM/130X_mcRun3_2022_realistic_postEE_v6-v2/2830000/1a5af8b3-e409-40c6-9793-ecd6a35975eb.root",
        "T2_BE_IIHE: davs://maite.iihe.ac.be:2880/pnfs/iihe/cms/ph/sc4/store/mc/Run3Summer22EENanoAODv12/NMSSM_XtoYHto4B_MX-1200_MY-100_TuneCP5_13p6TeV_madgraph-pythia8/NANOAODSIM/130X_mcRun3_2022_realistic_postEE_v6-v2/2830000/1a5af8b3-e409-40c6-9793-ecd6a35975eb.root",
        "T2_UK_London_IC: davs://gfe02.grid.hep.ph.ic.ac.uk:2880/pnfs/hep.ph.ic.ac.uk/data/cms/store/mc/Run3Summer22EENanoAODv12/NMSSM_XtoYHto4B_MX-1200_MY-100_TuneCP5_13p6TeV_madgraph-pythia8/NANOAODSIM/130X_mcRun3_2022_realistic_postEE_v6-v2/2830000/1a5af8b3-e409-40c6-9793-ecd6a35975eb.root",
        "T1_US_FNAL_Tape: davs://cmsdcatape.fnal.gov:2880/WAX/11/store/mc/Run3Summer22EENanoAODv12/NMSSM_XtoYHto4B_MX-1200_MY-100_TuneCP5_13p6TeV_madgraph-pythia8/NANOAODSIM/130X_mcRun3_2022_realistic_postEE_v6-v2/2830000/1a5af8b3-e409-40c6-9793-ecd6a35975eb.root"
    ],
    "cms:/store/mc/Run3Summer22EENanoAODv12/NMSSM_XtoYHto4B_MX-1200_MY-100_TuneCP5_13p6TeV_madgraph-pythia8/NANOAODSIM/130X_mcRun3_2022_realistic_postEE_v6-v2/2830000/2521db3d-1804-47fb-9428-907d30c4f3cf.root": [
        "T1_US_FNAL_Disk: root://cmsdcadisk.fnal.gov:1094//dcache/uscmsdisk/store/mc/Run3Summer22EENanoAODv12/NMSSM_XtoYHto4B_MX-1200_MY-100_TuneCP5_13p6TeV_madgraph-pythia8/NANOAODSIM/130X_mcRun3_2022_realistic_postEE_v6-v2/2830000/2521db3d-1804-47fb-9428-907d30c4f3cf.root",
        "T2_CH_CERN: davs://eoscms.cern.ch:443/eos/cms/store/mc/Run3Summer22EENanoAODv12/NMSSM_XtoYHto4B_MX-1200_MY-100_TuneCP5_13p6TeV_madgraph-pythia8/NANOAODSIM/130X_mcRun3_2022_realistic_postEE_v6-v2/2830000/2521db3d-1804-47fb-9428-907d30c4f3cf.root",
        "T2_US_Vanderbilt: davs://xrootd-vanderbilt.sites.opensciencegrid.org:1094/store/mc/Run3Summer22EENanoAODv12/NMSSM_XtoYHto4B_MX-1200_MY-100_TuneCP5_13p6TeV_madgraph-pythia8/NANOAODSIM/130X_mcRun3_2022_realistic_postEE_v6-v2/2830000/2521db3d-1804-47fb-9428-907d30c4f3cf.root",
        "T2_KR_KISTI: davs://cms-t2-se01.sdfarm.kr:2880/store/mc/Run3Summer22EENanoAODv12/NMSSM_XtoYHto4B_MX-1200_MY-100_TuneCP5_13p6TeV_madgraph-pythia8/NANOAODSIM/130X_mcRun3_2022_realistic_postEE_v6-v2/2830000/2521db3d-1804-47fb-9428-907d30c4f3cf.root",
        "T2_BE_IIHE: davs://maite.iihe.ac.be:2880/pnfs/iihe/cms/ph/sc4/store/mc/Run3Summer22EENanoAODv12/NMSSM_XtoYHto4B_MX-1200_MY-100_TuneCP5_13p6TeV_madgraph-pythia8/NANOAODSIM/130X_mcRun3_2022_realistic_postEE_v6-v2/2830000/2521db3d-1804-47fb-9428-907d30c4f3cf.root",
        "T2_UK_London_IC: davs://gfe02.grid.hep.ph.ic.ac.uk:2880/pnfs/hep.ph.ic.ac.uk/data/cms/store/mc/Run3Summer22EENanoAODv12/NMSSM_XtoYHto4B_MX-1200_MY-100_TuneCP5_13p6TeV_madgraph-pythia8/NANOAODSIM/130X_mcRun3_2022_realistic_postEE_v6-v2/2830000/2521db3d-1804-47fb-9428-907d30c4f3cf.root",
        "T1_US_FNAL_Tape: davs://cmsdcatape.fnal.gov:2880/WAX/11/store/mc/Run3Summer22EENanoAODv12/NMSSM_XtoYHto4B_MX-1200_MY-100_TuneCP5_13p6TeV_madgraph-pythia8/NANOAODSIM/130X_mcRun3_2022_realistic_postEE_v6-v2/2830000/2521db3d-1804-47fb-9428-907d30c4f3cf.root"
    ],
    "cms:/store/mc/Run3Summer22EENanoAODv12/NMSSM_XtoYHto4B_MX-1200_MY-100_TuneCP5_13p6TeV_madgraph-pythia8/NANOAODSIM/130X_mcRun3_2022_realistic_postEE_v6-v2/2830000/29fd4ac3-60a4-4574-af55-78b7632b6fcf.root": [
        "T1_US_FNAL_Disk: davs://cmsdcadisk.fnal.gov:2880/dcache/uscmsdisk/store/mc/Run3Summer22EENanoAODv12/NMSSM_XtoYHto4B_MX-1200_MY-100_TuneCP5_13p6TeV_madgraph-pythia8/NANOAODSIM/130X_mcRun3_2022_realistic_postEE_v6-v2/2830000/29fd4ac3-60a4-4574-af55-78b7632b6fcf.root",
        "T2_CH_CERN: davs://eoscms.cern.ch:443/eos/cms/store/mc/Run3Summer22EENanoAODv12/NMSSM_XtoYHto4B_MX-1200_MY-100_TuneCP5_13p6TeV_madgraph-pythia8/NANOAODSIM/130X_mcRun3_2022_realistic_postEE_v6-v2/2830000/29fd4ac3-60a4-4574-af55-78b7632b6fcf.root",
        "T2_US_Vanderbilt: davs://xrootd-vanderbilt.sites.opensciencegrid.org:1094/store/mc/Run3Summer22EENanoAODv12/NMSSM_XtoYHto4B_MX-1200_MY-100_TuneCP5_13p6TeV_madgraph-pythia8/NANOAODSIM/130X_mcRun3_2022_realistic_postEE_v6-v2/2830000/29fd4ac3-60a4-4574-af55-78b7632b6fcf.root",
        "T2_KR_KISTI: davs://cms-t2-se01.sdfarm.kr:2880/store/mc/Run3Summer22EENanoAODv12/NMSSM_XtoYHto4B_MX-1200_MY-100_TuneCP5_13p6TeV_madgraph-pythia8/NANOAODSIM/130X_mcRun3_2022_realistic_postEE_v6-v2/2830000/29fd4ac3-60a4-4574-af55-78b7632b6fcf.root",
        "T2_BE_IIHE: davs://maite.iihe.ac.be:2880/pnfs/iihe/cms/ph/sc4/store/mc/Run3Summer22EENanoAODv12/NMSSM_XtoYHto4B_MX-1200_MY-100_TuneCP5_13p6TeV_madgraph-pythia8/NANOAODSIM/130X_mcRun3_2022_realistic_postEE_v6-v2/2830000/29fd4ac3-60a4-4574-af55-78b7632b6fcf.root",
        "T2_IT_Rome: davs://cmsrm-xrootd01.roma1.infn.it:2880//mc/Run3Summer22EENanoAODv12/NMSSM_XtoYHto4B_MX-1200_MY-100_TuneCP5_13p6TeV_madgraph-pythia8/NANOAODSIM/130X_mcRun3_2022_realistic_postEE_v6-v2/2830000/29fd4ac3-60a4-4574-af55-78b7632b6fcf.root",
        "T2_UK_London_IC: davs://gfe02.grid.hep.ph.ic.ac.uk:2880/pnfs/hep.ph.ic.ac.uk/data/cms/store/mc/Run3Summer22EENanoAODv12/NMSSM_XtoYHto4B_MX-1200_MY-100_TuneCP5_13p6TeV_madgraph-pythia8/NANOAODSIM/130X_mcRun3_2022_realistic_postEE_v6-v2/2830000/29fd4ac3-60a4-4574-af55-78b7632b6fcf.root",
        "T1_US_FNAL_Tape: davs://cmsdcatape.fnal.gov:2880/WAX/11/store/mc/Run3Summer22EENanoAODv12/NMSSM_XtoYHto4B_MX-1200_MY-100_TuneCP5_13p6TeV_madgraph-pythia8/NANOAODSIM/130X_mcRun3_2022_realistic_postEE_v6-v2/2830000/29fd4ac3-60a4-4574-af55-78b7632b6fcf.root"
    ]
}