#/NMSSM_XtoYHto4B_MX-2000_MY-800_TuneCP5_13p6TeV_madgraph-pythia8/Run3Summer23NanoAODv12-130X_mcRun3_2023_realistic_v15-v2/NANOAODSIM
+-----------------------------------------------------------------------------------------------------------------------------------------------------------------------------------------------------+--------+-------------+------------+----------+
| SCOPE:NAME                                                                                                                                                                                          | GUID   | ADLER32     | FILESIZE   | EVENTS   |
|-----------------------------------------------------------------------------------------------------------------------------------------------------------------------------------------------------+--------+-------------+------------+----------|
| cms:/store/mc/Run3Summer23NanoAODv12/NMSSM_XtoYHto4B_MX-2000_MY-800_TuneCP5_13p6TeV_madgraph-pythia8/NANOAODSIM/130X_mcRun3_2023_realistic_v15-v2/2820000/d33ea2e0-86c6-4b41-8c3a-9f6c7b434c80.root | (None) | ad:d49b5f31 | 212.060 MB |          |
| cms:/store/mc/Run3Summer23NanoAODv12/NMSSM_XtoYHto4B_MX-2000_MY-800_TuneCP5_13p6TeV_madgraph-pythia8/NANOAODSIM/130X_mcRun3_2023_realistic_v15-v2/2820000/131e5f9f-1d9a-4a50-8b00-dd42a2a43bd9.root | (None) | ad:f969fb07 | 6.090 MB   |          |
+-----------------------------------------------------------------------------------------------------------------------------------------------------------------------------------------------------+--------+-------------+------------+----------+
Total files : 2
Total size : 218.150 MB
