{
    "cms:/store/mc/Run3Summer23BPixNanoAODv12/NMSSM_XtoYHto4B_MX-1800_MY-500_TuneCP5_13p6TeV_madgraph-pythia8/NANOAODSIM/130X_mcRun3_2023_realistic_postBPix_v6-v2/2810000/efd013b6-3db1-45cc-8c7e-53788cd8e85a.root": [
        "T1_US_FNAL_Disk: davs://cmsdcadisk.fnal.gov:2880/dcache/uscmsdisk/store/mc/Run3Summer23BPixNanoAODv12/NMSSM_XtoYHto4B_MX-1800_MY-500_TuneCP5_13p6TeV_madgraph-pythia8/NANOAODSIM/130X_mcRun3_2023_realistic_postBPix_v6-v2/2810000/efd013b6-3db1-45cc-8c7e-53788cd8e85a.root",
        "T1_DE_KIT_Disk: davs://cmsdcache-kit-disk.gridka.de:2880/pnfs/gridka.de/cms/disk-only/store/mc/Run3Summer23BPixNanoAODv12/NMSSM_XtoYHto4B_MX-1800_MY-500_TuneCP5_13p6TeV_madgraph-pythia8/NANOAODSIM/130X_mcRun3_2023_realistic_postBPix_v6-v2/2810000/efd013b6-3db1-45cc-8c7e-53788cd8e85a.root",
        "T2_US_MIT: davs://xrootd.cmsaf.mit.edu:1094/store/mc/Run3Summer23BPixNanoAODv12/NMSSM_XtoYHto4B_MX-1800_MY-500_TuneCP5_13p6TeV_madgraph-pythia8/NANOAODSIM/130X_mcRun3_2023_realistic_postBPix_v6-v2/2810000/efd013b6-3db1-45cc-8c7e-53788cd8e85a.root",
        "T1_FR_CCIN2P3_Tape: davs://ccdavcms-tape.in2p3.fr:2880/data/store/mc/Run3Summer23BPixNanoAODv12/NMSSM_XtoYHto4B_MX-1800_MY-500_TuneCP5_13p6TeV_madgraph-pythia8/NANOAODSIM/130X_mcRun3_2023_realistic_postBPix_v6-v2/2810000/efd013b6-3db1-45cc-8c7e-53788cd8e85a.root",
        "T1_UK_RAL_Disk: davs://rdr.echo.stfc.ac.uk:1094/store/mc/Run3Summer23BPixNanoAODv12/NMSSM_XtoYHto4B_MX-1800_MY-500_TuneCP5_13p6TeV_madgraph-pythia8/NANOAODSIM/130X_mcRun3_2023_realistic_postBPix_v6-v2/2810000/efd013b6-3db1-45cc-8c7e-53788cd8e85a.root",
        "T1_ES_PIC_Disk: davs://webdav-cms.pic.es:8459/pnfs/pic.es/data/cms/disk/store/mc/Run3Summer23BPixNanoAODv12/NMSSM_XtoYHto4B_MX-1800_MY-500_TuneCP5_13p6TeV_madgraph-pythia8/NANOAODSIM/130X_mcRun3_2023_realistic_postBPix_v6-v2/2810000/efd013b6-3db1-45cc-8c7e-53788cd8e85a.root",
        "T1_US_FNAL_Tape_Test: davs://cmstnvm1.fnal.gov:2880/store/mc/Run3Summer23BPixNanoAODv12/NMSSM_XtoYHto4B_MX-1800_MY-500_TuneCP5_13p6TeV_madgraph-pythia8/NANOAODSIM/130X_mcRun3_2023_realistic_postBPix_v6-v2/2810000/efd013b6-3db1-45cc-8c7e-53788cd8e85a.root",
        "T1_RU_JINR_Disk: davs://se-wbdv.jinr-t1.ru:2880/pnfs/jinr-t1.ru/data/cms/store/mc/Run3Summer23BPixNanoAODv12/NMSSM_XtoYHto4B_MX-1800_MY-500_TuneCP5_13p6TeV_madgraph-pythia8/NANOAODSIM/130X_mcRun3_2023_realistic_postBPix_v6-v2/2810000/efd013b6-3db1-45cc-8c7e-53788cd8e85a.root"
    ],
    "cms:/store/mc/Run3Summer23BPixNanoAODv12/NMSSM_XtoYHto4B_MX-1800_MY-500_TuneCP5_13p6TeV_madgraph-pythia8/NANOAODSIM/130X_mcRun3_2023_realistic_postBPix_v6-v2/2810000/4a49ef43-c02f-4a6c-af9c-7802c1659461.root": [
        "T1_US_FNAL_Disk: root://cmsdcadisk.fnal.gov:1094//dcache/uscmsdisk/store/mc/Run3Summer23BPixNanoAODv12/NMSSM_XtoYHto4B_MX-1800_MY-500_TuneCP5_13p6TeV_madgraph-pythia8/NANOAODSIM/130X_mcRun3_2023_realistic_postBPix_v6-v2/2810000/4a49ef43-c02f-4a6c-af9c-7802c1659461.root",
        "T1_DE_KIT_Disk: davs://cmsdcache-kit-disk.gridka.de:2880/pnfs/gridka.de/cms/disk-only/store/mc/Run3Summer23BPixNanoAODv12/NMSSM_XtoYHto4B_MX-1800_MY-500_TuneCP5_13p6TeV_madgraph-pythia8/NANOAODSIM/130X_mcRun3_2023_realistic_postBPix_v6-v2/2810000/4a49ef43-c02f-4a6c-af9c-7802c1659461.root",
        "T2_US_MIT: davs://xrootd.cmsaf.mit.edu:1094/store/mc/Run3Summer23BPixNanoAODv12/NMSSM_XtoYHto4B_MX-1800_MY-500_TuneCP5_13p6TeV_madgraph-pythia8/NANOAODSIM/130X_mcRun3_2023_realistic_postBPix_v6-v2/2810000/4a49ef43-c02f-4a6c-af9c-7802c1659461.root",
        "T1_FR_CCIN2P3_Tape: davs://ccdavcms-tape.in2p3.fr:2880/data/store/mc/Run3Summer23BPixNanoAODv12/NMSSM_XtoYHto4B_MX-1800_MY-500_TuneCP5_13p6TeV_madgraph-pythia8/NANOAODSIM/130X_mcRun3_2023_realistic_postBPix_v6-v2/2810000/4a49ef43-c02f-4a6c-af9c-7802c1659461.root",
        "T1_UK_RAL_Disk: davs://rdr.echo.stfc.ac.uk:1094/store/mc/Run3Summer23BPixNanoAODv12/NMSSM_XtoYHto4B_MX-1800_MY-500_TuneCP5_13p6TeV_madgraph-pythia8/NANOAODSIM/130X_mcRun3_2023_realistic_postBPix_v6-v2/2810000/4a49ef43-c02f-4a6c-af9c-7802c1659461.root",
        "T1_ES_PIC_Disk: davs://webdav-cms.pic.es:8459/pnfs/pic.es/data/cms/disk/store/mc/Run3Summer23BPixNanoAODv12/NMSSM_XtoYHto4B_MX-1800_MY-500_TuneCP5_13p6TeV_madgraph-pythia8/NANOAODSIM/130X_mcRun3_2023_realistic_postBPix_v6-v2/2810000/4a49ef43-c02f-4a6c-af9c-7802c1659461.root",
        "T1_US_FNAL_Tape_Test: davs://cmstnvm1.fnal.gov:2880/store/mc/Run3Summer23BPixNanoAODv12/NMSSM_XtoYHto4B_MX-1800_MY-500_TuneCP5_13p6TeV_madgraph-pythia8/NANOAODSIM/130X_mcRun3_2023_realistic_postBPix_v6-v2/2810000/4a49ef43-c02f-4a6c-af9c-7802c1659461.root",
        "T1_RU_JINR_Disk: davs://se-wbdv.jinr-t1.ru:2880/pnfs/jinr-t1.ru/data/cms/store/mc/Run3Summer23BPixNanoAODv12/NMSSM_XtoYHto4B_MX-1800_MY-500_TuneCP5_13p6TeV_madgraph-pythia8/NANOAODSIM/130X_mcRun3_2023_realistic_postBPix_v6-v2/2810000/4a49ef43-c02f-4a6c-af9c-7802c1659461.root"
    ],
    "cms:/store/mc/Run3Summer23BPixNanoAODv12/NMSSM_XtoYHto4B_MX-1800_MY-500_TuneCP5_13p6TeV_madgraph-pythia8/NANOAODSIM/130X_mcRun3_2023_realistic_postBPix_v6-v2/2810000/c47a05da-6700-489c-8f9e-bcd451605095.root": [
        "T1_US_FNAL_Disk: root://cmsdcadisk.fnal.gov:1094//dcache/uscmsdisk/store/mc/Run3Summer23BPixNanoAODv12/NMSSM_XtoYHto4B_MX-1800_MY-500_TuneCP5_13p6TeV_madgraph-pythia8/NANOAODSIM/130X_mcRun3_2023_realistic_postBPix_v6-v2/2810000/c47a05da-6700-489c-8f9e-bcd451605095.root",
        "T1_DE_KIT_Disk: davs://cmsdcache-kit-disk.gridka.de:2880/pnfs/gridka.de/cms/disk-only/store/mc/Run3Summer23BPixNanoAODv12/NMSSM_XtoYHto4B_MX-1800_MY-500_TuneCP5_13p6TeV_madgraph-pythia8/NANOAODSIM/130X_mcRun3_2023_realistic_postBPix_v6-v2/2810000/c47a05da-6700-489c-8f9e-bcd451605095.root",
        "T2_US_MIT: davs://xrootd.cmsaf.mit.edu:1094/store/mc/Run3Summer23BPixNanoAODv12/NMSSM_XtoYHto4B_MX-1800_MY-500_TuneCP5_13p6TeV_madgraph-pythia8/NANOAODSIM/130X_mcRun3_2023_realistic_postBPix_v6-v2/2810000/c47a05da-6700-489c-8f9e-bcd451605095.root",
        "T1_FR_CCIN2P3_Tape: davs://ccdavcms-tape.in2p3.fr:2880/data/store/mc/Run3Summer23BPixNanoAODv12/NMSSM_XtoYHto4B_MX-1800_MY-500_TuneCP5_13p6TeV_madgraph-pythia8/NANOAODSIM/130X_mcRun3_2023_realistic_postBPix_v6-v2/2810000/c47a05da-6700-489c-8f9e-bcd451605095.root",
        "T1_UK_RAL_Disk: davs://rdr.echo.stfc.ac.uk:1094/store/mc/Run3Summer23BPixNanoAODv12/NMSSM_XtoYHto4B_MX-1800_MY-500_TuneCP5_13p6TeV_madgraph-pythia8/NANOAODSIM/130X_mcRun3_2023_realistic_postBPix_v6-v2/2810000/c47a05da-6700-489c-8f9e-bcd451605095.root",
        "T1_ES_PIC_Disk: davs://webdav-cms.pic.es:8459/pnfs/pic.es/data/cms/disk/store/mc/Run3Summer23BPixNanoAODv12/NMSSM_XtoYHto4B_MX-1800_MY-500_TuneCP5_13p6TeV_madgraph-pythia8/NANOAODSIM/130X_mcRun3_2023_realistic_postBPix_v6-v2/2810000/c47a05da-6700-489c-8f9e-bcd451605095.root",
        "T1_US_FNAL_Tape_Test: davs://cmstnvm1.fnal.gov:2880/store/mc/Run3Summer23BPixNanoAODv12/NMSSM_XtoYHto4B_MX-1800_MY-500_TuneCP5_13p6TeV_madgraph-pythia8/NANOAODSIM/130X_mcRun3_2023_realistic_postBPix_v6-v2/2810000/c47a05da-6700-489c-8f9e-bcd451605095.root",
        "T1_RU_JINR_Disk: davs://se-wbdv.jinr-t1.ru:2880/pnfs/jinr-t1.ru/data/cms/store/mc/Run3Summer23BPixNanoAODv12/NMSSM_XtoYHto4B_MX-1800_MY-500_TuneCP5_13p6TeV_madgraph-pythia8/NANOAODSIM/130X_mcRun3_2023_realistic_postBPix_v6-v2/2810000/c47a05da-6700-489c-8f9e-bcd451605095.root"
    ],
    "cms:/store/mc/Run3Summer23BPixNanoAODv12/NMSSM_XtoYHto4B_MX-1800_MY-500_TuneCP5_13p6TeV_madgraph-pythia8/NANOAODSIM/130X_mcRun3_2023_realistic_postBPix_v6-v2/2810000/185329db-9379-461f-a525-d4d8a039a5db.root": [
        "T1_US_FNAL_Disk: davs://cmsdcadisk.fnal.gov:2880/dcache/uscmsdisk/store/mc/Run3Summer23BPixNanoAODv12/NMSSM_XtoYHto4B_MX-1800_MY-500_TuneCP5_13p6TeV_madgraph-pythia8/NANOAODSIM/130X_mcRun3_2023_realistic_postBPix_v6-v2/2810000/185329db-9379-461f-a525-d4d8a039a5db.root",
        "T1_DE_KIT_Disk: davs://cmsdcache-kit-disk.gridka.de:2880/pnfs/gridka.de/cms/disk-only/store/mc/Run3Summer23BPixNanoAODv12/NMSSM_XtoYHto4B_MX-1800_MY-500_TuneCP5_13p6TeV_madgraph-pythia8/NANOAODSIM/130X_mcRun3_2023_realistic_postBPix_v6-v2/2810000/185329db-9379-461f-a525-d4d8a039a5db.root",
        "T2_US_MIT: davs://xrootd.cmsaf.mit.edu:1094/store/mc/Run3Summer23BPixNanoAODv12/NMSSM_XtoYHto4B_MX-1800_MY-500_TuneCP5_13p6TeV_madgraph-pythia8/NANOAODSIM/130X_mcRun3_2023_realistic_postBPix_v6-v2/2810000/185329db-9379-461f-a525-d4d8a039a5db.root",
        "T1_FR_CCIN2P3_Tape: davs://ccdavcms-tape.in2p3.fr:2880/data/store/mc/Run3Summer23BPixNanoAODv12/NMSSM_XtoYHto4B_MX-1800_MY-500_TuneCP5_13p6TeV_madgraph-pythia8/NANOAODSIM/130X_mcRun3_2023_realistic_postBPix_v6-v2/2810000/185329db-9379-461f-a525-d4d8a039a5db.root",
        "T1_UK_RAL_Disk: davs://rdr.echo.stfc.ac.uk:1094/store/mc/Run3Summer23BPixNanoAODv12/NMSSM_XtoYHto4B_MX-1800_MY-500_TuneCP5_13p6TeV_madgraph-pythia8/NANOAODSIM/130X_mcRun3_2023_realistic_postBPix_v6-v2/2810000/185329db-9379-461f-a525-d4d8a039a5db.root",
        "T1_ES_PIC_Disk: davs://webdav-cms.pic.es:8459/pnfs/pic.es/data/cms/disk/store/mc/Run3Summer23BPixNanoAODv12/NMSSM_XtoYHto4B_MX-1800_MY-500_TuneCP5_13p6TeV_madgraph-pythia8/NANOAODSIM/130X_mcRun3_2023_realistic_postBPix_v6-v2/2810000/185329db-9379-461f-a525-d4d8a039a5db.root",
        "T1_US_FNAL_Tape_Test: davs://cmstnvm1.fnal.gov:2880/store/mc/Run3Summer23BPixNanoAODv12/NMSSM_XtoYHto4B_MX-1800_MY-500_TuneCP5_13p6TeV_madgraph-pythia8/NANOAODSIM/130X_mcRun3_2023_realistic_postBPix_v6-v2/2810000/185329db-9379-461f-a525-d4d8a039a5db.root",
        "T1_RU_JINR_Disk: davs://se-wbdv.jinr-t1.ru:2880/pnfs/jinr-t1.ru/data/cms/store/mc/Run3Summer23BPixNanoAODv12/NMSSM_XtoYHto4B_MX-1800_MY-500_TuneCP5_13p6TeV_madgraph-pythia8/NANOAODSIM/130X_mcRun3_2023_realistic_postBPix_v6-v2/2810000/185329db-9379-461f-a525-d4d8a039a5db.root",
        "T2_ES_CIEMAT: davs://srm.ciemat.es:2880/pnfs/ciemat.es/data/cms/prod/store/mc/Run3Summer23BPixNanoAODv12/NMSSM_XtoYHto4B_MX-1800_MY-500_TuneCP5_13p6TeV_madgraph-pythia8/NANOAODSIM/130X_mcRun3_2023_realistic_postBPix_v6-v2/2810000/185329db-9379-461f-a525-d4d8a039a5db.root"
    ],
    "cms:/store/mc/Run3Summer23BPixNanoAODv12/NMSSM_XtoYHto4B_MX-1800_MY-500_TuneCP5_13p6TeV_madgraph-pythia8/NANOAODSIM/130X_mcRun3_2023_realistic_postBPix_v6-v2/2810000/963d3199-59eb-4bc8-842e-9a01479fcd0d.root": [
        "T1_US_FNAL_Disk: root://cmsdcadisk.fnal.gov:1094//dcache/uscmsdisk/store/mc/Run3Summer23BPixNanoAODv12/NMSSM_XtoYHto4B_MX-1800_MY-500_TuneCP5_13p6TeV_madgraph-pythia8/NANOAODSIM/130X_mcRun3_2023_realistic_postBPix_v6-v2/2810000/963d3199-59eb-4bc8-842e-9a01479fcd0d.root",
        "T1_DE_KIT_Disk: davs://cmsdcache-kit-disk.gridka.de:2880/pnfs/gridka.de/cms/disk-only/store/mc/Run3Summer23BPixNanoAODv12/NMSSM_XtoYHto4B_MX-1800_MY-500_TuneCP5_13p6TeV_madgraph-pythia8/NANOAODSIM/130X_mcRun3_2023_realistic_postBPix_v6-v2/2810000/963d3199-59eb-4bc8-842e-9a01479fcd0d.root",
        "T2_US_MIT: davs://xrootd.cmsaf.mit.edu:1094/store/mc/Run3Summer23BPixNanoAODv12/NMSSM_XtoYHto4B_MX-1800_MY-500_TuneCP5_13p6TeV_madgraph-pythia8/NANOAODSIM/130X_mcRun3_2023_realistic_postBPix_v6-v2/2810000/963d3199-59eb-4bc8-842e-9a01479fcd0d.root",
        "T2_IT_Legnaro: davs://t2-xrdcms.lnl.infn.it:2880/pnfs/lnl.infn.it/data/cms/store/mc/Run3Summer23BPixNanoAODv12/NMSSM_XtoYHto4B_MX-1800_MY-500_TuneCP5_13p6TeV_madgraph-pythia8/NANOAODSIM/130X_mcRun3_2023_realistic_postBPix_v6-v2/2810000/963d3199-59eb-4bc8-842e-9a01479fcd0d.root",
        "T1_FR_CCIN2P3_Tape: davs://ccdavcms-tape.in2p3.fr:2880/data/store/mc/Run3Summer23BPixNanoAODv12/NMSSM_XtoYHto4B_MX-1800_MY-500_TuneCP5_13p6TeV_madgraph-pythia8/NANOAODSIM/130X_mcRun3_2023_realistic_postBPix_v6-v2/2810000/963d3199-59eb-4bc8-842e-9a01479fcd0d.root",
        "T1_UK_RAL_Disk: davs://rdr.echo.stfc.ac.uk:1094/store/mc/Run3Summer23BPixNanoAODv12/NMSSM_XtoYHto4B_MX-1800_MY-500_TuneCP5_13p6TeV_madgraph-pythia8/NANOAODSIM/130X_mcRun3_2023_realistic_postBPix_v6-v2/2810000/963d3199-59eb-4bc8-842e-9a01479fcd0d.root",
        "T1_ES_PIC_Disk: davs://webdav-cms.pic.es:8459/pnfs/pic.es/data/cms/disk/store/mc/Run3Summer23BPixNanoAODv12/NMSSM_XtoYHto4B_MX-1800_MY-500_TuneCP5_13p6TeV_madgraph-pythia8/NANOAODSIM/130X_mcRun3_2023_realistic_postBPix_v6-v2/2810000/963d3199-59eb-4bc8-842e-9a01479fcd0d.root",
        "T1_US_FNAL_Tape_Test: davs://cmstnvm1.fnal.gov:2880/store/mc/Run3Summer23BPixNanoAODv12/NMSSM_XtoYHto4B_MX-1800_MY-500_TuneCP5_13p6TeV_madgraph-pythia8/NANOAODSIM/130X_mcRun3_2023_realistic_postBPix_v6-v2/2810000/963d3199-59eb-4bc8-842e-9a01479fcd0d.root",
        "T2_IT_Pisa: davs://stwebdav.pi.infn.it:8443/cms/store/mc/Run3Summer23BPixNanoAODv12/NMSSM_XtoYHto4B_MX-1800_MY-500_TuneCP5_13p6TeV_madgraph-pythia8/NANOAODSIM/130X_mcRun3_2023_realistic_postBPix_v6-v2/2810000/963d3199-59eb-4bc8-842e-9a01479fcd0d.root",
        "T1_RU_JINR_Disk: davs://se-wbdv.jinr-t1.ru:2880/pnfs/jinr-t1.ru/data/cms/store/mc/Run3Summer23BPixNanoAODv12/NMSSM_XtoYHto4B_MX-1800_MY-500_TuneCP5_13p6TeV_madgraph-pythia8/NANOAODSIM/130X_mcRun3_2023_realistic_postBPix_v6-v2/2810000/963d3199-59eb-4bc8-842e-9a01479fcd0d.root"
    ],
    "cms:/store/mc/Run3Summer23BPixNanoAODv12/NMSSM_XtoYHto4B_MX-1800_MY-500_TuneCP5_13p6TeV_madgraph-pythia8/NANOAODSIM/130X_mcRun3_2023_realistic_postBPix_v6-v2/2810000/0115476d-f4f8-4e59-be86-34e27c69c7b1.root": [
        "T1_US_FNAL_Disk: root://cmsdcadisk.fnal.gov:1094//dcache/uscmsdisk/store/mc/Run3Summer23BPixNanoAODv12/NMSSM_XtoYHto4B_MX-1800_MY-500_TuneCP5_13p6TeV_madgraph-pythia8/NANOAODSIM/130X_mcRun3_2023_realistic_postBPix_v6-v2/2810000/0115476d-f4f8-4e59-be86-34e27c69c7b1.root",
        "T1_DE_KIT_Disk: davs://cmsdcache-kit-disk.gridka.de:2880/pnfs/gridka.de/cms/disk-only/store/mc/Run3Summer23BPixNanoAODv12/NMSSM_XtoYHto4B_MX-1800_MY-500_TuneCP5_13p6TeV_madgraph-pythia8/NANOAODSIM/130X_mcRun3_2023_realistic_postBPix_v6-v2/2810000/0115476d-f4f8-4e59-be86-34e27c69c7b1.root",
        "T2_US_MIT: davs://xrootd.cmsaf.mit.edu:1094/store/mc/Run3Summer23BPixNanoAODv12/NMSSM_XtoYHto4B_MX-1800_MY-500_TuneCP5_13p6TeV_madgraph-pythia8/NANOAODSIM/130X_mcRun3_2023_realistic_postBPix_v6-v2/2810000/0115476d-f4f8-4e59-be86-34e27c69c7b1.root",
        "T1_FR_CCIN2P3_Tape: davs://ccdavcms-tape.in2p3.fr:2880/data/store/mc/Run3Summer23BPixNanoAODv12/NMSSM_XtoYHto4B_MX-1800_MY-500_TuneCP5_13p6TeV_madgraph-pythia8/NANOAODSIM/130X_mcRun3_2023_realistic_postBPix_v6-v2/2810000/0115476d-f4f8-4e59-be86-34e27c69c7b1.root",
        "T1_UK_RAL_Disk: davs://rdr.echo.stfc.ac.uk:1094/store/mc/Run3Summer23BPixNanoAODv12/NMSSM_XtoYHto4B_MX-1800_MY-500_TuneCP5_13p6TeV_madgraph-pythia8/NANOAODSIM/130X_mcRun3_2023_realistic_postBPix_v6-v2/2810000/0115476d-f4f8-4e59-be86-34e27c69c7b1.root",
        "T1_ES_PIC_Disk: davs://webdav-cms.pic.es:8459/pnfs/pic.es/data/cms/disk/store/mc/Run3Summer23BPixNanoAODv12/NMSSM_XtoYHto4B_MX-1800_MY-500_TuneCP5_13p6TeV_madgraph-pythia8/NANOAODSIM/130X_mcRun3_2023_realistic_postBPix_v6-v2/2810000/0115476d-f4f8-4e59-be86-34e27c69c7b1.root",
        "T1_US_FNAL_Tape_Test: davs://cmstnvm1.fnal.gov:2880/store/mc/Run3Summer23BPixNanoAODv12/NMSSM_XtoYHto4B_MX-1800_MY-500_TuneCP5_13p6TeV_madgraph-pythia8/NANOAODSIM/130X_mcRun3_2023_realistic_postBPix_v6-v2/2810000/0115476d-f4f8-4e59-be86-34e27c69c7b1.root",
        "T1_RU_JINR_Disk: davs://se-wbdv.jinr-t1.ru:2880/pnfs/jinr-t1.ru/data/cms/store/mc/Run3Summer23BPixNanoAODv12/NMSSM_XtoYHto4B_MX-1800_MY-500_TuneCP5_13p6TeV_madgraph-pythia8/NANOAODSIM/130X_mcRun3_2023_realistic_postBPix_v6-v2/2810000/0115476d-f4f8-4e59-be86-34e27c69c7b1.root"
    ]
}