#/NMSSM_XtoYHto4B_MX-2000_MY-125_TuneCP5_13p6TeV_madgraph-pythia8/Run3Summer23NanoAODv12-130X_mcRun3_2023_realistic_v15-v2/NANOAODSIM
+-----------------------------------------------------------------------------------------------------------------------------------------------------------------------------------------------------+--------+-------------+------------+----------+
| SCOPE:NAME                                                                                                                                                                                          | GUID   | ADLER32     | FILESIZE   | EVENTS   |
|-----------------------------------------------------------------------------------------------------------------------------------------------------------------------------------------------------+--------+-------------+------------+----------|
| cms:/store/mc/Run3Summer23NanoAODv12/NMSSM_XtoYHto4B_MX-2000_MY-125_TuneCP5_13p6TeV_madgraph-pythia8/NANOAODSIM/130X_mcRun3_2023_realistic_v15-v2/2550000/c646099d-1043-4bd9-9fd8-89239ae24607.root | (None) | ad:0a27d2d8 | 19.979 MB  |          |
| cms:/store/mc/Run3Summer23NanoAODv12/NMSSM_XtoYHto4B_MX-2000_MY-125_TuneCP5_13p6TeV_madgraph-pythia8/NANOAODSIM/130X_mcRun3_2023_realistic_v15-v2/2550000/66ba30cf-76f6-48c6-87f7-76e5b3fc8db3.root | (None) | ad:f63e1e0f | 28.457 MB  |          |
| cms:/store/mc/Run3Summer23NanoAODv12/NMSSM_XtoYHto4B_MX-2000_MY-125_TuneCP5_13p6TeV_madgraph-pythia8/NANOAODSIM/130X_mcRun3_2023_realistic_v15-v2/2550000/e59afc87-6e7c-4e90-8fb9-4f07da85462d.root | (None) | ad:b9741f1a | 5.753 MB   |          |
| cms:/store/mc/Run3Summer23NanoAODv12/NMSSM_XtoYHto4B_MX-2000_MY-125_TuneCP5_13p6TeV_madgraph-pythia8/NANOAODSIM/130X_mcRun3_2023_realistic_v15-v2/2550000/f869f541-847e-4ca3-a308-dc3b5b856208.root | (None) | ad:fc1df880 | 11.620 MB  |          |
| cms:/store/mc/Run3Summer23NanoAODv12/NMSSM_XtoYHto4B_MX-2000_MY-125_TuneCP5_13p6TeV_madgraph-pythia8/NANOAODSIM/130X_mcRun3_2023_realistic_v15-v2/2550000/3b2db461-0dcd-40c6-8bc2-2a4c22d58267.root | (None) | ad:59dc814c | 20.015 MB  |          |
| cms:/store/mc/Run3Summer23NanoAODv12/NMSSM_XtoYHto4B_MX-2000_MY-125_TuneCP5_13p6TeV_madgraph-pythia8/NANOAODSIM/130X_mcRun3_2023_realistic_v15-v2/2550000/89589411-5e2a-423f-8b07-49464119854e.root | (None) | ad:667c764a | 11.541 MB  |          |
| cms:/store/mc/Run3Summer23NanoAODv12/NMSSM_XtoYHto4B_MX-2000_MY-125_TuneCP5_13p6TeV_madgraph-pythia8/NANOAODSIM/130X_mcRun3_2023_realistic_v15-v2/2550000/33cf41c4-c04b-4de4-b1e0-fc2d4631c8c5.root | (None) | ad:fa919333 | 62.345 MB  |          |
| cms:/store/mc/Run3Summer23NanoAODv12/NMSSM_XtoYHto4B_MX-2000_MY-125_TuneCP5_13p6TeV_madgraph-pythia8/NANOAODSIM/130X_mcRun3_2023_realistic_v15-v2/2550000/de5c3b17-2db2-4539-8f94-a9e3eedec035.root | (None) | ad:4c0794ba | 11.514 MB  |          |
| cms:/store/mc/Run3Summer23NanoAODv12/NMSSM_XtoYHto4B_MX-2000_MY-125_TuneCP5_13p6TeV_madgraph-pythia8/NANOAODSIM/130X_mcRun3_2023_realistic_v15-v2/2550000/66ed25ce-ba8d-4b55-8a88-b5d6e631b9ed.root | (None) | ad:cbe055d4 | 20.033 MB  |          |
| cms:/store/mc/Run3Summer23NanoAODv12/NMSSM_XtoYHto4B_MX-2000_MY-125_TuneCP5_13p6TeV_madgraph-pythia8/NANOAODSIM/130X_mcRun3_2023_realistic_v15-v2/2550000/8ebba41d-0972-493d-8eca-696abbbc904d.root | (None) | ad:896b7028 | 11.511 MB  |          |
| cms:/store/mc/Run3Summer23NanoAODv12/NMSSM_XtoYHto4B_MX-2000_MY-125_TuneCP5_13p6TeV_madgraph-pythia8/NANOAODSIM/130X_mcRun3_2023_realistic_v15-v2/2550000/afc9e3aa-dd76-4843-bac1-f55e61e0c33c.root | (None) | ad:a3bc7db1 | 11.530 MB  |          |
+-----------------------------------------------------------------------------------------------------------------------------------------------------------------------------------------------------+--------+-------------+------------+----------+
Total files : 11
Total size : 214.298 MB
