{
    "cms:/store/mc/Run3Summer22NanoAODv12/NMSSM_XtoYHto4B_MX-2500_MY-1800_TuneCP5_13p6TeV_madgraph-pythia8/NANOAODSIM/130X_mcRun3_2022_realistic_v5-v2/60000/f58f0c05-9f15-410c-bdd3-a96dfb413173.root": [
        "T1_US_FNAL_Disk: davs://cmsdcadisk.fnal.gov:2880/dcache/uscmsdisk/store/mc/Run3Summer22NanoAODv12/NMSSM_XtoYHto4B_MX-2500_MY-1800_TuneCP5_13p6TeV_madgraph-pythia8/NANOAODSIM/130X_mcRun3_2022_realistic_v5-v2/60000/f58f0c05-9f15-410c-bdd3-a96dfb413173.root",
        "T1_FR_CCIN2P3_Disk: davs://ccdavcms.in2p3.fr:2880/disk/data/store/mc/Run3Summer22NanoAODv12/NMSSM_XtoYHto4B_MX-2500_MY-1800_TuneCP5_13p6TeV_madgraph-pythia8/NANOAODSIM/130X_mcRun3_2022_realistic_v5-v2/60000/f58f0c05-9f15-410c-bdd3-a96dfb413173.root",
        "T2_IT_Bari: davs://webdav.recas.ba.infn.it:8443/cms/store/mc/Run3Summer22NanoAODv12/NMSSM_XtoYHto4B_MX-2500_MY-1800_TuneCP5_13p6TeV_madgraph-pythia8/NANOAODSIM/130X_mcRun3_2022_realistic_v5-v2/60000/f58f0c05-9f15-410c-bdd3-a96dfb413173.root",
        "T2_US_Vanderbilt: davs://xrootd-vanderbilt.sites.opensciencegrid.org:1094/store/mc/Run3Summer22NanoAODv12/NMSSM_XtoYHto4B_MX-2500_MY-1800_TuneCP5_13p6TeV_madgraph-pythia8/NANOAODSIM/130X_mcRun3_2022_realistic_v5-v2/60000/f58f0c05-9f15-410c-bdd3-a96dfb413173.root",
        "T2_FI_HIP: davs://hip-cms-se.csc.fi:2880/store/mc/Run3Summer22NanoAODv12/NMSSM_XtoYHto4B_MX-2500_MY-1800_TuneCP5_13p6TeV_madgraph-pythia8/NANOAODSIM/130X_mcRun3_2022_realistic_v5-v2/60000/f58f0c05-9f15-410c-bdd3-a96dfb413173.root",
        "T1_US_FNAL_Tape: davs://cmsdcatape.fnal.gov:2880/WAX/11/store/mc/Run3Summer22NanoAODv12/NMSSM_XtoYHto4B_MX-2500_MY-1800_TuneCP5_13p6TeV_madgraph-pythia8/NANOAODSIM/130X_mcRun3_2022_realistic_v5-v2/60000/f58f0c05-9f15-410c-bdd3-a96dfb413173.root",
        "T2_DE_RWTH: davs://grid-webdav.physik.rwth-aachen.de:2889/store/mc/Run3Summer22NanoAODv12/NMSSM_XtoYHto4B_MX-2500_MY-1800_TuneCP5_13p6TeV_madgraph-pythia8/NANOAODSIM/130X_mcRun3_2022_realistic_v5-v2/60000/f58f0c05-9f15-410c-bdd3-a96dfb413173.root"
    ]
}