{
    "cms:/store/mc/Run3Summer23NanoAODv12/NMSSM_XtoYHto4B_MX-1400_MY-70_TuneCP5_13p6TeV_madgraph-pythia8/NANOAODSIM/130X_mcRun3_2023_realistic_v15-v2/2810000/1c558132-4155-46e3-a437-dc736318eaff.root": [
        "T1_DE_KIT_Disk: davs://cmsdcache-kit-disk.gridka.de:2880/pnfs/gridka.de/cms/disk-only/store/mc/Run3Summer23NanoAODv12/NMSSM_XtoYHto4B_MX-1400_MY-70_TuneCP5_13p6TeV_madgraph-pythia8/NANOAODSIM/130X_mcRun3_2023_realistic_v15-v2/2810000/1c558132-4155-46e3-a437-dc736318eaff.root",
        "T2_US_MIT: davs://xrootd.cmsaf.mit.edu:1094/store/mc/Run3Summer23NanoAODv12/NMSSM_XtoYHto4B_MX-1400_MY-70_TuneCP5_13p6TeV_madgraph-pythia8/NANOAODSIM/130X_mcRun3_2023_realistic_v15-v2/2810000/1c558132-4155-46e3-a437-dc736318eaff.root",
        "T2_BE_UCL: davs://ingrid-se02.cism.ucl.ac.be:1094/store/mc/Run3Summer23NanoAODv12/NMSSM_XtoYHto4B_MX-1400_MY-70_TuneCP5_13p6TeV_madgraph-pythia8/NANOAODSIM/130X_mcRun3_2023_realistic_v15-v2/2810000/1c558132-4155-46e3-a437-dc736318eaff.root",
        "T1_US_FNAL_Tape_Test: davs://cmstnvm1.fnal.gov:2880/store/mc/Run3Summer23NanoAODv12/NMSSM_XtoYHto4B_MX-1400_MY-70_TuneCP5_13p6TeV_madgraph-pythia8/NANOAODSIM/130X_mcRun3_2023_realistic_v15-v2/2810000/1c558132-4155-46e3-a437-dc736318eaff.root",
        "T2_US_Wisconsin: davs://cmsxrootd.hep.wisc.edu:1094/store/mc/Run3Summer23NanoAODv12/NMSSM_XtoYHto4B_MX-1400_MY-70_TuneCP5_13p6TeV_madgraph-pythia8/NANOAODSIM/130X_mcRun3_2023_realistic_v15-v2/2810000/1c558132-4155-46e3-a437-dc736318eaff.root",
        "T2_EE_Estonia: davs://xrootd.hep.kbfi.ee:1094/store/mc/Run3Summer23NanoAODv12/NMSSM_XtoYHto4B_MX-1400_MY-70_TuneCP5_13p6TeV_madgraph-pythia8/NANOAODSIM/130X_mcRun3_2023_realistic_v15-v2/2810000/1c558132-4155-46e3-a437-dc736318eaff.root",
        "T2_UK_London_IC: davs://gfe02.grid.hep.ph.ic.ac.uk:2880/pnfs/hep.ph.ic.ac.uk/data/cms/store/mc/Run3Summer23NanoAODv12/NMSSM_XtoYHto4B_MX-1400_MY-70_TuneCP5_13p6TeV_madgraph-pythia8/NANOAODSIM/130X_mcRun3_2023_realistic_v15-v2/2810000/1c558132-4155-46e3-a437-dc736318eaff.root",
        "T2_US_MIT_Tape: davs://dtn20.nese.mghpcc.org:443/store/mc/Run3Summer23NanoAODv12/NMSSM_XtoYHto4B_MX-1400_MY-70_TuneCP5_13p6TeV_madgraph-pythia8/NANOAODSIM/130X_mcRun3_2023_realistic_v15-v2/2810000/1c558132-4155-46e3-a437-dc736318eaff.root"
    ],
    "cms:/store/mc/Run3Summer23NanoAODv12/NMSSM_XtoYHto4B_MX-1400_MY-70_TuneCP5_13p6TeV_madgraph-pythia8/NANOAODSIM/130X_mcRun3_2023_realistic_v15-v2/2810000/469843cb-bde2-4d99-8f5b-10205e8f6fb5.root": [
        "T1_DE_KIT_Disk: davs://cmsdcache-kit-disk.gridka.de:2880/pnfs/gridka.de/cms/disk-only/store/mc/Run3Summer23NanoAODv12/NMSSM_XtoYHto4B_MX-1400_MY-70_TuneCP5_13p6TeV_madgraph-pythia8/NANOAODSIM/130X_mcRun3_2023_realistic_v15-v2/2810000/469843cb-bde2-4d99-8f5b-10205e8f6fb5.root",
        "T2_US_MIT: davs://xrootd.cmsaf.mit.edu:1094/store/mc/Run3Summer23NanoAODv12/NMSSM_XtoYHto4B_MX-1400_MY-70_TuneCP5_13p6TeV_madgraph-pythia8/NANOAODSIM/130X_mcRun3_2023_realistic_v15-v2/2810000/469843cb-bde2-4d99-8f5b-10205e8f6fb5.root",
        "T2_BE_UCL: davs://ingrid-se02.cism.ucl.ac.be:1094/store/mc/Run3Summer23NanoAODv12/NMSSM_XtoYHto4B_MX-1400_MY-70_TuneCP5_13p6TeV_madgraph-pythia8/NANOAODSIM/130X_mcRun3_2023_realistic_v15-v2/2810000/469843cb-bde2-4d99-8f5b-10205e8f6fb5.root",
        "T1_US_FNAL_Tape_Test: davs://cmstnvm1.fnal.gov:2880/store/mc/Run3Summer23NanoAODv12/NMSSM_XtoYHto4B_MX-1400_MY-70_TuneCP5_13p6TeV_madgraph-pythia8/NANOAODSIM/130X_mcRun3_2023_realistic_v15-v2/2810000/469843cb-bde2-4d99-8f5b-10205e8f6fb5.root",
        "T2_US_Wisconsin: davs://cmsxrootd.hep.wisc.edu:1094/store/mc/Run3Summer23NanoAODv12/NMSSM_XtoYHto4B_MX-1400_MY-70_TuneCP5_13p6TeV_madgraph-pythia8/NANOAODSIM/130X_mcRun3_2023_realistic_v15-v2/2810000/469843cb-bde2-4d99-8f5b-10205e8f6fb5.root",
        "T2_EE_Estonia: davs://xrootd.hep.kbfi.ee:1094/store/mc/Run3Summer23NanoAODv12/NMSSM_XtoYHto4B_MX-1400_MY-70_TuneCP5_13p6TeV_madgraph-pythia8/NANOAODSIM/130X_mcRun3_2023_realistic_v15-v2/2810000/469843cb-bde2-4d99-8f5b-10205e8f6fb5.root",
        "T1_RU_JINR_Disk: davs://se-wbdv.jinr-t1.ru:2880/pnfs/jinr-t1.ru/data/cms/store/mc/Run3Summer23NanoAODv12/NMSSM_XtoYHto4B_MX-1400_MY-70_TuneCP5_13p6TeV_madgraph-pythia8/NANOAODSIM/130X_mcRun3_2023_realistic_v15-v2/2810000/469843cb-bde2-4d99-8f5b-10205e8f6fb5.root",
        "T2_UK_London_IC: davs://gfe02.grid.hep.ph.ic.ac.uk:2880/pnfs/hep.ph.ic.ac.uk/data/cms/store/mc/Run3Summer23NanoAODv12/NMSSM_XtoYHto4B_MX-1400_MY-70_TuneCP5_13p6TeV_madgraph-pythia8/NANOAODSIM/130X_mcRun3_2023_realistic_v15-v2/2810000/469843cb-bde2-4d99-8f5b-10205e8f6fb5.root",
        "T2_US_MIT_Tape: davs://dtn20.nese.mghpcc.org:443/store/mc/Run3Summer23NanoAODv12/NMSSM_XtoYHto4B_MX-1400_MY-70_TuneCP5_13p6TeV_madgraph-pythia8/NANOAODSIM/130X_mcRun3_2023_realistic_v15-v2/2810000/469843cb-bde2-4d99-8f5b-10205e8f6fb5.root"
    ],
    "cms:/store/mc/Run3Summer23NanoAODv12/NMSSM_XtoYHto4B_MX-1400_MY-70_TuneCP5_13p6TeV_madgraph-pythia8/NANOAODSIM/130X_mcRun3_2023_realistic_v15-v2/2810000/9471c572-1cba-42a0-9a9e-49cdf414ca4a.root": [
        "T1_DE_KIT_Disk: davs://cmsdcache-kit-disk.gridka.de:2880/pnfs/gridka.de/cms/disk-only/store/mc/Run3Summer23NanoAODv12/NMSSM_XtoYHto4B_MX-1400_MY-70_TuneCP5_13p6TeV_madgraph-pythia8/NANOAODSIM/130X_mcRun3_2023_realistic_v15-v2/2810000/9471c572-1cba-42a0-9a9e-49cdf414ca4a.root",
        "T2_US_MIT: davs://xrootd.cmsaf.mit.edu:1094/store/mc/Run3Summer23NanoAODv12/NMSSM_XtoYHto4B_MX-1400_MY-70_TuneCP5_13p6TeV_madgraph-pythia8/NANOAODSIM/130X_mcRun3_2023_realistic_v15-v2/2810000/9471c572-1cba-42a0-9a9e-49cdf414ca4a.root",
        "T2_BE_UCL: davs://ingrid-se02.cism.ucl.ac.be:1094/store/mc/Run3Summer23NanoAODv12/NMSSM_XtoYHto4B_MX-1400_MY-70_TuneCP5_13p6TeV_madgraph-pythia8/NANOAODSIM/130X_mcRun3_2023_realistic_v15-v2/2810000/9471c572-1cba-42a0-9a9e-49cdf414ca4a.root",
        "T1_US_FNAL_Tape_Test: davs://cmstnvm1.fnal.gov:2880/store/mc/Run3Summer23NanoAODv12/NMSSM_XtoYHto4B_MX-1400_MY-70_TuneCP5_13p6TeV_madgraph-pythia8/NANOAODSIM/130X_mcRun3_2023_realistic_v15-v2/2810000/9471c572-1cba-42a0-9a9e-49cdf414ca4a.root",
        "T2_US_Wisconsin: davs://cmsxrootd.hep.wisc.edu:1094/store/mc/Run3Summer23NanoAODv12/NMSSM_XtoYHto4B_MX-1400_MY-70_TuneCP5_13p6TeV_madgraph-pythia8/NANOAODSIM/130X_mcRun3_2023_realistic_v15-v2/2810000/9471c572-1cba-42a0-9a9e-49cdf414ca4a.root",
        "T2_EE_Estonia: davs://xrootd.hep.kbfi.ee:1094/store/mc/Run3Summer23NanoAODv12/NMSSM_XtoYHto4B_MX-1400_MY-70_TuneCP5_13p6TeV_madgraph-pythia8/NANOAODSIM/130X_mcRun3_2023_realistic_v15-v2/2810000/9471c572-1cba-42a0-9a9e-49cdf414ca4a.root",
        "T2_UK_London_IC: davs://gfe02.grid.hep.ph.ic.ac.uk:2880/pnfs/hep.ph.ic.ac.uk/data/cms/store/mc/Run3Summer23NanoAODv12/NMSSM_XtoYHto4B_MX-1400_MY-70_TuneCP5_13p6TeV_madgraph-pythia8/NANOAODSIM/130X_mcRun3_2023_realistic_v15-v2/2810000/9471c572-1cba-42a0-9a9e-49cdf414ca4a.root",
        "T2_US_MIT_Tape: davs://dtn20.nese.mghpcc.org:443/store/mc/Run3Summer23NanoAODv12/NMSSM_XtoYHto4B_MX-1400_MY-70_TuneCP5_13p6TeV_madgraph-pythia8/NANOAODSIM/130X_mcRun3_2023_realistic_v15-v2/2810000/9471c572-1cba-42a0-9a9e-49cdf414ca4a.root"
    ],
    "cms:/store/mc/Run3Summer23NanoAODv12/NMSSM_XtoYHto4B_MX-1400_MY-70_TuneCP5_13p6TeV_madgraph-pythia8/NANOAODSIM/130X_mcRun3_2023_realistic_v15-v2/2810000/857f8c37-6199-41d6-8324-4afa59482b2f.root": [
        "T1_DE_KIT_Disk: davs://cmsdcache-kit-disk.gridka.de:2880/pnfs/gridka.de/cms/disk-only/store/mc/Run3Summer23NanoAODv12/NMSSM_XtoYHto4B_MX-1400_MY-70_TuneCP5_13p6TeV_madgraph-pythia8/NANOAODSIM/130X_mcRun3_2023_realistic_v15-v2/2810000/857f8c37-6199-41d6-8324-4afa59482b2f.root",
        "T2_US_MIT: davs://xrootd.cmsaf.mit.edu:1094/store/mc/Run3Summer23NanoAODv12/NMSSM_XtoYHto4B_MX-1400_MY-70_TuneCP5_13p6TeV_madgraph-pythia8/NANOAODSIM/130X_mcRun3_2023_realistic_v15-v2/2810000/857f8c37-6199-41d6-8324-4afa59482b2f.root",
        "T2_BE_UCL: davs://ingrid-se02.cism.ucl.ac.be:1094/store/mc/Run3Summer23NanoAODv12/NMSSM_XtoYHto4B_MX-1400_MY-70_TuneCP5_13p6TeV_madgraph-pythia8/NANOAODSIM/130X_mcRun3_2023_realistic_v15-v2/2810000/857f8c37-6199-41d6-8324-4afa59482b2f.root",
        "T1_US_FNAL_Tape_Test: davs://cmstnvm1.fnal.gov:2880/store/mc/Run3Summer23NanoAODv12/NMSSM_XtoYHto4B_MX-1400_MY-70_TuneCP5_13p6TeV_madgraph-pythia8/NANOAODSIM/130X_mcRun3_2023_realistic_v15-v2/2810000/857f8c37-6199-41d6-8324-4afa59482b2f.root",
        "T2_US_Wisconsin: davs://cmsxrootd.hep.wisc.edu:1094/store/mc/Run3Summer23NanoAODv12/NMSSM_XtoYHto4B_MX-1400_MY-70_TuneCP5_13p6TeV_madgraph-pythia8/NANOAODSIM/130X_mcRun3_2023_realistic_v15-v2/2810000/857f8c37-6199-41d6-8324-4afa59482b2f.root",
        "T2_EE_Estonia: davs://xrootd.hep.kbfi.ee:1094/store/mc/Run3Summer23NanoAODv12/NMSSM_XtoYHto4B_MX-1400_MY-70_TuneCP5_13p6TeV_madgraph-pythia8/NANOAODSIM/130X_mcRun3_2023_realistic_v15-v2/2810000/857f8c37-6199-41d6-8324-4afa59482b2f.root",
        "T2_UK_London_IC: davs://gfe02.grid.hep.ph.ic.ac.uk:2880/pnfs/hep.ph.ic.ac.uk/data/cms/store/mc/Run3Summer23NanoAODv12/NMSSM_XtoYHto4B_MX-1400_MY-70_TuneCP5_13p6TeV_madgraph-pythia8/NANOAODSIM/130X_mcRun3_2023_realistic_v15-v2/2810000/857f8c37-6199-41d6-8324-4afa59482b2f.root",
        "T2_US_MIT_Tape: davs://dtn20.nese.mghpcc.org:443/store/mc/Run3Summer23NanoAODv12/NMSSM_XtoYHto4B_MX-1400_MY-70_TuneCP5_13p6TeV_madgraph-pythia8/NANOAODSIM/130X_mcRun3_2023_realistic_v15-v2/2810000/857f8c37-6199-41d6-8324-4afa59482b2f.root"
    ],
    "cms:/store/mc/Run3Summer23NanoAODv12/NMSSM_XtoYHto4B_MX-1400_MY-70_TuneCP5_13p6TeV_madgraph-pythia8/NANOAODSIM/130X_mcRun3_2023_realistic_v15-v2/2810000/cede698f-731a-4ba1-8d21-2dd218079e45.root": [
        "T1_DE_KIT_Disk: davs://cmsdcache-kit-disk.gridka.de:2880/pnfs/gridka.de/cms/disk-only/store/mc/Run3Summer23NanoAODv12/NMSSM_XtoYHto4B_MX-1400_MY-70_TuneCP5_13p6TeV_madgraph-pythia8/NANOAODSIM/130X_mcRun3_2023_realistic_v15-v2/2810000/cede698f-731a-4ba1-8d21-2dd218079e45.root",
        "T2_US_MIT: davs://xrootd.cmsaf.mit.edu:1094/store/mc/Run3Summer23NanoAODv12/NMSSM_XtoYHto4B_MX-1400_MY-70_TuneCP5_13p6TeV_madgraph-pythia8/NANOAODSIM/130X_mcRun3_2023_realistic_v15-v2/2810000/cede698f-731a-4ba1-8d21-2dd218079e45.root",
        "T2_BE_UCL: davs://ingrid-se02.cism.ucl.ac.be:1094/store/mc/Run3Summer23NanoAODv12/NMSSM_XtoYHto4B_MX-1400_MY-70_TuneCP5_13p6TeV_madgraph-pythia8/NANOAODSIM/130X_mcRun3_2023_realistic_v15-v2/2810000/cede698f-731a-4ba1-8d21-2dd218079e45.root",
        "T1_US_FNAL_Tape_Test: davs://cmstnvm1.fnal.gov:2880/store/mc/Run3Summer23NanoAODv12/NMSSM_XtoYHto4B_MX-1400_MY-70_TuneCP5_13p6TeV_madgraph-pythia8/NANOAODSIM/130X_mcRun3_2023_realistic_v15-v2/2810000/cede698f-731a-4ba1-8d21-2dd218079e45.root",
        "T2_US_Wisconsin: davs://cmsxrootd.hep.wisc.edu:1094/store/mc/Run3Summer23NanoAODv12/NMSSM_XtoYHto4B_MX-1400_MY-70_TuneCP5_13p6TeV_madgraph-pythia8/NANOAODSIM/130X_mcRun3_2023_realistic_v15-v2/2810000/cede698f-731a-4ba1-8d21-2dd218079e45.root",
        "T2_EE_Estonia: davs://xrootd.hep.kbfi.ee:1094/store/mc/Run3Summer23NanoAODv12/NMSSM_XtoYHto4B_MX-1400_MY-70_TuneCP5_13p6TeV_madgraph-pythia8/NANOAODSIM/130X_mcRun3_2023_realistic_v15-v2/2810000/cede698f-731a-4ba1-8d21-2dd218079e45.root",
        "T2_UK_London_IC: davs://gfe02.grid.hep.ph.ic.ac.uk:2880/pnfs/hep.ph.ic.ac.uk/data/cms/store/mc/Run3Summer23NanoAODv12/NMSSM_XtoYHto4B_MX-1400_MY-70_TuneCP5_13p6TeV_madgraph-pythia8/NANOAODSIM/130X_mcRun3_2023_realistic_v15-v2/2810000/cede698f-731a-4ba1-8d21-2dd218079e45.root",
        "T2_US_MIT_Tape: davs://dtn20.nese.mghpcc.org:443/store/mc/Run3Summer23NanoAODv12/NMSSM_XtoYHto4B_MX-1400_MY-70_TuneCP5_13p6TeV_madgraph-pythia8/NANOAODSIM/130X_mcRun3_2023_realistic_v15-v2/2810000/cede698f-731a-4ba1-8d21-2dd218079e45.root"
    ],
    "cms:/store/mc/Run3Summer23NanoAODv12/NMSSM_XtoYHto4B_MX-1400_MY-70_TuneCP5_13p6TeV_madgraph-pythia8/NANOAODSIM/130X_mcRun3_2023_realistic_v15-v2/2810000/80cd0296-a4b4-4fc5-94e4-6eaaf38c5112.root": [
        "T1_DE_KIT_Disk: davs://cmsdcache-kit-disk.gridka.de:2880/pnfs/gridka.de/cms/disk-only/store/mc/Run3Summer23NanoAODv12/NMSSM_XtoYHto4B_MX-1400_MY-70_TuneCP5_13p6TeV_madgraph-pythia8/NANOAODSIM/130X_mcRun3_2023_realistic_v15-v2/2810000/80cd0296-a4b4-4fc5-94e4-6eaaf38c5112.root",
        "T2_US_MIT: davs://xrootd.cmsaf.mit.edu:1094/store/mc/Run3Summer23NanoAODv12/NMSSM_XtoYHto4B_MX-1400_MY-70_TuneCP5_13p6TeV_madgraph-pythia8/NANOAODSIM/130X_mcRun3_2023_realistic_v15-v2/2810000/80cd0296-a4b4-4fc5-94e4-6eaaf38c5112.root",
        "T2_BE_UCL: davs://ingrid-se02.cism.ucl.ac.be:1094/store/mc/Run3Summer23NanoAODv12/NMSSM_XtoYHto4B_MX-1400_MY-70_TuneCP5_13p6TeV_madgraph-pythia8/NANOAODSIM/130X_mcRun3_2023_realistic_v15-v2/2810000/80cd0296-a4b4-4fc5-94e4-6eaaf38c5112.root",
        "T1_US_FNAL_Tape_Test: davs://cmstnvm1.fnal.gov:2880/store/mc/Run3Summer23NanoAODv12/NMSSM_XtoYHto4B_MX-1400_MY-70_TuneCP5_13p6TeV_madgraph-pythia8/NANOAODSIM/130X_mcRun3_2023_realistic_v15-v2/2810000/80cd0296-a4b4-4fc5-94e4-6eaaf38c5112.root",
        "T2_US_Wisconsin: davs://cmsxrootd.hep.wisc.edu:1094/store/mc/Run3Summer23NanoAODv12/NMSSM_XtoYHto4B_MX-1400_MY-70_TuneCP5_13p6TeV_madgraph-pythia8/NANOAODSIM/130X_mcRun3_2023_realistic_v15-v2/2810000/80cd0296-a4b4-4fc5-94e4-6eaaf38c5112.root",
        "T2_EE_Estonia: davs://xrootd.hep.kbfi.ee:1094/store/mc/Run3Summer23NanoAODv12/NMSSM_XtoYHto4B_MX-1400_MY-70_TuneCP5_13p6TeV_madgraph-pythia8/NANOAODSIM/130X_mcRun3_2023_realistic_v15-v2/2810000/80cd0296-a4b4-4fc5-94e4-6eaaf38c5112.root",
        "T2_UK_London_IC: davs://gfe02.grid.hep.ph.ic.ac.uk:2880/pnfs/hep.ph.ic.ac.uk/data/cms/store/mc/Run3Summer23NanoAODv12/NMSSM_XtoYHto4B_MX-1400_MY-70_TuneCP5_13p6TeV_madgraph-pythia8/NANOAODSIM/130X_mcRun3_2023_realistic_v15-v2/2810000/80cd0296-a4b4-4fc5-94e4-6eaaf38c5112.root",
        "T2_US_MIT_Tape: davs://dtn20.nese.mghpcc.org:443/store/mc/Run3Summer23NanoAODv12/NMSSM_XtoYHto4B_MX-1400_MY-70_TuneCP5_13p6TeV_madgraph-pythia8/NANOAODSIM/130X_mcRun3_2023_realistic_v15-v2/2810000/80cd0296-a4b4-4fc5-94e4-6eaaf38c5112.root"
    ],
    "cms:/store/mc/Run3Summer23NanoAODv12/NMSSM_XtoYHto4B_MX-1400_MY-70_TuneCP5_13p6TeV_madgraph-pythia8/NANOAODSIM/130X_mcRun3_2023_realistic_v15-v2/2810000/2ced4a44-e0e1-4949-9e21-e9ce8a60f39a.root": [
        "T1_DE_KIT_Disk: davs://cmsdcache-kit-disk.gridka.de:2880/pnfs/gridka.de/cms/disk-only/store/mc/Run3Summer23NanoAODv12/NMSSM_XtoYHto4B_MX-1400_MY-70_TuneCP5_13p6TeV_madgraph-pythia8/NANOAODSIM/130X_mcRun3_2023_realistic_v15-v2/2810000/2ced4a44-e0e1-4949-9e21-e9ce8a60f39a.root",
        "T2_US_MIT: davs://xrootd.cmsaf.mit.edu:1094/store/mc/Run3Summer23NanoAODv12/NMSSM_XtoYHto4B_MX-1400_MY-70_TuneCP5_13p6TeV_madgraph-pythia8/NANOAODSIM/130X_mcRun3_2023_realistic_v15-v2/2810000/2ced4a44-e0e1-4949-9e21-e9ce8a60f39a.root",
        "T2_BE_UCL: davs://ingrid-se02.cism.ucl.ac.be:1094/store/mc/Run3Summer23NanoAODv12/NMSSM_XtoYHto4B_MX-1400_MY-70_TuneCP5_13p6TeV_madgraph-pythia8/NANOAODSIM/130X_mcRun3_2023_realistic_v15-v2/2810000/2ced4a44-e0e1-4949-9e21-e9ce8a60f39a.root",
        "T1_US_FNAL_Tape_Test: davs://cmstnvm1.fnal.gov:2880/store/mc/Run3Summer23NanoAODv12/NMSSM_XtoYHto4B_MX-1400_MY-70_TuneCP5_13p6TeV_madgraph-pythia8/NANOAODSIM/130X_mcRun3_2023_realistic_v15-v2/2810000/2ced4a44-e0e1-4949-9e21-e9ce8a60f39a.root",
        "T2_US_Wisconsin: davs://cmsxrootd.hep.wisc.edu:1094/store/mc/Run3Summer23NanoAODv12/NMSSM_XtoYHto4B_MX-1400_MY-70_TuneCP5_13p6TeV_madgraph-pythia8/NANOAODSIM/130X_mcRun3_2023_realistic_v15-v2/2810000/2ced4a44-e0e1-4949-9e21-e9ce8a60f39a.root",
        "T2_EE_Estonia: davs://xrootd.hep.kbfi.ee:1094/store/mc/Run3Summer23NanoAODv12/NMSSM_XtoYHto4B_MX-1400_MY-70_TuneCP5_13p6TeV_madgraph-pythia8/NANOAODSIM/130X_mcRun3_2023_realistic_v15-v2/2810000/2ced4a44-e0e1-4949-9e21-e9ce8a60f39a.root",
        "T2_UK_London_IC: davs://gfe02.grid.hep.ph.ic.ac.uk:2880/pnfs/hep.ph.ic.ac.uk/data/cms/store/mc/Run3Summer23NanoAODv12/NMSSM_XtoYHto4B_MX-1400_MY-70_TuneCP5_13p6TeV_madgraph-pythia8/NANOAODSIM/130X_mcRun3_2023_realistic_v15-v2/2810000/2ced4a44-e0e1-4949-9e21-e9ce8a60f39a.root",
        "T2_US_MIT_Tape: davs://dtn20.nese.mghpcc.org:443/store/mc/Run3Summer23NanoAODv12/NMSSM_XtoYHto4B_MX-1400_MY-70_TuneCP5_13p6TeV_madgraph-pythia8/NANOAODSIM/130X_mcRun3_2023_realistic_v15-v2/2810000/2ced4a44-e0e1-4949-9e21-e9ce8a60f39a.root"
    ],
    "cms:/store/mc/Run3Summer23NanoAODv12/NMSSM_XtoYHto4B_MX-1400_MY-70_TuneCP5_13p6TeV_madgraph-pythia8/NANOAODSIM/130X_mcRun3_2023_realistic_v15-v2/2810000/3974a72f-1559-43a8-9244-5b2f7e1927ef.root": [
        "T1_DE_KIT_Disk: davs://cmsdcache-kit-disk.gridka.de:2880/pnfs/gridka.de/cms/disk-only/store/mc/Run3Summer23NanoAODv12/NMSSM_XtoYHto4B_MX-1400_MY-70_TuneCP5_13p6TeV_madgraph-pythia8/NANOAODSIM/130X_mcRun3_2023_realistic_v15-v2/2810000/3974a72f-1559-43a8-9244-5b2f7e1927ef.root",
        "T2_US_MIT: davs://xrootd.cmsaf.mit.edu:1094/store/mc/Run3Summer23NanoAODv12/NMSSM_XtoYHto4B_MX-1400_MY-70_TuneCP5_13p6TeV_madgraph-pythia8/NANOAODSIM/130X_mcRun3_2023_realistic_v15-v2/2810000/3974a72f-1559-43a8-9244-5b2f7e1927ef.root",
        "T1_UK_RAL_Disk: davs://rdr.echo.stfc.ac.uk:1094/store/mc/Run3Summer23NanoAODv12/NMSSM_XtoYHto4B_MX-1400_MY-70_TuneCP5_13p6TeV_madgraph-pythia8/NANOAODSIM/130X_mcRun3_2023_realistic_v15-v2/2810000/3974a72f-1559-43a8-9244-5b2f7e1927ef.root",
        "T2_BE_UCL: davs://ingrid-se02.cism.ucl.ac.be:1094/store/mc/Run3Summer23NanoAODv12/NMSSM_XtoYHto4B_MX-1400_MY-70_TuneCP5_13p6TeV_madgraph-pythia8/NANOAODSIM/130X_mcRun3_2023_realistic_v15-v2/2810000/3974a72f-1559-43a8-9244-5b2f7e1927ef.root",
        "T1_US_FNAL_Tape_Test: davs://cmstnvm1.fnal.gov:2880/store/mc/Run3Summer23NanoAODv12/NMSSM_XtoYHto4B_MX-1400_MY-70_TuneCP5_13p6TeV_madgraph-pythia8/NANOAODSIM/130X_mcRun3_2023_realistic_v15-v2/2810000/3974a72f-1559-43a8-9244-5b2f7e1927ef.root",
        "T2_US_Wisconsin: davs://cmsxrootd.hep.wisc.edu:1094/store/mc/Run3Summer23NanoAODv12/NMSSM_XtoYHto4B_MX-1400_MY-70_TuneCP5_13p6TeV_madgraph-pythia8/NANOAODSIM/130X_mcRun3_2023_realistic_v15-v2/2810000/3974a72f-1559-43a8-9244-5b2f7e1927ef.root",
        "T2_EE_Estonia: davs://xrootd.hep.kbfi.ee:1094/store/mc/Run3Summer23NanoAODv12/NMSSM_XtoYHto4B_MX-1400_MY-70_TuneCP5_13p6TeV_madgraph-pythia8/NANOAODSIM/130X_mcRun3_2023_realistic_v15-v2/2810000/3974a72f-1559-43a8-9244-5b2f7e1927ef.root",
        "T2_UK_London_IC: davs://gfe02.grid.hep.ph.ic.ac.uk:2880/pnfs/hep.ph.ic.ac.uk/data/cms/store/mc/Run3Summer23NanoAODv12/NMSSM_XtoYHto4B_MX-1400_MY-70_TuneCP5_13p6TeV_madgraph-pythia8/NANOAODSIM/130X_mcRun3_2023_realistic_v15-v2/2810000/3974a72f-1559-43a8-9244-5b2f7e1927ef.root",
        "T2_US_MIT_Tape: davs://dtn20.nese.mghpcc.org:443/store/mc/Run3Summer23NanoAODv12/NMSSM_XtoYHto4B_MX-1400_MY-70_TuneCP5_13p6TeV_madgraph-pythia8/NANOAODSIM/130X_mcRun3_2023_realistic_v15-v2/2810000/3974a72f-1559-43a8-9244-5b2f7e1927ef.root"
    ],
    "cms:/store/mc/Run3Summer23NanoAODv12/NMSSM_XtoYHto4B_MX-1400_MY-70_TuneCP5_13p6TeV_madgraph-pythia8/NANOAODSIM/130X_mcRun3_2023_realistic_v15-v2/2810000/c4c32924-726a-43ea-8889-b2b9ab366d04.root": [
        "T1_DE_KIT_Disk: davs://cmsdcache-kit-disk.gridka.de:2880/pnfs/gridka.de/cms/disk-only/store/mc/Run3Summer23NanoAODv12/NMSSM_XtoYHto4B_MX-1400_MY-70_TuneCP5_13p6TeV_madgraph-pythia8/NANOAODSIM/130X_mcRun3_2023_realistic_v15-v2/2810000/c4c32924-726a-43ea-8889-b2b9ab366d04.root",
        "T2_US_MIT: davs://xrootd.cmsaf.mit.edu:1094/store/mc/Run3Summer23NanoAODv12/NMSSM_XtoYHto4B_MX-1400_MY-70_TuneCP5_13p6TeV_madgraph-pythia8/NANOAODSIM/130X_mcRun3_2023_realistic_v15-v2/2810000/c4c32924-726a-43ea-8889-b2b9ab366d04.root",
        "T2_BE_UCL: davs://ingrid-se02.cism.ucl.ac.be:1094/store/mc/Run3Summer23NanoAODv12/NMSSM_XtoYHto4B_MX-1400_MY-70_TuneCP5_13p6TeV_madgraph-pythia8/NANOAODSIM/130X_mcRun3_2023_realistic_v15-v2/2810000/c4c32924-726a-43ea-8889-b2b9ab366d04.root",
        "T1_US_FNAL_Tape_Test: davs://cmstnvm1.fnal.gov:2880/store/mc/Run3Summer23NanoAODv12/NMSSM_XtoYHto4B_MX-1400_MY-70_TuneCP5_13p6TeV_madgraph-pythia8/NANOAODSIM/130X_mcRun3_2023_realistic_v15-v2/2810000/c4c32924-726a-43ea-8889-b2b9ab366d04.root",
        "T2_US_Wisconsin: davs://cmsxrootd.hep.wisc.edu:1094/store/mc/Run3Summer23NanoAODv12/NMSSM_XtoYHto4B_MX-1400_MY-70_TuneCP5_13p6TeV_madgraph-pythia8/NANOAODSIM/130X_mcRun3_2023_realistic_v15-v2/2810000/c4c32924-726a-43ea-8889-b2b9ab366d04.root",
        "T2_EE_Estonia: davs://xrootd.hep.kbfi.ee:1094/store/mc/Run3Summer23NanoAODv12/NMSSM_XtoYHto4B_MX-1400_MY-70_TuneCP5_13p6TeV_madgraph-pythia8/NANOAODSIM/130X_mcRun3_2023_realistic_v15-v2/2810000/c4c32924-726a-43ea-8889-b2b9ab366d04.root",
        "T2_UK_London_IC: davs://gfe02.grid.hep.ph.ic.ac.uk:2880/pnfs/hep.ph.ic.ac.uk/data/cms/store/mc/Run3Summer23NanoAODv12/NMSSM_XtoYHto4B_MX-1400_MY-70_TuneCP5_13p6TeV_madgraph-pythia8/NANOAODSIM/130X_mcRun3_2023_realistic_v15-v2/2810000/c4c32924-726a-43ea-8889-b2b9ab366d04.root",
        "T2_US_MIT_Tape: davs://dtn20.nese.mghpcc.org:443/store/mc/Run3Summer23NanoAODv12/NMSSM_XtoYHto4B_MX-1400_MY-70_TuneCP5_13p6TeV_madgraph-pythia8/NANOAODSIM/130X_mcRun3_2023_realistic_v15-v2/2810000/c4c32924-726a-43ea-8889-b2b9ab366d04.root"
    ],
    "cms:/store/mc/Run3Summer23NanoAODv12/NMSSM_XtoYHto4B_MX-1400_MY-70_TuneCP5_13p6TeV_madgraph-pythia8/NANOAODSIM/130X_mcRun3_2023_realistic_v15-v2/2810000/2c396922-4361-4389-bedb-4230306c70f6.root": [
        "T1_DE_KIT_Disk: davs://cmsdcache-kit-disk.gridka.de:2880/pnfs/gridka.de/cms/disk-only/store/mc/Run3Summer23NanoAODv12/NMSSM_XtoYHto4B_MX-1400_MY-70_TuneCP5_13p6TeV_madgraph-pythia8/NANOAODSIM/130X_mcRun3_2023_realistic_v15-v2/2810000/2c396922-4361-4389-bedb-4230306c70f6.root",
        "T2_US_MIT: davs://xrootd.cmsaf.mit.edu:1094/store/mc/Run3Summer23NanoAODv12/NMSSM_XtoYHto4B_MX-1400_MY-70_TuneCP5_13p6TeV_madgraph-pythia8/NANOAODSIM/130X_mcRun3_2023_realistic_v15-v2/2810000/2c396922-4361-4389-bedb-4230306c70f6.root",
        "T2_BE_UCL: davs://ingrid-se02.cism.ucl.ac.be:1094/store/mc/Run3Summer23NanoAODv12/NMSSM_XtoYHto4B_MX-1400_MY-70_TuneCP5_13p6TeV_madgraph-pythia8/NANOAODSIM/130X_mcRun3_2023_realistic_v15-v2/2810000/2c396922-4361-4389-bedb-4230306c70f6.root",
        "T1_US_FNAL_Tape_Test: davs://cmstnvm1.fnal.gov:2880/store/mc/Run3Summer23NanoAODv12/NMSSM_XtoYHto4B_MX-1400_MY-70_TuneCP5_13p6TeV_madgraph-pythia8/NANOAODSIM/130X_mcRun3_2023_realistic_v15-v2/2810000/2c396922-4361-4389-bedb-4230306c70f6.root",
        "T2_US_Wisconsin: davs://cmsxrootd.hep.wisc.edu:1094/store/mc/Run3Summer23NanoAODv12/NMSSM_XtoYHto4B_MX-1400_MY-70_TuneCP5_13p6TeV_madgraph-pythia8/NANOAODSIM/130X_mcRun3_2023_realistic_v15-v2/2810000/2c396922-4361-4389-bedb-4230306c70f6.root",
        "T2_EE_Estonia: davs://xrootd.hep.kbfi.ee:1094/store/mc/Run3Summer23NanoAODv12/NMSSM_XtoYHto4B_MX-1400_MY-70_TuneCP5_13p6TeV_madgraph-pythia8/NANOAODSIM/130X_mcRun3_2023_realistic_v15-v2/2810000/2c396922-4361-4389-bedb-4230306c70f6.root",
        "T2_UK_London_IC: davs://gfe02.grid.hep.ph.ic.ac.uk:2880/pnfs/hep.ph.ic.ac.uk/data/cms/store/mc/Run3Summer23NanoAODv12/NMSSM_XtoYHto4B_MX-1400_MY-70_TuneCP5_13p6TeV_madgraph-pythia8/NANOAODSIM/130X_mcRun3_2023_realistic_v15-v2/2810000/2c396922-4361-4389-bedb-4230306c70f6.root",
        "T2_US_MIT_Tape: davs://dtn20.nese.mghpcc.org:443/store/mc/Run3Summer23NanoAODv12/NMSSM_XtoYHto4B_MX-1400_MY-70_TuneCP5_13p6TeV_madgraph-pythia8/NANOAODSIM/130X_mcRun3_2023_realistic_v15-v2/2810000/2c396922-4361-4389-bedb-4230306c70f6.root"
    ],
    "cms:/store/mc/Run3Summer23NanoAODv12/NMSSM_XtoYHto4B_MX-1400_MY-70_TuneCP5_13p6TeV_madgraph-pythia8/NANOAODSIM/130X_mcRun3_2023_realistic_v15-v2/2810000/c12ac93e-7fd5-47de-9291-86ca271d654f.root": [
        "T1_DE_KIT_Disk: davs://cmsdcache-kit-disk.gridka.de:2880/pnfs/gridka.de/cms/disk-only/store/mc/Run3Summer23NanoAODv12/NMSSM_XtoYHto4B_MX-1400_MY-70_TuneCP5_13p6TeV_madgraph-pythia8/NANOAODSIM/130X_mcRun3_2023_realistic_v15-v2/2810000/c12ac93e-7fd5-47de-9291-86ca271d654f.root",
        "T2_US_MIT: davs://xrootd.cmsaf.mit.edu:1094/store/mc/Run3Summer23NanoAODv12/NMSSM_XtoYHto4B_MX-1400_MY-70_TuneCP5_13p6TeV_madgraph-pythia8/NANOAODSIM/130X_mcRun3_2023_realistic_v15-v2/2810000/c12ac93e-7fd5-47de-9291-86ca271d654f.root",
        "T2_FR_GRIF: davs://eos.grif.fr:11000/eos/grif/cms/grif/store/mc/Run3Summer23NanoAODv12/NMSSM_XtoYHto4B_MX-1400_MY-70_TuneCP5_13p6TeV_madgraph-pythia8/NANOAODSIM/130X_mcRun3_2023_realistic_v15-v2/2810000/c12ac93e-7fd5-47de-9291-86ca271d654f.root",
        "T2_BE_UCL: davs://ingrid-se02.cism.ucl.ac.be:1094/store/mc/Run3Summer23NanoAODv12/NMSSM_XtoYHto4B_MX-1400_MY-70_TuneCP5_13p6TeV_madgraph-pythia8/NANOAODSIM/130X_mcRun3_2023_realistic_v15-v2/2810000/c12ac93e-7fd5-47de-9291-86ca271d654f.root",
        "T1_US_FNAL_Tape_Test: davs://cmstnvm1.fnal.gov:2880/store/mc/Run3Summer23NanoAODv12/NMSSM_XtoYHto4B_MX-1400_MY-70_TuneCP5_13p6TeV_madgraph-pythia8/NANOAODSIM/130X_mcRun3_2023_realistic_v15-v2/2810000/c12ac93e-7fd5-47de-9291-86ca271d654f.root",
        "T2_US_Wisconsin: davs://cmsxrootd.hep.wisc.edu:1094/store/mc/Run3Summer23NanoAODv12/NMSSM_XtoYHto4B_MX-1400_MY-70_TuneCP5_13p6TeV_madgraph-pythia8/NANOAODSIM/130X_mcRun3_2023_realistic_v15-v2/2810000/c12ac93e-7fd5-47de-9291-86ca271d654f.root",
        "T2_EE_Estonia: davs://xrootd.hep.kbfi.ee:1094/store/mc/Run3Summer23NanoAODv12/NMSSM_XtoYHto4B_MX-1400_MY-70_TuneCP5_13p6TeV_madgraph-pythia8/NANOAODSIM/130X_mcRun3_2023_realistic_v15-v2/2810000/c12ac93e-7fd5-47de-9291-86ca271d654f.root",
        "T2_UK_London_IC: davs://gfe02.grid.hep.ph.ic.ac.uk:2880/pnfs/hep.ph.ic.ac.uk/data/cms/store/mc/Run3Summer23NanoAODv12/NMSSM_XtoYHto4B_MX-1400_MY-70_TuneCP5_13p6TeV_madgraph-pythia8/NANOAODSIM/130X_mcRun3_2023_realistic_v15-v2/2810000/c12ac93e-7fd5-47de-9291-86ca271d654f.root",
        "T2_US_MIT_Tape: davs://dtn20.nese.mghpcc.org:443/store/mc/Run3Summer23NanoAODv12/NMSSM_XtoYHto4B_MX-1400_MY-70_TuneCP5_13p6TeV_madgraph-pythia8/NANOAODSIM/130X_mcRun3_2023_realistic_v15-v2/2810000/c12ac93e-7fd5-47de-9291-86ca271d654f.root"
    ]
}