{
    "cms:/store/mc/Run3Summer23NanoAODv12/NMSSM_XtoYHto4B_MX-4000_MY-3000_TuneCP5_13p6TeV_madgraph-pythia8/NANOAODSIM/130X_mcRun3_2023_realistic_v15-v2/2810000/eff22f56-75c4-46ae-a21c-fdce3c1d2a76.root": [
        "T1_US_FNAL_Disk: davs://cmsdcadisk.fnal.gov:2880/dcache/uscmsdisk/store/mc/Run3Summer23NanoAODv12/NMSSM_XtoYHto4B_MX-4000_MY-3000_TuneCP5_13p6TeV_madgraph-pythia8/NANOAODSIM/130X_mcRun3_2023_realistic_v15-v2/2810000/eff22f56-75c4-46ae-a21c-fdce3c1d2a76.root",
        "T2_PT_NCG_Lisbon: davs://gftp03.ncg.ingrid.pt:8443/cms/store/mc/Run3Summer23NanoAODv12/NMSSM_XtoYHto4B_MX-4000_MY-3000_TuneCP5_13p6TeV_madgraph-pythia8/NANOAODSIM/130X_mcRun3_2023_realistic_v15-v2/2810000/eff22f56-75c4-46ae-a21c-fdce3c1d2a76.root",
        "T2_IT_Bari: davs://webdav.recas.ba.infn.it:8443/cms/store/mc/Run3Summer23NanoAODv12/NMSSM_XtoYHto4B_MX-4000_MY-3000_TuneCP5_13p6TeV_madgraph-pythia8/NANOAODSIM/130X_mcRun3_2023_realistic_v15-v2/2810000/eff22f56-75c4-46ae-a21c-fdce3c1d2a76.root",
        "T1_UK_RAL_Disk: davs://rdr.echo.stfc.ac.uk:1094/store/mc/Run3Summer23NanoAODv12/NMSSM_XtoYHto4B_MX-4000_MY-3000_TuneCP5_13p6TeV_madgraph-pythia8/NANOAODSIM/130X_mcRun3_2023_realistic_v15-v2/2810000/eff22f56-75c4-46ae-a21c-fdce3c1d2a76.root",
        "T1_US_FNAL_Tape_Test: davs://cmstnvm1.fnal.gov:2880/store/mc/Run3Summer23NanoAODv12/NMSSM_XtoYHto4B_MX-4000_MY-3000_TuneCP5_13p6TeV_madgraph-pythia8/NANOAODSIM/130X_mcRun3_2023_realistic_v15-v2/2810000/eff22f56-75c4-46ae-a21c-fdce3c1d2a76.root",
        "T2_BR_SPRACE: davs://osg-se.sprace.org.br:1094/store/mc/Run3Summer23NanoAODv12/NMSSM_XtoYHto4B_MX-4000_MY-3000_TuneCP5_13p6TeV_madgraph-pythia8/NANOAODSIM/130X_mcRun3_2023_realistic_v15-v2/2810000/eff22f56-75c4-46ae-a21c-fdce3c1d2a76.root",
        "T1_IT_CNAF_Tape: davs://xfer-tape-cms.cr.cnaf.infn.it:8443/cmstape/store/mc/Run3Summer23NanoAODv12/NMSSM_XtoYHto4B_MX-4000_MY-3000_TuneCP5_13p6TeV_madgraph-pythia8/NANOAODSIM/130X_mcRun3_2023_realistic_v15-v2/2810000/eff22f56-75c4-46ae-a21c-fdce3c1d2a76.root",
        "T2_IT_Pisa: davs://stwebdav.pi.infn.it:8443/cms/store/mc/Run3Summer23NanoAODv12/NMSSM_XtoYHto4B_MX-4000_MY-3000_TuneCP5_13p6TeV_madgraph-pythia8/NANOAODSIM/130X_mcRun3_2023_realistic_v15-v2/2810000/eff22f56-75c4-46ae-a21c-fdce3c1d2a76.root",
        "T2_US_Purdue: davs://eos.cms.rcac.purdue.edu:9000/store/mc/Run3Summer23NanoAODv12/NMSSM_XtoYHto4B_MX-4000_MY-3000_TuneCP5_13p6TeV_madgraph-pythia8/NANOAODSIM/130X_mcRun3_2023_realistic_v15-v2/2810000/eff22f56-75c4-46ae-a21c-fdce3c1d2a76.root",
        "T1_RU_JINR_Disk: davs://se-wbdv.jinr-t1.ru:2880/pnfs/jinr-t1.ru/data/cms/store/mc/Run3Summer23NanoAODv12/NMSSM_XtoYHto4B_MX-4000_MY-3000_TuneCP5_13p6TeV_madgraph-pythia8/NANOAODSIM/130X_mcRun3_2023_realistic_v15-v2/2810000/eff22f56-75c4-46ae-a21c-fdce3c1d2a76.root"
    ],
    "cms:/store/mc/Run3Summer23NanoAODv12/NMSSM_XtoYHto4B_MX-4000_MY-3000_TuneCP5_13p6TeV_madgraph-pythia8/NANOAODSIM/130X_mcRun3_2023_realistic_v15-v2/2810000/5eeb1bab-3fcc-493e-bb2f-872f97722743.root": [
        "T1_US_FNAL_Disk: davs://cmsdcadisk.fnal.gov:2880/dcache/uscmsdisk/store/mc/Run3Summer23NanoAODv12/NMSSM_XtoYHto4B_MX-4000_MY-3000_TuneCP5_13p6TeV_madgraph-pythia8/NANOAODSIM/130X_mcRun3_2023_realistic_v15-v2/2810000/5eeb1bab-3fcc-493e-bb2f-872f97722743.root",
        "T2_PT_NCG_Lisbon: davs://gftp03.ncg.ingrid.pt:8443/cms/store/mc/Run3Summer23NanoAODv12/NMSSM_XtoYHto4B_MX-4000_MY-3000_TuneCP5_13p6TeV_madgraph-pythia8/NANOAODSIM/130X_mcRun3_2023_realistic_v15-v2/2810000/5eeb1bab-3fcc-493e-bb2f-872f97722743.root",
        "T2_IT_Bari: davs://webdav.recas.ba.infn.it:8443/cms/store/mc/Run3Summer23NanoAODv12/NMSSM_XtoYHto4B_MX-4000_MY-3000_TuneCP5_13p6TeV_madgraph-pythia8/NANOAODSIM/130X_mcRun3_2023_realistic_v15-v2/2810000/5eeb1bab-3fcc-493e-bb2f-872f97722743.root",
        "T1_UK_RAL_Disk: davs://rdr.echo.stfc.ac.uk:1094/store/mc/Run3Summer23NanoAODv12/NMSSM_XtoYHto4B_MX-4000_MY-3000_TuneCP5_13p6TeV_madgraph-pythia8/NANOAODSIM/130X_mcRun3_2023_realistic_v15-v2/2810000/5eeb1bab-3fcc-493e-bb2f-872f97722743.root",
        "T1_US_FNAL_Tape_Test: davs://cmstnvm1.fnal.gov:2880/store/mc/Run3Summer23NanoAODv12/NMSSM_XtoYHto4B_MX-4000_MY-3000_TuneCP5_13p6TeV_madgraph-pythia8/NANOAODSIM/130X_mcRun3_2023_realistic_v15-v2/2810000/5eeb1bab-3fcc-493e-bb2f-872f97722743.root",
        "T1_IT_CNAF_Tape: davs://xfer-tape-cms.cr.cnaf.infn.it:8443/cmstape/store/mc/Run3Summer23NanoAODv12/NMSSM_XtoYHto4B_MX-4000_MY-3000_TuneCP5_13p6TeV_madgraph-pythia8/NANOAODSIM/130X_mcRun3_2023_realistic_v15-v2/2810000/5eeb1bab-3fcc-493e-bb2f-872f97722743.root",
        "T2_US_Purdue: davs://eos.cms.rcac.purdue.edu:9000/store/mc/Run3Summer23NanoAODv12/NMSSM_XtoYHto4B_MX-4000_MY-3000_TuneCP5_13p6TeV_madgraph-pythia8/NANOAODSIM/130X_mcRun3_2023_realistic_v15-v2/2810000/5eeb1bab-3fcc-493e-bb2f-872f97722743.root",
        "T1_RU_JINR_Disk: davs://se-wbdv.jinr-t1.ru:2880/pnfs/jinr-t1.ru/data/cms/store/mc/Run3Summer23NanoAODv12/NMSSM_XtoYHto4B_MX-4000_MY-3000_TuneCP5_13p6TeV_madgraph-pythia8/NANOAODSIM/130X_mcRun3_2023_realistic_v15-v2/2810000/5eeb1bab-3fcc-493e-bb2f-872f97722743.root"
    ],
    "cms:/store/mc/Run3Summer23NanoAODv12/NMSSM_XtoYHto4B_MX-4000_MY-3000_TuneCP5_13p6TeV_madgraph-pythia8/NANOAODSIM/130X_mcRun3_2023_realistic_v15-v2/2810000/7d3b98fd-2327-4c5b-aeb6-327045029bb6.root": [
        "T1_US_FNAL_Disk: davs://cmsdcadisk.fnal.gov:2880/dcache/uscmsdisk/store/mc/Run3Summer23NanoAODv12/NMSSM_XtoYHto4B_MX-4000_MY-3000_TuneCP5_13p6TeV_madgraph-pythia8/NANOAODSIM/130X_mcRun3_2023_realistic_v15-v2/2810000/7d3b98fd-2327-4c5b-aeb6-327045029bb6.root",
        "T2_PT_NCG_Lisbon: davs://gftp03.ncg.ingrid.pt:8443/cms/store/mc/Run3Summer23NanoAODv12/NMSSM_XtoYHto4B_MX-4000_MY-3000_TuneCP5_13p6TeV_madgraph-pythia8/NANOAODSIM/130X_mcRun3_2023_realistic_v15-v2/2810000/7d3b98fd-2327-4c5b-aeb6-327045029bb6.root",
        "T2_IT_Bari: davs://webdav.recas.ba.infn.it:8443/cms/store/mc/Run3Summer23NanoAODv12/NMSSM_XtoYHto4B_MX-4000_MY-3000_TuneCP5_13p6TeV_madgraph-pythia8/NANOAODSIM/130X_mcRun3_2023_realistic_v15-v2/2810000/7d3b98fd-2327-4c5b-aeb6-327045029bb6.root",
        "T1_UK_RAL_Disk: davs://rdr.echo.stfc.ac.uk:1094/store/mc/Run3Summer23NanoAODv12/NMSSM_XtoYHto4B_MX-4000_MY-3000_TuneCP5_13p6TeV_madgraph-pythia8/NANOAODSIM/130X_mcRun3_2023_realistic_v15-v2/2810000/7d3b98fd-2327-4c5b-aeb6-327045029bb6.root",
        "T1_US_FNAL_Tape_Test: davs://cmstnvm1.fnal.gov:2880/store/mc/Run3Summer23NanoAODv12/NMSSM_XtoYHto4B_MX-4000_MY-3000_TuneCP5_13p6TeV_madgraph-pythia8/NANOAODSIM/130X_mcRun3_2023_realistic_v15-v2/2810000/7d3b98fd-2327-4c5b-aeb6-327045029bb6.root",
        "T1_IT_CNAF_Tape: davs://xfer-tape-cms.cr.cnaf.infn.it:8443/cmstape/store/mc/Run3Summer23NanoAODv12/NMSSM_XtoYHto4B_MX-4000_MY-3000_TuneCP5_13p6TeV_madgraph-pythia8/NANOAODSIM/130X_mcRun3_2023_realistic_v15-v2/2810000/7d3b98fd-2327-4c5b-aeb6-327045029bb6.root",
        "T2_US_Purdue: davs://eos.cms.rcac.purdue.edu:9000/store/mc/Run3Summer23NanoAODv12/NMSSM_XtoYHto4B_MX-4000_MY-3000_TuneCP5_13p6TeV_madgraph-pythia8/NANOAODSIM/130X_mcRun3_2023_realistic_v15-v2/2810000/7d3b98fd-2327-4c5b-aeb6-327045029bb6.root",
        "T1_RU_JINR_Disk: davs://se-wbdv.jinr-t1.ru:2880/pnfs/jinr-t1.ru/data/cms/store/mc/Run3Summer23NanoAODv12/NMSSM_XtoYHto4B_MX-4000_MY-3000_TuneCP5_13p6TeV_madgraph-pythia8/NANOAODSIM/130X_mcRun3_2023_realistic_v15-v2/2810000/7d3b98fd-2327-4c5b-aeb6-327045029bb6.root",
        "T2_UK_London_IC: davs://gfe02.grid.hep.ph.ic.ac.uk:2880/pnfs/hep.ph.ic.ac.uk/data/cms/store/mc/Run3Summer23NanoAODv12/NMSSM_XtoYHto4B_MX-4000_MY-3000_TuneCP5_13p6TeV_madgraph-pythia8/NANOAODSIM/130X_mcRun3_2023_realistic_v15-v2/2810000/7d3b98fd-2327-4c5b-aeb6-327045029bb6.root"
    ],
    "cms:/store/mc/Run3Summer23NanoAODv12/NMSSM_XtoYHto4B_MX-4000_MY-3000_TuneCP5_13p6TeV_madgraph-pythia8/NANOAODSIM/130X_mcRun3_2023_realistic_v15-v2/2810000/ced5c172-4aaa-4c23-b3d8-64f1122bca80.root": [
        "T1_US_FNAL_Disk: davs://cmsdcadisk.fnal.gov:2880/dcache/uscmsdisk/store/mc/Run3Summer23NanoAODv12/NMSSM_XtoYHto4B_MX-4000_MY-3000_TuneCP5_13p6TeV_madgraph-pythia8/NANOAODSIM/130X_mcRun3_2023_realistic_v15-v2/2810000/ced5c172-4aaa-4c23-b3d8-64f1122bca80.root",
        "T1_DE_KIT_Disk: davs://cmsdcache-kit-disk.gridka.de:2880/pnfs/gridka.de/cms/disk-only/store/mc/Run3Summer23NanoAODv12/NMSSM_XtoYHto4B_MX-4000_MY-3000_TuneCP5_13p6TeV_madgraph-pythia8/NANOAODSIM/130X_mcRun3_2023_realistic_v15-v2/2810000/ced5c172-4aaa-4c23-b3d8-64f1122bca80.root",
        "T2_PT_NCG_Lisbon: davs://gftp03.ncg.ingrid.pt:8443/cms/store/mc/Run3Summer23NanoAODv12/NMSSM_XtoYHto4B_MX-4000_MY-3000_TuneCP5_13p6TeV_madgraph-pythia8/NANOAODSIM/130X_mcRun3_2023_realistic_v15-v2/2810000/ced5c172-4aaa-4c23-b3d8-64f1122bca80.root",
        "T2_IT_Bari: davs://webdav.recas.ba.infn.it:8443/cms/store/mc/Run3Summer23NanoAODv12/NMSSM_XtoYHto4B_MX-4000_MY-3000_TuneCP5_13p6TeV_madgraph-pythia8/NANOAODSIM/130X_mcRun3_2023_realistic_v15-v2/2810000/ced5c172-4aaa-4c23-b3d8-64f1122bca80.root",
        "T1_UK_RAL_Disk: davs://rdr.echo.stfc.ac.uk:1094/store/mc/Run3Summer23NanoAODv12/NMSSM_XtoYHto4B_MX-4000_MY-3000_TuneCP5_13p6TeV_madgraph-pythia8/NANOAODSIM/130X_mcRun3_2023_realistic_v15-v2/2810000/ced5c172-4aaa-4c23-b3d8-64f1122bca80.root",
        "T1_US_FNAL_Tape_Test: davs://cmstnvm1.fnal.gov:2880/store/mc/Run3Summer23NanoAODv12/NMSSM_XtoYHto4B_MX-4000_MY-3000_TuneCP5_13p6TeV_madgraph-pythia8/NANOAODSIM/130X_mcRun3_2023_realistic_v15-v2/2810000/ced5c172-4aaa-4c23-b3d8-64f1122bca80.root",
        "T2_US_Purdue: davs://eos.cms.rcac.purdue.edu:9000/store/mc/Run3Summer23NanoAODv12/NMSSM_XtoYHto4B_MX-4000_MY-3000_TuneCP5_13p6TeV_madgraph-pythia8/NANOAODSIM/130X_mcRun3_2023_realistic_v15-v2/2810000/ced5c172-4aaa-4c23-b3d8-64f1122bca80.root",
        "T1_RU_JINR_Disk: davs://se-wbdv.jinr-t1.ru:2880/pnfs/jinr-t1.ru/data/cms/store/mc/Run3Summer23NanoAODv12/NMSSM_XtoYHto4B_MX-4000_MY-3000_TuneCP5_13p6TeV_madgraph-pythia8/NANOAODSIM/130X_mcRun3_2023_realistic_v15-v2/2810000/ced5c172-4aaa-4c23-b3d8-64f1122bca80.root"
    ],
    "cms:/store/mc/Run3Summer23NanoAODv12/NMSSM_XtoYHto4B_MX-4000_MY-3000_TuneCP5_13p6TeV_madgraph-pythia8/NANOAODSIM/130X_mcRun3_2023_realistic_v15-v2/2810000/6737454b-488b-4e85-b4cd-6e222a51806b.root": [
        "T1_US_FNAL_Disk: davs://cmsdcadisk.fnal.gov:2880/dcache/uscmsdisk/store/mc/Run3Summer23NanoAODv12/NMSSM_XtoYHto4B_MX-4000_MY-3000_TuneCP5_13p6TeV_madgraph-pythia8/NANOAODSIM/130X_mcRun3_2023_realistic_v15-v2/2810000/6737454b-488b-4e85-b4cd-6e222a51806b.root",
        "T2_PT_NCG_Lisbon: davs://gftp03.ncg.ingrid.pt:8443/cms/store/mc/Run3Summer23NanoAODv12/NMSSM_XtoYHto4B_MX-4000_MY-3000_TuneCP5_13p6TeV_madgraph-pythia8/NANOAODSIM/130X_mcRun3_2023_realistic_v15-v2/2810000/6737454b-488b-4e85-b4cd-6e222a51806b.root",
        "T2_IT_Bari: davs://webdav.recas.ba.infn.it:8443/cms/store/mc/Run3Summer23NanoAODv12/NMSSM_XtoYHto4B_MX-4000_MY-3000_TuneCP5_13p6TeV_madgraph-pythia8/NANOAODSIM/130X_mcRun3_2023_realistic_v15-v2/2810000/6737454b-488b-4e85-b4cd-6e222a51806b.root",
        "T2_US_UCSD: davs://redirector.t2.ucsd.edu:1095/store/mc/Run3Summer23NanoAODv12/NMSSM_XtoYHto4B_MX-4000_MY-3000_TuneCP5_13p6TeV_madgraph-pythia8/NANOAODSIM/130X_mcRun3_2023_realistic_v15-v2/2810000/6737454b-488b-4e85-b4cd-6e222a51806b.root",
        "T1_UK_RAL_Disk: davs://rdr.echo.stfc.ac.uk:1094/store/mc/Run3Summer23NanoAODv12/NMSSM_XtoYHto4B_MX-4000_MY-3000_TuneCP5_13p6TeV_madgraph-pythia8/NANOAODSIM/130X_mcRun3_2023_realistic_v15-v2/2810000/6737454b-488b-4e85-b4cd-6e222a51806b.root",
        "T1_US_FNAL_Tape_Test: davs://cmstnvm1.fnal.gov:2880/store/mc/Run3Summer23NanoAODv12/NMSSM_XtoYHto4B_MX-4000_MY-3000_TuneCP5_13p6TeV_madgraph-pythia8/NANOAODSIM/130X_mcRun3_2023_realistic_v15-v2/2810000/6737454b-488b-4e85-b4cd-6e222a51806b.root",
        "T2_US_Purdue: davs://eos.cms.rcac.purdue.edu:9000/store/mc/Run3Summer23NanoAODv12/NMSSM_XtoYHto4B_MX-4000_MY-3000_TuneCP5_13p6TeV_madgraph-pythia8/NANOAODSIM/130X_mcRun3_2023_realistic_v15-v2/2810000/6737454b-488b-4e85-b4cd-6e222a51806b.root",
        "T1_RU_JINR_Disk: davs://se-wbdv.jinr-t1.ru:2880/pnfs/jinr-t1.ru/data/cms/store/mc/Run3Summer23NanoAODv12/NMSSM_XtoYHto4B_MX-4000_MY-3000_TuneCP5_13p6TeV_madgraph-pythia8/NANOAODSIM/130X_mcRun3_2023_realistic_v15-v2/2810000/6737454b-488b-4e85-b4cd-6e222a51806b.root"
    ],
    "cms:/store/mc/Run3Summer23NanoAODv12/NMSSM_XtoYHto4B_MX-4000_MY-3000_TuneCP5_13p6TeV_madgraph-pythia8/NANOAODSIM/130X_mcRun3_2023_realistic_v15-v2/2810000/850e1abb-6bdf-45dc-a027-e1e2cd8874a2.root": [
        "T1_US_FNAL_Disk: davs://cmsdcadisk.fnal.gov:2880/dcache/uscmsdisk/store/mc/Run3Summer23NanoAODv12/NMSSM_XtoYHto4B_MX-4000_MY-3000_TuneCP5_13p6TeV_madgraph-pythia8/NANOAODSIM/130X_mcRun3_2023_realistic_v15-v2/2810000/850e1abb-6bdf-45dc-a027-e1e2cd8874a2.root",
        "T2_PT_NCG_Lisbon: davs://gftp03.ncg.ingrid.pt:8443/cms/store/mc/Run3Summer23NanoAODv12/NMSSM_XtoYHto4B_MX-4000_MY-3000_TuneCP5_13p6TeV_madgraph-pythia8/NANOAODSIM/130X_mcRun3_2023_realistic_v15-v2/2810000/850e1abb-6bdf-45dc-a027-e1e2cd8874a2.root",
        "T2_IT_Bari: davs://webdav.recas.ba.infn.it:8443/cms/store/mc/Run3Summer23NanoAODv12/NMSSM_XtoYHto4B_MX-4000_MY-3000_TuneCP5_13p6TeV_madgraph-pythia8/NANOAODSIM/130X_mcRun3_2023_realistic_v15-v2/2810000/850e1abb-6bdf-45dc-a027-e1e2cd8874a2.root",
        "T1_UK_RAL_Disk: davs://rdr.echo.stfc.ac.uk:1094/store/mc/Run3Summer23NanoAODv12/NMSSM_XtoYHto4B_MX-4000_MY-3000_TuneCP5_13p6TeV_madgraph-pythia8/NANOAODSIM/130X_mcRun3_2023_realistic_v15-v2/2810000/850e1abb-6bdf-45dc-a027-e1e2cd8874a2.root",
        "T1_US_FNAL_Tape_Test: davs://cmstnvm1.fnal.gov:2880/store/mc/Run3Summer23NanoAODv12/NMSSM_XtoYHto4B_MX-4000_MY-3000_TuneCP5_13p6TeV_madgraph-pythia8/NANOAODSIM/130X_mcRun3_2023_realistic_v15-v2/2810000/850e1abb-6bdf-45dc-a027-e1e2cd8874a2.root",
        "T2_US_Wisconsin: davs://cmsxrootd.hep.wisc.edu:1094/store/mc/Run3Summer23NanoAODv12/NMSSM_XtoYHto4B_MX-4000_MY-3000_TuneCP5_13p6TeV_madgraph-pythia8/NANOAODSIM/130X_mcRun3_2023_realistic_v15-v2/2810000/850e1abb-6bdf-45dc-a027-e1e2cd8874a2.root",
        "T2_US_Purdue: davs://eos.cms.rcac.purdue.edu:9000/store/mc/Run3Summer23NanoAODv12/NMSSM_XtoYHto4B_MX-4000_MY-3000_TuneCP5_13p6TeV_madgraph-pythia8/NANOAODSIM/130X_mcRun3_2023_realistic_v15-v2/2810000/850e1abb-6bdf-45dc-a027-e1e2cd8874a2.root",
        "T1_RU_JINR_Disk: davs://se-wbdv.jinr-t1.ru:2880/pnfs/jinr-t1.ru/data/cms/store/mc/Run3Summer23NanoAODv12/NMSSM_XtoYHto4B_MX-4000_MY-3000_TuneCP5_13p6TeV_madgraph-pythia8/NANOAODSIM/130X_mcRun3_2023_realistic_v15-v2/2810000/850e1abb-6bdf-45dc-a027-e1e2cd8874a2.root"
    ],
    "cms:/store/mc/Run3Summer23NanoAODv12/NMSSM_XtoYHto4B_MX-4000_MY-3000_TuneCP5_13p6TeV_madgraph-pythia8/NANOAODSIM/130X_mcRun3_2023_realistic_v15-v2/2810000/4ed6df4f-6f95-4119-b79d-a3ddfdee5ab9.root": [
        "T1_US_FNAL_Disk: davs://cmsdcadisk.fnal.gov:2880/dcache/uscmsdisk/store/mc/Run3Summer23NanoAODv12/NMSSM_XtoYHto4B_MX-4000_MY-3000_TuneCP5_13p6TeV_madgraph-pythia8/NANOAODSIM/130X_mcRun3_2023_realistic_v15-v2/2810000/4ed6df4f-6f95-4119-b79d-a3ddfdee5ab9.root",
        "T2_PT_NCG_Lisbon: davs://gftp03.ncg.ingrid.pt:8443/cms/store/mc/Run3Summer23NanoAODv12/NMSSM_XtoYHto4B_MX-4000_MY-3000_TuneCP5_13p6TeV_madgraph-pythia8/NANOAODSIM/130X_mcRun3_2023_realistic_v15-v2/2810000/4ed6df4f-6f95-4119-b79d-a3ddfdee5ab9.root",
        "T2_IT_Bari: davs://webdav.recas.ba.infn.it:8443/cms/store/mc/Run3Summer23NanoAODv12/NMSSM_XtoYHto4B_MX-4000_MY-3000_TuneCP5_13p6TeV_madgraph-pythia8/NANOAODSIM/130X_mcRun3_2023_realistic_v15-v2/2810000/4ed6df4f-6f95-4119-b79d-a3ddfdee5ab9.root",
        "T1_UK_RAL_Disk: davs://rdr.echo.stfc.ac.uk:1094/store/mc/Run3Summer23NanoAODv12/NMSSM_XtoYHto4B_MX-4000_MY-3000_TuneCP5_13p6TeV_madgraph-pythia8/NANOAODSIM/130X_mcRun3_2023_realistic_v15-v2/2810000/4ed6df4f-6f95-4119-b79d-a3ddfdee5ab9.root",
        "T1_US_FNAL_Tape_Test: davs://cmstnvm1.fnal.gov:2880/store/mc/Run3Summer23NanoAODv12/NMSSM_XtoYHto4B_MX-4000_MY-3000_TuneCP5_13p6TeV_madgraph-pythia8/NANOAODSIM/130X_mcRun3_2023_realistic_v15-v2/2810000/4ed6df4f-6f95-4119-b79d-a3ddfdee5ab9.root",
        "T1_IT_CNAF_Tape: davs://xfer-tape-cms.cr.cnaf.infn.it:8443/cmstape/store/mc/Run3Summer23NanoAODv12/NMSSM_XtoYHto4B_MX-4000_MY-3000_TuneCP5_13p6TeV_madgraph-pythia8/NANOAODSIM/130X_mcRun3_2023_realistic_v15-v2/2810000/4ed6df4f-6f95-4119-b79d-a3ddfdee5ab9.root",
        "T2_US_Nebraska: davs://xrootd-local.unl.edu:1094/store/mc/Run3Summer23NanoAODv12/NMSSM_XtoYHto4B_MX-4000_MY-3000_TuneCP5_13p6TeV_madgraph-pythia8/NANOAODSIM/130X_mcRun3_2023_realistic_v15-v2/2810000/4ed6df4f-6f95-4119-b79d-a3ddfdee5ab9.root",
        "T2_US_Purdue: davs://eos.cms.rcac.purdue.edu:9000/store/mc/Run3Summer23NanoAODv12/NMSSM_XtoYHto4B_MX-4000_MY-3000_TuneCP5_13p6TeV_madgraph-pythia8/NANOAODSIM/130X_mcRun3_2023_realistic_v15-v2/2810000/4ed6df4f-6f95-4119-b79d-a3ddfdee5ab9.root",
        "T1_RU_JINR_Disk: davs://se-wbdv.jinr-t1.ru:2880/pnfs/jinr-t1.ru/data/cms/store/mc/Run3Summer23NanoAODv12/NMSSM_XtoYHto4B_MX-4000_MY-3000_TuneCP5_13p6TeV_madgraph-pythia8/NANOAODSIM/130X_mcRun3_2023_realistic_v15-v2/2810000/4ed6df4f-6f95-4119-b79d-a3ddfdee5ab9.root",
        "T2_UK_London_IC: davs://gfe02.grid.hep.ph.ic.ac.uk:2880/pnfs/hep.ph.ic.ac.uk/data/cms/store/mc/Run3Summer23NanoAODv12/NMSSM_XtoYHto4B_MX-4000_MY-3000_TuneCP5_13p6TeV_madgraph-pythia8/NANOAODSIM/130X_mcRun3_2023_realistic_v15-v2/2810000/4ed6df4f-6f95-4119-b79d-a3ddfdee5ab9.root"
    ],
    "cms:/store/mc/Run3Summer23NanoAODv12/NMSSM_XtoYHto4B_MX-4000_MY-3000_TuneCP5_13p6TeV_madgraph-pythia8/NANOAODSIM/130X_mcRun3_2023_realistic_v15-v2/2810000/2c366a4a-0879-43de-b979-5b64e70a1de9.root": [
        "T1_US_FNAL_Disk: davs://cmsdcadisk.fnal.gov:2880/dcache/uscmsdisk/store/mc/Run3Summer23NanoAODv12/NMSSM_XtoYHto4B_MX-4000_MY-3000_TuneCP5_13p6TeV_madgraph-pythia8/NANOAODSIM/130X_mcRun3_2023_realistic_v15-v2/2810000/2c366a4a-0879-43de-b979-5b64e70a1de9.root",
        "T2_PT_NCG_Lisbon: davs://gftp03.ncg.ingrid.pt:8443/cms/store/mc/Run3Summer23NanoAODv12/NMSSM_XtoYHto4B_MX-4000_MY-3000_TuneCP5_13p6TeV_madgraph-pythia8/NANOAODSIM/130X_mcRun3_2023_realistic_v15-v2/2810000/2c366a4a-0879-43de-b979-5b64e70a1de9.root",
        "T2_IT_Bari: davs://webdav.recas.ba.infn.it:8443/cms/store/mc/Run3Summer23NanoAODv12/NMSSM_XtoYHto4B_MX-4000_MY-3000_TuneCP5_13p6TeV_madgraph-pythia8/NANOAODSIM/130X_mcRun3_2023_realistic_v15-v2/2810000/2c366a4a-0879-43de-b979-5b64e70a1de9.root",
        "T1_UK_RAL_Disk: davs://rdr.echo.stfc.ac.uk:1094/store/mc/Run3Summer23NanoAODv12/NMSSM_XtoYHto4B_MX-4000_MY-3000_TuneCP5_13p6TeV_madgraph-pythia8/NANOAODSIM/130X_mcRun3_2023_realistic_v15-v2/2810000/2c366a4a-0879-43de-b979-5b64e70a1de9.root",
        "T1_US_FNAL_Tape_Test: davs://cmstnvm1.fnal.gov:2880/store/mc/Run3Summer23NanoAODv12/NMSSM_XtoYHto4B_MX-4000_MY-3000_TuneCP5_13p6TeV_madgraph-pythia8/NANOAODSIM/130X_mcRun3_2023_realistic_v15-v2/2810000/2c366a4a-0879-43de-b979-5b64e70a1de9.root",
        "T2_US_Caltech: davs://k8s-redir-stageout.ultralight.org:1094/store/mc/Run3Summer23NanoAODv12/NMSSM_XtoYHto4B_MX-4000_MY-3000_TuneCP5_13p6TeV_madgraph-pythia8/NANOAODSIM/130X_mcRun3_2023_realistic_v15-v2/2810000/2c366a4a-0879-43de-b979-5b64e70a1de9.root",
        "T2_US_Purdue: davs://eos.cms.rcac.purdue.edu:9000/store/mc/Run3Summer23NanoAODv12/NMSSM_XtoYHto4B_MX-4000_MY-3000_TuneCP5_13p6TeV_madgraph-pythia8/NANOAODSIM/130X_mcRun3_2023_realistic_v15-v2/2810000/2c366a4a-0879-43de-b979-5b64e70a1de9.root",
        "T1_RU_JINR_Disk: davs://se-wbdv.jinr-t1.ru:2880/pnfs/jinr-t1.ru/data/cms/store/mc/Run3Summer23NanoAODv12/NMSSM_XtoYHto4B_MX-4000_MY-3000_TuneCP5_13p6TeV_madgraph-pythia8/NANOAODSIM/130X_mcRun3_2023_realistic_v15-v2/2810000/2c366a4a-0879-43de-b979-5b64e70a1de9.root"
    ],
    "cms:/store/mc/Run3Summer23NanoAODv12/NMSSM_XtoYHto4B_MX-4000_MY-3000_TuneCP5_13p6TeV_madgraph-pythia8/NANOAODSIM/130X_mcRun3_2023_realistic_v15-v2/2810000/94fd1a5b-63df-4a6b-9dcd-2e2b86f446b1.root": [
        "T1_US_FNAL_Disk: davs://cmsdcadisk.fnal.gov:2880/dcache/uscmsdisk/store/mc/Run3Summer23NanoAODv12/NMSSM_XtoYHto4B_MX-4000_MY-3000_TuneCP5_13p6TeV_madgraph-pythia8/NANOAODSIM/130X_mcRun3_2023_realistic_v15-v2/2810000/94fd1a5b-63df-4a6b-9dcd-2e2b86f446b1.root",
        "T2_PT_NCG_Lisbon: davs://gftp03.ncg.ingrid.pt:8443/cms/store/mc/Run3Summer23NanoAODv12/NMSSM_XtoYHto4B_MX-4000_MY-3000_TuneCP5_13p6TeV_madgraph-pythia8/NANOAODSIM/130X_mcRun3_2023_realistic_v15-v2/2810000/94fd1a5b-63df-4a6b-9dcd-2e2b86f446b1.root",
        "T2_IT_Bari: davs://webdav.recas.ba.infn.it:8443/cms/store/mc/Run3Summer23NanoAODv12/NMSSM_XtoYHto4B_MX-4000_MY-3000_TuneCP5_13p6TeV_madgraph-pythia8/NANOAODSIM/130X_mcRun3_2023_realistic_v15-v2/2810000/94fd1a5b-63df-4a6b-9dcd-2e2b86f446b1.root",
        "T1_UK_RAL_Disk: davs://rdr.echo.stfc.ac.uk:1094/store/mc/Run3Summer23NanoAODv12/NMSSM_XtoYHto4B_MX-4000_MY-3000_TuneCP5_13p6TeV_madgraph-pythia8/NANOAODSIM/130X_mcRun3_2023_realistic_v15-v2/2810000/94fd1a5b-63df-4a6b-9dcd-2e2b86f446b1.root",
        "T1_US_FNAL_Tape_Test: davs://cmstnvm1.fnal.gov:2880/store/mc/Run3Summer23NanoAODv12/NMSSM_XtoYHto4B_MX-4000_MY-3000_TuneCP5_13p6TeV_madgraph-pythia8/NANOAODSIM/130X_mcRun3_2023_realistic_v15-v2/2810000/94fd1a5b-63df-4a6b-9dcd-2e2b86f446b1.root",
        "T2_US_Purdue: davs://eos.cms.rcac.purdue.edu:9000/store/mc/Run3Summer23NanoAODv12/NMSSM_XtoYHto4B_MX-4000_MY-3000_TuneCP5_13p6TeV_madgraph-pythia8/NANOAODSIM/130X_mcRun3_2023_realistic_v15-v2/2810000/94fd1a5b-63df-4a6b-9dcd-2e2b86f446b1.root",
        "T1_RU_JINR_Disk: davs://se-wbdv.jinr-t1.ru:2880/pnfs/jinr-t1.ru/data/cms/store/mc/Run3Summer23NanoAODv12/NMSSM_XtoYHto4B_MX-4000_MY-3000_TuneCP5_13p6TeV_madgraph-pythia8/NANOAODSIM/130X_mcRun3_2023_realistic_v15-v2/2810000/94fd1a5b-63df-4a6b-9dcd-2e2b86f446b1.root"
    ],
    "cms:/store/mc/Run3Summer23NanoAODv12/NMSSM_XtoYHto4B_MX-4000_MY-3000_TuneCP5_13p6TeV_madgraph-pythia8/NANOAODSIM/130X_mcRun3_2023_realistic_v15-v2/2810000/f5d053f9-439e-4c74-8e2e-c2785d07f628.root": [
        "T1_US_FNAL_Disk: davs://cmsdcadisk.fnal.gov:2880/dcache/uscmsdisk/store/mc/Run3Summer23NanoAODv12/NMSSM_XtoYHto4B_MX-4000_MY-3000_TuneCP5_13p6TeV_madgraph-pythia8/NANOAODSIM/130X_mcRun3_2023_realistic_v15-v2/2810000/f5d053f9-439e-4c74-8e2e-c2785d07f628.root",
        "T2_PT_NCG_Lisbon: davs://gftp03.ncg.ingrid.pt:8443/cms/store/mc/Run3Summer23NanoAODv12/NMSSM_XtoYHto4B_MX-4000_MY-3000_TuneCP5_13p6TeV_madgraph-pythia8/NANOAODSIM/130X_mcRun3_2023_realistic_v15-v2/2810000/f5d053f9-439e-4c74-8e2e-c2785d07f628.root",
        "T2_IT_Bari: davs://webdav.recas.ba.infn.it:8443/cms/store/mc/Run3Summer23NanoAODv12/NMSSM_XtoYHto4B_MX-4000_MY-3000_TuneCP5_13p6TeV_madgraph-pythia8/NANOAODSIM/130X_mcRun3_2023_realistic_v15-v2/2810000/f5d053f9-439e-4c74-8e2e-c2785d07f628.root",
        "T1_UK_RAL_Disk: davs://rdr.echo.stfc.ac.uk:1094/store/mc/Run3Summer23NanoAODv12/NMSSM_XtoYHto4B_MX-4000_MY-3000_TuneCP5_13p6TeV_madgraph-pythia8/NANOAODSIM/130X_mcRun3_2023_realistic_v15-v2/2810000/f5d053f9-439e-4c74-8e2e-c2785d07f628.root",
        "T1_US_FNAL_Tape_Test: davs://cmstnvm1.fnal.gov:2880/store/mc/Run3Summer23NanoAODv12/NMSSM_XtoYHto4B_MX-4000_MY-3000_TuneCP5_13p6TeV_madgraph-pythia8/NANOAODSIM/130X_mcRun3_2023_realistic_v15-v2/2810000/f5d053f9-439e-4c74-8e2e-c2785d07f628.root",
        "T2_IT_Pisa: davs://stwebdav.pi.infn.it:8443/cms/store/mc/Run3Summer23NanoAODv12/NMSSM_XtoYHto4B_MX-4000_MY-3000_TuneCP5_13p6TeV_madgraph-pythia8/NANOAODSIM/130X_mcRun3_2023_realistic_v15-v2/2810000/f5d053f9-439e-4c74-8e2e-c2785d07f628.root",
        "T2_US_Purdue: davs://eos.cms.rcac.purdue.edu:9000/store/mc/Run3Summer23NanoAODv12/NMSSM_XtoYHto4B_MX-4000_MY-3000_TuneCP5_13p6TeV_madgraph-pythia8/NANOAODSIM/130X_mcRun3_2023_realistic_v15-v2/2810000/f5d053f9-439e-4c74-8e2e-c2785d07f628.root",
        "T1_RU_JINR_Disk: davs://se-wbdv.jinr-t1.ru:2880/pnfs/jinr-t1.ru/data/cms/store/mc/Run3Summer23NanoAODv12/NMSSM_XtoYHto4B_MX-4000_MY-3000_TuneCP5_13p6TeV_madgraph-pythia8/NANOAODSIM/130X_mcRun3_2023_realistic_v15-v2/2810000/f5d053f9-439e-4c74-8e2e-c2785d07f628.root"
    ],
    "cms:/store/mc/Run3Summer23NanoAODv12/NMSSM_XtoYHto4B_MX-4000_MY-3000_TuneCP5_13p6TeV_madgraph-pythia8/NANOAODSIM/130X_mcRun3_2023_realistic_v15-v2/2810000/5d4bba04-abd7-4a7f-bf41-2357e72b4665.root": [
        "T1_US_FNAL_Disk: davs://cmsdcadisk.fnal.gov:2880/dcache/uscmsdisk/store/mc/Run3Summer23NanoAODv12/NMSSM_XtoYHto4B_MX-4000_MY-3000_TuneCP5_13p6TeV_madgraph-pythia8/NANOAODSIM/130X_mcRun3_2023_realistic_v15-v2/2810000/5d4bba04-abd7-4a7f-bf41-2357e72b4665.root",
        "T2_PT_NCG_Lisbon: davs://gftp03.ncg.ingrid.pt:8443/cms/store/mc/Run3Summer23NanoAODv12/NMSSM_XtoYHto4B_MX-4000_MY-3000_TuneCP5_13p6TeV_madgraph-pythia8/NANOAODSIM/130X_mcRun3_2023_realistic_v15-v2/2810000/5d4bba04-abd7-4a7f-bf41-2357e72b4665.root",
        "T2_IT_Bari: davs://webdav.recas.ba.infn.it:8443/cms/store/mc/Run3Summer23NanoAODv12/NMSSM_XtoYHto4B_MX-4000_MY-3000_TuneCP5_13p6TeV_madgraph-pythia8/NANOAODSIM/130X_mcRun3_2023_realistic_v15-v2/2810000/5d4bba04-abd7-4a7f-bf41-2357e72b4665.root",
        "T1_UK_RAL_Disk: davs://rdr.echo.stfc.ac.uk:1094/store/mc/Run3Summer23NanoAODv12/NMSSM_XtoYHto4B_MX-4000_MY-3000_TuneCP5_13p6TeV_madgraph-pythia8/NANOAODSIM/130X_mcRun3_2023_realistic_v15-v2/2810000/5d4bba04-abd7-4a7f-bf41-2357e72b4665.root",
        "T1_US_FNAL_Tape_Test: davs://cmstnvm1.fnal.gov:2880/store/mc/Run3Summer23NanoAODv12/NMSSM_XtoYHto4B_MX-4000_MY-3000_TuneCP5_13p6TeV_madgraph-pythia8/NANOAODSIM/130X_mcRun3_2023_realistic_v15-v2/2810000/5d4bba04-abd7-4a7f-bf41-2357e72b4665.root",
        "T2_US_Purdue: davs://eos.cms.rcac.purdue.edu:9000/store/mc/Run3Summer23NanoAODv12/NMSSM_XtoYHto4B_MX-4000_MY-3000_TuneCP5_13p6TeV_madgraph-pythia8/NANOAODSIM/130X_mcRun3_2023_realistic_v15-v2/2810000/5d4bba04-abd7-4a7f-bf41-2357e72b4665.root",
        "T1_RU_JINR_Disk: davs://se-wbdv.jinr-t1.ru:2880/pnfs/jinr-t1.ru/data/cms/store/mc/Run3Summer23NanoAODv12/NMSSM_XtoYHto4B_MX-4000_MY-3000_TuneCP5_13p6TeV_madgraph-pythia8/NANOAODSIM/130X_mcRun3_2023_realistic_v15-v2/2810000/5d4bba04-abd7-4a7f-bf41-2357e72b4665.root"
    ],
    "cms:/store/mc/Run3Summer23NanoAODv12/NMSSM_XtoYHto4B_MX-4000_MY-3000_TuneCP5_13p6TeV_madgraph-pythia8/NANOAODSIM/130X_mcRun3_2023_realistic_v15-v2/2810000/81eeda1a-c45e-42e3-b62b-daf8ae333b99.root": [
        "T1_US_FNAL_Disk: davs://cmsdcadisk.fnal.gov:2880/dcache/uscmsdisk/store/mc/Run3Summer23NanoAODv12/NMSSM_XtoYHto4B_MX-4000_MY-3000_TuneCP5_13p6TeV_madgraph-pythia8/NANOAODSIM/130X_mcRun3_2023_realistic_v15-v2/2810000/81eeda1a-c45e-42e3-b62b-daf8ae333b99.root",
        "T2_PT_NCG_Lisbon: davs://gftp03.ncg.ingrid.pt:8443/cms/store/mc/Run3Summer23NanoAODv12/NMSSM_XtoYHto4B_MX-4000_MY-3000_TuneCP5_13p6TeV_madgraph-pythia8/NANOAODSIM/130X_mcRun3_2023_realistic_v15-v2/2810000/81eeda1a-c45e-42e3-b62b-daf8ae333b99.root",
        "T2_IT_Bari: davs://webdav.recas.ba.infn.it:8443/cms/store/mc/Run3Summer23NanoAODv12/NMSSM_XtoYHto4B_MX-4000_MY-3000_TuneCP5_13p6TeV_madgraph-pythia8/NANOAODSIM/130X_mcRun3_2023_realistic_v15-v2/2810000/81eeda1a-c45e-42e3-b62b-daf8ae333b99.root",
        "T1_UK_RAL_Disk: davs://rdr.echo.stfc.ac.uk:1094/store/mc/Run3Summer23NanoAODv12/NMSSM_XtoYHto4B_MX-4000_MY-3000_TuneCP5_13p6TeV_madgraph-pythia8/NANOAODSIM/130X_mcRun3_2023_realistic_v15-v2/2810000/81eeda1a-c45e-42e3-b62b-daf8ae333b99.root",
        "T1_US_FNAL_Tape_Test: davs://cmstnvm1.fnal.gov:2880/store/mc/Run3Summer23NanoAODv12/NMSSM_XtoYHto4B_MX-4000_MY-3000_TuneCP5_13p6TeV_madgraph-pythia8/NANOAODSIM/130X_mcRun3_2023_realistic_v15-v2/2810000/81eeda1a-c45e-42e3-b62b-daf8ae333b99.root",
        "T1_IT_CNAF_Tape: davs://xfer-tape-cms.cr.cnaf.infn.it:8443/cmstape/store/mc/Run3Summer23NanoAODv12/NMSSM_XtoYHto4B_MX-4000_MY-3000_TuneCP5_13p6TeV_madgraph-pythia8/NANOAODSIM/130X_mcRun3_2023_realistic_v15-v2/2810000/81eeda1a-c45e-42e3-b62b-daf8ae333b99.root",
        "T2_US_Purdue: davs://eos.cms.rcac.purdue.edu:9000/store/mc/Run3Summer23NanoAODv12/NMSSM_XtoYHto4B_MX-4000_MY-3000_TuneCP5_13p6TeV_madgraph-pythia8/NANOAODSIM/130X_mcRun3_2023_realistic_v15-v2/2810000/81eeda1a-c45e-42e3-b62b-daf8ae333b99.root",
        "T1_RU_JINR_Disk: davs://se-wbdv.jinr-t1.ru:2880/pnfs/jinr-t1.ru/data/cms/store/mc/Run3Summer23NanoAODv12/NMSSM_XtoYHto4B_MX-4000_MY-3000_TuneCP5_13p6TeV_madgraph-pythia8/NANOAODSIM/130X_mcRun3_2023_realistic_v15-v2/2810000/81eeda1a-c45e-42e3-b62b-daf8ae333b99.root"
    ]
}