#/NMSSM_XtoYHto4B_MX-1800_MY-800_TuneCP5_13p6TeV_madgraph-pythia8/Run3Summer22EENanoAODv12-130X_mcRun3_2022_realistic_postEE_v6-v2/NANOAODSIM
+-------------------------------------------------------------------------------------------------------------------------------------------------------------------------------------------------------------+--------+-------------+------------+----------+
| SCOPE:NAME                                                                                                                                                                                                  | GUID   | ADLER32     | FILESIZE   | EVENTS   |
|-------------------------------------------------------------------------------------------------------------------------------------------------------------------------------------------------------------+--------+-------------+------------+----------|
| cms:/store/mc/Run3Summer22EENanoAODv12/NMSSM_XtoYHto4B_MX-1800_MY-800_TuneCP5_13p6TeV_madgraph-pythia8/NANOAODSIM/130X_mcRun3_2022_realistic_postEE_v6-v2/2820000/b551ba63-b0bc-4e85-8407-99df664bac47.root | (None) | ad:d04f2538 | 9.248 MB   |          |
| cms:/store/mc/Run3Summer22EENanoAODv12/NMSSM_XtoYHto4B_MX-1800_MY-800_TuneCP5_13p6TeV_madgraph-pythia8/NANOAODSIM/130X_mcRun3_2022_realistic_postEE_v6-v2/2820000/c85db11f-bc42-42af-9f1e-aaa580bdc15c.root | (None) | ad:3a0f2566 | 13.898 MB  |          |
| cms:/store/mc/Run3Summer22EENanoAODv12/NMSSM_XtoYHto4B_MX-1800_MY-800_TuneCP5_13p6TeV_madgraph-pythia8/NANOAODSIM/130X_mcRun3_2022_realistic_postEE_v6-v2/2820000/129b7727-6a6f-42f2-9b52-06150ef3d7de.root | (None) | ad:bb992eca | 24.257 MB  |          |
| cms:/store/mc/Run3Summer22EENanoAODv12/NMSSM_XtoYHto4B_MX-1800_MY-800_TuneCP5_13p6TeV_madgraph-pythia8/NANOAODSIM/130X_mcRun3_2022_realistic_postEE_v6-v2/2820000/5ab4c178-e78d-4fe6-9d4e-0dcf7bc18130.root | (None) | ad:c0718033 | 13.902 MB  |          |
| cms:/store/mc/Run3Summer22EENanoAODv12/NMSSM_XtoYHto4B_MX-1800_MY-800_TuneCP5_13p6TeV_madgraph-pythia8/NANOAODSIM/130X_mcRun3_2022_realistic_postEE_v6-v2/2820000/45fed260-9c07-4d66-8e69-66278d72e126.root | (None) | ad:a069c67d | 9.411 MB   |          |
| cms:/store/mc/Run3Summer22EENanoAODv12/NMSSM_XtoYHto4B_MX-1800_MY-800_TuneCP5_13p6TeV_madgraph-pythia8/NANOAODSIM/130X_mcRun3_2022_realistic_postEE_v6-v2/2820000/81ff89ad-e963-4b62-98fb-16d7936c9b13.root | (None) | ad:b412de9f | 15.899 MB  |          |
| cms:/store/mc/Run3Summer22EENanoAODv12/NMSSM_XtoYHto4B_MX-1800_MY-800_TuneCP5_13p6TeV_madgraph-pythia8/NANOAODSIM/130X_mcRun3_2022_realistic_postEE_v6-v2/2820000/52f0f280-8173-4756-b2d5-5918ead1bc85.root | (None) | ad:74e0e17b | 9.469 MB   |          |
| cms:/store/mc/Run3Summer22EENanoAODv12/NMSSM_XtoYHto4B_MX-1800_MY-800_TuneCP5_13p6TeV_madgraph-pythia8/NANOAODSIM/130X_mcRun3_2022_realistic_postEE_v6-v2/2820000/306b9bd4-c3fd-4dbc-aa8e-89a2b4732138.root | (None) | ad:0e67d4aa | 4.968 MB   |          |
| cms:/store/mc/Run3Summer22EENanoAODv12/NMSSM_XtoYHto4B_MX-1800_MY-800_TuneCP5_13p6TeV_madgraph-pythia8/NANOAODSIM/130X_mcRun3_2022_realistic_postEE_v6-v2/2820000/4d088185-0118-44bf-8a32-06b77fa5ffd7.root | (None) | ad:1d5e2ace | 7.445 MB   |          |
| cms:/store/mc/Run3Summer22EENanoAODv12/NMSSM_XtoYHto4B_MX-1800_MY-800_TuneCP5_13p6TeV_madgraph-pythia8/NANOAODSIM/130X_mcRun3_2022_realistic_postEE_v6-v2/2820000/51fcad31-c2e0-4abc-b6de-aceab9623374.root | (None) | ad:126b2547 | 15.879 MB  |          |
| cms:/store/mc/Run3Summer22EENanoAODv12/NMSSM_XtoYHto4B_MX-1800_MY-800_TuneCP5_13p6TeV_madgraph-pythia8/NANOAODSIM/130X_mcRun3_2022_realistic_postEE_v6-v2/2820000/56ec8cbe-f872-47b4-8280-62b0acff2732.root | (None) | ad:0d1f39d4 | 11.462 MB  |          |
| cms:/store/mc/Run3Summer22EENanoAODv12/NMSSM_XtoYHto4B_MX-1800_MY-800_TuneCP5_13p6TeV_madgraph-pythia8/NANOAODSIM/130X_mcRun3_2022_realistic_postEE_v6-v2/2820000/e1877ebd-cdb4-4a9f-b92b-858281ccea5d.root | (None) | ad:ea4cbebf | 4.961 MB   |          |
| cms:/store/mc/Run3Summer22EENanoAODv12/NMSSM_XtoYHto4B_MX-1800_MY-800_TuneCP5_13p6TeV_madgraph-pythia8/NANOAODSIM/130X_mcRun3_2022_realistic_postEE_v6-v2/2820000/c37c641a-6345-42f7-80ca-b81c9d4a1028.root | (None) | ad:0aee8e93 | 9.432 MB   |          |
| cms:/store/mc/Run3Summer22EENanoAODv12/NMSSM_XtoYHto4B_MX-1800_MY-800_TuneCP5_13p6TeV_madgraph-pythia8/NANOAODSIM/130X_mcRun3_2022_realistic_postEE_v6-v2/2820000/ae6070f3-1595-4806-8458-7ed900cc310d.root | (None) | ad:d0da087f | 34.615 MB  |          |
| cms:/store/mc/Run3Summer22EENanoAODv12/NMSSM_XtoYHto4B_MX-1800_MY-800_TuneCP5_13p6TeV_madgraph-pythia8/NANOAODSIM/130X_mcRun3_2022_realistic_postEE_v6-v2/2820000/de69d0c5-21a7-4368-984d-ff66fee0e524.root | (None) | ad:d4439324 | 34.668 MB  |          |
| cms:/store/mc/Run3Summer22EENanoAODv12/NMSSM_XtoYHto4B_MX-1800_MY-800_TuneCP5_13p6TeV_madgraph-pythia8/NANOAODSIM/130X_mcRun3_2022_realistic_postEE_v6-v2/2820000/d45d2cb6-e88b-42b4-b843-c26507c57a03.root | (None) | ad:4f37032c | 11.432 MB  |          |
| cms:/store/mc/Run3Summer22EENanoAODv12/NMSSM_XtoYHto4B_MX-1800_MY-800_TuneCP5_13p6TeV_madgraph-pythia8/NANOAODSIM/130X_mcRun3_2022_realistic_postEE_v6-v2/2820000/845ae2db-37d9-4768-a696-a61cfb9c4e47.root | (None) | ad:3d760256 | 4.967 MB   |          |
| cms:/store/mc/Run3Summer22EENanoAODv12/NMSSM_XtoYHto4B_MX-1800_MY-800_TuneCP5_13p6TeV_madgraph-pythia8/NANOAODSIM/130X_mcRun3_2022_realistic_postEE_v6-v2/2820000/0878655c-3bd7-4add-a6d8-141009e05e63.root | (None) | ad:c0d0c99a | 9.460 MB   |          |
| cms:/store/mc/Run3Summer22EENanoAODv12/NMSSM_XtoYHto4B_MX-1800_MY-800_TuneCP5_13p6TeV_madgraph-pythia8/NANOAODSIM/130X_mcRun3_2022_realistic_postEE_v6-v2/2820000/99cdc0bf-b232-4381-9093-2888f1e9ceb9.root | (None) | ad:03e4c88d | 13.889 MB  |          |
| cms:/store/mc/Run3Summer22EENanoAODv12/NMSSM_XtoYHto4B_MX-1800_MY-800_TuneCP5_13p6TeV_madgraph-pythia8/NANOAODSIM/130X_mcRun3_2022_realistic_postEE_v6-v2/2820000/a300af7c-4035-49d8-88c4-e754d59763b8.root | (None) | ad:e3f49687 | 4.960 MB   |          |
| cms:/store/mc/Run3Summer22EENanoAODv12/NMSSM_XtoYHto4B_MX-1800_MY-800_TuneCP5_13p6TeV_madgraph-pythia8/NANOAODSIM/130X_mcRun3_2022_realistic_postEE_v6-v2/2820000/df72e0a3-5f8d-4e74-8c4b-b0fff2943f53.root | (None) | ad:e4b4e070 | 7.444 MB   |          |
| cms:/store/mc/Run3Summer22EENanoAODv12/NMSSM_XtoYHto4B_MX-1800_MY-800_TuneCP5_13p6TeV_madgraph-pythia8/NANOAODSIM/130X_mcRun3_2022_realistic_postEE_v6-v2/2820000/5187cf84-bdea-40a5-b0a6-85d40dae0753.root | (None) | ad:7c99436a | 40.955 MB  |          |
+-------------------------------------------------------------------------------------------------------------------------------------------------------------------------------------------------------------+--------+-------------+------------+----------+
Total files : 22
Total size : 312.620 MB
