{
    "cms:/store/mc/Run3Summer23BPixNanoAODv12/NMSSM_XtoYHto4B_MX-400_MY-200_TuneCP5_13p6TeV_madgraph-pythia8/NANOAODSIM/130X_mcRun3_2023_realistic_postBPix_v6-v2/130000/75c54a50-fd97-41a6-9afd-3b47faeecef6.root": [
        "T1_US_FNAL_Disk: davs://cmsdcadisk.fnal.gov:2880/dcache/uscmsdisk/store/mc/Run3Summer23BPixNanoAODv12/NMSSM_XtoYHto4B_MX-400_MY-200_TuneCP5_13p6TeV_madgraph-pythia8/NANOAODSIM/130X_mcRun3_2023_realistic_postBPix_v6-v2/130000/75c54a50-fd97-41a6-9afd-3b47faeecef6.root",
        "T1_DE_KIT_Disk: davs://cmsdcache-kit-disk.gridka.de:2880/pnfs/gridka.de/cms/disk-only/store/mc/Run3Summer23BPixNanoAODv12/NMSSM_XtoYHto4B_MX-400_MY-200_TuneCP5_13p6TeV_madgraph-pythia8/NANOAODSIM/130X_mcRun3_2023_realistic_postBPix_v6-v2/130000/75c54a50-fd97-41a6-9afd-3b47faeecef6.root",
        "T2_IT_Legnaro: davs://t2-xrdcms.lnl.infn.it:2880/pnfs/lnl.infn.it/data/cms/store/mc/Run3Summer23BPixNanoAODv12/NMSSM_XtoYHto4B_MX-400_MY-200_TuneCP5_13p6TeV_madgraph-pythia8/NANOAODSIM/130X_mcRun3_2023_realistic_postBPix_v6-v2/130000/75c54a50-fd97-41a6-9afd-3b47faeecef6.root",
        "T2_FR_GRIF: davs://eos.grif.fr:11000/eos/grif/cms/grif/store/mc/Run3Summer23BPixNanoAODv12/NMSSM_XtoYHto4B_MX-400_MY-200_TuneCP5_13p6TeV_madgraph-pythia8/NANOAODSIM/130X_mcRun3_2023_realistic_postBPix_v6-v2/130000/75c54a50-fd97-41a6-9afd-3b47faeecef6.root",
        "T1_US_FNAL_Tape_Test: davs://cmstnvm1.fnal.gov:2880/store/mc/Run3Summer23BPixNanoAODv12/NMSSM_XtoYHto4B_MX-400_MY-200_TuneCP5_13p6TeV_madgraph-pythia8/NANOAODSIM/130X_mcRun3_2023_realistic_postBPix_v6-v2/130000/75c54a50-fd97-41a6-9afd-3b47faeecef6.root",
        "T2_US_Wisconsin: davs://cmsxrootd.hep.wisc.edu:1094/store/mc/Run3Summer23BPixNanoAODv12/NMSSM_XtoYHto4B_MX-400_MY-200_TuneCP5_13p6TeV_madgraph-pythia8/NANOAODSIM/130X_mcRun3_2023_realistic_postBPix_v6-v2/130000/75c54a50-fd97-41a6-9afd-3b47faeecef6.root",
        "T1_RU_JINR_Disk: davs://se-wbdv.jinr-t1.ru:2880/pnfs/jinr-t1.ru/data/cms/store/mc/Run3Summer23BPixNanoAODv12/NMSSM_XtoYHto4B_MX-400_MY-200_TuneCP5_13p6TeV_madgraph-pythia8/NANOAODSIM/130X_mcRun3_2023_realistic_postBPix_v6-v2/130000/75c54a50-fd97-41a6-9afd-3b47faeecef6.root",
        "T2_US_MIT_Tape: davs://dtn20.nese.mghpcc.org:443/store/mc/Run3Summer23BPixNanoAODv12/NMSSM_XtoYHto4B_MX-400_MY-200_TuneCP5_13p6TeV_madgraph-pythia8/NANOAODSIM/130X_mcRun3_2023_realistic_postBPix_v6-v2/130000/75c54a50-fd97-41a6-9afd-3b47faeecef6.root"
    ],
    "cms:/store/mc/Run3Summer23BPixNanoAODv12/NMSSM_XtoYHto4B_MX-400_MY-200_TuneCP5_13p6TeV_madgraph-pythia8/NANOAODSIM/130X_mcRun3_2023_realistic_postBPix_v6-v2/130000/c9297acb-9dd2-4d9a-a122-de2fb1f5b685.root": [
        "T1_US_FNAL_Disk: davs://cmsdcadisk.fnal.gov:2880/dcache/uscmsdisk/store/mc/Run3Summer23BPixNanoAODv12/NMSSM_XtoYHto4B_MX-400_MY-200_TuneCP5_13p6TeV_madgraph-pythia8/NANOAODSIM/130X_mcRun3_2023_realistic_postBPix_v6-v2/130000/c9297acb-9dd2-4d9a-a122-de2fb1f5b685.root",
        "T1_DE_KIT_Disk: davs://cmsdcache-kit-disk.gridka.de:2880/pnfs/gridka.de/cms/disk-only/store/mc/Run3Summer23BPixNanoAODv12/NMSSM_XtoYHto4B_MX-400_MY-200_TuneCP5_13p6TeV_madgraph-pythia8/NANOAODSIM/130X_mcRun3_2023_realistic_postBPix_v6-v2/130000/c9297acb-9dd2-4d9a-a122-de2fb1f5b685.root",
        "T2_IT_Legnaro: davs://t2-xrdcms.lnl.infn.it:2880/pnfs/lnl.infn.it/data/cms/store/mc/Run3Summer23BPixNanoAODv12/NMSSM_XtoYHto4B_MX-400_MY-200_TuneCP5_13p6TeV_madgraph-pythia8/NANOAODSIM/130X_mcRun3_2023_realistic_postBPix_v6-v2/130000/c9297acb-9dd2-4d9a-a122-de2fb1f5b685.root",
        "T2_FR_GRIF: davs://eos.grif.fr:11000/eos/grif/cms/grif/store/mc/Run3Summer23BPixNanoAODv12/NMSSM_XtoYHto4B_MX-400_MY-200_TuneCP5_13p6TeV_madgraph-pythia8/NANOAODSIM/130X_mcRun3_2023_realistic_postBPix_v6-v2/130000/c9297acb-9dd2-4d9a-a122-de2fb1f5b685.root",
        "T1_US_FNAL_Tape_Test: davs://cmstnvm1.fnal.gov:2880/store/mc/Run3Summer23BPixNanoAODv12/NMSSM_XtoYHto4B_MX-400_MY-200_TuneCP5_13p6TeV_madgraph-pythia8/NANOAODSIM/130X_mcRun3_2023_realistic_postBPix_v6-v2/130000/c9297acb-9dd2-4d9a-a122-de2fb1f5b685.root",
        "T2_US_Wisconsin: davs://cmsxrootd.hep.wisc.edu:1094/store/mc/Run3Summer23BPixNanoAODv12/NMSSM_XtoYHto4B_MX-400_MY-200_TuneCP5_13p6TeV_madgraph-pythia8/NANOAODSIM/130X_mcRun3_2023_realistic_postBPix_v6-v2/130000/c9297acb-9dd2-4d9a-a122-de2fb1f5b685.root",
        "T1_RU_JINR_Disk: davs://se-wbdv.jinr-t1.ru:2880/pnfs/jinr-t1.ru/data/cms/store/mc/Run3Summer23BPixNanoAODv12/NMSSM_XtoYHto4B_MX-400_MY-200_TuneCP5_13p6TeV_madgraph-pythia8/NANOAODSIM/130X_mcRun3_2023_realistic_postBPix_v6-v2/130000/c9297acb-9dd2-4d9a-a122-de2fb1f5b685.root",
        "T2_US_MIT_Tape: davs://dtn20.nese.mghpcc.org:443/store/mc/Run3Summer23BPixNanoAODv12/NMSSM_XtoYHto4B_MX-400_MY-200_TuneCP5_13p6TeV_madgraph-pythia8/NANOAODSIM/130X_mcRun3_2023_realistic_postBPix_v6-v2/130000/c9297acb-9dd2-4d9a-a122-de2fb1f5b685.root"
    ]
}