{
    "cms:/store/mc/Run3Summer22NanoAODv12/NMSSM_XtoYHto4B_MX-700_MY-70_TuneCP5_13p6TeV_madgraph-pythia8/NANOAODSIM/130X_mcRun3_2022_realistic_v5-v2/2820000/faa70ef6-a4a1-4367-8515-1a78f6258a5d.root": [
        "T1_US_FNAL_Disk: davs://cmsdcadisk.fnal.gov:2880/dcache/uscmsdisk/store/mc/Run3Summer22NanoAODv12/NMSSM_XtoYHto4B_MX-700_MY-70_TuneCP5_13p6TeV_madgraph-pythia8/NANOAODSIM/130X_mcRun3_2022_realistic_v5-v2/2820000/faa70ef6-a4a1-4367-8515-1a78f6258a5d.root",
        "T2_UK_SGrid_RALPP: davs://mover.pp.rl.ac.uk:2880/pnfs/pp.rl.ac.uk/data/cms/store/mc/Run3Summer22NanoAODv12/NMSSM_XtoYHto4B_MX-700_MY-70_TuneCP5_13p6TeV_madgraph-pythia8/NANOAODSIM/130X_mcRun3_2022_realistic_v5-v2/2820000/faa70ef6-a4a1-4367-8515-1a78f6258a5d.root",
        "T2_FI_HIP: davs://hip-cms-se.csc.fi:2880/store/mc/Run3Summer22NanoAODv12/NMSSM_XtoYHto4B_MX-700_MY-70_TuneCP5_13p6TeV_madgraph-pythia8/NANOAODSIM/130X_mcRun3_2022_realistic_v5-v2/2820000/faa70ef6-a4a1-4367-8515-1a78f6258a5d.root",
        "T2_US_Florida: davs://cmsio2.rc.ufl.edu:1094/store/mc/Run3Summer22NanoAODv12/NMSSM_XtoYHto4B_MX-700_MY-70_TuneCP5_13p6TeV_madgraph-pythia8/NANOAODSIM/130X_mcRun3_2022_realistic_v5-v2/2820000/faa70ef6-a4a1-4367-8515-1a78f6258a5d.root",
        "T2_BE_IIHE: davs://maite.iihe.ac.be:2880/pnfs/iihe/cms/ph/sc4/store/mc/Run3Summer22NanoAODv12/NMSSM_XtoYHto4B_MX-700_MY-70_TuneCP5_13p6TeV_madgraph-pythia8/NANOAODSIM/130X_mcRun3_2022_realistic_v5-v2/2820000/faa70ef6-a4a1-4367-8515-1a78f6258a5d.root",
        "T2_UK_London_IC: davs://gfe02.grid.hep.ph.ic.ac.uk:2880/pnfs/hep.ph.ic.ac.uk/data/cms/store/mc/Run3Summer22NanoAODv12/NMSSM_XtoYHto4B_MX-700_MY-70_TuneCP5_13p6TeV_madgraph-pythia8/NANOAODSIM/130X_mcRun3_2022_realistic_v5-v2/2820000/faa70ef6-a4a1-4367-8515-1a78f6258a5d.root",
        "T1_US_FNAL_Tape: davs://cmsdcatape.fnal.gov:2880/WAX/11/store/mc/Run3Summer22NanoAODv12/NMSSM_XtoYHto4B_MX-700_MY-70_TuneCP5_13p6TeV_madgraph-pythia8/NANOAODSIM/130X_mcRun3_2022_realistic_v5-v2/2820000/faa70ef6-a4a1-4367-8515-1a78f6258a5d.root"
    ],
    "cms:/store/mc/Run3Summer22NanoAODv12/NMSSM_XtoYHto4B_MX-700_MY-70_TuneCP5_13p6TeV_madgraph-pythia8/NANOAODSIM/130X_mcRun3_2022_realistic_v5-v2/2820000/93001eb3-bac4-407a-ac76-c2612f11f7f4.root": [
        "T1_US_FNAL_Disk: davs://cmsdcadisk.fnal.gov:2880/dcache/uscmsdisk/store/mc/Run3Summer22NanoAODv12/NMSSM_XtoYHto4B_MX-700_MY-70_TuneCP5_13p6TeV_madgraph-pythia8/NANOAODSIM/130X_mcRun3_2022_realistic_v5-v2/2820000/93001eb3-bac4-407a-ac76-c2612f11f7f4.root",
        "T2_UK_SGrid_RALPP: davs://mover.pp.rl.ac.uk:2880/pnfs/pp.rl.ac.uk/data/cms/store/mc/Run3Summer22NanoAODv12/NMSSM_XtoYHto4B_MX-700_MY-70_TuneCP5_13p6TeV_madgraph-pythia8/NANOAODSIM/130X_mcRun3_2022_realistic_v5-v2/2820000/93001eb3-bac4-407a-ac76-c2612f11f7f4.root",
        "T3_US_Colorado: davs://hepxrd01-colorado.sites.opensciencegrid.org:1094/store/mc/Run3Summer22NanoAODv12/NMSSM_XtoYHto4B_MX-700_MY-70_TuneCP5_13p6TeV_madgraph-pythia8/NANOAODSIM/130X_mcRun3_2022_realistic_v5-v2/2820000/93001eb3-bac4-407a-ac76-c2612f11f7f4.root",
        "T2_FI_HIP: davs://hip-cms-se.csc.fi:2880/store/mc/Run3Summer22NanoAODv12/NMSSM_XtoYHto4B_MX-700_MY-70_TuneCP5_13p6TeV_madgraph-pythia8/NANOAODSIM/130X_mcRun3_2022_realistic_v5-v2/2820000/93001eb3-bac4-407a-ac76-c2612f11f7f4.root",
        "T2_US_Florida: davs://cmsio2.rc.ufl.edu:1094/store/mc/Run3Summer22NanoAODv12/NMSSM_XtoYHto4B_MX-700_MY-70_TuneCP5_13p6TeV_madgraph-pythia8/NANOAODSIM/130X_mcRun3_2022_realistic_v5-v2/2820000/93001eb3-bac4-407a-ac76-c2612f11f7f4.root",
        "T2_BE_IIHE: davs://maite.iihe.ac.be:2880/pnfs/iihe/cms/ph/sc4/store/mc/Run3Summer22NanoAODv12/NMSSM_XtoYHto4B_MX-700_MY-70_TuneCP5_13p6TeV_madgraph-pythia8/NANOAODSIM/130X_mcRun3_2022_realistic_v5-v2/2820000/93001eb3-bac4-407a-ac76-c2612f11f7f4.root",
        "T2_UK_London_IC: davs://gfe02.grid.hep.ph.ic.ac.uk:2880/pnfs/hep.ph.ic.ac.uk/data/cms/store/mc/Run3Summer22NanoAODv12/NMSSM_XtoYHto4B_MX-700_MY-70_TuneCP5_13p6TeV_madgraph-pythia8/NANOAODSIM/130X_mcRun3_2022_realistic_v5-v2/2820000/93001eb3-bac4-407a-ac76-c2612f11f7f4.root",
        "T1_US_FNAL_Tape: davs://cmsdcatape.fnal.gov:2880/WAX/11/store/mc/Run3Summer22NanoAODv12/NMSSM_XtoYHto4B_MX-700_MY-70_TuneCP5_13p6TeV_madgraph-pythia8/NANOAODSIM/130X_mcRun3_2022_realistic_v5-v2/2820000/93001eb3-bac4-407a-ac76-c2612f11f7f4.root"
    ],
    "cms:/store/mc/Run3Summer22NanoAODv12/NMSSM_XtoYHto4B_MX-700_MY-70_TuneCP5_13p6TeV_madgraph-pythia8/NANOAODSIM/130X_mcRun3_2022_realistic_v5-v2/2820000/1bb064e8-27c0-46d8-a5cd-b59e9bfc6067.root": [
        "T1_US_FNAL_Disk: davs://cmsdcadisk.fnal.gov:2880/dcache/uscmsdisk/store/mc/Run3Summer22NanoAODv12/NMSSM_XtoYHto4B_MX-700_MY-70_TuneCP5_13p6TeV_madgraph-pythia8/NANOAODSIM/130X_mcRun3_2022_realistic_v5-v2/2820000/1bb064e8-27c0-46d8-a5cd-b59e9bfc6067.root",
        "T2_UK_SGrid_RALPP: davs://mover.pp.rl.ac.uk:2880/pnfs/pp.rl.ac.uk/data/cms/store/mc/Run3Summer22NanoAODv12/NMSSM_XtoYHto4B_MX-700_MY-70_TuneCP5_13p6TeV_madgraph-pythia8/NANOAODSIM/130X_mcRun3_2022_realistic_v5-v2/2820000/1bb064e8-27c0-46d8-a5cd-b59e9bfc6067.root",
        "T2_FI_HIP: davs://hip-cms-se.csc.fi:2880/store/mc/Run3Summer22NanoAODv12/NMSSM_XtoYHto4B_MX-700_MY-70_TuneCP5_13p6TeV_madgraph-pythia8/NANOAODSIM/130X_mcRun3_2022_realistic_v5-v2/2820000/1bb064e8-27c0-46d8-a5cd-b59e9bfc6067.root",
        "T2_US_Florida: davs://cmsio2.rc.ufl.edu:1094/store/mc/Run3Summer22NanoAODv12/NMSSM_XtoYHto4B_MX-700_MY-70_TuneCP5_13p6TeV_madgraph-pythia8/NANOAODSIM/130X_mcRun3_2022_realistic_v5-v2/2820000/1bb064e8-27c0-46d8-a5cd-b59e9bfc6067.root",
        "T2_BE_IIHE: davs://maite.iihe.ac.be:2880/pnfs/iihe/cms/ph/sc4/store/mc/Run3Summer22NanoAODv12/NMSSM_XtoYHto4B_MX-700_MY-70_TuneCP5_13p6TeV_madgraph-pythia8/NANOAODSIM/130X_mcRun3_2022_realistic_v5-v2/2820000/1bb064e8-27c0-46d8-a5cd-b59e9bfc6067.root",
        "T2_UK_London_IC: davs://gfe02.grid.hep.ph.ic.ac.uk:2880/pnfs/hep.ph.ic.ac.uk/data/cms/store/mc/Run3Summer22NanoAODv12/NMSSM_XtoYHto4B_MX-700_MY-70_TuneCP5_13p6TeV_madgraph-pythia8/NANOAODSIM/130X_mcRun3_2022_realistic_v5-v2/2820000/1bb064e8-27c0-46d8-a5cd-b59e9bfc6067.root",
        "T1_US_FNAL_Tape: davs://cmsdcatape.fnal.gov:2880/WAX/11/store/mc/Run3Summer22NanoAODv12/NMSSM_XtoYHto4B_MX-700_MY-70_TuneCP5_13p6TeV_madgraph-pythia8/NANOAODSIM/130X_mcRun3_2022_realistic_v5-v2/2820000/1bb064e8-27c0-46d8-a5cd-b59e9bfc6067.root"
    ],
    "cms:/store/mc/Run3Summer22NanoAODv12/NMSSM_XtoYHto4B_MX-700_MY-70_TuneCP5_13p6TeV_madgraph-pythia8/NANOAODSIM/130X_mcRun3_2022_realistic_v5-v2/2820000/613186fd-91e4-487f-9bbb-6c590773736a.root": [
        "T1_US_FNAL_Disk: davs://cmsdcadisk.fnal.gov:2880/dcache/uscmsdisk/store/mc/Run3Summer22NanoAODv12/NMSSM_XtoYHto4B_MX-700_MY-70_TuneCP5_13p6TeV_madgraph-pythia8/NANOAODSIM/130X_mcRun3_2022_realistic_v5-v2/2820000/613186fd-91e4-487f-9bbb-6c590773736a.root",
        "T2_UK_SGrid_RALPP: davs://mover.pp.rl.ac.uk:2880/pnfs/pp.rl.ac.uk/data/cms/store/mc/Run3Summer22NanoAODv12/NMSSM_XtoYHto4B_MX-700_MY-70_TuneCP5_13p6TeV_madgraph-pythia8/NANOAODSIM/130X_mcRun3_2022_realistic_v5-v2/2820000/613186fd-91e4-487f-9bbb-6c590773736a.root",
        "T2_FI_HIP: davs://hip-cms-se.csc.fi:2880/store/mc/Run3Summer22NanoAODv12/NMSSM_XtoYHto4B_MX-700_MY-70_TuneCP5_13p6TeV_madgraph-pythia8/NANOAODSIM/130X_mcRun3_2022_realistic_v5-v2/2820000/613186fd-91e4-487f-9bbb-6c590773736a.root",
        "T2_US_Florida: davs://cmsio2.rc.ufl.edu:1094/store/mc/Run3Summer22NanoAODv12/NMSSM_XtoYHto4B_MX-700_MY-70_TuneCP5_13p6TeV_madgraph-pythia8/NANOAODSIM/130X_mcRun3_2022_realistic_v5-v2/2820000/613186fd-91e4-487f-9bbb-6c590773736a.root",
        "T2_BE_IIHE: davs://maite.iihe.ac.be:2880/pnfs/iihe/cms/ph/sc4/store/mc/Run3Summer22NanoAODv12/NMSSM_XtoYHto4B_MX-700_MY-70_TuneCP5_13p6TeV_madgraph-pythia8/NANOAODSIM/130X_mcRun3_2022_realistic_v5-v2/2820000/613186fd-91e4-487f-9bbb-6c590773736a.root",
        "T2_UK_London_IC: davs://gfe02.grid.hep.ph.ic.ac.uk:2880/pnfs/hep.ph.ic.ac.uk/data/cms/store/mc/Run3Summer22NanoAODv12/NMSSM_XtoYHto4B_MX-700_MY-70_TuneCP5_13p6TeV_madgraph-pythia8/NANOAODSIM/130X_mcRun3_2022_realistic_v5-v2/2820000/613186fd-91e4-487f-9bbb-6c590773736a.root",
        "T1_US_FNAL_Tape: davs://cmsdcatape.fnal.gov:2880/WAX/11/store/mc/Run3Summer22NanoAODv12/NMSSM_XtoYHto4B_MX-700_MY-70_TuneCP5_13p6TeV_madgraph-pythia8/NANOAODSIM/130X_mcRun3_2022_realistic_v5-v2/2820000/613186fd-91e4-487f-9bbb-6c590773736a.root"
    ],
    "cms:/store/mc/Run3Summer22NanoAODv12/NMSSM_XtoYHto4B_MX-700_MY-70_TuneCP5_13p6TeV_madgraph-pythia8/NANOAODSIM/130X_mcRun3_2022_realistic_v5-v2/2820000/ba93674f-76df-4868-979e-c19320c57c4b.root": [
        "T1_US_FNAL_Disk: davs://cmsdcadisk.fnal.gov:2880/dcache/uscmsdisk/store/mc/Run3Summer22NanoAODv12/NMSSM_XtoYHto4B_MX-700_MY-70_TuneCP5_13p6TeV_madgraph-pythia8/NANOAODSIM/130X_mcRun3_2022_realistic_v5-v2/2820000/ba93674f-76df-4868-979e-c19320c57c4b.root",
        "T2_UK_SGrid_RALPP: davs://mover.pp.rl.ac.uk:2880/pnfs/pp.rl.ac.uk/data/cms/store/mc/Run3Summer22NanoAODv12/NMSSM_XtoYHto4B_MX-700_MY-70_TuneCP5_13p6TeV_madgraph-pythia8/NANOAODSIM/130X_mcRun3_2022_realistic_v5-v2/2820000/ba93674f-76df-4868-979e-c19320c57c4b.root",
        "T2_FI_HIP: davs://hip-cms-se.csc.fi:2880/store/mc/Run3Summer22NanoAODv12/NMSSM_XtoYHto4B_MX-700_MY-70_TuneCP5_13p6TeV_madgraph-pythia8/NANOAODSIM/130X_mcRun3_2022_realistic_v5-v2/2820000/ba93674f-76df-4868-979e-c19320c57c4b.root",
        "T2_US_Florida: davs://cmsio2.rc.ufl.edu:1094/store/mc/Run3Summer22NanoAODv12/NMSSM_XtoYHto4B_MX-700_MY-70_TuneCP5_13p6TeV_madgraph-pythia8/NANOAODSIM/130X_mcRun3_2022_realistic_v5-v2/2820000/ba93674f-76df-4868-979e-c19320c57c4b.root",
        "T2_BE_IIHE: davs://maite.iihe.ac.be:2880/pnfs/iihe/cms/ph/sc4/store/mc/Run3Summer22NanoAODv12/NMSSM_XtoYHto4B_MX-700_MY-70_TuneCP5_13p6TeV_madgraph-pythia8/NANOAODSIM/130X_mcRun3_2022_realistic_v5-v2/2820000/ba93674f-76df-4868-979e-c19320c57c4b.root",
        "T2_UK_London_IC: davs://gfe02.grid.hep.ph.ic.ac.uk:2880/pnfs/hep.ph.ic.ac.uk/data/cms/store/mc/Run3Summer22NanoAODv12/NMSSM_XtoYHto4B_MX-700_MY-70_TuneCP5_13p6TeV_madgraph-pythia8/NANOAODSIM/130X_mcRun3_2022_realistic_v5-v2/2820000/ba93674f-76df-4868-979e-c19320c57c4b.root",
        "T1_US_FNAL_Tape: davs://cmsdcatape.fnal.gov:2880/WAX/11/store/mc/Run3Summer22NanoAODv12/NMSSM_XtoYHto4B_MX-700_MY-70_TuneCP5_13p6TeV_madgraph-pythia8/NANOAODSIM/130X_mcRun3_2022_realistic_v5-v2/2820000/ba93674f-76df-4868-979e-c19320c57c4b.root"
    ],
    "cms:/store/mc/Run3Summer22NanoAODv12/NMSSM_XtoYHto4B_MX-700_MY-70_TuneCP5_13p6TeV_madgraph-pythia8/NANOAODSIM/130X_mcRun3_2022_realistic_v5-v2/2820000/d2cf329a-e402-42c0-8248-d5f57db66fa7.root": [
        "T1_US_FNAL_Disk: davs://cmsdcadisk.fnal.gov:2880/dcache/uscmsdisk/store/mc/Run3Summer22NanoAODv12/NMSSM_XtoYHto4B_MX-700_MY-70_TuneCP5_13p6TeV_madgraph-pythia8/NANOAODSIM/130X_mcRun3_2022_realistic_v5-v2/2820000/d2cf329a-e402-42c0-8248-d5f57db66fa7.root",
        "T2_UK_SGrid_RALPP: davs://mover.pp.rl.ac.uk:2880/pnfs/pp.rl.ac.uk/data/cms/store/mc/Run3Summer22NanoAODv12/NMSSM_XtoYHto4B_MX-700_MY-70_TuneCP5_13p6TeV_madgraph-pythia8/NANOAODSIM/130X_mcRun3_2022_realistic_v5-v2/2820000/d2cf329a-e402-42c0-8248-d5f57db66fa7.root",
        "T2_FI_HIP: davs://hip-cms-se.csc.fi:2880/store/mc/Run3Summer22NanoAODv12/NMSSM_XtoYHto4B_MX-700_MY-70_TuneCP5_13p6TeV_madgraph-pythia8/NANOAODSIM/130X_mcRun3_2022_realistic_v5-v2/2820000/d2cf329a-e402-42c0-8248-d5f57db66fa7.root",
        "T2_US_Florida: davs://cmsio2.rc.ufl.edu:1094/store/mc/Run3Summer22NanoAODv12/NMSSM_XtoYHto4B_MX-700_MY-70_TuneCP5_13p6TeV_madgraph-pythia8/NANOAODSIM/130X_mcRun3_2022_realistic_v5-v2/2820000/d2cf329a-e402-42c0-8248-d5f57db66fa7.root",
        "T2_BE_IIHE: davs://maite.iihe.ac.be:2880/pnfs/iihe/cms/ph/sc4/store/mc/Run3Summer22NanoAODv12/NMSSM_XtoYHto4B_MX-700_MY-70_TuneCP5_13p6TeV_madgraph-pythia8/NANOAODSIM/130X_mcRun3_2022_realistic_v5-v2/2820000/d2cf329a-e402-42c0-8248-d5f57db66fa7.root",
        "T2_UK_London_IC: davs://gfe02.grid.hep.ph.ic.ac.uk:2880/pnfs/hep.ph.ic.ac.uk/data/cms/store/mc/Run3Summer22NanoAODv12/NMSSM_XtoYHto4B_MX-700_MY-70_TuneCP5_13p6TeV_madgraph-pythia8/NANOAODSIM/130X_mcRun3_2022_realistic_v5-v2/2820000/d2cf329a-e402-42c0-8248-d5f57db66fa7.root",
        "T1_US_FNAL_Tape: davs://cmsdcatape.fnal.gov:2880/WAX/11/store/mc/Run3Summer22NanoAODv12/NMSSM_XtoYHto4B_MX-700_MY-70_TuneCP5_13p6TeV_madgraph-pythia8/NANOAODSIM/130X_mcRun3_2022_realistic_v5-v2/2820000/d2cf329a-e402-42c0-8248-d5f57db66fa7.root"
    ],
    "cms:/store/mc/Run3Summer22NanoAODv12/NMSSM_XtoYHto4B_MX-700_MY-70_TuneCP5_13p6TeV_madgraph-pythia8/NANOAODSIM/130X_mcRun3_2022_realistic_v5-v2/2820000/fc52103e-5686-46b8-979f-6f4409ee59ff.root": [
        "T1_US_FNAL_Disk: davs://cmsdcadisk.fnal.gov:2880/dcache/uscmsdisk/store/mc/Run3Summer22NanoAODv12/NMSSM_XtoYHto4B_MX-700_MY-70_TuneCP5_13p6TeV_madgraph-pythia8/NANOAODSIM/130X_mcRun3_2022_realistic_v5-v2/2820000/fc52103e-5686-46b8-979f-6f4409ee59ff.root",
        "T2_UK_SGrid_RALPP: davs://mover.pp.rl.ac.uk:2880/pnfs/pp.rl.ac.uk/data/cms/store/mc/Run3Summer22NanoAODv12/NMSSM_XtoYHto4B_MX-700_MY-70_TuneCP5_13p6TeV_madgraph-pythia8/NANOAODSIM/130X_mcRun3_2022_realistic_v5-v2/2820000/fc52103e-5686-46b8-979f-6f4409ee59ff.root",
        "T2_FI_HIP: davs://hip-cms-se.csc.fi:2880/store/mc/Run3Summer22NanoAODv12/NMSSM_XtoYHto4B_MX-700_MY-70_TuneCP5_13p6TeV_madgraph-pythia8/NANOAODSIM/130X_mcRun3_2022_realistic_v5-v2/2820000/fc52103e-5686-46b8-979f-6f4409ee59ff.root",
        "T2_US_Florida: davs://cmsio2.rc.ufl.edu:1094/store/mc/Run3Summer22NanoAODv12/NMSSM_XtoYHto4B_MX-700_MY-70_TuneCP5_13p6TeV_madgraph-pythia8/NANOAODSIM/130X_mcRun3_2022_realistic_v5-v2/2820000/fc52103e-5686-46b8-979f-6f4409ee59ff.root",
        "T2_BE_IIHE: davs://maite.iihe.ac.be:2880/pnfs/iihe/cms/ph/sc4/store/mc/Run3Summer22NanoAODv12/NMSSM_XtoYHto4B_MX-700_MY-70_TuneCP5_13p6TeV_madgraph-pythia8/NANOAODSIM/130X_mcRun3_2022_realistic_v5-v2/2820000/fc52103e-5686-46b8-979f-6f4409ee59ff.root",
        "T2_UK_London_IC: davs://gfe02.grid.hep.ph.ic.ac.uk:2880/pnfs/hep.ph.ic.ac.uk/data/cms/store/mc/Run3Summer22NanoAODv12/NMSSM_XtoYHto4B_MX-700_MY-70_TuneCP5_13p6TeV_madgraph-pythia8/NANOAODSIM/130X_mcRun3_2022_realistic_v5-v2/2820000/fc52103e-5686-46b8-979f-6f4409ee59ff.root",
        "T1_US_FNAL_Tape: davs://cmsdcatape.fnal.gov:2880/WAX/11/store/mc/Run3Summer22NanoAODv12/NMSSM_XtoYHto4B_MX-700_MY-70_TuneCP5_13p6TeV_madgraph-pythia8/NANOAODSIM/130X_mcRun3_2022_realistic_v5-v2/2820000/fc52103e-5686-46b8-979f-6f4409ee59ff.root"
    ],
    "cms:/store/mc/Run3Summer22NanoAODv12/NMSSM_XtoYHto4B_MX-700_MY-70_TuneCP5_13p6TeV_madgraph-pythia8/NANOAODSIM/130X_mcRun3_2022_realistic_v5-v2/2820000/a995b1ba-6f8e-4a31-a42a-2bcfc29fd0e5.root": [
        "T1_US_FNAL_Disk: davs://cmsdcadisk.fnal.gov:2880/dcache/uscmsdisk/store/mc/Run3Summer22NanoAODv12/NMSSM_XtoYHto4B_MX-700_MY-70_TuneCP5_13p6TeV_madgraph-pythia8/NANOAODSIM/130X_mcRun3_2022_realistic_v5-v2/2820000/a995b1ba-6f8e-4a31-a42a-2bcfc29fd0e5.root",
        "T2_UK_SGrid_RALPP: davs://mover.pp.rl.ac.uk:2880/pnfs/pp.rl.ac.uk/data/cms/store/mc/Run3Summer22NanoAODv12/NMSSM_XtoYHto4B_MX-700_MY-70_TuneCP5_13p6TeV_madgraph-pythia8/NANOAODSIM/130X_mcRun3_2022_realistic_v5-v2/2820000/a995b1ba-6f8e-4a31-a42a-2bcfc29fd0e5.root",
        "T2_FI_HIP: davs://hip-cms-se.csc.fi:2880/store/mc/Run3Summer22NanoAODv12/NMSSM_XtoYHto4B_MX-700_MY-70_TuneCP5_13p6TeV_madgraph-pythia8/NANOAODSIM/130X_mcRun3_2022_realistic_v5-v2/2820000/a995b1ba-6f8e-4a31-a42a-2bcfc29fd0e5.root",
        "T2_US_Florida: davs://cmsio2.rc.ufl.edu:1094/store/mc/Run3Summer22NanoAODv12/NMSSM_XtoYHto4B_MX-700_MY-70_TuneCP5_13p6TeV_madgraph-pythia8/NANOAODSIM/130X_mcRun3_2022_realistic_v5-v2/2820000/a995b1ba-6f8e-4a31-a42a-2bcfc29fd0e5.root",
        "T2_BE_IIHE: davs://maite.iihe.ac.be:2880/pnfs/iihe/cms/ph/sc4/store/mc/Run3Summer22NanoAODv12/NMSSM_XtoYHto4B_MX-700_MY-70_TuneCP5_13p6TeV_madgraph-pythia8/NANOAODSIM/130X_mcRun3_2022_realistic_v5-v2/2820000/a995b1ba-6f8e-4a31-a42a-2bcfc29fd0e5.root",
        "T2_UK_London_IC: davs://gfe02.grid.hep.ph.ic.ac.uk:2880/pnfs/hep.ph.ic.ac.uk/data/cms/store/mc/Run3Summer22NanoAODv12/NMSSM_XtoYHto4B_MX-700_MY-70_TuneCP5_13p6TeV_madgraph-pythia8/NANOAODSIM/130X_mcRun3_2022_realistic_v5-v2/2820000/a995b1ba-6f8e-4a31-a42a-2bcfc29fd0e5.root",
        "T1_US_FNAL_Tape: davs://cmsdcatape.fnal.gov:2880/WAX/11/store/mc/Run3Summer22NanoAODv12/NMSSM_XtoYHto4B_MX-700_MY-70_TuneCP5_13p6TeV_madgraph-pythia8/NANOAODSIM/130X_mcRun3_2022_realistic_v5-v2/2820000/a995b1ba-6f8e-4a31-a42a-2bcfc29fd0e5.root"
    ],
    "cms:/store/mc/Run3Summer22NanoAODv12/NMSSM_XtoYHto4B_MX-700_MY-70_TuneCP5_13p6TeV_madgraph-pythia8/NANOAODSIM/130X_mcRun3_2022_realistic_v5-v2/2820000/96f6a346-fafa-4d5b-abb2-62b9870bbee5.root": [
        "T1_US_FNAL_Disk: davs://cmsdcadisk.fnal.gov:2880/dcache/uscmsdisk/store/mc/Run3Summer22NanoAODv12/NMSSM_XtoYHto4B_MX-700_MY-70_TuneCP5_13p6TeV_madgraph-pythia8/NANOAODSIM/130X_mcRun3_2022_realistic_v5-v2/2820000/96f6a346-fafa-4d5b-abb2-62b9870bbee5.root",
        "T2_UK_SGrid_RALPP: davs://mover.pp.rl.ac.uk:2880/pnfs/pp.rl.ac.uk/data/cms/store/mc/Run3Summer22NanoAODv12/NMSSM_XtoYHto4B_MX-700_MY-70_TuneCP5_13p6TeV_madgraph-pythia8/NANOAODSIM/130X_mcRun3_2022_realistic_v5-v2/2820000/96f6a346-fafa-4d5b-abb2-62b9870bbee5.root",
        "T2_FI_HIP: davs://hip-cms-se.csc.fi:2880/store/mc/Run3Summer22NanoAODv12/NMSSM_XtoYHto4B_MX-700_MY-70_TuneCP5_13p6TeV_madgraph-pythia8/NANOAODSIM/130X_mcRun3_2022_realistic_v5-v2/2820000/96f6a346-fafa-4d5b-abb2-62b9870bbee5.root",
        "T2_US_Florida: davs://cmsio2.rc.ufl.edu:1094/store/mc/Run3Summer22NanoAODv12/NMSSM_XtoYHto4B_MX-700_MY-70_TuneCP5_13p6TeV_madgraph-pythia8/NANOAODSIM/130X_mcRun3_2022_realistic_v5-v2/2820000/96f6a346-fafa-4d5b-abb2-62b9870bbee5.root",
        "T2_BE_IIHE: davs://maite.iihe.ac.be:2880/pnfs/iihe/cms/ph/sc4/store/mc/Run3Summer22NanoAODv12/NMSSM_XtoYHto4B_MX-700_MY-70_TuneCP5_13p6TeV_madgraph-pythia8/NANOAODSIM/130X_mcRun3_2022_realistic_v5-v2/2820000/96f6a346-fafa-4d5b-abb2-62b9870bbee5.root",
        "T2_UK_London_IC: davs://gfe02.grid.hep.ph.ic.ac.uk:2880/pnfs/hep.ph.ic.ac.uk/data/cms/store/mc/Run3Summer22NanoAODv12/NMSSM_XtoYHto4B_MX-700_MY-70_TuneCP5_13p6TeV_madgraph-pythia8/NANOAODSIM/130X_mcRun3_2022_realistic_v5-v2/2820000/96f6a346-fafa-4d5b-abb2-62b9870bbee5.root",
        "T1_US_FNAL_Tape: davs://cmsdcatape.fnal.gov:2880/WAX/11/store/mc/Run3Summer22NanoAODv12/NMSSM_XtoYHto4B_MX-700_MY-70_TuneCP5_13p6TeV_madgraph-pythia8/NANOAODSIM/130X_mcRun3_2022_realistic_v5-v2/2820000/96f6a346-fafa-4d5b-abb2-62b9870bbee5.root"
    ],
    "cms:/store/mc/Run3Summer22NanoAODv12/NMSSM_XtoYHto4B_MX-700_MY-70_TuneCP5_13p6TeV_madgraph-pythia8/NANOAODSIM/130X_mcRun3_2022_realistic_v5-v2/2820000/010538c0-0496-4d3b-adbc-e13b7094e30a.root": [
        "T1_US_FNAL_Disk: davs://cmsdcadisk.fnal.gov:2880/dcache/uscmsdisk/store/mc/Run3Summer22NanoAODv12/NMSSM_XtoYHto4B_MX-700_MY-70_TuneCP5_13p6TeV_madgraph-pythia8/NANOAODSIM/130X_mcRun3_2022_realistic_v5-v2/2820000/010538c0-0496-4d3b-adbc-e13b7094e30a.root",
        "T2_UK_SGrid_RALPP: davs://mover.pp.rl.ac.uk:2880/pnfs/pp.rl.ac.uk/data/cms/store/mc/Run3Summer22NanoAODv12/NMSSM_XtoYHto4B_MX-700_MY-70_TuneCP5_13p6TeV_madgraph-pythia8/NANOAODSIM/130X_mcRun3_2022_realistic_v5-v2/2820000/010538c0-0496-4d3b-adbc-e13b7094e30a.root",
        "T2_FI_HIP: davs://hip-cms-se.csc.fi:2880/store/mc/Run3Summer22NanoAODv12/NMSSM_XtoYHto4B_MX-700_MY-70_TuneCP5_13p6TeV_madgraph-pythia8/NANOAODSIM/130X_mcRun3_2022_realistic_v5-v2/2820000/010538c0-0496-4d3b-adbc-e13b7094e30a.root",
        "T2_US_Florida: davs://cmsio2.rc.ufl.edu:1094/store/mc/Run3Summer22NanoAODv12/NMSSM_XtoYHto4B_MX-700_MY-70_TuneCP5_13p6TeV_madgraph-pythia8/NANOAODSIM/130X_mcRun3_2022_realistic_v5-v2/2820000/010538c0-0496-4d3b-adbc-e13b7094e30a.root",
        "T2_BE_IIHE: davs://maite.iihe.ac.be:2880/pnfs/iihe/cms/ph/sc4/store/mc/Run3Summer22NanoAODv12/NMSSM_XtoYHto4B_MX-700_MY-70_TuneCP5_13p6TeV_madgraph-pythia8/NANOAODSIM/130X_mcRun3_2022_realistic_v5-v2/2820000/010538c0-0496-4d3b-adbc-e13b7094e30a.root",
        "T2_UK_London_IC: davs://gfe02.grid.hep.ph.ic.ac.uk:2880/pnfs/hep.ph.ic.ac.uk/data/cms/store/mc/Run3Summer22NanoAODv12/NMSSM_XtoYHto4B_MX-700_MY-70_TuneCP5_13p6TeV_madgraph-pythia8/NANOAODSIM/130X_mcRun3_2022_realistic_v5-v2/2820000/010538c0-0496-4d3b-adbc-e13b7094e30a.root",
        "T1_US_FNAL_Tape: davs://cmsdcatape.fnal.gov:2880/WAX/11/store/mc/Run3Summer22NanoAODv12/NMSSM_XtoYHto4B_MX-700_MY-70_TuneCP5_13p6TeV_madgraph-pythia8/NANOAODSIM/130X_mcRun3_2022_realistic_v5-v2/2820000/010538c0-0496-4d3b-adbc-e13b7094e30a.root"
    ],
    "cms:/store/mc/Run3Summer22NanoAODv12/NMSSM_XtoYHto4B_MX-700_MY-70_TuneCP5_13p6TeV_madgraph-pythia8/NANOAODSIM/130X_mcRun3_2022_realistic_v5-v2/2820000/3f91beaa-d490-4b84-87cb-08b3fcbf3439.root": [
        "T1_US_FNAL_Disk: davs://cmsdcadisk.fnal.gov:2880/dcache/uscmsdisk/store/mc/Run3Summer22NanoAODv12/NMSSM_XtoYHto4B_MX-700_MY-70_TuneCP5_13p6TeV_madgraph-pythia8/NANOAODSIM/130X_mcRun3_2022_realistic_v5-v2/2820000/3f91beaa-d490-4b84-87cb-08b3fcbf3439.root",
        "T2_UK_SGrid_RALPP: davs://mover.pp.rl.ac.uk:2880/pnfs/pp.rl.ac.uk/data/cms/store/mc/Run3Summer22NanoAODv12/NMSSM_XtoYHto4B_MX-700_MY-70_TuneCP5_13p6TeV_madgraph-pythia8/NANOAODSIM/130X_mcRun3_2022_realistic_v5-v2/2820000/3f91beaa-d490-4b84-87cb-08b3fcbf3439.root",
        "T2_FI_HIP: davs://hip-cms-se.csc.fi:2880/store/mc/Run3Summer22NanoAODv12/NMSSM_XtoYHto4B_MX-700_MY-70_TuneCP5_13p6TeV_madgraph-pythia8/NANOAODSIM/130X_mcRun3_2022_realistic_v5-v2/2820000/3f91beaa-d490-4b84-87cb-08b3fcbf3439.root",
        "T2_US_Florida: davs://cmsio2.rc.ufl.edu:1094/store/mc/Run3Summer22NanoAODv12/NMSSM_XtoYHto4B_MX-700_MY-70_TuneCP5_13p6TeV_madgraph-pythia8/NANOAODSIM/130X_mcRun3_2022_realistic_v5-v2/2820000/3f91beaa-d490-4b84-87cb-08b3fcbf3439.root",
        "T2_BE_IIHE: davs://maite.iihe.ac.be:2880/pnfs/iihe/cms/ph/sc4/store/mc/Run3Summer22NanoAODv12/NMSSM_XtoYHto4B_MX-700_MY-70_TuneCP5_13p6TeV_madgraph-pythia8/NANOAODSIM/130X_mcRun3_2022_realistic_v5-v2/2820000/3f91beaa-d490-4b84-87cb-08b3fcbf3439.root",
        "T2_UK_London_IC: davs://gfe02.grid.hep.ph.ic.ac.uk:2880/pnfs/hep.ph.ic.ac.uk/data/cms/store/mc/Run3Summer22NanoAODv12/NMSSM_XtoYHto4B_MX-700_MY-70_TuneCP5_13p6TeV_madgraph-pythia8/NANOAODSIM/130X_mcRun3_2022_realistic_v5-v2/2820000/3f91beaa-d490-4b84-87cb-08b3fcbf3439.root",
        "T1_US_FNAL_Tape: davs://cmsdcatape.fnal.gov:2880/WAX/11/store/mc/Run3Summer22NanoAODv12/NMSSM_XtoYHto4B_MX-700_MY-70_TuneCP5_13p6TeV_madgraph-pythia8/NANOAODSIM/130X_mcRun3_2022_realistic_v5-v2/2820000/3f91beaa-d490-4b84-87cb-08b3fcbf3439.root"
    ],
    "cms:/store/mc/Run3Summer22NanoAODv12/NMSSM_XtoYHto4B_MX-700_MY-70_TuneCP5_13p6TeV_madgraph-pythia8/NANOAODSIM/130X_mcRun3_2022_realistic_v5-v2/2820000/f5da6a5f-363e-449e-b0ea-6a90e40464dc.root": [
        "T1_US_FNAL_Disk: davs://cmsdcadisk.fnal.gov:2880/dcache/uscmsdisk/store/mc/Run3Summer22NanoAODv12/NMSSM_XtoYHto4B_MX-700_MY-70_TuneCP5_13p6TeV_madgraph-pythia8/NANOAODSIM/130X_mcRun3_2022_realistic_v5-v2/2820000/f5da6a5f-363e-449e-b0ea-6a90e40464dc.root",
        "T2_UK_SGrid_RALPP: davs://mover.pp.rl.ac.uk:2880/pnfs/pp.rl.ac.uk/data/cms/store/mc/Run3Summer22NanoAODv12/NMSSM_XtoYHto4B_MX-700_MY-70_TuneCP5_13p6TeV_madgraph-pythia8/NANOAODSIM/130X_mcRun3_2022_realistic_v5-v2/2820000/f5da6a5f-363e-449e-b0ea-6a90e40464dc.root",
        "T2_FI_HIP: davs://hip-cms-se.csc.fi:2880/store/mc/Run3Summer22NanoAODv12/NMSSM_XtoYHto4B_MX-700_MY-70_TuneCP5_13p6TeV_madgraph-pythia8/NANOAODSIM/130X_mcRun3_2022_realistic_v5-v2/2820000/f5da6a5f-363e-449e-b0ea-6a90e40464dc.root",
        "T2_US_Florida: davs://cmsio2.rc.ufl.edu:1094/store/mc/Run3Summer22NanoAODv12/NMSSM_XtoYHto4B_MX-700_MY-70_TuneCP5_13p6TeV_madgraph-pythia8/NANOAODSIM/130X_mcRun3_2022_realistic_v5-v2/2820000/f5da6a5f-363e-449e-b0ea-6a90e40464dc.root",
        "T2_BE_IIHE: davs://maite.iihe.ac.be:2880/pnfs/iihe/cms/ph/sc4/store/mc/Run3Summer22NanoAODv12/NMSSM_XtoYHto4B_MX-700_MY-70_TuneCP5_13p6TeV_madgraph-pythia8/NANOAODSIM/130X_mcRun3_2022_realistic_v5-v2/2820000/f5da6a5f-363e-449e-b0ea-6a90e40464dc.root",
        "T2_UK_London_IC: davs://gfe02.grid.hep.ph.ic.ac.uk:2880/pnfs/hep.ph.ic.ac.uk/data/cms/store/mc/Run3Summer22NanoAODv12/NMSSM_XtoYHto4B_MX-700_MY-70_TuneCP5_13p6TeV_madgraph-pythia8/NANOAODSIM/130X_mcRun3_2022_realistic_v5-v2/2820000/f5da6a5f-363e-449e-b0ea-6a90e40464dc.root",
        "T1_US_FNAL_Tape: davs://cmsdcatape.fnal.gov:2880/WAX/11/store/mc/Run3Summer22NanoAODv12/NMSSM_XtoYHto4B_MX-700_MY-70_TuneCP5_13p6TeV_madgraph-pythia8/NANOAODSIM/130X_mcRun3_2022_realistic_v5-v2/2820000/f5da6a5f-363e-449e-b0ea-6a90e40464dc.root"
    ],
    "cms:/store/mc/Run3Summer22NanoAODv12/NMSSM_XtoYHto4B_MX-700_MY-70_TuneCP5_13p6TeV_madgraph-pythia8/NANOAODSIM/130X_mcRun3_2022_realistic_v5-v2/2820000/d8a979ab-2cff-4eb3-812a-e4b2654f7343.root": [
        "T1_US_FNAL_Disk: davs://cmsdcadisk.fnal.gov:2880/dcache/uscmsdisk/store/mc/Run3Summer22NanoAODv12/NMSSM_XtoYHto4B_MX-700_MY-70_TuneCP5_13p6TeV_madgraph-pythia8/NANOAODSIM/130X_mcRun3_2022_realistic_v5-v2/2820000/d8a979ab-2cff-4eb3-812a-e4b2654f7343.root",
        "T2_UK_SGrid_RALPP: davs://mover.pp.rl.ac.uk:2880/pnfs/pp.rl.ac.uk/data/cms/store/mc/Run3Summer22NanoAODv12/NMSSM_XtoYHto4B_MX-700_MY-70_TuneCP5_13p6TeV_madgraph-pythia8/NANOAODSIM/130X_mcRun3_2022_realistic_v5-v2/2820000/d8a979ab-2cff-4eb3-812a-e4b2654f7343.root",
        "T2_FI_HIP: davs://hip-cms-se.csc.fi:2880/store/mc/Run3Summer22NanoAODv12/NMSSM_XtoYHto4B_MX-700_MY-70_TuneCP5_13p6TeV_madgraph-pythia8/NANOAODSIM/130X_mcRun3_2022_realistic_v5-v2/2820000/d8a979ab-2cff-4eb3-812a-e4b2654f7343.root",
        "T2_US_Florida: davs://cmsio2.rc.ufl.edu:1094/store/mc/Run3Summer22NanoAODv12/NMSSM_XtoYHto4B_MX-700_MY-70_TuneCP5_13p6TeV_madgraph-pythia8/NANOAODSIM/130X_mcRun3_2022_realistic_v5-v2/2820000/d8a979ab-2cff-4eb3-812a-e4b2654f7343.root",
        "T2_BE_IIHE: davs://maite.iihe.ac.be:2880/pnfs/iihe/cms/ph/sc4/store/mc/Run3Summer22NanoAODv12/NMSSM_XtoYHto4B_MX-700_MY-70_TuneCP5_13p6TeV_madgraph-pythia8/NANOAODSIM/130X_mcRun3_2022_realistic_v5-v2/2820000/d8a979ab-2cff-4eb3-812a-e4b2654f7343.root",
        "T2_UK_London_IC: davs://gfe02.grid.hep.ph.ic.ac.uk:2880/pnfs/hep.ph.ic.ac.uk/data/cms/store/mc/Run3Summer22NanoAODv12/NMSSM_XtoYHto4B_MX-700_MY-70_TuneCP5_13p6TeV_madgraph-pythia8/NANOAODSIM/130X_mcRun3_2022_realistic_v5-v2/2820000/d8a979ab-2cff-4eb3-812a-e4b2654f7343.root",
        "T1_US_FNAL_Tape: davs://cmsdcatape.fnal.gov:2880/WAX/11/store/mc/Run3Summer22NanoAODv12/NMSSM_XtoYHto4B_MX-700_MY-70_TuneCP5_13p6TeV_madgraph-pythia8/NANOAODSIM/130X_mcRun3_2022_realistic_v5-v2/2820000/d8a979ab-2cff-4eb3-812a-e4b2654f7343.root"
    ]
}