{
    "cms:/store/mc/Run3Summer23NanoAODv12/NMSSM_XtoYHto4B_MX-400_MY-95_TuneCP5_13p6TeV_madgraph-pythia8/NANOAODSIM/130X_mcRun3_2023_realistic_v15-v2/130000/dc7d1a4b-4bf1-4020-aecb-45fec48748f5.root": [
        "T1_US_FNAL_Disk: davs://cmsdcadisk.fnal.gov:2880/dcache/uscmsdisk/store/mc/Run3Summer23NanoAODv12/NMSSM_XtoYHto4B_MX-400_MY-95_TuneCP5_13p6TeV_madgraph-pythia8/NANOAODSIM/130X_mcRun3_2023_realistic_v15-v2/130000/dc7d1a4b-4bf1-4020-aecb-45fec48748f5.root",
        "T2_UK_SGrid_RALPP: davs://mover.pp.rl.ac.uk:2880/pnfs/pp.rl.ac.uk/data/cms/store/mc/Run3Summer23NanoAODv12/NMSSM_XtoYHto4B_MX-400_MY-95_TuneCP5_13p6TeV_madgraph-pythia8/NANOAODSIM/130X_mcRun3_2023_realistic_v15-v2/130000/dc7d1a4b-4bf1-4020-aecb-45fec48748f5.root",
        "T2_CH_CERN: davs://eoscms.cern.ch:443/eos/cms/store/mc/Run3Summer23NanoAODv12/NMSSM_XtoYHto4B_MX-400_MY-95_TuneCP5_13p6TeV_madgraph-pythia8/NANOAODSIM/130X_mcRun3_2023_realistic_v15-v2/130000/dc7d1a4b-4bf1-4020-aecb-45fec48748f5.root",
        "T1_US_FNAL_Tape_Test: davs://cmstnvm1.fnal.gov:2880/store/mc/Run3Summer23NanoAODv12/NMSSM_XtoYHto4B_MX-400_MY-95_TuneCP5_13p6TeV_madgraph-pythia8/NANOAODSIM/130X_mcRun3_2023_realistic_v15-v2/130000/dc7d1a4b-4bf1-4020-aecb-45fec48748f5.root",
        "T2_US_Wisconsin: davs://cmsxrootd.hep.wisc.edu:1094/store/mc/Run3Summer23NanoAODv12/NMSSM_XtoYHto4B_MX-400_MY-95_TuneCP5_13p6TeV_madgraph-pythia8/NANOAODSIM/130X_mcRun3_2023_realistic_v15-v2/130000/dc7d1a4b-4bf1-4020-aecb-45fec48748f5.root",
        "T1_RU_JINR_Disk: davs://se-wbdv.jinr-t1.ru:2880/pnfs/jinr-t1.ru/data/cms/store/mc/Run3Summer23NanoAODv12/NMSSM_XtoYHto4B_MX-400_MY-95_TuneCP5_13p6TeV_madgraph-pythia8/NANOAODSIM/130X_mcRun3_2023_realistic_v15-v2/130000/dc7d1a4b-4bf1-4020-aecb-45fec48748f5.root",
        "T2_US_MIT_Tape: davs://dtn20.nese.mghpcc.org:443/store/mc/Run3Summer23NanoAODv12/NMSSM_XtoYHto4B_MX-400_MY-95_TuneCP5_13p6TeV_madgraph-pythia8/NANOAODSIM/130X_mcRun3_2023_realistic_v15-v2/130000/dc7d1a4b-4bf1-4020-aecb-45fec48748f5.root",
        "T1_IT_CNAF_Disk: davs://xfer-cms.cr.cnaf.infn.it:8443/cmsdisk/store/mc/Run3Summer23NanoAODv12/NMSSM_XtoYHto4B_MX-400_MY-95_TuneCP5_13p6TeV_madgraph-pythia8/NANOAODSIM/130X_mcRun3_2023_realistic_v15-v2/130000/dc7d1a4b-4bf1-4020-aecb-45fec48748f5.root"
    ],
    "cms:/store/mc/Run3Summer23NanoAODv12/NMSSM_XtoYHto4B_MX-400_MY-95_TuneCP5_13p6TeV_madgraph-pythia8/NANOAODSIM/130X_mcRun3_2023_realistic_v15-v2/130000/0b384525-91c8-43ab-98ac-57ce4b9fa4ce.root": [
        "T1_US_FNAL_Disk: davs://cmsdcadisk.fnal.gov:2880/dcache/uscmsdisk/store/mc/Run3Summer23NanoAODv12/NMSSM_XtoYHto4B_MX-400_MY-95_TuneCP5_13p6TeV_madgraph-pythia8/NANOAODSIM/130X_mcRun3_2023_realistic_v15-v2/130000/0b384525-91c8-43ab-98ac-57ce4b9fa4ce.root",
        "T2_UK_SGrid_RALPP: davs://mover.pp.rl.ac.uk:2880/pnfs/pp.rl.ac.uk/data/cms/store/mc/Run3Summer23NanoAODv12/NMSSM_XtoYHto4B_MX-400_MY-95_TuneCP5_13p6TeV_madgraph-pythia8/NANOAODSIM/130X_mcRun3_2023_realistic_v15-v2/130000/0b384525-91c8-43ab-98ac-57ce4b9fa4ce.root",
        "T2_CH_CERN: davs://eoscms.cern.ch:443/eos/cms/store/mc/Run3Summer23NanoAODv12/NMSSM_XtoYHto4B_MX-400_MY-95_TuneCP5_13p6TeV_madgraph-pythia8/NANOAODSIM/130X_mcRun3_2023_realistic_v15-v2/130000/0b384525-91c8-43ab-98ac-57ce4b9fa4ce.root",
        "T1_US_FNAL_Tape_Test: davs://cmstnvm1.fnal.gov:2880/store/mc/Run3Summer23NanoAODv12/NMSSM_XtoYHto4B_MX-400_MY-95_TuneCP5_13p6TeV_madgraph-pythia8/NANOAODSIM/130X_mcRun3_2023_realistic_v15-v2/130000/0b384525-91c8-43ab-98ac-57ce4b9fa4ce.root",
        "T2_US_Wisconsin: davs://cmsxrootd.hep.wisc.edu:1094/store/mc/Run3Summer23NanoAODv12/NMSSM_XtoYHto4B_MX-400_MY-95_TuneCP5_13p6TeV_madgraph-pythia8/NANOAODSIM/130X_mcRun3_2023_realistic_v15-v2/130000/0b384525-91c8-43ab-98ac-57ce4b9fa4ce.root",
        "T1_RU_JINR_Disk: davs://se-wbdv.jinr-t1.ru:2880/pnfs/jinr-t1.ru/data/cms/store/mc/Run3Summer23NanoAODv12/NMSSM_XtoYHto4B_MX-400_MY-95_TuneCP5_13p6TeV_madgraph-pythia8/NANOAODSIM/130X_mcRun3_2023_realistic_v15-v2/130000/0b384525-91c8-43ab-98ac-57ce4b9fa4ce.root",
        "T2_US_MIT_Tape: davs://dtn20.nese.mghpcc.org:443/store/mc/Run3Summer23NanoAODv12/NMSSM_XtoYHto4B_MX-400_MY-95_TuneCP5_13p6TeV_madgraph-pythia8/NANOAODSIM/130X_mcRun3_2023_realistic_v15-v2/130000/0b384525-91c8-43ab-98ac-57ce4b9fa4ce.root",
        "T1_IT_CNAF_Disk: davs://xfer-cms.cr.cnaf.infn.it:8443/cmsdisk/store/mc/Run3Summer23NanoAODv12/NMSSM_XtoYHto4B_MX-400_MY-95_TuneCP5_13p6TeV_madgraph-pythia8/NANOAODSIM/130X_mcRun3_2023_realistic_v15-v2/130000/0b384525-91c8-43ab-98ac-57ce4b9fa4ce.root"
    ]
}