#/NMSSM_XtoYHto4B_MX-2000_MY-60_TuneCP5_13p6TeV_madgraph-pythia8/Run3Summer22EENanoAODv12-130X_mcRun3_2022_realistic_postEE_v6-v2/NANOAODSIM
+------------------------------------------------------------------------------------------------------------------------------------------------------------------------------------------------------------+--------+-------------+------------+----------+
| SCOPE:NAME                                                                                                                                                                                                 | GUID   | ADLER32     | FILESIZE   | EVENTS   |
|------------------------------------------------------------------------------------------------------------------------------------------------------------------------------------------------------------+--------+-------------+------------+----------|
| cms:/store/mc/Run3Summer22EENanoAODv12/NMSSM_XtoYHto4B_MX-2000_MY-60_TuneCP5_13p6TeV_madgraph-pythia8/NANOAODSIM/130X_mcRun3_2022_realistic_postEE_v6-v2/2820000/f0607a05-978c-4c10-9d45-dc0e0355a3fc.root | (None) | ad:14253603 | 4.705 MB   |          |
| cms:/store/mc/Run3Summer22EENanoAODv12/NMSSM_XtoYHto4B_MX-2000_MY-60_TuneCP5_13p6TeV_madgraph-pythia8/NANOAODSIM/130X_mcRun3_2022_realistic_postEE_v6-v2/2820000/2fb805d2-ed24-48ba-af22-211b6acb332b.root | (None) | ad:aa80ec23 | 10.473 MB  |          |
| cms:/store/mc/Run3Summer22EENanoAODv12/NMSSM_XtoYHto4B_MX-2000_MY-60_TuneCP5_13p6TeV_madgraph-pythia8/NANOAODSIM/130X_mcRun3_2022_realistic_postEE_v6-v2/2820000/97733163-b296-4e93-ad47-b7822502e98e.root | (None) | ad:18e03dae | 4.692 MB   |          |
| cms:/store/mc/Run3Summer22EENanoAODv12/NMSSM_XtoYHto4B_MX-2000_MY-60_TuneCP5_13p6TeV_madgraph-pythia8/NANOAODSIM/130X_mcRun3_2022_realistic_postEE_v6-v2/2820000/937572ad-e60e-4eca-bf5f-024acaf3c82a.root | (None) | ad:eba3fcd4 | 8.757 MB   |          |
| cms:/store/mc/Run3Summer22EENanoAODv12/NMSSM_XtoYHto4B_MX-2000_MY-60_TuneCP5_13p6TeV_madgraph-pythia8/NANOAODSIM/130X_mcRun3_2022_realistic_postEE_v6-v2/2820000/d29f04db-ad62-4a45-bfd0-c1852fc39ed2.root | (None) | ad:ef230eab | 31.070 MB  |          |
| cms:/store/mc/Run3Summer22EENanoAODv12/NMSSM_XtoYHto4B_MX-2000_MY-60_TuneCP5_13p6TeV_madgraph-pythia8/NANOAODSIM/130X_mcRun3_2022_realistic_postEE_v6-v2/2820000/8ca02f58-4a87-47e2-b272-b15ae65295f2.root | (None) | ad:6e3212e6 | 4.713 MB   |          |
| cms:/store/mc/Run3Summer22EENanoAODv12/NMSSM_XtoYHto4B_MX-2000_MY-60_TuneCP5_13p6TeV_madgraph-pythia8/NANOAODSIM/130X_mcRun3_2022_realistic_postEE_v6-v2/2820000/77550b7d-38e9-41e3-b353-3d00cd4c8b1b.root | (None) | ad:4482ec32 | 84.628 MB  |          |
| cms:/store/mc/Run3Summer22EENanoAODv12/NMSSM_XtoYHto4B_MX-2000_MY-60_TuneCP5_13p6TeV_madgraph-pythia8/NANOAODSIM/130X_mcRun3_2022_realistic_postEE_v6-v2/2820000/5220c061-862f-45f5-9e59-e01f9548d199.root | (None) | ad:f2ac5c12 | 4.695 MB   |          |
| cms:/store/mc/Run3Summer22EENanoAODv12/NMSSM_XtoYHto4B_MX-2000_MY-60_TuneCP5_13p6TeV_madgraph-pythia8/NANOAODSIM/130X_mcRun3_2022_realistic_postEE_v6-v2/2820000/c200d9c7-d056-455f-9480-9cc61ce27e27.root | (None) | ad:ad906e7c | 47.768 MB  |          |
| cms:/store/mc/Run3Summer22EENanoAODv12/NMSSM_XtoYHto4B_MX-2000_MY-60_TuneCP5_13p6TeV_madgraph-pythia8/NANOAODSIM/130X_mcRun3_2022_realistic_postEE_v6-v2/2820000/e143476d-7dfe-4c93-bcfc-ba2b7be550ea.root | (None) | ad:006be446 | 21.875 MB  |          |
| cms:/store/mc/Run3Summer22EENanoAODv12/NMSSM_XtoYHto4B_MX-2000_MY-60_TuneCP5_13p6TeV_madgraph-pythia8/NANOAODSIM/130X_mcRun3_2022_realistic_postEE_v6-v2/2820000/3a65a0d8-85cf-438d-ac2e-16ce7b1d0b6d.root | (None) | ad:d8f6abc9 | 4.725 MB   |          |
| cms:/store/mc/Run3Summer22EENanoAODv12/NMSSM_XtoYHto4B_MX-2000_MY-60_TuneCP5_13p6TeV_madgraph-pythia8/NANOAODSIM/130X_mcRun3_2022_realistic_postEE_v6-v2/2820000/ef92dd50-f93f-4615-87a7-492a1966ef1f.root | (None) | ad:c7770926 | 15.719 MB  |          |
| cms:/store/mc/Run3Summer22EENanoAODv12/NMSSM_XtoYHto4B_MX-2000_MY-60_TuneCP5_13p6TeV_madgraph-pythia8/NANOAODSIM/130X_mcRun3_2022_realistic_postEE_v6-v2/2820000/a01e006a-9015-4d82-afed-0105c28346b6.root | (None) | ad:400effdd | 4.715 MB   |          |
| cms:/store/mc/Run3Summer22EENanoAODv12/NMSSM_XtoYHto4B_MX-2000_MY-60_TuneCP5_13p6TeV_madgraph-pythia8/NANOAODSIM/130X_mcRun3_2022_realistic_postEE_v6-v2/2820000/3b8ff739-4871-4068-ab87-9e2d8cb9506a.root | (None) | ad:52f82d36 | 4.710 MB   |          |
| cms:/store/mc/Run3Summer22EENanoAODv12/NMSSM_XtoYHto4B_MX-2000_MY-60_TuneCP5_13p6TeV_madgraph-pythia8/NANOAODSIM/130X_mcRun3_2022_realistic_postEE_v6-v2/2820000/c9c47419-71ac-4a83-a82a-6f1345adce51.root | (None) | ad:5c77e8b9 | 4.713 MB   |          |
+------------------------------------------------------------------------------------------------------------------------------------------------------------------------------------------------------------+--------+-------------+------------+----------+
Total files : 15
Total size : 257.960 MB
