#/NMSSM_XtoYHto4B_MX-2000_MY-1200_TuneCP5_13p6TeV_madgraph-pythia8/Run3Summer22NanoAODv12-130X_mcRun3_2022_realistic_v5-v2/NANOAODSIM
+-----------------------------------------------------------------------------------------------------------------------------------------------------------------------------------------------------+--------+-------------+------------+----------+
| SCOPE:NAME                                                                                                                                                                                          | GUID   | ADLER32     | FILESIZE   | EVENTS   |
|-----------------------------------------------------------------------------------------------------------------------------------------------------------------------------------------------------+--------+-------------+------------+----------|
| cms:/store/mc/Run3Summer22NanoAODv12/NMSSM_XtoYHto4B_MX-2000_MY-1200_TuneCP5_13p6TeV_madgraph-pythia8/NANOAODSIM/130X_mcRun3_2022_realistic_v5-v2/2820000/13feb72c-e2d4-47f5-bc03-2ace03871d3c.root | (None) | ad:0b493d53 | 5.159 MB   |          |
| cms:/store/mc/Run3Summer22NanoAODv12/NMSSM_XtoYHto4B_MX-2000_MY-1200_TuneCP5_13p6TeV_madgraph-pythia8/NANOAODSIM/130X_mcRun3_2022_realistic_v5-v2/2820000/7890babf-bee8-48dd-83f4-04279e59bcf8.root | (None) | ad:5a5a5d40 | 5.162 MB   |          |
| cms:/store/mc/Run3Summer22NanoAODv12/NMSSM_XtoYHto4B_MX-2000_MY-1200_TuneCP5_13p6TeV_madgraph-pythia8/NANOAODSIM/130X_mcRun3_2022_realistic_v5-v2/2820000/68b59e07-a9f4-438b-a892-a5772160f13d.root | (None) | ad:f85e68b2 | 5.187 MB   |          |
| cms:/store/mc/Run3Summer22NanoAODv12/NMSSM_XtoYHto4B_MX-2000_MY-1200_TuneCP5_13p6TeV_madgraph-pythia8/NANOAODSIM/130X_mcRun3_2022_realistic_v5-v2/2820000/ce29d8e5-7be3-4df5-a67c-9cc13f730b32.root | (None) | ad:a3e97022 | 16.643 MB  |          |
| cms:/store/mc/Run3Summer22NanoAODv12/NMSSM_XtoYHto4B_MX-2000_MY-1200_TuneCP5_13p6TeV_madgraph-pythia8/NANOAODSIM/130X_mcRun3_2022_realistic_v5-v2/2820000/89c0f362-c0be-458f-bb0b-308c4c3775f2.root | (None) | ad:0b530c86 | 12.178 MB  |          |
| cms:/store/mc/Run3Summer22NanoAODv12/NMSSM_XtoYHto4B_MX-2000_MY-1200_TuneCP5_13p6TeV_madgraph-pythia8/NANOAODSIM/130X_mcRun3_2022_realistic_v5-v2/2820000/6470ed0d-033a-4350-8af2-d40cb13b5932.root | (None) | ad:03c9b0cc | 5.167 MB   |          |
| cms:/store/mc/Run3Summer22NanoAODv12/NMSSM_XtoYHto4B_MX-2000_MY-1200_TuneCP5_13p6TeV_madgraph-pythia8/NANOAODSIM/130X_mcRun3_2022_realistic_v5-v2/2820000/7135500e-59e9-49b2-aaef-dea30d238898.root | (None) | ad:02ca5d9b | 7.776 MB   |          |
| cms:/store/mc/Run3Summer22NanoAODv12/NMSSM_XtoYHto4B_MX-2000_MY-1200_TuneCP5_13p6TeV_madgraph-pythia8/NANOAODSIM/130X_mcRun3_2022_realistic_v5-v2/2820000/598071ae-fedb-4bcb-b885-84e011264e32.root | (None) | ad:a6453c0e | 10.743 MB  |          |
| cms:/store/mc/Run3Summer22NanoAODv12/NMSSM_XtoYHto4B_MX-2000_MY-1200_TuneCP5_13p6TeV_madgraph-pythia8/NANOAODSIM/130X_mcRun3_2022_realistic_v5-v2/2820000/6638738b-d2ec-462a-8f54-ed8b66f7a765.root | (None) | ad:6f600fcb | 5.170 MB   |          |
| cms:/store/mc/Run3Summer22NanoAODv12/NMSSM_XtoYHto4B_MX-2000_MY-1200_TuneCP5_13p6TeV_madgraph-pythia8/NANOAODSIM/130X_mcRun3_2022_realistic_v5-v2/2820000/85c4ff6f-907c-46f9-9e23-4e60252f90f4.root | (None) | ad:9bd2430c | 5.171 MB   |          |
| cms:/store/mc/Run3Summer22NanoAODv12/NMSSM_XtoYHto4B_MX-2000_MY-1200_TuneCP5_13p6TeV_madgraph-pythia8/NANOAODSIM/130X_mcRun3_2022_realistic_v5-v2/2820000/bfa7e9fc-32eb-480e-8e7f-930bf2979369.root | (None) | ad:7d991c06 | 5.173 MB   |          |
| cms:/store/mc/Run3Summer22NanoAODv12/NMSSM_XtoYHto4B_MX-2000_MY-1200_TuneCP5_13p6TeV_madgraph-pythia8/NANOAODSIM/130X_mcRun3_2022_realistic_v5-v2/2820000/456e92be-d106-4119-847a-dfdf90ad9745.root | (None) | ad:412c58c1 | 5.156 MB   |          |
| cms:/store/mc/Run3Summer22NanoAODv12/NMSSM_XtoYHto4B_MX-2000_MY-1200_TuneCP5_13p6TeV_madgraph-pythia8/NANOAODSIM/130X_mcRun3_2022_realistic_v5-v2/2820000/9a074446-370b-4d4e-9edd-9561e5492382.root | (None) | ad:f5fbcb85 | 5.169 MB   |          |
| cms:/store/mc/Run3Summer22NanoAODv12/NMSSM_XtoYHto4B_MX-2000_MY-1200_TuneCP5_13p6TeV_madgraph-pythia8/NANOAODSIM/130X_mcRun3_2022_realistic_v5-v2/2820000/a9811b9c-418c-4510-895e-e81a0370dfaf.root | (None) | ad:99fd1e48 | 7.798 MB   |          |
| cms:/store/mc/Run3Summer22NanoAODv12/NMSSM_XtoYHto4B_MX-2000_MY-1200_TuneCP5_13p6TeV_madgraph-pythia8/NANOAODSIM/130X_mcRun3_2022_realistic_v5-v2/2820000/0c2211f2-e537-43a8-a6fd-f5dafa4105a2.root | (None) | ad:c8c6918d | 9.918 MB   |          |
| cms:/store/mc/Run3Summer22NanoAODv12/NMSSM_XtoYHto4B_MX-2000_MY-1200_TuneCP5_13p6TeV_madgraph-pythia8/NANOAODSIM/130X_mcRun3_2022_realistic_v5-v2/2820000/9c6551d2-2599-4937-b2b7-58ae1b655596.root | (None) | ad:2e552160 | 9.877 MB   |          |
+-----------------------------------------------------------------------------------------------------------------------------------------------------------------------------------------------------+--------+-------------+------------+----------+
Total files : 16
Total size : 121.448 MB
