#/NMSSM_XtoYHto4B_MX-1200_MY-150_TuneCP5_13p6TeV_madgraph-pythia8/Run3Summer22EENanoAODv12-130X_mcRun3_2022_realistic_postEE_v6-v2/NANOAODSIM
+-------------------------------------------------------------------------------------------------------------------------------------------------------------------------------------------------------------+--------+-------------+------------+----------+
| SCOPE:NAME                                                                                                                                                                                                  | GUID   | ADLER32     | FILESIZE   | EVENTS   |
|-------------------------------------------------------------------------------------------------------------------------------------------------------------------------------------------------------------+--------+-------------+------------+----------|
| cms:/store/mc/Run3Summer22EENanoAODv12/NMSSM_XtoYHto4B_MX-1200_MY-150_TuneCP5_13p6TeV_madgraph-pythia8/NANOAODSIM/130X_mcRun3_2022_realistic_postEE_v6-v2/2820000/b56e112e-9ccd-426d-aeb9-e4596a2d9d84.root | (None) | ad:00a0e98a | 18.144 MB  |          |
| cms:/store/mc/Run3Summer22EENanoAODv12/NMSSM_XtoYHto4B_MX-1200_MY-150_TuneCP5_13p6TeV_madgraph-pythia8/NANOAODSIM/130X_mcRun3_2022_realistic_postEE_v6-v2/2820000/844579ff-3018-42ce-8eaf-b70852cd7916.root | (None) | ad:78dfe028 | 18.125 MB  |          |
| cms:/store/mc/Run3Summer22EENanoAODv12/NMSSM_XtoYHto4B_MX-1200_MY-150_TuneCP5_13p6TeV_madgraph-pythia8/NANOAODSIM/130X_mcRun3_2022_realistic_postEE_v6-v2/2820000/3a4397c6-e2c8-4411-9560-e1a42ef45e6e.root | (None) | ad:54fc4403 | 5.426 MB   |          |
| cms:/store/mc/Run3Summer22EENanoAODv12/NMSSM_XtoYHto4B_MX-1200_MY-150_TuneCP5_13p6TeV_madgraph-pythia8/NANOAODSIM/130X_mcRun3_2022_realistic_postEE_v6-v2/2820000/47366c40-6118-4fae-ae03-b7a031204d00.root | (None) | ad:3c345fe1 | 4.747 MB   |          |
| cms:/store/mc/Run3Summer22EENanoAODv12/NMSSM_XtoYHto4B_MX-1200_MY-150_TuneCP5_13p6TeV_madgraph-pythia8/NANOAODSIM/130X_mcRun3_2022_realistic_postEE_v6-v2/2820000/258649a3-f4c6-4fbf-a43d-b4f3e7afbdab.root | (None) | ad:4e9eceb3 | 16.373 MB  |          |
| cms:/store/mc/Run3Summer22EENanoAODv12/NMSSM_XtoYHto4B_MX-1200_MY-150_TuneCP5_13p6TeV_madgraph-pythia8/NANOAODSIM/130X_mcRun3_2022_realistic_postEE_v6-v2/2820000/44d175af-3550-4264-aa1e-4718d699ddcb.root | (None) | ad:1104df10 | 8.815 MB   |          |
| cms:/store/mc/Run3Summer22EENanoAODv12/NMSSM_XtoYHto4B_MX-1200_MY-150_TuneCP5_13p6TeV_madgraph-pythia8/NANOAODSIM/130X_mcRun3_2022_realistic_postEE_v6-v2/2820000/b989d040-5ae0-4f83-9a88-a56b49acf515.root | (None) | ad:75755bdc | 4.725 MB   |          |
| cms:/store/mc/Run3Summer22EENanoAODv12/NMSSM_XtoYHto4B_MX-1200_MY-150_TuneCP5_13p6TeV_madgraph-pythia8/NANOAODSIM/130X_mcRun3_2022_realistic_postEE_v6-v2/2820000/6a5940b0-e781-4eb0-a5c0-7a01b1643877.root | (None) | ad:caab0cc2 | 22.099 MB  |          |
| cms:/store/mc/Run3Summer22EENanoAODv12/NMSSM_XtoYHto4B_MX-1200_MY-150_TuneCP5_13p6TeV_madgraph-pythia8/NANOAODSIM/130X_mcRun3_2022_realistic_postEE_v6-v2/2820000/cdba6c56-3cf3-4518-aa77-ae52fb4f9a2c.root | (None) | ad:b4faadf9 | 14.582 MB  |          |
| cms:/store/mc/Run3Summer22EENanoAODv12/NMSSM_XtoYHto4B_MX-1200_MY-150_TuneCP5_13p6TeV_madgraph-pythia8/NANOAODSIM/130X_mcRun3_2022_realistic_postEE_v6-v2/2820000/e3b17a40-2afb-4573-a55e-0df8885d4c23.root | (None) | ad:741ea01e | 7.004 MB   |          |
| cms:/store/mc/Run3Summer22EENanoAODv12/NMSSM_XtoYHto4B_MX-1200_MY-150_TuneCP5_13p6TeV_madgraph-pythia8/NANOAODSIM/130X_mcRun3_2022_realistic_postEE_v6-v2/2820000/37b7f923-b53d-4a84-acc5-e5cbff0e10e0.root | (None) | ad:4dc2489b | 6.998 MB   |          |
| cms:/store/mc/Run3Summer22EENanoAODv12/NMSSM_XtoYHto4B_MX-1200_MY-150_TuneCP5_13p6TeV_madgraph-pythia8/NANOAODSIM/130X_mcRun3_2022_realistic_postEE_v6-v2/2820000/b8f163b4-4900-47c7-9ce5-a2efdde7885d.root | (None) | ad:38aba006 | 83.613 MB  |          |
| cms:/store/mc/Run3Summer22EENanoAODv12/NMSSM_XtoYHto4B_MX-1200_MY-150_TuneCP5_13p6TeV_madgraph-pythia8/NANOAODSIM/130X_mcRun3_2022_realistic_postEE_v6-v2/2820000/ba58bcaa-6226-413f-b7fb-80a7b38af86e.root | (None) | ad:c2783611 | 6.992 MB   |          |
| cms:/store/mc/Run3Summer22EENanoAODv12/NMSSM_XtoYHto4B_MX-1200_MY-150_TuneCP5_13p6TeV_madgraph-pythia8/NANOAODSIM/130X_mcRun3_2022_realistic_postEE_v6-v2/2820000/235f45b8-69cc-4735-9111-b0f194786e35.root | (None) | ad:90686d1e | 6.980 MB   |          |
| cms:/store/mc/Run3Summer22EENanoAODv12/NMSSM_XtoYHto4B_MX-1200_MY-150_TuneCP5_13p6TeV_madgraph-pythia8/NANOAODSIM/130X_mcRun3_2022_realistic_postEE_v6-v2/2820000/fe456af4-a9df-4c12-9998-f05df4455a15.root | (None) | ad:aba9e23a | 19.863 MB  |          |
| cms:/store/mc/Run3Summer22EENanoAODv12/NMSSM_XtoYHto4B_MX-1200_MY-150_TuneCP5_13p6TeV_madgraph-pythia8/NANOAODSIM/130X_mcRun3_2022_realistic_postEE_v6-v2/2820000/e5ba25e5-84e9-4ae2-aab5-c24b9f2c95b7.root | (None) | ad:6405b021 | 6.993 MB   |          |
| cms:/store/mc/Run3Summer22EENanoAODv12/NMSSM_XtoYHto4B_MX-1200_MY-150_TuneCP5_13p6TeV_madgraph-pythia8/NANOAODSIM/130X_mcRun3_2022_realistic_postEE_v6-v2/2820000/90326d16-4981-470b-926c-b6665a62e408.root | (None) | ad:54b13f37 | 4.736 MB   |          |
| cms:/store/mc/Run3Summer22EENanoAODv12/NMSSM_XtoYHto4B_MX-1200_MY-150_TuneCP5_13p6TeV_madgraph-pythia8/NANOAODSIM/130X_mcRun3_2022_realistic_postEE_v6-v2/2820000/399941d7-2747-4b53-aa24-d789f475b790.root | (None) | ad:16ebbf88 | 4.735 MB   |          |
+-------------------------------------------------------------------------------------------------------------------------------------------------------------------------------------------------------------+--------+-------------+------------+----------+
Total files : 18
Total size : 260.952 MB
