{
    "cms:/store/mc/Run3Summer23BPixNanoAODv12/NMSSM_XtoYHto4B_MX-2000_MY-90_TuneCP5_13p6TeV_madgraph-pythia8/NANOAODSIM/130X_mcRun3_2023_realistic_postBPix_v6-v2/130000/d0cbf5ed-e836-425d-99d5-1f1856ed7245.root": [
        "T1_US_FNAL_Disk: davs://cmsdcadisk.fnal.gov:2880/dcache/uscmsdisk/store/mc/Run3Summer23BPixNanoAODv12/NMSSM_XtoYHto4B_MX-2000_MY-90_TuneCP5_13p6TeV_madgraph-pythia8/NANOAODSIM/130X_mcRun3_2023_realistic_postBPix_v6-v2/130000/d0cbf5ed-e836-425d-99d5-1f1856ed7245.root",
        "T2_US_MIT: davs://xrootd.cmsaf.mit.edu:1094/store/mc/Run3Summer23BPixNanoAODv12/NMSSM_XtoYHto4B_MX-2000_MY-90_TuneCP5_13p6TeV_madgraph-pythia8/NANOAODSIM/130X_mcRun3_2023_realistic_postBPix_v6-v2/130000/d0cbf5ed-e836-425d-99d5-1f1856ed7245.root",
        "T2_CH_CERN: davs://eoscms.cern.ch:443/eos/cms/store/mc/Run3Summer23BPixNanoAODv12/NMSSM_XtoYHto4B_MX-2000_MY-90_TuneCP5_13p6TeV_madgraph-pythia8/NANOAODSIM/130X_mcRun3_2023_realistic_postBPix_v6-v2/130000/d0cbf5ed-e836-425d-99d5-1f1856ed7245.root",
        "T2_PL_Swierk: davs://se.cis.gov.pl:2880/grid/cms/store/mc/Run3Summer23BPixNanoAODv12/NMSSM_XtoYHto4B_MX-2000_MY-90_TuneCP5_13p6TeV_madgraph-pythia8/NANOAODSIM/130X_mcRun3_2023_realistic_postBPix_v6-v2/130000/d0cbf5ed-e836-425d-99d5-1f1856ed7245.root",
        "T1_US_FNAL_Tape_Test: davs://cmstnvm1.fnal.gov:2880/store/mc/Run3Summer23BPixNanoAODv12/NMSSM_XtoYHto4B_MX-2000_MY-90_TuneCP5_13p6TeV_madgraph-pythia8/NANOAODSIM/130X_mcRun3_2023_realistic_postBPix_v6-v2/130000/d0cbf5ed-e836-425d-99d5-1f1856ed7245.root",
        "T2_HU_Budapest: davs://grid143.kfki.hu:443/dpm/kfki.hu/home/cms/phedex/store/mc/Run3Summer23BPixNanoAODv12/NMSSM_XtoYHto4B_MX-2000_MY-90_TuneCP5_13p6TeV_madgraph-pythia8/NANOAODSIM/130X_mcRun3_2023_realistic_postBPix_v6-v2/130000/d0cbf5ed-e836-425d-99d5-1f1856ed7245.root",
        "T2_US_MIT_Tape: davs://dtn20.nese.mghpcc.org:443/store/mc/Run3Summer23BPixNanoAODv12/NMSSM_XtoYHto4B_MX-2000_MY-90_TuneCP5_13p6TeV_madgraph-pythia8/NANOAODSIM/130X_mcRun3_2023_realistic_postBPix_v6-v2/130000/d0cbf5ed-e836-425d-99d5-1f1856ed7245.root",
        "T1_IT_CNAF_Disk: davs://xfer-cms.cr.cnaf.infn.it:8443/cmsdisk/store/mc/Run3Summer23BPixNanoAODv12/NMSSM_XtoYHto4B_MX-2000_MY-90_TuneCP5_13p6TeV_madgraph-pythia8/NANOAODSIM/130X_mcRun3_2023_realistic_postBPix_v6-v2/130000/d0cbf5ed-e836-425d-99d5-1f1856ed7245.root"
    ]
}