{
    "cms:/store/mc/Run3Summer22NanoAODv12/NMSSM_XtoYHto4B_MX-1200_MY-1000_TuneCP5_13p6TeV_madgraph-pythia8/NANOAODSIM/130X_mcRun3_2022_realistic_v5-v2/2820000/80eb9579-1386-4726-9541-1dceeff00eac.root": [
        "T1_US_FNAL_Disk: davs://cmsdcadisk.fnal.gov:2880/dcache/uscmsdisk/store/mc/Run3Summer22NanoAODv12/NMSSM_XtoYHto4B_MX-1200_MY-1000_TuneCP5_13p6TeV_madgraph-pythia8/NANOAODSIM/130X_mcRun3_2022_realistic_v5-v2/2820000/80eb9579-1386-4726-9541-1dceeff00eac.root",
        "T2_DE_DESY: davs://dcache-cms-webdav.desy.de:2880/pnfs/desy.de/cms/tier2/store/mc/Run3Summer22NanoAODv12/NMSSM_XtoYHto4B_MX-1200_MY-1000_TuneCP5_13p6TeV_madgraph-pythia8/NANOAODSIM/130X_mcRun3_2022_realistic_v5-v2/2820000/80eb9579-1386-4726-9541-1dceeff00eac.root",
        "T2_UK_SGrid_RALPP: davs://mover.pp.rl.ac.uk:2880/pnfs/pp.rl.ac.uk/data/cms/store/mc/Run3Summer22NanoAODv12/NMSSM_XtoYHto4B_MX-1200_MY-1000_TuneCP5_13p6TeV_madgraph-pythia8/NANOAODSIM/130X_mcRun3_2022_realistic_v5-v2/2820000/80eb9579-1386-4726-9541-1dceeff00eac.root",
        "T2_TW_NCHC: davs://se01.grid.nchc.org.tw:443//cms/store/mc/Run3Summer22NanoAODv12/NMSSM_XtoYHto4B_MX-1200_MY-1000_TuneCP5_13p6TeV_madgraph-pythia8/NANOAODSIM/130X_mcRun3_2022_realistic_v5-v2/2820000/80eb9579-1386-4726-9541-1dceeff00eac.root",
        "T2_US_Florida: davs://cmsio2.rc.ufl.edu:1094/store/mc/Run3Summer22NanoAODv12/NMSSM_XtoYHto4B_MX-1200_MY-1000_TuneCP5_13p6TeV_madgraph-pythia8/NANOAODSIM/130X_mcRun3_2022_realistic_v5-v2/2820000/80eb9579-1386-4726-9541-1dceeff00eac.root",
        "T2_BE_IIHE: davs://maite.iihe.ac.be:2880/pnfs/iihe/cms/ph/sc4/store/mc/Run3Summer22NanoAODv12/NMSSM_XtoYHto4B_MX-1200_MY-1000_TuneCP5_13p6TeV_madgraph-pythia8/NANOAODSIM/130X_mcRun3_2022_realistic_v5-v2/2820000/80eb9579-1386-4726-9541-1dceeff00eac.root",
        "T1_US_FNAL_Tape: davs://cmsdcatape.fnal.gov:2880/WAX/11/store/mc/Run3Summer22NanoAODv12/NMSSM_XtoYHto4B_MX-1200_MY-1000_TuneCP5_13p6TeV_madgraph-pythia8/NANOAODSIM/130X_mcRun3_2022_realistic_v5-v2/2820000/80eb9579-1386-4726-9541-1dceeff00eac.root"
    ],
    "cms:/store/mc/Run3Summer22NanoAODv12/NMSSM_XtoYHto4B_MX-1200_MY-1000_TuneCP5_13p6TeV_madgraph-pythia8/NANOAODSIM/130X_mcRun3_2022_realistic_v5-v2/2820000/4f722c81-6d98-4bcc-97c3-56e4f95edffe.root": [
        "T1_US_FNAL_Disk: davs://cmsdcadisk.fnal.gov:2880/dcache/uscmsdisk/store/mc/Run3Summer22NanoAODv12/NMSSM_XtoYHto4B_MX-1200_MY-1000_TuneCP5_13p6TeV_madgraph-pythia8/NANOAODSIM/130X_mcRun3_2022_realistic_v5-v2/2820000/4f722c81-6d98-4bcc-97c3-56e4f95edffe.root",
        "T2_DE_DESY: davs://dcache-cms-webdav.desy.de:2880/pnfs/desy.de/cms/tier2/store/mc/Run3Summer22NanoAODv12/NMSSM_XtoYHto4B_MX-1200_MY-1000_TuneCP5_13p6TeV_madgraph-pythia8/NANOAODSIM/130X_mcRun3_2022_realistic_v5-v2/2820000/4f722c81-6d98-4bcc-97c3-56e4f95edffe.root",
        "T2_UK_SGrid_RALPP: davs://mover.pp.rl.ac.uk:2880/pnfs/pp.rl.ac.uk/data/cms/store/mc/Run3Summer22NanoAODv12/NMSSM_XtoYHto4B_MX-1200_MY-1000_TuneCP5_13p6TeV_madgraph-pythia8/NANOAODSIM/130X_mcRun3_2022_realistic_v5-v2/2820000/4f722c81-6d98-4bcc-97c3-56e4f95edffe.root",
        "T2_TW_NCHC: davs://se01.grid.nchc.org.tw:443//cms/store/mc/Run3Summer22NanoAODv12/NMSSM_XtoYHto4B_MX-1200_MY-1000_TuneCP5_13p6TeV_madgraph-pythia8/NANOAODSIM/130X_mcRun3_2022_realistic_v5-v2/2820000/4f722c81-6d98-4bcc-97c3-56e4f95edffe.root",
        "T2_US_Florida: davs://cmsio2.rc.ufl.edu:1094/store/mc/Run3Summer22NanoAODv12/NMSSM_XtoYHto4B_MX-1200_MY-1000_TuneCP5_13p6TeV_madgraph-pythia8/NANOAODSIM/130X_mcRun3_2022_realistic_v5-v2/2820000/4f722c81-6d98-4bcc-97c3-56e4f95edffe.root",
        "T2_BE_IIHE: davs://maite.iihe.ac.be:2880/pnfs/iihe/cms/ph/sc4/store/mc/Run3Summer22NanoAODv12/NMSSM_XtoYHto4B_MX-1200_MY-1000_TuneCP5_13p6TeV_madgraph-pythia8/NANOAODSIM/130X_mcRun3_2022_realistic_v5-v2/2820000/4f722c81-6d98-4bcc-97c3-56e4f95edffe.root",
        "T1_US_FNAL_Tape: davs://cmsdcatape.fnal.gov:2880/WAX/11/store/mc/Run3Summer22NanoAODv12/NMSSM_XtoYHto4B_MX-1200_MY-1000_TuneCP5_13p6TeV_madgraph-pythia8/NANOAODSIM/130X_mcRun3_2022_realistic_v5-v2/2820000/4f722c81-6d98-4bcc-97c3-56e4f95edffe.root"
    ],
    "cms:/store/mc/Run3Summer22NanoAODv12/NMSSM_XtoYHto4B_MX-1200_MY-1000_TuneCP5_13p6TeV_madgraph-pythia8/NANOAODSIM/130X_mcRun3_2022_realistic_v5-v2/2820000/b9e98979-a7df-4589-81b0-27afaa6bfaf0.root": [
        "T1_US_FNAL_Disk: davs://cmsdcadisk.fnal.gov:2880/dcache/uscmsdisk/store/mc/Run3Summer22NanoAODv12/NMSSM_XtoYHto4B_MX-1200_MY-1000_TuneCP5_13p6TeV_madgraph-pythia8/NANOAODSIM/130X_mcRun3_2022_realistic_v5-v2/2820000/b9e98979-a7df-4589-81b0-27afaa6bfaf0.root",
        "T2_DE_DESY: davs://dcache-cms-webdav.desy.de:2880/pnfs/desy.de/cms/tier2/store/mc/Run3Summer22NanoAODv12/NMSSM_XtoYHto4B_MX-1200_MY-1000_TuneCP5_13p6TeV_madgraph-pythia8/NANOAODSIM/130X_mcRun3_2022_realistic_v5-v2/2820000/b9e98979-a7df-4589-81b0-27afaa6bfaf0.root",
        "T2_UK_SGrid_RALPP: davs://mover.pp.rl.ac.uk:2880/pnfs/pp.rl.ac.uk/data/cms/store/mc/Run3Summer22NanoAODv12/NMSSM_XtoYHto4B_MX-1200_MY-1000_TuneCP5_13p6TeV_madgraph-pythia8/NANOAODSIM/130X_mcRun3_2022_realistic_v5-v2/2820000/b9e98979-a7df-4589-81b0-27afaa6bfaf0.root",
        "T2_TW_NCHC: davs://se01.grid.nchc.org.tw:443//cms/store/mc/Run3Summer22NanoAODv12/NMSSM_XtoYHto4B_MX-1200_MY-1000_TuneCP5_13p6TeV_madgraph-pythia8/NANOAODSIM/130X_mcRun3_2022_realistic_v5-v2/2820000/b9e98979-a7df-4589-81b0-27afaa6bfaf0.root",
        "T2_US_Florida: davs://cmsio2.rc.ufl.edu:1094/store/mc/Run3Summer22NanoAODv12/NMSSM_XtoYHto4B_MX-1200_MY-1000_TuneCP5_13p6TeV_madgraph-pythia8/NANOAODSIM/130X_mcRun3_2022_realistic_v5-v2/2820000/b9e98979-a7df-4589-81b0-27afaa6bfaf0.root",
        "T2_BE_IIHE: davs://maite.iihe.ac.be:2880/pnfs/iihe/cms/ph/sc4/store/mc/Run3Summer22NanoAODv12/NMSSM_XtoYHto4B_MX-1200_MY-1000_TuneCP5_13p6TeV_madgraph-pythia8/NANOAODSIM/130X_mcRun3_2022_realistic_v5-v2/2820000/b9e98979-a7df-4589-81b0-27afaa6bfaf0.root",
        "T1_US_FNAL_Tape: davs://cmsdcatape.fnal.gov:2880/WAX/11/store/mc/Run3Summer22NanoAODv12/NMSSM_XtoYHto4B_MX-1200_MY-1000_TuneCP5_13p6TeV_madgraph-pythia8/NANOAODSIM/130X_mcRun3_2022_realistic_v5-v2/2820000/b9e98979-a7df-4589-81b0-27afaa6bfaf0.root"
    ],
    "cms:/store/mc/Run3Summer22NanoAODv12/NMSSM_XtoYHto4B_MX-1200_MY-1000_TuneCP5_13p6TeV_madgraph-pythia8/NANOAODSIM/130X_mcRun3_2022_realistic_v5-v2/2820000/ac8951de-9cba-42bc-b87a-0589cdbf86a3.root": [
        "T1_US_FNAL_Disk: davs://cmsdcadisk.fnal.gov:2880/dcache/uscmsdisk/store/mc/Run3Summer22NanoAODv12/NMSSM_XtoYHto4B_MX-1200_MY-1000_TuneCP5_13p6TeV_madgraph-pythia8/NANOAODSIM/130X_mcRun3_2022_realistic_v5-v2/2820000/ac8951de-9cba-42bc-b87a-0589cdbf86a3.root",
        "T2_DE_DESY: davs://dcache-cms-webdav.desy.de:2880/pnfs/desy.de/cms/tier2/store/mc/Run3Summer22NanoAODv12/NMSSM_XtoYHto4B_MX-1200_MY-1000_TuneCP5_13p6TeV_madgraph-pythia8/NANOAODSIM/130X_mcRun3_2022_realistic_v5-v2/2820000/ac8951de-9cba-42bc-b87a-0589cdbf86a3.root",
        "T2_UK_SGrid_RALPP: davs://mover.pp.rl.ac.uk:2880/pnfs/pp.rl.ac.uk/data/cms/store/mc/Run3Summer22NanoAODv12/NMSSM_XtoYHto4B_MX-1200_MY-1000_TuneCP5_13p6TeV_madgraph-pythia8/NANOAODSIM/130X_mcRun3_2022_realistic_v5-v2/2820000/ac8951de-9cba-42bc-b87a-0589cdbf86a3.root",
        "T2_TW_NCHC: davs://se01.grid.nchc.org.tw:443//cms/store/mc/Run3Summer22NanoAODv12/NMSSM_XtoYHto4B_MX-1200_MY-1000_TuneCP5_13p6TeV_madgraph-pythia8/NANOAODSIM/130X_mcRun3_2022_realistic_v5-v2/2820000/ac8951de-9cba-42bc-b87a-0589cdbf86a3.root",
        "T2_US_Florida: davs://cmsio2.rc.ufl.edu:1094/store/mc/Run3Summer22NanoAODv12/NMSSM_XtoYHto4B_MX-1200_MY-1000_TuneCP5_13p6TeV_madgraph-pythia8/NANOAODSIM/130X_mcRun3_2022_realistic_v5-v2/2820000/ac8951de-9cba-42bc-b87a-0589cdbf86a3.root",
        "T2_BE_IIHE: davs://maite.iihe.ac.be:2880/pnfs/iihe/cms/ph/sc4/store/mc/Run3Summer22NanoAODv12/NMSSM_XtoYHto4B_MX-1200_MY-1000_TuneCP5_13p6TeV_madgraph-pythia8/NANOAODSIM/130X_mcRun3_2022_realistic_v5-v2/2820000/ac8951de-9cba-42bc-b87a-0589cdbf86a3.root",
        "T1_US_FNAL_Tape: davs://cmsdcatape.fnal.gov:2880/WAX/11/store/mc/Run3Summer22NanoAODv12/NMSSM_XtoYHto4B_MX-1200_MY-1000_TuneCP5_13p6TeV_madgraph-pythia8/NANOAODSIM/130X_mcRun3_2022_realistic_v5-v2/2820000/ac8951de-9cba-42bc-b87a-0589cdbf86a3.root"
    ],
    "cms:/store/mc/Run3Summer22NanoAODv12/NMSSM_XtoYHto4B_MX-1200_MY-1000_TuneCP5_13p6TeV_madgraph-pythia8/NANOAODSIM/130X_mcRun3_2022_realistic_v5-v2/2820000/57eff7b0-980e-45fd-8a44-9679c19c3398.root": [
        "T1_US_FNAL_Disk: root://cmsdcadisk.fnal.gov:1094//dcache/uscmsdisk/store/mc/Run3Summer22NanoAODv12/NMSSM_XtoYHto4B_MX-1200_MY-1000_TuneCP5_13p6TeV_madgraph-pythia8/NANOAODSIM/130X_mcRun3_2022_realistic_v5-v2/2820000/57eff7b0-980e-45fd-8a44-9679c19c3398.root",
        "T2_DE_DESY: davs://dcache-cms-webdav.desy.de:2880/pnfs/desy.de/cms/tier2/store/mc/Run3Summer22NanoAODv12/NMSSM_XtoYHto4B_MX-1200_MY-1000_TuneCP5_13p6TeV_madgraph-pythia8/NANOAODSIM/130X_mcRun3_2022_realistic_v5-v2/2820000/57eff7b0-980e-45fd-8a44-9679c19c3398.root",
        "T2_UK_SGrid_RALPP: davs://mover.pp.rl.ac.uk:2880/pnfs/pp.rl.ac.uk/data/cms/store/mc/Run3Summer22NanoAODv12/NMSSM_XtoYHto4B_MX-1200_MY-1000_TuneCP5_13p6TeV_madgraph-pythia8/NANOAODSIM/130X_mcRun3_2022_realistic_v5-v2/2820000/57eff7b0-980e-45fd-8a44-9679c19c3398.root",
        "T2_TW_NCHC: davs://se01.grid.nchc.org.tw:443//cms/store/mc/Run3Summer22NanoAODv12/NMSSM_XtoYHto4B_MX-1200_MY-1000_TuneCP5_13p6TeV_madgraph-pythia8/NANOAODSIM/130X_mcRun3_2022_realistic_v5-v2/2820000/57eff7b0-980e-45fd-8a44-9679c19c3398.root",
        "T2_US_Florida: davs://cmsio2.rc.ufl.edu:1094/store/mc/Run3Summer22NanoAODv12/NMSSM_XtoYHto4B_MX-1200_MY-1000_TuneCP5_13p6TeV_madgraph-pythia8/NANOAODSIM/130X_mcRun3_2022_realistic_v5-v2/2820000/57eff7b0-980e-45fd-8a44-9679c19c3398.root",
        "T2_BE_IIHE: davs://maite.iihe.ac.be:2880/pnfs/iihe/cms/ph/sc4/store/mc/Run3Summer22NanoAODv12/NMSSM_XtoYHto4B_MX-1200_MY-1000_TuneCP5_13p6TeV_madgraph-pythia8/NANOAODSIM/130X_mcRun3_2022_realistic_v5-v2/2820000/57eff7b0-980e-45fd-8a44-9679c19c3398.root",
        "T1_US_FNAL_Tape: davs://cmsdcatape.fnal.gov:2880/WAX/11/store/mc/Run3Summer22NanoAODv12/NMSSM_XtoYHto4B_MX-1200_MY-1000_TuneCP5_13p6TeV_madgraph-pythia8/NANOAODSIM/130X_mcRun3_2022_realistic_v5-v2/2820000/57eff7b0-980e-45fd-8a44-9679c19c3398.root"
    ],
    "cms:/store/mc/Run3Summer22NanoAODv12/NMSSM_XtoYHto4B_MX-1200_MY-1000_TuneCP5_13p6TeV_madgraph-pythia8/NANOAODSIM/130X_mcRun3_2022_realistic_v5-v2/2820000/cb14d06f-9506-4d0f-a0e9-87970fd2cd91.root": [
        "T1_US_FNAL_Disk: davs://cmsdcadisk.fnal.gov:2880/dcache/uscmsdisk/store/mc/Run3Summer22NanoAODv12/NMSSM_XtoYHto4B_MX-1200_MY-1000_TuneCP5_13p6TeV_madgraph-pythia8/NANOAODSIM/130X_mcRun3_2022_realistic_v5-v2/2820000/cb14d06f-9506-4d0f-a0e9-87970fd2cd91.root",
        "T2_DE_DESY: davs://dcache-cms-webdav.desy.de:2880/pnfs/desy.de/cms/tier2/store/mc/Run3Summer22NanoAODv12/NMSSM_XtoYHto4B_MX-1200_MY-1000_TuneCP5_13p6TeV_madgraph-pythia8/NANOAODSIM/130X_mcRun3_2022_realistic_v5-v2/2820000/cb14d06f-9506-4d0f-a0e9-87970fd2cd91.root",
        "T2_UK_SGrid_RALPP: davs://mover.pp.rl.ac.uk:2880/pnfs/pp.rl.ac.uk/data/cms/store/mc/Run3Summer22NanoAODv12/NMSSM_XtoYHto4B_MX-1200_MY-1000_TuneCP5_13p6TeV_madgraph-pythia8/NANOAODSIM/130X_mcRun3_2022_realistic_v5-v2/2820000/cb14d06f-9506-4d0f-a0e9-87970fd2cd91.root",
        "T2_TW_NCHC: davs://se01.grid.nchc.org.tw:443//cms/store/mc/Run3Summer22NanoAODv12/NMSSM_XtoYHto4B_MX-1200_MY-1000_TuneCP5_13p6TeV_madgraph-pythia8/NANOAODSIM/130X_mcRun3_2022_realistic_v5-v2/2820000/cb14d06f-9506-4d0f-a0e9-87970fd2cd91.root",
        "T2_US_Florida: davs://cmsio2.rc.ufl.edu:1094/store/mc/Run3Summer22NanoAODv12/NMSSM_XtoYHto4B_MX-1200_MY-1000_TuneCP5_13p6TeV_madgraph-pythia8/NANOAODSIM/130X_mcRun3_2022_realistic_v5-v2/2820000/cb14d06f-9506-4d0f-a0e9-87970fd2cd91.root",
        "T2_BE_IIHE: davs://maite.iihe.ac.be:2880/pnfs/iihe/cms/ph/sc4/store/mc/Run3Summer22NanoAODv12/NMSSM_XtoYHto4B_MX-1200_MY-1000_TuneCP5_13p6TeV_madgraph-pythia8/NANOAODSIM/130X_mcRun3_2022_realistic_v5-v2/2820000/cb14d06f-9506-4d0f-a0e9-87970fd2cd91.root",
        "T1_US_FNAL_Tape: davs://cmsdcatape.fnal.gov:2880/WAX/11/store/mc/Run3Summer22NanoAODv12/NMSSM_XtoYHto4B_MX-1200_MY-1000_TuneCP5_13p6TeV_madgraph-pythia8/NANOAODSIM/130X_mcRun3_2022_realistic_v5-v2/2820000/cb14d06f-9506-4d0f-a0e9-87970fd2cd91.root"
    ],
    "cms:/store/mc/Run3Summer22NanoAODv12/NMSSM_XtoYHto4B_MX-1200_MY-1000_TuneCP5_13p6TeV_madgraph-pythia8/NANOAODSIM/130X_mcRun3_2022_realistic_v5-v2/2820000/4e62e2cd-e1de-459d-bf69-2ed40bbede00.root": [
        "T1_US_FNAL_Disk: davs://cmsdcadisk.fnal.gov:2880/dcache/uscmsdisk/store/mc/Run3Summer22NanoAODv12/NMSSM_XtoYHto4B_MX-1200_MY-1000_TuneCP5_13p6TeV_madgraph-pythia8/NANOAODSIM/130X_mcRun3_2022_realistic_v5-v2/2820000/4e62e2cd-e1de-459d-bf69-2ed40bbede00.root",
        "T2_DE_DESY: davs://dcache-cms-webdav.desy.de:2880/pnfs/desy.de/cms/tier2/store/mc/Run3Summer22NanoAODv12/NMSSM_XtoYHto4B_MX-1200_MY-1000_TuneCP5_13p6TeV_madgraph-pythia8/NANOAODSIM/130X_mcRun3_2022_realistic_v5-v2/2820000/4e62e2cd-e1de-459d-bf69-2ed40bbede00.root",
        "T2_UK_SGrid_RALPP: davs://mover.pp.rl.ac.uk:2880/pnfs/pp.rl.ac.uk/data/cms/store/mc/Run3Summer22NanoAODv12/NMSSM_XtoYHto4B_MX-1200_MY-1000_TuneCP5_13p6TeV_madgraph-pythia8/NANOAODSIM/130X_mcRun3_2022_realistic_v5-v2/2820000/4e62e2cd-e1de-459d-bf69-2ed40bbede00.root",
        "T2_TW_NCHC: davs://se01.grid.nchc.org.tw:443//cms/store/mc/Run3Summer22NanoAODv12/NMSSM_XtoYHto4B_MX-1200_MY-1000_TuneCP5_13p6TeV_madgraph-pythia8/NANOAODSIM/130X_mcRun3_2022_realistic_v5-v2/2820000/4e62e2cd-e1de-459d-bf69-2ed40bbede00.root",
        "T2_US_Florida: davs://cmsio2.rc.ufl.edu:1094/store/mc/Run3Summer22NanoAODv12/NMSSM_XtoYHto4B_MX-1200_MY-1000_TuneCP5_13p6TeV_madgraph-pythia8/NANOAODSIM/130X_mcRun3_2022_realistic_v5-v2/2820000/4e62e2cd-e1de-459d-bf69-2ed40bbede00.root",
        "T2_BE_IIHE: davs://maite.iihe.ac.be:2880/pnfs/iihe/cms/ph/sc4/store/mc/Run3Summer22NanoAODv12/NMSSM_XtoYHto4B_MX-1200_MY-1000_TuneCP5_13p6TeV_madgraph-pythia8/NANOAODSIM/130X_mcRun3_2022_realistic_v5-v2/2820000/4e62e2cd-e1de-459d-bf69-2ed40bbede00.root",
        "T1_US_FNAL_Tape: davs://cmsdcatape.fnal.gov:2880/WAX/11/store/mc/Run3Summer22NanoAODv12/NMSSM_XtoYHto4B_MX-1200_MY-1000_TuneCP5_13p6TeV_madgraph-pythia8/NANOAODSIM/130X_mcRun3_2022_realistic_v5-v2/2820000/4e62e2cd-e1de-459d-bf69-2ed40bbede00.root"
    ],
    "cms:/store/mc/Run3Summer22NanoAODv12/NMSSM_XtoYHto4B_MX-1200_MY-1000_TuneCP5_13p6TeV_madgraph-pythia8/NANOAODSIM/130X_mcRun3_2022_realistic_v5-v2/2820000/5c104f80-a1ab-465e-8dc1-2732f4df680c.root": [
        "T1_US_FNAL_Disk: root://cmsdcadisk.fnal.gov:1094//dcache/uscmsdisk/store/mc/Run3Summer22NanoAODv12/NMSSM_XtoYHto4B_MX-1200_MY-1000_TuneCP5_13p6TeV_madgraph-pythia8/NANOAODSIM/130X_mcRun3_2022_realistic_v5-v2/2820000/5c104f80-a1ab-465e-8dc1-2732f4df680c.root",
        "T2_DE_DESY: davs://dcache-cms-webdav.desy.de:2880/pnfs/desy.de/cms/tier2/store/mc/Run3Summer22NanoAODv12/NMSSM_XtoYHto4B_MX-1200_MY-1000_TuneCP5_13p6TeV_madgraph-pythia8/NANOAODSIM/130X_mcRun3_2022_realistic_v5-v2/2820000/5c104f80-a1ab-465e-8dc1-2732f4df680c.root",
        "T2_UK_SGrid_RALPP: davs://mover.pp.rl.ac.uk:2880/pnfs/pp.rl.ac.uk/data/cms/store/mc/Run3Summer22NanoAODv12/NMSSM_XtoYHto4B_MX-1200_MY-1000_TuneCP5_13p6TeV_madgraph-pythia8/NANOAODSIM/130X_mcRun3_2022_realistic_v5-v2/2820000/5c104f80-a1ab-465e-8dc1-2732f4df680c.root",
        "T2_TW_NCHC: davs://se01.grid.nchc.org.tw:443//cms/store/mc/Run3Summer22NanoAODv12/NMSSM_XtoYHto4B_MX-1200_MY-1000_TuneCP5_13p6TeV_madgraph-pythia8/NANOAODSIM/130X_mcRun3_2022_realistic_v5-v2/2820000/5c104f80-a1ab-465e-8dc1-2732f4df680c.root",
        "T2_US_Florida: davs://cmsio2.rc.ufl.edu:1094/store/mc/Run3Summer22NanoAODv12/NMSSM_XtoYHto4B_MX-1200_MY-1000_TuneCP5_13p6TeV_madgraph-pythia8/NANOAODSIM/130X_mcRun3_2022_realistic_v5-v2/2820000/5c104f80-a1ab-465e-8dc1-2732f4df680c.root",
        "T2_BE_IIHE: davs://maite.iihe.ac.be:2880/pnfs/iihe/cms/ph/sc4/store/mc/Run3Summer22NanoAODv12/NMSSM_XtoYHto4B_MX-1200_MY-1000_TuneCP5_13p6TeV_madgraph-pythia8/NANOAODSIM/130X_mcRun3_2022_realistic_v5-v2/2820000/5c104f80-a1ab-465e-8dc1-2732f4df680c.root",
        "T1_US_FNAL_Tape: davs://cmsdcatape.fnal.gov:2880/WAX/11/store/mc/Run3Summer22NanoAODv12/NMSSM_XtoYHto4B_MX-1200_MY-1000_TuneCP5_13p6TeV_madgraph-pythia8/NANOAODSIM/130X_mcRun3_2022_realistic_v5-v2/2820000/5c104f80-a1ab-465e-8dc1-2732f4df680c.root"
    ],
    "cms:/store/mc/Run3Summer22NanoAODv12/NMSSM_XtoYHto4B_MX-1200_MY-1000_TuneCP5_13p6TeV_madgraph-pythia8/NANOAODSIM/130X_mcRun3_2022_realistic_v5-v2/2820000/75b86ec5-557c-471d-888e-3f0b7ca68cf1.root": [
        "T1_US_FNAL_Disk: davs://cmsdcadisk.fnal.gov:2880/dcache/uscmsdisk/store/mc/Run3Summer22NanoAODv12/NMSSM_XtoYHto4B_MX-1200_MY-1000_TuneCP5_13p6TeV_madgraph-pythia8/NANOAODSIM/130X_mcRun3_2022_realistic_v5-v2/2820000/75b86ec5-557c-471d-888e-3f0b7ca68cf1.root",
        "T2_DE_DESY: davs://dcache-cms-webdav.desy.de:2880/pnfs/desy.de/cms/tier2/store/mc/Run3Summer22NanoAODv12/NMSSM_XtoYHto4B_MX-1200_MY-1000_TuneCP5_13p6TeV_madgraph-pythia8/NANOAODSIM/130X_mcRun3_2022_realistic_v5-v2/2820000/75b86ec5-557c-471d-888e-3f0b7ca68cf1.root",
        "T2_UK_SGrid_RALPP: davs://mover.pp.rl.ac.uk:2880/pnfs/pp.rl.ac.uk/data/cms/store/mc/Run3Summer22NanoAODv12/NMSSM_XtoYHto4B_MX-1200_MY-1000_TuneCP5_13p6TeV_madgraph-pythia8/NANOAODSIM/130X_mcRun3_2022_realistic_v5-v2/2820000/75b86ec5-557c-471d-888e-3f0b7ca68cf1.root",
        "T2_TW_NCHC: davs://se01.grid.nchc.org.tw:443//cms/store/mc/Run3Summer22NanoAODv12/NMSSM_XtoYHto4B_MX-1200_MY-1000_TuneCP5_13p6TeV_madgraph-pythia8/NANOAODSIM/130X_mcRun3_2022_realistic_v5-v2/2820000/75b86ec5-557c-471d-888e-3f0b7ca68cf1.root",
        "T2_US_Florida: davs://cmsio2.rc.ufl.edu:1094/store/mc/Run3Summer22NanoAODv12/NMSSM_XtoYHto4B_MX-1200_MY-1000_TuneCP5_13p6TeV_madgraph-pythia8/NANOAODSIM/130X_mcRun3_2022_realistic_v5-v2/2820000/75b86ec5-557c-471d-888e-3f0b7ca68cf1.root",
        "T2_BE_IIHE: davs://maite.iihe.ac.be:2880/pnfs/iihe/cms/ph/sc4/store/mc/Run3Summer22NanoAODv12/NMSSM_XtoYHto4B_MX-1200_MY-1000_TuneCP5_13p6TeV_madgraph-pythia8/NANOAODSIM/130X_mcRun3_2022_realistic_v5-v2/2820000/75b86ec5-557c-471d-888e-3f0b7ca68cf1.root",
        "T1_US_FNAL_Tape: davs://cmsdcatape.fnal.gov:2880/WAX/11/store/mc/Run3Summer22NanoAODv12/NMSSM_XtoYHto4B_MX-1200_MY-1000_TuneCP5_13p6TeV_madgraph-pythia8/NANOAODSIM/130X_mcRun3_2022_realistic_v5-v2/2820000/75b86ec5-557c-471d-888e-3f0b7ca68cf1.root"
    ],
    "cms:/store/mc/Run3Summer22NanoAODv12/NMSSM_XtoYHto4B_MX-1200_MY-1000_TuneCP5_13p6TeV_madgraph-pythia8/NANOAODSIM/130X_mcRun3_2022_realistic_v5-v2/2820000/c1709dd2-e37f-4f3c-86a0-d121c9c1a8a2.root": [
        "T1_US_FNAL_Disk: davs://cmsdcadisk.fnal.gov:2880/dcache/uscmsdisk/store/mc/Run3Summer22NanoAODv12/NMSSM_XtoYHto4B_MX-1200_MY-1000_TuneCP5_13p6TeV_madgraph-pythia8/NANOAODSIM/130X_mcRun3_2022_realistic_v5-v2/2820000/c1709dd2-e37f-4f3c-86a0-d121c9c1a8a2.root",
        "T2_DE_DESY: davs://dcache-cms-webdav.desy.de:2880/pnfs/desy.de/cms/tier2/store/mc/Run3Summer22NanoAODv12/NMSSM_XtoYHto4B_MX-1200_MY-1000_TuneCP5_13p6TeV_madgraph-pythia8/NANOAODSIM/130X_mcRun3_2022_realistic_v5-v2/2820000/c1709dd2-e37f-4f3c-86a0-d121c9c1a8a2.root",
        "T2_UK_SGrid_RALPP: davs://mover.pp.rl.ac.uk:2880/pnfs/pp.rl.ac.uk/data/cms/store/mc/Run3Summer22NanoAODv12/NMSSM_XtoYHto4B_MX-1200_MY-1000_TuneCP5_13p6TeV_madgraph-pythia8/NANOAODSIM/130X_mcRun3_2022_realistic_v5-v2/2820000/c1709dd2-e37f-4f3c-86a0-d121c9c1a8a2.root",
        "T2_TW_NCHC: davs://se01.grid.nchc.org.tw:443//cms/store/mc/Run3Summer22NanoAODv12/NMSSM_XtoYHto4B_MX-1200_MY-1000_TuneCP5_13p6TeV_madgraph-pythia8/NANOAODSIM/130X_mcRun3_2022_realistic_v5-v2/2820000/c1709dd2-e37f-4f3c-86a0-d121c9c1a8a2.root",
        "T2_US_Florida: davs://cmsio2.rc.ufl.edu:1094/store/mc/Run3Summer22NanoAODv12/NMSSM_XtoYHto4B_MX-1200_MY-1000_TuneCP5_13p6TeV_madgraph-pythia8/NANOAODSIM/130X_mcRun3_2022_realistic_v5-v2/2820000/c1709dd2-e37f-4f3c-86a0-d121c9c1a8a2.root",
        "T2_BE_IIHE: davs://maite.iihe.ac.be:2880/pnfs/iihe/cms/ph/sc4/store/mc/Run3Summer22NanoAODv12/NMSSM_XtoYHto4B_MX-1200_MY-1000_TuneCP5_13p6TeV_madgraph-pythia8/NANOAODSIM/130X_mcRun3_2022_realistic_v5-v2/2820000/c1709dd2-e37f-4f3c-86a0-d121c9c1a8a2.root",
        "T1_US_FNAL_Tape: davs://cmsdcatape.fnal.gov:2880/WAX/11/store/mc/Run3Summer22NanoAODv12/NMSSM_XtoYHto4B_MX-1200_MY-1000_TuneCP5_13p6TeV_madgraph-pythia8/NANOAODSIM/130X_mcRun3_2022_realistic_v5-v2/2820000/c1709dd2-e37f-4f3c-86a0-d121c9c1a8a2.root"
    ],
    "cms:/store/mc/Run3Summer22NanoAODv12/NMSSM_XtoYHto4B_MX-1200_MY-1000_TuneCP5_13p6TeV_madgraph-pythia8/NANOAODSIM/130X_mcRun3_2022_realistic_v5-v2/2820000/df0da65d-5e92-4071-a4c3-337544512ac9.root": [
        "T1_US_FNAL_Disk: davs://cmsdcadisk.fnal.gov:2880/dcache/uscmsdisk/store/mc/Run3Summer22NanoAODv12/NMSSM_XtoYHto4B_MX-1200_MY-1000_TuneCP5_13p6TeV_madgraph-pythia8/NANOAODSIM/130X_mcRun3_2022_realistic_v5-v2/2820000/df0da65d-5e92-4071-a4c3-337544512ac9.root",
        "T2_DE_DESY: davs://dcache-cms-webdav.desy.de:2880/pnfs/desy.de/cms/tier2/store/mc/Run3Summer22NanoAODv12/NMSSM_XtoYHto4B_MX-1200_MY-1000_TuneCP5_13p6TeV_madgraph-pythia8/NANOAODSIM/130X_mcRun3_2022_realistic_v5-v2/2820000/df0da65d-5e92-4071-a4c3-337544512ac9.root",
        "T2_UK_SGrid_RALPP: davs://mover.pp.rl.ac.uk:2880/pnfs/pp.rl.ac.uk/data/cms/store/mc/Run3Summer22NanoAODv12/NMSSM_XtoYHto4B_MX-1200_MY-1000_TuneCP5_13p6TeV_madgraph-pythia8/NANOAODSIM/130X_mcRun3_2022_realistic_v5-v2/2820000/df0da65d-5e92-4071-a4c3-337544512ac9.root",
        "T2_TW_NCHC: davs://se01.grid.nchc.org.tw:443//cms/store/mc/Run3Summer22NanoAODv12/NMSSM_XtoYHto4B_MX-1200_MY-1000_TuneCP5_13p6TeV_madgraph-pythia8/NANOAODSIM/130X_mcRun3_2022_realistic_v5-v2/2820000/df0da65d-5e92-4071-a4c3-337544512ac9.root",
        "T2_US_Florida: davs://cmsio2.rc.ufl.edu:1094/store/mc/Run3Summer22NanoAODv12/NMSSM_XtoYHto4B_MX-1200_MY-1000_TuneCP5_13p6TeV_madgraph-pythia8/NANOAODSIM/130X_mcRun3_2022_realistic_v5-v2/2820000/df0da65d-5e92-4071-a4c3-337544512ac9.root",
        "T2_BE_IIHE: davs://maite.iihe.ac.be:2880/pnfs/iihe/cms/ph/sc4/store/mc/Run3Summer22NanoAODv12/NMSSM_XtoYHto4B_MX-1200_MY-1000_TuneCP5_13p6TeV_madgraph-pythia8/NANOAODSIM/130X_mcRun3_2022_realistic_v5-v2/2820000/df0da65d-5e92-4071-a4c3-337544512ac9.root",
        "T1_US_FNAL_Tape: davs://cmsdcatape.fnal.gov:2880/WAX/11/store/mc/Run3Summer22NanoAODv12/NMSSM_XtoYHto4B_MX-1200_MY-1000_TuneCP5_13p6TeV_madgraph-pythia8/NANOAODSIM/130X_mcRun3_2022_realistic_v5-v2/2820000/df0da65d-5e92-4071-a4c3-337544512ac9.root"
    ]
}