{
    "cms:/store/mc/Run3Summer22NanoAODv12/NMSSM_XtoYHto4B_MX-600_MY-80_TuneCP5_13p6TeV_madgraph-pythia8/NANOAODSIM/130X_mcRun3_2022_realistic_v5-v2/2830000/b38b48b2-6982-46f4-8e24-3629e45bee47.root": [
        "T1_US_FNAL_Disk: davs://cmsdcadisk.fnal.gov:2880/dcache/uscmsdisk/store/mc/Run3Summer22NanoAODv12/NMSSM_XtoYHto4B_MX-600_MY-80_TuneCP5_13p6TeV_madgraph-pythia8/NANOAODSIM/130X_mcRun3_2022_realistic_v5-v2/2830000/b38b48b2-6982-46f4-8e24-3629e45bee47.root",
        "T2_CH_CSCS: davs://storage01.lcg.cscs.ch:2880/pnfs/lcg.cscs.ch/cms/trivcat/store/mc/Run3Summer22NanoAODv12/NMSSM_XtoYHto4B_MX-600_MY-80_TuneCP5_13p6TeV_madgraph-pythia8/NANOAODSIM/130X_mcRun3_2022_realistic_v5-v2/2830000/b38b48b2-6982-46f4-8e24-3629e45bee47.root",
        "T2_PT_NCG_Lisbon: davs://gftp03.ncg.ingrid.pt:8443/cms/store/mc/Run3Summer22NanoAODv12/NMSSM_XtoYHto4B_MX-600_MY-80_TuneCP5_13p6TeV_madgraph-pythia8/NANOAODSIM/130X_mcRun3_2022_realistic_v5-v2/2830000/b38b48b2-6982-46f4-8e24-3629e45bee47.root",
        "T1_FR_CCIN2P3_Tape: davs://ccdavcms-tape.in2p3.fr:2880/data/store/mc/Run3Summer22NanoAODv12/NMSSM_XtoYHto4B_MX-600_MY-80_TuneCP5_13p6TeV_madgraph-pythia8/NANOAODSIM/130X_mcRun3_2022_realistic_v5-v2/2830000/b38b48b2-6982-46f4-8e24-3629e45bee47.root",
        "T2_US_Caltech: davs://k8s-redir-stageout.ultralight.org:1094/store/mc/Run3Summer22NanoAODv12/NMSSM_XtoYHto4B_MX-600_MY-80_TuneCP5_13p6TeV_madgraph-pythia8/NANOAODSIM/130X_mcRun3_2022_realistic_v5-v2/2830000/b38b48b2-6982-46f4-8e24-3629e45bee47.root",
        "T1_RU_JINR_Disk: davs://se-wbdv.jinr-t1.ru:2880/pnfs/jinr-t1.ru/data/cms/store/mc/Run3Summer22NanoAODv12/NMSSM_XtoYHto4B_MX-600_MY-80_TuneCP5_13p6TeV_madgraph-pythia8/NANOAODSIM/130X_mcRun3_2022_realistic_v5-v2/2830000/b38b48b2-6982-46f4-8e24-3629e45bee47.root",
        "T2_IT_Rome: davs://cmsrm-xrootd01.roma1.infn.it:2880//mc/Run3Summer22NanoAODv12/NMSSM_XtoYHto4B_MX-600_MY-80_TuneCP5_13p6TeV_madgraph-pythia8/NANOAODSIM/130X_mcRun3_2022_realistic_v5-v2/2830000/b38b48b2-6982-46f4-8e24-3629e45bee47.root"
    ],
    "cms:/store/mc/Run3Summer22NanoAODv12/NMSSM_XtoYHto4B_MX-600_MY-80_TuneCP5_13p6TeV_madgraph-pythia8/NANOAODSIM/130X_mcRun3_2022_realistic_v5-v2/2830000/92d0d96a-157e-4cfe-81d3-85af401f41a3.root": [
        "T2_CH_CSCS: davs://storage01.lcg.cscs.ch:2880/pnfs/lcg.cscs.ch/cms/trivcat/store/mc/Run3Summer22NanoAODv12/NMSSM_XtoYHto4B_MX-600_MY-80_TuneCP5_13p6TeV_madgraph-pythia8/NANOAODSIM/130X_mcRun3_2022_realistic_v5-v2/2830000/92d0d96a-157e-4cfe-81d3-85af401f41a3.root",
        "T2_CN_Beijing: davs://cceos.ihep.ac.cn:9000/eos/ihep/cms/store/mc/Run3Summer22NanoAODv12/NMSSM_XtoYHto4B_MX-600_MY-80_TuneCP5_13p6TeV_madgraph-pythia8/NANOAODSIM/130X_mcRun3_2022_realistic_v5-v2/2830000/92d0d96a-157e-4cfe-81d3-85af401f41a3.root",
        "T1_FR_CCIN2P3_Tape: davs://ccdavcms-tape.in2p3.fr:2880/data/store/mc/Run3Summer22NanoAODv12/NMSSM_XtoYHto4B_MX-600_MY-80_TuneCP5_13p6TeV_madgraph-pythia8/NANOAODSIM/130X_mcRun3_2022_realistic_v5-v2/2830000/92d0d96a-157e-4cfe-81d3-85af401f41a3.root",
        "T2_US_Vanderbilt: davs://xrootd-vanderbilt.sites.opensciencegrid.org:1094/store/mc/Run3Summer22NanoAODv12/NMSSM_XtoYHto4B_MX-600_MY-80_TuneCP5_13p6TeV_madgraph-pythia8/NANOAODSIM/130X_mcRun3_2022_realistic_v5-v2/2830000/92d0d96a-157e-4cfe-81d3-85af401f41a3.root",
        "T1_UK_RAL_Disk: davs://rdr.echo.stfc.ac.uk:1094/store/mc/Run3Summer22NanoAODv12/NMSSM_XtoYHto4B_MX-600_MY-80_TuneCP5_13p6TeV_madgraph-pythia8/NANOAODSIM/130X_mcRun3_2022_realistic_v5-v2/2830000/92d0d96a-157e-4cfe-81d3-85af401f41a3.root",
        "T2_BE_UCL: davs://ingrid-se02.cism.ucl.ac.be:1094/store/mc/Run3Summer22NanoAODv12/NMSSM_XtoYHto4B_MX-600_MY-80_TuneCP5_13p6TeV_madgraph-pythia8/NANOAODSIM/130X_mcRun3_2022_realistic_v5-v2/2830000/92d0d96a-157e-4cfe-81d3-85af401f41a3.root",
        "T2_US_Nebraska: davs://xrootd-local.unl.edu:1094/store/mc/Run3Summer22NanoAODv12/NMSSM_XtoYHto4B_MX-600_MY-80_TuneCP5_13p6TeV_madgraph-pythia8/NANOAODSIM/130X_mcRun3_2022_realistic_v5-v2/2830000/92d0d96a-157e-4cfe-81d3-85af401f41a3.root"
    ],
    "cms:/store/mc/Run3Summer22NanoAODv12/NMSSM_XtoYHto4B_MX-600_MY-80_TuneCP5_13p6TeV_madgraph-pythia8/NANOAODSIM/130X_mcRun3_2022_realistic_v5-v2/2830000/b3b4a4f0-426c-4b6a-995e-a0732958ea54.root": [
        "T1_US_FNAL_Disk: davs://cmsdcadisk.fnal.gov:2880/dcache/uscmsdisk/store/mc/Run3Summer22NanoAODv12/NMSSM_XtoYHto4B_MX-600_MY-80_TuneCP5_13p6TeV_madgraph-pythia8/NANOAODSIM/130X_mcRun3_2022_realistic_v5-v2/2830000/b3b4a4f0-426c-4b6a-995e-a0732958ea54.root",
        "T1_FR_CCIN2P3_Tape: davs://ccdavcms-tape.in2p3.fr:2880/data/store/mc/Run3Summer22NanoAODv12/NMSSM_XtoYHto4B_MX-600_MY-80_TuneCP5_13p6TeV_madgraph-pythia8/NANOAODSIM/130X_mcRun3_2022_realistic_v5-v2/2830000/b3b4a4f0-426c-4b6a-995e-a0732958ea54.root",
        "T2_PL_Swierk: davs://se.cis.gov.pl:2880/grid/cms/store/mc/Run3Summer22NanoAODv12/NMSSM_XtoYHto4B_MX-600_MY-80_TuneCP5_13p6TeV_madgraph-pythia8/NANOAODSIM/130X_mcRun3_2022_realistic_v5-v2/2830000/b3b4a4f0-426c-4b6a-995e-a0732958ea54.root",
        "T1_UK_RAL_Disk: davs://rdr.echo.stfc.ac.uk:1094/store/mc/Run3Summer22NanoAODv12/NMSSM_XtoYHto4B_MX-600_MY-80_TuneCP5_13p6TeV_madgraph-pythia8/NANOAODSIM/130X_mcRun3_2022_realistic_v5-v2/2830000/b3b4a4f0-426c-4b6a-995e-a0732958ea54.root",
        "T2_BR_SPRACE: davs://osg-se.sprace.org.br:1094/store/mc/Run3Summer22NanoAODv12/NMSSM_XtoYHto4B_MX-600_MY-80_TuneCP5_13p6TeV_madgraph-pythia8/NANOAODSIM/130X_mcRun3_2022_realistic_v5-v2/2830000/b3b4a4f0-426c-4b6a-995e-a0732958ea54.root",
        "T2_BE_IIHE: davs://maite.iihe.ac.be:2880/pnfs/iihe/cms/ph/sc4/store/mc/Run3Summer22NanoAODv12/NMSSM_XtoYHto4B_MX-600_MY-80_TuneCP5_13p6TeV_madgraph-pythia8/NANOAODSIM/130X_mcRun3_2022_realistic_v5-v2/2830000/b3b4a4f0-426c-4b6a-995e-a0732958ea54.root",
        "T2_UK_London_IC: davs://gfe02.grid.hep.ph.ic.ac.uk:2880/pnfs/hep.ph.ic.ac.uk/data/cms/store/mc/Run3Summer22NanoAODv12/NMSSM_XtoYHto4B_MX-600_MY-80_TuneCP5_13p6TeV_madgraph-pythia8/NANOAODSIM/130X_mcRun3_2022_realistic_v5-v2/2830000/b3b4a4f0-426c-4b6a-995e-a0732958ea54.root"
    ],
    "cms:/store/mc/Run3Summer22NanoAODv12/NMSSM_XtoYHto4B_MX-600_MY-80_TuneCP5_13p6TeV_madgraph-pythia8/NANOAODSIM/130X_mcRun3_2022_realistic_v5-v2/2830000/ad9938df-e270-4848-bec0-271eade03bde.root": [
        "T1_US_FNAL_Disk: davs://cmsdcadisk.fnal.gov:2880/dcache/uscmsdisk/store/mc/Run3Summer22NanoAODv12/NMSSM_XtoYHto4B_MX-600_MY-80_TuneCP5_13p6TeV_madgraph-pythia8/NANOAODSIM/130X_mcRun3_2022_realistic_v5-v2/2830000/ad9938df-e270-4848-bec0-271eade03bde.root",
        "T2_CH_CSCS: davs://storage01.lcg.cscs.ch:2880/pnfs/lcg.cscs.ch/cms/trivcat/store/mc/Run3Summer22NanoAODv12/NMSSM_XtoYHto4B_MX-600_MY-80_TuneCP5_13p6TeV_madgraph-pythia8/NANOAODSIM/130X_mcRun3_2022_realistic_v5-v2/2830000/ad9938df-e270-4848-bec0-271eade03bde.root",
        "T2_PT_NCG_Lisbon: davs://gftp03.ncg.ingrid.pt:8443/cms/store/mc/Run3Summer22NanoAODv12/NMSSM_XtoYHto4B_MX-600_MY-80_TuneCP5_13p6TeV_madgraph-pythia8/NANOAODSIM/130X_mcRun3_2022_realistic_v5-v2/2830000/ad9938df-e270-4848-bec0-271eade03bde.root",
        "T1_FR_CCIN2P3_Tape: davs://ccdavcms-tape.in2p3.fr:2880/data/store/mc/Run3Summer22NanoAODv12/NMSSM_XtoYHto4B_MX-600_MY-80_TuneCP5_13p6TeV_madgraph-pythia8/NANOAODSIM/130X_mcRun3_2022_realistic_v5-v2/2830000/ad9938df-e270-4848-bec0-271eade03bde.root",
        "T2_US_Caltech: davs://k8s-redir-stageout.ultralight.org:1094/store/mc/Run3Summer22NanoAODv12/NMSSM_XtoYHto4B_MX-600_MY-80_TuneCP5_13p6TeV_madgraph-pythia8/NANOAODSIM/130X_mcRun3_2022_realistic_v5-v2/2830000/ad9938df-e270-4848-bec0-271eade03bde.root",
        "T1_RU_JINR_Disk: davs://se-wbdv.jinr-t1.ru:2880/pnfs/jinr-t1.ru/data/cms/store/mc/Run3Summer22NanoAODv12/NMSSM_XtoYHto4B_MX-600_MY-80_TuneCP5_13p6TeV_madgraph-pythia8/NANOAODSIM/130X_mcRun3_2022_realistic_v5-v2/2830000/ad9938df-e270-4848-bec0-271eade03bde.root",
        "T2_IT_Rome: davs://cmsrm-xrootd01.roma1.infn.it:2880//mc/Run3Summer22NanoAODv12/NMSSM_XtoYHto4B_MX-600_MY-80_TuneCP5_13p6TeV_madgraph-pythia8/NANOAODSIM/130X_mcRun3_2022_realistic_v5-v2/2830000/ad9938df-e270-4848-bec0-271eade03bde.root"
    ],
    "cms:/store/mc/Run3Summer22NanoAODv12/NMSSM_XtoYHto4B_MX-600_MY-80_TuneCP5_13p6TeV_madgraph-pythia8/NANOAODSIM/130X_mcRun3_2022_realistic_v5-v2/2830000/19b390dd-de11-4fd1-b526-3b549e837db2.root": [
        "T2_DE_DESY: davs://dcache-cms-webdav.desy.de:2880/pnfs/desy.de/cms/tier2/store/mc/Run3Summer22NanoAODv12/NMSSM_XtoYHto4B_MX-600_MY-80_TuneCP5_13p6TeV_madgraph-pythia8/NANOAODSIM/130X_mcRun3_2022_realistic_v5-v2/2830000/19b390dd-de11-4fd1-b526-3b549e837db2.root",
        "T2_UK_SGrid_RALPP: davs://mover.pp.rl.ac.uk:2880/pnfs/pp.rl.ac.uk/data/cms/store/mc/Run3Summer22NanoAODv12/NMSSM_XtoYHto4B_MX-600_MY-80_TuneCP5_13p6TeV_madgraph-pythia8/NANOAODSIM/130X_mcRun3_2022_realistic_v5-v2/2830000/19b390dd-de11-4fd1-b526-3b549e837db2.root",
        "T2_PT_NCG_Lisbon: davs://gftp03.ncg.ingrid.pt:8443/cms/store/mc/Run3Summer22NanoAODv12/NMSSM_XtoYHto4B_MX-600_MY-80_TuneCP5_13p6TeV_madgraph-pythia8/NANOAODSIM/130X_mcRun3_2022_realistic_v5-v2/2830000/19b390dd-de11-4fd1-b526-3b549e837db2.root",
        "T1_FR_CCIN2P3_Tape: davs://ccdavcms-tape.in2p3.fr:2880/data/store/mc/Run3Summer22NanoAODv12/NMSSM_XtoYHto4B_MX-600_MY-80_TuneCP5_13p6TeV_madgraph-pythia8/NANOAODSIM/130X_mcRun3_2022_realistic_v5-v2/2830000/19b390dd-de11-4fd1-b526-3b549e837db2.root",
        "T2_US_Wisconsin: davs://cmsxrootd.hep.wisc.edu:1094/store/mc/Run3Summer22NanoAODv12/NMSSM_XtoYHto4B_MX-600_MY-80_TuneCP5_13p6TeV_madgraph-pythia8/NANOAODSIM/130X_mcRun3_2022_realistic_v5-v2/2830000/19b390dd-de11-4fd1-b526-3b549e837db2.root",
        "T2_US_Nebraska: davs://xrootd-local.unl.edu:1094/store/mc/Run3Summer22NanoAODv12/NMSSM_XtoYHto4B_MX-600_MY-80_TuneCP5_13p6TeV_madgraph-pythia8/NANOAODSIM/130X_mcRun3_2022_realistic_v5-v2/2830000/19b390dd-de11-4fd1-b526-3b549e837db2.root",
        "T1_RU_JINR_Disk: davs://se-wbdv.jinr-t1.ru:2880/pnfs/jinr-t1.ru/data/cms/store/mc/Run3Summer22NanoAODv12/NMSSM_XtoYHto4B_MX-600_MY-80_TuneCP5_13p6TeV_madgraph-pythia8/NANOAODSIM/130X_mcRun3_2022_realistic_v5-v2/2830000/19b390dd-de11-4fd1-b526-3b549e837db2.root"
    ],
    "cms:/store/mc/Run3Summer22NanoAODv12/NMSSM_XtoYHto4B_MX-600_MY-80_TuneCP5_13p6TeV_madgraph-pythia8/NANOAODSIM/130X_mcRun3_2022_realistic_v5-v2/2830000/c2f9091d-f759-4c78-8d2d-d009370240ef.root": [
        "T1_US_FNAL_Disk: davs://cmsdcadisk.fnal.gov:2880/dcache/uscmsdisk/store/mc/Run3Summer22NanoAODv12/NMSSM_XtoYHto4B_MX-600_MY-80_TuneCP5_13p6TeV_madgraph-pythia8/NANOAODSIM/130X_mcRun3_2022_realistic_v5-v2/2830000/c2f9091d-f759-4c78-8d2d-d009370240ef.root",
        "T2_CH_CSCS: davs://storage01.lcg.cscs.ch:2880/pnfs/lcg.cscs.ch/cms/trivcat/store/mc/Run3Summer22NanoAODv12/NMSSM_XtoYHto4B_MX-600_MY-80_TuneCP5_13p6TeV_madgraph-pythia8/NANOAODSIM/130X_mcRun3_2022_realistic_v5-v2/2830000/c2f9091d-f759-4c78-8d2d-d009370240ef.root",
        "T2_PT_NCG_Lisbon: davs://gftp03.ncg.ingrid.pt:8443/cms/store/mc/Run3Summer22NanoAODv12/NMSSM_XtoYHto4B_MX-600_MY-80_TuneCP5_13p6TeV_madgraph-pythia8/NANOAODSIM/130X_mcRun3_2022_realistic_v5-v2/2830000/c2f9091d-f759-4c78-8d2d-d009370240ef.root",
        "T1_FR_CCIN2P3_Tape: davs://ccdavcms-tape.in2p3.fr:2880/data/store/mc/Run3Summer22NanoAODv12/NMSSM_XtoYHto4B_MX-600_MY-80_TuneCP5_13p6TeV_madgraph-pythia8/NANOAODSIM/130X_mcRun3_2022_realistic_v5-v2/2830000/c2f9091d-f759-4c78-8d2d-d009370240ef.root",
        "T2_US_Caltech: davs://k8s-redir-stageout.ultralight.org:1094/store/mc/Run3Summer22NanoAODv12/NMSSM_XtoYHto4B_MX-600_MY-80_TuneCP5_13p6TeV_madgraph-pythia8/NANOAODSIM/130X_mcRun3_2022_realistic_v5-v2/2830000/c2f9091d-f759-4c78-8d2d-d009370240ef.root",
        "T1_RU_JINR_Disk: davs://se-wbdv.jinr-t1.ru:2880/pnfs/jinr-t1.ru/data/cms/store/mc/Run3Summer22NanoAODv12/NMSSM_XtoYHto4B_MX-600_MY-80_TuneCP5_13p6TeV_madgraph-pythia8/NANOAODSIM/130X_mcRun3_2022_realistic_v5-v2/2830000/c2f9091d-f759-4c78-8d2d-d009370240ef.root",
        "T2_IT_Rome: davs://cmsrm-xrootd01.roma1.infn.it:2880//mc/Run3Summer22NanoAODv12/NMSSM_XtoYHto4B_MX-600_MY-80_TuneCP5_13p6TeV_madgraph-pythia8/NANOAODSIM/130X_mcRun3_2022_realistic_v5-v2/2830000/c2f9091d-f759-4c78-8d2d-d009370240ef.root"
    ],
    "cms:/store/mc/Run3Summer22NanoAODv12/NMSSM_XtoYHto4B_MX-600_MY-80_TuneCP5_13p6TeV_madgraph-pythia8/NANOAODSIM/130X_mcRun3_2022_realistic_v5-v2/2830000/1dd154f7-d1e6-498f-aa24-39a435be5aee.root": [
        "T1_FR_CCIN2P3_Tape: davs://ccdavcms-tape.in2p3.fr:2880/data/store/mc/Run3Summer22NanoAODv12/NMSSM_XtoYHto4B_MX-600_MY-80_TuneCP5_13p6TeV_madgraph-pythia8/NANOAODSIM/130X_mcRun3_2022_realistic_v5-v2/2830000/1dd154f7-d1e6-498f-aa24-39a435be5aee.root",
        "T2_IT_Bari: davs://webdav.recas.ba.infn.it:8443/cms/store/mc/Run3Summer22NanoAODv12/NMSSM_XtoYHto4B_MX-600_MY-80_TuneCP5_13p6TeV_madgraph-pythia8/NANOAODSIM/130X_mcRun3_2022_realistic_v5-v2/2830000/1dd154f7-d1e6-498f-aa24-39a435be5aee.root",
        "T2_PL_Swierk: davs://se.cis.gov.pl:2880/grid/cms/store/mc/Run3Summer22NanoAODv12/NMSSM_XtoYHto4B_MX-600_MY-80_TuneCP5_13p6TeV_madgraph-pythia8/NANOAODSIM/130X_mcRun3_2022_realistic_v5-v2/2830000/1dd154f7-d1e6-498f-aa24-39a435be5aee.root",
        "T2_US_Vanderbilt: davs://xrootd-vanderbilt.sites.opensciencegrid.org:1094/store/mc/Run3Summer22NanoAODv12/NMSSM_XtoYHto4B_MX-600_MY-80_TuneCP5_13p6TeV_madgraph-pythia8/NANOAODSIM/130X_mcRun3_2022_realistic_v5-v2/2830000/1dd154f7-d1e6-498f-aa24-39a435be5aee.root",
        "T2_US_Wisconsin: davs://cmsxrootd.hep.wisc.edu:1094/store/mc/Run3Summer22NanoAODv12/NMSSM_XtoYHto4B_MX-600_MY-80_TuneCP5_13p6TeV_madgraph-pythia8/NANOAODSIM/130X_mcRun3_2022_realistic_v5-v2/2830000/1dd154f7-d1e6-498f-aa24-39a435be5aee.root",
        "T2_IT_Pisa: davs://stwebdav.pi.infn.it:8443/cms/store/mc/Run3Summer22NanoAODv12/NMSSM_XtoYHto4B_MX-600_MY-80_TuneCP5_13p6TeV_madgraph-pythia8/NANOAODSIM/130X_mcRun3_2022_realistic_v5-v2/2830000/1dd154f7-d1e6-498f-aa24-39a435be5aee.root",
        "T2_IT_Rome: davs://cmsrm-xrootd01.roma1.infn.it:2880//mc/Run3Summer22NanoAODv12/NMSSM_XtoYHto4B_MX-600_MY-80_TuneCP5_13p6TeV_madgraph-pythia8/NANOAODSIM/130X_mcRun3_2022_realistic_v5-v2/2830000/1dd154f7-d1e6-498f-aa24-39a435be5aee.root"
    ],
    "cms:/store/mc/Run3Summer22NanoAODv12/NMSSM_XtoYHto4B_MX-600_MY-80_TuneCP5_13p6TeV_madgraph-pythia8/NANOAODSIM/130X_mcRun3_2022_realistic_v5-v2/2830000/9edaa5a4-9e42-404c-868a-25983cec926a.root": [
        "T1_US_FNAL_Disk: davs://cmsdcadisk.fnal.gov:2880/dcache/uscmsdisk/store/mc/Run3Summer22NanoAODv12/NMSSM_XtoYHto4B_MX-600_MY-80_TuneCP5_13p6TeV_madgraph-pythia8/NANOAODSIM/130X_mcRun3_2022_realistic_v5-v2/2830000/9edaa5a4-9e42-404c-868a-25983cec926a.root",
        "T2_CH_CSCS: davs://storage01.lcg.cscs.ch:2880/pnfs/lcg.cscs.ch/cms/trivcat/store/mc/Run3Summer22NanoAODv12/NMSSM_XtoYHto4B_MX-600_MY-80_TuneCP5_13p6TeV_madgraph-pythia8/NANOAODSIM/130X_mcRun3_2022_realistic_v5-v2/2830000/9edaa5a4-9e42-404c-868a-25983cec926a.root",
        "T2_PT_NCG_Lisbon: davs://gftp03.ncg.ingrid.pt:8443/cms/store/mc/Run3Summer22NanoAODv12/NMSSM_XtoYHto4B_MX-600_MY-80_TuneCP5_13p6TeV_madgraph-pythia8/NANOAODSIM/130X_mcRun3_2022_realistic_v5-v2/2830000/9edaa5a4-9e42-404c-868a-25983cec926a.root",
        "T1_FR_CCIN2P3_Tape: davs://ccdavcms-tape.in2p3.fr:2880/data/store/mc/Run3Summer22NanoAODv12/NMSSM_XtoYHto4B_MX-600_MY-80_TuneCP5_13p6TeV_madgraph-pythia8/NANOAODSIM/130X_mcRun3_2022_realistic_v5-v2/2830000/9edaa5a4-9e42-404c-868a-25983cec926a.root",
        "T2_US_Caltech: davs://k8s-redir-stageout.ultralight.org:1094/store/mc/Run3Summer22NanoAODv12/NMSSM_XtoYHto4B_MX-600_MY-80_TuneCP5_13p6TeV_madgraph-pythia8/NANOAODSIM/130X_mcRun3_2022_realistic_v5-v2/2830000/9edaa5a4-9e42-404c-868a-25983cec926a.root",
        "T1_RU_JINR_Disk: davs://se-wbdv.jinr-t1.ru:2880/pnfs/jinr-t1.ru/data/cms/store/mc/Run3Summer22NanoAODv12/NMSSM_XtoYHto4B_MX-600_MY-80_TuneCP5_13p6TeV_madgraph-pythia8/NANOAODSIM/130X_mcRun3_2022_realistic_v5-v2/2830000/9edaa5a4-9e42-404c-868a-25983cec926a.root",
        "T2_IT_Rome: davs://cmsrm-xrootd01.roma1.infn.it:2880//mc/Run3Summer22NanoAODv12/NMSSM_XtoYHto4B_MX-600_MY-80_TuneCP5_13p6TeV_madgraph-pythia8/NANOAODSIM/130X_mcRun3_2022_realistic_v5-v2/2830000/9edaa5a4-9e42-404c-868a-25983cec926a.root"
    ],
    "cms:/store/mc/Run3Summer22NanoAODv12/NMSSM_XtoYHto4B_MX-600_MY-80_TuneCP5_13p6TeV_madgraph-pythia8/NANOAODSIM/130X_mcRun3_2022_realistic_v5-v2/2830000/bb7a0579-c9e9-4cf7-b6a1-26bce1bf26f8.root": [
        "T1_US_FNAL_Disk: davs://cmsdcadisk.fnal.gov:2880/dcache/uscmsdisk/store/mc/Run3Summer22NanoAODv12/NMSSM_XtoYHto4B_MX-600_MY-80_TuneCP5_13p6TeV_madgraph-pythia8/NANOAODSIM/130X_mcRun3_2022_realistic_v5-v2/2830000/bb7a0579-c9e9-4cf7-b6a1-26bce1bf26f8.root",
        "T2_CH_CSCS: davs://storage01.lcg.cscs.ch:2880/pnfs/lcg.cscs.ch/cms/trivcat/store/mc/Run3Summer22NanoAODv12/NMSSM_XtoYHto4B_MX-600_MY-80_TuneCP5_13p6TeV_madgraph-pythia8/NANOAODSIM/130X_mcRun3_2022_realistic_v5-v2/2830000/bb7a0579-c9e9-4cf7-b6a1-26bce1bf26f8.root",
        "T2_PT_NCG_Lisbon: davs://gftp03.ncg.ingrid.pt:8443/cms/store/mc/Run3Summer22NanoAODv12/NMSSM_XtoYHto4B_MX-600_MY-80_TuneCP5_13p6TeV_madgraph-pythia8/NANOAODSIM/130X_mcRun3_2022_realistic_v5-v2/2830000/bb7a0579-c9e9-4cf7-b6a1-26bce1bf26f8.root",
        "T1_FR_CCIN2P3_Tape: davs://ccdavcms-tape.in2p3.fr:2880/data/store/mc/Run3Summer22NanoAODv12/NMSSM_XtoYHto4B_MX-600_MY-80_TuneCP5_13p6TeV_madgraph-pythia8/NANOAODSIM/130X_mcRun3_2022_realistic_v5-v2/2830000/bb7a0579-c9e9-4cf7-b6a1-26bce1bf26f8.root",
        "T2_US_Caltech: davs://k8s-redir-stageout.ultralight.org:1094/store/mc/Run3Summer22NanoAODv12/NMSSM_XtoYHto4B_MX-600_MY-80_TuneCP5_13p6TeV_madgraph-pythia8/NANOAODSIM/130X_mcRun3_2022_realistic_v5-v2/2830000/bb7a0579-c9e9-4cf7-b6a1-26bce1bf26f8.root",
        "T1_RU_JINR_Disk: davs://se-wbdv.jinr-t1.ru:2880/pnfs/jinr-t1.ru/data/cms/store/mc/Run3Summer22NanoAODv12/NMSSM_XtoYHto4B_MX-600_MY-80_TuneCP5_13p6TeV_madgraph-pythia8/NANOAODSIM/130X_mcRun3_2022_realistic_v5-v2/2830000/bb7a0579-c9e9-4cf7-b6a1-26bce1bf26f8.root",
        "T2_IT_Rome: davs://cmsrm-xrootd01.roma1.infn.it:2880//mc/Run3Summer22NanoAODv12/NMSSM_XtoYHto4B_MX-600_MY-80_TuneCP5_13p6TeV_madgraph-pythia8/NANOAODSIM/130X_mcRun3_2022_realistic_v5-v2/2830000/bb7a0579-c9e9-4cf7-b6a1-26bce1bf26f8.root"
    ],
    "cms:/store/mc/Run3Summer22NanoAODv12/NMSSM_XtoYHto4B_MX-600_MY-80_TuneCP5_13p6TeV_madgraph-pythia8/NANOAODSIM/130X_mcRun3_2022_realistic_v5-v2/2830000/b03de415-fda8-490a-9050-ab366d766388.root": [
        "T2_CN_Beijing: davs://cceos.ihep.ac.cn:9000/eos/ihep/cms/store/mc/Run3Summer22NanoAODv12/NMSSM_XtoYHto4B_MX-600_MY-80_TuneCP5_13p6TeV_madgraph-pythia8/NANOAODSIM/130X_mcRun3_2022_realistic_v5-v2/2830000/b03de415-fda8-490a-9050-ab366d766388.root",
        "T2_UA_KIPT: davs://cms-se0.kipt.kharkov.ua:443//dpm/kipt.kharkov.ua/home/cms/store/mc/Run3Summer22NanoAODv12/NMSSM_XtoYHto4B_MX-600_MY-80_TuneCP5_13p6TeV_madgraph-pythia8/NANOAODSIM/130X_mcRun3_2022_realistic_v5-v2/2830000/b03de415-fda8-490a-9050-ab366d766388.root",
        "T1_FR_CCIN2P3_Tape: davs://ccdavcms-tape.in2p3.fr:2880/data/store/mc/Run3Summer22NanoAODv12/NMSSM_XtoYHto4B_MX-600_MY-80_TuneCP5_13p6TeV_madgraph-pythia8/NANOAODSIM/130X_mcRun3_2022_realistic_v5-v2/2830000/b03de415-fda8-490a-9050-ab366d766388.root",
        "T2_IT_Bari: davs://webdav.recas.ba.infn.it:8443/cms/store/mc/Run3Summer22NanoAODv12/NMSSM_XtoYHto4B_MX-600_MY-80_TuneCP5_13p6TeV_madgraph-pythia8/NANOAODSIM/130X_mcRun3_2022_realistic_v5-v2/2830000/b03de415-fda8-490a-9050-ab366d766388.root",
        "T2_US_Florida: davs://cmsio2.rc.ufl.edu:1094/store/mc/Run3Summer22NanoAODv12/NMSSM_XtoYHto4B_MX-600_MY-80_TuneCP5_13p6TeV_madgraph-pythia8/NANOAODSIM/130X_mcRun3_2022_realistic_v5-v2/2830000/b03de415-fda8-490a-9050-ab366d766388.root",
        "T2_US_Purdue: davs://eos.cms.rcac.purdue.edu:9000/store/mc/Run3Summer22NanoAODv12/NMSSM_XtoYHto4B_MX-600_MY-80_TuneCP5_13p6TeV_madgraph-pythia8/NANOAODSIM/130X_mcRun3_2022_realistic_v5-v2/2830000/b03de415-fda8-490a-9050-ab366d766388.root",
        "T2_UK_London_IC: davs://gfe02.grid.hep.ph.ic.ac.uk:2880/pnfs/hep.ph.ic.ac.uk/data/cms/store/mc/Run3Summer22NanoAODv12/NMSSM_XtoYHto4B_MX-600_MY-80_TuneCP5_13p6TeV_madgraph-pythia8/NANOAODSIM/130X_mcRun3_2022_realistic_v5-v2/2830000/b03de415-fda8-490a-9050-ab366d766388.root"
    ],
    "cms:/store/mc/Run3Summer22NanoAODv12/NMSSM_XtoYHto4B_MX-600_MY-80_TuneCP5_13p6TeV_madgraph-pythia8/NANOAODSIM/130X_mcRun3_2022_realistic_v5-v2/2830000/2cd93131-05d3-4637-b4ae-66c23dbd25cb.root": [
        "T1_US_FNAL_Disk: davs://cmsdcadisk.fnal.gov:2880/dcache/uscmsdisk/store/mc/Run3Summer22NanoAODv12/NMSSM_XtoYHto4B_MX-600_MY-80_TuneCP5_13p6TeV_madgraph-pythia8/NANOAODSIM/130X_mcRun3_2022_realistic_v5-v2/2830000/2cd93131-05d3-4637-b4ae-66c23dbd25cb.root",
        "T2_CH_CSCS: davs://storage01.lcg.cscs.ch:2880/pnfs/lcg.cscs.ch/cms/trivcat/store/mc/Run3Summer22NanoAODv12/NMSSM_XtoYHto4B_MX-600_MY-80_TuneCP5_13p6TeV_madgraph-pythia8/NANOAODSIM/130X_mcRun3_2022_realistic_v5-v2/2830000/2cd93131-05d3-4637-b4ae-66c23dbd25cb.root",
        "T2_PT_NCG_Lisbon: davs://gftp03.ncg.ingrid.pt:8443/cms/store/mc/Run3Summer22NanoAODv12/NMSSM_XtoYHto4B_MX-600_MY-80_TuneCP5_13p6TeV_madgraph-pythia8/NANOAODSIM/130X_mcRun3_2022_realistic_v5-v2/2830000/2cd93131-05d3-4637-b4ae-66c23dbd25cb.root",
        "T1_FR_CCIN2P3_Tape: davs://ccdavcms-tape.in2p3.fr:2880/data/store/mc/Run3Summer22NanoAODv12/NMSSM_XtoYHto4B_MX-600_MY-80_TuneCP5_13p6TeV_madgraph-pythia8/NANOAODSIM/130X_mcRun3_2022_realistic_v5-v2/2830000/2cd93131-05d3-4637-b4ae-66c23dbd25cb.root",
        "T2_US_Caltech: davs://k8s-redir-stageout.ultralight.org:1094/store/mc/Run3Summer22NanoAODv12/NMSSM_XtoYHto4B_MX-600_MY-80_TuneCP5_13p6TeV_madgraph-pythia8/NANOAODSIM/130X_mcRun3_2022_realistic_v5-v2/2830000/2cd93131-05d3-4637-b4ae-66c23dbd25cb.root",
        "T1_RU_JINR_Disk: davs://se-wbdv.jinr-t1.ru:2880/pnfs/jinr-t1.ru/data/cms/store/mc/Run3Summer22NanoAODv12/NMSSM_XtoYHto4B_MX-600_MY-80_TuneCP5_13p6TeV_madgraph-pythia8/NANOAODSIM/130X_mcRun3_2022_realistic_v5-v2/2830000/2cd93131-05d3-4637-b4ae-66c23dbd25cb.root",
        "T2_IT_Rome: davs://cmsrm-xrootd01.roma1.infn.it:2880//mc/Run3Summer22NanoAODv12/NMSSM_XtoYHto4B_MX-600_MY-80_TuneCP5_13p6TeV_madgraph-pythia8/NANOAODSIM/130X_mcRun3_2022_realistic_v5-v2/2830000/2cd93131-05d3-4637-b4ae-66c23dbd25cb.root"
    ],
    "cms:/store/mc/Run3Summer22NanoAODv12/NMSSM_XtoYHto4B_MX-600_MY-80_TuneCP5_13p6TeV_madgraph-pythia8/NANOAODSIM/130X_mcRun3_2022_realistic_v5-v2/2830000/f5862400-572e-45c0-889c-5dcdd7b74954.root": [
        "T2_CH_CSCS: davs://storage01.lcg.cscs.ch:2880/pnfs/lcg.cscs.ch/cms/trivcat/store/mc/Run3Summer22NanoAODv12/NMSSM_XtoYHto4B_MX-600_MY-80_TuneCP5_13p6TeV_madgraph-pythia8/NANOAODSIM/130X_mcRun3_2022_realistic_v5-v2/2830000/f5862400-572e-45c0-889c-5dcdd7b74954.root",
        "T2_US_MIT: davs://xrootd.cmsaf.mit.edu:1094/store/mc/Run3Summer22NanoAODv12/NMSSM_XtoYHto4B_MX-600_MY-80_TuneCP5_13p6TeV_madgraph-pythia8/NANOAODSIM/130X_mcRun3_2022_realistic_v5-v2/2830000/f5862400-572e-45c0-889c-5dcdd7b74954.root",
        "T1_FR_CCIN2P3_Tape: davs://ccdavcms-tape.in2p3.fr:2880/data/store/mc/Run3Summer22NanoAODv12/NMSSM_XtoYHto4B_MX-600_MY-80_TuneCP5_13p6TeV_madgraph-pythia8/NANOAODSIM/130X_mcRun3_2022_realistic_v5-v2/2830000/f5862400-572e-45c0-889c-5dcdd7b74954.root",
        "T2_US_Vanderbilt: davs://xrootd-vanderbilt.sites.opensciencegrid.org:1094/store/mc/Run3Summer22NanoAODv12/NMSSM_XtoYHto4B_MX-600_MY-80_TuneCP5_13p6TeV_madgraph-pythia8/NANOAODSIM/130X_mcRun3_2022_realistic_v5-v2/2830000/f5862400-572e-45c0-889c-5dcdd7b74954.root",
        "T1_UK_RAL_Disk: davs://rdr.echo.stfc.ac.uk:1094/store/mc/Run3Summer22NanoAODv12/NMSSM_XtoYHto4B_MX-600_MY-80_TuneCP5_13p6TeV_madgraph-pythia8/NANOAODSIM/130X_mcRun3_2022_realistic_v5-v2/2830000/f5862400-572e-45c0-889c-5dcdd7b74954.root",
        "T1_ES_PIC_Disk: davs://webdav-cms.pic.es:8459/pnfs/pic.es/data/cms/disk/store/mc/Run3Summer22NanoAODv12/NMSSM_XtoYHto4B_MX-600_MY-80_TuneCP5_13p6TeV_madgraph-pythia8/NANOAODSIM/130X_mcRun3_2022_realistic_v5-v2/2830000/f5862400-572e-45c0-889c-5dcdd7b74954.root",
        "T1_RU_JINR_Disk: davs://se-wbdv.jinr-t1.ru:2880/pnfs/jinr-t1.ru/data/cms/store/mc/Run3Summer22NanoAODv12/NMSSM_XtoYHto4B_MX-600_MY-80_TuneCP5_13p6TeV_madgraph-pythia8/NANOAODSIM/130X_mcRun3_2022_realistic_v5-v2/2830000/f5862400-572e-45c0-889c-5dcdd7b74954.root"
    ],
    "cms:/store/mc/Run3Summer22NanoAODv12/NMSSM_XtoYHto4B_MX-600_MY-80_TuneCP5_13p6TeV_madgraph-pythia8/NANOAODSIM/130X_mcRun3_2022_realistic_v5-v2/2830000/4eaec87c-3fab-442c-9fc8-19e418aa58d5.root": [
        "T1_US_FNAL_Disk: davs://cmsdcadisk.fnal.gov:2880/dcache/uscmsdisk/store/mc/Run3Summer22NanoAODv12/NMSSM_XtoYHto4B_MX-600_MY-80_TuneCP5_13p6TeV_madgraph-pythia8/NANOAODSIM/130X_mcRun3_2022_realistic_v5-v2/2830000/4eaec87c-3fab-442c-9fc8-19e418aa58d5.root",
        "T2_CH_CSCS: davs://storage01.lcg.cscs.ch:2880/pnfs/lcg.cscs.ch/cms/trivcat/store/mc/Run3Summer22NanoAODv12/NMSSM_XtoYHto4B_MX-600_MY-80_TuneCP5_13p6TeV_madgraph-pythia8/NANOAODSIM/130X_mcRun3_2022_realistic_v5-v2/2830000/4eaec87c-3fab-442c-9fc8-19e418aa58d5.root",
        "T2_PT_NCG_Lisbon: davs://gftp03.ncg.ingrid.pt:8443/cms/store/mc/Run3Summer22NanoAODv12/NMSSM_XtoYHto4B_MX-600_MY-80_TuneCP5_13p6TeV_madgraph-pythia8/NANOAODSIM/130X_mcRun3_2022_realistic_v5-v2/2830000/4eaec87c-3fab-442c-9fc8-19e418aa58d5.root",
        "T1_FR_CCIN2P3_Tape: davs://ccdavcms-tape.in2p3.fr:2880/data/store/mc/Run3Summer22NanoAODv12/NMSSM_XtoYHto4B_MX-600_MY-80_TuneCP5_13p6TeV_madgraph-pythia8/NANOAODSIM/130X_mcRun3_2022_realistic_v5-v2/2830000/4eaec87c-3fab-442c-9fc8-19e418aa58d5.root",
        "T2_US_Caltech: davs://k8s-redir-stageout.ultralight.org:1094/store/mc/Run3Summer22NanoAODv12/NMSSM_XtoYHto4B_MX-600_MY-80_TuneCP5_13p6TeV_madgraph-pythia8/NANOAODSIM/130X_mcRun3_2022_realistic_v5-v2/2830000/4eaec87c-3fab-442c-9fc8-19e418aa58d5.root",
        "T1_RU_JINR_Disk: davs://se-wbdv.jinr-t1.ru:2880/pnfs/jinr-t1.ru/data/cms/store/mc/Run3Summer22NanoAODv12/NMSSM_XtoYHto4B_MX-600_MY-80_TuneCP5_13p6TeV_madgraph-pythia8/NANOAODSIM/130X_mcRun3_2022_realistic_v5-v2/2830000/4eaec87c-3fab-442c-9fc8-19e418aa58d5.root",
        "T2_IT_Rome: davs://cmsrm-xrootd01.roma1.infn.it:2880//mc/Run3Summer22NanoAODv12/NMSSM_XtoYHto4B_MX-600_MY-80_TuneCP5_13p6TeV_madgraph-pythia8/NANOAODSIM/130X_mcRun3_2022_realistic_v5-v2/2830000/4eaec87c-3fab-442c-9fc8-19e418aa58d5.root"
    ],
    "cms:/store/mc/Run3Summer22NanoAODv12/NMSSM_XtoYHto4B_MX-600_MY-80_TuneCP5_13p6TeV_madgraph-pythia8/NANOAODSIM/130X_mcRun3_2022_realistic_v5-v2/2830000/1f73cdbf-fd00-4d19-be5b-0e0d3bb74237.root": [
        "T1_US_FNAL_Disk: davs://cmsdcadisk.fnal.gov:2880/dcache/uscmsdisk/store/mc/Run3Summer22NanoAODv12/NMSSM_XtoYHto4B_MX-600_MY-80_TuneCP5_13p6TeV_madgraph-pythia8/NANOAODSIM/130X_mcRun3_2022_realistic_v5-v2/2830000/1f73cdbf-fd00-4d19-be5b-0e0d3bb74237.root",
        "T2_CH_CSCS: davs://storage01.lcg.cscs.ch:2880/pnfs/lcg.cscs.ch/cms/trivcat/store/mc/Run3Summer22NanoAODv12/NMSSM_XtoYHto4B_MX-600_MY-80_TuneCP5_13p6TeV_madgraph-pythia8/NANOAODSIM/130X_mcRun3_2022_realistic_v5-v2/2830000/1f73cdbf-fd00-4d19-be5b-0e0d3bb74237.root",
        "T2_PT_NCG_Lisbon: davs://gftp03.ncg.ingrid.pt:8443/cms/store/mc/Run3Summer22NanoAODv12/NMSSM_XtoYHto4B_MX-600_MY-80_TuneCP5_13p6TeV_madgraph-pythia8/NANOAODSIM/130X_mcRun3_2022_realistic_v5-v2/2830000/1f73cdbf-fd00-4d19-be5b-0e0d3bb74237.root",
        "T1_FR_CCIN2P3_Tape: davs://ccdavcms-tape.in2p3.fr:2880/data/store/mc/Run3Summer22NanoAODv12/NMSSM_XtoYHto4B_MX-600_MY-80_TuneCP5_13p6TeV_madgraph-pythia8/NANOAODSIM/130X_mcRun3_2022_realistic_v5-v2/2830000/1f73cdbf-fd00-4d19-be5b-0e0d3bb74237.root",
        "T2_US_Caltech: davs://k8s-redir-stageout.ultralight.org:1094/store/mc/Run3Summer22NanoAODv12/NMSSM_XtoYHto4B_MX-600_MY-80_TuneCP5_13p6TeV_madgraph-pythia8/NANOAODSIM/130X_mcRun3_2022_realistic_v5-v2/2830000/1f73cdbf-fd00-4d19-be5b-0e0d3bb74237.root",
        "T1_RU_JINR_Disk: davs://se-wbdv.jinr-t1.ru:2880/pnfs/jinr-t1.ru/data/cms/store/mc/Run3Summer22NanoAODv12/NMSSM_XtoYHto4B_MX-600_MY-80_TuneCP5_13p6TeV_madgraph-pythia8/NANOAODSIM/130X_mcRun3_2022_realistic_v5-v2/2830000/1f73cdbf-fd00-4d19-be5b-0e0d3bb74237.root",
        "T2_IT_Rome: davs://cmsrm-xrootd01.roma1.infn.it:2880//mc/Run3Summer22NanoAODv12/NMSSM_XtoYHto4B_MX-600_MY-80_TuneCP5_13p6TeV_madgraph-pythia8/NANOAODSIM/130X_mcRun3_2022_realistic_v5-v2/2830000/1f73cdbf-fd00-4d19-be5b-0e0d3bb74237.root"
    ],
    "cms:/store/mc/Run3Summer22NanoAODv12/NMSSM_XtoYHto4B_MX-600_MY-80_TuneCP5_13p6TeV_madgraph-pythia8/NANOAODSIM/130X_mcRun3_2022_realistic_v5-v2/2830000/58fe4cbd-45f4-4c08-b281-85bb0bc67a06.root": [
        "T1_US_FNAL_Disk: davs://cmsdcadisk.fnal.gov:2880/dcache/uscmsdisk/store/mc/Run3Summer22NanoAODv12/NMSSM_XtoYHto4B_MX-600_MY-80_TuneCP5_13p6TeV_madgraph-pythia8/NANOAODSIM/130X_mcRun3_2022_realistic_v5-v2/2830000/58fe4cbd-45f4-4c08-b281-85bb0bc67a06.root",
        "T2_CH_CSCS: davs://storage01.lcg.cscs.ch:2880/pnfs/lcg.cscs.ch/cms/trivcat/store/mc/Run3Summer22NanoAODv12/NMSSM_XtoYHto4B_MX-600_MY-80_TuneCP5_13p6TeV_madgraph-pythia8/NANOAODSIM/130X_mcRun3_2022_realistic_v5-v2/2830000/58fe4cbd-45f4-4c08-b281-85bb0bc67a06.root",
        "T2_PT_NCG_Lisbon: davs://gftp03.ncg.ingrid.pt:8443/cms/store/mc/Run3Summer22NanoAODv12/NMSSM_XtoYHto4B_MX-600_MY-80_TuneCP5_13p6TeV_madgraph-pythia8/NANOAODSIM/130X_mcRun3_2022_realistic_v5-v2/2830000/58fe4cbd-45f4-4c08-b281-85bb0bc67a06.root",
        "T1_FR_CCIN2P3_Tape: davs://ccdavcms-tape.in2p3.fr:2880/data/store/mc/Run3Summer22NanoAODv12/NMSSM_XtoYHto4B_MX-600_MY-80_TuneCP5_13p6TeV_madgraph-pythia8/NANOAODSIM/130X_mcRun3_2022_realistic_v5-v2/2830000/58fe4cbd-45f4-4c08-b281-85bb0bc67a06.root",
        "T2_US_Caltech: davs://k8s-redir-stageout.ultralight.org:1094/store/mc/Run3Summer22NanoAODv12/NMSSM_XtoYHto4B_MX-600_MY-80_TuneCP5_13p6TeV_madgraph-pythia8/NANOAODSIM/130X_mcRun3_2022_realistic_v5-v2/2830000/58fe4cbd-45f4-4c08-b281-85bb0bc67a06.root",
        "T1_RU_JINR_Disk: davs://se-wbdv.jinr-t1.ru:2880/pnfs/jinr-t1.ru/data/cms/store/mc/Run3Summer22NanoAODv12/NMSSM_XtoYHto4B_MX-600_MY-80_TuneCP5_13p6TeV_madgraph-pythia8/NANOAODSIM/130X_mcRun3_2022_realistic_v5-v2/2830000/58fe4cbd-45f4-4c08-b281-85bb0bc67a06.root",
        "T2_IT_Rome: davs://cmsrm-xrootd01.roma1.infn.it:2880//mc/Run3Summer22NanoAODv12/NMSSM_XtoYHto4B_MX-600_MY-80_TuneCP5_13p6TeV_madgraph-pythia8/NANOAODSIM/130X_mcRun3_2022_realistic_v5-v2/2830000/58fe4cbd-45f4-4c08-b281-85bb0bc67a06.root"
    ]
}