#/NMSSM_XtoYHto4B_MX-4000_MY-3500_TuneCP5_13p6TeV_madgraph-pythia8/Run3Summer22EENanoAODv12-130X_mcRun3_2022_realistic_postEE_v6-v2/NANOAODSIM
+--------------------------------------------------------------------------------------------------------------------------------------------------------------------------------------------------------------+--------+-------------+------------+----------+
| SCOPE:NAME                                                                                                                                                                                                   | GUID   | ADLER32     | FILESIZE   | EVENTS   |
|--------------------------------------------------------------------------------------------------------------------------------------------------------------------------------------------------------------+--------+-------------+------------+----------|
| cms:/store/mc/Run3Summer22EENanoAODv12/NMSSM_XtoYHto4B_MX-4000_MY-3500_TuneCP5_13p6TeV_madgraph-pythia8/NANOAODSIM/130X_mcRun3_2022_realistic_postEE_v6-v2/2830000/458045f4-4fde-486e-b859-a3358f45a9b3.root | (None) | ad:402606de | 12.683 MB  |          |
| cms:/store/mc/Run3Summer22EENanoAODv12/NMSSM_XtoYHto4B_MX-4000_MY-3500_TuneCP5_13p6TeV_madgraph-pythia8/NANOAODSIM/130X_mcRun3_2022_realistic_postEE_v6-v2/2830000/8728d668-8ae9-45dc-9d25-1882d6f5842b.root | (None) | ad:f5a49762 | 40.089 MB  |          |
| cms:/store/mc/Run3Summer22EENanoAODv12/NMSSM_XtoYHto4B_MX-4000_MY-3500_TuneCP5_13p6TeV_madgraph-pythia8/NANOAODSIM/130X_mcRun3_2022_realistic_postEE_v6-v2/2830000/5a882d42-e157-4f51-882b-a2959a4c5e87.root | (None) | ad:2454bd30 | 24.034 MB  |          |
| cms:/store/mc/Run3Summer22EENanoAODv12/NMSSM_XtoYHto4B_MX-4000_MY-3500_TuneCP5_13p6TeV_madgraph-pythia8/NANOAODSIM/130X_mcRun3_2022_realistic_postEE_v6-v2/2830000/37499546-49f4-44b6-b48d-18c359e53a18.root | (None) | ad:9cafd304 | 28.399 MB  |          |
| cms:/store/mc/Run3Summer22EENanoAODv12/NMSSM_XtoYHto4B_MX-4000_MY-3500_TuneCP5_13p6TeV_madgraph-pythia8/NANOAODSIM/130X_mcRun3_2022_realistic_postEE_v6-v2/2830000/17e21bbf-907f-4fac-9f76-a08de3c95ba9.root | (None) | ad:34c41bd8 | 40.152 MB  |          |
| cms:/store/mc/Run3Summer22EENanoAODv12/NMSSM_XtoYHto4B_MX-4000_MY-3500_TuneCP5_13p6TeV_madgraph-pythia8/NANOAODSIM/130X_mcRun3_2022_realistic_postEE_v6-v2/2830000/70dac185-c928-450a-a133-4b5a37e77afc.root | (None) | ad:d86c175f | 7.808 MB   |          |
| cms:/store/mc/Run3Summer22EENanoAODv12/NMSSM_XtoYHto4B_MX-4000_MY-3500_TuneCP5_13p6TeV_madgraph-pythia8/NANOAODSIM/130X_mcRun3_2022_realistic_postEE_v6-v2/2830000/b44ad926-907f-4d1c-ae2b-121de20d4bed.root | (None) | ad:18af5e38 | 37.461 MB  |          |
| cms:/store/mc/Run3Summer22EENanoAODv12/NMSSM_XtoYHto4B_MX-4000_MY-3500_TuneCP5_13p6TeV_madgraph-pythia8/NANOAODSIM/130X_mcRun3_2022_realistic_postEE_v6-v2/2830000/dcd36b87-cf0e-4c2c-8066-3b079cdefb47.root | (None) | ad:d08e514b | 5.181 MB   |          |
| cms:/store/mc/Run3Summer22EENanoAODv12/NMSSM_XtoYHto4B_MX-4000_MY-3500_TuneCP5_13p6TeV_madgraph-pythia8/NANOAODSIM/130X_mcRun3_2022_realistic_postEE_v6-v2/2830000/ba0517d2-b545-4fee-af2d-bcc55b0b2b85.root | (None) | ad:e4730501 | 5.126 MB   |          |
| cms:/store/mc/Run3Summer22EENanoAODv12/NMSSM_XtoYHto4B_MX-4000_MY-3500_TuneCP5_13p6TeV_madgraph-pythia8/NANOAODSIM/130X_mcRun3_2022_realistic_postEE_v6-v2/2830000/fe4015c0-c31e-4b01-9a61-16a719f453da.root | (None) | ad:b01f2de9 | 21.810 MB  |          |
| cms:/store/mc/Run3Summer22EENanoAODv12/NMSSM_XtoYHto4B_MX-4000_MY-3500_TuneCP5_13p6TeV_madgraph-pythia8/NANOAODSIM/130X_mcRun3_2022_realistic_postEE_v6-v2/2830000/cd031fda-2d2c-47a0-bfad-edffbd024295.root | (None) | ad:2ded651f | 5.181 MB   |          |
| cms:/store/mc/Run3Summer22EENanoAODv12/NMSSM_XtoYHto4B_MX-4000_MY-3500_TuneCP5_13p6TeV_madgraph-pythia8/NANOAODSIM/130X_mcRun3_2022_realistic_postEE_v6-v2/2830000/68c856bb-cad0-4cc3-a9a2-a661c3336470.root | (None) | ad:12a9ce98 | 5.148 MB   |          |
| cms:/store/mc/Run3Summer22EENanoAODv12/NMSSM_XtoYHto4B_MX-4000_MY-3500_TuneCP5_13p6TeV_madgraph-pythia8/NANOAODSIM/130X_mcRun3_2022_realistic_postEE_v6-v2/2830000/2f1c8522-61da-43e6-84ab-5c912e102e2c.root | (None) | ad:fa7f7df7 | 10.088 MB  |          |
| cms:/store/mc/Run3Summer22EENanoAODv12/NMSSM_XtoYHto4B_MX-4000_MY-3500_TuneCP5_13p6TeV_madgraph-pythia8/NANOAODSIM/130X_mcRun3_2022_realistic_postEE_v6-v2/2830000/970cad88-1165-43de-b038-864b7321db07.root | (None) | ad:edc62328 | 5.174 MB   |          |
| cms:/store/mc/Run3Summer22EENanoAODv12/NMSSM_XtoYHto4B_MX-4000_MY-3500_TuneCP5_13p6TeV_madgraph-pythia8/NANOAODSIM/130X_mcRun3_2022_realistic_postEE_v6-v2/2830000/1b9a4370-8dae-4768-8d3c-8730e2a72182.root | (None) | ad:7b5bda9c | 7.837 MB   |          |
| cms:/store/mc/Run3Summer22EENanoAODv12/NMSSM_XtoYHto4B_MX-4000_MY-3500_TuneCP5_13p6TeV_madgraph-pythia8/NANOAODSIM/130X_mcRun3_2022_realistic_postEE_v6-v2/2830000/e12ff1cb-5454-47af-b817-ce5a20f20904.root | (None) | ad:54222a09 | 12.657 MB  |          |
| cms:/store/mc/Run3Summer22EENanoAODv12/NMSSM_XtoYHto4B_MX-4000_MY-3500_TuneCP5_13p6TeV_madgraph-pythia8/NANOAODSIM/130X_mcRun3_2022_realistic_postEE_v6-v2/2830000/c404df29-ac05-419b-8a21-4127c95d12f1.root | (None) | ad:6751767f | 7.862 MB   |          |
| cms:/store/mc/Run3Summer22EENanoAODv12/NMSSM_XtoYHto4B_MX-4000_MY-3500_TuneCP5_13p6TeV_madgraph-pythia8/NANOAODSIM/130X_mcRun3_2022_realistic_postEE_v6-v2/2830000/14045075-b9e0-4e22-ae54-38adfe841021.root | (None) | ad:a273ddb5 | 10.032 MB  |          |
| cms:/store/mc/Run3Summer22EENanoAODv12/NMSSM_XtoYHto4B_MX-4000_MY-3500_TuneCP5_13p6TeV_madgraph-pythia8/NANOAODSIM/130X_mcRun3_2022_realistic_postEE_v6-v2/2830000/eeaaf949-0803-4650-bb7e-e0a18d9016ab.root | (None) | ad:e6cc97b5 | 5.182 MB   |          |
| cms:/store/mc/Run3Summer22EENanoAODv12/NMSSM_XtoYHto4B_MX-4000_MY-3500_TuneCP5_13p6TeV_madgraph-pythia8/NANOAODSIM/130X_mcRun3_2022_realistic_postEE_v6-v2/2830000/bc0c1e38-a836-4370-aa28-936d61f3192d.root | (None) | ad:02709ee3 | 12.581 MB  |          |
| cms:/store/mc/Run3Summer22EENanoAODv12/NMSSM_XtoYHto4B_MX-4000_MY-3500_TuneCP5_13p6TeV_madgraph-pythia8/NANOAODSIM/130X_mcRun3_2022_realistic_postEE_v6-v2/2830000/57417ee7-50c4-4c9a-bdfb-c6c3a0c53353.root | (None) | ad:5fb1dc2b | 3.326 MB   |          |
| cms:/store/mc/Run3Summer22EENanoAODv12/NMSSM_XtoYHto4B_MX-4000_MY-3500_TuneCP5_13p6TeV_madgraph-pythia8/NANOAODSIM/130X_mcRun3_2022_realistic_postEE_v6-v2/2830000/2b2a43e3-5324-424f-ae64-bf7c83b25b81.root | (None) | ad:f103c753 | 35.380 MB  |          |
| cms:/store/mc/Run3Summer22EENanoAODv12/NMSSM_XtoYHto4B_MX-4000_MY-3500_TuneCP5_13p6TeV_madgraph-pythia8/NANOAODSIM/130X_mcRun3_2022_realistic_postEE_v6-v2/2830000/caa95b60-1166-4529-ade3-881b2ab021c5.root | (None) | ad:61b76720 | 5.151 MB   |          |
+--------------------------------------------------------------------------------------------------------------------------------------------------------------------------------------------------------------+--------+-------------+------------+----------+
Total files : 23
Total size : 348.345 MB
