{
    "cms:/store/mc/Run3Summer23BPixNanoAODv12/NMSSM_XtoYHto4B_MX-1000_MY-300_TuneCP5_13p6TeV_madgraph-pythia8/NANOAODSIM/130X_mcRun3_2023_realistic_postBPix_v6-v2/2820000/5ea174c4-273f-4155-a2b9-b4523ab2024f.root": [
        "T2_UK_SGrid_RALPP: davs://mover.pp.rl.ac.uk:2880/pnfs/pp.rl.ac.uk/data/cms/store/mc/Run3Summer23BPixNanoAODv12/NMSSM_XtoYHto4B_MX-1000_MY-300_TuneCP5_13p6TeV_madgraph-pythia8/NANOAODSIM/130X_mcRun3_2023_realistic_postBPix_v6-v2/2820000/5ea174c4-273f-4155-a2b9-b4523ab2024f.root",
        "T1_US_FNAL_Tape_Test: davs://cmstnvm1.fnal.gov:2880/store/mc/Run3Summer23BPixNanoAODv12/NMSSM_XtoYHto4B_MX-1000_MY-300_TuneCP5_13p6TeV_madgraph-pythia8/NANOAODSIM/130X_mcRun3_2023_realistic_postBPix_v6-v2/2820000/5ea174c4-273f-4155-a2b9-b4523ab2024f.root",
        "T2_US_Wisconsin: davs://cmsxrootd.hep.wisc.edu:1094/store/mc/Run3Summer23BPixNanoAODv12/NMSSM_XtoYHto4B_MX-1000_MY-300_TuneCP5_13p6TeV_madgraph-pythia8/NANOAODSIM/130X_mcRun3_2023_realistic_postBPix_v6-v2/2820000/5ea174c4-273f-4155-a2b9-b4523ab2024f.root",
        "T2_US_Caltech: davs://k8s-redir-stageout.ultralight.org:1094/store/mc/Run3Summer23BPixNanoAODv12/NMSSM_XtoYHto4B_MX-1000_MY-300_TuneCP5_13p6TeV_madgraph-pythia8/NANOAODSIM/130X_mcRun3_2023_realistic_postBPix_v6-v2/2820000/5ea174c4-273f-4155-a2b9-b4523ab2024f.root",
        "T2_IT_Pisa: davs://stwebdav.pi.infn.it:8443/cms/store/mc/Run3Summer23BPixNanoAODv12/NMSSM_XtoYHto4B_MX-1000_MY-300_TuneCP5_13p6TeV_madgraph-pythia8/NANOAODSIM/130X_mcRun3_2023_realistic_postBPix_v6-v2/2820000/5ea174c4-273f-4155-a2b9-b4523ab2024f.root",
        "T1_RU_JINR_Disk: davs://se-wbdv.jinr-t1.ru:2880/pnfs/jinr-t1.ru/data/cms/store/mc/Run3Summer23BPixNanoAODv12/NMSSM_XtoYHto4B_MX-1000_MY-300_TuneCP5_13p6TeV_madgraph-pythia8/NANOAODSIM/130X_mcRun3_2023_realistic_postBPix_v6-v2/2820000/5ea174c4-273f-4155-a2b9-b4523ab2024f.root",
        "T2_UK_London_IC: davs://gfe02.grid.hep.ph.ic.ac.uk:2880/pnfs/hep.ph.ic.ac.uk/data/cms/store/mc/Run3Summer23BPixNanoAODv12/NMSSM_XtoYHto4B_MX-1000_MY-300_TuneCP5_13p6TeV_madgraph-pythia8/NANOAODSIM/130X_mcRun3_2023_realistic_postBPix_v6-v2/2820000/5ea174c4-273f-4155-a2b9-b4523ab2024f.root",
        "T2_US_MIT_Tape: davs://dtn20.nese.mghpcc.org:443/store/mc/Run3Summer23BPixNanoAODv12/NMSSM_XtoYHto4B_MX-1000_MY-300_TuneCP5_13p6TeV_madgraph-pythia8/NANOAODSIM/130X_mcRun3_2023_realistic_postBPix_v6-v2/2820000/5ea174c4-273f-4155-a2b9-b4523ab2024f.root"
    ],
    "cms:/store/mc/Run3Summer23BPixNanoAODv12/NMSSM_XtoYHto4B_MX-1000_MY-300_TuneCP5_13p6TeV_madgraph-pythia8/NANOAODSIM/130X_mcRun3_2023_realistic_postBPix_v6-v2/2820000/88053a32-2130-429d-acdf-471f8f08dffc.root": [
        "T2_UK_SGrid_RALPP: davs://mover.pp.rl.ac.uk:2880/pnfs/pp.rl.ac.uk/data/cms/store/mc/Run3Summer23BPixNanoAODv12/NMSSM_XtoYHto4B_MX-1000_MY-300_TuneCP5_13p6TeV_madgraph-pythia8/NANOAODSIM/130X_mcRun3_2023_realistic_postBPix_v6-v2/2820000/88053a32-2130-429d-acdf-471f8f08dffc.root",
        "T2_FR_GRIF: davs://eos.grif.fr:11000/eos/grif/cms/grif/store/mc/Run3Summer23BPixNanoAODv12/NMSSM_XtoYHto4B_MX-1000_MY-300_TuneCP5_13p6TeV_madgraph-pythia8/NANOAODSIM/130X_mcRun3_2023_realistic_postBPix_v6-v2/2820000/88053a32-2130-429d-acdf-471f8f08dffc.root",
        "T1_US_FNAL_Tape_Test: davs://cmstnvm1.fnal.gov:2880/store/mc/Run3Summer23BPixNanoAODv12/NMSSM_XtoYHto4B_MX-1000_MY-300_TuneCP5_13p6TeV_madgraph-pythia8/NANOAODSIM/130X_mcRun3_2023_realistic_postBPix_v6-v2/2820000/88053a32-2130-429d-acdf-471f8f08dffc.root",
        "T2_US_Wisconsin: davs://cmsxrootd.hep.wisc.edu:1094/store/mc/Run3Summer23BPixNanoAODv12/NMSSM_XtoYHto4B_MX-1000_MY-300_TuneCP5_13p6TeV_madgraph-pythia8/NANOAODSIM/130X_mcRun3_2023_realistic_postBPix_v6-v2/2820000/88053a32-2130-429d-acdf-471f8f08dffc.root",
        "T2_US_Caltech: davs://k8s-redir-stageout.ultralight.org:1094/store/mc/Run3Summer23BPixNanoAODv12/NMSSM_XtoYHto4B_MX-1000_MY-300_TuneCP5_13p6TeV_madgraph-pythia8/NANOAODSIM/130X_mcRun3_2023_realistic_postBPix_v6-v2/2820000/88053a32-2130-429d-acdf-471f8f08dffc.root",
        "T2_IT_Pisa: davs://stwebdav.pi.infn.it:8443/cms/store/mc/Run3Summer23BPixNanoAODv12/NMSSM_XtoYHto4B_MX-1000_MY-300_TuneCP5_13p6TeV_madgraph-pythia8/NANOAODSIM/130X_mcRun3_2023_realistic_postBPix_v6-v2/2820000/88053a32-2130-429d-acdf-471f8f08dffc.root",
        "T1_RU_JINR_Disk: davs://se-wbdv.jinr-t1.ru:2880/pnfs/jinr-t1.ru/data/cms/store/mc/Run3Summer23BPixNanoAODv12/NMSSM_XtoYHto4B_MX-1000_MY-300_TuneCP5_13p6TeV_madgraph-pythia8/NANOAODSIM/130X_mcRun3_2023_realistic_postBPix_v6-v2/2820000/88053a32-2130-429d-acdf-471f8f08dffc.root",
        "T2_UK_London_IC: davs://gfe02.grid.hep.ph.ic.ac.uk:2880/pnfs/hep.ph.ic.ac.uk/data/cms/store/mc/Run3Summer23BPixNanoAODv12/NMSSM_XtoYHto4B_MX-1000_MY-300_TuneCP5_13p6TeV_madgraph-pythia8/NANOAODSIM/130X_mcRun3_2023_realistic_postBPix_v6-v2/2820000/88053a32-2130-429d-acdf-471f8f08dffc.root",
        "T2_US_MIT_Tape: davs://dtn20.nese.mghpcc.org:443/store/mc/Run3Summer23BPixNanoAODv12/NMSSM_XtoYHto4B_MX-1000_MY-300_TuneCP5_13p6TeV_madgraph-pythia8/NANOAODSIM/130X_mcRun3_2023_realistic_postBPix_v6-v2/2820000/88053a32-2130-429d-acdf-471f8f08dffc.root"
    ],
    "cms:/store/mc/Run3Summer23BPixNanoAODv12/NMSSM_XtoYHto4B_MX-1000_MY-300_TuneCP5_13p6TeV_madgraph-pythia8/NANOAODSIM/130X_mcRun3_2023_realistic_postBPix_v6-v2/2820000/21398f43-6bbe-4552-b29b-699d4a1d155f.root": [
        "T2_UK_SGrid_RALPP: davs://mover.pp.rl.ac.uk:2880/pnfs/pp.rl.ac.uk/data/cms/store/mc/Run3Summer23BPixNanoAODv12/NMSSM_XtoYHto4B_MX-1000_MY-300_TuneCP5_13p6TeV_madgraph-pythia8/NANOAODSIM/130X_mcRun3_2023_realistic_postBPix_v6-v2/2820000/21398f43-6bbe-4552-b29b-699d4a1d155f.root",
        "T1_US_FNAL_Tape_Test: davs://cmstnvm1.fnal.gov:2880/store/mc/Run3Summer23BPixNanoAODv12/NMSSM_XtoYHto4B_MX-1000_MY-300_TuneCP5_13p6TeV_madgraph-pythia8/NANOAODSIM/130X_mcRun3_2023_realistic_postBPix_v6-v2/2820000/21398f43-6bbe-4552-b29b-699d4a1d155f.root",
        "T2_US_Wisconsin: davs://cmsxrootd.hep.wisc.edu:1094/store/mc/Run3Summer23BPixNanoAODv12/NMSSM_XtoYHto4B_MX-1000_MY-300_TuneCP5_13p6TeV_madgraph-pythia8/NANOAODSIM/130X_mcRun3_2023_realistic_postBPix_v6-v2/2820000/21398f43-6bbe-4552-b29b-699d4a1d155f.root",
        "T2_US_Caltech: davs://k8s-redir-stageout.ultralight.org:1094/store/mc/Run3Summer23BPixNanoAODv12/NMSSM_XtoYHto4B_MX-1000_MY-300_TuneCP5_13p6TeV_madgraph-pythia8/NANOAODSIM/130X_mcRun3_2023_realistic_postBPix_v6-v2/2820000/21398f43-6bbe-4552-b29b-699d4a1d155f.root",
        "T2_IT_Pisa: davs://stwebdav.pi.infn.it:8443/cms/store/mc/Run3Summer23BPixNanoAODv12/NMSSM_XtoYHto4B_MX-1000_MY-300_TuneCP5_13p6TeV_madgraph-pythia8/NANOAODSIM/130X_mcRun3_2023_realistic_postBPix_v6-v2/2820000/21398f43-6bbe-4552-b29b-699d4a1d155f.root",
        "T1_RU_JINR_Disk: davs://se-wbdv.jinr-t1.ru:2880/pnfs/jinr-t1.ru/data/cms/store/mc/Run3Summer23BPixNanoAODv12/NMSSM_XtoYHto4B_MX-1000_MY-300_TuneCP5_13p6TeV_madgraph-pythia8/NANOAODSIM/130X_mcRun3_2023_realistic_postBPix_v6-v2/2820000/21398f43-6bbe-4552-b29b-699d4a1d155f.root",
        "T2_UK_London_IC: davs://gfe02.grid.hep.ph.ic.ac.uk:2880/pnfs/hep.ph.ic.ac.uk/data/cms/store/mc/Run3Summer23BPixNanoAODv12/NMSSM_XtoYHto4B_MX-1000_MY-300_TuneCP5_13p6TeV_madgraph-pythia8/NANOAODSIM/130X_mcRun3_2023_realistic_postBPix_v6-v2/2820000/21398f43-6bbe-4552-b29b-699d4a1d155f.root",
        "T2_US_MIT_Tape: davs://dtn20.nese.mghpcc.org:443/store/mc/Run3Summer23BPixNanoAODv12/NMSSM_XtoYHto4B_MX-1000_MY-300_TuneCP5_13p6TeV_madgraph-pythia8/NANOAODSIM/130X_mcRun3_2023_realistic_postBPix_v6-v2/2820000/21398f43-6bbe-4552-b29b-699d4a1d155f.root"
    ],
    "cms:/store/mc/Run3Summer23BPixNanoAODv12/NMSSM_XtoYHto4B_MX-1000_MY-300_TuneCP5_13p6TeV_madgraph-pythia8/NANOAODSIM/130X_mcRun3_2023_realistic_postBPix_v6-v2/2820000/66cd1417-6e50-4e18-9b57-9bd039184fbb.root": [
        "T2_UK_SGrid_RALPP: davs://mover.pp.rl.ac.uk:2880/pnfs/pp.rl.ac.uk/data/cms/store/mc/Run3Summer23BPixNanoAODv12/NMSSM_XtoYHto4B_MX-1000_MY-300_TuneCP5_13p6TeV_madgraph-pythia8/NANOAODSIM/130X_mcRun3_2023_realistic_postBPix_v6-v2/2820000/66cd1417-6e50-4e18-9b57-9bd039184fbb.root",
        "T1_US_FNAL_Tape_Test: davs://cmstnvm1.fnal.gov:2880/store/mc/Run3Summer23BPixNanoAODv12/NMSSM_XtoYHto4B_MX-1000_MY-300_TuneCP5_13p6TeV_madgraph-pythia8/NANOAODSIM/130X_mcRun3_2023_realistic_postBPix_v6-v2/2820000/66cd1417-6e50-4e18-9b57-9bd039184fbb.root",
        "T2_US_Wisconsin: davs://cmsxrootd.hep.wisc.edu:1094/store/mc/Run3Summer23BPixNanoAODv12/NMSSM_XtoYHto4B_MX-1000_MY-300_TuneCP5_13p6TeV_madgraph-pythia8/NANOAODSIM/130X_mcRun3_2023_realistic_postBPix_v6-v2/2820000/66cd1417-6e50-4e18-9b57-9bd039184fbb.root",
        "T2_US_Caltech: davs://k8s-redir-stageout.ultralight.org:1094/store/mc/Run3Summer23BPixNanoAODv12/NMSSM_XtoYHto4B_MX-1000_MY-300_TuneCP5_13p6TeV_madgraph-pythia8/NANOAODSIM/130X_mcRun3_2023_realistic_postBPix_v6-v2/2820000/66cd1417-6e50-4e18-9b57-9bd039184fbb.root",
        "T2_IT_Pisa: davs://stwebdav.pi.infn.it:8443/cms/store/mc/Run3Summer23BPixNanoAODv12/NMSSM_XtoYHto4B_MX-1000_MY-300_TuneCP5_13p6TeV_madgraph-pythia8/NANOAODSIM/130X_mcRun3_2023_realistic_postBPix_v6-v2/2820000/66cd1417-6e50-4e18-9b57-9bd039184fbb.root",
        "T1_RU_JINR_Disk: davs://se-wbdv.jinr-t1.ru:2880/pnfs/jinr-t1.ru/data/cms/store/mc/Run3Summer23BPixNanoAODv12/NMSSM_XtoYHto4B_MX-1000_MY-300_TuneCP5_13p6TeV_madgraph-pythia8/NANOAODSIM/130X_mcRun3_2023_realistic_postBPix_v6-v2/2820000/66cd1417-6e50-4e18-9b57-9bd039184fbb.root",
        "T2_UK_London_IC: davs://gfe02.grid.hep.ph.ic.ac.uk:2880/pnfs/hep.ph.ic.ac.uk/data/cms/store/mc/Run3Summer23BPixNanoAODv12/NMSSM_XtoYHto4B_MX-1000_MY-300_TuneCP5_13p6TeV_madgraph-pythia8/NANOAODSIM/130X_mcRun3_2023_realistic_postBPix_v6-v2/2820000/66cd1417-6e50-4e18-9b57-9bd039184fbb.root",
        "T2_US_MIT_Tape: davs://dtn20.nese.mghpcc.org:443/store/mc/Run3Summer23BPixNanoAODv12/NMSSM_XtoYHto4B_MX-1000_MY-300_TuneCP5_13p6TeV_madgraph-pythia8/NANOAODSIM/130X_mcRun3_2023_realistic_postBPix_v6-v2/2820000/66cd1417-6e50-4e18-9b57-9bd039184fbb.root"
    ],
    "cms:/store/mc/Run3Summer23BPixNanoAODv12/NMSSM_XtoYHto4B_MX-1000_MY-300_TuneCP5_13p6TeV_madgraph-pythia8/NANOAODSIM/130X_mcRun3_2023_realistic_postBPix_v6-v2/2820000/eecb69f9-72f7-4247-b535-a3957b6c008e.root": [
        "T1_FR_CCIN2P3_Disk: davs://ccdavcms.in2p3.fr:2880/disk/data/store/mc/Run3Summer23BPixNanoAODv12/NMSSM_XtoYHto4B_MX-1000_MY-300_TuneCP5_13p6TeV_madgraph-pythia8/NANOAODSIM/130X_mcRun3_2023_realistic_postBPix_v6-v2/2820000/eecb69f9-72f7-4247-b535-a3957b6c008e.root",
        "T1_DE_KIT_Disk: davs://cmsdcache-kit-disk.gridka.de:2880/pnfs/gridka.de/cms/disk-only/store/mc/Run3Summer23BPixNanoAODv12/NMSSM_XtoYHto4B_MX-1000_MY-300_TuneCP5_13p6TeV_madgraph-pythia8/NANOAODSIM/130X_mcRun3_2023_realistic_postBPix_v6-v2/2820000/eecb69f9-72f7-4247-b535-a3957b6c008e.root",
        "T2_UK_SGrid_RALPP: davs://mover.pp.rl.ac.uk:2880/pnfs/pp.rl.ac.uk/data/cms/store/mc/Run3Summer23BPixNanoAODv12/NMSSM_XtoYHto4B_MX-1000_MY-300_TuneCP5_13p6TeV_madgraph-pythia8/NANOAODSIM/130X_mcRun3_2023_realistic_postBPix_v6-v2/2820000/eecb69f9-72f7-4247-b535-a3957b6c008e.root",
        "T1_US_FNAL_Tape_Test: davs://cmstnvm1.fnal.gov:2880/store/mc/Run3Summer23BPixNanoAODv12/NMSSM_XtoYHto4B_MX-1000_MY-300_TuneCP5_13p6TeV_madgraph-pythia8/NANOAODSIM/130X_mcRun3_2023_realistic_postBPix_v6-v2/2820000/eecb69f9-72f7-4247-b535-a3957b6c008e.root",
        "T2_US_Wisconsin: davs://cmsxrootd.hep.wisc.edu:1094/store/mc/Run3Summer23BPixNanoAODv12/NMSSM_XtoYHto4B_MX-1000_MY-300_TuneCP5_13p6TeV_madgraph-pythia8/NANOAODSIM/130X_mcRun3_2023_realistic_postBPix_v6-v2/2820000/eecb69f9-72f7-4247-b535-a3957b6c008e.root",
        "T2_US_Caltech: davs://k8s-redir-stageout.ultralight.org:1094/store/mc/Run3Summer23BPixNanoAODv12/NMSSM_XtoYHto4B_MX-1000_MY-300_TuneCP5_13p6TeV_madgraph-pythia8/NANOAODSIM/130X_mcRun3_2023_realistic_postBPix_v6-v2/2820000/eecb69f9-72f7-4247-b535-a3957b6c008e.root",
        "T2_IT_Pisa: davs://stwebdav.pi.infn.it:8443/cms/store/mc/Run3Summer23BPixNanoAODv12/NMSSM_XtoYHto4B_MX-1000_MY-300_TuneCP5_13p6TeV_madgraph-pythia8/NANOAODSIM/130X_mcRun3_2023_realistic_postBPix_v6-v2/2820000/eecb69f9-72f7-4247-b535-a3957b6c008e.root",
        "T1_RU_JINR_Disk: davs://se-wbdv.jinr-t1.ru:2880/pnfs/jinr-t1.ru/data/cms/store/mc/Run3Summer23BPixNanoAODv12/NMSSM_XtoYHto4B_MX-1000_MY-300_TuneCP5_13p6TeV_madgraph-pythia8/NANOAODSIM/130X_mcRun3_2023_realistic_postBPix_v6-v2/2820000/eecb69f9-72f7-4247-b535-a3957b6c008e.root",
        "T2_UK_London_IC: davs://gfe02.grid.hep.ph.ic.ac.uk:2880/pnfs/hep.ph.ic.ac.uk/data/cms/store/mc/Run3Summer23BPixNanoAODv12/NMSSM_XtoYHto4B_MX-1000_MY-300_TuneCP5_13p6TeV_madgraph-pythia8/NANOAODSIM/130X_mcRun3_2023_realistic_postBPix_v6-v2/2820000/eecb69f9-72f7-4247-b535-a3957b6c008e.root",
        "T2_US_MIT_Tape: davs://dtn20.nese.mghpcc.org:443/store/mc/Run3Summer23BPixNanoAODv12/NMSSM_XtoYHto4B_MX-1000_MY-300_TuneCP5_13p6TeV_madgraph-pythia8/NANOAODSIM/130X_mcRun3_2023_realistic_postBPix_v6-v2/2820000/eecb69f9-72f7-4247-b535-a3957b6c008e.root"
    ],
    "cms:/store/mc/Run3Summer23BPixNanoAODv12/NMSSM_XtoYHto4B_MX-1000_MY-300_TuneCP5_13p6TeV_madgraph-pythia8/NANOAODSIM/130X_mcRun3_2023_realistic_postBPix_v6-v2/2820000/f544f1b4-2353-46a1-99e1-0232be339e25.root": [
        "T2_UK_SGrid_RALPP: davs://mover.pp.rl.ac.uk:2880/pnfs/pp.rl.ac.uk/data/cms/store/mc/Run3Summer23BPixNanoAODv12/NMSSM_XtoYHto4B_MX-1000_MY-300_TuneCP5_13p6TeV_madgraph-pythia8/NANOAODSIM/130X_mcRun3_2023_realistic_postBPix_v6-v2/2820000/f544f1b4-2353-46a1-99e1-0232be339e25.root",
        "T1_US_FNAL_Tape_Test: davs://cmstnvm1.fnal.gov:2880/store/mc/Run3Summer23BPixNanoAODv12/NMSSM_XtoYHto4B_MX-1000_MY-300_TuneCP5_13p6TeV_madgraph-pythia8/NANOAODSIM/130X_mcRun3_2023_realistic_postBPix_v6-v2/2820000/f544f1b4-2353-46a1-99e1-0232be339e25.root",
        "T2_US_Wisconsin: davs://cmsxrootd.hep.wisc.edu:1094/store/mc/Run3Summer23BPixNanoAODv12/NMSSM_XtoYHto4B_MX-1000_MY-300_TuneCP5_13p6TeV_madgraph-pythia8/NANOAODSIM/130X_mcRun3_2023_realistic_postBPix_v6-v2/2820000/f544f1b4-2353-46a1-99e1-0232be339e25.root",
        "T2_US_Caltech: davs://k8s-redir-stageout.ultralight.org:1094/store/mc/Run3Summer23BPixNanoAODv12/NMSSM_XtoYHto4B_MX-1000_MY-300_TuneCP5_13p6TeV_madgraph-pythia8/NANOAODSIM/130X_mcRun3_2023_realistic_postBPix_v6-v2/2820000/f544f1b4-2353-46a1-99e1-0232be339e25.root",
        "T2_IT_Pisa: davs://stwebdav.pi.infn.it:8443/cms/store/mc/Run3Summer23BPixNanoAODv12/NMSSM_XtoYHto4B_MX-1000_MY-300_TuneCP5_13p6TeV_madgraph-pythia8/NANOAODSIM/130X_mcRun3_2023_realistic_postBPix_v6-v2/2820000/f544f1b4-2353-46a1-99e1-0232be339e25.root",
        "T1_RU_JINR_Disk: davs://se-wbdv.jinr-t1.ru:2880/pnfs/jinr-t1.ru/data/cms/store/mc/Run3Summer23BPixNanoAODv12/NMSSM_XtoYHto4B_MX-1000_MY-300_TuneCP5_13p6TeV_madgraph-pythia8/NANOAODSIM/130X_mcRun3_2023_realistic_postBPix_v6-v2/2820000/f544f1b4-2353-46a1-99e1-0232be339e25.root",
        "T2_UK_London_IC: davs://gfe02.grid.hep.ph.ic.ac.uk:2880/pnfs/hep.ph.ic.ac.uk/data/cms/store/mc/Run3Summer23BPixNanoAODv12/NMSSM_XtoYHto4B_MX-1000_MY-300_TuneCP5_13p6TeV_madgraph-pythia8/NANOAODSIM/130X_mcRun3_2023_realistic_postBPix_v6-v2/2820000/f544f1b4-2353-46a1-99e1-0232be339e25.root",
        "T2_US_MIT_Tape: davs://dtn20.nese.mghpcc.org:443/store/mc/Run3Summer23BPixNanoAODv12/NMSSM_XtoYHto4B_MX-1000_MY-300_TuneCP5_13p6TeV_madgraph-pythia8/NANOAODSIM/130X_mcRun3_2023_realistic_postBPix_v6-v2/2820000/f544f1b4-2353-46a1-99e1-0232be339e25.root"
    ]
}