{
    "cms:/store/mc/Run3Summer22EENanoAODv12/NMSSM_XtoYHto4B_MX-550_MY-95_TuneCP5_13p6TeV_madgraph-pythia8/NANOAODSIM/130X_mcRun3_2022_realistic_postEE_v6-v2/60000/8a815926-8da9-4291-af22-a39a25798dde.root": [
        "T1_US_FNAL_Disk: davs://cmsdcadisk.fnal.gov:2880/dcache/uscmsdisk/store/mc/Run3Summer22EENanoAODv12/NMSSM_XtoYHto4B_MX-550_MY-95_TuneCP5_13p6TeV_madgraph-pythia8/NANOAODSIM/130X_mcRun3_2022_realistic_postEE_v6-v2/60000/8a815926-8da9-4291-af22-a39a25798dde.root",
        "T2_DE_DESY: davs://dcache-cms-webdav.desy.de:2880/pnfs/desy.de/cms/tier2/store/mc/Run3Summer22EENanoAODv12/NMSSM_XtoYHto4B_MX-550_MY-95_TuneCP5_13p6TeV_madgraph-pythia8/NANOAODSIM/130X_mcRun3_2022_realistic_postEE_v6-v2/60000/8a815926-8da9-4291-af22-a39a25798dde.root",
        "T2_FR_IPHC: davs://sbgdcache.in2p3.fr:443/cms/phedex/store/mc/Run3Summer22EENanoAODv12/NMSSM_XtoYHto4B_MX-550_MY-95_TuneCP5_13p6TeV_madgraph-pythia8/NANOAODSIM/130X_mcRun3_2022_realistic_postEE_v6-v2/60000/8a815926-8da9-4291-af22-a39a25798dde.root",
        "T1_UK_RAL_Tape: davs://antares.stfc.ac.uk:9000/eos/antares/prod/cms/store/mc/Run3Summer22EENanoAODv12/NMSSM_XtoYHto4B_MX-550_MY-95_TuneCP5_13p6TeV_madgraph-pythia8/NANOAODSIM/130X_mcRun3_2022_realistic_postEE_v6-v2/60000/8a815926-8da9-4291-af22-a39a25798dde.root",
        "T2_US_Vanderbilt: davs://xrootd-vanderbilt.sites.opensciencegrid.org:1094/store/mc/Run3Summer22EENanoAODv12/NMSSM_XtoYHto4B_MX-550_MY-95_TuneCP5_13p6TeV_madgraph-pythia8/NANOAODSIM/130X_mcRun3_2022_realistic_postEE_v6-v2/60000/8a815926-8da9-4291-af22-a39a25798dde.root",
        "T2_KR_KISTI: davs://cms-t2-se01.sdfarm.kr:2880/store/mc/Run3Summer22EENanoAODv12/NMSSM_XtoYHto4B_MX-550_MY-95_TuneCP5_13p6TeV_madgraph-pythia8/NANOAODSIM/130X_mcRun3_2022_realistic_postEE_v6-v2/60000/8a815926-8da9-4291-af22-a39a25798dde.root",
        "T2_BE_IIHE: davs://maite.iihe.ac.be:2880/pnfs/iihe/cms/ph/sc4/store/mc/Run3Summer22EENanoAODv12/NMSSM_XtoYHto4B_MX-550_MY-95_TuneCP5_13p6TeV_madgraph-pythia8/NANOAODSIM/130X_mcRun3_2022_realistic_postEE_v6-v2/60000/8a815926-8da9-4291-af22-a39a25798dde.root"
    ],
    "cms:/store/mc/Run3Summer22EENanoAODv12/NMSSM_XtoYHto4B_MX-550_MY-95_TuneCP5_13p6TeV_madgraph-pythia8/NANOAODSIM/130X_mcRun3_2022_realistic_postEE_v6-v2/60000/2446cf87-633c-4b54-a192-2d267b0c772f.root": [
        "T1_US_FNAL_Disk: davs://cmsdcadisk.fnal.gov:2880/dcache/uscmsdisk/store/mc/Run3Summer22EENanoAODv12/NMSSM_XtoYHto4B_MX-550_MY-95_TuneCP5_13p6TeV_madgraph-pythia8/NANOAODSIM/130X_mcRun3_2022_realistic_postEE_v6-v2/60000/2446cf87-633c-4b54-a192-2d267b0c772f.root",
        "T1_UK_RAL_Tape: davs://antares.stfc.ac.uk:9000/eos/antares/prod/cms/store/mc/Run3Summer22EENanoAODv12/NMSSM_XtoYHto4B_MX-550_MY-95_TuneCP5_13p6TeV_madgraph-pythia8/NANOAODSIM/130X_mcRun3_2022_realistic_postEE_v6-v2/60000/2446cf87-633c-4b54-a192-2d267b0c772f.root",
        "T2_PL_Swierk: davs://se.cis.gov.pl:2880/grid/cms/store/mc/Run3Summer22EENanoAODv12/NMSSM_XtoYHto4B_MX-550_MY-95_TuneCP5_13p6TeV_madgraph-pythia8/NANOAODSIM/130X_mcRun3_2022_realistic_postEE_v6-v2/60000/2446cf87-633c-4b54-a192-2d267b0c772f.root",
        "T2_US_Vanderbilt: davs://xrootd-vanderbilt.sites.opensciencegrid.org:1094/store/mc/Run3Summer22EENanoAODv12/NMSSM_XtoYHto4B_MX-550_MY-95_TuneCP5_13p6TeV_madgraph-pythia8/NANOAODSIM/130X_mcRun3_2022_realistic_postEE_v6-v2/60000/2446cf87-633c-4b54-a192-2d267b0c772f.root",
        "T1_UK_RAL_Disk: davs://rdr.echo.stfc.ac.uk:1094/store/mc/Run3Summer22EENanoAODv12/NMSSM_XtoYHto4B_MX-550_MY-95_TuneCP5_13p6TeV_madgraph-pythia8/NANOAODSIM/130X_mcRun3_2022_realistic_postEE_v6-v2/60000/2446cf87-633c-4b54-a192-2d267b0c772f.root",
        "T2_HU_Budapest: davs://grid143.kfki.hu:443/dpm/kfki.hu/home/cms/phedex/store/mc/Run3Summer22EENanoAODv12/NMSSM_XtoYHto4B_MX-550_MY-95_TuneCP5_13p6TeV_madgraph-pythia8/NANOAODSIM/130X_mcRun3_2022_realistic_postEE_v6-v2/60000/2446cf87-633c-4b54-a192-2d267b0c772f.root",
        "T2_IT_Pisa: davs://stwebdav.pi.infn.it:8443/cms/store/mc/Run3Summer22EENanoAODv12/NMSSM_XtoYHto4B_MX-550_MY-95_TuneCP5_13p6TeV_madgraph-pythia8/NANOAODSIM/130X_mcRun3_2022_realistic_postEE_v6-v2/60000/2446cf87-633c-4b54-a192-2d267b0c772f.root"
    ],
    "cms:/store/mc/Run3Summer22EENanoAODv12/NMSSM_XtoYHto4B_MX-550_MY-95_TuneCP5_13p6TeV_madgraph-pythia8/NANOAODSIM/130X_mcRun3_2022_realistic_postEE_v6-v2/60000/4e04ad79-b66f-449a-9857-cdf1ad85671a.root": [
        "T1_US_FNAL_Disk: davs://cmsdcadisk.fnal.gov:2880/dcache/uscmsdisk/store/mc/Run3Summer22EENanoAODv12/NMSSM_XtoYHto4B_MX-550_MY-95_TuneCP5_13p6TeV_madgraph-pythia8/NANOAODSIM/130X_mcRun3_2022_realistic_postEE_v6-v2/60000/4e04ad79-b66f-449a-9857-cdf1ad85671a.root",
        "T1_UK_RAL_Tape: davs://antares.stfc.ac.uk:9000/eos/antares/prod/cms/store/mc/Run3Summer22EENanoAODv12/NMSSM_XtoYHto4B_MX-550_MY-95_TuneCP5_13p6TeV_madgraph-pythia8/NANOAODSIM/130X_mcRun3_2022_realistic_postEE_v6-v2/60000/4e04ad79-b66f-449a-9857-cdf1ad85671a.root",
        "T2_PL_Swierk: davs://se.cis.gov.pl:2880/grid/cms/store/mc/Run3Summer22EENanoAODv12/NMSSM_XtoYHto4B_MX-550_MY-95_TuneCP5_13p6TeV_madgraph-pythia8/NANOAODSIM/130X_mcRun3_2022_realistic_postEE_v6-v2/60000/4e04ad79-b66f-449a-9857-cdf1ad85671a.root",
        "T2_US_Vanderbilt: davs://xrootd-vanderbilt.sites.opensciencegrid.org:1094/store/mc/Run3Summer22EENanoAODv12/NMSSM_XtoYHto4B_MX-550_MY-95_TuneCP5_13p6TeV_madgraph-pythia8/NANOAODSIM/130X_mcRun3_2022_realistic_postEE_v6-v2/60000/4e04ad79-b66f-449a-9857-cdf1ad85671a.root",
        "T1_UK_RAL_Disk: davs://rdr.echo.stfc.ac.uk:1094/store/mc/Run3Summer22EENanoAODv12/NMSSM_XtoYHto4B_MX-550_MY-95_TuneCP5_13p6TeV_madgraph-pythia8/NANOAODSIM/130X_mcRun3_2022_realistic_postEE_v6-v2/60000/4e04ad79-b66f-449a-9857-cdf1ad85671a.root",
        "T2_HU_Budapest: davs://grid143.kfki.hu:443/dpm/kfki.hu/home/cms/phedex/store/mc/Run3Summer22EENanoAODv12/NMSSM_XtoYHto4B_MX-550_MY-95_TuneCP5_13p6TeV_madgraph-pythia8/NANOAODSIM/130X_mcRun3_2022_realistic_postEE_v6-v2/60000/4e04ad79-b66f-449a-9857-cdf1ad85671a.root",
        "T2_IT_Pisa: davs://stwebdav.pi.infn.it:8443/cms/store/mc/Run3Summer22EENanoAODv12/NMSSM_XtoYHto4B_MX-550_MY-95_TuneCP5_13p6TeV_madgraph-pythia8/NANOAODSIM/130X_mcRun3_2022_realistic_postEE_v6-v2/60000/4e04ad79-b66f-449a-9857-cdf1ad85671a.root"
    ],
    "cms:/store/mc/Run3Summer22EENanoAODv12/NMSSM_XtoYHto4B_MX-550_MY-95_TuneCP5_13p6TeV_madgraph-pythia8/NANOAODSIM/130X_mcRun3_2022_realistic_postEE_v6-v2/60000/0ac5d522-209f-4173-9e66-4cace85731f0.root": [
        "T1_US_FNAL_Disk: davs://cmsdcadisk.fnal.gov:2880/dcache/uscmsdisk/store/mc/Run3Summer22EENanoAODv12/NMSSM_XtoYHto4B_MX-550_MY-95_TuneCP5_13p6TeV_madgraph-pythia8/NANOAODSIM/130X_mcRun3_2022_realistic_postEE_v6-v2/60000/0ac5d522-209f-4173-9e66-4cace85731f0.root",
        "T1_UK_RAL_Tape: davs://antares.stfc.ac.uk:9000/eos/antares/prod/cms/store/mc/Run3Summer22EENanoAODv12/NMSSM_XtoYHto4B_MX-550_MY-95_TuneCP5_13p6TeV_madgraph-pythia8/NANOAODSIM/130X_mcRun3_2022_realistic_postEE_v6-v2/60000/0ac5d522-209f-4173-9e66-4cace85731f0.root",
        "T2_PL_Swierk: davs://se.cis.gov.pl:2880/grid/cms/store/mc/Run3Summer22EENanoAODv12/NMSSM_XtoYHto4B_MX-550_MY-95_TuneCP5_13p6TeV_madgraph-pythia8/NANOAODSIM/130X_mcRun3_2022_realistic_postEE_v6-v2/60000/0ac5d522-209f-4173-9e66-4cace85731f0.root",
        "T2_US_Vanderbilt: davs://xrootd-vanderbilt.sites.opensciencegrid.org:1094/store/mc/Run3Summer22EENanoAODv12/NMSSM_XtoYHto4B_MX-550_MY-95_TuneCP5_13p6TeV_madgraph-pythia8/NANOAODSIM/130X_mcRun3_2022_realistic_postEE_v6-v2/60000/0ac5d522-209f-4173-9e66-4cace85731f0.root",
        "T1_UK_RAL_Disk: davs://rdr.echo.stfc.ac.uk:1094/store/mc/Run3Summer22EENanoAODv12/NMSSM_XtoYHto4B_MX-550_MY-95_TuneCP5_13p6TeV_madgraph-pythia8/NANOAODSIM/130X_mcRun3_2022_realistic_postEE_v6-v2/60000/0ac5d522-209f-4173-9e66-4cace85731f0.root",
        "T2_HU_Budapest: davs://grid143.kfki.hu:443/dpm/kfki.hu/home/cms/phedex/store/mc/Run3Summer22EENanoAODv12/NMSSM_XtoYHto4B_MX-550_MY-95_TuneCP5_13p6TeV_madgraph-pythia8/NANOAODSIM/130X_mcRun3_2022_realistic_postEE_v6-v2/60000/0ac5d522-209f-4173-9e66-4cace85731f0.root",
        "T2_IT_Pisa: davs://stwebdav.pi.infn.it:8443/cms/store/mc/Run3Summer22EENanoAODv12/NMSSM_XtoYHto4B_MX-550_MY-95_TuneCP5_13p6TeV_madgraph-pythia8/NANOAODSIM/130X_mcRun3_2022_realistic_postEE_v6-v2/60000/0ac5d522-209f-4173-9e66-4cace85731f0.root"
    ],
    "cms:/store/mc/Run3Summer22EENanoAODv12/NMSSM_XtoYHto4B_MX-550_MY-95_TuneCP5_13p6TeV_madgraph-pythia8/NANOAODSIM/130X_mcRun3_2022_realistic_postEE_v6-v2/60000/ec29e55e-e2ef-4479-ba28-7166acd1ffb2.root": [
        "T1_US_FNAL_Disk: davs://cmsdcadisk.fnal.gov:2880/dcache/uscmsdisk/store/mc/Run3Summer22EENanoAODv12/NMSSM_XtoYHto4B_MX-550_MY-95_TuneCP5_13p6TeV_madgraph-pythia8/NANOAODSIM/130X_mcRun3_2022_realistic_postEE_v6-v2/60000/ec29e55e-e2ef-4479-ba28-7166acd1ffb2.root",
        "T1_UK_RAL_Tape: davs://antares.stfc.ac.uk:9000/eos/antares/prod/cms/store/mc/Run3Summer22EENanoAODv12/NMSSM_XtoYHto4B_MX-550_MY-95_TuneCP5_13p6TeV_madgraph-pythia8/NANOAODSIM/130X_mcRun3_2022_realistic_postEE_v6-v2/60000/ec29e55e-e2ef-4479-ba28-7166acd1ffb2.root",
        "T2_US_Vanderbilt: davs://xrootd-vanderbilt.sites.opensciencegrid.org:1094/store/mc/Run3Summer22EENanoAODv12/NMSSM_XtoYHto4B_MX-550_MY-95_TuneCP5_13p6TeV_madgraph-pythia8/NANOAODSIM/130X_mcRun3_2022_realistic_postEE_v6-v2/60000/ec29e55e-e2ef-4479-ba28-7166acd1ffb2.root",
        "T1_UK_RAL_Disk: davs://rdr.echo.stfc.ac.uk:1094/store/mc/Run3Summer22EENanoAODv12/NMSSM_XtoYHto4B_MX-550_MY-95_TuneCP5_13p6TeV_madgraph-pythia8/NANOAODSIM/130X_mcRun3_2022_realistic_postEE_v6-v2/60000/ec29e55e-e2ef-4479-ba28-7166acd1ffb2.root",
        "T2_HU_Budapest: davs://grid143.kfki.hu:443/dpm/kfki.hu/home/cms/phedex/store/mc/Run3Summer22EENanoAODv12/NMSSM_XtoYHto4B_MX-550_MY-95_TuneCP5_13p6TeV_madgraph-pythia8/NANOAODSIM/130X_mcRun3_2022_realistic_postEE_v6-v2/60000/ec29e55e-e2ef-4479-ba28-7166acd1ffb2.root",
        "T2_RU_JINR: davs://lcgsedr08.jinr.ru:2880/pnfs/jinr.ru/data/cms/store/mc/Run3Summer22EENanoAODv12/NMSSM_XtoYHto4B_MX-550_MY-95_TuneCP5_13p6TeV_madgraph-pythia8/NANOAODSIM/130X_mcRun3_2022_realistic_postEE_v6-v2/60000/ec29e55e-e2ef-4479-ba28-7166acd1ffb2.root",
        "T2_IT_Pisa: davs://stwebdav.pi.infn.it:8443/cms/store/mc/Run3Summer22EENanoAODv12/NMSSM_XtoYHto4B_MX-550_MY-95_TuneCP5_13p6TeV_madgraph-pythia8/NANOAODSIM/130X_mcRun3_2022_realistic_postEE_v6-v2/60000/ec29e55e-e2ef-4479-ba28-7166acd1ffb2.root"
    ],
    "cms:/store/mc/Run3Summer22EENanoAODv12/NMSSM_XtoYHto4B_MX-550_MY-95_TuneCP5_13p6TeV_madgraph-pythia8/NANOAODSIM/130X_mcRun3_2022_realistic_postEE_v6-v2/60000/23722f21-c997-456a-b972-fbce21a093f6.root": [
        "T1_US_FNAL_Disk: davs://cmsdcadisk.fnal.gov:2880/dcache/uscmsdisk/store/mc/Run3Summer22EENanoAODv12/NMSSM_XtoYHto4B_MX-550_MY-95_TuneCP5_13p6TeV_madgraph-pythia8/NANOAODSIM/130X_mcRun3_2022_realistic_postEE_v6-v2/60000/23722f21-c997-456a-b972-fbce21a093f6.root",
        "T1_UK_RAL_Tape: davs://antares.stfc.ac.uk:9000/eos/antares/prod/cms/store/mc/Run3Summer22EENanoAODv12/NMSSM_XtoYHto4B_MX-550_MY-95_TuneCP5_13p6TeV_madgraph-pythia8/NANOAODSIM/130X_mcRun3_2022_realistic_postEE_v6-v2/60000/23722f21-c997-456a-b972-fbce21a093f6.root",
        "T2_PL_Swierk: davs://se.cis.gov.pl:2880/grid/cms/store/mc/Run3Summer22EENanoAODv12/NMSSM_XtoYHto4B_MX-550_MY-95_TuneCP5_13p6TeV_madgraph-pythia8/NANOAODSIM/130X_mcRun3_2022_realistic_postEE_v6-v2/60000/23722f21-c997-456a-b972-fbce21a093f6.root",
        "T2_US_Vanderbilt: davs://xrootd-vanderbilt.sites.opensciencegrid.org:1094/store/mc/Run3Summer22EENanoAODv12/NMSSM_XtoYHto4B_MX-550_MY-95_TuneCP5_13p6TeV_madgraph-pythia8/NANOAODSIM/130X_mcRun3_2022_realistic_postEE_v6-v2/60000/23722f21-c997-456a-b972-fbce21a093f6.root",
        "T1_UK_RAL_Disk: davs://rdr.echo.stfc.ac.uk:1094/store/mc/Run3Summer22EENanoAODv12/NMSSM_XtoYHto4B_MX-550_MY-95_TuneCP5_13p6TeV_madgraph-pythia8/NANOAODSIM/130X_mcRun3_2022_realistic_postEE_v6-v2/60000/23722f21-c997-456a-b972-fbce21a093f6.root",
        "T2_HU_Budapest: davs://grid143.kfki.hu:443/dpm/kfki.hu/home/cms/phedex/store/mc/Run3Summer22EENanoAODv12/NMSSM_XtoYHto4B_MX-550_MY-95_TuneCP5_13p6TeV_madgraph-pythia8/NANOAODSIM/130X_mcRun3_2022_realistic_postEE_v6-v2/60000/23722f21-c997-456a-b972-fbce21a093f6.root",
        "T2_IT_Pisa: davs://stwebdav.pi.infn.it:8443/cms/store/mc/Run3Summer22EENanoAODv12/NMSSM_XtoYHto4B_MX-550_MY-95_TuneCP5_13p6TeV_madgraph-pythia8/NANOAODSIM/130X_mcRun3_2022_realistic_postEE_v6-v2/60000/23722f21-c997-456a-b972-fbce21a093f6.root"
    ],
    "cms:/store/mc/Run3Summer22EENanoAODv12/NMSSM_XtoYHto4B_MX-550_MY-95_TuneCP5_13p6TeV_madgraph-pythia8/NANOAODSIM/130X_mcRun3_2022_realistic_postEE_v6-v2/60000/fd986d81-f913-45c7-a730-b2e5f5cdea85.root": [
        "T1_US_FNAL_Disk: davs://cmsdcadisk.fnal.gov:2880/dcache/uscmsdisk/store/mc/Run3Summer22EENanoAODv12/NMSSM_XtoYHto4B_MX-550_MY-95_TuneCP5_13p6TeV_madgraph-pythia8/NANOAODSIM/130X_mcRun3_2022_realistic_postEE_v6-v2/60000/fd986d81-f913-45c7-a730-b2e5f5cdea85.root",
        "T1_UK_RAL_Tape: davs://antares.stfc.ac.uk:9000/eos/antares/prod/cms/store/mc/Run3Summer22EENanoAODv12/NMSSM_XtoYHto4B_MX-550_MY-95_TuneCP5_13p6TeV_madgraph-pythia8/NANOAODSIM/130X_mcRun3_2022_realistic_postEE_v6-v2/60000/fd986d81-f913-45c7-a730-b2e5f5cdea85.root",
        "T2_PL_Swierk: davs://se.cis.gov.pl:2880/grid/cms/store/mc/Run3Summer22EENanoAODv12/NMSSM_XtoYHto4B_MX-550_MY-95_TuneCP5_13p6TeV_madgraph-pythia8/NANOAODSIM/130X_mcRun3_2022_realistic_postEE_v6-v2/60000/fd986d81-f913-45c7-a730-b2e5f5cdea85.root",
        "T2_US_Vanderbilt: davs://xrootd-vanderbilt.sites.opensciencegrid.org:1094/store/mc/Run3Summer22EENanoAODv12/NMSSM_XtoYHto4B_MX-550_MY-95_TuneCP5_13p6TeV_madgraph-pythia8/NANOAODSIM/130X_mcRun3_2022_realistic_postEE_v6-v2/60000/fd986d81-f913-45c7-a730-b2e5f5cdea85.root",
        "T1_UK_RAL_Disk: davs://rdr.echo.stfc.ac.uk:1094/store/mc/Run3Summer22EENanoAODv12/NMSSM_XtoYHto4B_MX-550_MY-95_TuneCP5_13p6TeV_madgraph-pythia8/NANOAODSIM/130X_mcRun3_2022_realistic_postEE_v6-v2/60000/fd986d81-f913-45c7-a730-b2e5f5cdea85.root",
        "T2_HU_Budapest: davs://grid143.kfki.hu:443/dpm/kfki.hu/home/cms/phedex/store/mc/Run3Summer22EENanoAODv12/NMSSM_XtoYHto4B_MX-550_MY-95_TuneCP5_13p6TeV_madgraph-pythia8/NANOAODSIM/130X_mcRun3_2022_realistic_postEE_v6-v2/60000/fd986d81-f913-45c7-a730-b2e5f5cdea85.root",
        "T2_IT_Pisa: davs://stwebdav.pi.infn.it:8443/cms/store/mc/Run3Summer22EENanoAODv12/NMSSM_XtoYHto4B_MX-550_MY-95_TuneCP5_13p6TeV_madgraph-pythia8/NANOAODSIM/130X_mcRun3_2022_realistic_postEE_v6-v2/60000/fd986d81-f913-45c7-a730-b2e5f5cdea85.root"
    ],
    "cms:/store/mc/Run3Summer22EENanoAODv12/NMSSM_XtoYHto4B_MX-550_MY-95_TuneCP5_13p6TeV_madgraph-pythia8/NANOAODSIM/130X_mcRun3_2022_realistic_postEE_v6-v2/60000/6e26524b-decf-4a8b-9d08-a276d768b313.root": [
        "T1_FR_CCIN2P3_Disk: davs://ccdavcms.in2p3.fr:2880/disk/data/store/mc/Run3Summer22EENanoAODv12/NMSSM_XtoYHto4B_MX-550_MY-95_TuneCP5_13p6TeV_madgraph-pythia8/NANOAODSIM/130X_mcRun3_2022_realistic_postEE_v6-v2/60000/6e26524b-decf-4a8b-9d08-a276d768b313.root",
        "T2_FR_IPHC: davs://sbgdcache.in2p3.fr:443/cms/phedex/store/mc/Run3Summer22EENanoAODv12/NMSSM_XtoYHto4B_MX-550_MY-95_TuneCP5_13p6TeV_madgraph-pythia8/NANOAODSIM/130X_mcRun3_2022_realistic_postEE_v6-v2/60000/6e26524b-decf-4a8b-9d08-a276d768b313.root",
        "T1_UK_RAL_Tape: davs://antares.stfc.ac.uk:9000/eos/antares/prod/cms/store/mc/Run3Summer22EENanoAODv12/NMSSM_XtoYHto4B_MX-550_MY-95_TuneCP5_13p6TeV_madgraph-pythia8/NANOAODSIM/130X_mcRun3_2022_realistic_postEE_v6-v2/60000/6e26524b-decf-4a8b-9d08-a276d768b313.root",
        "T2_PL_Swierk: davs://se.cis.gov.pl:2880/grid/cms/store/mc/Run3Summer22EENanoAODv12/NMSSM_XtoYHto4B_MX-550_MY-95_TuneCP5_13p6TeV_madgraph-pythia8/NANOAODSIM/130X_mcRun3_2022_realistic_postEE_v6-v2/60000/6e26524b-decf-4a8b-9d08-a276d768b313.root",
        "T2_BR_SPRACE: davs://osg-se.sprace.org.br:1094/store/mc/Run3Summer22EENanoAODv12/NMSSM_XtoYHto4B_MX-550_MY-95_TuneCP5_13p6TeV_madgraph-pythia8/NANOAODSIM/130X_mcRun3_2022_realistic_postEE_v6-v2/60000/6e26524b-decf-4a8b-9d08-a276d768b313.root",
        "T2_US_Caltech: davs://k8s-redir-stageout.ultralight.org:1094/store/mc/Run3Summer22EENanoAODv12/NMSSM_XtoYHto4B_MX-550_MY-95_TuneCP5_13p6TeV_madgraph-pythia8/NANOAODSIM/130X_mcRun3_2022_realistic_postEE_v6-v2/60000/6e26524b-decf-4a8b-9d08-a276d768b313.root",
        "T2_IT_Pisa: davs://stwebdav.pi.infn.it:8443/cms/store/mc/Run3Summer22EENanoAODv12/NMSSM_XtoYHto4B_MX-550_MY-95_TuneCP5_13p6TeV_madgraph-pythia8/NANOAODSIM/130X_mcRun3_2022_realistic_postEE_v6-v2/60000/6e26524b-decf-4a8b-9d08-a276d768b313.root"
    ],
    "cms:/store/mc/Run3Summer22EENanoAODv12/NMSSM_XtoYHto4B_MX-550_MY-95_TuneCP5_13p6TeV_madgraph-pythia8/NANOAODSIM/130X_mcRun3_2022_realistic_postEE_v6-v2/60000/d1ce5650-f36f-4130-86c7-9ea38b56fb64.root": [
        "T1_US_FNAL_Disk: davs://cmsdcadisk.fnal.gov:2880/dcache/uscmsdisk/store/mc/Run3Summer22EENanoAODv12/NMSSM_XtoYHto4B_MX-550_MY-95_TuneCP5_13p6TeV_madgraph-pythia8/NANOAODSIM/130X_mcRun3_2022_realistic_postEE_v6-v2/60000/d1ce5650-f36f-4130-86c7-9ea38b56fb64.root",
        "T1_UK_RAL_Tape: davs://antares.stfc.ac.uk:9000/eos/antares/prod/cms/store/mc/Run3Summer22EENanoAODv12/NMSSM_XtoYHto4B_MX-550_MY-95_TuneCP5_13p6TeV_madgraph-pythia8/NANOAODSIM/130X_mcRun3_2022_realistic_postEE_v6-v2/60000/d1ce5650-f36f-4130-86c7-9ea38b56fb64.root",
        "T2_PL_Swierk: davs://se.cis.gov.pl:2880/grid/cms/store/mc/Run3Summer22EENanoAODv12/NMSSM_XtoYHto4B_MX-550_MY-95_TuneCP5_13p6TeV_madgraph-pythia8/NANOAODSIM/130X_mcRun3_2022_realistic_postEE_v6-v2/60000/d1ce5650-f36f-4130-86c7-9ea38b56fb64.root",
        "T2_US_Vanderbilt: davs://xrootd-vanderbilt.sites.opensciencegrid.org:1094/store/mc/Run3Summer22EENanoAODv12/NMSSM_XtoYHto4B_MX-550_MY-95_TuneCP5_13p6TeV_madgraph-pythia8/NANOAODSIM/130X_mcRun3_2022_realistic_postEE_v6-v2/60000/d1ce5650-f36f-4130-86c7-9ea38b56fb64.root",
        "T1_UK_RAL_Disk: davs://rdr.echo.stfc.ac.uk:1094/store/mc/Run3Summer22EENanoAODv12/NMSSM_XtoYHto4B_MX-550_MY-95_TuneCP5_13p6TeV_madgraph-pythia8/NANOAODSIM/130X_mcRun3_2022_realistic_postEE_v6-v2/60000/d1ce5650-f36f-4130-86c7-9ea38b56fb64.root",
        "T2_HU_Budapest: davs://grid143.kfki.hu:443/dpm/kfki.hu/home/cms/phedex/store/mc/Run3Summer22EENanoAODv12/NMSSM_XtoYHto4B_MX-550_MY-95_TuneCP5_13p6TeV_madgraph-pythia8/NANOAODSIM/130X_mcRun3_2022_realistic_postEE_v6-v2/60000/d1ce5650-f36f-4130-86c7-9ea38b56fb64.root",
        "T2_IT_Pisa: davs://stwebdav.pi.infn.it:8443/cms/store/mc/Run3Summer22EENanoAODv12/NMSSM_XtoYHto4B_MX-550_MY-95_TuneCP5_13p6TeV_madgraph-pythia8/NANOAODSIM/130X_mcRun3_2022_realistic_postEE_v6-v2/60000/d1ce5650-f36f-4130-86c7-9ea38b56fb64.root"
    ],
    "cms:/store/mc/Run3Summer22EENanoAODv12/NMSSM_XtoYHto4B_MX-550_MY-95_TuneCP5_13p6TeV_madgraph-pythia8/NANOAODSIM/130X_mcRun3_2022_realistic_postEE_v6-v2/60000/72c41f65-eaa4-4645-8cca-bbade98e8c68.root": [
        "T1_US_FNAL_Disk: davs://cmsdcadisk.fnal.gov:2880/dcache/uscmsdisk/store/mc/Run3Summer22EENanoAODv12/NMSSM_XtoYHto4B_MX-550_MY-95_TuneCP5_13p6TeV_madgraph-pythia8/NANOAODSIM/130X_mcRun3_2022_realistic_postEE_v6-v2/60000/72c41f65-eaa4-4645-8cca-bbade98e8c68.root",
        "T1_UK_RAL_Tape: davs://antares.stfc.ac.uk:9000/eos/antares/prod/cms/store/mc/Run3Summer22EENanoAODv12/NMSSM_XtoYHto4B_MX-550_MY-95_TuneCP5_13p6TeV_madgraph-pythia8/NANOAODSIM/130X_mcRun3_2022_realistic_postEE_v6-v2/60000/72c41f65-eaa4-4645-8cca-bbade98e8c68.root",
        "T2_PL_Swierk: davs://se.cis.gov.pl:2880/grid/cms/store/mc/Run3Summer22EENanoAODv12/NMSSM_XtoYHto4B_MX-550_MY-95_TuneCP5_13p6TeV_madgraph-pythia8/NANOAODSIM/130X_mcRun3_2022_realistic_postEE_v6-v2/60000/72c41f65-eaa4-4645-8cca-bbade98e8c68.root",
        "T2_US_Vanderbilt: davs://xrootd-vanderbilt.sites.opensciencegrid.org:1094/store/mc/Run3Summer22EENanoAODv12/NMSSM_XtoYHto4B_MX-550_MY-95_TuneCP5_13p6TeV_madgraph-pythia8/NANOAODSIM/130X_mcRun3_2022_realistic_postEE_v6-v2/60000/72c41f65-eaa4-4645-8cca-bbade98e8c68.root",
        "T1_UK_RAL_Disk: davs://rdr.echo.stfc.ac.uk:1094/store/mc/Run3Summer22EENanoAODv12/NMSSM_XtoYHto4B_MX-550_MY-95_TuneCP5_13p6TeV_madgraph-pythia8/NANOAODSIM/130X_mcRun3_2022_realistic_postEE_v6-v2/60000/72c41f65-eaa4-4645-8cca-bbade98e8c68.root",
        "T2_HU_Budapest: davs://grid143.kfki.hu:443/dpm/kfki.hu/home/cms/phedex/store/mc/Run3Summer22EENanoAODv12/NMSSM_XtoYHto4B_MX-550_MY-95_TuneCP5_13p6TeV_madgraph-pythia8/NANOAODSIM/130X_mcRun3_2022_realistic_postEE_v6-v2/60000/72c41f65-eaa4-4645-8cca-bbade98e8c68.root",
        "T2_IT_Pisa: davs://stwebdav.pi.infn.it:8443/cms/store/mc/Run3Summer22EENanoAODv12/NMSSM_XtoYHto4B_MX-550_MY-95_TuneCP5_13p6TeV_madgraph-pythia8/NANOAODSIM/130X_mcRun3_2022_realistic_postEE_v6-v2/60000/72c41f65-eaa4-4645-8cca-bbade98e8c68.root"
    ]
}