{
    "cms:/store/mc/Run3Summer22NanoAODv12/NMSSM_XtoYHto4B_MX-2000_MY-1200_TuneCP5_13p6TeV_madgraph-pythia8/NANOAODSIM/130X_mcRun3_2022_realistic_v5-v2/2820000/13feb72c-e2d4-47f5-bc03-2ace03871d3c.root": [
        "T1_US_FNAL_Disk: davs://cmsdcadisk.fnal.gov:2880/dcache/uscmsdisk/store/mc/Run3Summer22NanoAODv12/NMSSM_XtoYHto4B_MX-2000_MY-1200_TuneCP5_13p6TeV_madgraph-pythia8/NANOAODSIM/130X_mcRun3_2022_realistic_v5-v2/2820000/13feb72c-e2d4-47f5-bc03-2ace03871d3c.root",
        "T1_FR_CCIN2P3_Disk: davs://ccdavcms.in2p3.fr:2880/disk/data/store/mc/Run3Summer22NanoAODv12/NMSSM_XtoYHto4B_MX-2000_MY-1200_TuneCP5_13p6TeV_madgraph-pythia8/NANOAODSIM/130X_mcRun3_2022_realistic_v5-v2/2820000/13feb72c-e2d4-47f5-bc03-2ace03871d3c.root",
        "T2_US_Florida: davs://cmsio2.rc.ufl.edu:1094/store/mc/Run3Summer22NanoAODv12/NMSSM_XtoYHto4B_MX-2000_MY-1200_TuneCP5_13p6TeV_madgraph-pythia8/NANOAODSIM/130X_mcRun3_2022_realistic_v5-v2/2820000/13feb72c-e2d4-47f5-bc03-2ace03871d3c.root",
        "T1_RU_JINR_Disk: davs://se-wbdv.jinr-t1.ru:2880/pnfs/jinr-t1.ru/data/cms/store/mc/Run3Summer22NanoAODv12/NMSSM_XtoYHto4B_MX-2000_MY-1200_TuneCP5_13p6TeV_madgraph-pythia8/NANOAODSIM/130X_mcRun3_2022_realistic_v5-v2/2820000/13feb72c-e2d4-47f5-bc03-2ace03871d3c.root",
        "T2_ES_CIEMAT: davs://srm.ciemat.es:2880/pnfs/ciemat.es/data/cms/prod/store/mc/Run3Summer22NanoAODv12/NMSSM_XtoYHto4B_MX-2000_MY-1200_TuneCP5_13p6TeV_madgraph-pythia8/NANOAODSIM/130X_mcRun3_2022_realistic_v5-v2/2820000/13feb72c-e2d4-47f5-bc03-2ace03871d3c.root",
        "T2_UK_London_IC: davs://gfe02.grid.hep.ph.ic.ac.uk:2880/pnfs/hep.ph.ic.ac.uk/data/cms/store/mc/Run3Summer22NanoAODv12/NMSSM_XtoYHto4B_MX-2000_MY-1200_TuneCP5_13p6TeV_madgraph-pythia8/NANOAODSIM/130X_mcRun3_2022_realistic_v5-v2/2820000/13feb72c-e2d4-47f5-bc03-2ace03871d3c.root",
        "T1_ES_PIC_Tape: davs://webdav-cms-tape.pic.es:8450/pnfs/pic.es/data/cms/store/mc/Run3Summer22NanoAODv12/NMSSM_XtoYHto4B_MX-2000_MY-1200_TuneCP5_13p6TeV_madgraph-pythia8/NANOAODSIM/130X_mcRun3_2022_realistic_v5-v2/2820000/13feb72c-e2d4-47f5-bc03-2ace03871d3c.root"
    ],
    "cms:/store/mc/Run3Summer22NanoAODv12/NMSSM_XtoYHto4B_MX-2000_MY-1200_TuneCP5_13p6TeV_madgraph-pythia8/NANOAODSIM/130X_mcRun3_2022_realistic_v5-v2/2820000/7890babf-bee8-48dd-83f4-04279e59bcf8.root": [
        "T1_US_FNAL_Disk: davs://cmsdcadisk.fnal.gov:2880/dcache/uscmsdisk/store/mc/Run3Summer22NanoAODv12/NMSSM_XtoYHto4B_MX-2000_MY-1200_TuneCP5_13p6TeV_madgraph-pythia8/NANOAODSIM/130X_mcRun3_2022_realistic_v5-v2/2820000/7890babf-bee8-48dd-83f4-04279e59bcf8.root",
        "T1_FR_CCIN2P3_Disk: davs://ccdavcms.in2p3.fr:2880/disk/data/store/mc/Run3Summer22NanoAODv12/NMSSM_XtoYHto4B_MX-2000_MY-1200_TuneCP5_13p6TeV_madgraph-pythia8/NANOAODSIM/130X_mcRun3_2022_realistic_v5-v2/2820000/7890babf-bee8-48dd-83f4-04279e59bcf8.root",
        "T2_US_Florida: davs://cmsio2.rc.ufl.edu:1094/store/mc/Run3Summer22NanoAODv12/NMSSM_XtoYHto4B_MX-2000_MY-1200_TuneCP5_13p6TeV_madgraph-pythia8/NANOAODSIM/130X_mcRun3_2022_realistic_v5-v2/2820000/7890babf-bee8-48dd-83f4-04279e59bcf8.root",
        "T1_RU_JINR_Disk: davs://se-wbdv.jinr-t1.ru:2880/pnfs/jinr-t1.ru/data/cms/store/mc/Run3Summer22NanoAODv12/NMSSM_XtoYHto4B_MX-2000_MY-1200_TuneCP5_13p6TeV_madgraph-pythia8/NANOAODSIM/130X_mcRun3_2022_realistic_v5-v2/2820000/7890babf-bee8-48dd-83f4-04279e59bcf8.root",
        "T2_ES_CIEMAT: davs://srm.ciemat.es:2880/pnfs/ciemat.es/data/cms/prod/store/mc/Run3Summer22NanoAODv12/NMSSM_XtoYHto4B_MX-2000_MY-1200_TuneCP5_13p6TeV_madgraph-pythia8/NANOAODSIM/130X_mcRun3_2022_realistic_v5-v2/2820000/7890babf-bee8-48dd-83f4-04279e59bcf8.root",
        "T2_UK_London_IC: davs://gfe02.grid.hep.ph.ic.ac.uk:2880/pnfs/hep.ph.ic.ac.uk/data/cms/store/mc/Run3Summer22NanoAODv12/NMSSM_XtoYHto4B_MX-2000_MY-1200_TuneCP5_13p6TeV_madgraph-pythia8/NANOAODSIM/130X_mcRun3_2022_realistic_v5-v2/2820000/7890babf-bee8-48dd-83f4-04279e59bcf8.root",
        "T1_ES_PIC_Tape: davs://webdav-cms-tape.pic.es:8450/pnfs/pic.es/data/cms/store/mc/Run3Summer22NanoAODv12/NMSSM_XtoYHto4B_MX-2000_MY-1200_TuneCP5_13p6TeV_madgraph-pythia8/NANOAODSIM/130X_mcRun3_2022_realistic_v5-v2/2820000/7890babf-bee8-48dd-83f4-04279e59bcf8.root"
    ],
    "cms:/store/mc/Run3Summer22NanoAODv12/NMSSM_XtoYHto4B_MX-2000_MY-1200_TuneCP5_13p6TeV_madgraph-pythia8/NANOAODSIM/130X_mcRun3_2022_realistic_v5-v2/2820000/68b59e07-a9f4-438b-a892-a5772160f13d.root": [
        "T1_US_FNAL_Disk: davs://cmsdcadisk.fnal.gov:2880/dcache/uscmsdisk/store/mc/Run3Summer22NanoAODv12/NMSSM_XtoYHto4B_MX-2000_MY-1200_TuneCP5_13p6TeV_madgraph-pythia8/NANOAODSIM/130X_mcRun3_2022_realistic_v5-v2/2820000/68b59e07-a9f4-438b-a892-a5772160f13d.root",
        "T1_FR_CCIN2P3_Disk: davs://ccdavcms.in2p3.fr:2880/disk/data/store/mc/Run3Summer22NanoAODv12/NMSSM_XtoYHto4B_MX-2000_MY-1200_TuneCP5_13p6TeV_madgraph-pythia8/NANOAODSIM/130X_mcRun3_2022_realistic_v5-v2/2820000/68b59e07-a9f4-438b-a892-a5772160f13d.root",
        "T2_US_Florida: davs://cmsio2.rc.ufl.edu:1094/store/mc/Run3Summer22NanoAODv12/NMSSM_XtoYHto4B_MX-2000_MY-1200_TuneCP5_13p6TeV_madgraph-pythia8/NANOAODSIM/130X_mcRun3_2022_realistic_v5-v2/2820000/68b59e07-a9f4-438b-a892-a5772160f13d.root",
        "T1_RU_JINR_Disk: davs://se-wbdv.jinr-t1.ru:2880/pnfs/jinr-t1.ru/data/cms/store/mc/Run3Summer22NanoAODv12/NMSSM_XtoYHto4B_MX-2000_MY-1200_TuneCP5_13p6TeV_madgraph-pythia8/NANOAODSIM/130X_mcRun3_2022_realistic_v5-v2/2820000/68b59e07-a9f4-438b-a892-a5772160f13d.root",
        "T2_ES_CIEMAT: davs://srm.ciemat.es:2880/pnfs/ciemat.es/data/cms/prod/store/mc/Run3Summer22NanoAODv12/NMSSM_XtoYHto4B_MX-2000_MY-1200_TuneCP5_13p6TeV_madgraph-pythia8/NANOAODSIM/130X_mcRun3_2022_realistic_v5-v2/2820000/68b59e07-a9f4-438b-a892-a5772160f13d.root",
        "T2_UK_London_IC: davs://gfe02.grid.hep.ph.ic.ac.uk:2880/pnfs/hep.ph.ic.ac.uk/data/cms/store/mc/Run3Summer22NanoAODv12/NMSSM_XtoYHto4B_MX-2000_MY-1200_TuneCP5_13p6TeV_madgraph-pythia8/NANOAODSIM/130X_mcRun3_2022_realistic_v5-v2/2820000/68b59e07-a9f4-438b-a892-a5772160f13d.root",
        "T1_ES_PIC_Tape: davs://webdav-cms-tape.pic.es:8450/pnfs/pic.es/data/cms/store/mc/Run3Summer22NanoAODv12/NMSSM_XtoYHto4B_MX-2000_MY-1200_TuneCP5_13p6TeV_madgraph-pythia8/NANOAODSIM/130X_mcRun3_2022_realistic_v5-v2/2820000/68b59e07-a9f4-438b-a892-a5772160f13d.root"
    ],
    "cms:/store/mc/Run3Summer22NanoAODv12/NMSSM_XtoYHto4B_MX-2000_MY-1200_TuneCP5_13p6TeV_madgraph-pythia8/NANOAODSIM/130X_mcRun3_2022_realistic_v5-v2/2820000/ce29d8e5-7be3-4df5-a67c-9cc13f730b32.root": [
        "T1_US_FNAL_Disk: davs://cmsdcadisk.fnal.gov:2880/dcache/uscmsdisk/store/mc/Run3Summer22NanoAODv12/NMSSM_XtoYHto4B_MX-2000_MY-1200_TuneCP5_13p6TeV_madgraph-pythia8/NANOAODSIM/130X_mcRun3_2022_realistic_v5-v2/2820000/ce29d8e5-7be3-4df5-a67c-9cc13f730b32.root",
        "T1_FR_CCIN2P3_Disk: davs://ccdavcms.in2p3.fr:2880/disk/data/store/mc/Run3Summer22NanoAODv12/NMSSM_XtoYHto4B_MX-2000_MY-1200_TuneCP5_13p6TeV_madgraph-pythia8/NANOAODSIM/130X_mcRun3_2022_realistic_v5-v2/2820000/ce29d8e5-7be3-4df5-a67c-9cc13f730b32.root",
        "T2_US_Florida: davs://cmsio2.rc.ufl.edu:1094/store/mc/Run3Summer22NanoAODv12/NMSSM_XtoYHto4B_MX-2000_MY-1200_TuneCP5_13p6TeV_madgraph-pythia8/NANOAODSIM/130X_mcRun3_2022_realistic_v5-v2/2820000/ce29d8e5-7be3-4df5-a67c-9cc13f730b32.root",
        "T1_RU_JINR_Disk: davs://se-wbdv.jinr-t1.ru:2880/pnfs/jinr-t1.ru/data/cms/store/mc/Run3Summer22NanoAODv12/NMSSM_XtoYHto4B_MX-2000_MY-1200_TuneCP5_13p6TeV_madgraph-pythia8/NANOAODSIM/130X_mcRun3_2022_realistic_v5-v2/2820000/ce29d8e5-7be3-4df5-a67c-9cc13f730b32.root",
        "T2_ES_CIEMAT: davs://srm.ciemat.es:2880/pnfs/ciemat.es/data/cms/prod/store/mc/Run3Summer22NanoAODv12/NMSSM_XtoYHto4B_MX-2000_MY-1200_TuneCP5_13p6TeV_madgraph-pythia8/NANOAODSIM/130X_mcRun3_2022_realistic_v5-v2/2820000/ce29d8e5-7be3-4df5-a67c-9cc13f730b32.root",
        "T2_UK_London_IC: davs://gfe02.grid.hep.ph.ic.ac.uk:2880/pnfs/hep.ph.ic.ac.uk/data/cms/store/mc/Run3Summer22NanoAODv12/NMSSM_XtoYHto4B_MX-2000_MY-1200_TuneCP5_13p6TeV_madgraph-pythia8/NANOAODSIM/130X_mcRun3_2022_realistic_v5-v2/2820000/ce29d8e5-7be3-4df5-a67c-9cc13f730b32.root",
        "T1_ES_PIC_Tape: davs://webdav-cms-tape.pic.es:8450/pnfs/pic.es/data/cms/store/mc/Run3Summer22NanoAODv12/NMSSM_XtoYHto4B_MX-2000_MY-1200_TuneCP5_13p6TeV_madgraph-pythia8/NANOAODSIM/130X_mcRun3_2022_realistic_v5-v2/2820000/ce29d8e5-7be3-4df5-a67c-9cc13f730b32.root"
    ],
    "cms:/store/mc/Run3Summer22NanoAODv12/NMSSM_XtoYHto4B_MX-2000_MY-1200_TuneCP5_13p6TeV_madgraph-pythia8/NANOAODSIM/130X_mcRun3_2022_realistic_v5-v2/2820000/89c0f362-c0be-458f-bb0b-308c4c3775f2.root": [
        "T1_US_FNAL_Disk: davs://cmsdcadisk.fnal.gov:2880/dcache/uscmsdisk/store/mc/Run3Summer22NanoAODv12/NMSSM_XtoYHto4B_MX-2000_MY-1200_TuneCP5_13p6TeV_madgraph-pythia8/NANOAODSIM/130X_mcRun3_2022_realistic_v5-v2/2820000/89c0f362-c0be-458f-bb0b-308c4c3775f2.root",
        "T1_FR_CCIN2P3_Disk: davs://ccdavcms.in2p3.fr:2880/disk/data/store/mc/Run3Summer22NanoAODv12/NMSSM_XtoYHto4B_MX-2000_MY-1200_TuneCP5_13p6TeV_madgraph-pythia8/NANOAODSIM/130X_mcRun3_2022_realistic_v5-v2/2820000/89c0f362-c0be-458f-bb0b-308c4c3775f2.root",
        "T2_US_Florida: davs://cmsio2.rc.ufl.edu:1094/store/mc/Run3Summer22NanoAODv12/NMSSM_XtoYHto4B_MX-2000_MY-1200_TuneCP5_13p6TeV_madgraph-pythia8/NANOAODSIM/130X_mcRun3_2022_realistic_v5-v2/2820000/89c0f362-c0be-458f-bb0b-308c4c3775f2.root",
        "T1_RU_JINR_Disk: davs://se-wbdv.jinr-t1.ru:2880/pnfs/jinr-t1.ru/data/cms/store/mc/Run3Summer22NanoAODv12/NMSSM_XtoYHto4B_MX-2000_MY-1200_TuneCP5_13p6TeV_madgraph-pythia8/NANOAODSIM/130X_mcRun3_2022_realistic_v5-v2/2820000/89c0f362-c0be-458f-bb0b-308c4c3775f2.root",
        "T2_ES_CIEMAT: davs://srm.ciemat.es:2880/pnfs/ciemat.es/data/cms/prod/store/mc/Run3Summer22NanoAODv12/NMSSM_XtoYHto4B_MX-2000_MY-1200_TuneCP5_13p6TeV_madgraph-pythia8/NANOAODSIM/130X_mcRun3_2022_realistic_v5-v2/2820000/89c0f362-c0be-458f-bb0b-308c4c3775f2.root",
        "T2_UK_London_IC: davs://gfe02.grid.hep.ph.ic.ac.uk:2880/pnfs/hep.ph.ic.ac.uk/data/cms/store/mc/Run3Summer22NanoAODv12/NMSSM_XtoYHto4B_MX-2000_MY-1200_TuneCP5_13p6TeV_madgraph-pythia8/NANOAODSIM/130X_mcRun3_2022_realistic_v5-v2/2820000/89c0f362-c0be-458f-bb0b-308c4c3775f2.root",
        "T1_ES_PIC_Tape: davs://webdav-cms-tape.pic.es:8450/pnfs/pic.es/data/cms/store/mc/Run3Summer22NanoAODv12/NMSSM_XtoYHto4B_MX-2000_MY-1200_TuneCP5_13p6TeV_madgraph-pythia8/NANOAODSIM/130X_mcRun3_2022_realistic_v5-v2/2820000/89c0f362-c0be-458f-bb0b-308c4c3775f2.root"
    ],
    "cms:/store/mc/Run3Summer22NanoAODv12/NMSSM_XtoYHto4B_MX-2000_MY-1200_TuneCP5_13p6TeV_madgraph-pythia8/NANOAODSIM/130X_mcRun3_2022_realistic_v5-v2/2820000/6470ed0d-033a-4350-8af2-d40cb13b5932.root": [
        "T1_US_FNAL_Disk: davs://cmsdcadisk.fnal.gov:2880/dcache/uscmsdisk/store/mc/Run3Summer22NanoAODv12/NMSSM_XtoYHto4B_MX-2000_MY-1200_TuneCP5_13p6TeV_madgraph-pythia8/NANOAODSIM/130X_mcRun3_2022_realistic_v5-v2/2820000/6470ed0d-033a-4350-8af2-d40cb13b5932.root",
        "T1_FR_CCIN2P3_Disk: davs://ccdavcms.in2p3.fr:2880/disk/data/store/mc/Run3Summer22NanoAODv12/NMSSM_XtoYHto4B_MX-2000_MY-1200_TuneCP5_13p6TeV_madgraph-pythia8/NANOAODSIM/130X_mcRun3_2022_realistic_v5-v2/2820000/6470ed0d-033a-4350-8af2-d40cb13b5932.root",
        "T2_US_Florida: davs://cmsio2.rc.ufl.edu:1094/store/mc/Run3Summer22NanoAODv12/NMSSM_XtoYHto4B_MX-2000_MY-1200_TuneCP5_13p6TeV_madgraph-pythia8/NANOAODSIM/130X_mcRun3_2022_realistic_v5-v2/2820000/6470ed0d-033a-4350-8af2-d40cb13b5932.root",
        "T1_RU_JINR_Disk: davs://se-wbdv.jinr-t1.ru:2880/pnfs/jinr-t1.ru/data/cms/store/mc/Run3Summer22NanoAODv12/NMSSM_XtoYHto4B_MX-2000_MY-1200_TuneCP5_13p6TeV_madgraph-pythia8/NANOAODSIM/130X_mcRun3_2022_realistic_v5-v2/2820000/6470ed0d-033a-4350-8af2-d40cb13b5932.root",
        "T2_ES_CIEMAT: davs://srm.ciemat.es:2880/pnfs/ciemat.es/data/cms/prod/store/mc/Run3Summer22NanoAODv12/NMSSM_XtoYHto4B_MX-2000_MY-1200_TuneCP5_13p6TeV_madgraph-pythia8/NANOAODSIM/130X_mcRun3_2022_realistic_v5-v2/2820000/6470ed0d-033a-4350-8af2-d40cb13b5932.root",
        "T2_UK_London_IC: davs://gfe02.grid.hep.ph.ic.ac.uk:2880/pnfs/hep.ph.ic.ac.uk/data/cms/store/mc/Run3Summer22NanoAODv12/NMSSM_XtoYHto4B_MX-2000_MY-1200_TuneCP5_13p6TeV_madgraph-pythia8/NANOAODSIM/130X_mcRun3_2022_realistic_v5-v2/2820000/6470ed0d-033a-4350-8af2-d40cb13b5932.root",
        "T1_ES_PIC_Tape: davs://webdav-cms-tape.pic.es:8450/pnfs/pic.es/data/cms/store/mc/Run3Summer22NanoAODv12/NMSSM_XtoYHto4B_MX-2000_MY-1200_TuneCP5_13p6TeV_madgraph-pythia8/NANOAODSIM/130X_mcRun3_2022_realistic_v5-v2/2820000/6470ed0d-033a-4350-8af2-d40cb13b5932.root"
    ],
    "cms:/store/mc/Run3Summer22NanoAODv12/NMSSM_XtoYHto4B_MX-2000_MY-1200_TuneCP5_13p6TeV_madgraph-pythia8/NANOAODSIM/130X_mcRun3_2022_realistic_v5-v2/2820000/7135500e-59e9-49b2-aaef-dea30d238898.root": [
        "T1_US_FNAL_Disk: davs://cmsdcadisk.fnal.gov:2880/dcache/uscmsdisk/store/mc/Run3Summer22NanoAODv12/NMSSM_XtoYHto4B_MX-2000_MY-1200_TuneCP5_13p6TeV_madgraph-pythia8/NANOAODSIM/130X_mcRun3_2022_realistic_v5-v2/2820000/7135500e-59e9-49b2-aaef-dea30d238898.root",
        "T1_FR_CCIN2P3_Disk: davs://ccdavcms.in2p3.fr:2880/disk/data/store/mc/Run3Summer22NanoAODv12/NMSSM_XtoYHto4B_MX-2000_MY-1200_TuneCP5_13p6TeV_madgraph-pythia8/NANOAODSIM/130X_mcRun3_2022_realistic_v5-v2/2820000/7135500e-59e9-49b2-aaef-dea30d238898.root",
        "T2_US_Florida: davs://cmsio2.rc.ufl.edu:1094/store/mc/Run3Summer22NanoAODv12/NMSSM_XtoYHto4B_MX-2000_MY-1200_TuneCP5_13p6TeV_madgraph-pythia8/NANOAODSIM/130X_mcRun3_2022_realistic_v5-v2/2820000/7135500e-59e9-49b2-aaef-dea30d238898.root",
        "T1_RU_JINR_Disk: davs://se-wbdv.jinr-t1.ru:2880/pnfs/jinr-t1.ru/data/cms/store/mc/Run3Summer22NanoAODv12/NMSSM_XtoYHto4B_MX-2000_MY-1200_TuneCP5_13p6TeV_madgraph-pythia8/NANOAODSIM/130X_mcRun3_2022_realistic_v5-v2/2820000/7135500e-59e9-49b2-aaef-dea30d238898.root",
        "T2_ES_CIEMAT: davs://srm.ciemat.es:2880/pnfs/ciemat.es/data/cms/prod/store/mc/Run3Summer22NanoAODv12/NMSSM_XtoYHto4B_MX-2000_MY-1200_TuneCP5_13p6TeV_madgraph-pythia8/NANOAODSIM/130X_mcRun3_2022_realistic_v5-v2/2820000/7135500e-59e9-49b2-aaef-dea30d238898.root",
        "T2_UK_London_IC: davs://gfe02.grid.hep.ph.ic.ac.uk:2880/pnfs/hep.ph.ic.ac.uk/data/cms/store/mc/Run3Summer22NanoAODv12/NMSSM_XtoYHto4B_MX-2000_MY-1200_TuneCP5_13p6TeV_madgraph-pythia8/NANOAODSIM/130X_mcRun3_2022_realistic_v5-v2/2820000/7135500e-59e9-49b2-aaef-dea30d238898.root",
        "T1_ES_PIC_Tape: davs://webdav-cms-tape.pic.es:8450/pnfs/pic.es/data/cms/store/mc/Run3Summer22NanoAODv12/NMSSM_XtoYHto4B_MX-2000_MY-1200_TuneCP5_13p6TeV_madgraph-pythia8/NANOAODSIM/130X_mcRun3_2022_realistic_v5-v2/2820000/7135500e-59e9-49b2-aaef-dea30d238898.root"
    ],
    "cms:/store/mc/Run3Summer22NanoAODv12/NMSSM_XtoYHto4B_MX-2000_MY-1200_TuneCP5_13p6TeV_madgraph-pythia8/NANOAODSIM/130X_mcRun3_2022_realistic_v5-v2/2820000/598071ae-fedb-4bcb-b885-84e011264e32.root": [
        "T1_US_FNAL_Disk: davs://cmsdcadisk.fnal.gov:2880/dcache/uscmsdisk/store/mc/Run3Summer22NanoAODv12/NMSSM_XtoYHto4B_MX-2000_MY-1200_TuneCP5_13p6TeV_madgraph-pythia8/NANOAODSIM/130X_mcRun3_2022_realistic_v5-v2/2820000/598071ae-fedb-4bcb-b885-84e011264e32.root",
        "T1_FR_CCIN2P3_Disk: davs://ccdavcms.in2p3.fr:2880/disk/data/store/mc/Run3Summer22NanoAODv12/NMSSM_XtoYHto4B_MX-2000_MY-1200_TuneCP5_13p6TeV_madgraph-pythia8/NANOAODSIM/130X_mcRun3_2022_realistic_v5-v2/2820000/598071ae-fedb-4bcb-b885-84e011264e32.root",
        "T2_US_Florida: davs://cmsio2.rc.ufl.edu:1094/store/mc/Run3Summer22NanoAODv12/NMSSM_XtoYHto4B_MX-2000_MY-1200_TuneCP5_13p6TeV_madgraph-pythia8/NANOAODSIM/130X_mcRun3_2022_realistic_v5-v2/2820000/598071ae-fedb-4bcb-b885-84e011264e32.root",
        "T1_RU_JINR_Disk: davs://se-wbdv.jinr-t1.ru:2880/pnfs/jinr-t1.ru/data/cms/store/mc/Run3Summer22NanoAODv12/NMSSM_XtoYHto4B_MX-2000_MY-1200_TuneCP5_13p6TeV_madgraph-pythia8/NANOAODSIM/130X_mcRun3_2022_realistic_v5-v2/2820000/598071ae-fedb-4bcb-b885-84e011264e32.root",
        "T2_ES_CIEMAT: davs://srm.ciemat.es:2880/pnfs/ciemat.es/data/cms/prod/store/mc/Run3Summer22NanoAODv12/NMSSM_XtoYHto4B_MX-2000_MY-1200_TuneCP5_13p6TeV_madgraph-pythia8/NANOAODSIM/130X_mcRun3_2022_realistic_v5-v2/2820000/598071ae-fedb-4bcb-b885-84e011264e32.root",
        "T2_UK_London_IC: davs://gfe02.grid.hep.ph.ic.ac.uk:2880/pnfs/hep.ph.ic.ac.uk/data/cms/store/mc/Run3Summer22NanoAODv12/NMSSM_XtoYHto4B_MX-2000_MY-1200_TuneCP5_13p6TeV_madgraph-pythia8/NANOAODSIM/130X_mcRun3_2022_realistic_v5-v2/2820000/598071ae-fedb-4bcb-b885-84e011264e32.root",
        "T1_ES_PIC_Tape: davs://webdav-cms-tape.pic.es:8450/pnfs/pic.es/data/cms/store/mc/Run3Summer22NanoAODv12/NMSSM_XtoYHto4B_MX-2000_MY-1200_TuneCP5_13p6TeV_madgraph-pythia8/NANOAODSIM/130X_mcRun3_2022_realistic_v5-v2/2820000/598071ae-fedb-4bcb-b885-84e011264e32.root"
    ],
    "cms:/store/mc/Run3Summer22NanoAODv12/NMSSM_XtoYHto4B_MX-2000_MY-1200_TuneCP5_13p6TeV_madgraph-pythia8/NANOAODSIM/130X_mcRun3_2022_realistic_v5-v2/2820000/6638738b-d2ec-462a-8f54-ed8b66f7a765.root": [
        "T1_US_FNAL_Disk: davs://cmsdcadisk.fnal.gov:2880/dcache/uscmsdisk/store/mc/Run3Summer22NanoAODv12/NMSSM_XtoYHto4B_MX-2000_MY-1200_TuneCP5_13p6TeV_madgraph-pythia8/NANOAODSIM/130X_mcRun3_2022_realistic_v5-v2/2820000/6638738b-d2ec-462a-8f54-ed8b66f7a765.root",
        "T1_FR_CCIN2P3_Disk: davs://ccdavcms.in2p3.fr:2880/disk/data/store/mc/Run3Summer22NanoAODv12/NMSSM_XtoYHto4B_MX-2000_MY-1200_TuneCP5_13p6TeV_madgraph-pythia8/NANOAODSIM/130X_mcRun3_2022_realistic_v5-v2/2820000/6638738b-d2ec-462a-8f54-ed8b66f7a765.root",
        "T2_US_Florida: davs://cmsio2.rc.ufl.edu:1094/store/mc/Run3Summer22NanoAODv12/NMSSM_XtoYHto4B_MX-2000_MY-1200_TuneCP5_13p6TeV_madgraph-pythia8/NANOAODSIM/130X_mcRun3_2022_realistic_v5-v2/2820000/6638738b-d2ec-462a-8f54-ed8b66f7a765.root",
        "T1_RU_JINR_Disk: davs://se-wbdv.jinr-t1.ru:2880/pnfs/jinr-t1.ru/data/cms/store/mc/Run3Summer22NanoAODv12/NMSSM_XtoYHto4B_MX-2000_MY-1200_TuneCP5_13p6TeV_madgraph-pythia8/NANOAODSIM/130X_mcRun3_2022_realistic_v5-v2/2820000/6638738b-d2ec-462a-8f54-ed8b66f7a765.root",
        "T2_ES_CIEMAT: davs://srm.ciemat.es:2880/pnfs/ciemat.es/data/cms/prod/store/mc/Run3Summer22NanoAODv12/NMSSM_XtoYHto4B_MX-2000_MY-1200_TuneCP5_13p6TeV_madgraph-pythia8/NANOAODSIM/130X_mcRun3_2022_realistic_v5-v2/2820000/6638738b-d2ec-462a-8f54-ed8b66f7a765.root",
        "T2_UK_London_IC: davs://gfe02.grid.hep.ph.ic.ac.uk:2880/pnfs/hep.ph.ic.ac.uk/data/cms/store/mc/Run3Summer22NanoAODv12/NMSSM_XtoYHto4B_MX-2000_MY-1200_TuneCP5_13p6TeV_madgraph-pythia8/NANOAODSIM/130X_mcRun3_2022_realistic_v5-v2/2820000/6638738b-d2ec-462a-8f54-ed8b66f7a765.root",
        "T1_ES_PIC_Tape: davs://webdav-cms-tape.pic.es:8450/pnfs/pic.es/data/cms/store/mc/Run3Summer22NanoAODv12/NMSSM_XtoYHto4B_MX-2000_MY-1200_TuneCP5_13p6TeV_madgraph-pythia8/NANOAODSIM/130X_mcRun3_2022_realistic_v5-v2/2820000/6638738b-d2ec-462a-8f54-ed8b66f7a765.root"
    ],
    "cms:/store/mc/Run3Summer22NanoAODv12/NMSSM_XtoYHto4B_MX-2000_MY-1200_TuneCP5_13p6TeV_madgraph-pythia8/NANOAODSIM/130X_mcRun3_2022_realistic_v5-v2/2820000/85c4ff6f-907c-46f9-9e23-4e60252f90f4.root": [
        "T1_US_FNAL_Disk: davs://cmsdcadisk.fnal.gov:2880/dcache/uscmsdisk/store/mc/Run3Summer22NanoAODv12/NMSSM_XtoYHto4B_MX-2000_MY-1200_TuneCP5_13p6TeV_madgraph-pythia8/NANOAODSIM/130X_mcRun3_2022_realistic_v5-v2/2820000/85c4ff6f-907c-46f9-9e23-4e60252f90f4.root",
        "T1_FR_CCIN2P3_Disk: davs://ccdavcms.in2p3.fr:2880/disk/data/store/mc/Run3Summer22NanoAODv12/NMSSM_XtoYHto4B_MX-2000_MY-1200_TuneCP5_13p6TeV_madgraph-pythia8/NANOAODSIM/130X_mcRun3_2022_realistic_v5-v2/2820000/85c4ff6f-907c-46f9-9e23-4e60252f90f4.root",
        "T2_US_Florida: davs://cmsio2.rc.ufl.edu:1094/store/mc/Run3Summer22NanoAODv12/NMSSM_XtoYHto4B_MX-2000_MY-1200_TuneCP5_13p6TeV_madgraph-pythia8/NANOAODSIM/130X_mcRun3_2022_realistic_v5-v2/2820000/85c4ff6f-907c-46f9-9e23-4e60252f90f4.root",
        "T1_RU_JINR_Disk: davs://se-wbdv.jinr-t1.ru:2880/pnfs/jinr-t1.ru/data/cms/store/mc/Run3Summer22NanoAODv12/NMSSM_XtoYHto4B_MX-2000_MY-1200_TuneCP5_13p6TeV_madgraph-pythia8/NANOAODSIM/130X_mcRun3_2022_realistic_v5-v2/2820000/85c4ff6f-907c-46f9-9e23-4e60252f90f4.root",
        "T2_ES_CIEMAT: davs://srm.ciemat.es:2880/pnfs/ciemat.es/data/cms/prod/store/mc/Run3Summer22NanoAODv12/NMSSM_XtoYHto4B_MX-2000_MY-1200_TuneCP5_13p6TeV_madgraph-pythia8/NANOAODSIM/130X_mcRun3_2022_realistic_v5-v2/2820000/85c4ff6f-907c-46f9-9e23-4e60252f90f4.root",
        "T2_UK_London_IC: davs://gfe02.grid.hep.ph.ic.ac.uk:2880/pnfs/hep.ph.ic.ac.uk/data/cms/store/mc/Run3Summer22NanoAODv12/NMSSM_XtoYHto4B_MX-2000_MY-1200_TuneCP5_13p6TeV_madgraph-pythia8/NANOAODSIM/130X_mcRun3_2022_realistic_v5-v2/2820000/85c4ff6f-907c-46f9-9e23-4e60252f90f4.root",
        "T1_ES_PIC_Tape: davs://webdav-cms-tape.pic.es:8450/pnfs/pic.es/data/cms/store/mc/Run3Summer22NanoAODv12/NMSSM_XtoYHto4B_MX-2000_MY-1200_TuneCP5_13p6TeV_madgraph-pythia8/NANOAODSIM/130X_mcRun3_2022_realistic_v5-v2/2820000/85c4ff6f-907c-46f9-9e23-4e60252f90f4.root"
    ],
    "cms:/store/mc/Run3Summer22NanoAODv12/NMSSM_XtoYHto4B_MX-2000_MY-1200_TuneCP5_13p6TeV_madgraph-pythia8/NANOAODSIM/130X_mcRun3_2022_realistic_v5-v2/2820000/bfa7e9fc-32eb-480e-8e7f-930bf2979369.root": [
        "T1_US_FNAL_Disk: davs://cmsdcadisk.fnal.gov:2880/dcache/uscmsdisk/store/mc/Run3Summer22NanoAODv12/NMSSM_XtoYHto4B_MX-2000_MY-1200_TuneCP5_13p6TeV_madgraph-pythia8/NANOAODSIM/130X_mcRun3_2022_realistic_v5-v2/2820000/bfa7e9fc-32eb-480e-8e7f-930bf2979369.root",
        "T1_FR_CCIN2P3_Disk: davs://ccdavcms.in2p3.fr:2880/disk/data/store/mc/Run3Summer22NanoAODv12/NMSSM_XtoYHto4B_MX-2000_MY-1200_TuneCP5_13p6TeV_madgraph-pythia8/NANOAODSIM/130X_mcRun3_2022_realistic_v5-v2/2820000/bfa7e9fc-32eb-480e-8e7f-930bf2979369.root",
        "T2_US_Florida: davs://cmsio2.rc.ufl.edu:1094/store/mc/Run3Summer22NanoAODv12/NMSSM_XtoYHto4B_MX-2000_MY-1200_TuneCP5_13p6TeV_madgraph-pythia8/NANOAODSIM/130X_mcRun3_2022_realistic_v5-v2/2820000/bfa7e9fc-32eb-480e-8e7f-930bf2979369.root",
        "T1_RU_JINR_Disk: davs://se-wbdv.jinr-t1.ru:2880/pnfs/jinr-t1.ru/data/cms/store/mc/Run3Summer22NanoAODv12/NMSSM_XtoYHto4B_MX-2000_MY-1200_TuneCP5_13p6TeV_madgraph-pythia8/NANOAODSIM/130X_mcRun3_2022_realistic_v5-v2/2820000/bfa7e9fc-32eb-480e-8e7f-930bf2979369.root",
        "T2_ES_CIEMAT: davs://srm.ciemat.es:2880/pnfs/ciemat.es/data/cms/prod/store/mc/Run3Summer22NanoAODv12/NMSSM_XtoYHto4B_MX-2000_MY-1200_TuneCP5_13p6TeV_madgraph-pythia8/NANOAODSIM/130X_mcRun3_2022_realistic_v5-v2/2820000/bfa7e9fc-32eb-480e-8e7f-930bf2979369.root",
        "T2_UK_London_IC: davs://gfe02.grid.hep.ph.ic.ac.uk:2880/pnfs/hep.ph.ic.ac.uk/data/cms/store/mc/Run3Summer22NanoAODv12/NMSSM_XtoYHto4B_MX-2000_MY-1200_TuneCP5_13p6TeV_madgraph-pythia8/NANOAODSIM/130X_mcRun3_2022_realistic_v5-v2/2820000/bfa7e9fc-32eb-480e-8e7f-930bf2979369.root",
        "T1_ES_PIC_Tape: davs://webdav-cms-tape.pic.es:8450/pnfs/pic.es/data/cms/store/mc/Run3Summer22NanoAODv12/NMSSM_XtoYHto4B_MX-2000_MY-1200_TuneCP5_13p6TeV_madgraph-pythia8/NANOAODSIM/130X_mcRun3_2022_realistic_v5-v2/2820000/bfa7e9fc-32eb-480e-8e7f-930bf2979369.root"
    ],
    "cms:/store/mc/Run3Summer22NanoAODv12/NMSSM_XtoYHto4B_MX-2000_MY-1200_TuneCP5_13p6TeV_madgraph-pythia8/NANOAODSIM/130X_mcRun3_2022_realistic_v5-v2/2820000/456e92be-d106-4119-847a-dfdf90ad9745.root": [
        "T1_US_FNAL_Disk: davs://cmsdcadisk.fnal.gov:2880/dcache/uscmsdisk/store/mc/Run3Summer22NanoAODv12/NMSSM_XtoYHto4B_MX-2000_MY-1200_TuneCP5_13p6TeV_madgraph-pythia8/NANOAODSIM/130X_mcRun3_2022_realistic_v5-v2/2820000/456e92be-d106-4119-847a-dfdf90ad9745.root",
        "T1_FR_CCIN2P3_Disk: davs://ccdavcms.in2p3.fr:2880/disk/data/store/mc/Run3Summer22NanoAODv12/NMSSM_XtoYHto4B_MX-2000_MY-1200_TuneCP5_13p6TeV_madgraph-pythia8/NANOAODSIM/130X_mcRun3_2022_realistic_v5-v2/2820000/456e92be-d106-4119-847a-dfdf90ad9745.root",
        "T2_US_Florida: davs://cmsio2.rc.ufl.edu:1094/store/mc/Run3Summer22NanoAODv12/NMSSM_XtoYHto4B_MX-2000_MY-1200_TuneCP5_13p6TeV_madgraph-pythia8/NANOAODSIM/130X_mcRun3_2022_realistic_v5-v2/2820000/456e92be-d106-4119-847a-dfdf90ad9745.root",
        "T1_RU_JINR_Disk: davs://se-wbdv.jinr-t1.ru:2880/pnfs/jinr-t1.ru/data/cms/store/mc/Run3Summer22NanoAODv12/NMSSM_XtoYHto4B_MX-2000_MY-1200_TuneCP5_13p6TeV_madgraph-pythia8/NANOAODSIM/130X_mcRun3_2022_realistic_v5-v2/2820000/456e92be-d106-4119-847a-dfdf90ad9745.root",
        "T2_ES_CIEMAT: davs://srm.ciemat.es:2880/pnfs/ciemat.es/data/cms/prod/store/mc/Run3Summer22NanoAODv12/NMSSM_XtoYHto4B_MX-2000_MY-1200_TuneCP5_13p6TeV_madgraph-pythia8/NANOAODSIM/130X_mcRun3_2022_realistic_v5-v2/2820000/456e92be-d106-4119-847a-dfdf90ad9745.root",
        "T2_UK_London_IC: davs://gfe02.grid.hep.ph.ic.ac.uk:2880/pnfs/hep.ph.ic.ac.uk/data/cms/store/mc/Run3Summer22NanoAODv12/NMSSM_XtoYHto4B_MX-2000_MY-1200_TuneCP5_13p6TeV_madgraph-pythia8/NANOAODSIM/130X_mcRun3_2022_realistic_v5-v2/2820000/456e92be-d106-4119-847a-dfdf90ad9745.root",
        "T1_ES_PIC_Tape: davs://webdav-cms-tape.pic.es:8450/pnfs/pic.es/data/cms/store/mc/Run3Summer22NanoAODv12/NMSSM_XtoYHto4B_MX-2000_MY-1200_TuneCP5_13p6TeV_madgraph-pythia8/NANOAODSIM/130X_mcRun3_2022_realistic_v5-v2/2820000/456e92be-d106-4119-847a-dfdf90ad9745.root"
    ],
    "cms:/store/mc/Run3Summer22NanoAODv12/NMSSM_XtoYHto4B_MX-2000_MY-1200_TuneCP5_13p6TeV_madgraph-pythia8/NANOAODSIM/130X_mcRun3_2022_realistic_v5-v2/2820000/9a074446-370b-4d4e-9edd-9561e5492382.root": [
        "T1_US_FNAL_Disk: davs://cmsdcadisk.fnal.gov:2880/dcache/uscmsdisk/store/mc/Run3Summer22NanoAODv12/NMSSM_XtoYHto4B_MX-2000_MY-1200_TuneCP5_13p6TeV_madgraph-pythia8/NANOAODSIM/130X_mcRun3_2022_realistic_v5-v2/2820000/9a074446-370b-4d4e-9edd-9561e5492382.root",
        "T1_FR_CCIN2P3_Disk: davs://ccdavcms.in2p3.fr:2880/disk/data/store/mc/Run3Summer22NanoAODv12/NMSSM_XtoYHto4B_MX-2000_MY-1200_TuneCP5_13p6TeV_madgraph-pythia8/NANOAODSIM/130X_mcRun3_2022_realistic_v5-v2/2820000/9a074446-370b-4d4e-9edd-9561e5492382.root",
        "T2_US_Florida: davs://cmsio2.rc.ufl.edu:1094/store/mc/Run3Summer22NanoAODv12/NMSSM_XtoYHto4B_MX-2000_MY-1200_TuneCP5_13p6TeV_madgraph-pythia8/NANOAODSIM/130X_mcRun3_2022_realistic_v5-v2/2820000/9a074446-370b-4d4e-9edd-9561e5492382.root",
        "T1_RU_JINR_Disk: davs://se-wbdv.jinr-t1.ru:2880/pnfs/jinr-t1.ru/data/cms/store/mc/Run3Summer22NanoAODv12/NMSSM_XtoYHto4B_MX-2000_MY-1200_TuneCP5_13p6TeV_madgraph-pythia8/NANOAODSIM/130X_mcRun3_2022_realistic_v5-v2/2820000/9a074446-370b-4d4e-9edd-9561e5492382.root",
        "T2_ES_CIEMAT: davs://srm.ciemat.es:2880/pnfs/ciemat.es/data/cms/prod/store/mc/Run3Summer22NanoAODv12/NMSSM_XtoYHto4B_MX-2000_MY-1200_TuneCP5_13p6TeV_madgraph-pythia8/NANOAODSIM/130X_mcRun3_2022_realistic_v5-v2/2820000/9a074446-370b-4d4e-9edd-9561e5492382.root",
        "T2_UK_London_IC: davs://gfe02.grid.hep.ph.ic.ac.uk:2880/pnfs/hep.ph.ic.ac.uk/data/cms/store/mc/Run3Summer22NanoAODv12/NMSSM_XtoYHto4B_MX-2000_MY-1200_TuneCP5_13p6TeV_madgraph-pythia8/NANOAODSIM/130X_mcRun3_2022_realistic_v5-v2/2820000/9a074446-370b-4d4e-9edd-9561e5492382.root",
        "T1_ES_PIC_Tape: davs://webdav-cms-tape.pic.es:8450/pnfs/pic.es/data/cms/store/mc/Run3Summer22NanoAODv12/NMSSM_XtoYHto4B_MX-2000_MY-1200_TuneCP5_13p6TeV_madgraph-pythia8/NANOAODSIM/130X_mcRun3_2022_realistic_v5-v2/2820000/9a074446-370b-4d4e-9edd-9561e5492382.root"
    ],
    "cms:/store/mc/Run3Summer22NanoAODv12/NMSSM_XtoYHto4B_MX-2000_MY-1200_TuneCP5_13p6TeV_madgraph-pythia8/NANOAODSIM/130X_mcRun3_2022_realistic_v5-v2/2820000/a9811b9c-418c-4510-895e-e81a0370dfaf.root": [
        "T1_US_FNAL_Disk: davs://cmsdcadisk.fnal.gov:2880/dcache/uscmsdisk/store/mc/Run3Summer22NanoAODv12/NMSSM_XtoYHto4B_MX-2000_MY-1200_TuneCP5_13p6TeV_madgraph-pythia8/NANOAODSIM/130X_mcRun3_2022_realistic_v5-v2/2820000/a9811b9c-418c-4510-895e-e81a0370dfaf.root",
        "T1_FR_CCIN2P3_Disk: davs://ccdavcms.in2p3.fr:2880/disk/data/store/mc/Run3Summer22NanoAODv12/NMSSM_XtoYHto4B_MX-2000_MY-1200_TuneCP5_13p6TeV_madgraph-pythia8/NANOAODSIM/130X_mcRun3_2022_realistic_v5-v2/2820000/a9811b9c-418c-4510-895e-e81a0370dfaf.root",
        "T2_US_Florida: davs://cmsio2.rc.ufl.edu:1094/store/mc/Run3Summer22NanoAODv12/NMSSM_XtoYHto4B_MX-2000_MY-1200_TuneCP5_13p6TeV_madgraph-pythia8/NANOAODSIM/130X_mcRun3_2022_realistic_v5-v2/2820000/a9811b9c-418c-4510-895e-e81a0370dfaf.root",
        "T1_RU_JINR_Disk: davs://se-wbdv.jinr-t1.ru:2880/pnfs/jinr-t1.ru/data/cms/store/mc/Run3Summer22NanoAODv12/NMSSM_XtoYHto4B_MX-2000_MY-1200_TuneCP5_13p6TeV_madgraph-pythia8/NANOAODSIM/130X_mcRun3_2022_realistic_v5-v2/2820000/a9811b9c-418c-4510-895e-e81a0370dfaf.root",
        "T2_ES_CIEMAT: davs://srm.ciemat.es:2880/pnfs/ciemat.es/data/cms/prod/store/mc/Run3Summer22NanoAODv12/NMSSM_XtoYHto4B_MX-2000_MY-1200_TuneCP5_13p6TeV_madgraph-pythia8/NANOAODSIM/130X_mcRun3_2022_realistic_v5-v2/2820000/a9811b9c-418c-4510-895e-e81a0370dfaf.root",
        "T2_UK_London_IC: davs://gfe02.grid.hep.ph.ic.ac.uk:2880/pnfs/hep.ph.ic.ac.uk/data/cms/store/mc/Run3Summer22NanoAODv12/NMSSM_XtoYHto4B_MX-2000_MY-1200_TuneCP5_13p6TeV_madgraph-pythia8/NANOAODSIM/130X_mcRun3_2022_realistic_v5-v2/2820000/a9811b9c-418c-4510-895e-e81a0370dfaf.root",
        "T1_ES_PIC_Tape: davs://webdav-cms-tape.pic.es:8450/pnfs/pic.es/data/cms/store/mc/Run3Summer22NanoAODv12/NMSSM_XtoYHto4B_MX-2000_MY-1200_TuneCP5_13p6TeV_madgraph-pythia8/NANOAODSIM/130X_mcRun3_2022_realistic_v5-v2/2820000/a9811b9c-418c-4510-895e-e81a0370dfaf.root"
    ],
    "cms:/store/mc/Run3Summer22NanoAODv12/NMSSM_XtoYHto4B_MX-2000_MY-1200_TuneCP5_13p6TeV_madgraph-pythia8/NANOAODSIM/130X_mcRun3_2022_realistic_v5-v2/2820000/0c2211f2-e537-43a8-a6fd-f5dafa4105a2.root": [
        "T1_US_FNAL_Disk: davs://cmsdcadisk.fnal.gov:2880/dcache/uscmsdisk/store/mc/Run3Summer22NanoAODv12/NMSSM_XtoYHto4B_MX-2000_MY-1200_TuneCP5_13p6TeV_madgraph-pythia8/NANOAODSIM/130X_mcRun3_2022_realistic_v5-v2/2820000/0c2211f2-e537-43a8-a6fd-f5dafa4105a2.root",
        "T1_FR_CCIN2P3_Disk: davs://ccdavcms.in2p3.fr:2880/disk/data/store/mc/Run3Summer22NanoAODv12/NMSSM_XtoYHto4B_MX-2000_MY-1200_TuneCP5_13p6TeV_madgraph-pythia8/NANOAODSIM/130X_mcRun3_2022_realistic_v5-v2/2820000/0c2211f2-e537-43a8-a6fd-f5dafa4105a2.root",
        "T2_US_Florida: davs://cmsio2.rc.ufl.edu:1094/store/mc/Run3Summer22NanoAODv12/NMSSM_XtoYHto4B_MX-2000_MY-1200_TuneCP5_13p6TeV_madgraph-pythia8/NANOAODSIM/130X_mcRun3_2022_realistic_v5-v2/2820000/0c2211f2-e537-43a8-a6fd-f5dafa4105a2.root",
        "T1_RU_JINR_Disk: davs://se-wbdv.jinr-t1.ru:2880/pnfs/jinr-t1.ru/data/cms/store/mc/Run3Summer22NanoAODv12/NMSSM_XtoYHto4B_MX-2000_MY-1200_TuneCP5_13p6TeV_madgraph-pythia8/NANOAODSIM/130X_mcRun3_2022_realistic_v5-v2/2820000/0c2211f2-e537-43a8-a6fd-f5dafa4105a2.root",
        "T2_ES_CIEMAT: davs://srm.ciemat.es:2880/pnfs/ciemat.es/data/cms/prod/store/mc/Run3Summer22NanoAODv12/NMSSM_XtoYHto4B_MX-2000_MY-1200_TuneCP5_13p6TeV_madgraph-pythia8/NANOAODSIM/130X_mcRun3_2022_realistic_v5-v2/2820000/0c2211f2-e537-43a8-a6fd-f5dafa4105a2.root",
        "T2_UK_London_IC: davs://gfe02.grid.hep.ph.ic.ac.uk:2880/pnfs/hep.ph.ic.ac.uk/data/cms/store/mc/Run3Summer22NanoAODv12/NMSSM_XtoYHto4B_MX-2000_MY-1200_TuneCP5_13p6TeV_madgraph-pythia8/NANOAODSIM/130X_mcRun3_2022_realistic_v5-v2/2820000/0c2211f2-e537-43a8-a6fd-f5dafa4105a2.root",
        "T1_ES_PIC_Tape: davs://webdav-cms-tape.pic.es:8450/pnfs/pic.es/data/cms/store/mc/Run3Summer22NanoAODv12/NMSSM_XtoYHto4B_MX-2000_MY-1200_TuneCP5_13p6TeV_madgraph-pythia8/NANOAODSIM/130X_mcRun3_2022_realistic_v5-v2/2820000/0c2211f2-e537-43a8-a6fd-f5dafa4105a2.root"
    ],
    "cms:/store/mc/Run3Summer22NanoAODv12/NMSSM_XtoYHto4B_MX-2000_MY-1200_TuneCP5_13p6TeV_madgraph-pythia8/NANOAODSIM/130X_mcRun3_2022_realistic_v5-v2/2820000/9c6551d2-2599-4937-b2b7-58ae1b655596.root": [
        "T1_US_FNAL_Disk: davs://cmsdcadisk.fnal.gov:2880/dcache/uscmsdisk/store/mc/Run3Summer22NanoAODv12/NMSSM_XtoYHto4B_MX-2000_MY-1200_TuneCP5_13p6TeV_madgraph-pythia8/NANOAODSIM/130X_mcRun3_2022_realistic_v5-v2/2820000/9c6551d2-2599-4937-b2b7-58ae1b655596.root",
        "T1_FR_CCIN2P3_Disk: davs://ccdavcms.in2p3.fr:2880/disk/data/store/mc/Run3Summer22NanoAODv12/NMSSM_XtoYHto4B_MX-2000_MY-1200_TuneCP5_13p6TeV_madgraph-pythia8/NANOAODSIM/130X_mcRun3_2022_realistic_v5-v2/2820000/9c6551d2-2599-4937-b2b7-58ae1b655596.root",
        "T2_US_Florida: davs://cmsio2.rc.ufl.edu:1094/store/mc/Run3Summer22NanoAODv12/NMSSM_XtoYHto4B_MX-2000_MY-1200_TuneCP5_13p6TeV_madgraph-pythia8/NANOAODSIM/130X_mcRun3_2022_realistic_v5-v2/2820000/9c6551d2-2599-4937-b2b7-58ae1b655596.root",
        "T1_RU_JINR_Disk: davs://se-wbdv.jinr-t1.ru:2880/pnfs/jinr-t1.ru/data/cms/store/mc/Run3Summer22NanoAODv12/NMSSM_XtoYHto4B_MX-2000_MY-1200_TuneCP5_13p6TeV_madgraph-pythia8/NANOAODSIM/130X_mcRun3_2022_realistic_v5-v2/2820000/9c6551d2-2599-4937-b2b7-58ae1b655596.root",
        "T2_ES_CIEMAT: davs://srm.ciemat.es:2880/pnfs/ciemat.es/data/cms/prod/store/mc/Run3Summer22NanoAODv12/NMSSM_XtoYHto4B_MX-2000_MY-1200_TuneCP5_13p6TeV_madgraph-pythia8/NANOAODSIM/130X_mcRun3_2022_realistic_v5-v2/2820000/9c6551d2-2599-4937-b2b7-58ae1b655596.root",
        "T2_UK_London_IC: davs://gfe02.grid.hep.ph.ic.ac.uk:2880/pnfs/hep.ph.ic.ac.uk/data/cms/store/mc/Run3Summer22NanoAODv12/NMSSM_XtoYHto4B_MX-2000_MY-1200_TuneCP5_13p6TeV_madgraph-pythia8/NANOAODSIM/130X_mcRun3_2022_realistic_v5-v2/2820000/9c6551d2-2599-4937-b2b7-58ae1b655596.root",
        "T1_ES_PIC_Tape: davs://webdav-cms-tape.pic.es:8450/pnfs/pic.es/data/cms/store/mc/Run3Summer22NanoAODv12/NMSSM_XtoYHto4B_MX-2000_MY-1200_TuneCP5_13p6TeV_madgraph-pythia8/NANOAODSIM/130X_mcRun3_2022_realistic_v5-v2/2820000/9c6551d2-2599-4937-b2b7-58ae1b655596.root"
    ]
}