#/NMSSM_XtoYHto4B_MX-3500_MY-800_TuneCP5_13p6TeV_madgraph-pythia8/Run3Summer22NanoAODv12-130X_mcRun3_2022_realistic_v5-v2/NANOAODSIM
+----------------------------------------------------------------------------------------------------------------------------------------------------------------------------------------------------+--------+-------------+------------+----------+
| SCOPE:NAME                                                                                                                                                                                         | GUID   | ADLER32     | FILESIZE   | EVENTS   |
|----------------------------------------------------------------------------------------------------------------------------------------------------------------------------------------------------+--------+-------------+------------+----------|
| cms:/store/mc/Run3Summer22NanoAODv12/NMSSM_XtoYHto4B_MX-3500_MY-800_TuneCP5_13p6TeV_madgraph-pythia8/NANOAODSIM/130X_mcRun3_2022_realistic_v5-v2/2830000/4746a5c5-35df-4e10-ae04-051d6e3dbb8e.root | (None) | ad:f85bfdf0 | 16.847 MB  |          |
| cms:/store/mc/Run3Summer22NanoAODv12/NMSSM_XtoYHto4B_MX-3500_MY-800_TuneCP5_13p6TeV_madgraph-pythia8/NANOAODSIM/130X_mcRun3_2022_realistic_v5-v2/2830000/a4bd2bfb-3c7e-42e4-a42a-259fb7de7931.root | (None) | ad:089e4dc9 | 10.023 MB  |          |
| cms:/store/mc/Run3Summer22NanoAODv12/NMSSM_XtoYHto4B_MX-3500_MY-800_TuneCP5_13p6TeV_madgraph-pythia8/NANOAODSIM/130X_mcRun3_2022_realistic_v5-v2/2830000/372d77a6-008d-4448-9b20-e638b9fbe03e.root | (None) | ad:3405bb67 | 16.237 MB  |          |
| cms:/store/mc/Run3Summer22NanoAODv12/NMSSM_XtoYHto4B_MX-3500_MY-800_TuneCP5_13p6TeV_madgraph-pythia8/NANOAODSIM/130X_mcRun3_2022_realistic_v5-v2/2830000/8ea5cfdf-6aca-4410-af13-78f5b10b92b6.root | (None) | ad:c4a6bb6a | 10.039 MB  |          |
| cms:/store/mc/Run3Summer22NanoAODv12/NMSSM_XtoYHto4B_MX-3500_MY-800_TuneCP5_13p6TeV_madgraph-pythia8/NANOAODSIM/130X_mcRun3_2022_realistic_v5-v2/2830000/4540e063-166f-4523-b870-86b2883e5859.root | (None) | ad:dea26675 | 12.509 MB  |          |
| cms:/store/mc/Run3Summer22NanoAODv12/NMSSM_XtoYHto4B_MX-3500_MY-800_TuneCP5_13p6TeV_madgraph-pythia8/NANOAODSIM/130X_mcRun3_2022_realistic_v5-v2/2830000/4ff6589c-7de3-4891-b3f5-6a6d956917ea.root | (None) | ad:575c881f | 12.504 MB  |          |
| cms:/store/mc/Run3Summer22NanoAODv12/NMSSM_XtoYHto4B_MX-3500_MY-800_TuneCP5_13p6TeV_madgraph-pythia8/NANOAODSIM/130X_mcRun3_2022_realistic_v5-v2/2830000/174f6d03-80ee-4544-98c0-198711a534a3.root | (None) | ad:ec376676 | 5.203 MB   |          |
| cms:/store/mc/Run3Summer22NanoAODv12/NMSSM_XtoYHto4B_MX-3500_MY-800_TuneCP5_13p6TeV_madgraph-pythia8/NANOAODSIM/130X_mcRun3_2022_realistic_v5-v2/2830000/a811e482-5a08-4bfd-a2da-300858934e43.root | (None) | ad:70e52159 | 7.897 MB   |          |
| cms:/store/mc/Run3Summer22NanoAODv12/NMSSM_XtoYHto4B_MX-3500_MY-800_TuneCP5_13p6TeV_madgraph-pythia8/NANOAODSIM/130X_mcRun3_2022_realistic_v5-v2/2830000/82ce97fd-9f33-4596-94fc-9e51755f6c50.root | (None) | ad:c2abf58d | 5.210 MB   |          |
| cms:/store/mc/Run3Summer22NanoAODv12/NMSSM_XtoYHto4B_MX-3500_MY-800_TuneCP5_13p6TeV_madgraph-pythia8/NANOAODSIM/130X_mcRun3_2022_realistic_v5-v2/2830000/d72ac95f-c33e-4483-956a-a62ab4f587f2.root | (None) | ad:61a28b21 | 5.198 MB   |          |
| cms:/store/mc/Run3Summer22NanoAODv12/NMSSM_XtoYHto4B_MX-3500_MY-800_TuneCP5_13p6TeV_madgraph-pythia8/NANOAODSIM/130X_mcRun3_2022_realistic_v5-v2/2830000/e7bb6101-dbd1-4302-b7aa-47bc4a7f570c.root | (None) | ad:934c6908 | 7.888 MB   |          |
+----------------------------------------------------------------------------------------------------------------------------------------------------------------------------------------------------+--------+-------------+------------+----------+
Total files : 11
Total size : 109.556 MB
