#/NMSSM_XtoYHto4B_MX-4000_MY-2000_TuneCP5_13p6TeV_madgraph-pythia8/Run3Summer23NanoAODv12-130X_mcRun3_2023_realistic_v15-v3/NANOAODSIM
+------------------------------------------------------------------------------------------------------------------------------------------------------------------------------------------------------+--------+-------------+------------+----------+
| SCOPE:NAME                                                                                                                                                                                           | GUID   | ADLER32     | FILESIZE   | EVENTS   |
|------------------------------------------------------------------------------------------------------------------------------------------------------------------------------------------------------+--------+-------------+------------+----------|
| cms:/store/mc/Run3Summer23NanoAODv12/NMSSM_XtoYHto4B_MX-4000_MY-2000_TuneCP5_13p6TeV_madgraph-pythia8/NANOAODSIM/130X_mcRun3_2023_realistic_v15-v3/2820000/b3dbc5f2-84b9-4d57-95a4-3cb0bec02d2b.root | (None) | ad:882bd5dd | 56.184 MB  |          |
| cms:/store/mc/Run3Summer23NanoAODv12/NMSSM_XtoYHto4B_MX-4000_MY-2000_TuneCP5_13p6TeV_madgraph-pythia8/NANOAODSIM/130X_mcRun3_2023_realistic_v15-v3/2820000/9ee498b3-09d9-480f-9a47-0833885c0c1e.root | (None) | ad:21b5aad9 | 73.894 MB  |          |
| cms:/store/mc/Run3Summer23NanoAODv12/NMSSM_XtoYHto4B_MX-4000_MY-2000_TuneCP5_13p6TeV_madgraph-pythia8/NANOAODSIM/130X_mcRun3_2023_realistic_v15-v3/2820000/805301b9-237d-4cf1-94e2-7baec5f744b0.root | (None) | ad:683fc138 | 10.270 MB  |          |
| cms:/store/mc/Run3Summer23NanoAODv12/NMSSM_XtoYHto4B_MX-4000_MY-2000_TuneCP5_13p6TeV_madgraph-pythia8/NANOAODSIM/130X_mcRun3_2023_realistic_v15-v3/2820000/2bfca48f-f3b8-4274-a23b-53de628fb2df.root | (None) | ad:0970cee7 | 24.707 MB  |          |
| cms:/store/mc/Run3Summer23NanoAODv12/NMSSM_XtoYHto4B_MX-4000_MY-2000_TuneCP5_13p6TeV_madgraph-pythia8/NANOAODSIM/130X_mcRun3_2023_realistic_v15-v3/2820000/8002d2ad-8d0b-476b-be9a-44f440aa6781.root | (None) | ad:8e21d2e3 | 10.253 MB  |          |
| cms:/store/mc/Run3Summer23NanoAODv12/NMSSM_XtoYHto4B_MX-4000_MY-2000_TuneCP5_13p6TeV_madgraph-pythia8/NANOAODSIM/130X_mcRun3_2023_realistic_v15-v3/2820000/2611f596-1f1e-4bf6-bb56-51be4018f7eb.root | (None) | ad:86829b52 | 31.712 MB  |          |
| cms:/store/mc/Run3Summer23NanoAODv12/NMSSM_XtoYHto4B_MX-4000_MY-2000_TuneCP5_13p6TeV_madgraph-pythia8/NANOAODSIM/130X_mcRun3_2023_realistic_v15-v3/2820000/0e89375f-365a-4f18-9cd1-fcbc5050cac0.root | (None) | ad:42123d41 | 10.325 MB  |          |
| cms:/store/mc/Run3Summer23NanoAODv12/NMSSM_XtoYHto4B_MX-4000_MY-2000_TuneCP5_13p6TeV_madgraph-pythia8/NANOAODSIM/130X_mcRun3_2023_realistic_v15-v3/2820000/a40500ad-febe-4ce6-b658-31c5d475d454.root | (None) | ad:e0306217 | 17.485 MB  |          |
| cms:/store/mc/Run3Summer23NanoAODv12/NMSSM_XtoYHto4B_MX-4000_MY-2000_TuneCP5_13p6TeV_madgraph-pythia8/NANOAODSIM/130X_mcRun3_2023_realistic_v15-v3/2820000/2f9a6abf-6886-4429-bf2f-ab03717061d2.root | (None) | ad:6cd08058 | 17.496 MB  |          |
| cms:/store/mc/Run3Summer23NanoAODv12/NMSSM_XtoYHto4B_MX-4000_MY-2000_TuneCP5_13p6TeV_madgraph-pythia8/NANOAODSIM/130X_mcRun3_2023_realistic_v15-v3/2820000/49a17c8b-a3a1-4c9e-95a8-b5c467a82c81.root | (None) | ad:74c43a88 | 17.471 MB  |          |
+------------------------------------------------------------------------------------------------------------------------------------------------------------------------------------------------------+--------+-------------+------------+----------+
Total files : 10
Total size : 269.797 MB
