{
    "cms:/store/mc/Run3Summer22NanoAODv12/NMSSM_XtoYHto4B_MX-3500_MY-60_TuneCP5_13p6TeV_madgraph-pythia8/NANOAODSIM/130X_mcRun3_2022_realistic_v5-v2/2830000/a68c3821-51a5-4cc2-818a-e380e77957e4.root": [
        "T1_US_FNAL_Disk: davs://cmsdcadisk.fnal.gov:2880/dcache/uscmsdisk/store/mc/Run3Summer22NanoAODv12/NMSSM_XtoYHto4B_MX-3500_MY-60_TuneCP5_13p6TeV_madgraph-pythia8/NANOAODSIM/130X_mcRun3_2022_realistic_v5-v2/2830000/a68c3821-51a5-4cc2-818a-e380e77957e4.root",
        "T2_PL_Cyfronet: davs://eos01.grid.cyfronet.pl:8443/eos/cms/store/mc/Run3Summer22NanoAODv12/NMSSM_XtoYHto4B_MX-3500_MY-60_TuneCP5_13p6TeV_madgraph-pythia8/NANOAODSIM/130X_mcRun3_2022_realistic_v5-v2/2830000/a68c3821-51a5-4cc2-818a-e380e77957e4.root",
        "T2_IT_Bari: davs://webdav.recas.ba.infn.it:8443/cms/store/mc/Run3Summer22NanoAODv12/NMSSM_XtoYHto4B_MX-3500_MY-60_TuneCP5_13p6TeV_madgraph-pythia8/NANOAODSIM/130X_mcRun3_2022_realistic_v5-v2/2830000/a68c3821-51a5-4cc2-818a-e380e77957e4.root",
        "T1_ES_PIC_Disk: davs://webdav-cms.pic.es:8459/pnfs/pic.es/data/cms/disk/store/mc/Run3Summer22NanoAODv12/NMSSM_XtoYHto4B_MX-3500_MY-60_TuneCP5_13p6TeV_madgraph-pythia8/NANOAODSIM/130X_mcRun3_2022_realistic_v5-v2/2830000/a68c3821-51a5-4cc2-818a-e380e77957e4.root",
        "T2_US_Nebraska: davs://xrootd-local.unl.edu:1094/store/mc/Run3Summer22NanoAODv12/NMSSM_XtoYHto4B_MX-3500_MY-60_TuneCP5_13p6TeV_madgraph-pythia8/NANOAODSIM/130X_mcRun3_2022_realistic_v5-v2/2830000/a68c3821-51a5-4cc2-818a-e380e77957e4.root",
        "T2_UK_London_IC: davs://gfe02.grid.hep.ph.ic.ac.uk:2880/pnfs/hep.ph.ic.ac.uk/data/cms/store/mc/Run3Summer22NanoAODv12/NMSSM_XtoYHto4B_MX-3500_MY-60_TuneCP5_13p6TeV_madgraph-pythia8/NANOAODSIM/130X_mcRun3_2022_realistic_v5-v2/2830000/a68c3821-51a5-4cc2-818a-e380e77957e4.root",
        "T1_US_FNAL_Tape: davs://cmsdcatape.fnal.gov:2880/WAX/11/store/mc/Run3Summer22NanoAODv12/NMSSM_XtoYHto4B_MX-3500_MY-60_TuneCP5_13p6TeV_madgraph-pythia8/NANOAODSIM/130X_mcRun3_2022_realistic_v5-v2/2830000/a68c3821-51a5-4cc2-818a-e380e77957e4.root"
    ],
    "cms:/store/mc/Run3Summer22NanoAODv12/NMSSM_XtoYHto4B_MX-3500_MY-60_TuneCP5_13p6TeV_madgraph-pythia8/NANOAODSIM/130X_mcRun3_2022_realistic_v5-v2/2830000/06049e89-44ad-420c-9732-e66c336b032f.root": [
        "T1_US_FNAL_Disk: davs://cmsdcadisk.fnal.gov:2880/dcache/uscmsdisk/store/mc/Run3Summer22NanoAODv12/NMSSM_XtoYHto4B_MX-3500_MY-60_TuneCP5_13p6TeV_madgraph-pythia8/NANOAODSIM/130X_mcRun3_2022_realistic_v5-v2/2830000/06049e89-44ad-420c-9732-e66c336b032f.root",
        "T2_PL_Cyfronet: davs://eos01.grid.cyfronet.pl:8443/eos/cms/store/mc/Run3Summer22NanoAODv12/NMSSM_XtoYHto4B_MX-3500_MY-60_TuneCP5_13p6TeV_madgraph-pythia8/NANOAODSIM/130X_mcRun3_2022_realistic_v5-v2/2830000/06049e89-44ad-420c-9732-e66c336b032f.root",
        "T2_IT_Bari: davs://webdav.recas.ba.infn.it:8443/cms/store/mc/Run3Summer22NanoAODv12/NMSSM_XtoYHto4B_MX-3500_MY-60_TuneCP5_13p6TeV_madgraph-pythia8/NANOAODSIM/130X_mcRun3_2022_realistic_v5-v2/2830000/06049e89-44ad-420c-9732-e66c336b032f.root",
        "T1_ES_PIC_Disk: davs://webdav-cms.pic.es:8459/pnfs/pic.es/data/cms/disk/store/mc/Run3Summer22NanoAODv12/NMSSM_XtoYHto4B_MX-3500_MY-60_TuneCP5_13p6TeV_madgraph-pythia8/NANOAODSIM/130X_mcRun3_2022_realistic_v5-v2/2830000/06049e89-44ad-420c-9732-e66c336b032f.root",
        "T2_US_Nebraska: davs://xrootd-local.unl.edu:1094/store/mc/Run3Summer22NanoAODv12/NMSSM_XtoYHto4B_MX-3500_MY-60_TuneCP5_13p6TeV_madgraph-pythia8/NANOAODSIM/130X_mcRun3_2022_realistic_v5-v2/2830000/06049e89-44ad-420c-9732-e66c336b032f.root",
        "T2_UK_London_IC: davs://gfe02.grid.hep.ph.ic.ac.uk:2880/pnfs/hep.ph.ic.ac.uk/data/cms/store/mc/Run3Summer22NanoAODv12/NMSSM_XtoYHto4B_MX-3500_MY-60_TuneCP5_13p6TeV_madgraph-pythia8/NANOAODSIM/130X_mcRun3_2022_realistic_v5-v2/2830000/06049e89-44ad-420c-9732-e66c336b032f.root",
        "T1_US_FNAL_Tape: davs://cmsdcatape.fnal.gov:2880/WAX/11/store/mc/Run3Summer22NanoAODv12/NMSSM_XtoYHto4B_MX-3500_MY-60_TuneCP5_13p6TeV_madgraph-pythia8/NANOAODSIM/130X_mcRun3_2022_realistic_v5-v2/2830000/06049e89-44ad-420c-9732-e66c336b032f.root"
    ],
    "cms:/store/mc/Run3Summer22NanoAODv12/NMSSM_XtoYHto4B_MX-3500_MY-60_TuneCP5_13p6TeV_madgraph-pythia8/NANOAODSIM/130X_mcRun3_2022_realistic_v5-v2/2830000/f73541af-080e-4c13-8232-85aff0adbbb4.root": [
        "T1_US_FNAL_Disk: davs://cmsdcadisk.fnal.gov:2880/dcache/uscmsdisk/store/mc/Run3Summer22NanoAODv12/NMSSM_XtoYHto4B_MX-3500_MY-60_TuneCP5_13p6TeV_madgraph-pythia8/NANOAODSIM/130X_mcRun3_2022_realistic_v5-v2/2830000/f73541af-080e-4c13-8232-85aff0adbbb4.root",
        "T2_PL_Cyfronet: davs://eos01.grid.cyfronet.pl:8443/eos/cms/store/mc/Run3Summer22NanoAODv12/NMSSM_XtoYHto4B_MX-3500_MY-60_TuneCP5_13p6TeV_madgraph-pythia8/NANOAODSIM/130X_mcRun3_2022_realistic_v5-v2/2830000/f73541af-080e-4c13-8232-85aff0adbbb4.root",
        "T2_IT_Bari: davs://webdav.recas.ba.infn.it:8443/cms/store/mc/Run3Summer22NanoAODv12/NMSSM_XtoYHto4B_MX-3500_MY-60_TuneCP5_13p6TeV_madgraph-pythia8/NANOAODSIM/130X_mcRun3_2022_realistic_v5-v2/2830000/f73541af-080e-4c13-8232-85aff0adbbb4.root",
        "T1_ES_PIC_Disk: davs://webdav-cms.pic.es:8459/pnfs/pic.es/data/cms/disk/store/mc/Run3Summer22NanoAODv12/NMSSM_XtoYHto4B_MX-3500_MY-60_TuneCP5_13p6TeV_madgraph-pythia8/NANOAODSIM/130X_mcRun3_2022_realistic_v5-v2/2830000/f73541af-080e-4c13-8232-85aff0adbbb4.root",
        "T2_US_Nebraska: davs://xrootd-local.unl.edu:1094/store/mc/Run3Summer22NanoAODv12/NMSSM_XtoYHto4B_MX-3500_MY-60_TuneCP5_13p6TeV_madgraph-pythia8/NANOAODSIM/130X_mcRun3_2022_realistic_v5-v2/2830000/f73541af-080e-4c13-8232-85aff0adbbb4.root",
        "T2_UK_London_IC: davs://gfe02.grid.hep.ph.ic.ac.uk:2880/pnfs/hep.ph.ic.ac.uk/data/cms/store/mc/Run3Summer22NanoAODv12/NMSSM_XtoYHto4B_MX-3500_MY-60_TuneCP5_13p6TeV_madgraph-pythia8/NANOAODSIM/130X_mcRun3_2022_realistic_v5-v2/2830000/f73541af-080e-4c13-8232-85aff0adbbb4.root",
        "T1_US_FNAL_Tape: davs://cmsdcatape.fnal.gov:2880/WAX/11/store/mc/Run3Summer22NanoAODv12/NMSSM_XtoYHto4B_MX-3500_MY-60_TuneCP5_13p6TeV_madgraph-pythia8/NANOAODSIM/130X_mcRun3_2022_realistic_v5-v2/2830000/f73541af-080e-4c13-8232-85aff0adbbb4.root"
    ],
    "cms:/store/mc/Run3Summer22NanoAODv12/NMSSM_XtoYHto4B_MX-3500_MY-60_TuneCP5_13p6TeV_madgraph-pythia8/NANOAODSIM/130X_mcRun3_2022_realistic_v5-v2/2830000/d190094c-8034-4563-8d80-fdea330eb66d.root": [
        "T1_US_FNAL_Disk: davs://cmsdcadisk.fnal.gov:2880/dcache/uscmsdisk/store/mc/Run3Summer22NanoAODv12/NMSSM_XtoYHto4B_MX-3500_MY-60_TuneCP5_13p6TeV_madgraph-pythia8/NANOAODSIM/130X_mcRun3_2022_realistic_v5-v2/2830000/d190094c-8034-4563-8d80-fdea330eb66d.root",
        "T2_PL_Cyfronet: davs://eos01.grid.cyfronet.pl:8443/eos/cms/store/mc/Run3Summer22NanoAODv12/NMSSM_XtoYHto4B_MX-3500_MY-60_TuneCP5_13p6TeV_madgraph-pythia8/NANOAODSIM/130X_mcRun3_2022_realistic_v5-v2/2830000/d190094c-8034-4563-8d80-fdea330eb66d.root",
        "T2_IT_Bari: davs://webdav.recas.ba.infn.it:8443/cms/store/mc/Run3Summer22NanoAODv12/NMSSM_XtoYHto4B_MX-3500_MY-60_TuneCP5_13p6TeV_madgraph-pythia8/NANOAODSIM/130X_mcRun3_2022_realistic_v5-v2/2830000/d190094c-8034-4563-8d80-fdea330eb66d.root",
        "T1_ES_PIC_Disk: davs://webdav-cms.pic.es:8459/pnfs/pic.es/data/cms/disk/store/mc/Run3Summer22NanoAODv12/NMSSM_XtoYHto4B_MX-3500_MY-60_TuneCP5_13p6TeV_madgraph-pythia8/NANOAODSIM/130X_mcRun3_2022_realistic_v5-v2/2830000/d190094c-8034-4563-8d80-fdea330eb66d.root",
        "T2_US_Nebraska: davs://xrootd-local.unl.edu:1094/store/mc/Run3Summer22NanoAODv12/NMSSM_XtoYHto4B_MX-3500_MY-60_TuneCP5_13p6TeV_madgraph-pythia8/NANOAODSIM/130X_mcRun3_2022_realistic_v5-v2/2830000/d190094c-8034-4563-8d80-fdea330eb66d.root",
        "T2_UK_London_IC: davs://gfe02.grid.hep.ph.ic.ac.uk:2880/pnfs/hep.ph.ic.ac.uk/data/cms/store/mc/Run3Summer22NanoAODv12/NMSSM_XtoYHto4B_MX-3500_MY-60_TuneCP5_13p6TeV_madgraph-pythia8/NANOAODSIM/130X_mcRun3_2022_realistic_v5-v2/2830000/d190094c-8034-4563-8d80-fdea330eb66d.root",
        "T1_US_FNAL_Tape: davs://cmsdcatape.fnal.gov:2880/WAX/11/store/mc/Run3Summer22NanoAODv12/NMSSM_XtoYHto4B_MX-3500_MY-60_TuneCP5_13p6TeV_madgraph-pythia8/NANOAODSIM/130X_mcRun3_2022_realistic_v5-v2/2830000/d190094c-8034-4563-8d80-fdea330eb66d.root"
    ],
    "cms:/store/mc/Run3Summer22NanoAODv12/NMSSM_XtoYHto4B_MX-3500_MY-60_TuneCP5_13p6TeV_madgraph-pythia8/NANOAODSIM/130X_mcRun3_2022_realistic_v5-v2/2830000/113f3a45-5961-4339-90d6-34115bf25d2f.root": [
        "T1_US_FNAL_Disk: davs://cmsdcadisk.fnal.gov:2880/dcache/uscmsdisk/store/mc/Run3Summer22NanoAODv12/NMSSM_XtoYHto4B_MX-3500_MY-60_TuneCP5_13p6TeV_madgraph-pythia8/NANOAODSIM/130X_mcRun3_2022_realistic_v5-v2/2830000/113f3a45-5961-4339-90d6-34115bf25d2f.root",
        "T2_PL_Cyfronet: davs://eos01.grid.cyfronet.pl:8443/eos/cms/store/mc/Run3Summer22NanoAODv12/NMSSM_XtoYHto4B_MX-3500_MY-60_TuneCP5_13p6TeV_madgraph-pythia8/NANOAODSIM/130X_mcRun3_2022_realistic_v5-v2/2830000/113f3a45-5961-4339-90d6-34115bf25d2f.root",
        "T2_IT_Bari: davs://webdav.recas.ba.infn.it:8443/cms/store/mc/Run3Summer22NanoAODv12/NMSSM_XtoYHto4B_MX-3500_MY-60_TuneCP5_13p6TeV_madgraph-pythia8/NANOAODSIM/130X_mcRun3_2022_realistic_v5-v2/2830000/113f3a45-5961-4339-90d6-34115bf25d2f.root",
        "T1_ES_PIC_Disk: davs://webdav-cms.pic.es:8459/pnfs/pic.es/data/cms/disk/store/mc/Run3Summer22NanoAODv12/NMSSM_XtoYHto4B_MX-3500_MY-60_TuneCP5_13p6TeV_madgraph-pythia8/NANOAODSIM/130X_mcRun3_2022_realistic_v5-v2/2830000/113f3a45-5961-4339-90d6-34115bf25d2f.root",
        "T2_US_Nebraska: davs://xrootd-local.unl.edu:1094/store/mc/Run3Summer22NanoAODv12/NMSSM_XtoYHto4B_MX-3500_MY-60_TuneCP5_13p6TeV_madgraph-pythia8/NANOAODSIM/130X_mcRun3_2022_realistic_v5-v2/2830000/113f3a45-5961-4339-90d6-34115bf25d2f.root",
        "T2_UK_London_IC: davs://gfe02.grid.hep.ph.ic.ac.uk:2880/pnfs/hep.ph.ic.ac.uk/data/cms/store/mc/Run3Summer22NanoAODv12/NMSSM_XtoYHto4B_MX-3500_MY-60_TuneCP5_13p6TeV_madgraph-pythia8/NANOAODSIM/130X_mcRun3_2022_realistic_v5-v2/2830000/113f3a45-5961-4339-90d6-34115bf25d2f.root",
        "T1_US_FNAL_Tape: davs://cmsdcatape.fnal.gov:2880/WAX/11/store/mc/Run3Summer22NanoAODv12/NMSSM_XtoYHto4B_MX-3500_MY-60_TuneCP5_13p6TeV_madgraph-pythia8/NANOAODSIM/130X_mcRun3_2022_realistic_v5-v2/2830000/113f3a45-5961-4339-90d6-34115bf25d2f.root"
    ],
    "cms:/store/mc/Run3Summer22NanoAODv12/NMSSM_XtoYHto4B_MX-3500_MY-60_TuneCP5_13p6TeV_madgraph-pythia8/NANOAODSIM/130X_mcRun3_2022_realistic_v5-v2/2830000/f0fe7477-5aca-4415-8caf-18a9cbb1d9a4.root": [
        "T1_US_FNAL_Disk: davs://cmsdcadisk.fnal.gov:2880/dcache/uscmsdisk/store/mc/Run3Summer22NanoAODv12/NMSSM_XtoYHto4B_MX-3500_MY-60_TuneCP5_13p6TeV_madgraph-pythia8/NANOAODSIM/130X_mcRun3_2022_realistic_v5-v2/2830000/f0fe7477-5aca-4415-8caf-18a9cbb1d9a4.root",
        "T2_PL_Cyfronet: davs://eos01.grid.cyfronet.pl:8443/eos/cms/store/mc/Run3Summer22NanoAODv12/NMSSM_XtoYHto4B_MX-3500_MY-60_TuneCP5_13p6TeV_madgraph-pythia8/NANOAODSIM/130X_mcRun3_2022_realistic_v5-v2/2830000/f0fe7477-5aca-4415-8caf-18a9cbb1d9a4.root",
        "T2_IT_Bari: davs://webdav.recas.ba.infn.it:8443/cms/store/mc/Run3Summer22NanoAODv12/NMSSM_XtoYHto4B_MX-3500_MY-60_TuneCP5_13p6TeV_madgraph-pythia8/NANOAODSIM/130X_mcRun3_2022_realistic_v5-v2/2830000/f0fe7477-5aca-4415-8caf-18a9cbb1d9a4.root",
        "T1_ES_PIC_Disk: davs://webdav-cms.pic.es:8459/pnfs/pic.es/data/cms/disk/store/mc/Run3Summer22NanoAODv12/NMSSM_XtoYHto4B_MX-3500_MY-60_TuneCP5_13p6TeV_madgraph-pythia8/NANOAODSIM/130X_mcRun3_2022_realistic_v5-v2/2830000/f0fe7477-5aca-4415-8caf-18a9cbb1d9a4.root",
        "T2_US_Nebraska: davs://xrootd-local.unl.edu:1094/store/mc/Run3Summer22NanoAODv12/NMSSM_XtoYHto4B_MX-3500_MY-60_TuneCP5_13p6TeV_madgraph-pythia8/NANOAODSIM/130X_mcRun3_2022_realistic_v5-v2/2830000/f0fe7477-5aca-4415-8caf-18a9cbb1d9a4.root",
        "T2_UK_London_IC: davs://gfe02.grid.hep.ph.ic.ac.uk:2880/pnfs/hep.ph.ic.ac.uk/data/cms/store/mc/Run3Summer22NanoAODv12/NMSSM_XtoYHto4B_MX-3500_MY-60_TuneCP5_13p6TeV_madgraph-pythia8/NANOAODSIM/130X_mcRun3_2022_realistic_v5-v2/2830000/f0fe7477-5aca-4415-8caf-18a9cbb1d9a4.root",
        "T1_US_FNAL_Tape: davs://cmsdcatape.fnal.gov:2880/WAX/11/store/mc/Run3Summer22NanoAODv12/NMSSM_XtoYHto4B_MX-3500_MY-60_TuneCP5_13p6TeV_madgraph-pythia8/NANOAODSIM/130X_mcRun3_2022_realistic_v5-v2/2830000/f0fe7477-5aca-4415-8caf-18a9cbb1d9a4.root"
    ],
    "cms:/store/mc/Run3Summer22NanoAODv12/NMSSM_XtoYHto4B_MX-3500_MY-60_TuneCP5_13p6TeV_madgraph-pythia8/NANOAODSIM/130X_mcRun3_2022_realistic_v5-v2/2830000/082c15a0-20d4-4429-9dad-13043c429ef2.root": [
        "T1_US_FNAL_Disk: davs://cmsdcadisk.fnal.gov:2880/dcache/uscmsdisk/store/mc/Run3Summer22NanoAODv12/NMSSM_XtoYHto4B_MX-3500_MY-60_TuneCP5_13p6TeV_madgraph-pythia8/NANOAODSIM/130X_mcRun3_2022_realistic_v5-v2/2830000/082c15a0-20d4-4429-9dad-13043c429ef2.root",
        "T2_PL_Cyfronet: davs://eos01.grid.cyfronet.pl:8443/eos/cms/store/mc/Run3Summer22NanoAODv12/NMSSM_XtoYHto4B_MX-3500_MY-60_TuneCP5_13p6TeV_madgraph-pythia8/NANOAODSIM/130X_mcRun3_2022_realistic_v5-v2/2830000/082c15a0-20d4-4429-9dad-13043c429ef2.root",
        "T2_IT_Bari: davs://webdav.recas.ba.infn.it:8443/cms/store/mc/Run3Summer22NanoAODv12/NMSSM_XtoYHto4B_MX-3500_MY-60_TuneCP5_13p6TeV_madgraph-pythia8/NANOAODSIM/130X_mcRun3_2022_realistic_v5-v2/2830000/082c15a0-20d4-4429-9dad-13043c429ef2.root",
        "T1_ES_PIC_Disk: davs://webdav-cms.pic.es:8459/pnfs/pic.es/data/cms/disk/store/mc/Run3Summer22NanoAODv12/NMSSM_XtoYHto4B_MX-3500_MY-60_TuneCP5_13p6TeV_madgraph-pythia8/NANOAODSIM/130X_mcRun3_2022_realistic_v5-v2/2830000/082c15a0-20d4-4429-9dad-13043c429ef2.root",
        "T2_US_Nebraska: davs://xrootd-local.unl.edu:1094/store/mc/Run3Summer22NanoAODv12/NMSSM_XtoYHto4B_MX-3500_MY-60_TuneCP5_13p6TeV_madgraph-pythia8/NANOAODSIM/130X_mcRun3_2022_realistic_v5-v2/2830000/082c15a0-20d4-4429-9dad-13043c429ef2.root",
        "T1_RU_JINR_Disk: davs://se-wbdv.jinr-t1.ru:2880/pnfs/jinr-t1.ru/data/cms/store/mc/Run3Summer22NanoAODv12/NMSSM_XtoYHto4B_MX-3500_MY-60_TuneCP5_13p6TeV_madgraph-pythia8/NANOAODSIM/130X_mcRun3_2022_realistic_v5-v2/2830000/082c15a0-20d4-4429-9dad-13043c429ef2.root",
        "T2_UK_London_IC: davs://gfe02.grid.hep.ph.ic.ac.uk:2880/pnfs/hep.ph.ic.ac.uk/data/cms/store/mc/Run3Summer22NanoAODv12/NMSSM_XtoYHto4B_MX-3500_MY-60_TuneCP5_13p6TeV_madgraph-pythia8/NANOAODSIM/130X_mcRun3_2022_realistic_v5-v2/2830000/082c15a0-20d4-4429-9dad-13043c429ef2.root",
        "T1_US_FNAL_Tape: davs://cmsdcatape.fnal.gov:2880/WAX/11/store/mc/Run3Summer22NanoAODv12/NMSSM_XtoYHto4B_MX-3500_MY-60_TuneCP5_13p6TeV_madgraph-pythia8/NANOAODSIM/130X_mcRun3_2022_realistic_v5-v2/2830000/082c15a0-20d4-4429-9dad-13043c429ef2.root"
    ],
    "cms:/store/mc/Run3Summer22NanoAODv12/NMSSM_XtoYHto4B_MX-3500_MY-60_TuneCP5_13p6TeV_madgraph-pythia8/NANOAODSIM/130X_mcRun3_2022_realistic_v5-v2/2830000/b52b1323-e40a-441e-b55b-8f7bc79a7431.root": [
        "T1_US_FNAL_Disk: davs://cmsdcadisk.fnal.gov:2880/dcache/uscmsdisk/store/mc/Run3Summer22NanoAODv12/NMSSM_XtoYHto4B_MX-3500_MY-60_TuneCP5_13p6TeV_madgraph-pythia8/NANOAODSIM/130X_mcRun3_2022_realistic_v5-v2/2830000/b52b1323-e40a-441e-b55b-8f7bc79a7431.root",
        "T2_PL_Cyfronet: davs://eos01.grid.cyfronet.pl:8443/eos/cms/store/mc/Run3Summer22NanoAODv12/NMSSM_XtoYHto4B_MX-3500_MY-60_TuneCP5_13p6TeV_madgraph-pythia8/NANOAODSIM/130X_mcRun3_2022_realistic_v5-v2/2830000/b52b1323-e40a-441e-b55b-8f7bc79a7431.root",
        "T2_IT_Bari: davs://webdav.recas.ba.infn.it:8443/cms/store/mc/Run3Summer22NanoAODv12/NMSSM_XtoYHto4B_MX-3500_MY-60_TuneCP5_13p6TeV_madgraph-pythia8/NANOAODSIM/130X_mcRun3_2022_realistic_v5-v2/2830000/b52b1323-e40a-441e-b55b-8f7bc79a7431.root",
        "T1_ES_PIC_Disk: davs://webdav-cms.pic.es:8459/pnfs/pic.es/data/cms/disk/store/mc/Run3Summer22NanoAODv12/NMSSM_XtoYHto4B_MX-3500_MY-60_TuneCP5_13p6TeV_madgraph-pythia8/NANOAODSIM/130X_mcRun3_2022_realistic_v5-v2/2830000/b52b1323-e40a-441e-b55b-8f7bc79a7431.root",
        "T2_US_Nebraska: davs://xrootd-local.unl.edu:1094/store/mc/Run3Summer22NanoAODv12/NMSSM_XtoYHto4B_MX-3500_MY-60_TuneCP5_13p6TeV_madgraph-pythia8/NANOAODSIM/130X_mcRun3_2022_realistic_v5-v2/2830000/b52b1323-e40a-441e-b55b-8f7bc79a7431.root",
        "T2_UK_London_IC: davs://gfe02.grid.hep.ph.ic.ac.uk:2880/pnfs/hep.ph.ic.ac.uk/data/cms/store/mc/Run3Summer22NanoAODv12/NMSSM_XtoYHto4B_MX-3500_MY-60_TuneCP5_13p6TeV_madgraph-pythia8/NANOAODSIM/130X_mcRun3_2022_realistic_v5-v2/2830000/b52b1323-e40a-441e-b55b-8f7bc79a7431.root",
        "T1_US_FNAL_Tape: davs://cmsdcatape.fnal.gov:2880/WAX/11/store/mc/Run3Summer22NanoAODv12/NMSSM_XtoYHto4B_MX-3500_MY-60_TuneCP5_13p6TeV_madgraph-pythia8/NANOAODSIM/130X_mcRun3_2022_realistic_v5-v2/2830000/b52b1323-e40a-441e-b55b-8f7bc79a7431.root"
    ],
    "cms:/store/mc/Run3Summer22NanoAODv12/NMSSM_XtoYHto4B_MX-3500_MY-60_TuneCP5_13p6TeV_madgraph-pythia8/NANOAODSIM/130X_mcRun3_2022_realistic_v5-v2/2830000/6e438008-71dd-48ca-85fc-9a2df8458a54.root": [
        "T1_US_FNAL_Disk: davs://cmsdcadisk.fnal.gov:2880/dcache/uscmsdisk/store/mc/Run3Summer22NanoAODv12/NMSSM_XtoYHto4B_MX-3500_MY-60_TuneCP5_13p6TeV_madgraph-pythia8/NANOAODSIM/130X_mcRun3_2022_realistic_v5-v2/2830000/6e438008-71dd-48ca-85fc-9a2df8458a54.root",
        "T2_PL_Cyfronet: davs://eos01.grid.cyfronet.pl:8443/eos/cms/store/mc/Run3Summer22NanoAODv12/NMSSM_XtoYHto4B_MX-3500_MY-60_TuneCP5_13p6TeV_madgraph-pythia8/NANOAODSIM/130X_mcRun3_2022_realistic_v5-v2/2830000/6e438008-71dd-48ca-85fc-9a2df8458a54.root",
        "T2_IT_Bari: davs://webdav.recas.ba.infn.it:8443/cms/store/mc/Run3Summer22NanoAODv12/NMSSM_XtoYHto4B_MX-3500_MY-60_TuneCP5_13p6TeV_madgraph-pythia8/NANOAODSIM/130X_mcRun3_2022_realistic_v5-v2/2830000/6e438008-71dd-48ca-85fc-9a2df8458a54.root",
        "T1_ES_PIC_Disk: davs://webdav-cms.pic.es:8459/pnfs/pic.es/data/cms/disk/store/mc/Run3Summer22NanoAODv12/NMSSM_XtoYHto4B_MX-3500_MY-60_TuneCP5_13p6TeV_madgraph-pythia8/NANOAODSIM/130X_mcRun3_2022_realistic_v5-v2/2830000/6e438008-71dd-48ca-85fc-9a2df8458a54.root",
        "T2_US_Nebraska: davs://xrootd-local.unl.edu:1094/store/mc/Run3Summer22NanoAODv12/NMSSM_XtoYHto4B_MX-3500_MY-60_TuneCP5_13p6TeV_madgraph-pythia8/NANOAODSIM/130X_mcRun3_2022_realistic_v5-v2/2830000/6e438008-71dd-48ca-85fc-9a2df8458a54.root",
        "T2_UK_London_IC: davs://gfe02.grid.hep.ph.ic.ac.uk:2880/pnfs/hep.ph.ic.ac.uk/data/cms/store/mc/Run3Summer22NanoAODv12/NMSSM_XtoYHto4B_MX-3500_MY-60_TuneCP5_13p6TeV_madgraph-pythia8/NANOAODSIM/130X_mcRun3_2022_realistic_v5-v2/2830000/6e438008-71dd-48ca-85fc-9a2df8458a54.root",
        "T1_US_FNAL_Tape: davs://cmsdcatape.fnal.gov:2880/WAX/11/store/mc/Run3Summer22NanoAODv12/NMSSM_XtoYHto4B_MX-3500_MY-60_TuneCP5_13p6TeV_madgraph-pythia8/NANOAODSIM/130X_mcRun3_2022_realistic_v5-v2/2830000/6e438008-71dd-48ca-85fc-9a2df8458a54.root"
    ],
    "cms:/store/mc/Run3Summer22NanoAODv12/NMSSM_XtoYHto4B_MX-3500_MY-60_TuneCP5_13p6TeV_madgraph-pythia8/NANOAODSIM/130X_mcRun3_2022_realistic_v5-v2/2830000/c2233ee2-999a-4f7a-8266-1164346476b8.root": [
        "T1_US_FNAL_Disk: davs://cmsdcadisk.fnal.gov:2880/dcache/uscmsdisk/store/mc/Run3Summer22NanoAODv12/NMSSM_XtoYHto4B_MX-3500_MY-60_TuneCP5_13p6TeV_madgraph-pythia8/NANOAODSIM/130X_mcRun3_2022_realistic_v5-v2/2830000/c2233ee2-999a-4f7a-8266-1164346476b8.root",
        "T2_PL_Cyfronet: davs://eos01.grid.cyfronet.pl:8443/eos/cms/store/mc/Run3Summer22NanoAODv12/NMSSM_XtoYHto4B_MX-3500_MY-60_TuneCP5_13p6TeV_madgraph-pythia8/NANOAODSIM/130X_mcRun3_2022_realistic_v5-v2/2830000/c2233ee2-999a-4f7a-8266-1164346476b8.root",
        "T2_IT_Bari: davs://webdav.recas.ba.infn.it:8443/cms/store/mc/Run3Summer22NanoAODv12/NMSSM_XtoYHto4B_MX-3500_MY-60_TuneCP5_13p6TeV_madgraph-pythia8/NANOAODSIM/130X_mcRun3_2022_realistic_v5-v2/2830000/c2233ee2-999a-4f7a-8266-1164346476b8.root",
        "T1_ES_PIC_Disk: davs://webdav-cms.pic.es:8459/pnfs/pic.es/data/cms/disk/store/mc/Run3Summer22NanoAODv12/NMSSM_XtoYHto4B_MX-3500_MY-60_TuneCP5_13p6TeV_madgraph-pythia8/NANOAODSIM/130X_mcRun3_2022_realistic_v5-v2/2830000/c2233ee2-999a-4f7a-8266-1164346476b8.root",
        "T2_US_Nebraska: davs://xrootd-local.unl.edu:1094/store/mc/Run3Summer22NanoAODv12/NMSSM_XtoYHto4B_MX-3500_MY-60_TuneCP5_13p6TeV_madgraph-pythia8/NANOAODSIM/130X_mcRun3_2022_realistic_v5-v2/2830000/c2233ee2-999a-4f7a-8266-1164346476b8.root",
        "T2_UK_London_IC: davs://gfe02.grid.hep.ph.ic.ac.uk:2880/pnfs/hep.ph.ic.ac.uk/data/cms/store/mc/Run3Summer22NanoAODv12/NMSSM_XtoYHto4B_MX-3500_MY-60_TuneCP5_13p6TeV_madgraph-pythia8/NANOAODSIM/130X_mcRun3_2022_realistic_v5-v2/2830000/c2233ee2-999a-4f7a-8266-1164346476b8.root",
        "T1_US_FNAL_Tape: davs://cmsdcatape.fnal.gov:2880/WAX/11/store/mc/Run3Summer22NanoAODv12/NMSSM_XtoYHto4B_MX-3500_MY-60_TuneCP5_13p6TeV_madgraph-pythia8/NANOAODSIM/130X_mcRun3_2022_realistic_v5-v2/2830000/c2233ee2-999a-4f7a-8266-1164346476b8.root"
    ],
    "cms:/store/mc/Run3Summer22NanoAODv12/NMSSM_XtoYHto4B_MX-3500_MY-60_TuneCP5_13p6TeV_madgraph-pythia8/NANOAODSIM/130X_mcRun3_2022_realistic_v5-v2/2830000/c8ead5e0-218e-4ea3-a8d2-b2d0cd141cce.root": [
        "T1_US_FNAL_Disk: davs://cmsdcadisk.fnal.gov:2880/dcache/uscmsdisk/store/mc/Run3Summer22NanoAODv12/NMSSM_XtoYHto4B_MX-3500_MY-60_TuneCP5_13p6TeV_madgraph-pythia8/NANOAODSIM/130X_mcRun3_2022_realistic_v5-v2/2830000/c8ead5e0-218e-4ea3-a8d2-b2d0cd141cce.root",
        "T2_PL_Cyfronet: davs://eos01.grid.cyfronet.pl:8443/eos/cms/store/mc/Run3Summer22NanoAODv12/NMSSM_XtoYHto4B_MX-3500_MY-60_TuneCP5_13p6TeV_madgraph-pythia8/NANOAODSIM/130X_mcRun3_2022_realistic_v5-v2/2830000/c8ead5e0-218e-4ea3-a8d2-b2d0cd141cce.root",
        "T2_IT_Bari: davs://webdav.recas.ba.infn.it:8443/cms/store/mc/Run3Summer22NanoAODv12/NMSSM_XtoYHto4B_MX-3500_MY-60_TuneCP5_13p6TeV_madgraph-pythia8/NANOAODSIM/130X_mcRun3_2022_realistic_v5-v2/2830000/c8ead5e0-218e-4ea3-a8d2-b2d0cd141cce.root",
        "T1_ES_PIC_Disk: davs://webdav-cms.pic.es:8459/pnfs/pic.es/data/cms/disk/store/mc/Run3Summer22NanoAODv12/NMSSM_XtoYHto4B_MX-3500_MY-60_TuneCP5_13p6TeV_madgraph-pythia8/NANOAODSIM/130X_mcRun3_2022_realistic_v5-v2/2830000/c8ead5e0-218e-4ea3-a8d2-b2d0cd141cce.root",
        "T2_US_Nebraska: davs://xrootd-local.unl.edu:1094/store/mc/Run3Summer22NanoAODv12/NMSSM_XtoYHto4B_MX-3500_MY-60_TuneCP5_13p6TeV_madgraph-pythia8/NANOAODSIM/130X_mcRun3_2022_realistic_v5-v2/2830000/c8ead5e0-218e-4ea3-a8d2-b2d0cd141cce.root",
        "T2_IT_Rome: davs://cmsrm-xrootd01.roma1.infn.it:2880//mc/Run3Summer22NanoAODv12/NMSSM_XtoYHto4B_MX-3500_MY-60_TuneCP5_13p6TeV_madgraph-pythia8/NANOAODSIM/130X_mcRun3_2022_realistic_v5-v2/2830000/c8ead5e0-218e-4ea3-a8d2-b2d0cd141cce.root",
        "T2_UK_London_IC: davs://gfe02.grid.hep.ph.ic.ac.uk:2880/pnfs/hep.ph.ic.ac.uk/data/cms/store/mc/Run3Summer22NanoAODv12/NMSSM_XtoYHto4B_MX-3500_MY-60_TuneCP5_13p6TeV_madgraph-pythia8/NANOAODSIM/130X_mcRun3_2022_realistic_v5-v2/2830000/c8ead5e0-218e-4ea3-a8d2-b2d0cd141cce.root",
        "T1_US_FNAL_Tape: davs://cmsdcatape.fnal.gov:2880/WAX/11/store/mc/Run3Summer22NanoAODv12/NMSSM_XtoYHto4B_MX-3500_MY-60_TuneCP5_13p6TeV_madgraph-pythia8/NANOAODSIM/130X_mcRun3_2022_realistic_v5-v2/2830000/c8ead5e0-218e-4ea3-a8d2-b2d0cd141cce.root"
    ],
    "cms:/store/mc/Run3Summer22NanoAODv12/NMSSM_XtoYHto4B_MX-3500_MY-60_TuneCP5_13p6TeV_madgraph-pythia8/NANOAODSIM/130X_mcRun3_2022_realistic_v5-v2/2830000/19a10029-46b7-40db-96c9-be974fa34841.root": [
        "T1_US_FNAL_Disk: davs://cmsdcadisk.fnal.gov:2880/dcache/uscmsdisk/store/mc/Run3Summer22NanoAODv12/NMSSM_XtoYHto4B_MX-3500_MY-60_TuneCP5_13p6TeV_madgraph-pythia8/NANOAODSIM/130X_mcRun3_2022_realistic_v5-v2/2830000/19a10029-46b7-40db-96c9-be974fa34841.root",
        "T2_PL_Cyfronet: davs://eos01.grid.cyfronet.pl:8443/eos/cms/store/mc/Run3Summer22NanoAODv12/NMSSM_XtoYHto4B_MX-3500_MY-60_TuneCP5_13p6TeV_madgraph-pythia8/NANOAODSIM/130X_mcRun3_2022_realistic_v5-v2/2830000/19a10029-46b7-40db-96c9-be974fa34841.root",
        "T2_IT_Bari: davs://webdav.recas.ba.infn.it:8443/cms/store/mc/Run3Summer22NanoAODv12/NMSSM_XtoYHto4B_MX-3500_MY-60_TuneCP5_13p6TeV_madgraph-pythia8/NANOAODSIM/130X_mcRun3_2022_realistic_v5-v2/2830000/19a10029-46b7-40db-96c9-be974fa34841.root",
        "T1_ES_PIC_Disk: davs://webdav-cms.pic.es:8459/pnfs/pic.es/data/cms/disk/store/mc/Run3Summer22NanoAODv12/NMSSM_XtoYHto4B_MX-3500_MY-60_TuneCP5_13p6TeV_madgraph-pythia8/NANOAODSIM/130X_mcRun3_2022_realistic_v5-v2/2830000/19a10029-46b7-40db-96c9-be974fa34841.root",
        "T2_US_Nebraska: davs://xrootd-local.unl.edu:1094/store/mc/Run3Summer22NanoAODv12/NMSSM_XtoYHto4B_MX-3500_MY-60_TuneCP5_13p6TeV_madgraph-pythia8/NANOAODSIM/130X_mcRun3_2022_realistic_v5-v2/2830000/19a10029-46b7-40db-96c9-be974fa34841.root",
        "T2_UK_London_IC: davs://gfe02.grid.hep.ph.ic.ac.uk:2880/pnfs/hep.ph.ic.ac.uk/data/cms/store/mc/Run3Summer22NanoAODv12/NMSSM_XtoYHto4B_MX-3500_MY-60_TuneCP5_13p6TeV_madgraph-pythia8/NANOAODSIM/130X_mcRun3_2022_realistic_v5-v2/2830000/19a10029-46b7-40db-96c9-be974fa34841.root",
        "T1_US_FNAL_Tape: davs://cmsdcatape.fnal.gov:2880/WAX/11/store/mc/Run3Summer22NanoAODv12/NMSSM_XtoYHto4B_MX-3500_MY-60_TuneCP5_13p6TeV_madgraph-pythia8/NANOAODSIM/130X_mcRun3_2022_realistic_v5-v2/2830000/19a10029-46b7-40db-96c9-be974fa34841.root"
    ],
    "cms:/store/mc/Run3Summer22NanoAODv12/NMSSM_XtoYHto4B_MX-3500_MY-60_TuneCP5_13p6TeV_madgraph-pythia8/NANOAODSIM/130X_mcRun3_2022_realistic_v5-v2/2830000/97d9024c-de6d-4125-aecb-345771830f49.root": [
        "T1_US_FNAL_Disk: davs://cmsdcadisk.fnal.gov:2880/dcache/uscmsdisk/store/mc/Run3Summer22NanoAODv12/NMSSM_XtoYHto4B_MX-3500_MY-60_TuneCP5_13p6TeV_madgraph-pythia8/NANOAODSIM/130X_mcRun3_2022_realistic_v5-v2/2830000/97d9024c-de6d-4125-aecb-345771830f49.root",
        "T2_PL_Cyfronet: davs://eos01.grid.cyfronet.pl:8443/eos/cms/store/mc/Run3Summer22NanoAODv12/NMSSM_XtoYHto4B_MX-3500_MY-60_TuneCP5_13p6TeV_madgraph-pythia8/NANOAODSIM/130X_mcRun3_2022_realistic_v5-v2/2830000/97d9024c-de6d-4125-aecb-345771830f49.root",
        "T2_IT_Bari: davs://webdav.recas.ba.infn.it:8443/cms/store/mc/Run3Summer22NanoAODv12/NMSSM_XtoYHto4B_MX-3500_MY-60_TuneCP5_13p6TeV_madgraph-pythia8/NANOAODSIM/130X_mcRun3_2022_realistic_v5-v2/2830000/97d9024c-de6d-4125-aecb-345771830f49.root",
        "T1_ES_PIC_Disk: davs://webdav-cms.pic.es:8459/pnfs/pic.es/data/cms/disk/store/mc/Run3Summer22NanoAODv12/NMSSM_XtoYHto4B_MX-3500_MY-60_TuneCP5_13p6TeV_madgraph-pythia8/NANOAODSIM/130X_mcRun3_2022_realistic_v5-v2/2830000/97d9024c-de6d-4125-aecb-345771830f49.root",
        "T2_US_Nebraska: davs://xrootd-local.unl.edu:1094/store/mc/Run3Summer22NanoAODv12/NMSSM_XtoYHto4B_MX-3500_MY-60_TuneCP5_13p6TeV_madgraph-pythia8/NANOAODSIM/130X_mcRun3_2022_realistic_v5-v2/2830000/97d9024c-de6d-4125-aecb-345771830f49.root",
        "T2_UK_London_IC: davs://gfe02.grid.hep.ph.ic.ac.uk:2880/pnfs/hep.ph.ic.ac.uk/data/cms/store/mc/Run3Summer22NanoAODv12/NMSSM_XtoYHto4B_MX-3500_MY-60_TuneCP5_13p6TeV_madgraph-pythia8/NANOAODSIM/130X_mcRun3_2022_realistic_v5-v2/2830000/97d9024c-de6d-4125-aecb-345771830f49.root",
        "T1_US_FNAL_Tape: davs://cmsdcatape.fnal.gov:2880/WAX/11/store/mc/Run3Summer22NanoAODv12/NMSSM_XtoYHto4B_MX-3500_MY-60_TuneCP5_13p6TeV_madgraph-pythia8/NANOAODSIM/130X_mcRun3_2022_realistic_v5-v2/2830000/97d9024c-de6d-4125-aecb-345771830f49.root"
    ],
    "cms:/store/mc/Run3Summer22NanoAODv12/NMSSM_XtoYHto4B_MX-3500_MY-60_TuneCP5_13p6TeV_madgraph-pythia8/NANOAODSIM/130X_mcRun3_2022_realistic_v5-v2/2830000/6bc00a56-5b3f-4f30-81bd-1c1bc41ee91b.root": [
        "T1_US_FNAL_Disk: davs://cmsdcadisk.fnal.gov:2880/dcache/uscmsdisk/store/mc/Run3Summer22NanoAODv12/NMSSM_XtoYHto4B_MX-3500_MY-60_TuneCP5_13p6TeV_madgraph-pythia8/NANOAODSIM/130X_mcRun3_2022_realistic_v5-v2/2830000/6bc00a56-5b3f-4f30-81bd-1c1bc41ee91b.root",
        "T2_PL_Cyfronet: davs://eos01.grid.cyfronet.pl:8443/eos/cms/store/mc/Run3Summer22NanoAODv12/NMSSM_XtoYHto4B_MX-3500_MY-60_TuneCP5_13p6TeV_madgraph-pythia8/NANOAODSIM/130X_mcRun3_2022_realistic_v5-v2/2830000/6bc00a56-5b3f-4f30-81bd-1c1bc41ee91b.root",
        "T2_IT_Bari: davs://webdav.recas.ba.infn.it:8443/cms/store/mc/Run3Summer22NanoAODv12/NMSSM_XtoYHto4B_MX-3500_MY-60_TuneCP5_13p6TeV_madgraph-pythia8/NANOAODSIM/130X_mcRun3_2022_realistic_v5-v2/2830000/6bc00a56-5b3f-4f30-81bd-1c1bc41ee91b.root",
        "T1_ES_PIC_Disk: davs://webdav-cms.pic.es:8459/pnfs/pic.es/data/cms/disk/store/mc/Run3Summer22NanoAODv12/NMSSM_XtoYHto4B_MX-3500_MY-60_TuneCP5_13p6TeV_madgraph-pythia8/NANOAODSIM/130X_mcRun3_2022_realistic_v5-v2/2830000/6bc00a56-5b3f-4f30-81bd-1c1bc41ee91b.root",
        "T2_US_Nebraska: davs://xrootd-local.unl.edu:1094/store/mc/Run3Summer22NanoAODv12/NMSSM_XtoYHto4B_MX-3500_MY-60_TuneCP5_13p6TeV_madgraph-pythia8/NANOAODSIM/130X_mcRun3_2022_realistic_v5-v2/2830000/6bc00a56-5b3f-4f30-81bd-1c1bc41ee91b.root",
        "T2_UK_London_IC: davs://gfe02.grid.hep.ph.ic.ac.uk:2880/pnfs/hep.ph.ic.ac.uk/data/cms/store/mc/Run3Summer22NanoAODv12/NMSSM_XtoYHto4B_MX-3500_MY-60_TuneCP5_13p6TeV_madgraph-pythia8/NANOAODSIM/130X_mcRun3_2022_realistic_v5-v2/2830000/6bc00a56-5b3f-4f30-81bd-1c1bc41ee91b.root",
        "T1_US_FNAL_Tape: davs://cmsdcatape.fnal.gov:2880/WAX/11/store/mc/Run3Summer22NanoAODv12/NMSSM_XtoYHto4B_MX-3500_MY-60_TuneCP5_13p6TeV_madgraph-pythia8/NANOAODSIM/130X_mcRun3_2022_realistic_v5-v2/2830000/6bc00a56-5b3f-4f30-81bd-1c1bc41ee91b.root"
    ],
    "cms:/store/mc/Run3Summer22NanoAODv12/NMSSM_XtoYHto4B_MX-3500_MY-60_TuneCP5_13p6TeV_madgraph-pythia8/NANOAODSIM/130X_mcRun3_2022_realistic_v5-v2/2830000/4911bf6b-899a-41ff-bf70-8fd5a78a7320.root": [
        "T1_US_FNAL_Disk: davs://cmsdcadisk.fnal.gov:2880/dcache/uscmsdisk/store/mc/Run3Summer22NanoAODv12/NMSSM_XtoYHto4B_MX-3500_MY-60_TuneCP5_13p6TeV_madgraph-pythia8/NANOAODSIM/130X_mcRun3_2022_realistic_v5-v2/2830000/4911bf6b-899a-41ff-bf70-8fd5a78a7320.root",
        "T2_PL_Cyfronet: davs://eos01.grid.cyfronet.pl:8443/eos/cms/store/mc/Run3Summer22NanoAODv12/NMSSM_XtoYHto4B_MX-3500_MY-60_TuneCP5_13p6TeV_madgraph-pythia8/NANOAODSIM/130X_mcRun3_2022_realistic_v5-v2/2830000/4911bf6b-899a-41ff-bf70-8fd5a78a7320.root",
        "T2_IT_Bari: davs://webdav.recas.ba.infn.it:8443/cms/store/mc/Run3Summer22NanoAODv12/NMSSM_XtoYHto4B_MX-3500_MY-60_TuneCP5_13p6TeV_madgraph-pythia8/NANOAODSIM/130X_mcRun3_2022_realistic_v5-v2/2830000/4911bf6b-899a-41ff-bf70-8fd5a78a7320.root",
        "T1_ES_PIC_Disk: davs://webdav-cms.pic.es:8459/pnfs/pic.es/data/cms/disk/store/mc/Run3Summer22NanoAODv12/NMSSM_XtoYHto4B_MX-3500_MY-60_TuneCP5_13p6TeV_madgraph-pythia8/NANOAODSIM/130X_mcRun3_2022_realistic_v5-v2/2830000/4911bf6b-899a-41ff-bf70-8fd5a78a7320.root",
        "T2_US_Nebraska: davs://xrootd-local.unl.edu:1094/store/mc/Run3Summer22NanoAODv12/NMSSM_XtoYHto4B_MX-3500_MY-60_TuneCP5_13p6TeV_madgraph-pythia8/NANOAODSIM/130X_mcRun3_2022_realistic_v5-v2/2830000/4911bf6b-899a-41ff-bf70-8fd5a78a7320.root",
        "T2_UK_London_IC: davs://gfe02.grid.hep.ph.ic.ac.uk:2880/pnfs/hep.ph.ic.ac.uk/data/cms/store/mc/Run3Summer22NanoAODv12/NMSSM_XtoYHto4B_MX-3500_MY-60_TuneCP5_13p6TeV_madgraph-pythia8/NANOAODSIM/130X_mcRun3_2022_realistic_v5-v2/2830000/4911bf6b-899a-41ff-bf70-8fd5a78a7320.root",
        "T1_US_FNAL_Tape: davs://cmsdcatape.fnal.gov:2880/WAX/11/store/mc/Run3Summer22NanoAODv12/NMSSM_XtoYHto4B_MX-3500_MY-60_TuneCP5_13p6TeV_madgraph-pythia8/NANOAODSIM/130X_mcRun3_2022_realistic_v5-v2/2830000/4911bf6b-899a-41ff-bf70-8fd5a78a7320.root"
    ],
    "cms:/store/mc/Run3Summer22NanoAODv12/NMSSM_XtoYHto4B_MX-3500_MY-60_TuneCP5_13p6TeV_madgraph-pythia8/NANOAODSIM/130X_mcRun3_2022_realistic_v5-v2/2830000/53f8bdfd-8af9-4bef-ac85-6289ef695db7.root": [
        "T1_US_FNAL_Disk: davs://cmsdcadisk.fnal.gov:2880/dcache/uscmsdisk/store/mc/Run3Summer22NanoAODv12/NMSSM_XtoYHto4B_MX-3500_MY-60_TuneCP5_13p6TeV_madgraph-pythia8/NANOAODSIM/130X_mcRun3_2022_realistic_v5-v2/2830000/53f8bdfd-8af9-4bef-ac85-6289ef695db7.root",
        "T2_PL_Cyfronet: davs://eos01.grid.cyfronet.pl:8443/eos/cms/store/mc/Run3Summer22NanoAODv12/NMSSM_XtoYHto4B_MX-3500_MY-60_TuneCP5_13p6TeV_madgraph-pythia8/NANOAODSIM/130X_mcRun3_2022_realistic_v5-v2/2830000/53f8bdfd-8af9-4bef-ac85-6289ef695db7.root",
        "T2_IT_Bari: davs://webdav.recas.ba.infn.it:8443/cms/store/mc/Run3Summer22NanoAODv12/NMSSM_XtoYHto4B_MX-3500_MY-60_TuneCP5_13p6TeV_madgraph-pythia8/NANOAODSIM/130X_mcRun3_2022_realistic_v5-v2/2830000/53f8bdfd-8af9-4bef-ac85-6289ef695db7.root",
        "T1_ES_PIC_Disk: davs://webdav-cms.pic.es:8459/pnfs/pic.es/data/cms/disk/store/mc/Run3Summer22NanoAODv12/NMSSM_XtoYHto4B_MX-3500_MY-60_TuneCP5_13p6TeV_madgraph-pythia8/NANOAODSIM/130X_mcRun3_2022_realistic_v5-v2/2830000/53f8bdfd-8af9-4bef-ac85-6289ef695db7.root",
        "T2_US_Nebraska: davs://xrootd-local.unl.edu:1094/store/mc/Run3Summer22NanoAODv12/NMSSM_XtoYHto4B_MX-3500_MY-60_TuneCP5_13p6TeV_madgraph-pythia8/NANOAODSIM/130X_mcRun3_2022_realistic_v5-v2/2830000/53f8bdfd-8af9-4bef-ac85-6289ef695db7.root",
        "T2_UK_London_IC: davs://gfe02.grid.hep.ph.ic.ac.uk:2880/pnfs/hep.ph.ic.ac.uk/data/cms/store/mc/Run3Summer22NanoAODv12/NMSSM_XtoYHto4B_MX-3500_MY-60_TuneCP5_13p6TeV_madgraph-pythia8/NANOAODSIM/130X_mcRun3_2022_realistic_v5-v2/2830000/53f8bdfd-8af9-4bef-ac85-6289ef695db7.root",
        "T1_US_FNAL_Tape: davs://cmsdcatape.fnal.gov:2880/WAX/11/store/mc/Run3Summer22NanoAODv12/NMSSM_XtoYHto4B_MX-3500_MY-60_TuneCP5_13p6TeV_madgraph-pythia8/NANOAODSIM/130X_mcRun3_2022_realistic_v5-v2/2830000/53f8bdfd-8af9-4bef-ac85-6289ef695db7.root"
    ],
    "cms:/store/mc/Run3Summer22NanoAODv12/NMSSM_XtoYHto4B_MX-3500_MY-60_TuneCP5_13p6TeV_madgraph-pythia8/NANOAODSIM/130X_mcRun3_2022_realistic_v5-v2/2830000/26598646-6e37-4455-ac0b-4337db9c4797.root": [
        "T1_US_FNAL_Disk: davs://cmsdcadisk.fnal.gov:2880/dcache/uscmsdisk/store/mc/Run3Summer22NanoAODv12/NMSSM_XtoYHto4B_MX-3500_MY-60_TuneCP5_13p6TeV_madgraph-pythia8/NANOAODSIM/130X_mcRun3_2022_realistic_v5-v2/2830000/26598646-6e37-4455-ac0b-4337db9c4797.root",
        "T2_PL_Cyfronet: davs://eos01.grid.cyfronet.pl:8443/eos/cms/store/mc/Run3Summer22NanoAODv12/NMSSM_XtoYHto4B_MX-3500_MY-60_TuneCP5_13p6TeV_madgraph-pythia8/NANOAODSIM/130X_mcRun3_2022_realistic_v5-v2/2830000/26598646-6e37-4455-ac0b-4337db9c4797.root",
        "T2_IT_Bari: davs://webdav.recas.ba.infn.it:8443/cms/store/mc/Run3Summer22NanoAODv12/NMSSM_XtoYHto4B_MX-3500_MY-60_TuneCP5_13p6TeV_madgraph-pythia8/NANOAODSIM/130X_mcRun3_2022_realistic_v5-v2/2830000/26598646-6e37-4455-ac0b-4337db9c4797.root",
        "T1_ES_PIC_Disk: davs://webdav-cms.pic.es:8459/pnfs/pic.es/data/cms/disk/store/mc/Run3Summer22NanoAODv12/NMSSM_XtoYHto4B_MX-3500_MY-60_TuneCP5_13p6TeV_madgraph-pythia8/NANOAODSIM/130X_mcRun3_2022_realistic_v5-v2/2830000/26598646-6e37-4455-ac0b-4337db9c4797.root",
        "T2_US_Nebraska: davs://xrootd-local.unl.edu:1094/store/mc/Run3Summer22NanoAODv12/NMSSM_XtoYHto4B_MX-3500_MY-60_TuneCP5_13p6TeV_madgraph-pythia8/NANOAODSIM/130X_mcRun3_2022_realistic_v5-v2/2830000/26598646-6e37-4455-ac0b-4337db9c4797.root",
        "T2_UK_London_IC: davs://gfe02.grid.hep.ph.ic.ac.uk:2880/pnfs/hep.ph.ic.ac.uk/data/cms/store/mc/Run3Summer22NanoAODv12/NMSSM_XtoYHto4B_MX-3500_MY-60_TuneCP5_13p6TeV_madgraph-pythia8/NANOAODSIM/130X_mcRun3_2022_realistic_v5-v2/2830000/26598646-6e37-4455-ac0b-4337db9c4797.root",
        "T1_US_FNAL_Tape: davs://cmsdcatape.fnal.gov:2880/WAX/11/store/mc/Run3Summer22NanoAODv12/NMSSM_XtoYHto4B_MX-3500_MY-60_TuneCP5_13p6TeV_madgraph-pythia8/NANOAODSIM/130X_mcRun3_2022_realistic_v5-v2/2830000/26598646-6e37-4455-ac0b-4337db9c4797.root"
    ]
}