#/NMSSM_XtoYHto4B_MX-400_MY-90_TuneCP5_13p6TeV_madgraph-pythia8/Run3Summer22NanoAODv12-130X_mcRun3_2022_realistic_v5-v2/NANOAODSIM
+--------------------------------------------------------------------------------------------------------------------------------------------------------------------------------------------------+--------+-------------+------------+----------+
| SCOPE:NAME                                                                                                                                                                                       | GUID   | ADLER32     | FILESIZE   | EVENTS   |
|--------------------------------------------------------------------------------------------------------------------------------------------------------------------------------------------------+--------+-------------+------------+----------|
| cms:/store/mc/Run3Summer22NanoAODv12/NMSSM_XtoYHto4B_MX-400_MY-90_TuneCP5_13p6TeV_madgraph-pythia8/NANOAODSIM/130X_mcRun3_2022_realistic_v5-v2/2830000/c1a5120e-0d5e-443b-926f-84d9bb9811fb.root | (None) | ad:d19350a8 | 4.001 MB   |          |
| cms:/store/mc/Run3Summer22NanoAODv12/NMSSM_XtoYHto4B_MX-400_MY-90_TuneCP5_13p6TeV_madgraph-pythia8/NANOAODSIM/130X_mcRun3_2022_realistic_v5-v2/2830000/55108ec5-f866-460c-95e4-2af3c474266f.root | (None) | ad:3cdc5358 | 7.681 MB   |          |
| cms:/store/mc/Run3Summer22NanoAODv12/NMSSM_XtoYHto4B_MX-400_MY-90_TuneCP5_13p6TeV_madgraph-pythia8/NANOAODSIM/130X_mcRun3_2022_realistic_v5-v2/2830000/85306ba0-028d-48d3-a737-f27730e22d0f.root | (None) | ad:cb21c9de | 7.681 MB   |          |
| cms:/store/mc/Run3Summer22NanoAODv12/NMSSM_XtoYHto4B_MX-400_MY-90_TuneCP5_13p6TeV_madgraph-pythia8/NANOAODSIM/130X_mcRun3_2022_realistic_v5-v2/2830000/b575bac0-a6d3-4c75-b0b4-32e59cbdd3fb.root | (None) | ad:be761b79 | 6.245 MB   |          |
| cms:/store/mc/Run3Summer22NanoAODv12/NMSSM_XtoYHto4B_MX-400_MY-90_TuneCP5_13p6TeV_madgraph-pythia8/NANOAODSIM/130X_mcRun3_2022_realistic_v5-v2/2830000/f775de87-efcf-4283-855c-f27f0f3ff8a2.root | (None) | ad:d163f039 | 4.450 MB   |          |
| cms:/store/mc/Run3Summer22NanoAODv12/NMSSM_XtoYHto4B_MX-400_MY-90_TuneCP5_13p6TeV_madgraph-pythia8/NANOAODSIM/130X_mcRun3_2022_realistic_v5-v2/2830000/b51d8705-77d5-4514-bc91-b71263b98c69.root | (None) | ad:5c79bb59 | 4.410 MB   |          |
| cms:/store/mc/Run3Summer22NanoAODv12/NMSSM_XtoYHto4B_MX-400_MY-90_TuneCP5_13p6TeV_madgraph-pythia8/NANOAODSIM/130X_mcRun3_2022_realistic_v5-v2/2830000/15b68217-852c-4770-939c-2283c7eeccda.root | (None) | ad:6a3784b3 | 6.276 MB   |          |
| cms:/store/mc/Run3Summer22NanoAODv12/NMSSM_XtoYHto4B_MX-400_MY-90_TuneCP5_13p6TeV_madgraph-pythia8/NANOAODSIM/130X_mcRun3_2022_realistic_v5-v2/2830000/d7a7bcd4-2d33-46f3-8238-3fab800f166e.root | (None) | ad:84b35e78 | 7.679 MB   |          |
| cms:/store/mc/Run3Summer22NanoAODv12/NMSSM_XtoYHto4B_MX-400_MY-90_TuneCP5_13p6TeV_madgraph-pythia8/NANOAODSIM/130X_mcRun3_2022_realistic_v5-v2/2830000/8d8055dc-3436-4157-90b5-777c0f45e917.root | (None) | ad:ce2202a2 | 6.276 MB   |          |
| cms:/store/mc/Run3Summer22NanoAODv12/NMSSM_XtoYHto4B_MX-400_MY-90_TuneCP5_13p6TeV_madgraph-pythia8/NANOAODSIM/130X_mcRun3_2022_realistic_v5-v2/2830000/20c70c3d-7457-4194-ad84-ad399da64405.root | (None) | ad:ddf3f089 | 4.409 MB   |          |
| cms:/store/mc/Run3Summer22NanoAODv12/NMSSM_XtoYHto4B_MX-400_MY-90_TuneCP5_13p6TeV_madgraph-pythia8/NANOAODSIM/130X_mcRun3_2022_realistic_v5-v2/2830000/f0766a97-75bf-48e1-bed0-572d8062d6ae.root | (None) | ad:7a17b0e5 | 9.047 MB   |          |
| cms:/store/mc/Run3Summer22NanoAODv12/NMSSM_XtoYHto4B_MX-400_MY-90_TuneCP5_13p6TeV_madgraph-pythia8/NANOAODSIM/130X_mcRun3_2022_realistic_v5-v2/2830000/cc047396-8471-441d-9606-c21699110c02.root | (None) | ad:d48133a5 | 6.264 MB   |          |
| cms:/store/mc/Run3Summer22NanoAODv12/NMSSM_XtoYHto4B_MX-400_MY-90_TuneCP5_13p6TeV_madgraph-pythia8/NANOAODSIM/130X_mcRun3_2022_realistic_v5-v2/2830000/29c5d8f8-8584-4418-afa4-753c213095f5.root | (None) | ad:94d73dac | 7.668 MB   |          |
| cms:/store/mc/Run3Summer22NanoAODv12/NMSSM_XtoYHto4B_MX-400_MY-90_TuneCP5_13p6TeV_madgraph-pythia8/NANOAODSIM/130X_mcRun3_2022_realistic_v5-v2/2810000/0a9fce85-7793-4da8-b6dd-4e836e0a89d9.root | (None) | ad:1ec7034f | 4.409 MB   |          |
| cms:/store/mc/Run3Summer22NanoAODv12/NMSSM_XtoYHto4B_MX-400_MY-90_TuneCP5_13p6TeV_madgraph-pythia8/NANOAODSIM/130X_mcRun3_2022_realistic_v5-v2/2830000/eff8fb6f-6625-4853-95f0-3f04d0c49d1e.root | (None) | ad:a063f058 | 4.414 MB   |          |
| cms:/store/mc/Run3Summer22NanoAODv12/NMSSM_XtoYHto4B_MX-400_MY-90_TuneCP5_13p6TeV_madgraph-pythia8/NANOAODSIM/130X_mcRun3_2022_realistic_v5-v2/2810000/3dd8eb61-302d-4097-b4a7-4b15c7f40875.root | (None) | ad:7ee4247f | 4.421 MB   |          |
+--------------------------------------------------------------------------------------------------------------------------------------------------------------------------------------------------+--------+-------------+------------+----------+
Total files : 16
Total size : 95.332 MB
