{
    "cms:/store/mc/Run3Summer22NanoAODv12/NMSSM_XtoYHto4B_MX-3500_MY-300_TuneCP5_13p6TeV_madgraph-pythia8/NANOAODSIM/130X_mcRun3_2022_realistic_v5-v2/2820000/1e94313b-7a54-4e26-841f-a3acc48ee4c1.root": [
        "T1_US_FNAL_Disk: davs://cmsdcadisk.fnal.gov:2880/dcache/uscmsdisk/store/mc/Run3Summer22NanoAODv12/NMSSM_XtoYHto4B_MX-3500_MY-300_TuneCP5_13p6TeV_madgraph-pythia8/NANOAODSIM/130X_mcRun3_2022_realistic_v5-v2/2820000/1e94313b-7a54-4e26-841f-a3acc48ee4c1.root",
        "T1_DE_KIT_Disk: davs://cmsdcache-kit-disk.gridka.de:2880/pnfs/gridka.de/cms/disk-only/store/mc/Run3Summer22NanoAODv12/NMSSM_XtoYHto4B_MX-3500_MY-300_TuneCP5_13p6TeV_madgraph-pythia8/NANOAODSIM/130X_mcRun3_2022_realistic_v5-v2/2820000/1e94313b-7a54-4e26-841f-a3acc48ee4c1.root",
        "T2_FR_IPHC: davs://sbgdcache.in2p3.fr:443/cms/phedex/store/mc/Run3Summer22NanoAODv12/NMSSM_XtoYHto4B_MX-3500_MY-300_TuneCP5_13p6TeV_madgraph-pythia8/NANOAODSIM/130X_mcRun3_2022_realistic_v5-v2/2820000/1e94313b-7a54-4e26-841f-a3acc48ee4c1.root",
        "T2_CN_Beijing: davs://cceos.ihep.ac.cn:9000/eos/ihep/cms/store/mc/Run3Summer22NanoAODv12/NMSSM_XtoYHto4B_MX-3500_MY-300_TuneCP5_13p6TeV_madgraph-pythia8/NANOAODSIM/130X_mcRun3_2022_realistic_v5-v2/2820000/1e94313b-7a54-4e26-841f-a3acc48ee4c1.root",
        "T2_US_Florida: davs://cmsio2.rc.ufl.edu:1094/store/mc/Run3Summer22NanoAODv12/NMSSM_XtoYHto4B_MX-3500_MY-300_TuneCP5_13p6TeV_madgraph-pythia8/NANOAODSIM/130X_mcRun3_2022_realistic_v5-v2/2820000/1e94313b-7a54-4e26-841f-a3acc48ee4c1.root",
        "T1_US_FNAL_Tape: davs://cmsdcatape.fnal.gov:2880/WAX/11/store/mc/Run3Summer22NanoAODv12/NMSSM_XtoYHto4B_MX-3500_MY-300_TuneCP5_13p6TeV_madgraph-pythia8/NANOAODSIM/130X_mcRun3_2022_realistic_v5-v2/2820000/1e94313b-7a54-4e26-841f-a3acc48ee4c1.root",
        "T2_DE_RWTH: davs://grid-webdav.physik.rwth-aachen.de:2889/store/mc/Run3Summer22NanoAODv12/NMSSM_XtoYHto4B_MX-3500_MY-300_TuneCP5_13p6TeV_madgraph-pythia8/NANOAODSIM/130X_mcRun3_2022_realistic_v5-v2/2820000/1e94313b-7a54-4e26-841f-a3acc48ee4c1.root"
    ],
    "cms:/store/mc/Run3Summer22NanoAODv12/NMSSM_XtoYHto4B_MX-3500_MY-300_TuneCP5_13p6TeV_madgraph-pythia8/NANOAODSIM/130X_mcRun3_2022_realistic_v5-v2/2820000/ae2c8bc5-f978-4ab1-8cd3-4a19427de1a0.root": [
        "T1_US_FNAL_Disk: davs://cmsdcadisk.fnal.gov:2880/dcache/uscmsdisk/store/mc/Run3Summer22NanoAODv12/NMSSM_XtoYHto4B_MX-3500_MY-300_TuneCP5_13p6TeV_madgraph-pythia8/NANOAODSIM/130X_mcRun3_2022_realistic_v5-v2/2820000/ae2c8bc5-f978-4ab1-8cd3-4a19427de1a0.root",
        "T1_DE_KIT_Disk: davs://cmsdcache-kit-disk.gridka.de:2880/pnfs/gridka.de/cms/disk-only/store/mc/Run3Summer22NanoAODv12/NMSSM_XtoYHto4B_MX-3500_MY-300_TuneCP5_13p6TeV_madgraph-pythia8/NANOAODSIM/130X_mcRun3_2022_realistic_v5-v2/2820000/ae2c8bc5-f978-4ab1-8cd3-4a19427de1a0.root",
        "T2_FR_IPHC: davs://sbgdcache.in2p3.fr:443/cms/phedex/store/mc/Run3Summer22NanoAODv12/NMSSM_XtoYHto4B_MX-3500_MY-300_TuneCP5_13p6TeV_madgraph-pythia8/NANOAODSIM/130X_mcRun3_2022_realistic_v5-v2/2820000/ae2c8bc5-f978-4ab1-8cd3-4a19427de1a0.root",
        "T2_CN_Beijing: davs://cceos.ihep.ac.cn:9000/eos/ihep/cms/store/mc/Run3Summer22NanoAODv12/NMSSM_XtoYHto4B_MX-3500_MY-300_TuneCP5_13p6TeV_madgraph-pythia8/NANOAODSIM/130X_mcRun3_2022_realistic_v5-v2/2820000/ae2c8bc5-f978-4ab1-8cd3-4a19427de1a0.root",
        "T2_US_Florida: davs://cmsio2.rc.ufl.edu:1094/store/mc/Run3Summer22NanoAODv12/NMSSM_XtoYHto4B_MX-3500_MY-300_TuneCP5_13p6TeV_madgraph-pythia8/NANOAODSIM/130X_mcRun3_2022_realistic_v5-v2/2820000/ae2c8bc5-f978-4ab1-8cd3-4a19427de1a0.root",
        "T1_US_FNAL_Tape: davs://cmsdcatape.fnal.gov:2880/WAX/11/store/mc/Run3Summer22NanoAODv12/NMSSM_XtoYHto4B_MX-3500_MY-300_TuneCP5_13p6TeV_madgraph-pythia8/NANOAODSIM/130X_mcRun3_2022_realistic_v5-v2/2820000/ae2c8bc5-f978-4ab1-8cd3-4a19427de1a0.root",
        "T2_DE_RWTH: davs://grid-webdav.physik.rwth-aachen.de:2889/store/mc/Run3Summer22NanoAODv12/NMSSM_XtoYHto4B_MX-3500_MY-300_TuneCP5_13p6TeV_madgraph-pythia8/NANOAODSIM/130X_mcRun3_2022_realistic_v5-v2/2820000/ae2c8bc5-f978-4ab1-8cd3-4a19427de1a0.root"
    ],
    "cms:/store/mc/Run3Summer22NanoAODv12/NMSSM_XtoYHto4B_MX-3500_MY-300_TuneCP5_13p6TeV_madgraph-pythia8/NANOAODSIM/130X_mcRun3_2022_realistic_v5-v2/2820000/8d9cea49-f82d-4c15-b141-47bf4b2793ec.root": [
        "T1_US_FNAL_Disk: davs://cmsdcadisk.fnal.gov:2880/dcache/uscmsdisk/store/mc/Run3Summer22NanoAODv12/NMSSM_XtoYHto4B_MX-3500_MY-300_TuneCP5_13p6TeV_madgraph-pythia8/NANOAODSIM/130X_mcRun3_2022_realistic_v5-v2/2820000/8d9cea49-f82d-4c15-b141-47bf4b2793ec.root",
        "T1_DE_KIT_Disk: davs://cmsdcache-kit-disk.gridka.de:2880/pnfs/gridka.de/cms/disk-only/store/mc/Run3Summer22NanoAODv12/NMSSM_XtoYHto4B_MX-3500_MY-300_TuneCP5_13p6TeV_madgraph-pythia8/NANOAODSIM/130X_mcRun3_2022_realistic_v5-v2/2820000/8d9cea49-f82d-4c15-b141-47bf4b2793ec.root",
        "T2_FR_IPHC: davs://sbgdcache.in2p3.fr:443/cms/phedex/store/mc/Run3Summer22NanoAODv12/NMSSM_XtoYHto4B_MX-3500_MY-300_TuneCP5_13p6TeV_madgraph-pythia8/NANOAODSIM/130X_mcRun3_2022_realistic_v5-v2/2820000/8d9cea49-f82d-4c15-b141-47bf4b2793ec.root",
        "T2_CN_Beijing: davs://cceos.ihep.ac.cn:9000/eos/ihep/cms/store/mc/Run3Summer22NanoAODv12/NMSSM_XtoYHto4B_MX-3500_MY-300_TuneCP5_13p6TeV_madgraph-pythia8/NANOAODSIM/130X_mcRun3_2022_realistic_v5-v2/2820000/8d9cea49-f82d-4c15-b141-47bf4b2793ec.root",
        "T2_US_Florida: davs://cmsio2.rc.ufl.edu:1094/store/mc/Run3Summer22NanoAODv12/NMSSM_XtoYHto4B_MX-3500_MY-300_TuneCP5_13p6TeV_madgraph-pythia8/NANOAODSIM/130X_mcRun3_2022_realistic_v5-v2/2820000/8d9cea49-f82d-4c15-b141-47bf4b2793ec.root",
        "T1_US_FNAL_Tape: davs://cmsdcatape.fnal.gov:2880/WAX/11/store/mc/Run3Summer22NanoAODv12/NMSSM_XtoYHto4B_MX-3500_MY-300_TuneCP5_13p6TeV_madgraph-pythia8/NANOAODSIM/130X_mcRun3_2022_realistic_v5-v2/2820000/8d9cea49-f82d-4c15-b141-47bf4b2793ec.root",
        "T2_DE_RWTH: davs://grid-webdav.physik.rwth-aachen.de:2889/store/mc/Run3Summer22NanoAODv12/NMSSM_XtoYHto4B_MX-3500_MY-300_TuneCP5_13p6TeV_madgraph-pythia8/NANOAODSIM/130X_mcRun3_2022_realistic_v5-v2/2820000/8d9cea49-f82d-4c15-b141-47bf4b2793ec.root"
    ],
    "cms:/store/mc/Run3Summer22NanoAODv12/NMSSM_XtoYHto4B_MX-3500_MY-300_TuneCP5_13p6TeV_madgraph-pythia8/NANOAODSIM/130X_mcRun3_2022_realistic_v5-v2/2820000/26820edb-a943-4d11-a4e3-bb749205114a.root": [
        "T1_US_FNAL_Disk: davs://cmsdcadisk.fnal.gov:2880/dcache/uscmsdisk/store/mc/Run3Summer22NanoAODv12/NMSSM_XtoYHto4B_MX-3500_MY-300_TuneCP5_13p6TeV_madgraph-pythia8/NANOAODSIM/130X_mcRun3_2022_realistic_v5-v2/2820000/26820edb-a943-4d11-a4e3-bb749205114a.root",
        "T1_DE_KIT_Disk: davs://cmsdcache-kit-disk.gridka.de:2880/pnfs/gridka.de/cms/disk-only/store/mc/Run3Summer22NanoAODv12/NMSSM_XtoYHto4B_MX-3500_MY-300_TuneCP5_13p6TeV_madgraph-pythia8/NANOAODSIM/130X_mcRun3_2022_realistic_v5-v2/2820000/26820edb-a943-4d11-a4e3-bb749205114a.root",
        "T2_FR_IPHC: davs://sbgdcache.in2p3.fr:443/cms/phedex/store/mc/Run3Summer22NanoAODv12/NMSSM_XtoYHto4B_MX-3500_MY-300_TuneCP5_13p6TeV_madgraph-pythia8/NANOAODSIM/130X_mcRun3_2022_realistic_v5-v2/2820000/26820edb-a943-4d11-a4e3-bb749205114a.root",
        "T2_CN_Beijing: davs://cceos.ihep.ac.cn:9000/eos/ihep/cms/store/mc/Run3Summer22NanoAODv12/NMSSM_XtoYHto4B_MX-3500_MY-300_TuneCP5_13p6TeV_madgraph-pythia8/NANOAODSIM/130X_mcRun3_2022_realistic_v5-v2/2820000/26820edb-a943-4d11-a4e3-bb749205114a.root",
        "T2_US_Florida: davs://cmsio2.rc.ufl.edu:1094/store/mc/Run3Summer22NanoAODv12/NMSSM_XtoYHto4B_MX-3500_MY-300_TuneCP5_13p6TeV_madgraph-pythia8/NANOAODSIM/130X_mcRun3_2022_realistic_v5-v2/2820000/26820edb-a943-4d11-a4e3-bb749205114a.root",
        "T1_US_FNAL_Tape: davs://cmsdcatape.fnal.gov:2880/WAX/11/store/mc/Run3Summer22NanoAODv12/NMSSM_XtoYHto4B_MX-3500_MY-300_TuneCP5_13p6TeV_madgraph-pythia8/NANOAODSIM/130X_mcRun3_2022_realistic_v5-v2/2820000/26820edb-a943-4d11-a4e3-bb749205114a.root",
        "T2_DE_RWTH: davs://grid-webdav.physik.rwth-aachen.de:2889/store/mc/Run3Summer22NanoAODv12/NMSSM_XtoYHto4B_MX-3500_MY-300_TuneCP5_13p6TeV_madgraph-pythia8/NANOAODSIM/130X_mcRun3_2022_realistic_v5-v2/2820000/26820edb-a943-4d11-a4e3-bb749205114a.root"
    ],
    "cms:/store/mc/Run3Summer22NanoAODv12/NMSSM_XtoYHto4B_MX-3500_MY-300_TuneCP5_13p6TeV_madgraph-pythia8/NANOAODSIM/130X_mcRun3_2022_realistic_v5-v2/2820000/a966728a-fab9-4af7-86c7-4206bfc3f3e5.root": [
        "T1_US_FNAL_Disk: davs://cmsdcadisk.fnal.gov:2880/dcache/uscmsdisk/store/mc/Run3Summer22NanoAODv12/NMSSM_XtoYHto4B_MX-3500_MY-300_TuneCP5_13p6TeV_madgraph-pythia8/NANOAODSIM/130X_mcRun3_2022_realistic_v5-v2/2820000/a966728a-fab9-4af7-86c7-4206bfc3f3e5.root",
        "T1_DE_KIT_Disk: davs://cmsdcache-kit-disk.gridka.de:2880/pnfs/gridka.de/cms/disk-only/store/mc/Run3Summer22NanoAODv12/NMSSM_XtoYHto4B_MX-3500_MY-300_TuneCP5_13p6TeV_madgraph-pythia8/NANOAODSIM/130X_mcRun3_2022_realistic_v5-v2/2820000/a966728a-fab9-4af7-86c7-4206bfc3f3e5.root",
        "T2_FR_IPHC: davs://sbgdcache.in2p3.fr:443/cms/phedex/store/mc/Run3Summer22NanoAODv12/NMSSM_XtoYHto4B_MX-3500_MY-300_TuneCP5_13p6TeV_madgraph-pythia8/NANOAODSIM/130X_mcRun3_2022_realistic_v5-v2/2820000/a966728a-fab9-4af7-86c7-4206bfc3f3e5.root",
        "T2_CN_Beijing: davs://cceos.ihep.ac.cn:9000/eos/ihep/cms/store/mc/Run3Summer22NanoAODv12/NMSSM_XtoYHto4B_MX-3500_MY-300_TuneCP5_13p6TeV_madgraph-pythia8/NANOAODSIM/130X_mcRun3_2022_realistic_v5-v2/2820000/a966728a-fab9-4af7-86c7-4206bfc3f3e5.root",
        "T2_US_Florida: davs://cmsio2.rc.ufl.edu:1094/store/mc/Run3Summer22NanoAODv12/NMSSM_XtoYHto4B_MX-3500_MY-300_TuneCP5_13p6TeV_madgraph-pythia8/NANOAODSIM/130X_mcRun3_2022_realistic_v5-v2/2820000/a966728a-fab9-4af7-86c7-4206bfc3f3e5.root",
        "T1_US_FNAL_Tape: davs://cmsdcatape.fnal.gov:2880/WAX/11/store/mc/Run3Summer22NanoAODv12/NMSSM_XtoYHto4B_MX-3500_MY-300_TuneCP5_13p6TeV_madgraph-pythia8/NANOAODSIM/130X_mcRun3_2022_realistic_v5-v2/2820000/a966728a-fab9-4af7-86c7-4206bfc3f3e5.root",
        "T2_DE_RWTH: davs://grid-webdav.physik.rwth-aachen.de:2889/store/mc/Run3Summer22NanoAODv12/NMSSM_XtoYHto4B_MX-3500_MY-300_TuneCP5_13p6TeV_madgraph-pythia8/NANOAODSIM/130X_mcRun3_2022_realistic_v5-v2/2820000/a966728a-fab9-4af7-86c7-4206bfc3f3e5.root"
    ],
    "cms:/store/mc/Run3Summer22NanoAODv12/NMSSM_XtoYHto4B_MX-3500_MY-300_TuneCP5_13p6TeV_madgraph-pythia8/NANOAODSIM/130X_mcRun3_2022_realistic_v5-v2/2820000/3cb54de5-d5d9-4d79-88a8-058e09accd97.root": [
        "T1_US_FNAL_Disk: davs://cmsdcadisk.fnal.gov:2880/dcache/uscmsdisk/store/mc/Run3Summer22NanoAODv12/NMSSM_XtoYHto4B_MX-3500_MY-300_TuneCP5_13p6TeV_madgraph-pythia8/NANOAODSIM/130X_mcRun3_2022_realistic_v5-v2/2820000/3cb54de5-d5d9-4d79-88a8-058e09accd97.root",
        "T1_DE_KIT_Disk: davs://cmsdcache-kit-disk.gridka.de:2880/pnfs/gridka.de/cms/disk-only/store/mc/Run3Summer22NanoAODv12/NMSSM_XtoYHto4B_MX-3500_MY-300_TuneCP5_13p6TeV_madgraph-pythia8/NANOAODSIM/130X_mcRun3_2022_realistic_v5-v2/2820000/3cb54de5-d5d9-4d79-88a8-058e09accd97.root",
        "T2_FR_IPHC: davs://sbgdcache.in2p3.fr:443/cms/phedex/store/mc/Run3Summer22NanoAODv12/NMSSM_XtoYHto4B_MX-3500_MY-300_TuneCP5_13p6TeV_madgraph-pythia8/NANOAODSIM/130X_mcRun3_2022_realistic_v5-v2/2820000/3cb54de5-d5d9-4d79-88a8-058e09accd97.root",
        "T2_CN_Beijing: davs://cceos.ihep.ac.cn:9000/eos/ihep/cms/store/mc/Run3Summer22NanoAODv12/NMSSM_XtoYHto4B_MX-3500_MY-300_TuneCP5_13p6TeV_madgraph-pythia8/NANOAODSIM/130X_mcRun3_2022_realistic_v5-v2/2820000/3cb54de5-d5d9-4d79-88a8-058e09accd97.root",
        "T2_US_Florida: davs://cmsio2.rc.ufl.edu:1094/store/mc/Run3Summer22NanoAODv12/NMSSM_XtoYHto4B_MX-3500_MY-300_TuneCP5_13p6TeV_madgraph-pythia8/NANOAODSIM/130X_mcRun3_2022_realistic_v5-v2/2820000/3cb54de5-d5d9-4d79-88a8-058e09accd97.root",
        "T1_US_FNAL_Tape: davs://cmsdcatape.fnal.gov:2880/WAX/11/store/mc/Run3Summer22NanoAODv12/NMSSM_XtoYHto4B_MX-3500_MY-300_TuneCP5_13p6TeV_madgraph-pythia8/NANOAODSIM/130X_mcRun3_2022_realistic_v5-v2/2820000/3cb54de5-d5d9-4d79-88a8-058e09accd97.root",
        "T2_DE_RWTH: davs://grid-webdav.physik.rwth-aachen.de:2889/store/mc/Run3Summer22NanoAODv12/NMSSM_XtoYHto4B_MX-3500_MY-300_TuneCP5_13p6TeV_madgraph-pythia8/NANOAODSIM/130X_mcRun3_2022_realistic_v5-v2/2820000/3cb54de5-d5d9-4d79-88a8-058e09accd97.root"
    ],
    "cms:/store/mc/Run3Summer22NanoAODv12/NMSSM_XtoYHto4B_MX-3500_MY-300_TuneCP5_13p6TeV_madgraph-pythia8/NANOAODSIM/130X_mcRun3_2022_realistic_v5-v2/2820000/dce26b0d-3f4d-4cb5-bdd7-8269292c7ca0.root": [
        "T1_US_FNAL_Disk: davs://cmsdcadisk.fnal.gov:2880/dcache/uscmsdisk/store/mc/Run3Summer22NanoAODv12/NMSSM_XtoYHto4B_MX-3500_MY-300_TuneCP5_13p6TeV_madgraph-pythia8/NANOAODSIM/130X_mcRun3_2022_realistic_v5-v2/2820000/dce26b0d-3f4d-4cb5-bdd7-8269292c7ca0.root",
        "T1_DE_KIT_Disk: davs://cmsdcache-kit-disk.gridka.de:2880/pnfs/gridka.de/cms/disk-only/store/mc/Run3Summer22NanoAODv12/NMSSM_XtoYHto4B_MX-3500_MY-300_TuneCP5_13p6TeV_madgraph-pythia8/NANOAODSIM/130X_mcRun3_2022_realistic_v5-v2/2820000/dce26b0d-3f4d-4cb5-bdd7-8269292c7ca0.root",
        "T2_FR_IPHC: davs://sbgdcache.in2p3.fr:443/cms/phedex/store/mc/Run3Summer22NanoAODv12/NMSSM_XtoYHto4B_MX-3500_MY-300_TuneCP5_13p6TeV_madgraph-pythia8/NANOAODSIM/130X_mcRun3_2022_realistic_v5-v2/2820000/dce26b0d-3f4d-4cb5-bdd7-8269292c7ca0.root",
        "T2_CN_Beijing: davs://cceos.ihep.ac.cn:9000/eos/ihep/cms/store/mc/Run3Summer22NanoAODv12/NMSSM_XtoYHto4B_MX-3500_MY-300_TuneCP5_13p6TeV_madgraph-pythia8/NANOAODSIM/130X_mcRun3_2022_realistic_v5-v2/2820000/dce26b0d-3f4d-4cb5-bdd7-8269292c7ca0.root",
        "T2_US_Florida: davs://cmsio2.rc.ufl.edu:1094/store/mc/Run3Summer22NanoAODv12/NMSSM_XtoYHto4B_MX-3500_MY-300_TuneCP5_13p6TeV_madgraph-pythia8/NANOAODSIM/130X_mcRun3_2022_realistic_v5-v2/2820000/dce26b0d-3f4d-4cb5-bdd7-8269292c7ca0.root",
        "T1_US_FNAL_Tape: davs://cmsdcatape.fnal.gov:2880/WAX/11/store/mc/Run3Summer22NanoAODv12/NMSSM_XtoYHto4B_MX-3500_MY-300_TuneCP5_13p6TeV_madgraph-pythia8/NANOAODSIM/130X_mcRun3_2022_realistic_v5-v2/2820000/dce26b0d-3f4d-4cb5-bdd7-8269292c7ca0.root",
        "T2_DE_RWTH: davs://grid-webdav.physik.rwth-aachen.de:2889/store/mc/Run3Summer22NanoAODv12/NMSSM_XtoYHto4B_MX-3500_MY-300_TuneCP5_13p6TeV_madgraph-pythia8/NANOAODSIM/130X_mcRun3_2022_realistic_v5-v2/2820000/dce26b0d-3f4d-4cb5-bdd7-8269292c7ca0.root"
    ],
    "cms:/store/mc/Run3Summer22NanoAODv12/NMSSM_XtoYHto4B_MX-3500_MY-300_TuneCP5_13p6TeV_madgraph-pythia8/NANOAODSIM/130X_mcRun3_2022_realistic_v5-v2/2820000/ce285f51-bc3d-44c0-8d74-fffb1d2d8a1c.root": [
        "T1_US_FNAL_Disk: davs://cmsdcadisk.fnal.gov:2880/dcache/uscmsdisk/store/mc/Run3Summer22NanoAODv12/NMSSM_XtoYHto4B_MX-3500_MY-300_TuneCP5_13p6TeV_madgraph-pythia8/NANOAODSIM/130X_mcRun3_2022_realistic_v5-v2/2820000/ce285f51-bc3d-44c0-8d74-fffb1d2d8a1c.root",
        "T1_DE_KIT_Disk: davs://cmsdcache-kit-disk.gridka.de:2880/pnfs/gridka.de/cms/disk-only/store/mc/Run3Summer22NanoAODv12/NMSSM_XtoYHto4B_MX-3500_MY-300_TuneCP5_13p6TeV_madgraph-pythia8/NANOAODSIM/130X_mcRun3_2022_realistic_v5-v2/2820000/ce285f51-bc3d-44c0-8d74-fffb1d2d8a1c.root",
        "T2_FR_IPHC: davs://sbgdcache.in2p3.fr:443/cms/phedex/store/mc/Run3Summer22NanoAODv12/NMSSM_XtoYHto4B_MX-3500_MY-300_TuneCP5_13p6TeV_madgraph-pythia8/NANOAODSIM/130X_mcRun3_2022_realistic_v5-v2/2820000/ce285f51-bc3d-44c0-8d74-fffb1d2d8a1c.root",
        "T2_CN_Beijing: davs://cceos.ihep.ac.cn:9000/eos/ihep/cms/store/mc/Run3Summer22NanoAODv12/NMSSM_XtoYHto4B_MX-3500_MY-300_TuneCP5_13p6TeV_madgraph-pythia8/NANOAODSIM/130X_mcRun3_2022_realistic_v5-v2/2820000/ce285f51-bc3d-44c0-8d74-fffb1d2d8a1c.root",
        "T2_US_Florida: davs://cmsio2.rc.ufl.edu:1094/store/mc/Run3Summer22NanoAODv12/NMSSM_XtoYHto4B_MX-3500_MY-300_TuneCP5_13p6TeV_madgraph-pythia8/NANOAODSIM/130X_mcRun3_2022_realistic_v5-v2/2820000/ce285f51-bc3d-44c0-8d74-fffb1d2d8a1c.root",
        "T1_US_FNAL_Tape: davs://cmsdcatape.fnal.gov:2880/WAX/11/store/mc/Run3Summer22NanoAODv12/NMSSM_XtoYHto4B_MX-3500_MY-300_TuneCP5_13p6TeV_madgraph-pythia8/NANOAODSIM/130X_mcRun3_2022_realistic_v5-v2/2820000/ce285f51-bc3d-44c0-8d74-fffb1d2d8a1c.root",
        "T2_DE_RWTH: davs://grid-webdav.physik.rwth-aachen.de:2889/store/mc/Run3Summer22NanoAODv12/NMSSM_XtoYHto4B_MX-3500_MY-300_TuneCP5_13p6TeV_madgraph-pythia8/NANOAODSIM/130X_mcRun3_2022_realistic_v5-v2/2820000/ce285f51-bc3d-44c0-8d74-fffb1d2d8a1c.root"
    ],
    "cms:/store/mc/Run3Summer22NanoAODv12/NMSSM_XtoYHto4B_MX-3500_MY-300_TuneCP5_13p6TeV_madgraph-pythia8/NANOAODSIM/130X_mcRun3_2022_realistic_v5-v2/2820000/70acc66d-4ebd-407e-b141-72f7f24d23b1.root": [
        "T1_US_FNAL_Disk: davs://cmsdcadisk.fnal.gov:2880/dcache/uscmsdisk/store/mc/Run3Summer22NanoAODv12/NMSSM_XtoYHto4B_MX-3500_MY-300_TuneCP5_13p6TeV_madgraph-pythia8/NANOAODSIM/130X_mcRun3_2022_realistic_v5-v2/2820000/70acc66d-4ebd-407e-b141-72f7f24d23b1.root",
        "T1_DE_KIT_Disk: davs://cmsdcache-kit-disk.gridka.de:2880/pnfs/gridka.de/cms/disk-only/store/mc/Run3Summer22NanoAODv12/NMSSM_XtoYHto4B_MX-3500_MY-300_TuneCP5_13p6TeV_madgraph-pythia8/NANOAODSIM/130X_mcRun3_2022_realistic_v5-v2/2820000/70acc66d-4ebd-407e-b141-72f7f24d23b1.root",
        "T2_FR_IPHC: davs://sbgdcache.in2p3.fr:443/cms/phedex/store/mc/Run3Summer22NanoAODv12/NMSSM_XtoYHto4B_MX-3500_MY-300_TuneCP5_13p6TeV_madgraph-pythia8/NANOAODSIM/130X_mcRun3_2022_realistic_v5-v2/2820000/70acc66d-4ebd-407e-b141-72f7f24d23b1.root",
        "T2_CN_Beijing: davs://cceos.ihep.ac.cn:9000/eos/ihep/cms/store/mc/Run3Summer22NanoAODv12/NMSSM_XtoYHto4B_MX-3500_MY-300_TuneCP5_13p6TeV_madgraph-pythia8/NANOAODSIM/130X_mcRun3_2022_realistic_v5-v2/2820000/70acc66d-4ebd-407e-b141-72f7f24d23b1.root",
        "T2_US_Florida: davs://cmsio2.rc.ufl.edu:1094/store/mc/Run3Summer22NanoAODv12/NMSSM_XtoYHto4B_MX-3500_MY-300_TuneCP5_13p6TeV_madgraph-pythia8/NANOAODSIM/130X_mcRun3_2022_realistic_v5-v2/2820000/70acc66d-4ebd-407e-b141-72f7f24d23b1.root",
        "T1_US_FNAL_Tape: davs://cmsdcatape.fnal.gov:2880/WAX/11/store/mc/Run3Summer22NanoAODv12/NMSSM_XtoYHto4B_MX-3500_MY-300_TuneCP5_13p6TeV_madgraph-pythia8/NANOAODSIM/130X_mcRun3_2022_realistic_v5-v2/2820000/70acc66d-4ebd-407e-b141-72f7f24d23b1.root",
        "T2_DE_RWTH: davs://grid-webdav.physik.rwth-aachen.de:2889/store/mc/Run3Summer22NanoAODv12/NMSSM_XtoYHto4B_MX-3500_MY-300_TuneCP5_13p6TeV_madgraph-pythia8/NANOAODSIM/130X_mcRun3_2022_realistic_v5-v2/2820000/70acc66d-4ebd-407e-b141-72f7f24d23b1.root"
    ],
    "cms:/store/mc/Run3Summer22NanoAODv12/NMSSM_XtoYHto4B_MX-3500_MY-300_TuneCP5_13p6TeV_madgraph-pythia8/NANOAODSIM/130X_mcRun3_2022_realistic_v5-v2/2820000/01b206df-40c3-4a58-8216-3ac3a6c92d60.root": [
        "T1_US_FNAL_Disk: davs://cmsdcadisk.fnal.gov:2880/dcache/uscmsdisk/store/mc/Run3Summer22NanoAODv12/NMSSM_XtoYHto4B_MX-3500_MY-300_TuneCP5_13p6TeV_madgraph-pythia8/NANOAODSIM/130X_mcRun3_2022_realistic_v5-v2/2820000/01b206df-40c3-4a58-8216-3ac3a6c92d60.root",
        "T1_DE_KIT_Disk: davs://cmsdcache-kit-disk.gridka.de:2880/pnfs/gridka.de/cms/disk-only/store/mc/Run3Summer22NanoAODv12/NMSSM_XtoYHto4B_MX-3500_MY-300_TuneCP5_13p6TeV_madgraph-pythia8/NANOAODSIM/130X_mcRun3_2022_realistic_v5-v2/2820000/01b206df-40c3-4a58-8216-3ac3a6c92d60.root",
        "T2_FR_IPHC: davs://sbgdcache.in2p3.fr:443/cms/phedex/store/mc/Run3Summer22NanoAODv12/NMSSM_XtoYHto4B_MX-3500_MY-300_TuneCP5_13p6TeV_madgraph-pythia8/NANOAODSIM/130X_mcRun3_2022_realistic_v5-v2/2820000/01b206df-40c3-4a58-8216-3ac3a6c92d60.root",
        "T2_CN_Beijing: davs://cceos.ihep.ac.cn:9000/eos/ihep/cms/store/mc/Run3Summer22NanoAODv12/NMSSM_XtoYHto4B_MX-3500_MY-300_TuneCP5_13p6TeV_madgraph-pythia8/NANOAODSIM/130X_mcRun3_2022_realistic_v5-v2/2820000/01b206df-40c3-4a58-8216-3ac3a6c92d60.root",
        "T2_PL_Cyfronet: davs://eos01.grid.cyfronet.pl:8443/eos/cms/store/mc/Run3Summer22NanoAODv12/NMSSM_XtoYHto4B_MX-3500_MY-300_TuneCP5_13p6TeV_madgraph-pythia8/NANOAODSIM/130X_mcRun3_2022_realistic_v5-v2/2820000/01b206df-40c3-4a58-8216-3ac3a6c92d60.root",
        "T2_US_Florida: davs://cmsio2.rc.ufl.edu:1094/store/mc/Run3Summer22NanoAODv12/NMSSM_XtoYHto4B_MX-3500_MY-300_TuneCP5_13p6TeV_madgraph-pythia8/NANOAODSIM/130X_mcRun3_2022_realistic_v5-v2/2820000/01b206df-40c3-4a58-8216-3ac3a6c92d60.root",
        "T1_US_FNAL_Tape: davs://cmsdcatape.fnal.gov:2880/WAX/11/store/mc/Run3Summer22NanoAODv12/NMSSM_XtoYHto4B_MX-3500_MY-300_TuneCP5_13p6TeV_madgraph-pythia8/NANOAODSIM/130X_mcRun3_2022_realistic_v5-v2/2820000/01b206df-40c3-4a58-8216-3ac3a6c92d60.root",
        "T2_DE_RWTH: davs://grid-webdav.physik.rwth-aachen.de:2889/store/mc/Run3Summer22NanoAODv12/NMSSM_XtoYHto4B_MX-3500_MY-300_TuneCP5_13p6TeV_madgraph-pythia8/NANOAODSIM/130X_mcRun3_2022_realistic_v5-v2/2820000/01b206df-40c3-4a58-8216-3ac3a6c92d60.root"
    ],
    "cms:/store/mc/Run3Summer22NanoAODv12/NMSSM_XtoYHto4B_MX-3500_MY-300_TuneCP5_13p6TeV_madgraph-pythia8/NANOAODSIM/130X_mcRun3_2022_realistic_v5-v2/2820000/1115f04d-0979-4767-9344-1938f10d01ef.root": [
        "T1_US_FNAL_Disk: davs://cmsdcadisk.fnal.gov:2880/dcache/uscmsdisk/store/mc/Run3Summer22NanoAODv12/NMSSM_XtoYHto4B_MX-3500_MY-300_TuneCP5_13p6TeV_madgraph-pythia8/NANOAODSIM/130X_mcRun3_2022_realistic_v5-v2/2820000/1115f04d-0979-4767-9344-1938f10d01ef.root",
        "T1_DE_KIT_Disk: davs://cmsdcache-kit-disk.gridka.de:2880/pnfs/gridka.de/cms/disk-only/store/mc/Run3Summer22NanoAODv12/NMSSM_XtoYHto4B_MX-3500_MY-300_TuneCP5_13p6TeV_madgraph-pythia8/NANOAODSIM/130X_mcRun3_2022_realistic_v5-v2/2820000/1115f04d-0979-4767-9344-1938f10d01ef.root",
        "T2_FR_IPHC: davs://sbgdcache.in2p3.fr:443/cms/phedex/store/mc/Run3Summer22NanoAODv12/NMSSM_XtoYHto4B_MX-3500_MY-300_TuneCP5_13p6TeV_madgraph-pythia8/NANOAODSIM/130X_mcRun3_2022_realistic_v5-v2/2820000/1115f04d-0979-4767-9344-1938f10d01ef.root",
        "T2_CN_Beijing: davs://cceos.ihep.ac.cn:9000/eos/ihep/cms/store/mc/Run3Summer22NanoAODv12/NMSSM_XtoYHto4B_MX-3500_MY-300_TuneCP5_13p6TeV_madgraph-pythia8/NANOAODSIM/130X_mcRun3_2022_realistic_v5-v2/2820000/1115f04d-0979-4767-9344-1938f10d01ef.root",
        "T2_US_Florida: davs://cmsio2.rc.ufl.edu:1094/store/mc/Run3Summer22NanoAODv12/NMSSM_XtoYHto4B_MX-3500_MY-300_TuneCP5_13p6TeV_madgraph-pythia8/NANOAODSIM/130X_mcRun3_2022_realistic_v5-v2/2820000/1115f04d-0979-4767-9344-1938f10d01ef.root",
        "T1_US_FNAL_Tape: davs://cmsdcatape.fnal.gov:2880/WAX/11/store/mc/Run3Summer22NanoAODv12/NMSSM_XtoYHto4B_MX-3500_MY-300_TuneCP5_13p6TeV_madgraph-pythia8/NANOAODSIM/130X_mcRun3_2022_realistic_v5-v2/2820000/1115f04d-0979-4767-9344-1938f10d01ef.root",
        "T2_DE_RWTH: davs://grid-webdav.physik.rwth-aachen.de:2889/store/mc/Run3Summer22NanoAODv12/NMSSM_XtoYHto4B_MX-3500_MY-300_TuneCP5_13p6TeV_madgraph-pythia8/NANOAODSIM/130X_mcRun3_2022_realistic_v5-v2/2820000/1115f04d-0979-4767-9344-1938f10d01ef.root"
    ],
    "cms:/store/mc/Run3Summer22NanoAODv12/NMSSM_XtoYHto4B_MX-3500_MY-300_TuneCP5_13p6TeV_madgraph-pythia8/NANOAODSIM/130X_mcRun3_2022_realistic_v5-v2/2820000/77a16da9-b1b6-4da3-9dd0-1a7b5b972c06.root": [
        "T1_US_FNAL_Disk: davs://cmsdcadisk.fnal.gov:2880/dcache/uscmsdisk/store/mc/Run3Summer22NanoAODv12/NMSSM_XtoYHto4B_MX-3500_MY-300_TuneCP5_13p6TeV_madgraph-pythia8/NANOAODSIM/130X_mcRun3_2022_realistic_v5-v2/2820000/77a16da9-b1b6-4da3-9dd0-1a7b5b972c06.root",
        "T1_DE_KIT_Disk: davs://cmsdcache-kit-disk.gridka.de:2880/pnfs/gridka.de/cms/disk-only/store/mc/Run3Summer22NanoAODv12/NMSSM_XtoYHto4B_MX-3500_MY-300_TuneCP5_13p6TeV_madgraph-pythia8/NANOAODSIM/130X_mcRun3_2022_realistic_v5-v2/2820000/77a16da9-b1b6-4da3-9dd0-1a7b5b972c06.root",
        "T2_FR_IPHC: davs://sbgdcache.in2p3.fr:443/cms/phedex/store/mc/Run3Summer22NanoAODv12/NMSSM_XtoYHto4B_MX-3500_MY-300_TuneCP5_13p6TeV_madgraph-pythia8/NANOAODSIM/130X_mcRun3_2022_realistic_v5-v2/2820000/77a16da9-b1b6-4da3-9dd0-1a7b5b972c06.root",
        "T2_CN_Beijing: davs://cceos.ihep.ac.cn:9000/eos/ihep/cms/store/mc/Run3Summer22NanoAODv12/NMSSM_XtoYHto4B_MX-3500_MY-300_TuneCP5_13p6TeV_madgraph-pythia8/NANOAODSIM/130X_mcRun3_2022_realistic_v5-v2/2820000/77a16da9-b1b6-4da3-9dd0-1a7b5b972c06.root",
        "T2_US_Florida: davs://cmsio2.rc.ufl.edu:1094/store/mc/Run3Summer22NanoAODv12/NMSSM_XtoYHto4B_MX-3500_MY-300_TuneCP5_13p6TeV_madgraph-pythia8/NANOAODSIM/130X_mcRun3_2022_realistic_v5-v2/2820000/77a16da9-b1b6-4da3-9dd0-1a7b5b972c06.root",
        "T1_US_FNAL_Tape: davs://cmsdcatape.fnal.gov:2880/WAX/11/store/mc/Run3Summer22NanoAODv12/NMSSM_XtoYHto4B_MX-3500_MY-300_TuneCP5_13p6TeV_madgraph-pythia8/NANOAODSIM/130X_mcRun3_2022_realistic_v5-v2/2820000/77a16da9-b1b6-4da3-9dd0-1a7b5b972c06.root",
        "T2_DE_RWTH: davs://grid-webdav.physik.rwth-aachen.de:2889/store/mc/Run3Summer22NanoAODv12/NMSSM_XtoYHto4B_MX-3500_MY-300_TuneCP5_13p6TeV_madgraph-pythia8/NANOAODSIM/130X_mcRun3_2022_realistic_v5-v2/2820000/77a16da9-b1b6-4da3-9dd0-1a7b5b972c06.root"
    ],
    "cms:/store/mc/Run3Summer22NanoAODv12/NMSSM_XtoYHto4B_MX-3500_MY-300_TuneCP5_13p6TeV_madgraph-pythia8/NANOAODSIM/130X_mcRun3_2022_realistic_v5-v2/2820000/0256559a-6276-4bca-89f5-e62bb346d30a.root": [
        "T1_US_FNAL_Disk: davs://cmsdcadisk.fnal.gov:2880/dcache/uscmsdisk/store/mc/Run3Summer22NanoAODv12/NMSSM_XtoYHto4B_MX-3500_MY-300_TuneCP5_13p6TeV_madgraph-pythia8/NANOAODSIM/130X_mcRun3_2022_realistic_v5-v2/2820000/0256559a-6276-4bca-89f5-e62bb346d30a.root",
        "T1_DE_KIT_Disk: davs://cmsdcache-kit-disk.gridka.de:2880/pnfs/gridka.de/cms/disk-only/store/mc/Run3Summer22NanoAODv12/NMSSM_XtoYHto4B_MX-3500_MY-300_TuneCP5_13p6TeV_madgraph-pythia8/NANOAODSIM/130X_mcRun3_2022_realistic_v5-v2/2820000/0256559a-6276-4bca-89f5-e62bb346d30a.root",
        "T2_FR_IPHC: davs://sbgdcache.in2p3.fr:443/cms/phedex/store/mc/Run3Summer22NanoAODv12/NMSSM_XtoYHto4B_MX-3500_MY-300_TuneCP5_13p6TeV_madgraph-pythia8/NANOAODSIM/130X_mcRun3_2022_realistic_v5-v2/2820000/0256559a-6276-4bca-89f5-e62bb346d30a.root",
        "T2_CN_Beijing: davs://cceos.ihep.ac.cn:9000/eos/ihep/cms/store/mc/Run3Summer22NanoAODv12/NMSSM_XtoYHto4B_MX-3500_MY-300_TuneCP5_13p6TeV_madgraph-pythia8/NANOAODSIM/130X_mcRun3_2022_realistic_v5-v2/2820000/0256559a-6276-4bca-89f5-e62bb346d30a.root",
        "T2_US_Florida: davs://cmsio2.rc.ufl.edu:1094/store/mc/Run3Summer22NanoAODv12/NMSSM_XtoYHto4B_MX-3500_MY-300_TuneCP5_13p6TeV_madgraph-pythia8/NANOAODSIM/130X_mcRun3_2022_realistic_v5-v2/2820000/0256559a-6276-4bca-89f5-e62bb346d30a.root",
        "T1_US_FNAL_Tape: davs://cmsdcatape.fnal.gov:2880/WAX/11/store/mc/Run3Summer22NanoAODv12/NMSSM_XtoYHto4B_MX-3500_MY-300_TuneCP5_13p6TeV_madgraph-pythia8/NANOAODSIM/130X_mcRun3_2022_realistic_v5-v2/2820000/0256559a-6276-4bca-89f5-e62bb346d30a.root",
        "T2_DE_RWTH: davs://grid-webdav.physik.rwth-aachen.de:2889/store/mc/Run3Summer22NanoAODv12/NMSSM_XtoYHto4B_MX-3500_MY-300_TuneCP5_13p6TeV_madgraph-pythia8/NANOAODSIM/130X_mcRun3_2022_realistic_v5-v2/2820000/0256559a-6276-4bca-89f5-e62bb346d30a.root"
    ],
    "cms:/store/mc/Run3Summer22NanoAODv12/NMSSM_XtoYHto4B_MX-3500_MY-300_TuneCP5_13p6TeV_madgraph-pythia8/NANOAODSIM/130X_mcRun3_2022_realistic_v5-v2/2820000/030b3bf9-8205-479a-93ef-e0b26ff14661.root": [
        "T1_US_FNAL_Disk: davs://cmsdcadisk.fnal.gov:2880/dcache/uscmsdisk/store/mc/Run3Summer22NanoAODv12/NMSSM_XtoYHto4B_MX-3500_MY-300_TuneCP5_13p6TeV_madgraph-pythia8/NANOAODSIM/130X_mcRun3_2022_realistic_v5-v2/2820000/030b3bf9-8205-479a-93ef-e0b26ff14661.root",
        "T1_DE_KIT_Disk: davs://cmsdcache-kit-disk.gridka.de:2880/pnfs/gridka.de/cms/disk-only/store/mc/Run3Summer22NanoAODv12/NMSSM_XtoYHto4B_MX-3500_MY-300_TuneCP5_13p6TeV_madgraph-pythia8/NANOAODSIM/130X_mcRun3_2022_realistic_v5-v2/2820000/030b3bf9-8205-479a-93ef-e0b26ff14661.root",
        "T2_FR_IPHC: davs://sbgdcache.in2p3.fr:443/cms/phedex/store/mc/Run3Summer22NanoAODv12/NMSSM_XtoYHto4B_MX-3500_MY-300_TuneCP5_13p6TeV_madgraph-pythia8/NANOAODSIM/130X_mcRun3_2022_realistic_v5-v2/2820000/030b3bf9-8205-479a-93ef-e0b26ff14661.root",
        "T2_CN_Beijing: davs://cceos.ihep.ac.cn:9000/eos/ihep/cms/store/mc/Run3Summer22NanoAODv12/NMSSM_XtoYHto4B_MX-3500_MY-300_TuneCP5_13p6TeV_madgraph-pythia8/NANOAODSIM/130X_mcRun3_2022_realistic_v5-v2/2820000/030b3bf9-8205-479a-93ef-e0b26ff14661.root",
        "T2_US_Florida: davs://cmsio2.rc.ufl.edu:1094/store/mc/Run3Summer22NanoAODv12/NMSSM_XtoYHto4B_MX-3500_MY-300_TuneCP5_13p6TeV_madgraph-pythia8/NANOAODSIM/130X_mcRun3_2022_realistic_v5-v2/2820000/030b3bf9-8205-479a-93ef-e0b26ff14661.root",
        "T1_US_FNAL_Tape: davs://cmsdcatape.fnal.gov:2880/WAX/11/store/mc/Run3Summer22NanoAODv12/NMSSM_XtoYHto4B_MX-3500_MY-300_TuneCP5_13p6TeV_madgraph-pythia8/NANOAODSIM/130X_mcRun3_2022_realistic_v5-v2/2820000/030b3bf9-8205-479a-93ef-e0b26ff14661.root",
        "T2_DE_RWTH: davs://grid-webdav.physik.rwth-aachen.de:2889/store/mc/Run3Summer22NanoAODv12/NMSSM_XtoYHto4B_MX-3500_MY-300_TuneCP5_13p6TeV_madgraph-pythia8/NANOAODSIM/130X_mcRun3_2022_realistic_v5-v2/2820000/030b3bf9-8205-479a-93ef-e0b26ff14661.root"
    ]
}