{
    "cms:/store/mc/Run3Summer23BPixNanoAODv12/NMSSM_XtoYHto4B_MX-1600_MY-100_TuneCP5_13p6TeV_madgraph-pythia8/NANOAODSIM/130X_mcRun3_2023_realistic_postBPix_v6-v2/2560000/1922c5c0-4b56-4e17-9a71-32d272d36d35.root": [
        "T2_CH_CSCS: davs://storage01.lcg.cscs.ch:2880/pnfs/lcg.cscs.ch/cms/trivcat/store/mc/Run3Summer23BPixNanoAODv12/NMSSM_XtoYHto4B_MX-1600_MY-100_TuneCP5_13p6TeV_madgraph-pythia8/NANOAODSIM/130X_mcRun3_2023_realistic_postBPix_v6-v2/2560000/1922c5c0-4b56-4e17-9a71-32d272d36d35.root",
        "T2_CH_CERN: davs://eoscms.cern.ch:443/eos/cms/store/mc/Run3Summer23BPixNanoAODv12/NMSSM_XtoYHto4B_MX-1600_MY-100_TuneCP5_13p6TeV_madgraph-pythia8/NANOAODSIM/130X_mcRun3_2023_realistic_postBPix_v6-v2/2560000/1922c5c0-4b56-4e17-9a71-32d272d36d35.root",
        "T1_US_FNAL_Tape_Test: davs://cmstnvm1.fnal.gov:2880/store/mc/Run3Summer23BPixNanoAODv12/NMSSM_XtoYHto4B_MX-1600_MY-100_TuneCP5_13p6TeV_madgraph-pythia8/NANOAODSIM/130X_mcRun3_2023_realistic_postBPix_v6-v2/2560000/1922c5c0-4b56-4e17-9a71-32d272d36d35.root",
        "T2_US_Wisconsin: davs://cmsxrootd.hep.wisc.edu:1094/store/mc/Run3Summer23BPixNanoAODv12/NMSSM_XtoYHto4B_MX-1600_MY-100_TuneCP5_13p6TeV_madgraph-pythia8/NANOAODSIM/130X_mcRun3_2023_realistic_postBPix_v6-v2/2560000/1922c5c0-4b56-4e17-9a71-32d272d36d35.root",
        "T2_US_Caltech: davs://k8s-redir-stageout.ultralight.org:1094/store/mc/Run3Summer23BPixNanoAODv12/NMSSM_XtoYHto4B_MX-1600_MY-100_TuneCP5_13p6TeV_madgraph-pythia8/NANOAODSIM/130X_mcRun3_2023_realistic_postBPix_v6-v2/2560000/1922c5c0-4b56-4e17-9a71-32d272d36d35.root",
        "T2_US_Nebraska: davs://xrootd-local.unl.edu:1094/store/mc/Run3Summer23BPixNanoAODv12/NMSSM_XtoYHto4B_MX-1600_MY-100_TuneCP5_13p6TeV_madgraph-pythia8/NANOAODSIM/130X_mcRun3_2023_realistic_postBPix_v6-v2/2560000/1922c5c0-4b56-4e17-9a71-32d272d36d35.root",
        "T1_RU_JINR_Disk: davs://se-wbdv.jinr-t1.ru:2880/pnfs/jinr-t1.ru/data/cms/store/mc/Run3Summer23BPixNanoAODv12/NMSSM_XtoYHto4B_MX-1600_MY-100_TuneCP5_13p6TeV_madgraph-pythia8/NANOAODSIM/130X_mcRun3_2023_realistic_postBPix_v6-v2/2560000/1922c5c0-4b56-4e17-9a71-32d272d36d35.root",
        "T2_ES_CIEMAT: davs://srm.ciemat.es:2880/pnfs/ciemat.es/data/cms/prod/store/mc/Run3Summer23BPixNanoAODv12/NMSSM_XtoYHto4B_MX-1600_MY-100_TuneCP5_13p6TeV_madgraph-pythia8/NANOAODSIM/130X_mcRun3_2023_realistic_postBPix_v6-v2/2560000/1922c5c0-4b56-4e17-9a71-32d272d36d35.root",
        "T2_US_MIT_Tape: davs://dtn20.nese.mghpcc.org:443/store/mc/Run3Summer23BPixNanoAODv12/NMSSM_XtoYHto4B_MX-1600_MY-100_TuneCP5_13p6TeV_madgraph-pythia8/NANOAODSIM/130X_mcRun3_2023_realistic_postBPix_v6-v2/2560000/1922c5c0-4b56-4e17-9a71-32d272d36d35.root"
    ],
    "cms:/store/mc/Run3Summer23BPixNanoAODv12/NMSSM_XtoYHto4B_MX-1600_MY-100_TuneCP5_13p6TeV_madgraph-pythia8/NANOAODSIM/130X_mcRun3_2023_realistic_postBPix_v6-v2/110000/a7e252a5-e017-4ca5-b707-448467039425.root": [
        "T2_CH_CSCS: davs://storage01.lcg.cscs.ch:2880/pnfs/lcg.cscs.ch/cms/trivcat/store/mc/Run3Summer23BPixNanoAODv12/NMSSM_XtoYHto4B_MX-1600_MY-100_TuneCP5_13p6TeV_madgraph-pythia8/NANOAODSIM/130X_mcRun3_2023_realistic_postBPix_v6-v2/110000/a7e252a5-e017-4ca5-b707-448467039425.root",
        "T2_CH_CERN: davs://eoscms.cern.ch:443/eos/cms/store/mc/Run3Summer23BPixNanoAODv12/NMSSM_XtoYHto4B_MX-1600_MY-100_TuneCP5_13p6TeV_madgraph-pythia8/NANOAODSIM/130X_mcRun3_2023_realistic_postBPix_v6-v2/110000/a7e252a5-e017-4ca5-b707-448467039425.root",
        "T1_US_FNAL_Tape_Test: davs://cmstnvm1.fnal.gov:2880/store/mc/Run3Summer23BPixNanoAODv12/NMSSM_XtoYHto4B_MX-1600_MY-100_TuneCP5_13p6TeV_madgraph-pythia8/NANOAODSIM/130X_mcRun3_2023_realistic_postBPix_v6-v2/110000/a7e252a5-e017-4ca5-b707-448467039425.root",
        "T2_US_Caltech: davs://k8s-redir-stageout.ultralight.org:1094/store/mc/Run3Summer23BPixNanoAODv12/NMSSM_XtoYHto4B_MX-1600_MY-100_TuneCP5_13p6TeV_madgraph-pythia8/NANOAODSIM/130X_mcRun3_2023_realistic_postBPix_v6-v2/110000/a7e252a5-e017-4ca5-b707-448467039425.root",
        "T2_US_Nebraska: davs://xrootd-local.unl.edu:1094/store/mc/Run3Summer23BPixNanoAODv12/NMSSM_XtoYHto4B_MX-1600_MY-100_TuneCP5_13p6TeV_madgraph-pythia8/NANOAODSIM/130X_mcRun3_2023_realistic_postBPix_v6-v2/110000/a7e252a5-e017-4ca5-b707-448467039425.root",
        "T2_EE_Estonia: davs://xrootd.hep.kbfi.ee:1094/store/mc/Run3Summer23BPixNanoAODv12/NMSSM_XtoYHto4B_MX-1600_MY-100_TuneCP5_13p6TeV_madgraph-pythia8/NANOAODSIM/130X_mcRun3_2023_realistic_postBPix_v6-v2/110000/a7e252a5-e017-4ca5-b707-448467039425.root",
        "T1_RU_JINR_Disk: davs://se-wbdv.jinr-t1.ru:2880/pnfs/jinr-t1.ru/data/cms/store/mc/Run3Summer23BPixNanoAODv12/NMSSM_XtoYHto4B_MX-1600_MY-100_TuneCP5_13p6TeV_madgraph-pythia8/NANOAODSIM/130X_mcRun3_2023_realistic_postBPix_v6-v2/110000/a7e252a5-e017-4ca5-b707-448467039425.root",
        "T2_ES_CIEMAT: davs://srm.ciemat.es:2880/pnfs/ciemat.es/data/cms/prod/store/mc/Run3Summer23BPixNanoAODv12/NMSSM_XtoYHto4B_MX-1600_MY-100_TuneCP5_13p6TeV_madgraph-pythia8/NANOAODSIM/130X_mcRun3_2023_realistic_postBPix_v6-v2/110000/a7e252a5-e017-4ca5-b707-448467039425.root",
        "T2_US_MIT_Tape: davs://dtn20.nese.mghpcc.org:443/store/mc/Run3Summer23BPixNanoAODv12/NMSSM_XtoYHto4B_MX-1600_MY-100_TuneCP5_13p6TeV_madgraph-pythia8/NANOAODSIM/130X_mcRun3_2023_realistic_postBPix_v6-v2/110000/a7e252a5-e017-4ca5-b707-448467039425.root"
    ],
    "cms:/store/mc/Run3Summer23BPixNanoAODv12/NMSSM_XtoYHto4B_MX-1600_MY-100_TuneCP5_13p6TeV_madgraph-pythia8/NANOAODSIM/130X_mcRun3_2023_realistic_postBPix_v6-v2/2560000/2ed3a6b0-ed84-482e-81bc-1b654b549046.root": [
        "T2_CH_CSCS: davs://storage01.lcg.cscs.ch:2880/pnfs/lcg.cscs.ch/cms/trivcat/store/mc/Run3Summer23BPixNanoAODv12/NMSSM_XtoYHto4B_MX-1600_MY-100_TuneCP5_13p6TeV_madgraph-pythia8/NANOAODSIM/130X_mcRun3_2023_realistic_postBPix_v6-v2/2560000/2ed3a6b0-ed84-482e-81bc-1b654b549046.root",
        "T2_CH_CERN: davs://eoscms.cern.ch:443/eos/cms/store/mc/Run3Summer23BPixNanoAODv12/NMSSM_XtoYHto4B_MX-1600_MY-100_TuneCP5_13p6TeV_madgraph-pythia8/NANOAODSIM/130X_mcRun3_2023_realistic_postBPix_v6-v2/2560000/2ed3a6b0-ed84-482e-81bc-1b654b549046.root",
        "T1_US_FNAL_Tape_Test: davs://cmstnvm1.fnal.gov:2880/store/mc/Run3Summer23BPixNanoAODv12/NMSSM_XtoYHto4B_MX-1600_MY-100_TuneCP5_13p6TeV_madgraph-pythia8/NANOAODSIM/130X_mcRun3_2023_realistic_postBPix_v6-v2/2560000/2ed3a6b0-ed84-482e-81bc-1b654b549046.root",
        "T2_US_Caltech: davs://k8s-redir-stageout.ultralight.org:1094/store/mc/Run3Summer23BPixNanoAODv12/NMSSM_XtoYHto4B_MX-1600_MY-100_TuneCP5_13p6TeV_madgraph-pythia8/NANOAODSIM/130X_mcRun3_2023_realistic_postBPix_v6-v2/2560000/2ed3a6b0-ed84-482e-81bc-1b654b549046.root",
        "T2_US_Nebraska: davs://xrootd-local.unl.edu:1094/store/mc/Run3Summer23BPixNanoAODv12/NMSSM_XtoYHto4B_MX-1600_MY-100_TuneCP5_13p6TeV_madgraph-pythia8/NANOAODSIM/130X_mcRun3_2023_realistic_postBPix_v6-v2/2560000/2ed3a6b0-ed84-482e-81bc-1b654b549046.root",
        "T1_RU_JINR_Disk: davs://se-wbdv.jinr-t1.ru:2880/pnfs/jinr-t1.ru/data/cms/store/mc/Run3Summer23BPixNanoAODv12/NMSSM_XtoYHto4B_MX-1600_MY-100_TuneCP5_13p6TeV_madgraph-pythia8/NANOAODSIM/130X_mcRun3_2023_realistic_postBPix_v6-v2/2560000/2ed3a6b0-ed84-482e-81bc-1b654b549046.root",
        "T2_ES_CIEMAT: davs://srm.ciemat.es:2880/pnfs/ciemat.es/data/cms/prod/store/mc/Run3Summer23BPixNanoAODv12/NMSSM_XtoYHto4B_MX-1600_MY-100_TuneCP5_13p6TeV_madgraph-pythia8/NANOAODSIM/130X_mcRun3_2023_realistic_postBPix_v6-v2/2560000/2ed3a6b0-ed84-482e-81bc-1b654b549046.root",
        "T2_US_MIT_Tape: davs://dtn20.nese.mghpcc.org:443/store/mc/Run3Summer23BPixNanoAODv12/NMSSM_XtoYHto4B_MX-1600_MY-100_TuneCP5_13p6TeV_madgraph-pythia8/NANOAODSIM/130X_mcRun3_2023_realistic_postBPix_v6-v2/2560000/2ed3a6b0-ed84-482e-81bc-1b654b549046.root"
    ],
    "cms:/store/mc/Run3Summer23BPixNanoAODv12/NMSSM_XtoYHto4B_MX-1600_MY-100_TuneCP5_13p6TeV_madgraph-pythia8/NANOAODSIM/130X_mcRun3_2023_realistic_postBPix_v6-v2/2560000/57fe0c1c-e98f-48e0-a7ba-8c33683d635e.root": [
        "T2_CH_CSCS: davs://storage01.lcg.cscs.ch:2880/pnfs/lcg.cscs.ch/cms/trivcat/store/mc/Run3Summer23BPixNanoAODv12/NMSSM_XtoYHto4B_MX-1600_MY-100_TuneCP5_13p6TeV_madgraph-pythia8/NANOAODSIM/130X_mcRun3_2023_realistic_postBPix_v6-v2/2560000/57fe0c1c-e98f-48e0-a7ba-8c33683d635e.root",
        "T2_CH_CERN: davs://eoscms.cern.ch:443/eos/cms/store/mc/Run3Summer23BPixNanoAODv12/NMSSM_XtoYHto4B_MX-1600_MY-100_TuneCP5_13p6TeV_madgraph-pythia8/NANOAODSIM/130X_mcRun3_2023_realistic_postBPix_v6-v2/2560000/57fe0c1c-e98f-48e0-a7ba-8c33683d635e.root",
        "T1_US_FNAL_Tape_Test: davs://cmstnvm1.fnal.gov:2880/store/mc/Run3Summer23BPixNanoAODv12/NMSSM_XtoYHto4B_MX-1600_MY-100_TuneCP5_13p6TeV_madgraph-pythia8/NANOAODSIM/130X_mcRun3_2023_realistic_postBPix_v6-v2/2560000/57fe0c1c-e98f-48e0-a7ba-8c33683d635e.root",
        "T2_US_Caltech: davs://k8s-redir-stageout.ultralight.org:1094/store/mc/Run3Summer23BPixNanoAODv12/NMSSM_XtoYHto4B_MX-1600_MY-100_TuneCP5_13p6TeV_madgraph-pythia8/NANOAODSIM/130X_mcRun3_2023_realistic_postBPix_v6-v2/2560000/57fe0c1c-e98f-48e0-a7ba-8c33683d635e.root",
        "T2_US_Nebraska: davs://xrootd-local.unl.edu:1094/store/mc/Run3Summer23BPixNanoAODv12/NMSSM_XtoYHto4B_MX-1600_MY-100_TuneCP5_13p6TeV_madgraph-pythia8/NANOAODSIM/130X_mcRun3_2023_realistic_postBPix_v6-v2/2560000/57fe0c1c-e98f-48e0-a7ba-8c33683d635e.root",
        "T1_RU_JINR_Disk: davs://se-wbdv.jinr-t1.ru:2880/pnfs/jinr-t1.ru/data/cms/store/mc/Run3Summer23BPixNanoAODv12/NMSSM_XtoYHto4B_MX-1600_MY-100_TuneCP5_13p6TeV_madgraph-pythia8/NANOAODSIM/130X_mcRun3_2023_realistic_postBPix_v6-v2/2560000/57fe0c1c-e98f-48e0-a7ba-8c33683d635e.root",
        "T2_ES_CIEMAT: davs://srm.ciemat.es:2880/pnfs/ciemat.es/data/cms/prod/store/mc/Run3Summer23BPixNanoAODv12/NMSSM_XtoYHto4B_MX-1600_MY-100_TuneCP5_13p6TeV_madgraph-pythia8/NANOAODSIM/130X_mcRun3_2023_realistic_postBPix_v6-v2/2560000/57fe0c1c-e98f-48e0-a7ba-8c33683d635e.root",
        "T2_US_MIT_Tape: davs://dtn20.nese.mghpcc.org:443/store/mc/Run3Summer23BPixNanoAODv12/NMSSM_XtoYHto4B_MX-1600_MY-100_TuneCP5_13p6TeV_madgraph-pythia8/NANOAODSIM/130X_mcRun3_2023_realistic_postBPix_v6-v2/2560000/57fe0c1c-e98f-48e0-a7ba-8c33683d635e.root"
    ],
    "cms:/store/mc/Run3Summer23BPixNanoAODv12/NMSSM_XtoYHto4B_MX-1600_MY-100_TuneCP5_13p6TeV_madgraph-pythia8/NANOAODSIM/130X_mcRun3_2023_realistic_postBPix_v6-v2/2560000/183bbd3d-8821-4a4a-828f-6cc5a2243f9d.root": [
        "T1_US_FNAL_Disk: davs://cmsdcadisk.fnal.gov:2880/dcache/uscmsdisk/store/mc/Run3Summer23BPixNanoAODv12/NMSSM_XtoYHto4B_MX-1600_MY-100_TuneCP5_13p6TeV_madgraph-pythia8/NANOAODSIM/130X_mcRun3_2023_realistic_postBPix_v6-v2/2560000/183bbd3d-8821-4a4a-828f-6cc5a2243f9d.root",
        "T2_CH_CSCS: davs://storage01.lcg.cscs.ch:2880/pnfs/lcg.cscs.ch/cms/trivcat/store/mc/Run3Summer23BPixNanoAODv12/NMSSM_XtoYHto4B_MX-1600_MY-100_TuneCP5_13p6TeV_madgraph-pythia8/NANOAODSIM/130X_mcRun3_2023_realistic_postBPix_v6-v2/2560000/183bbd3d-8821-4a4a-828f-6cc5a2243f9d.root",
        "T2_CH_CERN: davs://eoscms.cern.ch:443/eos/cms/store/mc/Run3Summer23BPixNanoAODv12/NMSSM_XtoYHto4B_MX-1600_MY-100_TuneCP5_13p6TeV_madgraph-pythia8/NANOAODSIM/130X_mcRun3_2023_realistic_postBPix_v6-v2/2560000/183bbd3d-8821-4a4a-828f-6cc5a2243f9d.root",
        "T1_US_FNAL_Tape_Test: davs://cmstnvm1.fnal.gov:2880/store/mc/Run3Summer23BPixNanoAODv12/NMSSM_XtoYHto4B_MX-1600_MY-100_TuneCP5_13p6TeV_madgraph-pythia8/NANOAODSIM/130X_mcRun3_2023_realistic_postBPix_v6-v2/2560000/183bbd3d-8821-4a4a-828f-6cc5a2243f9d.root",
        "T2_US_Caltech: davs://k8s-redir-stageout.ultralight.org:1094/store/mc/Run3Summer23BPixNanoAODv12/NMSSM_XtoYHto4B_MX-1600_MY-100_TuneCP5_13p6TeV_madgraph-pythia8/NANOAODSIM/130X_mcRun3_2023_realistic_postBPix_v6-v2/2560000/183bbd3d-8821-4a4a-828f-6cc5a2243f9d.root",
        "T2_US_Nebraska: davs://xrootd-local.unl.edu:1094/store/mc/Run3Summer23BPixNanoAODv12/NMSSM_XtoYHto4B_MX-1600_MY-100_TuneCP5_13p6TeV_madgraph-pythia8/NANOAODSIM/130X_mcRun3_2023_realistic_postBPix_v6-v2/2560000/183bbd3d-8821-4a4a-828f-6cc5a2243f9d.root",
        "T1_RU_JINR_Disk: davs://se-wbdv.jinr-t1.ru:2880/pnfs/jinr-t1.ru/data/cms/store/mc/Run3Summer23BPixNanoAODv12/NMSSM_XtoYHto4B_MX-1600_MY-100_TuneCP5_13p6TeV_madgraph-pythia8/NANOAODSIM/130X_mcRun3_2023_realistic_postBPix_v6-v2/2560000/183bbd3d-8821-4a4a-828f-6cc5a2243f9d.root",
        "T2_ES_CIEMAT: davs://srm.ciemat.es:2880/pnfs/ciemat.es/data/cms/prod/store/mc/Run3Summer23BPixNanoAODv12/NMSSM_XtoYHto4B_MX-1600_MY-100_TuneCP5_13p6TeV_madgraph-pythia8/NANOAODSIM/130X_mcRun3_2023_realistic_postBPix_v6-v2/2560000/183bbd3d-8821-4a4a-828f-6cc5a2243f9d.root"
    ],
    "cms:/store/mc/Run3Summer23BPixNanoAODv12/NMSSM_XtoYHto4B_MX-1600_MY-100_TuneCP5_13p6TeV_madgraph-pythia8/NANOAODSIM/130X_mcRun3_2023_realistic_postBPix_v6-v2/2560000/d14c86d0-fb3b-428a-bcc3-3d6ab12612cf.root": [
        "T2_CH_CSCS: davs://storage01.lcg.cscs.ch:2880/pnfs/lcg.cscs.ch/cms/trivcat/store/mc/Run3Summer23BPixNanoAODv12/NMSSM_XtoYHto4B_MX-1600_MY-100_TuneCP5_13p6TeV_madgraph-pythia8/NANOAODSIM/130X_mcRun3_2023_realistic_postBPix_v6-v2/2560000/d14c86d0-fb3b-428a-bcc3-3d6ab12612cf.root",
        "T2_CH_CERN: davs://eoscms.cern.ch:443/eos/cms/store/mc/Run3Summer23BPixNanoAODv12/NMSSM_XtoYHto4B_MX-1600_MY-100_TuneCP5_13p6TeV_madgraph-pythia8/NANOAODSIM/130X_mcRun3_2023_realistic_postBPix_v6-v2/2560000/d14c86d0-fb3b-428a-bcc3-3d6ab12612cf.root",
        "T1_US_FNAL_Tape_Test: davs://cmstnvm1.fnal.gov:2880/store/mc/Run3Summer23BPixNanoAODv12/NMSSM_XtoYHto4B_MX-1600_MY-100_TuneCP5_13p6TeV_madgraph-pythia8/NANOAODSIM/130X_mcRun3_2023_realistic_postBPix_v6-v2/2560000/d14c86d0-fb3b-428a-bcc3-3d6ab12612cf.root",
        "T2_US_Caltech: davs://k8s-redir-stageout.ultralight.org:1094/store/mc/Run3Summer23BPixNanoAODv12/NMSSM_XtoYHto4B_MX-1600_MY-100_TuneCP5_13p6TeV_madgraph-pythia8/NANOAODSIM/130X_mcRun3_2023_realistic_postBPix_v6-v2/2560000/d14c86d0-fb3b-428a-bcc3-3d6ab12612cf.root",
        "T2_US_Nebraska: davs://xrootd-local.unl.edu:1094/store/mc/Run3Summer23BPixNanoAODv12/NMSSM_XtoYHto4B_MX-1600_MY-100_TuneCP5_13p6TeV_madgraph-pythia8/NANOAODSIM/130X_mcRun3_2023_realistic_postBPix_v6-v2/2560000/d14c86d0-fb3b-428a-bcc3-3d6ab12612cf.root",
        "T1_RU_JINR_Disk: davs://se-wbdv.jinr-t1.ru:2880/pnfs/jinr-t1.ru/data/cms/store/mc/Run3Summer23BPixNanoAODv12/NMSSM_XtoYHto4B_MX-1600_MY-100_TuneCP5_13p6TeV_madgraph-pythia8/NANOAODSIM/130X_mcRun3_2023_realistic_postBPix_v6-v2/2560000/d14c86d0-fb3b-428a-bcc3-3d6ab12612cf.root",
        "T2_ES_CIEMAT: davs://srm.ciemat.es:2880/pnfs/ciemat.es/data/cms/prod/store/mc/Run3Summer23BPixNanoAODv12/NMSSM_XtoYHto4B_MX-1600_MY-100_TuneCP5_13p6TeV_madgraph-pythia8/NANOAODSIM/130X_mcRun3_2023_realistic_postBPix_v6-v2/2560000/d14c86d0-fb3b-428a-bcc3-3d6ab12612cf.root",
        "T2_US_MIT_Tape: davs://dtn20.nese.mghpcc.org:443/store/mc/Run3Summer23BPixNanoAODv12/NMSSM_XtoYHto4B_MX-1600_MY-100_TuneCP5_13p6TeV_madgraph-pythia8/NANOAODSIM/130X_mcRun3_2023_realistic_postBPix_v6-v2/2560000/d14c86d0-fb3b-428a-bcc3-3d6ab12612cf.root"
    ],
    "cms:/store/mc/Run3Summer23BPixNanoAODv12/NMSSM_XtoYHto4B_MX-1600_MY-100_TuneCP5_13p6TeV_madgraph-pythia8/NANOAODSIM/130X_mcRun3_2023_realistic_postBPix_v6-v2/2560000/f587cd27-f951-41c1-9688-54119f37a892.root": [
        "T2_CH_CSCS: davs://storage01.lcg.cscs.ch:2880/pnfs/lcg.cscs.ch/cms/trivcat/store/mc/Run3Summer23BPixNanoAODv12/NMSSM_XtoYHto4B_MX-1600_MY-100_TuneCP5_13p6TeV_madgraph-pythia8/NANOAODSIM/130X_mcRun3_2023_realistic_postBPix_v6-v2/2560000/f587cd27-f951-41c1-9688-54119f37a892.root",
        "T2_CH_CERN: davs://eoscms.cern.ch:443/eos/cms/store/mc/Run3Summer23BPixNanoAODv12/NMSSM_XtoYHto4B_MX-1600_MY-100_TuneCP5_13p6TeV_madgraph-pythia8/NANOAODSIM/130X_mcRun3_2023_realistic_postBPix_v6-v2/2560000/f587cd27-f951-41c1-9688-54119f37a892.root",
        "T1_US_FNAL_Tape_Test: davs://cmstnvm1.fnal.gov:2880/store/mc/Run3Summer23BPixNanoAODv12/NMSSM_XtoYHto4B_MX-1600_MY-100_TuneCP5_13p6TeV_madgraph-pythia8/NANOAODSIM/130X_mcRun3_2023_realistic_postBPix_v6-v2/2560000/f587cd27-f951-41c1-9688-54119f37a892.root",
        "T2_US_Caltech: davs://k8s-redir-stageout.ultralight.org:1094/store/mc/Run3Summer23BPixNanoAODv12/NMSSM_XtoYHto4B_MX-1600_MY-100_TuneCP5_13p6TeV_madgraph-pythia8/NANOAODSIM/130X_mcRun3_2023_realistic_postBPix_v6-v2/2560000/f587cd27-f951-41c1-9688-54119f37a892.root",
        "T2_US_Nebraska: davs://xrootd-local.unl.edu:1094/store/mc/Run3Summer23BPixNanoAODv12/NMSSM_XtoYHto4B_MX-1600_MY-100_TuneCP5_13p6TeV_madgraph-pythia8/NANOAODSIM/130X_mcRun3_2023_realistic_postBPix_v6-v2/2560000/f587cd27-f951-41c1-9688-54119f37a892.root",
        "T1_RU_JINR_Disk: davs://se-wbdv.jinr-t1.ru:2880/pnfs/jinr-t1.ru/data/cms/store/mc/Run3Summer23BPixNanoAODv12/NMSSM_XtoYHto4B_MX-1600_MY-100_TuneCP5_13p6TeV_madgraph-pythia8/NANOAODSIM/130X_mcRun3_2023_realistic_postBPix_v6-v2/2560000/f587cd27-f951-41c1-9688-54119f37a892.root",
        "T2_ES_CIEMAT: davs://srm.ciemat.es:2880/pnfs/ciemat.es/data/cms/prod/store/mc/Run3Summer23BPixNanoAODv12/NMSSM_XtoYHto4B_MX-1600_MY-100_TuneCP5_13p6TeV_madgraph-pythia8/NANOAODSIM/130X_mcRun3_2023_realistic_postBPix_v6-v2/2560000/f587cd27-f951-41c1-9688-54119f37a892.root",
        "T2_US_MIT_Tape: davs://dtn20.nese.mghpcc.org:443/store/mc/Run3Summer23BPixNanoAODv12/NMSSM_XtoYHto4B_MX-1600_MY-100_TuneCP5_13p6TeV_madgraph-pythia8/NANOAODSIM/130X_mcRun3_2023_realistic_postBPix_v6-v2/2560000/f587cd27-f951-41c1-9688-54119f37a892.root"
    ]
}