{
    "cms:/store/mc/Run3Summer22NanoAODv12/NMSSM_XtoYHto4B_MX-1400_MY-90_TuneCP5_13p6TeV_madgraph-pythia8/NANOAODSIM/130X_mcRun3_2022_realistic_v5-v2/60000/954f5b37-282c-4cbb-a0a7-38c26940e7fd.root": [
        "T1_US_FNAL_Disk: davs://cmsdcadisk.fnal.gov:2880/dcache/uscmsdisk/store/mc/Run3Summer22NanoAODv12/NMSSM_XtoYHto4B_MX-1400_MY-90_TuneCP5_13p6TeV_madgraph-pythia8/NANOAODSIM/130X_mcRun3_2022_realistic_v5-v2/60000/954f5b37-282c-4cbb-a0a7-38c26940e7fd.root",
        "T2_US_Vanderbilt: davs://xrootd-vanderbilt.sites.opensciencegrid.org:1094/store/mc/Run3Summer22NanoAODv12/NMSSM_XtoYHto4B_MX-1400_MY-90_TuneCP5_13p6TeV_madgraph-pythia8/NANOAODSIM/130X_mcRun3_2022_realistic_v5-v2/60000/954f5b37-282c-4cbb-a0a7-38c26940e7fd.root",
        "T2_KR_KISTI: davs://cms-t2-se01.sdfarm.kr:2880/store/mc/Run3Summer22NanoAODv12/NMSSM_XtoYHto4B_MX-1400_MY-90_TuneCP5_13p6TeV_madgraph-pythia8/NANOAODSIM/130X_mcRun3_2022_realistic_v5-v2/60000/954f5b37-282c-4cbb-a0a7-38c26940e7fd.root",
        "T2_UK_London_IC: davs://gfe02.grid.hep.ph.ic.ac.uk:2880/pnfs/hep.ph.ic.ac.uk/data/cms/store/mc/Run3Summer22NanoAODv12/NMSSM_XtoYHto4B_MX-1400_MY-90_TuneCP5_13p6TeV_madgraph-pythia8/NANOAODSIM/130X_mcRun3_2022_realistic_v5-v2/60000/954f5b37-282c-4cbb-a0a7-38c26940e7fd.root",
        "T2_UK_London_Brunel: davs://xrootdgw.brunel.ac.uk:1094/store/mc/Run3Summer22NanoAODv12/NMSSM_XtoYHto4B_MX-1400_MY-90_TuneCP5_13p6TeV_madgraph-pythia8/NANOAODSIM/130X_mcRun3_2022_realistic_v5-v2/60000/954f5b37-282c-4cbb-a0a7-38c26940e7fd.root",
        "T1_US_FNAL_Tape: davs://cmsdcatape.fnal.gov:2880/WAX/11/store/mc/Run3Summer22NanoAODv12/NMSSM_XtoYHto4B_MX-1400_MY-90_TuneCP5_13p6TeV_madgraph-pythia8/NANOAODSIM/130X_mcRun3_2022_realistic_v5-v2/60000/954f5b37-282c-4cbb-a0a7-38c26940e7fd.root",
        "T1_IT_CNAF_Disk: davs://xfer-cms.cr.cnaf.infn.it:8443/cmsdisk/store/mc/Run3Summer22NanoAODv12/NMSSM_XtoYHto4B_MX-1400_MY-90_TuneCP5_13p6TeV_madgraph-pythia8/NANOAODSIM/130X_mcRun3_2022_realistic_v5-v2/60000/954f5b37-282c-4cbb-a0a7-38c26940e7fd.root"
    ]
}