#/NMSSM_XtoYHto4B_MX-700_MY-95_TuneCP5_13p6TeV_madgraph-pythia8/Run3Summer22NanoAODv12-130X_mcRun3_2022_realistic_v5-v2/NANOAODSIM
+--------------------------------------------------------------------------------------------------------------------------------------------------------------------------------------------------+--------+-------------+------------+----------+
| SCOPE:NAME                                                                                                                                                                                       | GUID   | ADLER32     | FILESIZE   | EVENTS   |
|--------------------------------------------------------------------------------------------------------------------------------------------------------------------------------------------------+--------+-------------+------------+----------|
| cms:/store/mc/Run3Summer22NanoAODv12/NMSSM_XtoYHto4B_MX-700_MY-95_TuneCP5_13p6TeV_madgraph-pythia8/NANOAODSIM/130X_mcRun3_2022_realistic_v5-v2/2820000/6e9e7374-914d-434a-9274-173427107e1f.root | (None) | ad:def7ca9e | 8.555 MB   |          |
| cms:/store/mc/Run3Summer22NanoAODv12/NMSSM_XtoYHto4B_MX-700_MY-95_TuneCP5_13p6TeV_madgraph-pythia8/NANOAODSIM/130X_mcRun3_2022_realistic_v5-v2/2820000/454b24bc-fda8-4fa7-8e42-36d85c4b92ff.root | (None) | ad:4aac58e4 | 4.720 MB   |          |
| cms:/store/mc/Run3Summer22NanoAODv12/NMSSM_XtoYHto4B_MX-700_MY-95_TuneCP5_13p6TeV_madgraph-pythia8/NANOAODSIM/130X_mcRun3_2022_realistic_v5-v2/2820000/32ee250d-47f5-4fed-b110-b99822afad89.root | (None) | ad:ae8e8efe | 12.185 MB  |          |
| cms:/store/mc/Run3Summer22NanoAODv12/NMSSM_XtoYHto4B_MX-700_MY-95_TuneCP5_13p6TeV_madgraph-pythia8/NANOAODSIM/130X_mcRun3_2022_realistic_v5-v2/2820000/d2c78fc2-c6d7-44e2-94f4-a082c67a0126.root | (None) | ad:b26acc45 | 3.195 MB   |          |
| cms:/store/mc/Run3Summer22NanoAODv12/NMSSM_XtoYHto4B_MX-700_MY-95_TuneCP5_13p6TeV_madgraph-pythia8/NANOAODSIM/130X_mcRun3_2022_realistic_v5-v2/2820000/595185f4-d6e2-4c28-ab89-57ba6465a8ed.root | (None) | ad:395cf463 | 4.727 MB   |          |
| cms:/store/mc/Run3Summer22NanoAODv12/NMSSM_XtoYHto4B_MX-700_MY-95_TuneCP5_13p6TeV_madgraph-pythia8/NANOAODSIM/130X_mcRun3_2022_realistic_v5-v2/2820000/20a621bd-9be4-412a-b2ee-21a5df2a59e0.root | (None) | ad:2b256059 | 8.584 MB   |          |
| cms:/store/mc/Run3Summer22NanoAODv12/NMSSM_XtoYHto4B_MX-700_MY-95_TuneCP5_13p6TeV_madgraph-pythia8/NANOAODSIM/130X_mcRun3_2022_realistic_v5-v2/2820000/0a576b30-bfba-473c-a8f3-1c34c1889123.root | (None) | ad:17d3fad6 | 4.723 MB   |          |
| cms:/store/mc/Run3Summer22NanoAODv12/NMSSM_XtoYHto4B_MX-700_MY-95_TuneCP5_13p6TeV_madgraph-pythia8/NANOAODSIM/130X_mcRun3_2022_realistic_v5-v2/2820000/f220799f-44e0-478c-9be6-d7f6b2c6a09f.root | (None) | ad:5ca51b36 | 4.726 MB   |          |
| cms:/store/mc/Run3Summer22NanoAODv12/NMSSM_XtoYHto4B_MX-700_MY-95_TuneCP5_13p6TeV_madgraph-pythia8/NANOAODSIM/130X_mcRun3_2022_realistic_v5-v2/2820000/6e998bc4-2427-4166-b3a1-c5e011c63aa1.root | (None) | ad:0c1daf6d | 4.725 MB   |          |
| cms:/store/mc/Run3Summer22NanoAODv12/NMSSM_XtoYHto4B_MX-700_MY-95_TuneCP5_13p6TeV_madgraph-pythia8/NANOAODSIM/130X_mcRun3_2022_realistic_v5-v2/2820000/29922a89-efb9-4bff-a55f-669264e4daab.root | (None) | ad:9efe5262 | 8.624 MB   |          |
| cms:/store/mc/Run3Summer22NanoAODv12/NMSSM_XtoYHto4B_MX-700_MY-95_TuneCP5_13p6TeV_madgraph-pythia8/NANOAODSIM/130X_mcRun3_2022_realistic_v5-v2/2820000/316ae6dd-dc9b-47ce-9b9b-905d51a55ebe.root | (None) | ad:3c4961dd | 4.706 MB   |          |
| cms:/store/mc/Run3Summer22NanoAODv12/NMSSM_XtoYHto4B_MX-700_MY-95_TuneCP5_13p6TeV_madgraph-pythia8/NANOAODSIM/130X_mcRun3_2022_realistic_v5-v2/2820000/b7023049-a4b1-490e-9a16-e19b528069de.root | (None) | ad:78ff8053 | 4.710 MB   |          |
| cms:/store/mc/Run3Summer22NanoAODv12/NMSSM_XtoYHto4B_MX-700_MY-95_TuneCP5_13p6TeV_madgraph-pythia8/NANOAODSIM/130X_mcRun3_2022_realistic_v5-v2/2820000/f36ecabf-8668-4b4d-b52c-d6e8cf31e58f.root | (None) | ad:e23449f3 | 4.728 MB   |          |
| cms:/store/mc/Run3Summer22NanoAODv12/NMSSM_XtoYHto4B_MX-700_MY-95_TuneCP5_13p6TeV_madgraph-pythia8/NANOAODSIM/130X_mcRun3_2022_realistic_v5-v2/2820000/ef8e90f7-5393-4bb6-9d9d-6094f3035840.root | (None) | ad:39547847 | 10.248 MB  |          |
| cms:/store/mc/Run3Summer22NanoAODv12/NMSSM_XtoYHto4B_MX-700_MY-95_TuneCP5_13p6TeV_madgraph-pythia8/NANOAODSIM/130X_mcRun3_2022_realistic_v5-v2/2820000/f239c940-19e3-4c79-b0eb-618d6448bba0.root | (None) | ad:ea65cf86 | 8.576 MB   |          |
| cms:/store/mc/Run3Summer22NanoAODv12/NMSSM_XtoYHto4B_MX-700_MY-95_TuneCP5_13p6TeV_madgraph-pythia8/NANOAODSIM/130X_mcRun3_2022_realistic_v5-v2/2820000/e9669c29-7bd5-4a27-ae0b-e5bbc9b490a5.root | (None) | ad:810c64dd | 6.890 MB   |          |
+--------------------------------------------------------------------------------------------------------------------------------------------------------------------------------------------------+--------+-------------+------------+----------+
Total files : 16
Total size : 104.621 MB
