#/NMSSM_XtoYHto4B_MX-3000_MY-2000_TuneCP5_13p6TeV_madgraph-pythia8/Run3Summer23NanoAODv12-130X_mcRun3_2023_realistic_v15-v2/NANOAODSIM
+------------------------------------------------------------------------------------------------------------------------------------------------------------------------------------------------------+--------+-------------+------------+----------+
| SCOPE:NAME                                                                                                                                                                                           | GUID   | ADLER32     | FILESIZE   | EVENTS   |
|------------------------------------------------------------------------------------------------------------------------------------------------------------------------------------------------------+--------+-------------+------------+----------|
| cms:/store/mc/Run3Summer23NanoAODv12/NMSSM_XtoYHto4B_MX-3000_MY-2000_TuneCP5_13p6TeV_madgraph-pythia8/NANOAODSIM/130X_mcRun3_2023_realistic_v15-v2/2810000/538c621d-cfd3-4dbc-8bfe-d64eb6c4f4aa.root | (None) | ad:a29df849 | 10.115 MB  |          |
| cms:/store/mc/Run3Summer23NanoAODv12/NMSSM_XtoYHto4B_MX-3000_MY-2000_TuneCP5_13p6TeV_madgraph-pythia8/NANOAODSIM/130X_mcRun3_2023_realistic_v15-v2/2810000/fb5bfd99-64c5-4b25-9211-95f1aa0bcf4e.root | (None) | ad:f510094e | 24.037 MB  |          |
| cms:/store/mc/Run3Summer23NanoAODv12/NMSSM_XtoYHto4B_MX-3000_MY-2000_TuneCP5_13p6TeV_madgraph-pythia8/NANOAODSIM/130X_mcRun3_2023_realistic_v15-v2/2810000/3033a2c2-8b21-42fa-b827-76a48ceb0715.root | (None) | ad:c923bca5 | 24.080 MB  |          |
| cms:/store/mc/Run3Summer23NanoAODv12/NMSSM_XtoYHto4B_MX-3000_MY-2000_TuneCP5_13p6TeV_madgraph-pythia8/NANOAODSIM/130X_mcRun3_2023_realistic_v15-v2/2810000/90e9a2f5-d476-43ad-9727-6f59765a633e.root | (None) | ad:e57c455d | 10.115 MB  |          |
| cms:/store/mc/Run3Summer23NanoAODv12/NMSSM_XtoYHto4B_MX-3000_MY-2000_TuneCP5_13p6TeV_madgraph-pythia8/NANOAODSIM/130X_mcRun3_2023_realistic_v15-v2/2810000/96a6c586-fe05-418d-b943-b8365da623f5.root | (None) | ad:b8a98793 | 10.137 MB  |          |
| cms:/store/mc/Run3Summer23NanoAODv12/NMSSM_XtoYHto4B_MX-3000_MY-2000_TuneCP5_13p6TeV_madgraph-pythia8/NANOAODSIM/130X_mcRun3_2023_realistic_v15-v2/2810000/80323a10-9603-4ad8-b619-dff0c988770d.root | (None) | ad:e3e3d5fa | 20.369 MB  |          |
| cms:/store/mc/Run3Summer23NanoAODv12/NMSSM_XtoYHto4B_MX-3000_MY-2000_TuneCP5_13p6TeV_madgraph-pythia8/NANOAODSIM/130X_mcRun3_2023_realistic_v15-v2/2810000/14c95371-87bf-4f82-b768-2b0f48b02ec0.root | (None) | ad:42041639 | 65.566 MB  |          |
| cms:/store/mc/Run3Summer23NanoAODv12/NMSSM_XtoYHto4B_MX-3000_MY-2000_TuneCP5_13p6TeV_madgraph-pythia8/NANOAODSIM/130X_mcRun3_2023_realistic_v15-v2/2810000/57337750-75db-4b07-bc20-2ff32b05b6f5.root | (None) | ad:11bae0e4 | 10.098 MB  |          |
| cms:/store/mc/Run3Summer23NanoAODv12/NMSSM_XtoYHto4B_MX-3000_MY-2000_TuneCP5_13p6TeV_madgraph-pythia8/NANOAODSIM/130X_mcRun3_2023_realistic_v15-v2/2810000/7a63b602-16a5-4a74-9b9f-4d6bdf60dd9a.root | (None) | ad:e507adbc | 10.123 MB  |          |
| cms:/store/mc/Run3Summer23NanoAODv12/NMSSM_XtoYHto4B_MX-3000_MY-2000_TuneCP5_13p6TeV_madgraph-pythia8/NANOAODSIM/130X_mcRun3_2023_realistic_v15-v2/2810000/8628ccad-09ca-4f6d-b40d-3103d941c5aa.root | (None) | ad:9054c3b5 | 10.085 MB  |          |
| cms:/store/mc/Run3Summer23NanoAODv12/NMSSM_XtoYHto4B_MX-3000_MY-2000_TuneCP5_13p6TeV_madgraph-pythia8/NANOAODSIM/130X_mcRun3_2023_realistic_v15-v2/2810000/7ae7f8e8-7538-4781-a744-f9a4dac6e9d5.root | (None) | ad:541d967c | 24.214 MB  |          |
| cms:/store/mc/Run3Summer23NanoAODv12/NMSSM_XtoYHto4B_MX-3000_MY-2000_TuneCP5_13p6TeV_madgraph-pythia8/NANOAODSIM/130X_mcRun3_2023_realistic_v15-v2/2810000/bd991a10-e2ba-4462-be56-e72a2ac3b842.root | (None) | ad:7cf4d0e0 | 31.091 MB  |          |
| cms:/store/mc/Run3Summer23NanoAODv12/NMSSM_XtoYHto4B_MX-3000_MY-2000_TuneCP5_13p6TeV_madgraph-pythia8/NANOAODSIM/130X_mcRun3_2023_realistic_v15-v2/2810000/5047ea8c-7d75-4593-a661-3516eb20943a.root | (None) | ad:3c5c5063 | 17.175 MB  |          |
+------------------------------------------------------------------------------------------------------------------------------------------------------------------------------------------------------+--------+-------------+------------+----------+
Total files : 13
Total size : 267.206 MB
