#/NMSSM_XtoYHto4B_MX-4000_MY-2600_TuneCP5_13p6TeV_madgraph-pythia8/Run3Summer22NanoAODv12-130X_mcRun3_2022_realistic_v5-v2/NANOAODSIM
+-----------------------------------------------------------------------------------------------------------------------------------------------------------------------------------------------------+--------+-------------+------------+----------+
| SCOPE:NAME                                                                                                                                                                                          | GUID   | ADLER32     | FILESIZE   | EVENTS   |
|-----------------------------------------------------------------------------------------------------------------------------------------------------------------------------------------------------+--------+-------------+------------+----------|
| cms:/store/mc/Run3Summer22NanoAODv12/NMSSM_XtoYHto4B_MX-4000_MY-2600_TuneCP5_13p6TeV_madgraph-pythia8/NANOAODSIM/130X_mcRun3_2022_realistic_v5-v2/2820000/5b9d17a3-231e-400f-bfc2-40975b3fa794.root | (None) | ad:68025e13 | 17.085 MB  |          |
| cms:/store/mc/Run3Summer22NanoAODv12/NMSSM_XtoYHto4B_MX-4000_MY-2600_TuneCP5_13p6TeV_madgraph-pythia8/NANOAODSIM/130X_mcRun3_2022_realistic_v5-v2/2820000/5d1bb4c8-1d7c-4199-8883-0174be1c9aa1.root | (None) | ad:b377fbc2 | 30.754 MB  |          |
| cms:/store/mc/Run3Summer22NanoAODv12/NMSSM_XtoYHto4B_MX-4000_MY-2600_TuneCP5_13p6TeV_madgraph-pythia8/NANOAODSIM/130X_mcRun3_2022_realistic_v5-v2/2820000/228b0774-31f6-4b4d-97ab-d443c7d9b78b.root | (None) | ad:6c3f78b7 | 5.241 MB   |          |
| cms:/store/mc/Run3Summer22NanoAODv12/NMSSM_XtoYHto4B_MX-4000_MY-2600_TuneCP5_13p6TeV_madgraph-pythia8/NANOAODSIM/130X_mcRun3_2022_realistic_v5-v2/2820000/b9eafeb7-ac05-4a12-ae41-bcccfd25c3d7.root | (None) | ad:77eec0e3 | 5.231 MB   |          |
| cms:/store/mc/Run3Summer22NanoAODv12/NMSSM_XtoYHto4B_MX-4000_MY-2600_TuneCP5_13p6TeV_madgraph-pythia8/NANOAODSIM/130X_mcRun3_2022_realistic_v5-v2/2820000/db92fb0b-ab3d-4cec-bef2-50e98761e5a9.root | (None) | ad:f660014a | 5.218 MB   |          |
| cms:/store/mc/Run3Summer22NanoAODv12/NMSSM_XtoYHto4B_MX-4000_MY-2600_TuneCP5_13p6TeV_madgraph-pythia8/NANOAODSIM/130X_mcRun3_2022_realistic_v5-v2/2820000/3d7c1366-67a4-4dcb-b43d-f9cdce8e33d8.root | (None) | ad:8ae06917 | 5.230 MB   |          |
| cms:/store/mc/Run3Summer22NanoAODv12/NMSSM_XtoYHto4B_MX-4000_MY-2600_TuneCP5_13p6TeV_madgraph-pythia8/NANOAODSIM/130X_mcRun3_2022_realistic_v5-v2/2820000/20194c5d-5776-4f6f-9e4e-e5580d228093.root | (None) | ad:34e86354 | 5.213 MB   |          |
| cms:/store/mc/Run3Summer22NanoAODv12/NMSSM_XtoYHto4B_MX-4000_MY-2600_TuneCP5_13p6TeV_madgraph-pythia8/NANOAODSIM/130X_mcRun3_2022_realistic_v5-v2/2820000/2fb80e58-4f55-4e4f-b52f-6f01ae1b1f6b.root | (None) | ad:72283328 | 5.218 MB   |          |
| cms:/store/mc/Run3Summer22NanoAODv12/NMSSM_XtoYHto4B_MX-4000_MY-2600_TuneCP5_13p6TeV_madgraph-pythia8/NANOAODSIM/130X_mcRun3_2022_realistic_v5-v2/2820000/3de1dd0a-1447-4e99-bb3a-6c654fdb0c47.root | (None) | ad:bb3de9db | 7.942 MB   |          |
| cms:/store/mc/Run3Summer22NanoAODv12/NMSSM_XtoYHto4B_MX-4000_MY-2600_TuneCP5_13p6TeV_madgraph-pythia8/NANOAODSIM/130X_mcRun3_2022_realistic_v5-v2/2820000/eb3e0bf2-3a8a-4c1d-b9cc-cdd9e5c4e443.root | (None) | ad:fcfc2b71 | 10.100 MB  |          |
| cms:/store/mc/Run3Summer22NanoAODv12/NMSSM_XtoYHto4B_MX-4000_MY-2600_TuneCP5_13p6TeV_madgraph-pythia8/NANOAODSIM/130X_mcRun3_2022_realistic_v5-v2/2820000/c7828be5-f695-46db-b9ed-be476e76c66c.root | (None) | ad:65e36747 | 5.246 MB   |          |
| cms:/store/mc/Run3Summer22NanoAODv12/NMSSM_XtoYHto4B_MX-4000_MY-2600_TuneCP5_13p6TeV_madgraph-pythia8/NANOAODSIM/130X_mcRun3_2022_realistic_v5-v2/2820000/2281947b-f982-4b60-aca6-7c323a839f2c.root | (None) | ad:2f12e9af | 5.255 MB   |          |
| cms:/store/mc/Run3Summer22NanoAODv12/NMSSM_XtoYHto4B_MX-4000_MY-2600_TuneCP5_13p6TeV_madgraph-pythia8/NANOAODSIM/130X_mcRun3_2022_realistic_v5-v2/2820000/be40a4ad-50a7-4b37-8836-f210a0f0c219.root | (None) | ad:a99ead52 | 7.622 MB   |          |
| cms:/store/mc/Run3Summer22NanoAODv12/NMSSM_XtoYHto4B_MX-4000_MY-2600_TuneCP5_13p6TeV_madgraph-pythia8/NANOAODSIM/130X_mcRun3_2022_realistic_v5-v2/2820000/0c51fa07-5616-4e3f-81ac-431a07c90696.root | (None) | ad:54b53199 | 7.944 MB   |          |
+-----------------------------------------------------------------------------------------------------------------------------------------------------------------------------------------------------+--------+-------------+------------+----------+
Total files : 14
Total size : 123.298 MB
