{
    "cms:/store/mc/Run3Summer23NanoAODv12/NMSSM_XtoYHto4B_MX-400_MY-100_TuneCP5_13p6TeV_madgraph-pythia8/NANOAODSIM/130X_mcRun3_2023_realistic_v15-v2/2820000/957cdb34-6bf2-4777-a509-3cf479e7be23.root": [
        "T1_US_FNAL_Disk: davs://cmsdcadisk.fnal.gov:2880/dcache/uscmsdisk/store/mc/Run3Summer23NanoAODv12/NMSSM_XtoYHto4B_MX-400_MY-100_TuneCP5_13p6TeV_madgraph-pythia8/NANOAODSIM/130X_mcRun3_2023_realistic_v15-v2/2820000/957cdb34-6bf2-4777-a509-3cf479e7be23.root",
        "T1_DE_KIT_Disk: davs://cmsdcache-kit-disk.gridka.de:2880/pnfs/gridka.de/cms/disk-only/store/mc/Run3Summer23NanoAODv12/NMSSM_XtoYHto4B_MX-400_MY-100_TuneCP5_13p6TeV_madgraph-pythia8/NANOAODSIM/130X_mcRun3_2023_realistic_v15-v2/2820000/957cdb34-6bf2-4777-a509-3cf479e7be23.root",
        "T2_US_MIT: davs://xrootd.cmsaf.mit.edu:1094/store/mc/Run3Summer23NanoAODv12/NMSSM_XtoYHto4B_MX-400_MY-100_TuneCP5_13p6TeV_madgraph-pythia8/NANOAODSIM/130X_mcRun3_2023_realistic_v15-v2/2820000/957cdb34-6bf2-4777-a509-3cf479e7be23.root",
        "T2_IT_Legnaro: davs://t2-xrdcms.lnl.infn.it:2880/pnfs/lnl.infn.it/data/cms/store/mc/Run3Summer23NanoAODv12/NMSSM_XtoYHto4B_MX-400_MY-100_TuneCP5_13p6TeV_madgraph-pythia8/NANOAODSIM/130X_mcRun3_2023_realistic_v15-v2/2820000/957cdb34-6bf2-4777-a509-3cf479e7be23.root",
        "T2_CH_CERN: davs://eoscms.cern.ch:443/eos/cms/store/mc/Run3Summer23NanoAODv12/NMSSM_XtoYHto4B_MX-400_MY-100_TuneCP5_13p6TeV_madgraph-pythia8/NANOAODSIM/130X_mcRun3_2023_realistic_v15-v2/2820000/957cdb34-6bf2-4777-a509-3cf479e7be23.root",
        "T2_PL_Swierk: davs://se.cis.gov.pl:2880/grid/cms/store/mc/Run3Summer23NanoAODv12/NMSSM_XtoYHto4B_MX-400_MY-100_TuneCP5_13p6TeV_madgraph-pythia8/NANOAODSIM/130X_mcRun3_2023_realistic_v15-v2/2820000/957cdb34-6bf2-4777-a509-3cf479e7be23.root",
        "T1_US_FNAL_Tape_Test: davs://cmstnvm1.fnal.gov:2880/store/mc/Run3Summer23NanoAODv12/NMSSM_XtoYHto4B_MX-400_MY-100_TuneCP5_13p6TeV_madgraph-pythia8/NANOAODSIM/130X_mcRun3_2023_realistic_v15-v2/2820000/957cdb34-6bf2-4777-a509-3cf479e7be23.root",
        "T2_US_MIT_Tape: davs://dtn20.nese.mghpcc.org:443/store/mc/Run3Summer23NanoAODv12/NMSSM_XtoYHto4B_MX-400_MY-100_TuneCP5_13p6TeV_madgraph-pythia8/NANOAODSIM/130X_mcRun3_2023_realistic_v15-v2/2820000/957cdb34-6bf2-4777-a509-3cf479e7be23.root"
    ],
    "cms:/store/mc/Run3Summer23NanoAODv12/NMSSM_XtoYHto4B_MX-400_MY-100_TuneCP5_13p6TeV_madgraph-pythia8/NANOAODSIM/130X_mcRun3_2023_realistic_v15-v2/2820000/adf0af56-d130-4ae4-b732-cab3d9462cef.root": [
        "T1_US_FNAL_Disk: davs://cmsdcadisk.fnal.gov:2880/dcache/uscmsdisk/store/mc/Run3Summer23NanoAODv12/NMSSM_XtoYHto4B_MX-400_MY-100_TuneCP5_13p6TeV_madgraph-pythia8/NANOAODSIM/130X_mcRun3_2023_realistic_v15-v2/2820000/adf0af56-d130-4ae4-b732-cab3d9462cef.root",
        "T1_DE_KIT_Disk: davs://cmsdcache-kit-disk.gridka.de:2880/pnfs/gridka.de/cms/disk-only/store/mc/Run3Summer23NanoAODv12/NMSSM_XtoYHto4B_MX-400_MY-100_TuneCP5_13p6TeV_madgraph-pythia8/NANOAODSIM/130X_mcRun3_2023_realistic_v15-v2/2820000/adf0af56-d130-4ae4-b732-cab3d9462cef.root",
        "T2_US_MIT: davs://xrootd.cmsaf.mit.edu:1094/store/mc/Run3Summer23NanoAODv12/NMSSM_XtoYHto4B_MX-400_MY-100_TuneCP5_13p6TeV_madgraph-pythia8/NANOAODSIM/130X_mcRun3_2023_realistic_v15-v2/2820000/adf0af56-d130-4ae4-b732-cab3d9462cef.root",
        "T2_IT_Legnaro: davs://t2-xrdcms.lnl.infn.it:2880/pnfs/lnl.infn.it/data/cms/store/mc/Run3Summer23NanoAODv12/NMSSM_XtoYHto4B_MX-400_MY-100_TuneCP5_13p6TeV_madgraph-pythia8/NANOAODSIM/130X_mcRun3_2023_realistic_v15-v2/2820000/adf0af56-d130-4ae4-b732-cab3d9462cef.root",
        "T2_CH_CERN: davs://eoscms.cern.ch:443/eos/cms/store/mc/Run3Summer23NanoAODv12/NMSSM_XtoYHto4B_MX-400_MY-100_TuneCP5_13p6TeV_madgraph-pythia8/NANOAODSIM/130X_mcRun3_2023_realistic_v15-v2/2820000/adf0af56-d130-4ae4-b732-cab3d9462cef.root",
        "T2_PL_Swierk: davs://se.cis.gov.pl:2880/grid/cms/store/mc/Run3Summer23NanoAODv12/NMSSM_XtoYHto4B_MX-400_MY-100_TuneCP5_13p6TeV_madgraph-pythia8/NANOAODSIM/130X_mcRun3_2023_realistic_v15-v2/2820000/adf0af56-d130-4ae4-b732-cab3d9462cef.root",
        "T1_US_FNAL_Tape_Test: davs://cmstnvm1.fnal.gov:2880/store/mc/Run3Summer23NanoAODv12/NMSSM_XtoYHto4B_MX-400_MY-100_TuneCP5_13p6TeV_madgraph-pythia8/NANOAODSIM/130X_mcRun3_2023_realistic_v15-v2/2820000/adf0af56-d130-4ae4-b732-cab3d9462cef.root",
        "T2_US_MIT_Tape: davs://dtn20.nese.mghpcc.org:443/store/mc/Run3Summer23NanoAODv12/NMSSM_XtoYHto4B_MX-400_MY-100_TuneCP5_13p6TeV_madgraph-pythia8/NANOAODSIM/130X_mcRun3_2023_realistic_v15-v2/2820000/adf0af56-d130-4ae4-b732-cab3d9462cef.root"
    ]
}