{
    "cms:/store/mc/Run3Summer22NanoAODv12/NMSSM_XtoYHto4B_MX-1400_MY-400_TuneCP5_13p6TeV_madgraph-pythia8/NANOAODSIM/130X_mcRun3_2022_realistic_v5-v2/60000/dd61b2cb-50e7-4713-9e6a-4a7314ba9393.root": [
        "T1_US_FNAL_Disk: davs://cmsdcadisk.fnal.gov:2880/dcache/uscmsdisk/store/mc/Run3Summer22NanoAODv12/NMSSM_XtoYHto4B_MX-1400_MY-400_TuneCP5_13p6TeV_madgraph-pythia8/NANOAODSIM/130X_mcRun3_2022_realistic_v5-v2/60000/dd61b2cb-50e7-4713-9e6a-4a7314ba9393.root",
        "T2_FR_IPHC: davs://sbgdcache.in2p3.fr:443/cms/phedex/store/mc/Run3Summer22NanoAODv12/NMSSM_XtoYHto4B_MX-1400_MY-400_TuneCP5_13p6TeV_madgraph-pythia8/NANOAODSIM/130X_mcRun3_2022_realistic_v5-v2/60000/dd61b2cb-50e7-4713-9e6a-4a7314ba9393.root",
        "T1_FR_CCIN2P3_Tape: davs://ccdavcms-tape.in2p3.fr:2880/data/store/mc/Run3Summer22NanoAODv12/NMSSM_XtoYHto4B_MX-1400_MY-400_TuneCP5_13p6TeV_madgraph-pythia8/NANOAODSIM/130X_mcRun3_2022_realistic_v5-v2/60000/dd61b2cb-50e7-4713-9e6a-4a7314ba9393.root",
        "T2_BE_UCL: davs://ingrid-se02.cism.ucl.ac.be:1094/store/mc/Run3Summer22NanoAODv12/NMSSM_XtoYHto4B_MX-1400_MY-400_TuneCP5_13p6TeV_madgraph-pythia8/NANOAODSIM/130X_mcRun3_2022_realistic_v5-v2/60000/dd61b2cb-50e7-4713-9e6a-4a7314ba9393.root",
        "T2_BR_SPRACE: davs://osg-se.sprace.org.br:1094/store/mc/Run3Summer22NanoAODv12/NMSSM_XtoYHto4B_MX-1400_MY-400_TuneCP5_13p6TeV_madgraph-pythia8/NANOAODSIM/130X_mcRun3_2022_realistic_v5-v2/60000/dd61b2cb-50e7-4713-9e6a-4a7314ba9393.root",
        "T2_HU_Budapest: davs://grid143.kfki.hu:443/dpm/kfki.hu/home/cms/phedex/store/mc/Run3Summer22NanoAODv12/NMSSM_XtoYHto4B_MX-1400_MY-400_TuneCP5_13p6TeV_madgraph-pythia8/NANOAODSIM/130X_mcRun3_2022_realistic_v5-v2/60000/dd61b2cb-50e7-4713-9e6a-4a7314ba9393.root",
        "T1_RU_JINR_Disk: davs://se-wbdv.jinr-t1.ru:2880/pnfs/jinr-t1.ru/data/cms/store/mc/Run3Summer22NanoAODv12/NMSSM_XtoYHto4B_MX-1400_MY-400_TuneCP5_13p6TeV_madgraph-pythia8/NANOAODSIM/130X_mcRun3_2022_realistic_v5-v2/60000/dd61b2cb-50e7-4713-9e6a-4a7314ba9393.root"
    ]
}