{
    "cms:/store/mc/Run3Summer22EENanoAODv12/NMSSM_XtoYHto4B_MX-1400_MY-70_TuneCP5_13p6TeV_madgraph-pythia8/NANOAODSIM/130X_mcRun3_2022_realistic_postEE_v6-v2/2830000/6cfdd073-ed1a-43af-bb1c-a052b6e24f7c.root": [
        "T1_US_FNAL_Disk: davs://cmsdcadisk.fnal.gov:2880/dcache/uscmsdisk/store/mc/Run3Summer22EENanoAODv12/NMSSM_XtoYHto4B_MX-1400_MY-70_TuneCP5_13p6TeV_madgraph-pythia8/NANOAODSIM/130X_mcRun3_2022_realistic_postEE_v6-v2/2830000/6cfdd073-ed1a-43af-bb1c-a052b6e24f7c.root",
        "T2_US_MIT: davs://xrootd.cmsaf.mit.edu:1094/store/mc/Run3Summer22EENanoAODv12/NMSSM_XtoYHto4B_MX-1400_MY-70_TuneCP5_13p6TeV_madgraph-pythia8/NANOAODSIM/130X_mcRun3_2022_realistic_postEE_v6-v2/2830000/6cfdd073-ed1a-43af-bb1c-a052b6e24f7c.root",
        "T2_PT_NCG_Lisbon: davs://gftp03.ncg.ingrid.pt:8443/cms/store/mc/Run3Summer22EENanoAODv12/NMSSM_XtoYHto4B_MX-1400_MY-70_TuneCP5_13p6TeV_madgraph-pythia8/NANOAODSIM/130X_mcRun3_2022_realistic_postEE_v6-v2/2830000/6cfdd073-ed1a-43af-bb1c-a052b6e24f7c.root",
        "T2_FR_IPHC: davs://sbgdcache.in2p3.fr:443/cms/phedex/store/mc/Run3Summer22EENanoAODv12/NMSSM_XtoYHto4B_MX-1400_MY-70_TuneCP5_13p6TeV_madgraph-pythia8/NANOAODSIM/130X_mcRun3_2022_realistic_postEE_v6-v2/2830000/6cfdd073-ed1a-43af-bb1c-a052b6e24f7c.root",
        "T2_IT_Bari: davs://webdav.recas.ba.infn.it:8443/cms/store/mc/Run3Summer22EENanoAODv12/NMSSM_XtoYHto4B_MX-1400_MY-70_TuneCP5_13p6TeV_madgraph-pythia8/NANOAODSIM/130X_mcRun3_2022_realistic_postEE_v6-v2/2830000/6cfdd073-ed1a-43af-bb1c-a052b6e24f7c.root",
        "T1_RU_JINR_Disk: davs://se-wbdv.jinr-t1.ru:2880/pnfs/jinr-t1.ru/data/cms/store/mc/Run3Summer22EENanoAODv12/NMSSM_XtoYHto4B_MX-1400_MY-70_TuneCP5_13p6TeV_madgraph-pythia8/NANOAODSIM/130X_mcRun3_2022_realistic_postEE_v6-v2/2830000/6cfdd073-ed1a-43af-bb1c-a052b6e24f7c.root",
        "T1_US_FNAL_Tape: davs://cmsdcatape.fnal.gov:2880/WAX/11/store/mc/Run3Summer22EENanoAODv12/NMSSM_XtoYHto4B_MX-1400_MY-70_TuneCP5_13p6TeV_madgraph-pythia8/NANOAODSIM/130X_mcRun3_2022_realistic_postEE_v6-v2/2830000/6cfdd073-ed1a-43af-bb1c-a052b6e24f7c.root"
    ],
    "cms:/store/mc/Run3Summer22EENanoAODv12/NMSSM_XtoYHto4B_MX-1400_MY-70_TuneCP5_13p6TeV_madgraph-pythia8/NANOAODSIM/130X_mcRun3_2022_realistic_postEE_v6-v2/2830000/5d5c75c7-6ad5-40a1-b3e5-09976e3ac830.root": [
        "T1_US_FNAL_Disk: davs://cmsdcadisk.fnal.gov:2880/dcache/uscmsdisk/store/mc/Run3Summer22EENanoAODv12/NMSSM_XtoYHto4B_MX-1400_MY-70_TuneCP5_13p6TeV_madgraph-pythia8/NANOAODSIM/130X_mcRun3_2022_realistic_postEE_v6-v2/2830000/5d5c75c7-6ad5-40a1-b3e5-09976e3ac830.root",
        "T2_US_MIT: davs://xrootd.cmsaf.mit.edu:1094/store/mc/Run3Summer22EENanoAODv12/NMSSM_XtoYHto4B_MX-1400_MY-70_TuneCP5_13p6TeV_madgraph-pythia8/NANOAODSIM/130X_mcRun3_2022_realistic_postEE_v6-v2/2830000/5d5c75c7-6ad5-40a1-b3e5-09976e3ac830.root",
        "T2_PT_NCG_Lisbon: davs://gftp03.ncg.ingrid.pt:8443/cms/store/mc/Run3Summer22EENanoAODv12/NMSSM_XtoYHto4B_MX-1400_MY-70_TuneCP5_13p6TeV_madgraph-pythia8/NANOAODSIM/130X_mcRun3_2022_realistic_postEE_v6-v2/2830000/5d5c75c7-6ad5-40a1-b3e5-09976e3ac830.root",
        "T2_FR_IPHC: davs://sbgdcache.in2p3.fr:443/cms/phedex/store/mc/Run3Summer22EENanoAODv12/NMSSM_XtoYHto4B_MX-1400_MY-70_TuneCP5_13p6TeV_madgraph-pythia8/NANOAODSIM/130X_mcRun3_2022_realistic_postEE_v6-v2/2830000/5d5c75c7-6ad5-40a1-b3e5-09976e3ac830.root",
        "T2_IT_Bari: davs://webdav.recas.ba.infn.it:8443/cms/store/mc/Run3Summer22EENanoAODv12/NMSSM_XtoYHto4B_MX-1400_MY-70_TuneCP5_13p6TeV_madgraph-pythia8/NANOAODSIM/130X_mcRun3_2022_realistic_postEE_v6-v2/2830000/5d5c75c7-6ad5-40a1-b3e5-09976e3ac830.root",
        "T1_RU_JINR_Disk: davs://se-wbdv.jinr-t1.ru:2880/pnfs/jinr-t1.ru/data/cms/store/mc/Run3Summer22EENanoAODv12/NMSSM_XtoYHto4B_MX-1400_MY-70_TuneCP5_13p6TeV_madgraph-pythia8/NANOAODSIM/130X_mcRun3_2022_realistic_postEE_v6-v2/2830000/5d5c75c7-6ad5-40a1-b3e5-09976e3ac830.root",
        "T1_US_FNAL_Tape: davs://cmsdcatape.fnal.gov:2880/WAX/11/store/mc/Run3Summer22EENanoAODv12/NMSSM_XtoYHto4B_MX-1400_MY-70_TuneCP5_13p6TeV_madgraph-pythia8/NANOAODSIM/130X_mcRun3_2022_realistic_postEE_v6-v2/2830000/5d5c75c7-6ad5-40a1-b3e5-09976e3ac830.root"
    ],
    "cms:/store/mc/Run3Summer22EENanoAODv12/NMSSM_XtoYHto4B_MX-1400_MY-70_TuneCP5_13p6TeV_madgraph-pythia8/NANOAODSIM/130X_mcRun3_2022_realistic_postEE_v6-v2/2830000/b1c9b704-e7f8-426f-b52c-79e7b3167bd1.root": [
        "T1_US_FNAL_Disk: davs://cmsdcadisk.fnal.gov:2880/dcache/uscmsdisk/store/mc/Run3Summer22EENanoAODv12/NMSSM_XtoYHto4B_MX-1400_MY-70_TuneCP5_13p6TeV_madgraph-pythia8/NANOAODSIM/130X_mcRun3_2022_realistic_postEE_v6-v2/2830000/b1c9b704-e7f8-426f-b52c-79e7b3167bd1.root",
        "T2_US_MIT: davs://xrootd.cmsaf.mit.edu:1094/store/mc/Run3Summer22EENanoAODv12/NMSSM_XtoYHto4B_MX-1400_MY-70_TuneCP5_13p6TeV_madgraph-pythia8/NANOAODSIM/130X_mcRun3_2022_realistic_postEE_v6-v2/2830000/b1c9b704-e7f8-426f-b52c-79e7b3167bd1.root",
        "T2_PT_NCG_Lisbon: davs://gftp03.ncg.ingrid.pt:8443/cms/store/mc/Run3Summer22EENanoAODv12/NMSSM_XtoYHto4B_MX-1400_MY-70_TuneCP5_13p6TeV_madgraph-pythia8/NANOAODSIM/130X_mcRun3_2022_realistic_postEE_v6-v2/2830000/b1c9b704-e7f8-426f-b52c-79e7b3167bd1.root",
        "T2_FR_IPHC: davs://sbgdcache.in2p3.fr:443/cms/phedex/store/mc/Run3Summer22EENanoAODv12/NMSSM_XtoYHto4B_MX-1400_MY-70_TuneCP5_13p6TeV_madgraph-pythia8/NANOAODSIM/130X_mcRun3_2022_realistic_postEE_v6-v2/2830000/b1c9b704-e7f8-426f-b52c-79e7b3167bd1.root",
        "T2_IT_Bari: davs://webdav.recas.ba.infn.it:8443/cms/store/mc/Run3Summer22EENanoAODv12/NMSSM_XtoYHto4B_MX-1400_MY-70_TuneCP5_13p6TeV_madgraph-pythia8/NANOAODSIM/130X_mcRun3_2022_realistic_postEE_v6-v2/2830000/b1c9b704-e7f8-426f-b52c-79e7b3167bd1.root",
        "T1_RU_JINR_Disk: davs://se-wbdv.jinr-t1.ru:2880/pnfs/jinr-t1.ru/data/cms/store/mc/Run3Summer22EENanoAODv12/NMSSM_XtoYHto4B_MX-1400_MY-70_TuneCP5_13p6TeV_madgraph-pythia8/NANOAODSIM/130X_mcRun3_2022_realistic_postEE_v6-v2/2830000/b1c9b704-e7f8-426f-b52c-79e7b3167bd1.root",
        "T1_US_FNAL_Tape: davs://cmsdcatape.fnal.gov:2880/WAX/11/store/mc/Run3Summer22EENanoAODv12/NMSSM_XtoYHto4B_MX-1400_MY-70_TuneCP5_13p6TeV_madgraph-pythia8/NANOAODSIM/130X_mcRun3_2022_realistic_postEE_v6-v2/2830000/b1c9b704-e7f8-426f-b52c-79e7b3167bd1.root"
    ],
    "cms:/store/mc/Run3Summer22EENanoAODv12/NMSSM_XtoYHto4B_MX-1400_MY-70_TuneCP5_13p6TeV_madgraph-pythia8/NANOAODSIM/130X_mcRun3_2022_realistic_postEE_v6-v2/2830000/121bdf3d-692f-4925-a6a0-bd7df4a123c7.root": [
        "T1_US_FNAL_Disk: davs://cmsdcadisk.fnal.gov:2880/dcache/uscmsdisk/store/mc/Run3Summer22EENanoAODv12/NMSSM_XtoYHto4B_MX-1400_MY-70_TuneCP5_13p6TeV_madgraph-pythia8/NANOAODSIM/130X_mcRun3_2022_realistic_postEE_v6-v2/2830000/121bdf3d-692f-4925-a6a0-bd7df4a123c7.root",
        "T2_US_MIT: davs://xrootd.cmsaf.mit.edu:1094/store/mc/Run3Summer22EENanoAODv12/NMSSM_XtoYHto4B_MX-1400_MY-70_TuneCP5_13p6TeV_madgraph-pythia8/NANOAODSIM/130X_mcRun3_2022_realistic_postEE_v6-v2/2830000/121bdf3d-692f-4925-a6a0-bd7df4a123c7.root",
        "T2_PT_NCG_Lisbon: davs://gftp03.ncg.ingrid.pt:8443/cms/store/mc/Run3Summer22EENanoAODv12/NMSSM_XtoYHto4B_MX-1400_MY-70_TuneCP5_13p6TeV_madgraph-pythia8/NANOAODSIM/130X_mcRun3_2022_realistic_postEE_v6-v2/2830000/121bdf3d-692f-4925-a6a0-bd7df4a123c7.root",
        "T2_FR_IPHC: davs://sbgdcache.in2p3.fr:443/cms/phedex/store/mc/Run3Summer22EENanoAODv12/NMSSM_XtoYHto4B_MX-1400_MY-70_TuneCP5_13p6TeV_madgraph-pythia8/NANOAODSIM/130X_mcRun3_2022_realistic_postEE_v6-v2/2830000/121bdf3d-692f-4925-a6a0-bd7df4a123c7.root",
        "T2_IT_Bari: davs://webdav.recas.ba.infn.it:8443/cms/store/mc/Run3Summer22EENanoAODv12/NMSSM_XtoYHto4B_MX-1400_MY-70_TuneCP5_13p6TeV_madgraph-pythia8/NANOAODSIM/130X_mcRun3_2022_realistic_postEE_v6-v2/2830000/121bdf3d-692f-4925-a6a0-bd7df4a123c7.root",
        "T1_RU_JINR_Disk: davs://se-wbdv.jinr-t1.ru:2880/pnfs/jinr-t1.ru/data/cms/store/mc/Run3Summer22EENanoAODv12/NMSSM_XtoYHto4B_MX-1400_MY-70_TuneCP5_13p6TeV_madgraph-pythia8/NANOAODSIM/130X_mcRun3_2022_realistic_postEE_v6-v2/2830000/121bdf3d-692f-4925-a6a0-bd7df4a123c7.root",
        "T1_US_FNAL_Tape: davs://cmsdcatape.fnal.gov:2880/WAX/11/store/mc/Run3Summer22EENanoAODv12/NMSSM_XtoYHto4B_MX-1400_MY-70_TuneCP5_13p6TeV_madgraph-pythia8/NANOAODSIM/130X_mcRun3_2022_realistic_postEE_v6-v2/2830000/121bdf3d-692f-4925-a6a0-bd7df4a123c7.root"
    ],
    "cms:/store/mc/Run3Summer22EENanoAODv12/NMSSM_XtoYHto4B_MX-1400_MY-70_TuneCP5_13p6TeV_madgraph-pythia8/NANOAODSIM/130X_mcRun3_2022_realistic_postEE_v6-v2/2830000/6c667f17-c5b0-470a-acf9-bc58ac7a1520.root": [
        "T1_US_FNAL_Disk: davs://cmsdcadisk.fnal.gov:2880/dcache/uscmsdisk/store/mc/Run3Summer22EENanoAODv12/NMSSM_XtoYHto4B_MX-1400_MY-70_TuneCP5_13p6TeV_madgraph-pythia8/NANOAODSIM/130X_mcRun3_2022_realistic_postEE_v6-v2/2830000/6c667f17-c5b0-470a-acf9-bc58ac7a1520.root",
        "T2_US_MIT: davs://xrootd.cmsaf.mit.edu:1094/store/mc/Run3Summer22EENanoAODv12/NMSSM_XtoYHto4B_MX-1400_MY-70_TuneCP5_13p6TeV_madgraph-pythia8/NANOAODSIM/130X_mcRun3_2022_realistic_postEE_v6-v2/2830000/6c667f17-c5b0-470a-acf9-bc58ac7a1520.root",
        "T2_PT_NCG_Lisbon: davs://gftp03.ncg.ingrid.pt:8443/cms/store/mc/Run3Summer22EENanoAODv12/NMSSM_XtoYHto4B_MX-1400_MY-70_TuneCP5_13p6TeV_madgraph-pythia8/NANOAODSIM/130X_mcRun3_2022_realistic_postEE_v6-v2/2830000/6c667f17-c5b0-470a-acf9-bc58ac7a1520.root",
        "T2_FR_IPHC: davs://sbgdcache.in2p3.fr:443/cms/phedex/store/mc/Run3Summer22EENanoAODv12/NMSSM_XtoYHto4B_MX-1400_MY-70_TuneCP5_13p6TeV_madgraph-pythia8/NANOAODSIM/130X_mcRun3_2022_realistic_postEE_v6-v2/2830000/6c667f17-c5b0-470a-acf9-bc58ac7a1520.root",
        "T2_IT_Bari: davs://webdav.recas.ba.infn.it:8443/cms/store/mc/Run3Summer22EENanoAODv12/NMSSM_XtoYHto4B_MX-1400_MY-70_TuneCP5_13p6TeV_madgraph-pythia8/NANOAODSIM/130X_mcRun3_2022_realistic_postEE_v6-v2/2830000/6c667f17-c5b0-470a-acf9-bc58ac7a1520.root",
        "T1_RU_JINR_Disk: davs://se-wbdv.jinr-t1.ru:2880/pnfs/jinr-t1.ru/data/cms/store/mc/Run3Summer22EENanoAODv12/NMSSM_XtoYHto4B_MX-1400_MY-70_TuneCP5_13p6TeV_madgraph-pythia8/NANOAODSIM/130X_mcRun3_2022_realistic_postEE_v6-v2/2830000/6c667f17-c5b0-470a-acf9-bc58ac7a1520.root",
        "T1_US_FNAL_Tape: davs://cmsdcatape.fnal.gov:2880/WAX/11/store/mc/Run3Summer22EENanoAODv12/NMSSM_XtoYHto4B_MX-1400_MY-70_TuneCP5_13p6TeV_madgraph-pythia8/NANOAODSIM/130X_mcRun3_2022_realistic_postEE_v6-v2/2830000/6c667f17-c5b0-470a-acf9-bc58ac7a1520.root"
    ],
    "cms:/store/mc/Run3Summer22EENanoAODv12/NMSSM_XtoYHto4B_MX-1400_MY-70_TuneCP5_13p6TeV_madgraph-pythia8/NANOAODSIM/130X_mcRun3_2022_realistic_postEE_v6-v2/2830000/e777d4f2-b219-4bfc-9280-e0974eeb10dc.root": [
        "T1_US_FNAL_Disk: davs://cmsdcadisk.fnal.gov:2880/dcache/uscmsdisk/store/mc/Run3Summer22EENanoAODv12/NMSSM_XtoYHto4B_MX-1400_MY-70_TuneCP5_13p6TeV_madgraph-pythia8/NANOAODSIM/130X_mcRun3_2022_realistic_postEE_v6-v2/2830000/e777d4f2-b219-4bfc-9280-e0974eeb10dc.root",
        "T2_US_MIT: davs://xrootd.cmsaf.mit.edu:1094/store/mc/Run3Summer22EENanoAODv12/NMSSM_XtoYHto4B_MX-1400_MY-70_TuneCP5_13p6TeV_madgraph-pythia8/NANOAODSIM/130X_mcRun3_2022_realistic_postEE_v6-v2/2830000/e777d4f2-b219-4bfc-9280-e0974eeb10dc.root",
        "T2_PT_NCG_Lisbon: davs://gftp03.ncg.ingrid.pt:8443/cms/store/mc/Run3Summer22EENanoAODv12/NMSSM_XtoYHto4B_MX-1400_MY-70_TuneCP5_13p6TeV_madgraph-pythia8/NANOAODSIM/130X_mcRun3_2022_realistic_postEE_v6-v2/2830000/e777d4f2-b219-4bfc-9280-e0974eeb10dc.root",
        "T2_FR_IPHC: davs://sbgdcache.in2p3.fr:443/cms/phedex/store/mc/Run3Summer22EENanoAODv12/NMSSM_XtoYHto4B_MX-1400_MY-70_TuneCP5_13p6TeV_madgraph-pythia8/NANOAODSIM/130X_mcRun3_2022_realistic_postEE_v6-v2/2830000/e777d4f2-b219-4bfc-9280-e0974eeb10dc.root",
        "T2_IT_Bari: davs://webdav.recas.ba.infn.it:8443/cms/store/mc/Run3Summer22EENanoAODv12/NMSSM_XtoYHto4B_MX-1400_MY-70_TuneCP5_13p6TeV_madgraph-pythia8/NANOAODSIM/130X_mcRun3_2022_realistic_postEE_v6-v2/2830000/e777d4f2-b219-4bfc-9280-e0974eeb10dc.root",
        "T1_RU_JINR_Disk: davs://se-wbdv.jinr-t1.ru:2880/pnfs/jinr-t1.ru/data/cms/store/mc/Run3Summer22EENanoAODv12/NMSSM_XtoYHto4B_MX-1400_MY-70_TuneCP5_13p6TeV_madgraph-pythia8/NANOAODSIM/130X_mcRun3_2022_realistic_postEE_v6-v2/2830000/e777d4f2-b219-4bfc-9280-e0974eeb10dc.root",
        "T1_US_FNAL_Tape: davs://cmsdcatape.fnal.gov:2880/WAX/11/store/mc/Run3Summer22EENanoAODv12/NMSSM_XtoYHto4B_MX-1400_MY-70_TuneCP5_13p6TeV_madgraph-pythia8/NANOAODSIM/130X_mcRun3_2022_realistic_postEE_v6-v2/2830000/e777d4f2-b219-4bfc-9280-e0974eeb10dc.root"
    ],
    "cms:/store/mc/Run3Summer22EENanoAODv12/NMSSM_XtoYHto4B_MX-1400_MY-70_TuneCP5_13p6TeV_madgraph-pythia8/NANOAODSIM/130X_mcRun3_2022_realistic_postEE_v6-v2/2830000/d82e7243-2292-4482-9171-480e67da027d.root": [
        "T1_US_FNAL_Disk: davs://cmsdcadisk.fnal.gov:2880/dcache/uscmsdisk/store/mc/Run3Summer22EENanoAODv12/NMSSM_XtoYHto4B_MX-1400_MY-70_TuneCP5_13p6TeV_madgraph-pythia8/NANOAODSIM/130X_mcRun3_2022_realistic_postEE_v6-v2/2830000/d82e7243-2292-4482-9171-480e67da027d.root",
        "T2_US_MIT: davs://xrootd.cmsaf.mit.edu:1094/store/mc/Run3Summer22EENanoAODv12/NMSSM_XtoYHto4B_MX-1400_MY-70_TuneCP5_13p6TeV_madgraph-pythia8/NANOAODSIM/130X_mcRun3_2022_realistic_postEE_v6-v2/2830000/d82e7243-2292-4482-9171-480e67da027d.root",
        "T2_PT_NCG_Lisbon: davs://gftp03.ncg.ingrid.pt:8443/cms/store/mc/Run3Summer22EENanoAODv12/NMSSM_XtoYHto4B_MX-1400_MY-70_TuneCP5_13p6TeV_madgraph-pythia8/NANOAODSIM/130X_mcRun3_2022_realistic_postEE_v6-v2/2830000/d82e7243-2292-4482-9171-480e67da027d.root",
        "T2_FR_IPHC: davs://sbgdcache.in2p3.fr:443/cms/phedex/store/mc/Run3Summer22EENanoAODv12/NMSSM_XtoYHto4B_MX-1400_MY-70_TuneCP5_13p6TeV_madgraph-pythia8/NANOAODSIM/130X_mcRun3_2022_realistic_postEE_v6-v2/2830000/d82e7243-2292-4482-9171-480e67da027d.root",
        "T2_IT_Bari: davs://webdav.recas.ba.infn.it:8443/cms/store/mc/Run3Summer22EENanoAODv12/NMSSM_XtoYHto4B_MX-1400_MY-70_TuneCP5_13p6TeV_madgraph-pythia8/NANOAODSIM/130X_mcRun3_2022_realistic_postEE_v6-v2/2830000/d82e7243-2292-4482-9171-480e67da027d.root",
        "T1_RU_JINR_Disk: davs://se-wbdv.jinr-t1.ru:2880/pnfs/jinr-t1.ru/data/cms/store/mc/Run3Summer22EENanoAODv12/NMSSM_XtoYHto4B_MX-1400_MY-70_TuneCP5_13p6TeV_madgraph-pythia8/NANOAODSIM/130X_mcRun3_2022_realistic_postEE_v6-v2/2830000/d82e7243-2292-4482-9171-480e67da027d.root",
        "T1_US_FNAL_Tape: davs://cmsdcatape.fnal.gov:2880/WAX/11/store/mc/Run3Summer22EENanoAODv12/NMSSM_XtoYHto4B_MX-1400_MY-70_TuneCP5_13p6TeV_madgraph-pythia8/NANOAODSIM/130X_mcRun3_2022_realistic_postEE_v6-v2/2830000/d82e7243-2292-4482-9171-480e67da027d.root"
    ],
    "cms:/store/mc/Run3Summer22EENanoAODv12/NMSSM_XtoYHto4B_MX-1400_MY-70_TuneCP5_13p6TeV_madgraph-pythia8/NANOAODSIM/130X_mcRun3_2022_realistic_postEE_v6-v2/2830000/f09265ca-63ee-44a7-b078-23d9779c19d4.root": [
        "T1_US_FNAL_Disk: davs://cmsdcadisk.fnal.gov:2880/dcache/uscmsdisk/store/mc/Run3Summer22EENanoAODv12/NMSSM_XtoYHto4B_MX-1400_MY-70_TuneCP5_13p6TeV_madgraph-pythia8/NANOAODSIM/130X_mcRun3_2022_realistic_postEE_v6-v2/2830000/f09265ca-63ee-44a7-b078-23d9779c19d4.root",
        "T2_US_MIT: davs://xrootd.cmsaf.mit.edu:1094/store/mc/Run3Summer22EENanoAODv12/NMSSM_XtoYHto4B_MX-1400_MY-70_TuneCP5_13p6TeV_madgraph-pythia8/NANOAODSIM/130X_mcRun3_2022_realistic_postEE_v6-v2/2830000/f09265ca-63ee-44a7-b078-23d9779c19d4.root",
        "T2_PT_NCG_Lisbon: davs://gftp03.ncg.ingrid.pt:8443/cms/store/mc/Run3Summer22EENanoAODv12/NMSSM_XtoYHto4B_MX-1400_MY-70_TuneCP5_13p6TeV_madgraph-pythia8/NANOAODSIM/130X_mcRun3_2022_realistic_postEE_v6-v2/2830000/f09265ca-63ee-44a7-b078-23d9779c19d4.root",
        "T2_FR_IPHC: davs://sbgdcache.in2p3.fr:443/cms/phedex/store/mc/Run3Summer22EENanoAODv12/NMSSM_XtoYHto4B_MX-1400_MY-70_TuneCP5_13p6TeV_madgraph-pythia8/NANOAODSIM/130X_mcRun3_2022_realistic_postEE_v6-v2/2830000/f09265ca-63ee-44a7-b078-23d9779c19d4.root",
        "T2_IT_Bari: davs://webdav.recas.ba.infn.it:8443/cms/store/mc/Run3Summer22EENanoAODv12/NMSSM_XtoYHto4B_MX-1400_MY-70_TuneCP5_13p6TeV_madgraph-pythia8/NANOAODSIM/130X_mcRun3_2022_realistic_postEE_v6-v2/2830000/f09265ca-63ee-44a7-b078-23d9779c19d4.root",
        "T1_RU_JINR_Disk: davs://se-wbdv.jinr-t1.ru:2880/pnfs/jinr-t1.ru/data/cms/store/mc/Run3Summer22EENanoAODv12/NMSSM_XtoYHto4B_MX-1400_MY-70_TuneCP5_13p6TeV_madgraph-pythia8/NANOAODSIM/130X_mcRun3_2022_realistic_postEE_v6-v2/2830000/f09265ca-63ee-44a7-b078-23d9779c19d4.root",
        "T1_US_FNAL_Tape: davs://cmsdcatape.fnal.gov:2880/WAX/11/store/mc/Run3Summer22EENanoAODv12/NMSSM_XtoYHto4B_MX-1400_MY-70_TuneCP5_13p6TeV_madgraph-pythia8/NANOAODSIM/130X_mcRun3_2022_realistic_postEE_v6-v2/2830000/f09265ca-63ee-44a7-b078-23d9779c19d4.root"
    ],
    "cms:/store/mc/Run3Summer22EENanoAODv12/NMSSM_XtoYHto4B_MX-1400_MY-70_TuneCP5_13p6TeV_madgraph-pythia8/NANOAODSIM/130X_mcRun3_2022_realistic_postEE_v6-v2/2830000/10ba7126-2eb4-4907-befa-772531ebcdce.root": [
        "T1_US_FNAL_Disk: davs://cmsdcadisk.fnal.gov:2880/dcache/uscmsdisk/store/mc/Run3Summer22EENanoAODv12/NMSSM_XtoYHto4B_MX-1400_MY-70_TuneCP5_13p6TeV_madgraph-pythia8/NANOAODSIM/130X_mcRun3_2022_realistic_postEE_v6-v2/2830000/10ba7126-2eb4-4907-befa-772531ebcdce.root",
        "T2_US_MIT: davs://xrootd.cmsaf.mit.edu:1094/store/mc/Run3Summer22EENanoAODv12/NMSSM_XtoYHto4B_MX-1400_MY-70_TuneCP5_13p6TeV_madgraph-pythia8/NANOAODSIM/130X_mcRun3_2022_realistic_postEE_v6-v2/2830000/10ba7126-2eb4-4907-befa-772531ebcdce.root",
        "T2_PT_NCG_Lisbon: davs://gftp03.ncg.ingrid.pt:8443/cms/store/mc/Run3Summer22EENanoAODv12/NMSSM_XtoYHto4B_MX-1400_MY-70_TuneCP5_13p6TeV_madgraph-pythia8/NANOAODSIM/130X_mcRun3_2022_realistic_postEE_v6-v2/2830000/10ba7126-2eb4-4907-befa-772531ebcdce.root",
        "T2_FR_IPHC: davs://sbgdcache.in2p3.fr:443/cms/phedex/store/mc/Run3Summer22EENanoAODv12/NMSSM_XtoYHto4B_MX-1400_MY-70_TuneCP5_13p6TeV_madgraph-pythia8/NANOAODSIM/130X_mcRun3_2022_realistic_postEE_v6-v2/2830000/10ba7126-2eb4-4907-befa-772531ebcdce.root",
        "T2_IT_Bari: davs://webdav.recas.ba.infn.it:8443/cms/store/mc/Run3Summer22EENanoAODv12/NMSSM_XtoYHto4B_MX-1400_MY-70_TuneCP5_13p6TeV_madgraph-pythia8/NANOAODSIM/130X_mcRun3_2022_realistic_postEE_v6-v2/2830000/10ba7126-2eb4-4907-befa-772531ebcdce.root",
        "T1_RU_JINR_Disk: davs://se-wbdv.jinr-t1.ru:2880/pnfs/jinr-t1.ru/data/cms/store/mc/Run3Summer22EENanoAODv12/NMSSM_XtoYHto4B_MX-1400_MY-70_TuneCP5_13p6TeV_madgraph-pythia8/NANOAODSIM/130X_mcRun3_2022_realistic_postEE_v6-v2/2830000/10ba7126-2eb4-4907-befa-772531ebcdce.root",
        "T1_US_FNAL_Tape: davs://cmsdcatape.fnal.gov:2880/WAX/11/store/mc/Run3Summer22EENanoAODv12/NMSSM_XtoYHto4B_MX-1400_MY-70_TuneCP5_13p6TeV_madgraph-pythia8/NANOAODSIM/130X_mcRun3_2022_realistic_postEE_v6-v2/2830000/10ba7126-2eb4-4907-befa-772531ebcdce.root"
    ],
    "cms:/store/mc/Run3Summer22EENanoAODv12/NMSSM_XtoYHto4B_MX-1400_MY-70_TuneCP5_13p6TeV_madgraph-pythia8/NANOAODSIM/130X_mcRun3_2022_realistic_postEE_v6-v2/2830000/603e5a6d-7100-49a7-9faa-a24f16e2eaaa.root": [
        "T1_US_FNAL_Disk: davs://cmsdcadisk.fnal.gov:2880/dcache/uscmsdisk/store/mc/Run3Summer22EENanoAODv12/NMSSM_XtoYHto4B_MX-1400_MY-70_TuneCP5_13p6TeV_madgraph-pythia8/NANOAODSIM/130X_mcRun3_2022_realistic_postEE_v6-v2/2830000/603e5a6d-7100-49a7-9faa-a24f16e2eaaa.root",
        "T2_US_MIT: davs://xrootd.cmsaf.mit.edu:1094/store/mc/Run3Summer22EENanoAODv12/NMSSM_XtoYHto4B_MX-1400_MY-70_TuneCP5_13p6TeV_madgraph-pythia8/NANOAODSIM/130X_mcRun3_2022_realistic_postEE_v6-v2/2830000/603e5a6d-7100-49a7-9faa-a24f16e2eaaa.root",
        "T2_PT_NCG_Lisbon: davs://gftp03.ncg.ingrid.pt:8443/cms/store/mc/Run3Summer22EENanoAODv12/NMSSM_XtoYHto4B_MX-1400_MY-70_TuneCP5_13p6TeV_madgraph-pythia8/NANOAODSIM/130X_mcRun3_2022_realistic_postEE_v6-v2/2830000/603e5a6d-7100-49a7-9faa-a24f16e2eaaa.root",
        "T2_FR_IPHC: davs://sbgdcache.in2p3.fr:443/cms/phedex/store/mc/Run3Summer22EENanoAODv12/NMSSM_XtoYHto4B_MX-1400_MY-70_TuneCP5_13p6TeV_madgraph-pythia8/NANOAODSIM/130X_mcRun3_2022_realistic_postEE_v6-v2/2830000/603e5a6d-7100-49a7-9faa-a24f16e2eaaa.root",
        "T2_IT_Bari: davs://webdav.recas.ba.infn.it:8443/cms/store/mc/Run3Summer22EENanoAODv12/NMSSM_XtoYHto4B_MX-1400_MY-70_TuneCP5_13p6TeV_madgraph-pythia8/NANOAODSIM/130X_mcRun3_2022_realistic_postEE_v6-v2/2830000/603e5a6d-7100-49a7-9faa-a24f16e2eaaa.root",
        "T1_RU_JINR_Disk: davs://se-wbdv.jinr-t1.ru:2880/pnfs/jinr-t1.ru/data/cms/store/mc/Run3Summer22EENanoAODv12/NMSSM_XtoYHto4B_MX-1400_MY-70_TuneCP5_13p6TeV_madgraph-pythia8/NANOAODSIM/130X_mcRun3_2022_realistic_postEE_v6-v2/2830000/603e5a6d-7100-49a7-9faa-a24f16e2eaaa.root",
        "T1_US_FNAL_Tape: davs://cmsdcatape.fnal.gov:2880/WAX/11/store/mc/Run3Summer22EENanoAODv12/NMSSM_XtoYHto4B_MX-1400_MY-70_TuneCP5_13p6TeV_madgraph-pythia8/NANOAODSIM/130X_mcRun3_2022_realistic_postEE_v6-v2/2830000/603e5a6d-7100-49a7-9faa-a24f16e2eaaa.root"
    ],
    "cms:/store/mc/Run3Summer22EENanoAODv12/NMSSM_XtoYHto4B_MX-1400_MY-70_TuneCP5_13p6TeV_madgraph-pythia8/NANOAODSIM/130X_mcRun3_2022_realistic_postEE_v6-v2/2830000/4c1671e7-c413-4610-9f08-c4aff266c096.root": [
        "T1_US_FNAL_Disk: davs://cmsdcadisk.fnal.gov:2880/dcache/uscmsdisk/store/mc/Run3Summer22EENanoAODv12/NMSSM_XtoYHto4B_MX-1400_MY-70_TuneCP5_13p6TeV_madgraph-pythia8/NANOAODSIM/130X_mcRun3_2022_realistic_postEE_v6-v2/2830000/4c1671e7-c413-4610-9f08-c4aff266c096.root",
        "T2_US_MIT: davs://xrootd.cmsaf.mit.edu:1094/store/mc/Run3Summer22EENanoAODv12/NMSSM_XtoYHto4B_MX-1400_MY-70_TuneCP5_13p6TeV_madgraph-pythia8/NANOAODSIM/130X_mcRun3_2022_realistic_postEE_v6-v2/2830000/4c1671e7-c413-4610-9f08-c4aff266c096.root",
        "T2_PT_NCG_Lisbon: davs://gftp03.ncg.ingrid.pt:8443/cms/store/mc/Run3Summer22EENanoAODv12/NMSSM_XtoYHto4B_MX-1400_MY-70_TuneCP5_13p6TeV_madgraph-pythia8/NANOAODSIM/130X_mcRun3_2022_realistic_postEE_v6-v2/2830000/4c1671e7-c413-4610-9f08-c4aff266c096.root",
        "T2_FR_IPHC: davs://sbgdcache.in2p3.fr:443/cms/phedex/store/mc/Run3Summer22EENanoAODv12/NMSSM_XtoYHto4B_MX-1400_MY-70_TuneCP5_13p6TeV_madgraph-pythia8/NANOAODSIM/130X_mcRun3_2022_realistic_postEE_v6-v2/2830000/4c1671e7-c413-4610-9f08-c4aff266c096.root",
        "T2_IT_Bari: davs://webdav.recas.ba.infn.it:8443/cms/store/mc/Run3Summer22EENanoAODv12/NMSSM_XtoYHto4B_MX-1400_MY-70_TuneCP5_13p6TeV_madgraph-pythia8/NANOAODSIM/130X_mcRun3_2022_realistic_postEE_v6-v2/2830000/4c1671e7-c413-4610-9f08-c4aff266c096.root",
        "T1_RU_JINR_Disk: davs://se-wbdv.jinr-t1.ru:2880/pnfs/jinr-t1.ru/data/cms/store/mc/Run3Summer22EENanoAODv12/NMSSM_XtoYHto4B_MX-1400_MY-70_TuneCP5_13p6TeV_madgraph-pythia8/NANOAODSIM/130X_mcRun3_2022_realistic_postEE_v6-v2/2830000/4c1671e7-c413-4610-9f08-c4aff266c096.root",
        "T1_US_FNAL_Tape: davs://cmsdcatape.fnal.gov:2880/WAX/11/store/mc/Run3Summer22EENanoAODv12/NMSSM_XtoYHto4B_MX-1400_MY-70_TuneCP5_13p6TeV_madgraph-pythia8/NANOAODSIM/130X_mcRun3_2022_realistic_postEE_v6-v2/2830000/4c1671e7-c413-4610-9f08-c4aff266c096.root"
    ],
    "cms:/store/mc/Run3Summer22EENanoAODv12/NMSSM_XtoYHto4B_MX-1400_MY-70_TuneCP5_13p6TeV_madgraph-pythia8/NANOAODSIM/130X_mcRun3_2022_realistic_postEE_v6-v2/2830000/8a68d402-c94d-426d-b8f4-a9aa5ef3a41b.root": [
        "T1_US_FNAL_Disk: davs://cmsdcadisk.fnal.gov:2880/dcache/uscmsdisk/store/mc/Run3Summer22EENanoAODv12/NMSSM_XtoYHto4B_MX-1400_MY-70_TuneCP5_13p6TeV_madgraph-pythia8/NANOAODSIM/130X_mcRun3_2022_realistic_postEE_v6-v2/2830000/8a68d402-c94d-426d-b8f4-a9aa5ef3a41b.root",
        "T2_US_MIT: davs://xrootd.cmsaf.mit.edu:1094/store/mc/Run3Summer22EENanoAODv12/NMSSM_XtoYHto4B_MX-1400_MY-70_TuneCP5_13p6TeV_madgraph-pythia8/NANOAODSIM/130X_mcRun3_2022_realistic_postEE_v6-v2/2830000/8a68d402-c94d-426d-b8f4-a9aa5ef3a41b.root",
        "T2_PT_NCG_Lisbon: davs://gftp03.ncg.ingrid.pt:8443/cms/store/mc/Run3Summer22EENanoAODv12/NMSSM_XtoYHto4B_MX-1400_MY-70_TuneCP5_13p6TeV_madgraph-pythia8/NANOAODSIM/130X_mcRun3_2022_realistic_postEE_v6-v2/2830000/8a68d402-c94d-426d-b8f4-a9aa5ef3a41b.root",
        "T2_FR_IPHC: davs://sbgdcache.in2p3.fr:443/cms/phedex/store/mc/Run3Summer22EENanoAODv12/NMSSM_XtoYHto4B_MX-1400_MY-70_TuneCP5_13p6TeV_madgraph-pythia8/NANOAODSIM/130X_mcRun3_2022_realistic_postEE_v6-v2/2830000/8a68d402-c94d-426d-b8f4-a9aa5ef3a41b.root",
        "T2_IT_Bari: davs://webdav.recas.ba.infn.it:8443/cms/store/mc/Run3Summer22EENanoAODv12/NMSSM_XtoYHto4B_MX-1400_MY-70_TuneCP5_13p6TeV_madgraph-pythia8/NANOAODSIM/130X_mcRun3_2022_realistic_postEE_v6-v2/2830000/8a68d402-c94d-426d-b8f4-a9aa5ef3a41b.root",
        "T1_RU_JINR_Disk: davs://se-wbdv.jinr-t1.ru:2880/pnfs/jinr-t1.ru/data/cms/store/mc/Run3Summer22EENanoAODv12/NMSSM_XtoYHto4B_MX-1400_MY-70_TuneCP5_13p6TeV_madgraph-pythia8/NANOAODSIM/130X_mcRun3_2022_realistic_postEE_v6-v2/2830000/8a68d402-c94d-426d-b8f4-a9aa5ef3a41b.root",
        "T1_US_FNAL_Tape: davs://cmsdcatape.fnal.gov:2880/WAX/11/store/mc/Run3Summer22EENanoAODv12/NMSSM_XtoYHto4B_MX-1400_MY-70_TuneCP5_13p6TeV_madgraph-pythia8/NANOAODSIM/130X_mcRun3_2022_realistic_postEE_v6-v2/2830000/8a68d402-c94d-426d-b8f4-a9aa5ef3a41b.root"
    ],
    "cms:/store/mc/Run3Summer22EENanoAODv12/NMSSM_XtoYHto4B_MX-1400_MY-70_TuneCP5_13p6TeV_madgraph-pythia8/NANOAODSIM/130X_mcRun3_2022_realistic_postEE_v6-v2/2830000/badc42a5-bba8-4ef6-ac63-86c411e4819e.root": [
        "T1_US_FNAL_Disk: davs://cmsdcadisk.fnal.gov:2880/dcache/uscmsdisk/store/mc/Run3Summer22EENanoAODv12/NMSSM_XtoYHto4B_MX-1400_MY-70_TuneCP5_13p6TeV_madgraph-pythia8/NANOAODSIM/130X_mcRun3_2022_realistic_postEE_v6-v2/2830000/badc42a5-bba8-4ef6-ac63-86c411e4819e.root",
        "T2_US_MIT: davs://xrootd.cmsaf.mit.edu:1094/store/mc/Run3Summer22EENanoAODv12/NMSSM_XtoYHto4B_MX-1400_MY-70_TuneCP5_13p6TeV_madgraph-pythia8/NANOAODSIM/130X_mcRun3_2022_realistic_postEE_v6-v2/2830000/badc42a5-bba8-4ef6-ac63-86c411e4819e.root",
        "T2_PT_NCG_Lisbon: davs://gftp03.ncg.ingrid.pt:8443/cms/store/mc/Run3Summer22EENanoAODv12/NMSSM_XtoYHto4B_MX-1400_MY-70_TuneCP5_13p6TeV_madgraph-pythia8/NANOAODSIM/130X_mcRun3_2022_realistic_postEE_v6-v2/2830000/badc42a5-bba8-4ef6-ac63-86c411e4819e.root",
        "T2_FR_IPHC: davs://sbgdcache.in2p3.fr:443/cms/phedex/store/mc/Run3Summer22EENanoAODv12/NMSSM_XtoYHto4B_MX-1400_MY-70_TuneCP5_13p6TeV_madgraph-pythia8/NANOAODSIM/130X_mcRun3_2022_realistic_postEE_v6-v2/2830000/badc42a5-bba8-4ef6-ac63-86c411e4819e.root",
        "T2_IT_Bari: davs://webdav.recas.ba.infn.it:8443/cms/store/mc/Run3Summer22EENanoAODv12/NMSSM_XtoYHto4B_MX-1400_MY-70_TuneCP5_13p6TeV_madgraph-pythia8/NANOAODSIM/130X_mcRun3_2022_realistic_postEE_v6-v2/2830000/badc42a5-bba8-4ef6-ac63-86c411e4819e.root",
        "T1_RU_JINR_Disk: davs://se-wbdv.jinr-t1.ru:2880/pnfs/jinr-t1.ru/data/cms/store/mc/Run3Summer22EENanoAODv12/NMSSM_XtoYHto4B_MX-1400_MY-70_TuneCP5_13p6TeV_madgraph-pythia8/NANOAODSIM/130X_mcRun3_2022_realistic_postEE_v6-v2/2830000/badc42a5-bba8-4ef6-ac63-86c411e4819e.root",
        "T1_US_FNAL_Tape: davs://cmsdcatape.fnal.gov:2880/WAX/11/store/mc/Run3Summer22EENanoAODv12/NMSSM_XtoYHto4B_MX-1400_MY-70_TuneCP5_13p6TeV_madgraph-pythia8/NANOAODSIM/130X_mcRun3_2022_realistic_postEE_v6-v2/2830000/badc42a5-bba8-4ef6-ac63-86c411e4819e.root"
    ],
    "cms:/store/mc/Run3Summer22EENanoAODv12/NMSSM_XtoYHto4B_MX-1400_MY-70_TuneCP5_13p6TeV_madgraph-pythia8/NANOAODSIM/130X_mcRun3_2022_realistic_postEE_v6-v2/2830000/10aa2c5a-5efb-4eff-b42f-79d9d49891a4.root": [
        "T1_US_FNAL_Disk: davs://cmsdcadisk.fnal.gov:2880/dcache/uscmsdisk/store/mc/Run3Summer22EENanoAODv12/NMSSM_XtoYHto4B_MX-1400_MY-70_TuneCP5_13p6TeV_madgraph-pythia8/NANOAODSIM/130X_mcRun3_2022_realistic_postEE_v6-v2/2830000/10aa2c5a-5efb-4eff-b42f-79d9d49891a4.root",
        "T2_US_MIT: davs://xrootd.cmsaf.mit.edu:1094/store/mc/Run3Summer22EENanoAODv12/NMSSM_XtoYHto4B_MX-1400_MY-70_TuneCP5_13p6TeV_madgraph-pythia8/NANOAODSIM/130X_mcRun3_2022_realistic_postEE_v6-v2/2830000/10aa2c5a-5efb-4eff-b42f-79d9d49891a4.root",
        "T2_PT_NCG_Lisbon: davs://gftp03.ncg.ingrid.pt:8443/cms/store/mc/Run3Summer22EENanoAODv12/NMSSM_XtoYHto4B_MX-1400_MY-70_TuneCP5_13p6TeV_madgraph-pythia8/NANOAODSIM/130X_mcRun3_2022_realistic_postEE_v6-v2/2830000/10aa2c5a-5efb-4eff-b42f-79d9d49891a4.root",
        "T2_FR_IPHC: davs://sbgdcache.in2p3.fr:443/cms/phedex/store/mc/Run3Summer22EENanoAODv12/NMSSM_XtoYHto4B_MX-1400_MY-70_TuneCP5_13p6TeV_madgraph-pythia8/NANOAODSIM/130X_mcRun3_2022_realistic_postEE_v6-v2/2830000/10aa2c5a-5efb-4eff-b42f-79d9d49891a4.root",
        "T2_IT_Bari: davs://webdav.recas.ba.infn.it:8443/cms/store/mc/Run3Summer22EENanoAODv12/NMSSM_XtoYHto4B_MX-1400_MY-70_TuneCP5_13p6TeV_madgraph-pythia8/NANOAODSIM/130X_mcRun3_2022_realistic_postEE_v6-v2/2830000/10aa2c5a-5efb-4eff-b42f-79d9d49891a4.root",
        "T1_RU_JINR_Disk: davs://se-wbdv.jinr-t1.ru:2880/pnfs/jinr-t1.ru/data/cms/store/mc/Run3Summer22EENanoAODv12/NMSSM_XtoYHto4B_MX-1400_MY-70_TuneCP5_13p6TeV_madgraph-pythia8/NANOAODSIM/130X_mcRun3_2022_realistic_postEE_v6-v2/2830000/10aa2c5a-5efb-4eff-b42f-79d9d49891a4.root",
        "T1_US_FNAL_Tape: davs://cmsdcatape.fnal.gov:2880/WAX/11/store/mc/Run3Summer22EENanoAODv12/NMSSM_XtoYHto4B_MX-1400_MY-70_TuneCP5_13p6TeV_madgraph-pythia8/NANOAODSIM/130X_mcRun3_2022_realistic_postEE_v6-v2/2830000/10aa2c5a-5efb-4eff-b42f-79d9d49891a4.root"
    ],
    "cms:/store/mc/Run3Summer22EENanoAODv12/NMSSM_XtoYHto4B_MX-1400_MY-70_TuneCP5_13p6TeV_madgraph-pythia8/NANOAODSIM/130X_mcRun3_2022_realistic_postEE_v6-v2/2830000/88a9da5a-7091-4bb2-9266-73fef61cbbbf.root": [
        "T1_US_FNAL_Disk: davs://cmsdcadisk.fnal.gov:2880/dcache/uscmsdisk/store/mc/Run3Summer22EENanoAODv12/NMSSM_XtoYHto4B_MX-1400_MY-70_TuneCP5_13p6TeV_madgraph-pythia8/NANOAODSIM/130X_mcRun3_2022_realistic_postEE_v6-v2/2830000/88a9da5a-7091-4bb2-9266-73fef61cbbbf.root",
        "T2_US_MIT: davs://xrootd.cmsaf.mit.edu:1094/store/mc/Run3Summer22EENanoAODv12/NMSSM_XtoYHto4B_MX-1400_MY-70_TuneCP5_13p6TeV_madgraph-pythia8/NANOAODSIM/130X_mcRun3_2022_realistic_postEE_v6-v2/2830000/88a9da5a-7091-4bb2-9266-73fef61cbbbf.root",
        "T2_PT_NCG_Lisbon: davs://gftp03.ncg.ingrid.pt:8443/cms/store/mc/Run3Summer22EENanoAODv12/NMSSM_XtoYHto4B_MX-1400_MY-70_TuneCP5_13p6TeV_madgraph-pythia8/NANOAODSIM/130X_mcRun3_2022_realistic_postEE_v6-v2/2830000/88a9da5a-7091-4bb2-9266-73fef61cbbbf.root",
        "T2_FR_IPHC: davs://sbgdcache.in2p3.fr:443/cms/phedex/store/mc/Run3Summer22EENanoAODv12/NMSSM_XtoYHto4B_MX-1400_MY-70_TuneCP5_13p6TeV_madgraph-pythia8/NANOAODSIM/130X_mcRun3_2022_realistic_postEE_v6-v2/2830000/88a9da5a-7091-4bb2-9266-73fef61cbbbf.root",
        "T2_IT_Bari: davs://webdav.recas.ba.infn.it:8443/cms/store/mc/Run3Summer22EENanoAODv12/NMSSM_XtoYHto4B_MX-1400_MY-70_TuneCP5_13p6TeV_madgraph-pythia8/NANOAODSIM/130X_mcRun3_2022_realistic_postEE_v6-v2/2830000/88a9da5a-7091-4bb2-9266-73fef61cbbbf.root",
        "T1_RU_JINR_Disk: davs://se-wbdv.jinr-t1.ru:2880/pnfs/jinr-t1.ru/data/cms/store/mc/Run3Summer22EENanoAODv12/NMSSM_XtoYHto4B_MX-1400_MY-70_TuneCP5_13p6TeV_madgraph-pythia8/NANOAODSIM/130X_mcRun3_2022_realistic_postEE_v6-v2/2830000/88a9da5a-7091-4bb2-9266-73fef61cbbbf.root",
        "T2_IT_Rome: davs://cmsrm-xrootd01.roma1.infn.it:2880//mc/Run3Summer22EENanoAODv12/NMSSM_XtoYHto4B_MX-1400_MY-70_TuneCP5_13p6TeV_madgraph-pythia8/NANOAODSIM/130X_mcRun3_2022_realistic_postEE_v6-v2/2830000/88a9da5a-7091-4bb2-9266-73fef61cbbbf.root",
        "T1_US_FNAL_Tape: davs://cmsdcatape.fnal.gov:2880/WAX/11/store/mc/Run3Summer22EENanoAODv12/NMSSM_XtoYHto4B_MX-1400_MY-70_TuneCP5_13p6TeV_madgraph-pythia8/NANOAODSIM/130X_mcRun3_2022_realistic_postEE_v6-v2/2830000/88a9da5a-7091-4bb2-9266-73fef61cbbbf.root"
    ],
    "cms:/store/mc/Run3Summer22EENanoAODv12/NMSSM_XtoYHto4B_MX-1400_MY-70_TuneCP5_13p6TeV_madgraph-pythia8/NANOAODSIM/130X_mcRun3_2022_realistic_postEE_v6-v2/2830000/e7eace5f-784c-440d-a1bd-96660c2cfbad.root": [
        "T1_US_FNAL_Disk: davs://cmsdcadisk.fnal.gov:2880/dcache/uscmsdisk/store/mc/Run3Summer22EENanoAODv12/NMSSM_XtoYHto4B_MX-1400_MY-70_TuneCP5_13p6TeV_madgraph-pythia8/NANOAODSIM/130X_mcRun3_2022_realistic_postEE_v6-v2/2830000/e7eace5f-784c-440d-a1bd-96660c2cfbad.root",
        "T2_US_MIT: davs://xrootd.cmsaf.mit.edu:1094/store/mc/Run3Summer22EENanoAODv12/NMSSM_XtoYHto4B_MX-1400_MY-70_TuneCP5_13p6TeV_madgraph-pythia8/NANOAODSIM/130X_mcRun3_2022_realistic_postEE_v6-v2/2830000/e7eace5f-784c-440d-a1bd-96660c2cfbad.root",
        "T2_PT_NCG_Lisbon: davs://gftp03.ncg.ingrid.pt:8443/cms/store/mc/Run3Summer22EENanoAODv12/NMSSM_XtoYHto4B_MX-1400_MY-70_TuneCP5_13p6TeV_madgraph-pythia8/NANOAODSIM/130X_mcRun3_2022_realistic_postEE_v6-v2/2830000/e7eace5f-784c-440d-a1bd-96660c2cfbad.root",
        "T2_FR_IPHC: davs://sbgdcache.in2p3.fr:443/cms/phedex/store/mc/Run3Summer22EENanoAODv12/NMSSM_XtoYHto4B_MX-1400_MY-70_TuneCP5_13p6TeV_madgraph-pythia8/NANOAODSIM/130X_mcRun3_2022_realistic_postEE_v6-v2/2830000/e7eace5f-784c-440d-a1bd-96660c2cfbad.root",
        "T2_PL_Cyfronet: davs://eos01.grid.cyfronet.pl:8443/eos/cms/store/mc/Run3Summer22EENanoAODv12/NMSSM_XtoYHto4B_MX-1400_MY-70_TuneCP5_13p6TeV_madgraph-pythia8/NANOAODSIM/130X_mcRun3_2022_realistic_postEE_v6-v2/2830000/e7eace5f-784c-440d-a1bd-96660c2cfbad.root",
        "T2_IT_Bari: davs://webdav.recas.ba.infn.it:8443/cms/store/mc/Run3Summer22EENanoAODv12/NMSSM_XtoYHto4B_MX-1400_MY-70_TuneCP5_13p6TeV_madgraph-pythia8/NANOAODSIM/130X_mcRun3_2022_realistic_postEE_v6-v2/2830000/e7eace5f-784c-440d-a1bd-96660c2cfbad.root",
        "T1_RU_JINR_Disk: davs://se-wbdv.jinr-t1.ru:2880/pnfs/jinr-t1.ru/data/cms/store/mc/Run3Summer22EENanoAODv12/NMSSM_XtoYHto4B_MX-1400_MY-70_TuneCP5_13p6TeV_madgraph-pythia8/NANOAODSIM/130X_mcRun3_2022_realistic_postEE_v6-v2/2830000/e7eace5f-784c-440d-a1bd-96660c2cfbad.root",
        "T1_US_FNAL_Tape: davs://cmsdcatape.fnal.gov:2880/WAX/11/store/mc/Run3Summer22EENanoAODv12/NMSSM_XtoYHto4B_MX-1400_MY-70_TuneCP5_13p6TeV_madgraph-pythia8/NANOAODSIM/130X_mcRun3_2022_realistic_postEE_v6-v2/2830000/e7eace5f-784c-440d-a1bd-96660c2cfbad.root"
    ],
    "cms:/store/mc/Run3Summer22EENanoAODv12/NMSSM_XtoYHto4B_MX-1400_MY-70_TuneCP5_13p6TeV_madgraph-pythia8/NANOAODSIM/130X_mcRun3_2022_realistic_postEE_v6-v2/2830000/0e004510-60ce-40b2-b4f5-e97e69cea465.root": [
        "T1_US_FNAL_Disk: davs://cmsdcadisk.fnal.gov:2880/dcache/uscmsdisk/store/mc/Run3Summer22EENanoAODv12/NMSSM_XtoYHto4B_MX-1400_MY-70_TuneCP5_13p6TeV_madgraph-pythia8/NANOAODSIM/130X_mcRun3_2022_realistic_postEE_v6-v2/2830000/0e004510-60ce-40b2-b4f5-e97e69cea465.root",
        "T2_US_MIT: davs://xrootd.cmsaf.mit.edu:1094/store/mc/Run3Summer22EENanoAODv12/NMSSM_XtoYHto4B_MX-1400_MY-70_TuneCP5_13p6TeV_madgraph-pythia8/NANOAODSIM/130X_mcRun3_2022_realistic_postEE_v6-v2/2830000/0e004510-60ce-40b2-b4f5-e97e69cea465.root",
        "T2_PT_NCG_Lisbon: davs://gftp03.ncg.ingrid.pt:8443/cms/store/mc/Run3Summer22EENanoAODv12/NMSSM_XtoYHto4B_MX-1400_MY-70_TuneCP5_13p6TeV_madgraph-pythia8/NANOAODSIM/130X_mcRun3_2022_realistic_postEE_v6-v2/2830000/0e004510-60ce-40b2-b4f5-e97e69cea465.root",
        "T2_FR_IPHC: davs://sbgdcache.in2p3.fr:443/cms/phedex/store/mc/Run3Summer22EENanoAODv12/NMSSM_XtoYHto4B_MX-1400_MY-70_TuneCP5_13p6TeV_madgraph-pythia8/NANOAODSIM/130X_mcRun3_2022_realistic_postEE_v6-v2/2830000/0e004510-60ce-40b2-b4f5-e97e69cea465.root",
        "T2_IT_Bari: davs://webdav.recas.ba.infn.it:8443/cms/store/mc/Run3Summer22EENanoAODv12/NMSSM_XtoYHto4B_MX-1400_MY-70_TuneCP5_13p6TeV_madgraph-pythia8/NANOAODSIM/130X_mcRun3_2022_realistic_postEE_v6-v2/2830000/0e004510-60ce-40b2-b4f5-e97e69cea465.root",
        "T1_RU_JINR_Disk: davs://se-wbdv.jinr-t1.ru:2880/pnfs/jinr-t1.ru/data/cms/store/mc/Run3Summer22EENanoAODv12/NMSSM_XtoYHto4B_MX-1400_MY-70_TuneCP5_13p6TeV_madgraph-pythia8/NANOAODSIM/130X_mcRun3_2022_realistic_postEE_v6-v2/2830000/0e004510-60ce-40b2-b4f5-e97e69cea465.root",
        "T1_US_FNAL_Tape: davs://cmsdcatape.fnal.gov:2880/WAX/11/store/mc/Run3Summer22EENanoAODv12/NMSSM_XtoYHto4B_MX-1400_MY-70_TuneCP5_13p6TeV_madgraph-pythia8/NANOAODSIM/130X_mcRun3_2022_realistic_postEE_v6-v2/2830000/0e004510-60ce-40b2-b4f5-e97e69cea465.root"
    ],
    "cms:/store/mc/Run3Summer22EENanoAODv12/NMSSM_XtoYHto4B_MX-1400_MY-70_TuneCP5_13p6TeV_madgraph-pythia8/NANOAODSIM/130X_mcRun3_2022_realistic_postEE_v6-v2/2830000/f675f337-b891-4064-9dd2-3caa7d5459b8.root": [
        "T1_US_FNAL_Disk: davs://cmsdcadisk.fnal.gov:2880/dcache/uscmsdisk/store/mc/Run3Summer22EENanoAODv12/NMSSM_XtoYHto4B_MX-1400_MY-70_TuneCP5_13p6TeV_madgraph-pythia8/NANOAODSIM/130X_mcRun3_2022_realistic_postEE_v6-v2/2830000/f675f337-b891-4064-9dd2-3caa7d5459b8.root",
        "T2_US_MIT: davs://xrootd.cmsaf.mit.edu:1094/store/mc/Run3Summer22EENanoAODv12/NMSSM_XtoYHto4B_MX-1400_MY-70_TuneCP5_13p6TeV_madgraph-pythia8/NANOAODSIM/130X_mcRun3_2022_realistic_postEE_v6-v2/2830000/f675f337-b891-4064-9dd2-3caa7d5459b8.root",
        "T2_PT_NCG_Lisbon: davs://gftp03.ncg.ingrid.pt:8443/cms/store/mc/Run3Summer22EENanoAODv12/NMSSM_XtoYHto4B_MX-1400_MY-70_TuneCP5_13p6TeV_madgraph-pythia8/NANOAODSIM/130X_mcRun3_2022_realistic_postEE_v6-v2/2830000/f675f337-b891-4064-9dd2-3caa7d5459b8.root",
        "T2_FR_IPHC: davs://sbgdcache.in2p3.fr:443/cms/phedex/store/mc/Run3Summer22EENanoAODv12/NMSSM_XtoYHto4B_MX-1400_MY-70_TuneCP5_13p6TeV_madgraph-pythia8/NANOAODSIM/130X_mcRun3_2022_realistic_postEE_v6-v2/2830000/f675f337-b891-4064-9dd2-3caa7d5459b8.root",
        "T2_IT_Bari: davs://webdav.recas.ba.infn.it:8443/cms/store/mc/Run3Summer22EENanoAODv12/NMSSM_XtoYHto4B_MX-1400_MY-70_TuneCP5_13p6TeV_madgraph-pythia8/NANOAODSIM/130X_mcRun3_2022_realistic_postEE_v6-v2/2830000/f675f337-b891-4064-9dd2-3caa7d5459b8.root",
        "T1_RU_JINR_Disk: davs://se-wbdv.jinr-t1.ru:2880/pnfs/jinr-t1.ru/data/cms/store/mc/Run3Summer22EENanoAODv12/NMSSM_XtoYHto4B_MX-1400_MY-70_TuneCP5_13p6TeV_madgraph-pythia8/NANOAODSIM/130X_mcRun3_2022_realistic_postEE_v6-v2/2830000/f675f337-b891-4064-9dd2-3caa7d5459b8.root",
        "T1_US_FNAL_Tape: davs://cmsdcatape.fnal.gov:2880/WAX/11/store/mc/Run3Summer22EENanoAODv12/NMSSM_XtoYHto4B_MX-1400_MY-70_TuneCP5_13p6TeV_madgraph-pythia8/NANOAODSIM/130X_mcRun3_2022_realistic_postEE_v6-v2/2830000/f675f337-b891-4064-9dd2-3caa7d5459b8.root"
    ],
    "cms:/store/mc/Run3Summer22EENanoAODv12/NMSSM_XtoYHto4B_MX-1400_MY-70_TuneCP5_13p6TeV_madgraph-pythia8/NANOAODSIM/130X_mcRun3_2022_realistic_postEE_v6-v2/2830000/24c9a969-33fd-4281-a88e-433cb5531d48.root": [
        "T1_US_FNAL_Disk: davs://cmsdcadisk.fnal.gov:2880/dcache/uscmsdisk/store/mc/Run3Summer22EENanoAODv12/NMSSM_XtoYHto4B_MX-1400_MY-70_TuneCP5_13p6TeV_madgraph-pythia8/NANOAODSIM/130X_mcRun3_2022_realistic_postEE_v6-v2/2830000/24c9a969-33fd-4281-a88e-433cb5531d48.root",
        "T2_US_MIT: davs://xrootd.cmsaf.mit.edu:1094/store/mc/Run3Summer22EENanoAODv12/NMSSM_XtoYHto4B_MX-1400_MY-70_TuneCP5_13p6TeV_madgraph-pythia8/NANOAODSIM/130X_mcRun3_2022_realistic_postEE_v6-v2/2830000/24c9a969-33fd-4281-a88e-433cb5531d48.root",
        "T2_PT_NCG_Lisbon: davs://gftp03.ncg.ingrid.pt:8443/cms/store/mc/Run3Summer22EENanoAODv12/NMSSM_XtoYHto4B_MX-1400_MY-70_TuneCP5_13p6TeV_madgraph-pythia8/NANOAODSIM/130X_mcRun3_2022_realistic_postEE_v6-v2/2830000/24c9a969-33fd-4281-a88e-433cb5531d48.root",
        "T2_FR_IPHC: davs://sbgdcache.in2p3.fr:443/cms/phedex/store/mc/Run3Summer22EENanoAODv12/NMSSM_XtoYHto4B_MX-1400_MY-70_TuneCP5_13p6TeV_madgraph-pythia8/NANOAODSIM/130X_mcRun3_2022_realistic_postEE_v6-v2/2830000/24c9a969-33fd-4281-a88e-433cb5531d48.root",
        "T2_IT_Bari: davs://webdav.recas.ba.infn.it:8443/cms/store/mc/Run3Summer22EENanoAODv12/NMSSM_XtoYHto4B_MX-1400_MY-70_TuneCP5_13p6TeV_madgraph-pythia8/NANOAODSIM/130X_mcRun3_2022_realistic_postEE_v6-v2/2830000/24c9a969-33fd-4281-a88e-433cb5531d48.root",
        "T1_RU_JINR_Disk: davs://se-wbdv.jinr-t1.ru:2880/pnfs/jinr-t1.ru/data/cms/store/mc/Run3Summer22EENanoAODv12/NMSSM_XtoYHto4B_MX-1400_MY-70_TuneCP5_13p6TeV_madgraph-pythia8/NANOAODSIM/130X_mcRun3_2022_realistic_postEE_v6-v2/2830000/24c9a969-33fd-4281-a88e-433cb5531d48.root",
        "T1_US_FNAL_Tape: davs://cmsdcatape.fnal.gov:2880/WAX/11/store/mc/Run3Summer22EENanoAODv12/NMSSM_XtoYHto4B_MX-1400_MY-70_TuneCP5_13p6TeV_madgraph-pythia8/NANOAODSIM/130X_mcRun3_2022_realistic_postEE_v6-v2/2830000/24c9a969-33fd-4281-a88e-433cb5531d48.root"
    ]
}