{
    "cms:/store/mc/Run3Summer23NanoAODv12/NMSSM_XtoYHto4B_MX-2500_MY-60_TuneCP5_13p6TeV_madgraph-pythia8/NANOAODSIM/130X_mcRun3_2023_realistic_v15-v2/2560000/2acd39cf-4de2-4081-b69f-fa8f35b467de.root": [
        "T1_US_FNAL_Disk: root://cmsdcadisk.fnal.gov:1094//dcache/uscmsdisk/store/mc/Run3Summer23NanoAODv12/NMSSM_XtoYHto4B_MX-2500_MY-60_TuneCP5_13p6TeV_madgraph-pythia8/NANOAODSIM/130X_mcRun3_2023_realistic_v15-v2/2560000/2acd39cf-4de2-4081-b69f-fa8f35b467de.root",
        "T2_FR_GRIF: davs://eos.grif.fr:11000/eos/grif/cms/grif/store/mc/Run3Summer23NanoAODv12/NMSSM_XtoYHto4B_MX-2500_MY-60_TuneCP5_13p6TeV_madgraph-pythia8/NANOAODSIM/130X_mcRun3_2023_realistic_v15-v2/2560000/2acd39cf-4de2-4081-b69f-fa8f35b467de.root",
        "T2_UA_KIPT: davs://cms-se0.kipt.kharkov.ua:443//dpm/kipt.kharkov.ua/home/cms/store/mc/Run3Summer23NanoAODv12/NMSSM_XtoYHto4B_MX-2500_MY-60_TuneCP5_13p6TeV_madgraph-pythia8/NANOAODSIM/130X_mcRun3_2023_realistic_v15-v2/2560000/2acd39cf-4de2-4081-b69f-fa8f35b467de.root",
        "T2_CH_CERN: davs://eoscms.cern.ch:443/eos/cms/store/mc/Run3Summer23NanoAODv12/NMSSM_XtoYHto4B_MX-2500_MY-60_TuneCP5_13p6TeV_madgraph-pythia8/NANOAODSIM/130X_mcRun3_2023_realistic_v15-v2/2560000/2acd39cf-4de2-4081-b69f-fa8f35b467de.root",
        "T1_US_FNAL_Tape_Test: davs://cmstnvm1.fnal.gov:2880/store/mc/Run3Summer23NanoAODv12/NMSSM_XtoYHto4B_MX-2500_MY-60_TuneCP5_13p6TeV_madgraph-pythia8/NANOAODSIM/130X_mcRun3_2023_realistic_v15-v2/2560000/2acd39cf-4de2-4081-b69f-fa8f35b467de.root",
        "T2_BR_SPRACE: davs://osg-se.sprace.org.br:1094/store/mc/Run3Summer23NanoAODv12/NMSSM_XtoYHto4B_MX-2500_MY-60_TuneCP5_13p6TeV_madgraph-pythia8/NANOAODSIM/130X_mcRun3_2023_realistic_v15-v2/2560000/2acd39cf-4de2-4081-b69f-fa8f35b467de.root",
        "T1_IT_CNAF_Tape: davs://xfer-tape-cms.cr.cnaf.infn.it:8443/cmstape/store/mc/Run3Summer23NanoAODv12/NMSSM_XtoYHto4B_MX-2500_MY-60_TuneCP5_13p6TeV_madgraph-pythia8/NANOAODSIM/130X_mcRun3_2023_realistic_v15-v2/2560000/2acd39cf-4de2-4081-b69f-fa8f35b467de.root",
        "T1_RU_JINR_Disk: davs://se-wbdv.jinr-t1.ru:2880/pnfs/jinr-t1.ru/data/cms/store/mc/Run3Summer23NanoAODv12/NMSSM_XtoYHto4B_MX-2500_MY-60_TuneCP5_13p6TeV_madgraph-pythia8/NANOAODSIM/130X_mcRun3_2023_realistic_v15-v2/2560000/2acd39cf-4de2-4081-b69f-fa8f35b467de.root"
    ],
    "cms:/store/mc/Run3Summer23NanoAODv12/NMSSM_XtoYHto4B_MX-2500_MY-60_TuneCP5_13p6TeV_madgraph-pythia8/NANOAODSIM/130X_mcRun3_2023_realistic_v15-v2/2560000/c682134f-0c40-45f5-81d6-eaa46fa6b465.root": [
        "T1_US_FNAL_Disk: davs://cmsdcadisk.fnal.gov:2880/dcache/uscmsdisk/store/mc/Run3Summer23NanoAODv12/NMSSM_XtoYHto4B_MX-2500_MY-60_TuneCP5_13p6TeV_madgraph-pythia8/NANOAODSIM/130X_mcRun3_2023_realistic_v15-v2/2560000/c682134f-0c40-45f5-81d6-eaa46fa6b465.root",
        "T2_FR_GRIF: davs://eos.grif.fr:11000/eos/grif/cms/grif/store/mc/Run3Summer23NanoAODv12/NMSSM_XtoYHto4B_MX-2500_MY-60_TuneCP5_13p6TeV_madgraph-pythia8/NANOAODSIM/130X_mcRun3_2023_realistic_v15-v2/2560000/c682134f-0c40-45f5-81d6-eaa46fa6b465.root",
        "T2_UA_KIPT: davs://cms-se0.kipt.kharkov.ua:443//dpm/kipt.kharkov.ua/home/cms/store/mc/Run3Summer23NanoAODv12/NMSSM_XtoYHto4B_MX-2500_MY-60_TuneCP5_13p6TeV_madgraph-pythia8/NANOAODSIM/130X_mcRun3_2023_realistic_v15-v2/2560000/c682134f-0c40-45f5-81d6-eaa46fa6b465.root",
        "T2_CH_CERN: davs://eoscms.cern.ch:443/eos/cms/store/mc/Run3Summer23NanoAODv12/NMSSM_XtoYHto4B_MX-2500_MY-60_TuneCP5_13p6TeV_madgraph-pythia8/NANOAODSIM/130X_mcRun3_2023_realistic_v15-v2/2560000/c682134f-0c40-45f5-81d6-eaa46fa6b465.root",
        "T1_US_FNAL_Tape_Test: davs://cmstnvm1.fnal.gov:2880/store/mc/Run3Summer23NanoAODv12/NMSSM_XtoYHto4B_MX-2500_MY-60_TuneCP5_13p6TeV_madgraph-pythia8/NANOAODSIM/130X_mcRun3_2023_realistic_v15-v2/2560000/c682134f-0c40-45f5-81d6-eaa46fa6b465.root",
        "T2_BR_SPRACE: davs://osg-se.sprace.org.br:1094/store/mc/Run3Summer23NanoAODv12/NMSSM_XtoYHto4B_MX-2500_MY-60_TuneCP5_13p6TeV_madgraph-pythia8/NANOAODSIM/130X_mcRun3_2023_realistic_v15-v2/2560000/c682134f-0c40-45f5-81d6-eaa46fa6b465.root",
        "T1_IT_CNAF_Tape: davs://xfer-tape-cms.cr.cnaf.infn.it:8443/cmstape/store/mc/Run3Summer23NanoAODv12/NMSSM_XtoYHto4B_MX-2500_MY-60_TuneCP5_13p6TeV_madgraph-pythia8/NANOAODSIM/130X_mcRun3_2023_realistic_v15-v2/2560000/c682134f-0c40-45f5-81d6-eaa46fa6b465.root",
        "T1_RU_JINR_Disk: davs://se-wbdv.jinr-t1.ru:2880/pnfs/jinr-t1.ru/data/cms/store/mc/Run3Summer23NanoAODv12/NMSSM_XtoYHto4B_MX-2500_MY-60_TuneCP5_13p6TeV_madgraph-pythia8/NANOAODSIM/130X_mcRun3_2023_realistic_v15-v2/2560000/c682134f-0c40-45f5-81d6-eaa46fa6b465.root"
    ],
    "cms:/store/mc/Run3Summer23NanoAODv12/NMSSM_XtoYHto4B_MX-2500_MY-60_TuneCP5_13p6TeV_madgraph-pythia8/NANOAODSIM/130X_mcRun3_2023_realistic_v15-v2/2560000/b50ed6e5-8a16-4da3-b3a7-36e3a60b98b8.root": [
        "T1_US_FNAL_Disk: davs://cmsdcadisk.fnal.gov:2880/dcache/uscmsdisk/store/mc/Run3Summer23NanoAODv12/NMSSM_XtoYHto4B_MX-2500_MY-60_TuneCP5_13p6TeV_madgraph-pythia8/NANOAODSIM/130X_mcRun3_2023_realistic_v15-v2/2560000/b50ed6e5-8a16-4da3-b3a7-36e3a60b98b8.root",
        "T2_FR_GRIF: davs://eos.grif.fr:11000/eos/grif/cms/grif/store/mc/Run3Summer23NanoAODv12/NMSSM_XtoYHto4B_MX-2500_MY-60_TuneCP5_13p6TeV_madgraph-pythia8/NANOAODSIM/130X_mcRun3_2023_realistic_v15-v2/2560000/b50ed6e5-8a16-4da3-b3a7-36e3a60b98b8.root",
        "T2_UA_KIPT: davs://cms-se0.kipt.kharkov.ua:443//dpm/kipt.kharkov.ua/home/cms/store/mc/Run3Summer23NanoAODv12/NMSSM_XtoYHto4B_MX-2500_MY-60_TuneCP5_13p6TeV_madgraph-pythia8/NANOAODSIM/130X_mcRun3_2023_realistic_v15-v2/2560000/b50ed6e5-8a16-4da3-b3a7-36e3a60b98b8.root",
        "T2_CH_CERN: davs://eoscms.cern.ch:443/eos/cms/store/mc/Run3Summer23NanoAODv12/NMSSM_XtoYHto4B_MX-2500_MY-60_TuneCP5_13p6TeV_madgraph-pythia8/NANOAODSIM/130X_mcRun3_2023_realistic_v15-v2/2560000/b50ed6e5-8a16-4da3-b3a7-36e3a60b98b8.root",
        "T1_US_FNAL_Tape_Test: davs://cmstnvm1.fnal.gov:2880/store/mc/Run3Summer23NanoAODv12/NMSSM_XtoYHto4B_MX-2500_MY-60_TuneCP5_13p6TeV_madgraph-pythia8/NANOAODSIM/130X_mcRun3_2023_realistic_v15-v2/2560000/b50ed6e5-8a16-4da3-b3a7-36e3a60b98b8.root",
        "T2_BR_SPRACE: davs://osg-se.sprace.org.br:1094/store/mc/Run3Summer23NanoAODv12/NMSSM_XtoYHto4B_MX-2500_MY-60_TuneCP5_13p6TeV_madgraph-pythia8/NANOAODSIM/130X_mcRun3_2023_realistic_v15-v2/2560000/b50ed6e5-8a16-4da3-b3a7-36e3a60b98b8.root",
        "T1_IT_CNAF_Tape: davs://xfer-tape-cms.cr.cnaf.infn.it:8443/cmstape/store/mc/Run3Summer23NanoAODv12/NMSSM_XtoYHto4B_MX-2500_MY-60_TuneCP5_13p6TeV_madgraph-pythia8/NANOAODSIM/130X_mcRun3_2023_realistic_v15-v2/2560000/b50ed6e5-8a16-4da3-b3a7-36e3a60b98b8.root",
        "T1_RU_JINR_Disk: davs://se-wbdv.jinr-t1.ru:2880/pnfs/jinr-t1.ru/data/cms/store/mc/Run3Summer23NanoAODv12/NMSSM_XtoYHto4B_MX-2500_MY-60_TuneCP5_13p6TeV_madgraph-pythia8/NANOAODSIM/130X_mcRun3_2023_realistic_v15-v2/2560000/b50ed6e5-8a16-4da3-b3a7-36e3a60b98b8.root",
        "T2_UK_London_IC: davs://gfe02.grid.hep.ph.ic.ac.uk:2880/pnfs/hep.ph.ic.ac.uk/data/cms/store/mc/Run3Summer23NanoAODv12/NMSSM_XtoYHto4B_MX-2500_MY-60_TuneCP5_13p6TeV_madgraph-pythia8/NANOAODSIM/130X_mcRun3_2023_realistic_v15-v2/2560000/b50ed6e5-8a16-4da3-b3a7-36e3a60b98b8.root"
    ]
}