#/NMSSM_XtoYHto4B_MX-800_MY-300_TuneCP5_13p6TeV_madgraph-pythia8/Run3Summer22NanoAODv12-130X_mcRun3_2022_realistic_v5-v2/NANOAODSIM
+---------------------------------------------------------------------------------------------------------------------------------------------------------------------------------------------------+--------+-------------+------------+----------+
| SCOPE:NAME                                                                                                                                                                                        | GUID   | ADLER32     | FILESIZE   | EVENTS   |
|---------------------------------------------------------------------------------------------------------------------------------------------------------------------------------------------------+--------+-------------+------------+----------|
| cms:/store/mc/Run3Summer22NanoAODv12/NMSSM_XtoYHto4B_MX-800_MY-300_TuneCP5_13p6TeV_madgraph-pythia8/NANOAODSIM/130X_mcRun3_2022_realistic_v5-v2/2820000/68da1229-b0a1-4308-9781-88dd6808ed80.root | (None) | ad:4b8e176d | 7.167 MB   |          |
| cms:/store/mc/Run3Summer22NanoAODv12/NMSSM_XtoYHto4B_MX-800_MY-300_TuneCP5_13p6TeV_madgraph-pythia8/NANOAODSIM/130X_mcRun3_2022_realistic_v5-v2/2820000/85ca771a-a250-4841-8713-838e36c5d1b5.root | (None) | ad:d873808f | 8.961 MB   |          |
| cms:/store/mc/Run3Summer22NanoAODv12/NMSSM_XtoYHto4B_MX-800_MY-300_TuneCP5_13p6TeV_madgraph-pythia8/NANOAODSIM/130X_mcRun3_2022_realistic_v5-v2/2820000/0592df15-7fb9-45d7-aa7d-83f44593cf82.root | (None) | ad:5aef7f77 | 4.881 MB   |          |
| cms:/store/mc/Run3Summer22NanoAODv12/NMSSM_XtoYHto4B_MX-800_MY-300_TuneCP5_13p6TeV_madgraph-pythia8/NANOAODSIM/130X_mcRun3_2022_realistic_v5-v2/2820000/6dc244ec-ee9b-406a-bd43-7b525d266f3f.root | (None) | ad:29e40d2c | 9.057 MB   |          |
| cms:/store/mc/Run3Summer22NanoAODv12/NMSSM_XtoYHto4B_MX-800_MY-300_TuneCP5_13p6TeV_madgraph-pythia8/NANOAODSIM/130X_mcRun3_2022_realistic_v5-v2/2820000/ebbab8f0-1283-473b-8092-6432f2476061.root | (None) | ad:caadaedd | 10.828 MB  |          |
| cms:/store/mc/Run3Summer22NanoAODv12/NMSSM_XtoYHto4B_MX-800_MY-300_TuneCP5_13p6TeV_madgraph-pythia8/NANOAODSIM/130X_mcRun3_2022_realistic_v5-v2/2820000/4b9d3c8d-5329-4ac2-bd77-29f05e590d92.root | (None) | ad:a48ee67a | 4.876 MB   |          |
| cms:/store/mc/Run3Summer22NanoAODv12/NMSSM_XtoYHto4B_MX-800_MY-300_TuneCP5_13p6TeV_madgraph-pythia8/NANOAODSIM/130X_mcRun3_2022_realistic_v5-v2/2820000/8f311fd8-b9f0-442c-a40b-62806844aa6d.root | (None) | ad:41f77707 | 10.815 MB  |          |
| cms:/store/mc/Run3Summer22NanoAODv12/NMSSM_XtoYHto4B_MX-800_MY-300_TuneCP5_13p6TeV_madgraph-pythia8/NANOAODSIM/130X_mcRun3_2022_realistic_v5-v2/2820000/a0f7bf17-6772-4a3f-ba10-8f5549a4d302.root | (None) | ad:cf852cc7 | 6.140 MB   |          |
| cms:/store/mc/Run3Summer22NanoAODv12/NMSSM_XtoYHto4B_MX-800_MY-300_TuneCP5_13p6TeV_madgraph-pythia8/NANOAODSIM/130X_mcRun3_2022_realistic_v5-v2/2820000/6815f7b9-e63a-4399-b085-ab3d6d3919f7.root | (None) | ad:466ded4d | 7.174 MB   |          |
| cms:/store/mc/Run3Summer22NanoAODv12/NMSSM_XtoYHto4B_MX-800_MY-300_TuneCP5_13p6TeV_madgraph-pythia8/NANOAODSIM/130X_mcRun3_2022_realistic_v5-v2/2820000/95bd5320-d43d-4351-98c0-51728724cba5.root | (None) | ad:c36f586c | 7.198 MB   |          |
| cms:/store/mc/Run3Summer22NanoAODv12/NMSSM_XtoYHto4B_MX-800_MY-300_TuneCP5_13p6TeV_madgraph-pythia8/NANOAODSIM/130X_mcRun3_2022_realistic_v5-v2/2820000/dc73a724-1834-4294-a0c5-7a2ba4e830ef.root | (None) | ad:bafed893 | 10.807 MB  |          |
| cms:/store/mc/Run3Summer22NanoAODv12/NMSSM_XtoYHto4B_MX-800_MY-300_TuneCP5_13p6TeV_madgraph-pythia8/NANOAODSIM/130X_mcRun3_2022_realistic_v5-v2/2820000/d1f3b5af-ee05-42d6-891c-dfd19f02ded8.root | (None) | ad:9bf66600 | 4.863 MB   |          |
| cms:/store/mc/Run3Summer22NanoAODv12/NMSSM_XtoYHto4B_MX-800_MY-300_TuneCP5_13p6TeV_madgraph-pythia8/NANOAODSIM/130X_mcRun3_2022_realistic_v5-v2/2820000/d948b271-2493-4bdb-b31a-ae9e05681710.root | (None) | ad:116ac3e9 | 7.174 MB   |          |
+---------------------------------------------------------------------------------------------------------------------------------------------------------------------------------------------------+--------+-------------+------------+----------+
Total files : 13
Total size : 99.941 MB
