{
    "cms:/store/mc/Run3Summer23NanoAODv12/NMSSM_XtoYHto4B_MX-2500_MY-80_TuneCP5_13p6TeV_madgraph-pythia8/NANOAODSIM/130X_mcRun3_2023_realistic_v15-v2/2810000/93d24ceb-e3f2-4a9f-9f49-ec4f57a2159a.root": [
        "T1_US_FNAL_Disk: davs://cmsdcadisk.fnal.gov:2880/dcache/uscmsdisk/store/mc/Run3Summer23NanoAODv12/NMSSM_XtoYHto4B_MX-2500_MY-80_TuneCP5_13p6TeV_madgraph-pythia8/NANOAODSIM/130X_mcRun3_2023_realistic_v15-v2/2810000/93d24ceb-e3f2-4a9f-9f49-ec4f57a2159a.root",
        "T1_DE_KIT_Disk: davs://cmsdcache-kit-disk.gridka.de:2880/pnfs/gridka.de/cms/disk-only/store/mc/Run3Summer23NanoAODv12/NMSSM_XtoYHto4B_MX-2500_MY-80_TuneCP5_13p6TeV_madgraph-pythia8/NANOAODSIM/130X_mcRun3_2023_realistic_v15-v2/2810000/93d24ceb-e3f2-4a9f-9f49-ec4f57a2159a.root",
        "T2_CH_CERN: davs://eoscms.cern.ch:443/eos/cms/store/mc/Run3Summer23NanoAODv12/NMSSM_XtoYHto4B_MX-2500_MY-80_TuneCP5_13p6TeV_madgraph-pythia8/NANOAODSIM/130X_mcRun3_2023_realistic_v15-v2/2810000/93d24ceb-e3f2-4a9f-9f49-ec4f57a2159a.root",
        "T1_US_FNAL_Tape_Test: davs://cmstnvm1.fnal.gov:2880/store/mc/Run3Summer23NanoAODv12/NMSSM_XtoYHto4B_MX-2500_MY-80_TuneCP5_13p6TeV_madgraph-pythia8/NANOAODSIM/130X_mcRun3_2023_realistic_v15-v2/2810000/93d24ceb-e3f2-4a9f-9f49-ec4f57a2159a.root",
        "T2_BR_SPRACE: davs://osg-se.sprace.org.br:1094/store/mc/Run3Summer23NanoAODv12/NMSSM_XtoYHto4B_MX-2500_MY-80_TuneCP5_13p6TeV_madgraph-pythia8/NANOAODSIM/130X_mcRun3_2023_realistic_v15-v2/2810000/93d24ceb-e3f2-4a9f-9f49-ec4f57a2159a.root",
        "T1_RU_JINR_Disk: davs://se-wbdv.jinr-t1.ru:2880/pnfs/jinr-t1.ru/data/cms/store/mc/Run3Summer23NanoAODv12/NMSSM_XtoYHto4B_MX-2500_MY-80_TuneCP5_13p6TeV_madgraph-pythia8/NANOAODSIM/130X_mcRun3_2023_realistic_v15-v2/2810000/93d24ceb-e3f2-4a9f-9f49-ec4f57a2159a.root",
        "T2_US_MIT_Tape: davs://dtn20.nese.mghpcc.org:443/store/mc/Run3Summer23NanoAODv12/NMSSM_XtoYHto4B_MX-2500_MY-80_TuneCP5_13p6TeV_madgraph-pythia8/NANOAODSIM/130X_mcRun3_2023_realistic_v15-v2/2810000/93d24ceb-e3f2-4a9f-9f49-ec4f57a2159a.root",
        "T1_IT_CNAF_Disk: davs://xfer-cms.cr.cnaf.infn.it:8443/cmsdisk/store/mc/Run3Summer23NanoAODv12/NMSSM_XtoYHto4B_MX-2500_MY-80_TuneCP5_13p6TeV_madgraph-pythia8/NANOAODSIM/130X_mcRun3_2023_realistic_v15-v2/2810000/93d24ceb-e3f2-4a9f-9f49-ec4f57a2159a.root"
    ],
    "cms:/store/mc/Run3Summer23NanoAODv12/NMSSM_XtoYHto4B_MX-2500_MY-80_TuneCP5_13p6TeV_madgraph-pythia8/NANOAODSIM/130X_mcRun3_2023_realistic_v15-v2/2810000/700e8db9-69d7-4636-b715-e8da589db13c.root": [
        "T1_US_FNAL_Disk: davs://cmsdcadisk.fnal.gov:2880/dcache/uscmsdisk/store/mc/Run3Summer23NanoAODv12/NMSSM_XtoYHto4B_MX-2500_MY-80_TuneCP5_13p6TeV_madgraph-pythia8/NANOAODSIM/130X_mcRun3_2023_realistic_v15-v2/2810000/700e8db9-69d7-4636-b715-e8da589db13c.root",
        "T1_DE_KIT_Disk: davs://cmsdcache-kit-disk.gridka.de:2880/pnfs/gridka.de/cms/disk-only/store/mc/Run3Summer23NanoAODv12/NMSSM_XtoYHto4B_MX-2500_MY-80_TuneCP5_13p6TeV_madgraph-pythia8/NANOAODSIM/130X_mcRun3_2023_realistic_v15-v2/2810000/700e8db9-69d7-4636-b715-e8da589db13c.root",
        "T2_CH_CERN: davs://eoscms.cern.ch:443/eos/cms/store/mc/Run3Summer23NanoAODv12/NMSSM_XtoYHto4B_MX-2500_MY-80_TuneCP5_13p6TeV_madgraph-pythia8/NANOAODSIM/130X_mcRun3_2023_realistic_v15-v2/2810000/700e8db9-69d7-4636-b715-e8da589db13c.root",
        "T1_UK_RAL_Disk: davs://rdr.echo.stfc.ac.uk:1094/store/mc/Run3Summer23NanoAODv12/NMSSM_XtoYHto4B_MX-2500_MY-80_TuneCP5_13p6TeV_madgraph-pythia8/NANOAODSIM/130X_mcRun3_2023_realistic_v15-v2/2810000/700e8db9-69d7-4636-b715-e8da589db13c.root",
        "T1_US_FNAL_Tape_Test: davs://cmstnvm1.fnal.gov:2880/store/mc/Run3Summer23NanoAODv12/NMSSM_XtoYHto4B_MX-2500_MY-80_TuneCP5_13p6TeV_madgraph-pythia8/NANOAODSIM/130X_mcRun3_2023_realistic_v15-v2/2810000/700e8db9-69d7-4636-b715-e8da589db13c.root",
        "T2_US_Nebraska: davs://xrootd-local.unl.edu:1094/store/mc/Run3Summer23NanoAODv12/NMSSM_XtoYHto4B_MX-2500_MY-80_TuneCP5_13p6TeV_madgraph-pythia8/NANOAODSIM/130X_mcRun3_2023_realistic_v15-v2/2810000/700e8db9-69d7-4636-b715-e8da589db13c.root",
        "T1_RU_JINR_Disk: davs://se-wbdv.jinr-t1.ru:2880/pnfs/jinr-t1.ru/data/cms/store/mc/Run3Summer23NanoAODv12/NMSSM_XtoYHto4B_MX-2500_MY-80_TuneCP5_13p6TeV_madgraph-pythia8/NANOAODSIM/130X_mcRun3_2023_realistic_v15-v2/2810000/700e8db9-69d7-4636-b715-e8da589db13c.root",
        "T2_US_MIT_Tape: davs://dtn20.nese.mghpcc.org:443/store/mc/Run3Summer23NanoAODv12/NMSSM_XtoYHto4B_MX-2500_MY-80_TuneCP5_13p6TeV_madgraph-pythia8/NANOAODSIM/130X_mcRun3_2023_realistic_v15-v2/2810000/700e8db9-69d7-4636-b715-e8da589db13c.root",
        "T2_DE_RWTH: davs://grid-webdav.physik.rwth-aachen.de:2889/store/mc/Run3Summer23NanoAODv12/NMSSM_XtoYHto4B_MX-2500_MY-80_TuneCP5_13p6TeV_madgraph-pythia8/NANOAODSIM/130X_mcRun3_2023_realistic_v15-v2/2810000/700e8db9-69d7-4636-b715-e8da589db13c.root"
    ],
    "cms:/store/mc/Run3Summer23NanoAODv12/NMSSM_XtoYHto4B_MX-2500_MY-80_TuneCP5_13p6TeV_madgraph-pythia8/NANOAODSIM/130X_mcRun3_2023_realistic_v15-v2/2810000/7be7a509-7db4-4c0a-adad-9a562bcf5906.root": [
        "T2_CH_CSCS: davs://storage01.lcg.cscs.ch:2880/pnfs/lcg.cscs.ch/cms/trivcat/store/mc/Run3Summer23NanoAODv12/NMSSM_XtoYHto4B_MX-2500_MY-80_TuneCP5_13p6TeV_madgraph-pythia8/NANOAODSIM/130X_mcRun3_2023_realistic_v15-v2/2810000/7be7a509-7db4-4c0a-adad-9a562bcf5906.root",
        "T1_FR_CCIN2P3_Disk: davs://ccdavcms.in2p3.fr:2880/disk/data/store/mc/Run3Summer23NanoAODv12/NMSSM_XtoYHto4B_MX-2500_MY-80_TuneCP5_13p6TeV_madgraph-pythia8/NANOAODSIM/130X_mcRun3_2023_realistic_v15-v2/2810000/7be7a509-7db4-4c0a-adad-9a562bcf5906.root",
        "T2_PT_NCG_Lisbon: davs://gftp03.ncg.ingrid.pt:8443/cms/store/mc/Run3Summer23NanoAODv12/NMSSM_XtoYHto4B_MX-2500_MY-80_TuneCP5_13p6TeV_madgraph-pythia8/NANOAODSIM/130X_mcRun3_2023_realistic_v15-v2/2810000/7be7a509-7db4-4c0a-adad-9a562bcf5906.root",
        "T2_US_UCSD: davs://redirector.t2.ucsd.edu:1095/store/mc/Run3Summer23NanoAODv12/NMSSM_XtoYHto4B_MX-2500_MY-80_TuneCP5_13p6TeV_madgraph-pythia8/NANOAODSIM/130X_mcRun3_2023_realistic_v15-v2/2810000/7be7a509-7db4-4c0a-adad-9a562bcf5906.root",
        "T1_US_FNAL_Tape_Test: davs://cmstnvm1.fnal.gov:2880/store/mc/Run3Summer23NanoAODv12/NMSSM_XtoYHto4B_MX-2500_MY-80_TuneCP5_13p6TeV_madgraph-pythia8/NANOAODSIM/130X_mcRun3_2023_realistic_v15-v2/2810000/7be7a509-7db4-4c0a-adad-9a562bcf5906.root",
        "T2_US_Wisconsin: davs://cmsxrootd.hep.wisc.edu:1094/store/mc/Run3Summer23NanoAODv12/NMSSM_XtoYHto4B_MX-2500_MY-80_TuneCP5_13p6TeV_madgraph-pythia8/NANOAODSIM/130X_mcRun3_2023_realistic_v15-v2/2810000/7be7a509-7db4-4c0a-adad-9a562bcf5906.root",
        "T1_RU_JINR_Disk: davs://se-wbdv.jinr-t1.ru:2880/pnfs/jinr-t1.ru/data/cms/store/mc/Run3Summer23NanoAODv12/NMSSM_XtoYHto4B_MX-2500_MY-80_TuneCP5_13p6TeV_madgraph-pythia8/NANOAODSIM/130X_mcRun3_2023_realistic_v15-v2/2810000/7be7a509-7db4-4c0a-adad-9a562bcf5906.root",
        "T2_US_MIT_Tape: davs://dtn20.nese.mghpcc.org:443/store/mc/Run3Summer23NanoAODv12/NMSSM_XtoYHto4B_MX-2500_MY-80_TuneCP5_13p6TeV_madgraph-pythia8/NANOAODSIM/130X_mcRun3_2023_realistic_v15-v2/2810000/7be7a509-7db4-4c0a-adad-9a562bcf5906.root"
    ],
    "cms:/store/mc/Run3Summer23NanoAODv12/NMSSM_XtoYHto4B_MX-2500_MY-80_TuneCP5_13p6TeV_madgraph-pythia8/NANOAODSIM/130X_mcRun3_2023_realistic_v15-v2/2810000/cce7b638-586a-493c-8e18-05afe364a248.root": [
        "T1_US_FNAL_Disk: davs://cmsdcadisk.fnal.gov:2880/dcache/uscmsdisk/store/mc/Run3Summer23NanoAODv12/NMSSM_XtoYHto4B_MX-2500_MY-80_TuneCP5_13p6TeV_madgraph-pythia8/NANOAODSIM/130X_mcRun3_2023_realistic_v15-v2/2810000/cce7b638-586a-493c-8e18-05afe364a248.root",
        "T1_DE_KIT_Disk: davs://cmsdcache-kit-disk.gridka.de:2880/pnfs/gridka.de/cms/disk-only/store/mc/Run3Summer23NanoAODv12/NMSSM_XtoYHto4B_MX-2500_MY-80_TuneCP5_13p6TeV_madgraph-pythia8/NANOAODSIM/130X_mcRun3_2023_realistic_v15-v2/2810000/cce7b638-586a-493c-8e18-05afe364a248.root",
        "T2_CH_CERN: davs://eoscms.cern.ch:443/eos/cms/store/mc/Run3Summer23NanoAODv12/NMSSM_XtoYHto4B_MX-2500_MY-80_TuneCP5_13p6TeV_madgraph-pythia8/NANOAODSIM/130X_mcRun3_2023_realistic_v15-v2/2810000/cce7b638-586a-493c-8e18-05afe364a248.root",
        "T1_US_FNAL_Tape_Test: davs://cmstnvm1.fnal.gov:2880/store/mc/Run3Summer23NanoAODv12/NMSSM_XtoYHto4B_MX-2500_MY-80_TuneCP5_13p6TeV_madgraph-pythia8/NANOAODSIM/130X_mcRun3_2023_realistic_v15-v2/2810000/cce7b638-586a-493c-8e18-05afe364a248.root",
        "T2_US_Nebraska: davs://xrootd-local.unl.edu:1094/store/mc/Run3Summer23NanoAODv12/NMSSM_XtoYHto4B_MX-2500_MY-80_TuneCP5_13p6TeV_madgraph-pythia8/NANOAODSIM/130X_mcRun3_2023_realistic_v15-v2/2810000/cce7b638-586a-493c-8e18-05afe364a248.root",
        "T1_RU_JINR_Disk: davs://se-wbdv.jinr-t1.ru:2880/pnfs/jinr-t1.ru/data/cms/store/mc/Run3Summer23NanoAODv12/NMSSM_XtoYHto4B_MX-2500_MY-80_TuneCP5_13p6TeV_madgraph-pythia8/NANOAODSIM/130X_mcRun3_2023_realistic_v15-v2/2810000/cce7b638-586a-493c-8e18-05afe364a248.root",
        "T2_US_MIT_Tape: davs://dtn20.nese.mghpcc.org:443/store/mc/Run3Summer23NanoAODv12/NMSSM_XtoYHto4B_MX-2500_MY-80_TuneCP5_13p6TeV_madgraph-pythia8/NANOAODSIM/130X_mcRun3_2023_realistic_v15-v2/2810000/cce7b638-586a-493c-8e18-05afe364a248.root",
        "T2_DE_RWTH: davs://grid-webdav.physik.rwth-aachen.de:2889/store/mc/Run3Summer23NanoAODv12/NMSSM_XtoYHto4B_MX-2500_MY-80_TuneCP5_13p6TeV_madgraph-pythia8/NANOAODSIM/130X_mcRun3_2023_realistic_v15-v2/2810000/cce7b638-586a-493c-8e18-05afe364a248.root"
    ],
    "cms:/store/mc/Run3Summer23NanoAODv12/NMSSM_XtoYHto4B_MX-2500_MY-80_TuneCP5_13p6TeV_madgraph-pythia8/NANOAODSIM/130X_mcRun3_2023_realistic_v15-v2/2810000/10182a19-98e7-429d-ab91-43f4b4e212ca.root": [
        "T1_US_FNAL_Disk: davs://cmsdcadisk.fnal.gov:2880/dcache/uscmsdisk/store/mc/Run3Summer23NanoAODv12/NMSSM_XtoYHto4B_MX-2500_MY-80_TuneCP5_13p6TeV_madgraph-pythia8/NANOAODSIM/130X_mcRun3_2023_realistic_v15-v2/2810000/10182a19-98e7-429d-ab91-43f4b4e212ca.root",
        "T1_DE_KIT_Disk: davs://cmsdcache-kit-disk.gridka.de:2880/pnfs/gridka.de/cms/disk-only/store/mc/Run3Summer23NanoAODv12/NMSSM_XtoYHto4B_MX-2500_MY-80_TuneCP5_13p6TeV_madgraph-pythia8/NANOAODSIM/130X_mcRun3_2023_realistic_v15-v2/2810000/10182a19-98e7-429d-ab91-43f4b4e212ca.root",
        "T2_CH_CERN: davs://eoscms.cern.ch:443/eos/cms/store/mc/Run3Summer23NanoAODv12/NMSSM_XtoYHto4B_MX-2500_MY-80_TuneCP5_13p6TeV_madgraph-pythia8/NANOAODSIM/130X_mcRun3_2023_realistic_v15-v2/2810000/10182a19-98e7-429d-ab91-43f4b4e212ca.root",
        "T1_US_FNAL_Tape_Test: davs://cmstnvm1.fnal.gov:2880/store/mc/Run3Summer23NanoAODv12/NMSSM_XtoYHto4B_MX-2500_MY-80_TuneCP5_13p6TeV_madgraph-pythia8/NANOAODSIM/130X_mcRun3_2023_realistic_v15-v2/2810000/10182a19-98e7-429d-ab91-43f4b4e212ca.root",
        "T2_US_Nebraska: davs://xrootd-local.unl.edu:1094/store/mc/Run3Summer23NanoAODv12/NMSSM_XtoYHto4B_MX-2500_MY-80_TuneCP5_13p6TeV_madgraph-pythia8/NANOAODSIM/130X_mcRun3_2023_realistic_v15-v2/2810000/10182a19-98e7-429d-ab91-43f4b4e212ca.root",
        "T1_RU_JINR_Disk: davs://se-wbdv.jinr-t1.ru:2880/pnfs/jinr-t1.ru/data/cms/store/mc/Run3Summer23NanoAODv12/NMSSM_XtoYHto4B_MX-2500_MY-80_TuneCP5_13p6TeV_madgraph-pythia8/NANOAODSIM/130X_mcRun3_2023_realistic_v15-v2/2810000/10182a19-98e7-429d-ab91-43f4b4e212ca.root",
        "T2_US_MIT_Tape: davs://dtn20.nese.mghpcc.org:443/store/mc/Run3Summer23NanoAODv12/NMSSM_XtoYHto4B_MX-2500_MY-80_TuneCP5_13p6TeV_madgraph-pythia8/NANOAODSIM/130X_mcRun3_2023_realistic_v15-v2/2810000/10182a19-98e7-429d-ab91-43f4b4e212ca.root",
        "T2_DE_RWTH: davs://grid-webdav.physik.rwth-aachen.de:2889/store/mc/Run3Summer23NanoAODv12/NMSSM_XtoYHto4B_MX-2500_MY-80_TuneCP5_13p6TeV_madgraph-pythia8/NANOAODSIM/130X_mcRun3_2023_realistic_v15-v2/2810000/10182a19-98e7-429d-ab91-43f4b4e212ca.root"
    ],
    "cms:/store/mc/Run3Summer23NanoAODv12/NMSSM_XtoYHto4B_MX-2500_MY-80_TuneCP5_13p6TeV_madgraph-pythia8/NANOAODSIM/130X_mcRun3_2023_realistic_v15-v2/2810000/cf77cff7-7ab8-411f-bf0d-6d552aca2c20.root": [
        "T1_US_FNAL_Disk: davs://cmsdcadisk.fnal.gov:2880/dcache/uscmsdisk/store/mc/Run3Summer23NanoAODv12/NMSSM_XtoYHto4B_MX-2500_MY-80_TuneCP5_13p6TeV_madgraph-pythia8/NANOAODSIM/130X_mcRun3_2023_realistic_v15-v2/2810000/cf77cff7-7ab8-411f-bf0d-6d552aca2c20.root",
        "T1_DE_KIT_Disk: davs://cmsdcache-kit-disk.gridka.de:2880/pnfs/gridka.de/cms/disk-only/store/mc/Run3Summer23NanoAODv12/NMSSM_XtoYHto4B_MX-2500_MY-80_TuneCP5_13p6TeV_madgraph-pythia8/NANOAODSIM/130X_mcRun3_2023_realistic_v15-v2/2810000/cf77cff7-7ab8-411f-bf0d-6d552aca2c20.root",
        "T2_CH_CERN: davs://eoscms.cern.ch:443/eos/cms/store/mc/Run3Summer23NanoAODv12/NMSSM_XtoYHto4B_MX-2500_MY-80_TuneCP5_13p6TeV_madgraph-pythia8/NANOAODSIM/130X_mcRun3_2023_realistic_v15-v2/2810000/cf77cff7-7ab8-411f-bf0d-6d552aca2c20.root",
        "T1_US_FNAL_Tape_Test: davs://cmstnvm1.fnal.gov:2880/store/mc/Run3Summer23NanoAODv12/NMSSM_XtoYHto4B_MX-2500_MY-80_TuneCP5_13p6TeV_madgraph-pythia8/NANOAODSIM/130X_mcRun3_2023_realistic_v15-v2/2810000/cf77cff7-7ab8-411f-bf0d-6d552aca2c20.root",
        "T2_US_Nebraska: davs://xrootd-local.unl.edu:1094/store/mc/Run3Summer23NanoAODv12/NMSSM_XtoYHto4B_MX-2500_MY-80_TuneCP5_13p6TeV_madgraph-pythia8/NANOAODSIM/130X_mcRun3_2023_realistic_v15-v2/2810000/cf77cff7-7ab8-411f-bf0d-6d552aca2c20.root",
        "T1_RU_JINR_Disk: davs://se-wbdv.jinr-t1.ru:2880/pnfs/jinr-t1.ru/data/cms/store/mc/Run3Summer23NanoAODv12/NMSSM_XtoYHto4B_MX-2500_MY-80_TuneCP5_13p6TeV_madgraph-pythia8/NANOAODSIM/130X_mcRun3_2023_realistic_v15-v2/2810000/cf77cff7-7ab8-411f-bf0d-6d552aca2c20.root",
        "T2_US_MIT_Tape: davs://dtn20.nese.mghpcc.org:443/store/mc/Run3Summer23NanoAODv12/NMSSM_XtoYHto4B_MX-2500_MY-80_TuneCP5_13p6TeV_madgraph-pythia8/NANOAODSIM/130X_mcRun3_2023_realistic_v15-v2/2810000/cf77cff7-7ab8-411f-bf0d-6d552aca2c20.root",
        "T2_DE_RWTH: davs://grid-webdav.physik.rwth-aachen.de:2889/store/mc/Run3Summer23NanoAODv12/NMSSM_XtoYHto4B_MX-2500_MY-80_TuneCP5_13p6TeV_madgraph-pythia8/NANOAODSIM/130X_mcRun3_2023_realistic_v15-v2/2810000/cf77cff7-7ab8-411f-bf0d-6d552aca2c20.root"
    ],
    "cms:/store/mc/Run3Summer23NanoAODv12/NMSSM_XtoYHto4B_MX-2500_MY-80_TuneCP5_13p6TeV_madgraph-pythia8/NANOAODSIM/130X_mcRun3_2023_realistic_v15-v2/2810000/855b2f0d-4a3f-4a5a-aabb-de508122c088.root": [
        "T1_US_FNAL_Disk: davs://cmsdcadisk.fnal.gov:2880/dcache/uscmsdisk/store/mc/Run3Summer23NanoAODv12/NMSSM_XtoYHto4B_MX-2500_MY-80_TuneCP5_13p6TeV_madgraph-pythia8/NANOAODSIM/130X_mcRun3_2023_realistic_v15-v2/2810000/855b2f0d-4a3f-4a5a-aabb-de508122c088.root",
        "T1_DE_KIT_Disk: davs://cmsdcache-kit-disk.gridka.de:2880/pnfs/gridka.de/cms/disk-only/store/mc/Run3Summer23NanoAODv12/NMSSM_XtoYHto4B_MX-2500_MY-80_TuneCP5_13p6TeV_madgraph-pythia8/NANOAODSIM/130X_mcRun3_2023_realistic_v15-v2/2810000/855b2f0d-4a3f-4a5a-aabb-de508122c088.root",
        "T2_CH_CERN: davs://eoscms.cern.ch:443/eos/cms/store/mc/Run3Summer23NanoAODv12/NMSSM_XtoYHto4B_MX-2500_MY-80_TuneCP5_13p6TeV_madgraph-pythia8/NANOAODSIM/130X_mcRun3_2023_realistic_v15-v2/2810000/855b2f0d-4a3f-4a5a-aabb-de508122c088.root",
        "T1_US_FNAL_Tape_Test: davs://cmstnvm1.fnal.gov:2880/store/mc/Run3Summer23NanoAODv12/NMSSM_XtoYHto4B_MX-2500_MY-80_TuneCP5_13p6TeV_madgraph-pythia8/NANOAODSIM/130X_mcRun3_2023_realistic_v15-v2/2810000/855b2f0d-4a3f-4a5a-aabb-de508122c088.root",
        "T2_US_Nebraska: davs://xrootd-local.unl.edu:1094/store/mc/Run3Summer23NanoAODv12/NMSSM_XtoYHto4B_MX-2500_MY-80_TuneCP5_13p6TeV_madgraph-pythia8/NANOAODSIM/130X_mcRun3_2023_realistic_v15-v2/2810000/855b2f0d-4a3f-4a5a-aabb-de508122c088.root",
        "T1_RU_JINR_Disk: davs://se-wbdv.jinr-t1.ru:2880/pnfs/jinr-t1.ru/data/cms/store/mc/Run3Summer23NanoAODv12/NMSSM_XtoYHto4B_MX-2500_MY-80_TuneCP5_13p6TeV_madgraph-pythia8/NANOAODSIM/130X_mcRun3_2023_realistic_v15-v2/2810000/855b2f0d-4a3f-4a5a-aabb-de508122c088.root",
        "T2_US_MIT_Tape: davs://dtn20.nese.mghpcc.org:443/store/mc/Run3Summer23NanoAODv12/NMSSM_XtoYHto4B_MX-2500_MY-80_TuneCP5_13p6TeV_madgraph-pythia8/NANOAODSIM/130X_mcRun3_2023_realistic_v15-v2/2810000/855b2f0d-4a3f-4a5a-aabb-de508122c088.root",
        "T2_DE_RWTH: davs://grid-webdav.physik.rwth-aachen.de:2889/store/mc/Run3Summer23NanoAODv12/NMSSM_XtoYHto4B_MX-2500_MY-80_TuneCP5_13p6TeV_madgraph-pythia8/NANOAODSIM/130X_mcRun3_2023_realistic_v15-v2/2810000/855b2f0d-4a3f-4a5a-aabb-de508122c088.root"
    ],
    "cms:/store/mc/Run3Summer23NanoAODv12/NMSSM_XtoYHto4B_MX-2500_MY-80_TuneCP5_13p6TeV_madgraph-pythia8/NANOAODSIM/130X_mcRun3_2023_realistic_v15-v2/2810000/1210bfd3-ac87-4c25-9ca0-fb593e708f00.root": [
        "T2_CH_CSCS: davs://storage01.lcg.cscs.ch:2880/pnfs/lcg.cscs.ch/cms/trivcat/store/mc/Run3Summer23NanoAODv12/NMSSM_XtoYHto4B_MX-2500_MY-80_TuneCP5_13p6TeV_madgraph-pythia8/NANOAODSIM/130X_mcRun3_2023_realistic_v15-v2/2810000/1210bfd3-ac87-4c25-9ca0-fb593e708f00.root",
        "T1_FR_CCIN2P3_Disk: davs://ccdavcms.in2p3.fr:2880/disk/data/store/mc/Run3Summer23NanoAODv12/NMSSM_XtoYHto4B_MX-2500_MY-80_TuneCP5_13p6TeV_madgraph-pythia8/NANOAODSIM/130X_mcRun3_2023_realistic_v15-v2/2810000/1210bfd3-ac87-4c25-9ca0-fb593e708f00.root",
        "T2_PT_NCG_Lisbon: davs://gftp03.ncg.ingrid.pt:8443/cms/store/mc/Run3Summer23NanoAODv12/NMSSM_XtoYHto4B_MX-2500_MY-80_TuneCP5_13p6TeV_madgraph-pythia8/NANOAODSIM/130X_mcRun3_2023_realistic_v15-v2/2810000/1210bfd3-ac87-4c25-9ca0-fb593e708f00.root",
        "T2_US_UCSD: davs://redirector.t2.ucsd.edu:1095/store/mc/Run3Summer23NanoAODv12/NMSSM_XtoYHto4B_MX-2500_MY-80_TuneCP5_13p6TeV_madgraph-pythia8/NANOAODSIM/130X_mcRun3_2023_realistic_v15-v2/2810000/1210bfd3-ac87-4c25-9ca0-fb593e708f00.root",
        "T1_US_FNAL_Tape_Test: davs://cmstnvm1.fnal.gov:2880/store/mc/Run3Summer23NanoAODv12/NMSSM_XtoYHto4B_MX-2500_MY-80_TuneCP5_13p6TeV_madgraph-pythia8/NANOAODSIM/130X_mcRun3_2023_realistic_v15-v2/2810000/1210bfd3-ac87-4c25-9ca0-fb593e708f00.root",
        "T2_US_Wisconsin: davs://cmsxrootd.hep.wisc.edu:1094/store/mc/Run3Summer23NanoAODv12/NMSSM_XtoYHto4B_MX-2500_MY-80_TuneCP5_13p6TeV_madgraph-pythia8/NANOAODSIM/130X_mcRun3_2023_realistic_v15-v2/2810000/1210bfd3-ac87-4c25-9ca0-fb593e708f00.root",
        "T1_RU_JINR_Disk: davs://se-wbdv.jinr-t1.ru:2880/pnfs/jinr-t1.ru/data/cms/store/mc/Run3Summer23NanoAODv12/NMSSM_XtoYHto4B_MX-2500_MY-80_TuneCP5_13p6TeV_madgraph-pythia8/NANOAODSIM/130X_mcRun3_2023_realistic_v15-v2/2810000/1210bfd3-ac87-4c25-9ca0-fb593e708f00.root",
        "T2_UK_London_IC: davs://gfe02.grid.hep.ph.ic.ac.uk:2880/pnfs/hep.ph.ic.ac.uk/data/cms/store/mc/Run3Summer23NanoAODv12/NMSSM_XtoYHto4B_MX-2500_MY-80_TuneCP5_13p6TeV_madgraph-pythia8/NANOAODSIM/130X_mcRun3_2023_realistic_v15-v2/2810000/1210bfd3-ac87-4c25-9ca0-fb593e708f00.root",
        "T2_US_MIT_Tape: davs://dtn20.nese.mghpcc.org:443/store/mc/Run3Summer23NanoAODv12/NMSSM_XtoYHto4B_MX-2500_MY-80_TuneCP5_13p6TeV_madgraph-pythia8/NANOAODSIM/130X_mcRun3_2023_realistic_v15-v2/2810000/1210bfd3-ac87-4c25-9ca0-fb593e708f00.root"
    ],
    "cms:/store/mc/Run3Summer23NanoAODv12/NMSSM_XtoYHto4B_MX-2500_MY-80_TuneCP5_13p6TeV_madgraph-pythia8/NANOAODSIM/130X_mcRun3_2023_realistic_v15-v2/2810000/40e01824-99aa-4c9e-bccc-6b7d1dcb0b7f.root": [
        "T2_CH_CSCS: davs://storage01.lcg.cscs.ch:2880/pnfs/lcg.cscs.ch/cms/trivcat/store/mc/Run3Summer23NanoAODv12/NMSSM_XtoYHto4B_MX-2500_MY-80_TuneCP5_13p6TeV_madgraph-pythia8/NANOAODSIM/130X_mcRun3_2023_realistic_v15-v2/2810000/40e01824-99aa-4c9e-bccc-6b7d1dcb0b7f.root",
        "T1_FR_CCIN2P3_Disk: davs://ccdavcms.in2p3.fr:2880/disk/data/store/mc/Run3Summer23NanoAODv12/NMSSM_XtoYHto4B_MX-2500_MY-80_TuneCP5_13p6TeV_madgraph-pythia8/NANOAODSIM/130X_mcRun3_2023_realistic_v15-v2/2810000/40e01824-99aa-4c9e-bccc-6b7d1dcb0b7f.root",
        "T1_DE_KIT_Disk: davs://cmsdcache-kit-disk.gridka.de:2880/pnfs/gridka.de/cms/disk-only/store/mc/Run3Summer23NanoAODv12/NMSSM_XtoYHto4B_MX-2500_MY-80_TuneCP5_13p6TeV_madgraph-pythia8/NANOAODSIM/130X_mcRun3_2023_realistic_v15-v2/2810000/40e01824-99aa-4c9e-bccc-6b7d1dcb0b7f.root",
        "T2_PT_NCG_Lisbon: davs://gftp03.ncg.ingrid.pt:8443/cms/store/mc/Run3Summer23NanoAODv12/NMSSM_XtoYHto4B_MX-2500_MY-80_TuneCP5_13p6TeV_madgraph-pythia8/NANOAODSIM/130X_mcRun3_2023_realistic_v15-v2/2810000/40e01824-99aa-4c9e-bccc-6b7d1dcb0b7f.root",
        "T2_US_UCSD: davs://redirector.t2.ucsd.edu:1095/store/mc/Run3Summer23NanoAODv12/NMSSM_XtoYHto4B_MX-2500_MY-80_TuneCP5_13p6TeV_madgraph-pythia8/NANOAODSIM/130X_mcRun3_2023_realistic_v15-v2/2810000/40e01824-99aa-4c9e-bccc-6b7d1dcb0b7f.root",
        "T1_US_FNAL_Tape_Test: davs://cmstnvm1.fnal.gov:2880/store/mc/Run3Summer23NanoAODv12/NMSSM_XtoYHto4B_MX-2500_MY-80_TuneCP5_13p6TeV_madgraph-pythia8/NANOAODSIM/130X_mcRun3_2023_realistic_v15-v2/2810000/40e01824-99aa-4c9e-bccc-6b7d1dcb0b7f.root",
        "T2_US_Wisconsin: davs://cmsxrootd.hep.wisc.edu:1094/store/mc/Run3Summer23NanoAODv12/NMSSM_XtoYHto4B_MX-2500_MY-80_TuneCP5_13p6TeV_madgraph-pythia8/NANOAODSIM/130X_mcRun3_2023_realistic_v15-v2/2810000/40e01824-99aa-4c9e-bccc-6b7d1dcb0b7f.root",
        "T1_RU_JINR_Disk: davs://se-wbdv.jinr-t1.ru:2880/pnfs/jinr-t1.ru/data/cms/store/mc/Run3Summer23NanoAODv12/NMSSM_XtoYHto4B_MX-2500_MY-80_TuneCP5_13p6TeV_madgraph-pythia8/NANOAODSIM/130X_mcRun3_2023_realistic_v15-v2/2810000/40e01824-99aa-4c9e-bccc-6b7d1dcb0b7f.root",
        "T2_US_MIT_Tape: davs://dtn20.nese.mghpcc.org:443/store/mc/Run3Summer23NanoAODv12/NMSSM_XtoYHto4B_MX-2500_MY-80_TuneCP5_13p6TeV_madgraph-pythia8/NANOAODSIM/130X_mcRun3_2023_realistic_v15-v2/2810000/40e01824-99aa-4c9e-bccc-6b7d1dcb0b7f.root"
    ],
    "cms:/store/mc/Run3Summer23NanoAODv12/NMSSM_XtoYHto4B_MX-2500_MY-80_TuneCP5_13p6TeV_madgraph-pythia8/NANOAODSIM/130X_mcRun3_2023_realistic_v15-v2/2810000/61d5d592-ad48-4f8e-8389-ac301e2ff82f.root": [
        "T1_US_FNAL_Disk: davs://cmsdcadisk.fnal.gov:2880/dcache/uscmsdisk/store/mc/Run3Summer23NanoAODv12/NMSSM_XtoYHto4B_MX-2500_MY-80_TuneCP5_13p6TeV_madgraph-pythia8/NANOAODSIM/130X_mcRun3_2023_realistic_v15-v2/2810000/61d5d592-ad48-4f8e-8389-ac301e2ff82f.root",
        "T1_DE_KIT_Disk: davs://cmsdcache-kit-disk.gridka.de:2880/pnfs/gridka.de/cms/disk-only/store/mc/Run3Summer23NanoAODv12/NMSSM_XtoYHto4B_MX-2500_MY-80_TuneCP5_13p6TeV_madgraph-pythia8/NANOAODSIM/130X_mcRun3_2023_realistic_v15-v2/2810000/61d5d592-ad48-4f8e-8389-ac301e2ff82f.root",
        "T2_CH_CERN: davs://eoscms.cern.ch:443/eos/cms/store/mc/Run3Summer23NanoAODv12/NMSSM_XtoYHto4B_MX-2500_MY-80_TuneCP5_13p6TeV_madgraph-pythia8/NANOAODSIM/130X_mcRun3_2023_realistic_v15-v2/2810000/61d5d592-ad48-4f8e-8389-ac301e2ff82f.root",
        "T1_US_FNAL_Tape_Test: davs://cmstnvm1.fnal.gov:2880/store/mc/Run3Summer23NanoAODv12/NMSSM_XtoYHto4B_MX-2500_MY-80_TuneCP5_13p6TeV_madgraph-pythia8/NANOAODSIM/130X_mcRun3_2023_realistic_v15-v2/2810000/61d5d592-ad48-4f8e-8389-ac301e2ff82f.root",
        "T2_US_Nebraska: davs://xrootd-local.unl.edu:1094/store/mc/Run3Summer23NanoAODv12/NMSSM_XtoYHto4B_MX-2500_MY-80_TuneCP5_13p6TeV_madgraph-pythia8/NANOAODSIM/130X_mcRun3_2023_realistic_v15-v2/2810000/61d5d592-ad48-4f8e-8389-ac301e2ff82f.root",
        "T1_RU_JINR_Disk: davs://se-wbdv.jinr-t1.ru:2880/pnfs/jinr-t1.ru/data/cms/store/mc/Run3Summer23NanoAODv12/NMSSM_XtoYHto4B_MX-2500_MY-80_TuneCP5_13p6TeV_madgraph-pythia8/NANOAODSIM/130X_mcRun3_2023_realistic_v15-v2/2810000/61d5d592-ad48-4f8e-8389-ac301e2ff82f.root",
        "T2_US_MIT_Tape: davs://dtn20.nese.mghpcc.org:443/store/mc/Run3Summer23NanoAODv12/NMSSM_XtoYHto4B_MX-2500_MY-80_TuneCP5_13p6TeV_madgraph-pythia8/NANOAODSIM/130X_mcRun3_2023_realistic_v15-v2/2810000/61d5d592-ad48-4f8e-8389-ac301e2ff82f.root",
        "T2_DE_RWTH: davs://grid-webdav.physik.rwth-aachen.de:2889/store/mc/Run3Summer23NanoAODv12/NMSSM_XtoYHto4B_MX-2500_MY-80_TuneCP5_13p6TeV_madgraph-pythia8/NANOAODSIM/130X_mcRun3_2023_realistic_v15-v2/2810000/61d5d592-ad48-4f8e-8389-ac301e2ff82f.root"
    ]
}