{
    "cms:/store/mc/Run3Summer22NanoAODv12/NMSSM_XtoYHto4B_MX-400_MY-90_TuneCP5_13p6TeV_madgraph-pythia8/NANOAODSIM/130X_mcRun3_2022_realistic_v5-v2/2830000/c1a5120e-0d5e-443b-926f-84d9bb9811fb.root": [
        "T1_US_FNAL_Disk: davs://cmsdcadisk.fnal.gov:2880/dcache/uscmsdisk/store/mc/Run3Summer22NanoAODv12/NMSSM_XtoYHto4B_MX-400_MY-90_TuneCP5_13p6TeV_madgraph-pythia8/NANOAODSIM/130X_mcRun3_2022_realistic_v5-v2/2830000/c1a5120e-0d5e-443b-926f-84d9bb9811fb.root",
        "T1_FR_CCIN2P3_Disk: davs://ccdavcms.in2p3.fr:2880/disk/data/store/mc/Run3Summer22NanoAODv12/NMSSM_XtoYHto4B_MX-400_MY-90_TuneCP5_13p6TeV_madgraph-pythia8/NANOAODSIM/130X_mcRun3_2022_realistic_v5-v2/2830000/c1a5120e-0d5e-443b-926f-84d9bb9811fb.root",
        "T1_UK_RAL_Tape: davs://antares.stfc.ac.uk:9000/eos/antares/prod/cms/store/mc/Run3Summer22NanoAODv12/NMSSM_XtoYHto4B_MX-400_MY-90_TuneCP5_13p6TeV_madgraph-pythia8/NANOAODSIM/130X_mcRun3_2022_realistic_v5-v2/2830000/c1a5120e-0d5e-443b-926f-84d9bb9811fb.root",
        "T2_US_Nebraska: davs://xrootd-local.unl.edu:1094/store/mc/Run3Summer22NanoAODv12/NMSSM_XtoYHto4B_MX-400_MY-90_TuneCP5_13p6TeV_madgraph-pythia8/NANOAODSIM/130X_mcRun3_2022_realistic_v5-v2/2830000/c1a5120e-0d5e-443b-926f-84d9bb9811fb.root",
        "T1_RU_JINR_Disk: davs://se-wbdv.jinr-t1.ru:2880/pnfs/jinr-t1.ru/data/cms/store/mc/Run3Summer22NanoAODv12/NMSSM_XtoYHto4B_MX-400_MY-90_TuneCP5_13p6TeV_madgraph-pythia8/NANOAODSIM/130X_mcRun3_2022_realistic_v5-v2/2830000/c1a5120e-0d5e-443b-926f-84d9bb9811fb.root",
        "T2_ES_CIEMAT: davs://srm.ciemat.es:2880/pnfs/ciemat.es/data/cms/prod/store/mc/Run3Summer22NanoAODv12/NMSSM_XtoYHto4B_MX-400_MY-90_TuneCP5_13p6TeV_madgraph-pythia8/NANOAODSIM/130X_mcRun3_2022_realistic_v5-v2/2830000/c1a5120e-0d5e-443b-926f-84d9bb9811fb.root",
        "T2_UK_London_IC: davs://gfe02.grid.hep.ph.ic.ac.uk:2880/pnfs/hep.ph.ic.ac.uk/data/cms/store/mc/Run3Summer22NanoAODv12/NMSSM_XtoYHto4B_MX-400_MY-90_TuneCP5_13p6TeV_madgraph-pythia8/NANOAODSIM/130X_mcRun3_2022_realistic_v5-v2/2830000/c1a5120e-0d5e-443b-926f-84d9bb9811fb.root"
    ],
    "cms:/store/mc/Run3Summer22NanoAODv12/NMSSM_XtoYHto4B_MX-400_MY-90_TuneCP5_13p6TeV_madgraph-pythia8/NANOAODSIM/130X_mcRun3_2022_realistic_v5-v2/2830000/55108ec5-f866-460c-95e4-2af3c474266f.root": [
        "T1_US_FNAL_Disk: davs://cmsdcadisk.fnal.gov:2880/dcache/uscmsdisk/store/mc/Run3Summer22NanoAODv12/NMSSM_XtoYHto4B_MX-400_MY-90_TuneCP5_13p6TeV_madgraph-pythia8/NANOAODSIM/130X_mcRun3_2022_realistic_v5-v2/2830000/55108ec5-f866-460c-95e4-2af3c474266f.root",
        "T1_FR_CCIN2P3_Disk: davs://ccdavcms.in2p3.fr:2880/disk/data/store/mc/Run3Summer22NanoAODv12/NMSSM_XtoYHto4B_MX-400_MY-90_TuneCP5_13p6TeV_madgraph-pythia8/NANOAODSIM/130X_mcRun3_2022_realistic_v5-v2/2830000/55108ec5-f866-460c-95e4-2af3c474266f.root",
        "T1_UK_RAL_Tape: davs://antares.stfc.ac.uk:9000/eos/antares/prod/cms/store/mc/Run3Summer22NanoAODv12/NMSSM_XtoYHto4B_MX-400_MY-90_TuneCP5_13p6TeV_madgraph-pythia8/NANOAODSIM/130X_mcRun3_2022_realistic_v5-v2/2830000/55108ec5-f866-460c-95e4-2af3c474266f.root",
        "T2_US_Nebraska: davs://xrootd-local.unl.edu:1094/store/mc/Run3Summer22NanoAODv12/NMSSM_XtoYHto4B_MX-400_MY-90_TuneCP5_13p6TeV_madgraph-pythia8/NANOAODSIM/130X_mcRun3_2022_realistic_v5-v2/2830000/55108ec5-f866-460c-95e4-2af3c474266f.root",
        "T1_RU_JINR_Disk: davs://se-wbdv.jinr-t1.ru:2880/pnfs/jinr-t1.ru/data/cms/store/mc/Run3Summer22NanoAODv12/NMSSM_XtoYHto4B_MX-400_MY-90_TuneCP5_13p6TeV_madgraph-pythia8/NANOAODSIM/130X_mcRun3_2022_realistic_v5-v2/2830000/55108ec5-f866-460c-95e4-2af3c474266f.root",
        "T2_ES_CIEMAT: davs://srm.ciemat.es:2880/pnfs/ciemat.es/data/cms/prod/store/mc/Run3Summer22NanoAODv12/NMSSM_XtoYHto4B_MX-400_MY-90_TuneCP5_13p6TeV_madgraph-pythia8/NANOAODSIM/130X_mcRun3_2022_realistic_v5-v2/2830000/55108ec5-f866-460c-95e4-2af3c474266f.root",
        "T2_UK_London_IC: davs://gfe02.grid.hep.ph.ic.ac.uk:2880/pnfs/hep.ph.ic.ac.uk/data/cms/store/mc/Run3Summer22NanoAODv12/NMSSM_XtoYHto4B_MX-400_MY-90_TuneCP5_13p6TeV_madgraph-pythia8/NANOAODSIM/130X_mcRun3_2022_realistic_v5-v2/2830000/55108ec5-f866-460c-95e4-2af3c474266f.root"
    ],
    "cms:/store/mc/Run3Summer22NanoAODv12/NMSSM_XtoYHto4B_MX-400_MY-90_TuneCP5_13p6TeV_madgraph-pythia8/NANOAODSIM/130X_mcRun3_2022_realistic_v5-v2/2830000/85306ba0-028d-48d3-a737-f27730e22d0f.root": [
        "T1_US_FNAL_Disk: davs://cmsdcadisk.fnal.gov:2880/dcache/uscmsdisk/store/mc/Run3Summer22NanoAODv12/NMSSM_XtoYHto4B_MX-400_MY-90_TuneCP5_13p6TeV_madgraph-pythia8/NANOAODSIM/130X_mcRun3_2022_realistic_v5-v2/2830000/85306ba0-028d-48d3-a737-f27730e22d0f.root",
        "T1_FR_CCIN2P3_Disk: davs://ccdavcms.in2p3.fr:2880/disk/data/store/mc/Run3Summer22NanoAODv12/NMSSM_XtoYHto4B_MX-400_MY-90_TuneCP5_13p6TeV_madgraph-pythia8/NANOAODSIM/130X_mcRun3_2022_realistic_v5-v2/2830000/85306ba0-028d-48d3-a737-f27730e22d0f.root",
        "T1_UK_RAL_Tape: davs://antares.stfc.ac.uk:9000/eos/antares/prod/cms/store/mc/Run3Summer22NanoAODv12/NMSSM_XtoYHto4B_MX-400_MY-90_TuneCP5_13p6TeV_madgraph-pythia8/NANOAODSIM/130X_mcRun3_2022_realistic_v5-v2/2830000/85306ba0-028d-48d3-a737-f27730e22d0f.root",
        "T2_US_Nebraska: davs://xrootd-local.unl.edu:1094/store/mc/Run3Summer22NanoAODv12/NMSSM_XtoYHto4B_MX-400_MY-90_TuneCP5_13p6TeV_madgraph-pythia8/NANOAODSIM/130X_mcRun3_2022_realistic_v5-v2/2830000/85306ba0-028d-48d3-a737-f27730e22d0f.root",
        "T1_RU_JINR_Disk: davs://se-wbdv.jinr-t1.ru:2880/pnfs/jinr-t1.ru/data/cms/store/mc/Run3Summer22NanoAODv12/NMSSM_XtoYHto4B_MX-400_MY-90_TuneCP5_13p6TeV_madgraph-pythia8/NANOAODSIM/130X_mcRun3_2022_realistic_v5-v2/2830000/85306ba0-028d-48d3-a737-f27730e22d0f.root",
        "T2_ES_CIEMAT: davs://srm.ciemat.es:2880/pnfs/ciemat.es/data/cms/prod/store/mc/Run3Summer22NanoAODv12/NMSSM_XtoYHto4B_MX-400_MY-90_TuneCP5_13p6TeV_madgraph-pythia8/NANOAODSIM/130X_mcRun3_2022_realistic_v5-v2/2830000/85306ba0-028d-48d3-a737-f27730e22d0f.root",
        "T2_UK_London_IC: davs://gfe02.grid.hep.ph.ic.ac.uk:2880/pnfs/hep.ph.ic.ac.uk/data/cms/store/mc/Run3Summer22NanoAODv12/NMSSM_XtoYHto4B_MX-400_MY-90_TuneCP5_13p6TeV_madgraph-pythia8/NANOAODSIM/130X_mcRun3_2022_realistic_v5-v2/2830000/85306ba0-028d-48d3-a737-f27730e22d0f.root"
    ],
    "cms:/store/mc/Run3Summer22NanoAODv12/NMSSM_XtoYHto4B_MX-400_MY-90_TuneCP5_13p6TeV_madgraph-pythia8/NANOAODSIM/130X_mcRun3_2022_realistic_v5-v2/2830000/b575bac0-a6d3-4c75-b0b4-32e59cbdd3fb.root": [
        "T1_US_FNAL_Disk: davs://cmsdcadisk.fnal.gov:2880/dcache/uscmsdisk/store/mc/Run3Summer22NanoAODv12/NMSSM_XtoYHto4B_MX-400_MY-90_TuneCP5_13p6TeV_madgraph-pythia8/NANOAODSIM/130X_mcRun3_2022_realistic_v5-v2/2830000/b575bac0-a6d3-4c75-b0b4-32e59cbdd3fb.root",
        "T1_FR_CCIN2P3_Disk: davs://ccdavcms.in2p3.fr:2880/disk/data/store/mc/Run3Summer22NanoAODv12/NMSSM_XtoYHto4B_MX-400_MY-90_TuneCP5_13p6TeV_madgraph-pythia8/NANOAODSIM/130X_mcRun3_2022_realistic_v5-v2/2830000/b575bac0-a6d3-4c75-b0b4-32e59cbdd3fb.root",
        "T1_UK_RAL_Tape: davs://antares.stfc.ac.uk:9000/eos/antares/prod/cms/store/mc/Run3Summer22NanoAODv12/NMSSM_XtoYHto4B_MX-400_MY-90_TuneCP5_13p6TeV_madgraph-pythia8/NANOAODSIM/130X_mcRun3_2022_realistic_v5-v2/2830000/b575bac0-a6d3-4c75-b0b4-32e59cbdd3fb.root",
        "T2_US_Nebraska: davs://xrootd-local.unl.edu:1094/store/mc/Run3Summer22NanoAODv12/NMSSM_XtoYHto4B_MX-400_MY-90_TuneCP5_13p6TeV_madgraph-pythia8/NANOAODSIM/130X_mcRun3_2022_realistic_v5-v2/2830000/b575bac0-a6d3-4c75-b0b4-32e59cbdd3fb.root",
        "T1_RU_JINR_Disk: davs://se-wbdv.jinr-t1.ru:2880/pnfs/jinr-t1.ru/data/cms/store/mc/Run3Summer22NanoAODv12/NMSSM_XtoYHto4B_MX-400_MY-90_TuneCP5_13p6TeV_madgraph-pythia8/NANOAODSIM/130X_mcRun3_2022_realistic_v5-v2/2830000/b575bac0-a6d3-4c75-b0b4-32e59cbdd3fb.root",
        "T2_ES_CIEMAT: davs://srm.ciemat.es:2880/pnfs/ciemat.es/data/cms/prod/store/mc/Run3Summer22NanoAODv12/NMSSM_XtoYHto4B_MX-400_MY-90_TuneCP5_13p6TeV_madgraph-pythia8/NANOAODSIM/130X_mcRun3_2022_realistic_v5-v2/2830000/b575bac0-a6d3-4c75-b0b4-32e59cbdd3fb.root",
        "T2_UK_London_IC: davs://gfe02.grid.hep.ph.ic.ac.uk:2880/pnfs/hep.ph.ic.ac.uk/data/cms/store/mc/Run3Summer22NanoAODv12/NMSSM_XtoYHto4B_MX-400_MY-90_TuneCP5_13p6TeV_madgraph-pythia8/NANOAODSIM/130X_mcRun3_2022_realistic_v5-v2/2830000/b575bac0-a6d3-4c75-b0b4-32e59cbdd3fb.root"
    ],
    "cms:/store/mc/Run3Summer22NanoAODv12/NMSSM_XtoYHto4B_MX-400_MY-90_TuneCP5_13p6TeV_madgraph-pythia8/NANOAODSIM/130X_mcRun3_2022_realistic_v5-v2/2830000/f775de87-efcf-4283-855c-f27f0f3ff8a2.root": [
        "T1_US_FNAL_Disk: davs://cmsdcadisk.fnal.gov:2880/dcache/uscmsdisk/store/mc/Run3Summer22NanoAODv12/NMSSM_XtoYHto4B_MX-400_MY-90_TuneCP5_13p6TeV_madgraph-pythia8/NANOAODSIM/130X_mcRun3_2022_realistic_v5-v2/2830000/f775de87-efcf-4283-855c-f27f0f3ff8a2.root",
        "T1_FR_CCIN2P3_Disk: davs://ccdavcms.in2p3.fr:2880/disk/data/store/mc/Run3Summer22NanoAODv12/NMSSM_XtoYHto4B_MX-400_MY-90_TuneCP5_13p6TeV_madgraph-pythia8/NANOAODSIM/130X_mcRun3_2022_realistic_v5-v2/2830000/f775de87-efcf-4283-855c-f27f0f3ff8a2.root",
        "T1_UK_RAL_Tape: davs://antares.stfc.ac.uk:9000/eos/antares/prod/cms/store/mc/Run3Summer22NanoAODv12/NMSSM_XtoYHto4B_MX-400_MY-90_TuneCP5_13p6TeV_madgraph-pythia8/NANOAODSIM/130X_mcRun3_2022_realistic_v5-v2/2830000/f775de87-efcf-4283-855c-f27f0f3ff8a2.root",
        "T3_US_Baylor: davs://kodiak-se.baylor.edu:1094/store/mc/Run3Summer22NanoAODv12/NMSSM_XtoYHto4B_MX-400_MY-90_TuneCP5_13p6TeV_madgraph-pythia8/NANOAODSIM/130X_mcRun3_2022_realistic_v5-v2/2830000/f775de87-efcf-4283-855c-f27f0f3ff8a2.root",
        "T2_US_Nebraska: davs://xrootd-local.unl.edu:1094/store/mc/Run3Summer22NanoAODv12/NMSSM_XtoYHto4B_MX-400_MY-90_TuneCP5_13p6TeV_madgraph-pythia8/NANOAODSIM/130X_mcRun3_2022_realistic_v5-v2/2830000/f775de87-efcf-4283-855c-f27f0f3ff8a2.root",
        "T1_RU_JINR_Disk: davs://se-wbdv.jinr-t1.ru:2880/pnfs/jinr-t1.ru/data/cms/store/mc/Run3Summer22NanoAODv12/NMSSM_XtoYHto4B_MX-400_MY-90_TuneCP5_13p6TeV_madgraph-pythia8/NANOAODSIM/130X_mcRun3_2022_realistic_v5-v2/2830000/f775de87-efcf-4283-855c-f27f0f3ff8a2.root",
        "T2_ES_CIEMAT: davs://srm.ciemat.es:2880/pnfs/ciemat.es/data/cms/prod/store/mc/Run3Summer22NanoAODv12/NMSSM_XtoYHto4B_MX-400_MY-90_TuneCP5_13p6TeV_madgraph-pythia8/NANOAODSIM/130X_mcRun3_2022_realistic_v5-v2/2830000/f775de87-efcf-4283-855c-f27f0f3ff8a2.root",
        "T2_UK_London_IC: davs://gfe02.grid.hep.ph.ic.ac.uk:2880/pnfs/hep.ph.ic.ac.uk/data/cms/store/mc/Run3Summer22NanoAODv12/NMSSM_XtoYHto4B_MX-400_MY-90_TuneCP5_13p6TeV_madgraph-pythia8/NANOAODSIM/130X_mcRun3_2022_realistic_v5-v2/2830000/f775de87-efcf-4283-855c-f27f0f3ff8a2.root"
    ],
    "cms:/store/mc/Run3Summer22NanoAODv12/NMSSM_XtoYHto4B_MX-400_MY-90_TuneCP5_13p6TeV_madgraph-pythia8/NANOAODSIM/130X_mcRun3_2022_realistic_v5-v2/2830000/b51d8705-77d5-4514-bc91-b71263b98c69.root": [
        "T1_US_FNAL_Disk: davs://cmsdcadisk.fnal.gov:2880/dcache/uscmsdisk/store/mc/Run3Summer22NanoAODv12/NMSSM_XtoYHto4B_MX-400_MY-90_TuneCP5_13p6TeV_madgraph-pythia8/NANOAODSIM/130X_mcRun3_2022_realistic_v5-v2/2830000/b51d8705-77d5-4514-bc91-b71263b98c69.root",
        "T1_FR_CCIN2P3_Disk: davs://ccdavcms.in2p3.fr:2880/disk/data/store/mc/Run3Summer22NanoAODv12/NMSSM_XtoYHto4B_MX-400_MY-90_TuneCP5_13p6TeV_madgraph-pythia8/NANOAODSIM/130X_mcRun3_2022_realistic_v5-v2/2830000/b51d8705-77d5-4514-bc91-b71263b98c69.root",
        "T1_UK_RAL_Tape: davs://antares.stfc.ac.uk:9000/eos/antares/prod/cms/store/mc/Run3Summer22NanoAODv12/NMSSM_XtoYHto4B_MX-400_MY-90_TuneCP5_13p6TeV_madgraph-pythia8/NANOAODSIM/130X_mcRun3_2022_realistic_v5-v2/2830000/b51d8705-77d5-4514-bc91-b71263b98c69.root",
        "T2_US_Nebraska: davs://xrootd-local.unl.edu:1094/store/mc/Run3Summer22NanoAODv12/NMSSM_XtoYHto4B_MX-400_MY-90_TuneCP5_13p6TeV_madgraph-pythia8/NANOAODSIM/130X_mcRun3_2022_realistic_v5-v2/2830000/b51d8705-77d5-4514-bc91-b71263b98c69.root",
        "T1_RU_JINR_Disk: davs://se-wbdv.jinr-t1.ru:2880/pnfs/jinr-t1.ru/data/cms/store/mc/Run3Summer22NanoAODv12/NMSSM_XtoYHto4B_MX-400_MY-90_TuneCP5_13p6TeV_madgraph-pythia8/NANOAODSIM/130X_mcRun3_2022_realistic_v5-v2/2830000/b51d8705-77d5-4514-bc91-b71263b98c69.root",
        "T2_IT_Rome: davs://cmsrm-xrootd01.roma1.infn.it:2880//mc/Run3Summer22NanoAODv12/NMSSM_XtoYHto4B_MX-400_MY-90_TuneCP5_13p6TeV_madgraph-pythia8/NANOAODSIM/130X_mcRun3_2022_realistic_v5-v2/2830000/b51d8705-77d5-4514-bc91-b71263b98c69.root",
        "T2_ES_CIEMAT: davs://srm.ciemat.es:2880/pnfs/ciemat.es/data/cms/prod/store/mc/Run3Summer22NanoAODv12/NMSSM_XtoYHto4B_MX-400_MY-90_TuneCP5_13p6TeV_madgraph-pythia8/NANOAODSIM/130X_mcRun3_2022_realistic_v5-v2/2830000/b51d8705-77d5-4514-bc91-b71263b98c69.root",
        "T2_UK_London_IC: davs://gfe02.grid.hep.ph.ic.ac.uk:2880/pnfs/hep.ph.ic.ac.uk/data/cms/store/mc/Run3Summer22NanoAODv12/NMSSM_XtoYHto4B_MX-400_MY-90_TuneCP5_13p6TeV_madgraph-pythia8/NANOAODSIM/130X_mcRun3_2022_realistic_v5-v2/2830000/b51d8705-77d5-4514-bc91-b71263b98c69.root"
    ],
    "cms:/store/mc/Run3Summer22NanoAODv12/NMSSM_XtoYHto4B_MX-400_MY-90_TuneCP5_13p6TeV_madgraph-pythia8/NANOAODSIM/130X_mcRun3_2022_realistic_v5-v2/2830000/15b68217-852c-4770-939c-2283c7eeccda.root": [
        "T1_US_FNAL_Disk: davs://cmsdcadisk.fnal.gov:2880/dcache/uscmsdisk/store/mc/Run3Summer22NanoAODv12/NMSSM_XtoYHto4B_MX-400_MY-90_TuneCP5_13p6TeV_madgraph-pythia8/NANOAODSIM/130X_mcRun3_2022_realistic_v5-v2/2830000/15b68217-852c-4770-939c-2283c7eeccda.root",
        "T1_FR_CCIN2P3_Disk: davs://ccdavcms.in2p3.fr:2880/disk/data/store/mc/Run3Summer22NanoAODv12/NMSSM_XtoYHto4B_MX-400_MY-90_TuneCP5_13p6TeV_madgraph-pythia8/NANOAODSIM/130X_mcRun3_2022_realistic_v5-v2/2830000/15b68217-852c-4770-939c-2283c7eeccda.root",
        "T1_UK_RAL_Tape: davs://antares.stfc.ac.uk:9000/eos/antares/prod/cms/store/mc/Run3Summer22NanoAODv12/NMSSM_XtoYHto4B_MX-400_MY-90_TuneCP5_13p6TeV_madgraph-pythia8/NANOAODSIM/130X_mcRun3_2022_realistic_v5-v2/2830000/15b68217-852c-4770-939c-2283c7eeccda.root",
        "T2_US_Nebraska: davs://xrootd-local.unl.edu:1094/store/mc/Run3Summer22NanoAODv12/NMSSM_XtoYHto4B_MX-400_MY-90_TuneCP5_13p6TeV_madgraph-pythia8/NANOAODSIM/130X_mcRun3_2022_realistic_v5-v2/2830000/15b68217-852c-4770-939c-2283c7eeccda.root",
        "T1_RU_JINR_Disk: davs://se-wbdv.jinr-t1.ru:2880/pnfs/jinr-t1.ru/data/cms/store/mc/Run3Summer22NanoAODv12/NMSSM_XtoYHto4B_MX-400_MY-90_TuneCP5_13p6TeV_madgraph-pythia8/NANOAODSIM/130X_mcRun3_2022_realistic_v5-v2/2830000/15b68217-852c-4770-939c-2283c7eeccda.root",
        "T2_ES_CIEMAT: davs://srm.ciemat.es:2880/pnfs/ciemat.es/data/cms/prod/store/mc/Run3Summer22NanoAODv12/NMSSM_XtoYHto4B_MX-400_MY-90_TuneCP5_13p6TeV_madgraph-pythia8/NANOAODSIM/130X_mcRun3_2022_realistic_v5-v2/2830000/15b68217-852c-4770-939c-2283c7eeccda.root",
        "T2_UK_London_IC: davs://gfe02.grid.hep.ph.ic.ac.uk:2880/pnfs/hep.ph.ic.ac.uk/data/cms/store/mc/Run3Summer22NanoAODv12/NMSSM_XtoYHto4B_MX-400_MY-90_TuneCP5_13p6TeV_madgraph-pythia8/NANOAODSIM/130X_mcRun3_2022_realistic_v5-v2/2830000/15b68217-852c-4770-939c-2283c7eeccda.root"
    ],
    "cms:/store/mc/Run3Summer22NanoAODv12/NMSSM_XtoYHto4B_MX-400_MY-90_TuneCP5_13p6TeV_madgraph-pythia8/NANOAODSIM/130X_mcRun3_2022_realistic_v5-v2/2830000/d7a7bcd4-2d33-46f3-8238-3fab800f166e.root": [
        "T1_FR_CCIN2P3_Disk: davs://ccdavcms.in2p3.fr:2880/disk/data/store/mc/Run3Summer22NanoAODv12/NMSSM_XtoYHto4B_MX-400_MY-90_TuneCP5_13p6TeV_madgraph-pythia8/NANOAODSIM/130X_mcRun3_2022_realistic_v5-v2/2830000/d7a7bcd4-2d33-46f3-8238-3fab800f166e.root",
        "T1_UK_RAL_Tape: davs://antares.stfc.ac.uk:9000/eos/antares/prod/cms/store/mc/Run3Summer22NanoAODv12/NMSSM_XtoYHto4B_MX-400_MY-90_TuneCP5_13p6TeV_madgraph-pythia8/NANOAODSIM/130X_mcRun3_2022_realistic_v5-v2/2830000/d7a7bcd4-2d33-46f3-8238-3fab800f166e.root",
        "T2_US_Vanderbilt: davs://xrootd-vanderbilt.sites.opensciencegrid.org:1094/store/mc/Run3Summer22NanoAODv12/NMSSM_XtoYHto4B_MX-400_MY-90_TuneCP5_13p6TeV_madgraph-pythia8/NANOAODSIM/130X_mcRun3_2022_realistic_v5-v2/2830000/d7a7bcd4-2d33-46f3-8238-3fab800f166e.root",
        "T2_HU_Budapest: davs://grid143.kfki.hu:443/dpm/kfki.hu/home/cms/phedex/store/mc/Run3Summer22NanoAODv12/NMSSM_XtoYHto4B_MX-400_MY-90_TuneCP5_13p6TeV_madgraph-pythia8/NANOAODSIM/130X_mcRun3_2022_realistic_v5-v2/2830000/d7a7bcd4-2d33-46f3-8238-3fab800f166e.root",
        "T2_BE_IIHE: davs://maite.iihe.ac.be:2880/pnfs/iihe/cms/ph/sc4/store/mc/Run3Summer22NanoAODv12/NMSSM_XtoYHto4B_MX-400_MY-90_TuneCP5_13p6TeV_madgraph-pythia8/NANOAODSIM/130X_mcRun3_2022_realistic_v5-v2/2830000/d7a7bcd4-2d33-46f3-8238-3fab800f166e.root",
        "T2_US_Purdue: davs://eos.cms.rcac.purdue.edu:9000/store/mc/Run3Summer22NanoAODv12/NMSSM_XtoYHto4B_MX-400_MY-90_TuneCP5_13p6TeV_madgraph-pythia8/NANOAODSIM/130X_mcRun3_2022_realistic_v5-v2/2830000/d7a7bcd4-2d33-46f3-8238-3fab800f166e.root",
        "T2_IT_Rome: davs://cmsrm-xrootd01.roma1.infn.it:2880//mc/Run3Summer22NanoAODv12/NMSSM_XtoYHto4B_MX-400_MY-90_TuneCP5_13p6TeV_madgraph-pythia8/NANOAODSIM/130X_mcRun3_2022_realistic_v5-v2/2830000/d7a7bcd4-2d33-46f3-8238-3fab800f166e.root"
    ],
    "cms:/store/mc/Run3Summer22NanoAODv12/NMSSM_XtoYHto4B_MX-400_MY-90_TuneCP5_13p6TeV_madgraph-pythia8/NANOAODSIM/130X_mcRun3_2022_realistic_v5-v2/2830000/8d8055dc-3436-4157-90b5-777c0f45e917.root": [
        "T1_US_FNAL_Disk: davs://cmsdcadisk.fnal.gov:2880/dcache/uscmsdisk/store/mc/Run3Summer22NanoAODv12/NMSSM_XtoYHto4B_MX-400_MY-90_TuneCP5_13p6TeV_madgraph-pythia8/NANOAODSIM/130X_mcRun3_2022_realistic_v5-v2/2830000/8d8055dc-3436-4157-90b5-777c0f45e917.root",
        "T1_FR_CCIN2P3_Disk: davs://ccdavcms.in2p3.fr:2880/disk/data/store/mc/Run3Summer22NanoAODv12/NMSSM_XtoYHto4B_MX-400_MY-90_TuneCP5_13p6TeV_madgraph-pythia8/NANOAODSIM/130X_mcRun3_2022_realistic_v5-v2/2830000/8d8055dc-3436-4157-90b5-777c0f45e917.root",
        "T1_UK_RAL_Tape: davs://antares.stfc.ac.uk:9000/eos/antares/prod/cms/store/mc/Run3Summer22NanoAODv12/NMSSM_XtoYHto4B_MX-400_MY-90_TuneCP5_13p6TeV_madgraph-pythia8/NANOAODSIM/130X_mcRun3_2022_realistic_v5-v2/2830000/8d8055dc-3436-4157-90b5-777c0f45e917.root",
        "T2_US_Nebraska: davs://xrootd-local.unl.edu:1094/store/mc/Run3Summer22NanoAODv12/NMSSM_XtoYHto4B_MX-400_MY-90_TuneCP5_13p6TeV_madgraph-pythia8/NANOAODSIM/130X_mcRun3_2022_realistic_v5-v2/2830000/8d8055dc-3436-4157-90b5-777c0f45e917.root",
        "T1_RU_JINR_Disk: davs://se-wbdv.jinr-t1.ru:2880/pnfs/jinr-t1.ru/data/cms/store/mc/Run3Summer22NanoAODv12/NMSSM_XtoYHto4B_MX-400_MY-90_TuneCP5_13p6TeV_madgraph-pythia8/NANOAODSIM/130X_mcRun3_2022_realistic_v5-v2/2830000/8d8055dc-3436-4157-90b5-777c0f45e917.root",
        "T2_ES_CIEMAT: davs://srm.ciemat.es:2880/pnfs/ciemat.es/data/cms/prod/store/mc/Run3Summer22NanoAODv12/NMSSM_XtoYHto4B_MX-400_MY-90_TuneCP5_13p6TeV_madgraph-pythia8/NANOAODSIM/130X_mcRun3_2022_realistic_v5-v2/2830000/8d8055dc-3436-4157-90b5-777c0f45e917.root",
        "T2_UK_London_IC: davs://gfe02.grid.hep.ph.ic.ac.uk:2880/pnfs/hep.ph.ic.ac.uk/data/cms/store/mc/Run3Summer22NanoAODv12/NMSSM_XtoYHto4B_MX-400_MY-90_TuneCP5_13p6TeV_madgraph-pythia8/NANOAODSIM/130X_mcRun3_2022_realistic_v5-v2/2830000/8d8055dc-3436-4157-90b5-777c0f45e917.root"
    ],
    "cms:/store/mc/Run3Summer22NanoAODv12/NMSSM_XtoYHto4B_MX-400_MY-90_TuneCP5_13p6TeV_madgraph-pythia8/NANOAODSIM/130X_mcRun3_2022_realistic_v5-v2/2830000/20c70c3d-7457-4194-ad84-ad399da64405.root": [
        "T1_US_FNAL_Disk: davs://cmsdcadisk.fnal.gov:2880/dcache/uscmsdisk/store/mc/Run3Summer22NanoAODv12/NMSSM_XtoYHto4B_MX-400_MY-90_TuneCP5_13p6TeV_madgraph-pythia8/NANOAODSIM/130X_mcRun3_2022_realistic_v5-v2/2830000/20c70c3d-7457-4194-ad84-ad399da64405.root",
        "T1_FR_CCIN2P3_Disk: davs://ccdavcms.in2p3.fr:2880/disk/data/store/mc/Run3Summer22NanoAODv12/NMSSM_XtoYHto4B_MX-400_MY-90_TuneCP5_13p6TeV_madgraph-pythia8/NANOAODSIM/130X_mcRun3_2022_realistic_v5-v2/2830000/20c70c3d-7457-4194-ad84-ad399da64405.root",
        "T1_UK_RAL_Tape: davs://antares.stfc.ac.uk:9000/eos/antares/prod/cms/store/mc/Run3Summer22NanoAODv12/NMSSM_XtoYHto4B_MX-400_MY-90_TuneCP5_13p6TeV_madgraph-pythia8/NANOAODSIM/130X_mcRun3_2022_realistic_v5-v2/2830000/20c70c3d-7457-4194-ad84-ad399da64405.root",
        "T2_US_Nebraska: davs://xrootd-local.unl.edu:1094/store/mc/Run3Summer22NanoAODv12/NMSSM_XtoYHto4B_MX-400_MY-90_TuneCP5_13p6TeV_madgraph-pythia8/NANOAODSIM/130X_mcRun3_2022_realistic_v5-v2/2830000/20c70c3d-7457-4194-ad84-ad399da64405.root",
        "T1_RU_JINR_Disk: davs://se-wbdv.jinr-t1.ru:2880/pnfs/jinr-t1.ru/data/cms/store/mc/Run3Summer22NanoAODv12/NMSSM_XtoYHto4B_MX-400_MY-90_TuneCP5_13p6TeV_madgraph-pythia8/NANOAODSIM/130X_mcRun3_2022_realistic_v5-v2/2830000/20c70c3d-7457-4194-ad84-ad399da64405.root",
        "T2_ES_CIEMAT: davs://srm.ciemat.es:2880/pnfs/ciemat.es/data/cms/prod/store/mc/Run3Summer22NanoAODv12/NMSSM_XtoYHto4B_MX-400_MY-90_TuneCP5_13p6TeV_madgraph-pythia8/NANOAODSIM/130X_mcRun3_2022_realistic_v5-v2/2830000/20c70c3d-7457-4194-ad84-ad399da64405.root",
        "T2_UK_London_IC: davs://gfe02.grid.hep.ph.ic.ac.uk:2880/pnfs/hep.ph.ic.ac.uk/data/cms/store/mc/Run3Summer22NanoAODv12/NMSSM_XtoYHto4B_MX-400_MY-90_TuneCP5_13p6TeV_madgraph-pythia8/NANOAODSIM/130X_mcRun3_2022_realistic_v5-v2/2830000/20c70c3d-7457-4194-ad84-ad399da64405.root"
    ],
    "cms:/store/mc/Run3Summer22NanoAODv12/NMSSM_XtoYHto4B_MX-400_MY-90_TuneCP5_13p6TeV_madgraph-pythia8/NANOAODSIM/130X_mcRun3_2022_realistic_v5-v2/2830000/f0766a97-75bf-48e1-bed0-572d8062d6ae.root": [
        "T1_US_FNAL_Disk: davs://cmsdcadisk.fnal.gov:2880/dcache/uscmsdisk/store/mc/Run3Summer22NanoAODv12/NMSSM_XtoYHto4B_MX-400_MY-90_TuneCP5_13p6TeV_madgraph-pythia8/NANOAODSIM/130X_mcRun3_2022_realistic_v5-v2/2830000/f0766a97-75bf-48e1-bed0-572d8062d6ae.root",
        "T1_FR_CCIN2P3_Disk: davs://ccdavcms.in2p3.fr:2880/disk/data/store/mc/Run3Summer22NanoAODv12/NMSSM_XtoYHto4B_MX-400_MY-90_TuneCP5_13p6TeV_madgraph-pythia8/NANOAODSIM/130X_mcRun3_2022_realistic_v5-v2/2830000/f0766a97-75bf-48e1-bed0-572d8062d6ae.root",
        "T1_UK_RAL_Tape: davs://antares.stfc.ac.uk:9000/eos/antares/prod/cms/store/mc/Run3Summer22NanoAODv12/NMSSM_XtoYHto4B_MX-400_MY-90_TuneCP5_13p6TeV_madgraph-pythia8/NANOAODSIM/130X_mcRun3_2022_realistic_v5-v2/2830000/f0766a97-75bf-48e1-bed0-572d8062d6ae.root",
        "T2_US_Nebraska: davs://xrootd-local.unl.edu:1094/store/mc/Run3Summer22NanoAODv12/NMSSM_XtoYHto4B_MX-400_MY-90_TuneCP5_13p6TeV_madgraph-pythia8/NANOAODSIM/130X_mcRun3_2022_realistic_v5-v2/2830000/f0766a97-75bf-48e1-bed0-572d8062d6ae.root",
        "T1_RU_JINR_Disk: davs://se-wbdv.jinr-t1.ru:2880/pnfs/jinr-t1.ru/data/cms/store/mc/Run3Summer22NanoAODv12/NMSSM_XtoYHto4B_MX-400_MY-90_TuneCP5_13p6TeV_madgraph-pythia8/NANOAODSIM/130X_mcRun3_2022_realistic_v5-v2/2830000/f0766a97-75bf-48e1-bed0-572d8062d6ae.root",
        "T2_ES_CIEMAT: davs://srm.ciemat.es:2880/pnfs/ciemat.es/data/cms/prod/store/mc/Run3Summer22NanoAODv12/NMSSM_XtoYHto4B_MX-400_MY-90_TuneCP5_13p6TeV_madgraph-pythia8/NANOAODSIM/130X_mcRun3_2022_realistic_v5-v2/2830000/f0766a97-75bf-48e1-bed0-572d8062d6ae.root",
        "T2_UK_London_IC: davs://gfe02.grid.hep.ph.ic.ac.uk:2880/pnfs/hep.ph.ic.ac.uk/data/cms/store/mc/Run3Summer22NanoAODv12/NMSSM_XtoYHto4B_MX-400_MY-90_TuneCP5_13p6TeV_madgraph-pythia8/NANOAODSIM/130X_mcRun3_2022_realistic_v5-v2/2830000/f0766a97-75bf-48e1-bed0-572d8062d6ae.root"
    ],
    "cms:/store/mc/Run3Summer22NanoAODv12/NMSSM_XtoYHto4B_MX-400_MY-90_TuneCP5_13p6TeV_madgraph-pythia8/NANOAODSIM/130X_mcRun3_2022_realistic_v5-v2/2830000/cc047396-8471-441d-9606-c21699110c02.root": [
        "T1_US_FNAL_Disk: davs://cmsdcadisk.fnal.gov:2880/dcache/uscmsdisk/store/mc/Run3Summer22NanoAODv12/NMSSM_XtoYHto4B_MX-400_MY-90_TuneCP5_13p6TeV_madgraph-pythia8/NANOAODSIM/130X_mcRun3_2022_realistic_v5-v2/2830000/cc047396-8471-441d-9606-c21699110c02.root",
        "T1_FR_CCIN2P3_Disk: davs://ccdavcms.in2p3.fr:2880/disk/data/store/mc/Run3Summer22NanoAODv12/NMSSM_XtoYHto4B_MX-400_MY-90_TuneCP5_13p6TeV_madgraph-pythia8/NANOAODSIM/130X_mcRun3_2022_realistic_v5-v2/2830000/cc047396-8471-441d-9606-c21699110c02.root",
        "T1_UK_RAL_Tape: davs://antares.stfc.ac.uk:9000/eos/antares/prod/cms/store/mc/Run3Summer22NanoAODv12/NMSSM_XtoYHto4B_MX-400_MY-90_TuneCP5_13p6TeV_madgraph-pythia8/NANOAODSIM/130X_mcRun3_2022_realistic_v5-v2/2830000/cc047396-8471-441d-9606-c21699110c02.root",
        "T2_US_Nebraska: davs://xrootd-local.unl.edu:1094/store/mc/Run3Summer22NanoAODv12/NMSSM_XtoYHto4B_MX-400_MY-90_TuneCP5_13p6TeV_madgraph-pythia8/NANOAODSIM/130X_mcRun3_2022_realistic_v5-v2/2830000/cc047396-8471-441d-9606-c21699110c02.root",
        "T1_RU_JINR_Disk: davs://se-wbdv.jinr-t1.ru:2880/pnfs/jinr-t1.ru/data/cms/store/mc/Run3Summer22NanoAODv12/NMSSM_XtoYHto4B_MX-400_MY-90_TuneCP5_13p6TeV_madgraph-pythia8/NANOAODSIM/130X_mcRun3_2022_realistic_v5-v2/2830000/cc047396-8471-441d-9606-c21699110c02.root",
        "T2_ES_CIEMAT: davs://srm.ciemat.es:2880/pnfs/ciemat.es/data/cms/prod/store/mc/Run3Summer22NanoAODv12/NMSSM_XtoYHto4B_MX-400_MY-90_TuneCP5_13p6TeV_madgraph-pythia8/NANOAODSIM/130X_mcRun3_2022_realistic_v5-v2/2830000/cc047396-8471-441d-9606-c21699110c02.root",
        "T2_UK_London_IC: davs://gfe02.grid.hep.ph.ic.ac.uk:2880/pnfs/hep.ph.ic.ac.uk/data/cms/store/mc/Run3Summer22NanoAODv12/NMSSM_XtoYHto4B_MX-400_MY-90_TuneCP5_13p6TeV_madgraph-pythia8/NANOAODSIM/130X_mcRun3_2022_realistic_v5-v2/2830000/cc047396-8471-441d-9606-c21699110c02.root"
    ],
    "cms:/store/mc/Run3Summer22NanoAODv12/NMSSM_XtoYHto4B_MX-400_MY-90_TuneCP5_13p6TeV_madgraph-pythia8/NANOAODSIM/130X_mcRun3_2022_realistic_v5-v2/2830000/29c5d8f8-8584-4418-afa4-753c213095f5.root": [
        "T1_US_FNAL_Disk: davs://cmsdcadisk.fnal.gov:2880/dcache/uscmsdisk/store/mc/Run3Summer22NanoAODv12/NMSSM_XtoYHto4B_MX-400_MY-90_TuneCP5_13p6TeV_madgraph-pythia8/NANOAODSIM/130X_mcRun3_2022_realistic_v5-v2/2830000/29c5d8f8-8584-4418-afa4-753c213095f5.root",
        "T1_FR_CCIN2P3_Disk: davs://ccdavcms.in2p3.fr:2880/disk/data/store/mc/Run3Summer22NanoAODv12/NMSSM_XtoYHto4B_MX-400_MY-90_TuneCP5_13p6TeV_madgraph-pythia8/NANOAODSIM/130X_mcRun3_2022_realistic_v5-v2/2830000/29c5d8f8-8584-4418-afa4-753c213095f5.root",
        "T1_UK_RAL_Tape: davs://antares.stfc.ac.uk:9000/eos/antares/prod/cms/store/mc/Run3Summer22NanoAODv12/NMSSM_XtoYHto4B_MX-400_MY-90_TuneCP5_13p6TeV_madgraph-pythia8/NANOAODSIM/130X_mcRun3_2022_realistic_v5-v2/2830000/29c5d8f8-8584-4418-afa4-753c213095f5.root",
        "T2_US_Nebraska: davs://xrootd-local.unl.edu:1094/store/mc/Run3Summer22NanoAODv12/NMSSM_XtoYHto4B_MX-400_MY-90_TuneCP5_13p6TeV_madgraph-pythia8/NANOAODSIM/130X_mcRun3_2022_realistic_v5-v2/2830000/29c5d8f8-8584-4418-afa4-753c213095f5.root",
        "T1_RU_JINR_Disk: davs://se-wbdv.jinr-t1.ru:2880/pnfs/jinr-t1.ru/data/cms/store/mc/Run3Summer22NanoAODv12/NMSSM_XtoYHto4B_MX-400_MY-90_TuneCP5_13p6TeV_madgraph-pythia8/NANOAODSIM/130X_mcRun3_2022_realistic_v5-v2/2830000/29c5d8f8-8584-4418-afa4-753c213095f5.root",
        "T2_ES_CIEMAT: davs://srm.ciemat.es:2880/pnfs/ciemat.es/data/cms/prod/store/mc/Run3Summer22NanoAODv12/NMSSM_XtoYHto4B_MX-400_MY-90_TuneCP5_13p6TeV_madgraph-pythia8/NANOAODSIM/130X_mcRun3_2022_realistic_v5-v2/2830000/29c5d8f8-8584-4418-afa4-753c213095f5.root",
        "T2_UK_London_IC: davs://gfe02.grid.hep.ph.ic.ac.uk:2880/pnfs/hep.ph.ic.ac.uk/data/cms/store/mc/Run3Summer22NanoAODv12/NMSSM_XtoYHto4B_MX-400_MY-90_TuneCP5_13p6TeV_madgraph-pythia8/NANOAODSIM/130X_mcRun3_2022_realistic_v5-v2/2830000/29c5d8f8-8584-4418-afa4-753c213095f5.root"
    ],
    "cms:/store/mc/Run3Summer22NanoAODv12/NMSSM_XtoYHto4B_MX-400_MY-90_TuneCP5_13p6TeV_madgraph-pythia8/NANOAODSIM/130X_mcRun3_2022_realistic_v5-v2/2810000/0a9fce85-7793-4da8-b6dd-4e836e0a89d9.root": [
        "T1_US_FNAL_Disk: davs://cmsdcadisk.fnal.gov:2880/dcache/uscmsdisk/store/mc/Run3Summer22NanoAODv12/NMSSM_XtoYHto4B_MX-400_MY-90_TuneCP5_13p6TeV_madgraph-pythia8/NANOAODSIM/130X_mcRun3_2022_realistic_v5-v2/2810000/0a9fce85-7793-4da8-b6dd-4e836e0a89d9.root",
        "T1_FR_CCIN2P3_Disk: davs://ccdavcms.in2p3.fr:2880/disk/data/store/mc/Run3Summer22NanoAODv12/NMSSM_XtoYHto4B_MX-400_MY-90_TuneCP5_13p6TeV_madgraph-pythia8/NANOAODSIM/130X_mcRun3_2022_realistic_v5-v2/2810000/0a9fce85-7793-4da8-b6dd-4e836e0a89d9.root",
        "T1_UK_RAL_Tape: davs://antares.stfc.ac.uk:9000/eos/antares/prod/cms/store/mc/Run3Summer22NanoAODv12/NMSSM_XtoYHto4B_MX-400_MY-90_TuneCP5_13p6TeV_madgraph-pythia8/NANOAODSIM/130X_mcRun3_2022_realistic_v5-v2/2810000/0a9fce85-7793-4da8-b6dd-4e836e0a89d9.root",
        "T2_US_Nebraska: davs://xrootd-local.unl.edu:1094/store/mc/Run3Summer22NanoAODv12/NMSSM_XtoYHto4B_MX-400_MY-90_TuneCP5_13p6TeV_madgraph-pythia8/NANOAODSIM/130X_mcRun3_2022_realistic_v5-v2/2810000/0a9fce85-7793-4da8-b6dd-4e836e0a89d9.root",
        "T1_RU_JINR_Disk: davs://se-wbdv.jinr-t1.ru:2880/pnfs/jinr-t1.ru/data/cms/store/mc/Run3Summer22NanoAODv12/NMSSM_XtoYHto4B_MX-400_MY-90_TuneCP5_13p6TeV_madgraph-pythia8/NANOAODSIM/130X_mcRun3_2022_realistic_v5-v2/2810000/0a9fce85-7793-4da8-b6dd-4e836e0a89d9.root",
        "T2_ES_CIEMAT: davs://srm.ciemat.es:2880/pnfs/ciemat.es/data/cms/prod/store/mc/Run3Summer22NanoAODv12/NMSSM_XtoYHto4B_MX-400_MY-90_TuneCP5_13p6TeV_madgraph-pythia8/NANOAODSIM/130X_mcRun3_2022_realistic_v5-v2/2810000/0a9fce85-7793-4da8-b6dd-4e836e0a89d9.root",
        "T2_UK_London_IC: davs://gfe02.grid.hep.ph.ic.ac.uk:2880/pnfs/hep.ph.ic.ac.uk/data/cms/store/mc/Run3Summer22NanoAODv12/NMSSM_XtoYHto4B_MX-400_MY-90_TuneCP5_13p6TeV_madgraph-pythia8/NANOAODSIM/130X_mcRun3_2022_realistic_v5-v2/2810000/0a9fce85-7793-4da8-b6dd-4e836e0a89d9.root"
    ],
    "cms:/store/mc/Run3Summer22NanoAODv12/NMSSM_XtoYHto4B_MX-400_MY-90_TuneCP5_13p6TeV_madgraph-pythia8/NANOAODSIM/130X_mcRun3_2022_realistic_v5-v2/2830000/eff8fb6f-6625-4853-95f0-3f04d0c49d1e.root": [
        "T1_US_FNAL_Disk: davs://cmsdcadisk.fnal.gov:2880/dcache/uscmsdisk/store/mc/Run3Summer22NanoAODv12/NMSSM_XtoYHto4B_MX-400_MY-90_TuneCP5_13p6TeV_madgraph-pythia8/NANOAODSIM/130X_mcRun3_2022_realistic_v5-v2/2830000/eff8fb6f-6625-4853-95f0-3f04d0c49d1e.root",
        "T1_FR_CCIN2P3_Disk: davs://ccdavcms.in2p3.fr:2880/disk/data/store/mc/Run3Summer22NanoAODv12/NMSSM_XtoYHto4B_MX-400_MY-90_TuneCP5_13p6TeV_madgraph-pythia8/NANOAODSIM/130X_mcRun3_2022_realistic_v5-v2/2830000/eff8fb6f-6625-4853-95f0-3f04d0c49d1e.root",
        "T1_UK_RAL_Tape: davs://antares.stfc.ac.uk:9000/eos/antares/prod/cms/store/mc/Run3Summer22NanoAODv12/NMSSM_XtoYHto4B_MX-400_MY-90_TuneCP5_13p6TeV_madgraph-pythia8/NANOAODSIM/130X_mcRun3_2022_realistic_v5-v2/2830000/eff8fb6f-6625-4853-95f0-3f04d0c49d1e.root",
        "T2_US_Nebraska: davs://xrootd-local.unl.edu:1094/store/mc/Run3Summer22NanoAODv12/NMSSM_XtoYHto4B_MX-400_MY-90_TuneCP5_13p6TeV_madgraph-pythia8/NANOAODSIM/130X_mcRun3_2022_realistic_v5-v2/2830000/eff8fb6f-6625-4853-95f0-3f04d0c49d1e.root",
        "T1_RU_JINR_Disk: davs://se-wbdv.jinr-t1.ru:2880/pnfs/jinr-t1.ru/data/cms/store/mc/Run3Summer22NanoAODv12/NMSSM_XtoYHto4B_MX-400_MY-90_TuneCP5_13p6TeV_madgraph-pythia8/NANOAODSIM/130X_mcRun3_2022_realistic_v5-v2/2830000/eff8fb6f-6625-4853-95f0-3f04d0c49d1e.root",
        "T2_ES_CIEMAT: davs://srm.ciemat.es:2880/pnfs/ciemat.es/data/cms/prod/store/mc/Run3Summer22NanoAODv12/NMSSM_XtoYHto4B_MX-400_MY-90_TuneCP5_13p6TeV_madgraph-pythia8/NANOAODSIM/130X_mcRun3_2022_realistic_v5-v2/2830000/eff8fb6f-6625-4853-95f0-3f04d0c49d1e.root",
        "T2_UK_London_IC: davs://gfe02.grid.hep.ph.ic.ac.uk:2880/pnfs/hep.ph.ic.ac.uk/data/cms/store/mc/Run3Summer22NanoAODv12/NMSSM_XtoYHto4B_MX-400_MY-90_TuneCP5_13p6TeV_madgraph-pythia8/NANOAODSIM/130X_mcRun3_2022_realistic_v5-v2/2830000/eff8fb6f-6625-4853-95f0-3f04d0c49d1e.root"
    ],
    "cms:/store/mc/Run3Summer22NanoAODv12/NMSSM_XtoYHto4B_MX-400_MY-90_TuneCP5_13p6TeV_madgraph-pythia8/NANOAODSIM/130X_mcRun3_2022_realistic_v5-v2/2810000/3dd8eb61-302d-4097-b4a7-4b15c7f40875.root": [
        "T1_US_FNAL_Disk: davs://cmsdcadisk.fnal.gov:2880/dcache/uscmsdisk/store/mc/Run3Summer22NanoAODv12/NMSSM_XtoYHto4B_MX-400_MY-90_TuneCP5_13p6TeV_madgraph-pythia8/NANOAODSIM/130X_mcRun3_2022_realistic_v5-v2/2810000/3dd8eb61-302d-4097-b4a7-4b15c7f40875.root",
        "T1_FR_CCIN2P3_Disk: davs://ccdavcms.in2p3.fr:2880/disk/data/store/mc/Run3Summer22NanoAODv12/NMSSM_XtoYHto4B_MX-400_MY-90_TuneCP5_13p6TeV_madgraph-pythia8/NANOAODSIM/130X_mcRun3_2022_realistic_v5-v2/2810000/3dd8eb61-302d-4097-b4a7-4b15c7f40875.root",
        "T1_UK_RAL_Tape: davs://antares.stfc.ac.uk:9000/eos/antares/prod/cms/store/mc/Run3Summer22NanoAODv12/NMSSM_XtoYHto4B_MX-400_MY-90_TuneCP5_13p6TeV_madgraph-pythia8/NANOAODSIM/130X_mcRun3_2022_realistic_v5-v2/2810000/3dd8eb61-302d-4097-b4a7-4b15c7f40875.root",
        "T2_US_Nebraska: davs://xrootd-local.unl.edu:1094/store/mc/Run3Summer22NanoAODv12/NMSSM_XtoYHto4B_MX-400_MY-90_TuneCP5_13p6TeV_madgraph-pythia8/NANOAODSIM/130X_mcRun3_2022_realistic_v5-v2/2810000/3dd8eb61-302d-4097-b4a7-4b15c7f40875.root",
        "T1_RU_JINR_Disk: davs://se-wbdv.jinr-t1.ru:2880/pnfs/jinr-t1.ru/data/cms/store/mc/Run3Summer22NanoAODv12/NMSSM_XtoYHto4B_MX-400_MY-90_TuneCP5_13p6TeV_madgraph-pythia8/NANOAODSIM/130X_mcRun3_2022_realistic_v5-v2/2810000/3dd8eb61-302d-4097-b4a7-4b15c7f40875.root",
        "T2_ES_CIEMAT: davs://srm.ciemat.es:2880/pnfs/ciemat.es/data/cms/prod/store/mc/Run3Summer22NanoAODv12/NMSSM_XtoYHto4B_MX-400_MY-90_TuneCP5_13p6TeV_madgraph-pythia8/NANOAODSIM/130X_mcRun3_2022_realistic_v5-v2/2810000/3dd8eb61-302d-4097-b4a7-4b15c7f40875.root",
        "T2_UK_London_IC: davs://gfe02.grid.hep.ph.ic.ac.uk:2880/pnfs/hep.ph.ic.ac.uk/data/cms/store/mc/Run3Summer22NanoAODv12/NMSSM_XtoYHto4B_MX-400_MY-90_TuneCP5_13p6TeV_madgraph-pythia8/NANOAODSIM/130X_mcRun3_2022_realistic_v5-v2/2810000/3dd8eb61-302d-4097-b4a7-4b15c7f40875.root"
    ]
}