#/NMSSM_XtoYHto4B_MX-3500_MY-90_TuneCP5_13p6TeV_madgraph-pythia8/Run3Summer23NanoAODv12-130X_mcRun3_2023_realistic_v15-v2/NANOAODSIM
+----------------------------------------------------------------------------------------------------------------------------------------------------------------------------------------------------+--------+-------------+------------+----------+
| SCOPE:NAME                                                                                                                                                                                         | GUID   | ADLER32     | FILESIZE   | EVENTS   |
|----------------------------------------------------------------------------------------------------------------------------------------------------------------------------------------------------+--------+-------------+------------+----------|
| cms:/store/mc/Run3Summer23NanoAODv12/NMSSM_XtoYHto4B_MX-3500_MY-90_TuneCP5_13p6TeV_madgraph-pythia8/NANOAODSIM/130X_mcRun3_2023_realistic_v15-v2/2810000/907a7215-d58d-49b2-a4e2-1d0629fa6c15.root | (None) | ad:2b6f39ed | 21.219 MB  |          |
| cms:/store/mc/Run3Summer23NanoAODv12/NMSSM_XtoYHto4B_MX-3500_MY-90_TuneCP5_13p6TeV_madgraph-pythia8/NANOAODSIM/130X_mcRun3_2023_realistic_v15-v2/2810000/fc9fa4c1-6215-424b-9041-938412310ad8.root | (None) | ad:3acdf6ad | 9.174 MB   |          |
| cms:/store/mc/Run3Summer23NanoAODv12/NMSSM_XtoYHto4B_MX-3500_MY-90_TuneCP5_13p6TeV_madgraph-pythia8/NANOAODSIM/130X_mcRun3_2023_realistic_v15-v2/2810000/b9d82a17-0bed-4359-86aa-605cac10baaf.root | (None) | ad:f6f311fe | 9.141 MB   |          |
| cms:/store/mc/Run3Summer23NanoAODv12/NMSSM_XtoYHto4B_MX-3500_MY-90_TuneCP5_13p6TeV_madgraph-pythia8/NANOAODSIM/130X_mcRun3_2023_realistic_v15-v2/2810000/d4ec9e63-824b-4140-9636-a75d86ac8b31.root | (None) | ad:fe01f610 | 65.548 MB  |          |
| cms:/store/mc/Run3Summer23NanoAODv12/NMSSM_XtoYHto4B_MX-3500_MY-90_TuneCP5_13p6TeV_madgraph-pythia8/NANOAODSIM/130X_mcRun3_2023_realistic_v15-v2/2810000/dfe64401-b863-4913-8446-d741a6da50f0.root | (None) | ad:9e3ca264 | 9.169 MB   |          |
| cms:/store/mc/Run3Summer23NanoAODv12/NMSSM_XtoYHto4B_MX-3500_MY-90_TuneCP5_13p6TeV_madgraph-pythia8/NANOAODSIM/130X_mcRun3_2023_realistic_v15-v2/2810000/121f2b06-83b6-49c9-a689-afd6cd3dec18.root | (None) | ad:67ff1e5b | 32.861 MB  |          |
| cms:/store/mc/Run3Summer23NanoAODv12/NMSSM_XtoYHto4B_MX-3500_MY-90_TuneCP5_13p6TeV_madgraph-pythia8/NANOAODSIM/130X_mcRun3_2023_realistic_v15-v2/2810000/932f21a4-6a04-4b7f-8bb9-0cadc73e21c9.root | (None) | ad:0fbdd488 | 9.134 MB   |          |
| cms:/store/mc/Run3Summer23NanoAODv12/NMSSM_XtoYHto4B_MX-3500_MY-90_TuneCP5_13p6TeV_madgraph-pythia8/NANOAODSIM/130X_mcRun3_2023_realistic_v15-v2/2810000/22225d6b-61d8-4b31-81ea-beb5c4f81e2d.root | (None) | ad:eda75f27 | 9.098 MB   |          |
| cms:/store/mc/Run3Summer23NanoAODv12/NMSSM_XtoYHto4B_MX-3500_MY-90_TuneCP5_13p6TeV_madgraph-pythia8/NANOAODSIM/130X_mcRun3_2023_realistic_v15-v2/2810000/d8a76fb0-8eb0-4429-898a-f4a62c5a2674.root | (None) | ad:81d02fea | 9.176 MB   |          |
| cms:/store/mc/Run3Summer23NanoAODv12/NMSSM_XtoYHto4B_MX-3500_MY-90_TuneCP5_13p6TeV_madgraph-pythia8/NANOAODSIM/130X_mcRun3_2023_realistic_v15-v2/2810000/67484b4d-0a2e-48c6-a93f-21dc240f9155.root | (None) | ad:67b0fca7 | 50.623 MB  |          |
| cms:/store/mc/Run3Summer23NanoAODv12/NMSSM_XtoYHto4B_MX-3500_MY-90_TuneCP5_13p6TeV_madgraph-pythia8/NANOAODSIM/130X_mcRun3_2023_realistic_v15-v2/2810000/34bf9550-755c-48b1-b9b1-ff3fbe8c7c71.root | (None) | ad:0bf21002 | 9.123 MB   |          |
+----------------------------------------------------------------------------------------------------------------------------------------------------------------------------------------------------+--------+-------------+------------+----------+
Total files : 11
Total size : 234.265 MB
