{
    "cms:/store/mc/Run3Summer23BPixNanoAODv12/NMSSM_XtoYHto4B_MX-500_MY-95_TuneCP5_13p6TeV_madgraph-pythia8/NANOAODSIM/130X_mcRun3_2023_realistic_postBPix_v6-v2/2560000/12004d9e-6a75-4dd2-9f65-afee3f96708b.root": [
        "T2_CH_CSCS: davs://storage01.lcg.cscs.ch:2880/pnfs/lcg.cscs.ch/cms/trivcat/store/mc/Run3Summer23BPixNanoAODv12/NMSSM_XtoYHto4B_MX-500_MY-95_TuneCP5_13p6TeV_madgraph-pythia8/NANOAODSIM/130X_mcRun3_2023_realistic_postBPix_v6-v2/2560000/12004d9e-6a75-4dd2-9f65-afee3f96708b.root",
        "T2_CH_CERN: davs://eoscms.cern.ch:443/eos/cms/store/mc/Run3Summer23BPixNanoAODv12/NMSSM_XtoYHto4B_MX-500_MY-95_TuneCP5_13p6TeV_madgraph-pythia8/NANOAODSIM/130X_mcRun3_2023_realistic_postBPix_v6-v2/2560000/12004d9e-6a75-4dd2-9f65-afee3f96708b.root",
        "T2_US_UCSD: davs://redirector.t2.ucsd.edu:1095/store/mc/Run3Summer23BPixNanoAODv12/NMSSM_XtoYHto4B_MX-500_MY-95_TuneCP5_13p6TeV_madgraph-pythia8/NANOAODSIM/130X_mcRun3_2023_realistic_postBPix_v6-v2/2560000/12004d9e-6a75-4dd2-9f65-afee3f96708b.root",
        "T1_US_FNAL_Tape_Test: davs://cmstnvm1.fnal.gov:2880/store/mc/Run3Summer23BPixNanoAODv12/NMSSM_XtoYHto4B_MX-500_MY-95_TuneCP5_13p6TeV_madgraph-pythia8/NANOAODSIM/130X_mcRun3_2023_realistic_postBPix_v6-v2/2560000/12004d9e-6a75-4dd2-9f65-afee3f96708b.root",
        "T2_IT_Pisa: davs://stwebdav.pi.infn.it:8443/cms/store/mc/Run3Summer23BPixNanoAODv12/NMSSM_XtoYHto4B_MX-500_MY-95_TuneCP5_13p6TeV_madgraph-pythia8/NANOAODSIM/130X_mcRun3_2023_realistic_postBPix_v6-v2/2560000/12004d9e-6a75-4dd2-9f65-afee3f96708b.root",
        "T2_US_Purdue: davs://eos.cms.rcac.purdue.edu:9000/store/mc/Run3Summer23BPixNanoAODv12/NMSSM_XtoYHto4B_MX-500_MY-95_TuneCP5_13p6TeV_madgraph-pythia8/NANOAODSIM/130X_mcRun3_2023_realistic_postBPix_v6-v2/2560000/12004d9e-6a75-4dd2-9f65-afee3f96708b.root",
        "T1_RU_JINR_Disk: davs://se-wbdv.jinr-t1.ru:2880/pnfs/jinr-t1.ru/data/cms/store/mc/Run3Summer23BPixNanoAODv12/NMSSM_XtoYHto4B_MX-500_MY-95_TuneCP5_13p6TeV_madgraph-pythia8/NANOAODSIM/130X_mcRun3_2023_realistic_postBPix_v6-v2/2560000/12004d9e-6a75-4dd2-9f65-afee3f96708b.root",
        "T2_US_MIT_Tape: davs://dtn20.nese.mghpcc.org:443/store/mc/Run3Summer23BPixNanoAODv12/NMSSM_XtoYHto4B_MX-500_MY-95_TuneCP5_13p6TeV_madgraph-pythia8/NANOAODSIM/130X_mcRun3_2023_realistic_postBPix_v6-v2/2560000/12004d9e-6a75-4dd2-9f65-afee3f96708b.root"
    ],
    "cms:/store/mc/Run3Summer23BPixNanoAODv12/NMSSM_XtoYHto4B_MX-500_MY-95_TuneCP5_13p6TeV_madgraph-pythia8/NANOAODSIM/130X_mcRun3_2023_realistic_postBPix_v6-v2/2560000/d2243e54-73f5-440a-9a83-9732e1ec5b58.root": [
        "T2_CH_CSCS: davs://storage01.lcg.cscs.ch:2880/pnfs/lcg.cscs.ch/cms/trivcat/store/mc/Run3Summer23BPixNanoAODv12/NMSSM_XtoYHto4B_MX-500_MY-95_TuneCP5_13p6TeV_madgraph-pythia8/NANOAODSIM/130X_mcRun3_2023_realistic_postBPix_v6-v2/2560000/d2243e54-73f5-440a-9a83-9732e1ec5b58.root",
        "T2_CH_CERN: davs://eoscms.cern.ch:443/eos/cms/store/mc/Run3Summer23BPixNanoAODv12/NMSSM_XtoYHto4B_MX-500_MY-95_TuneCP5_13p6TeV_madgraph-pythia8/NANOAODSIM/130X_mcRun3_2023_realistic_postBPix_v6-v2/2560000/d2243e54-73f5-440a-9a83-9732e1ec5b58.root",
        "T2_PL_Swierk: davs://se.cis.gov.pl:2880/grid/cms/store/mc/Run3Summer23BPixNanoAODv12/NMSSM_XtoYHto4B_MX-500_MY-95_TuneCP5_13p6TeV_madgraph-pythia8/NANOAODSIM/130X_mcRun3_2023_realistic_postBPix_v6-v2/2560000/d2243e54-73f5-440a-9a83-9732e1ec5b58.root",
        "T2_US_UCSD: davs://redirector.t2.ucsd.edu:1095/store/mc/Run3Summer23BPixNanoAODv12/NMSSM_XtoYHto4B_MX-500_MY-95_TuneCP5_13p6TeV_madgraph-pythia8/NANOAODSIM/130X_mcRun3_2023_realistic_postBPix_v6-v2/2560000/d2243e54-73f5-440a-9a83-9732e1ec5b58.root",
        "T1_ES_PIC_Disk: davs://webdav-cms.pic.es:8459/pnfs/pic.es/data/cms/disk/store/mc/Run3Summer23BPixNanoAODv12/NMSSM_XtoYHto4B_MX-500_MY-95_TuneCP5_13p6TeV_madgraph-pythia8/NANOAODSIM/130X_mcRun3_2023_realistic_postBPix_v6-v2/2560000/d2243e54-73f5-440a-9a83-9732e1ec5b58.root",
        "T1_US_FNAL_Tape_Test: davs://cmstnvm1.fnal.gov:2880/store/mc/Run3Summer23BPixNanoAODv12/NMSSM_XtoYHto4B_MX-500_MY-95_TuneCP5_13p6TeV_madgraph-pythia8/NANOAODSIM/130X_mcRun3_2023_realistic_postBPix_v6-v2/2560000/d2243e54-73f5-440a-9a83-9732e1ec5b58.root",
        "T2_US_Purdue: davs://eos.cms.rcac.purdue.edu:9000/store/mc/Run3Summer23BPixNanoAODv12/NMSSM_XtoYHto4B_MX-500_MY-95_TuneCP5_13p6TeV_madgraph-pythia8/NANOAODSIM/130X_mcRun3_2023_realistic_postBPix_v6-v2/2560000/d2243e54-73f5-440a-9a83-9732e1ec5b58.root",
        "T1_RU_JINR_Disk: davs://se-wbdv.jinr-t1.ru:2880/pnfs/jinr-t1.ru/data/cms/store/mc/Run3Summer23BPixNanoAODv12/NMSSM_XtoYHto4B_MX-500_MY-95_TuneCP5_13p6TeV_madgraph-pythia8/NANOAODSIM/130X_mcRun3_2023_realistic_postBPix_v6-v2/2560000/d2243e54-73f5-440a-9a83-9732e1ec5b58.root",
        "T2_US_MIT_Tape: davs://dtn20.nese.mghpcc.org:443/store/mc/Run3Summer23BPixNanoAODv12/NMSSM_XtoYHto4B_MX-500_MY-95_TuneCP5_13p6TeV_madgraph-pythia8/NANOAODSIM/130X_mcRun3_2023_realistic_postBPix_v6-v2/2560000/d2243e54-73f5-440a-9a83-9732e1ec5b58.root"
    ],
    "cms:/store/mc/Run3Summer23BPixNanoAODv12/NMSSM_XtoYHto4B_MX-500_MY-95_TuneCP5_13p6TeV_madgraph-pythia8/NANOAODSIM/130X_mcRun3_2023_realistic_postBPix_v6-v2/2560000/ec67f718-7392-4c22-b83a-d64809721f91.root": [
        "T2_CH_CSCS: davs://storage01.lcg.cscs.ch:2880/pnfs/lcg.cscs.ch/cms/trivcat/store/mc/Run3Summer23BPixNanoAODv12/NMSSM_XtoYHto4B_MX-500_MY-95_TuneCP5_13p6TeV_madgraph-pythia8/NANOAODSIM/130X_mcRun3_2023_realistic_postBPix_v6-v2/2560000/ec67f718-7392-4c22-b83a-d64809721f91.root",
        "T2_CH_CERN: davs://eoscms.cern.ch:443/eos/cms/store/mc/Run3Summer23BPixNanoAODv12/NMSSM_XtoYHto4B_MX-500_MY-95_TuneCP5_13p6TeV_madgraph-pythia8/NANOAODSIM/130X_mcRun3_2023_realistic_postBPix_v6-v2/2560000/ec67f718-7392-4c22-b83a-d64809721f91.root",
        "T2_US_UCSD: davs://redirector.t2.ucsd.edu:1095/store/mc/Run3Summer23BPixNanoAODv12/NMSSM_XtoYHto4B_MX-500_MY-95_TuneCP5_13p6TeV_madgraph-pythia8/NANOAODSIM/130X_mcRun3_2023_realistic_postBPix_v6-v2/2560000/ec67f718-7392-4c22-b83a-d64809721f91.root",
        "T2_ES_IFCA: davs://webdav.ifca.es:1094/store/mc/Run3Summer23BPixNanoAODv12/NMSSM_XtoYHto4B_MX-500_MY-95_TuneCP5_13p6TeV_madgraph-pythia8/NANOAODSIM/130X_mcRun3_2023_realistic_postBPix_v6-v2/2560000/ec67f718-7392-4c22-b83a-d64809721f91.root",
        "T1_US_FNAL_Tape_Test: davs://cmstnvm1.fnal.gov:2880/store/mc/Run3Summer23BPixNanoAODv12/NMSSM_XtoYHto4B_MX-500_MY-95_TuneCP5_13p6TeV_madgraph-pythia8/NANOAODSIM/130X_mcRun3_2023_realistic_postBPix_v6-v2/2560000/ec67f718-7392-4c22-b83a-d64809721f91.root",
        "T2_US_Purdue: davs://eos.cms.rcac.purdue.edu:9000/store/mc/Run3Summer23BPixNanoAODv12/NMSSM_XtoYHto4B_MX-500_MY-95_TuneCP5_13p6TeV_madgraph-pythia8/NANOAODSIM/130X_mcRun3_2023_realistic_postBPix_v6-v2/2560000/ec67f718-7392-4c22-b83a-d64809721f91.root",
        "T1_RU_JINR_Disk: davs://se-wbdv.jinr-t1.ru:2880/pnfs/jinr-t1.ru/data/cms/store/mc/Run3Summer23BPixNanoAODv12/NMSSM_XtoYHto4B_MX-500_MY-95_TuneCP5_13p6TeV_madgraph-pythia8/NANOAODSIM/130X_mcRun3_2023_realistic_postBPix_v6-v2/2560000/ec67f718-7392-4c22-b83a-d64809721f91.root",
        "T2_US_MIT_Tape: davs://dtn20.nese.mghpcc.org:443/store/mc/Run3Summer23BPixNanoAODv12/NMSSM_XtoYHto4B_MX-500_MY-95_TuneCP5_13p6TeV_madgraph-pythia8/NANOAODSIM/130X_mcRun3_2023_realistic_postBPix_v6-v2/2560000/ec67f718-7392-4c22-b83a-d64809721f91.root"
    ],
    "cms:/store/mc/Run3Summer23BPixNanoAODv12/NMSSM_XtoYHto4B_MX-500_MY-95_TuneCP5_13p6TeV_madgraph-pythia8/NANOAODSIM/130X_mcRun3_2023_realistic_postBPix_v6-v2/2560000/4ca8f997-6efc-48d4-92c8-b7a33f6f3acc.root": [
        "T2_CH_CSCS: davs://storage01.lcg.cscs.ch:2880/pnfs/lcg.cscs.ch/cms/trivcat/store/mc/Run3Summer23BPixNanoAODv12/NMSSM_XtoYHto4B_MX-500_MY-95_TuneCP5_13p6TeV_madgraph-pythia8/NANOAODSIM/130X_mcRun3_2023_realistic_postBPix_v6-v2/2560000/4ca8f997-6efc-48d4-92c8-b7a33f6f3acc.root",
        "T2_CH_CERN: davs://eoscms.cern.ch:443/eos/cms/store/mc/Run3Summer23BPixNanoAODv12/NMSSM_XtoYHto4B_MX-500_MY-95_TuneCP5_13p6TeV_madgraph-pythia8/NANOAODSIM/130X_mcRun3_2023_realistic_postBPix_v6-v2/2560000/4ca8f997-6efc-48d4-92c8-b7a33f6f3acc.root",
        "T2_US_UCSD: davs://redirector.t2.ucsd.edu:1095/store/mc/Run3Summer23BPixNanoAODv12/NMSSM_XtoYHto4B_MX-500_MY-95_TuneCP5_13p6TeV_madgraph-pythia8/NANOAODSIM/130X_mcRun3_2023_realistic_postBPix_v6-v2/2560000/4ca8f997-6efc-48d4-92c8-b7a33f6f3acc.root",
        "T1_ES_PIC_Disk: davs://webdav-cms.pic.es:8459/pnfs/pic.es/data/cms/disk/store/mc/Run3Summer23BPixNanoAODv12/NMSSM_XtoYHto4B_MX-500_MY-95_TuneCP5_13p6TeV_madgraph-pythia8/NANOAODSIM/130X_mcRun3_2023_realistic_postBPix_v6-v2/2560000/4ca8f997-6efc-48d4-92c8-b7a33f6f3acc.root",
        "T1_US_FNAL_Tape_Test: davs://cmstnvm1.fnal.gov:2880/store/mc/Run3Summer23BPixNanoAODv12/NMSSM_XtoYHto4B_MX-500_MY-95_TuneCP5_13p6TeV_madgraph-pythia8/NANOAODSIM/130X_mcRun3_2023_realistic_postBPix_v6-v2/2560000/4ca8f997-6efc-48d4-92c8-b7a33f6f3acc.root",
        "T2_US_Purdue: davs://eos.cms.rcac.purdue.edu:9000/store/mc/Run3Summer23BPixNanoAODv12/NMSSM_XtoYHto4B_MX-500_MY-95_TuneCP5_13p6TeV_madgraph-pythia8/NANOAODSIM/130X_mcRun3_2023_realistic_postBPix_v6-v2/2560000/4ca8f997-6efc-48d4-92c8-b7a33f6f3acc.root",
        "T1_RU_JINR_Disk: davs://se-wbdv.jinr-t1.ru:2880/pnfs/jinr-t1.ru/data/cms/store/mc/Run3Summer23BPixNanoAODv12/NMSSM_XtoYHto4B_MX-500_MY-95_TuneCP5_13p6TeV_madgraph-pythia8/NANOAODSIM/130X_mcRun3_2023_realistic_postBPix_v6-v2/2560000/4ca8f997-6efc-48d4-92c8-b7a33f6f3acc.root",
        "T2_US_MIT_Tape: davs://dtn20.nese.mghpcc.org:443/store/mc/Run3Summer23BPixNanoAODv12/NMSSM_XtoYHto4B_MX-500_MY-95_TuneCP5_13p6TeV_madgraph-pythia8/NANOAODSIM/130X_mcRun3_2023_realistic_postBPix_v6-v2/2560000/4ca8f997-6efc-48d4-92c8-b7a33f6f3acc.root"
    ],
    "cms:/store/mc/Run3Summer23BPixNanoAODv12/NMSSM_XtoYHto4B_MX-500_MY-95_TuneCP5_13p6TeV_madgraph-pythia8/NANOAODSIM/130X_mcRun3_2023_realistic_postBPix_v6-v2/2560000/88d2160c-4cd4-4882-88ab-d96bc06aff10.root": [
        "T2_CH_CSCS: davs://storage01.lcg.cscs.ch:2880/pnfs/lcg.cscs.ch/cms/trivcat/store/mc/Run3Summer23BPixNanoAODv12/NMSSM_XtoYHto4B_MX-500_MY-95_TuneCP5_13p6TeV_madgraph-pythia8/NANOAODSIM/130X_mcRun3_2023_realistic_postBPix_v6-v2/2560000/88d2160c-4cd4-4882-88ab-d96bc06aff10.root",
        "T2_US_MIT: davs://xrootd.cmsaf.mit.edu:1094/store/mc/Run3Summer23BPixNanoAODv12/NMSSM_XtoYHto4B_MX-500_MY-95_TuneCP5_13p6TeV_madgraph-pythia8/NANOAODSIM/130X_mcRun3_2023_realistic_postBPix_v6-v2/2560000/88d2160c-4cd4-4882-88ab-d96bc06aff10.root",
        "T2_CH_CERN: davs://eoscms.cern.ch:443/eos/cms/store/mc/Run3Summer23BPixNanoAODv12/NMSSM_XtoYHto4B_MX-500_MY-95_TuneCP5_13p6TeV_madgraph-pythia8/NANOAODSIM/130X_mcRun3_2023_realistic_postBPix_v6-v2/2560000/88d2160c-4cd4-4882-88ab-d96bc06aff10.root",
        "T2_US_UCSD: davs://redirector.t2.ucsd.edu:1095/store/mc/Run3Summer23BPixNanoAODv12/NMSSM_XtoYHto4B_MX-500_MY-95_TuneCP5_13p6TeV_madgraph-pythia8/NANOAODSIM/130X_mcRun3_2023_realistic_postBPix_v6-v2/2560000/88d2160c-4cd4-4882-88ab-d96bc06aff10.root",
        "T1_US_FNAL_Tape_Test: davs://cmstnvm1.fnal.gov:2880/store/mc/Run3Summer23BPixNanoAODv12/NMSSM_XtoYHto4B_MX-500_MY-95_TuneCP5_13p6TeV_madgraph-pythia8/NANOAODSIM/130X_mcRun3_2023_realistic_postBPix_v6-v2/2560000/88d2160c-4cd4-4882-88ab-d96bc06aff10.root",
        "T2_US_Purdue: davs://eos.cms.rcac.purdue.edu:9000/store/mc/Run3Summer23BPixNanoAODv12/NMSSM_XtoYHto4B_MX-500_MY-95_TuneCP5_13p6TeV_madgraph-pythia8/NANOAODSIM/130X_mcRun3_2023_realistic_postBPix_v6-v2/2560000/88d2160c-4cd4-4882-88ab-d96bc06aff10.root",
        "T1_RU_JINR_Disk: davs://se-wbdv.jinr-t1.ru:2880/pnfs/jinr-t1.ru/data/cms/store/mc/Run3Summer23BPixNanoAODv12/NMSSM_XtoYHto4B_MX-500_MY-95_TuneCP5_13p6TeV_madgraph-pythia8/NANOAODSIM/130X_mcRun3_2023_realistic_postBPix_v6-v2/2560000/88d2160c-4cd4-4882-88ab-d96bc06aff10.root",
        "T2_ES_CIEMAT: davs://srm.ciemat.es:2880/pnfs/ciemat.es/data/cms/prod/store/mc/Run3Summer23BPixNanoAODv12/NMSSM_XtoYHto4B_MX-500_MY-95_TuneCP5_13p6TeV_madgraph-pythia8/NANOAODSIM/130X_mcRun3_2023_realistic_postBPix_v6-v2/2560000/88d2160c-4cd4-4882-88ab-d96bc06aff10.root",
        "T2_US_MIT_Tape: davs://dtn20.nese.mghpcc.org:443/store/mc/Run3Summer23BPixNanoAODv12/NMSSM_XtoYHto4B_MX-500_MY-95_TuneCP5_13p6TeV_madgraph-pythia8/NANOAODSIM/130X_mcRun3_2023_realistic_postBPix_v6-v2/2560000/88d2160c-4cd4-4882-88ab-d96bc06aff10.root"
    ],
    "cms:/store/mc/Run3Summer23BPixNanoAODv12/NMSSM_XtoYHto4B_MX-500_MY-95_TuneCP5_13p6TeV_madgraph-pythia8/NANOAODSIM/130X_mcRun3_2023_realistic_postBPix_v6-v2/2560000/86bc3913-bf05-485f-932a-4a2043263aab.root": [
        "T2_CH_CSCS: davs://storage01.lcg.cscs.ch:2880/pnfs/lcg.cscs.ch/cms/trivcat/store/mc/Run3Summer23BPixNanoAODv12/NMSSM_XtoYHto4B_MX-500_MY-95_TuneCP5_13p6TeV_madgraph-pythia8/NANOAODSIM/130X_mcRun3_2023_realistic_postBPix_v6-v2/2560000/86bc3913-bf05-485f-932a-4a2043263aab.root",
        "T2_PT_NCG_Lisbon: davs://gftp03.ncg.ingrid.pt:8443/cms/store/mc/Run3Summer23BPixNanoAODv12/NMSSM_XtoYHto4B_MX-500_MY-95_TuneCP5_13p6TeV_madgraph-pythia8/NANOAODSIM/130X_mcRun3_2023_realistic_postBPix_v6-v2/2560000/86bc3913-bf05-485f-932a-4a2043263aab.root",
        "T2_CH_CERN: davs://eoscms.cern.ch:443/eos/cms/store/mc/Run3Summer23BPixNanoAODv12/NMSSM_XtoYHto4B_MX-500_MY-95_TuneCP5_13p6TeV_madgraph-pythia8/NANOAODSIM/130X_mcRun3_2023_realistic_postBPix_v6-v2/2560000/86bc3913-bf05-485f-932a-4a2043263aab.root",
        "T3_US_Colorado: davs://hepxrd01-colorado.sites.opensciencegrid.org:1094/store/mc/Run3Summer23BPixNanoAODv12/NMSSM_XtoYHto4B_MX-500_MY-95_TuneCP5_13p6TeV_madgraph-pythia8/NANOAODSIM/130X_mcRun3_2023_realistic_postBPix_v6-v2/2560000/86bc3913-bf05-485f-932a-4a2043263aab.root",
        "T2_US_UCSD: davs://redirector.t2.ucsd.edu:1095/store/mc/Run3Summer23BPixNanoAODv12/NMSSM_XtoYHto4B_MX-500_MY-95_TuneCP5_13p6TeV_madgraph-pythia8/NANOAODSIM/130X_mcRun3_2023_realistic_postBPix_v6-v2/2560000/86bc3913-bf05-485f-932a-4a2043263aab.root",
        "T1_US_FNAL_Tape_Test: davs://cmstnvm1.fnal.gov:2880/store/mc/Run3Summer23BPixNanoAODv12/NMSSM_XtoYHto4B_MX-500_MY-95_TuneCP5_13p6TeV_madgraph-pythia8/NANOAODSIM/130X_mcRun3_2023_realistic_postBPix_v6-v2/2560000/86bc3913-bf05-485f-932a-4a2043263aab.root",
        "T2_US_Purdue: davs://eos.cms.rcac.purdue.edu:9000/store/mc/Run3Summer23BPixNanoAODv12/NMSSM_XtoYHto4B_MX-500_MY-95_TuneCP5_13p6TeV_madgraph-pythia8/NANOAODSIM/130X_mcRun3_2023_realistic_postBPix_v6-v2/2560000/86bc3913-bf05-485f-932a-4a2043263aab.root",
        "T1_RU_JINR_Disk: davs://se-wbdv.jinr-t1.ru:2880/pnfs/jinr-t1.ru/data/cms/store/mc/Run3Summer23BPixNanoAODv12/NMSSM_XtoYHto4B_MX-500_MY-95_TuneCP5_13p6TeV_madgraph-pythia8/NANOAODSIM/130X_mcRun3_2023_realistic_postBPix_v6-v2/2560000/86bc3913-bf05-485f-932a-4a2043263aab.root",
        "T2_US_MIT_Tape: davs://dtn20.nese.mghpcc.org:443/store/mc/Run3Summer23BPixNanoAODv12/NMSSM_XtoYHto4B_MX-500_MY-95_TuneCP5_13p6TeV_madgraph-pythia8/NANOAODSIM/130X_mcRun3_2023_realistic_postBPix_v6-v2/2560000/86bc3913-bf05-485f-932a-4a2043263aab.root"
    ]
}