{
    "cms:/store/mc/Run3Summer23BPixNanoAODv12/NMSSM_XtoYHto4B_MX-2500_MY-150_TuneCP5_13p6TeV_madgraph-pythia8/NANOAODSIM/130X_mcRun3_2023_realistic_postBPix_v6-v2/2550000/18a477b7-9be3-4c13-9c84-198262168fc1.root": [
        "T1_US_FNAL_Disk: davs://cmsdcadisk.fnal.gov:2880/dcache/uscmsdisk/store/mc/Run3Summer23BPixNanoAODv12/NMSSM_XtoYHto4B_MX-2500_MY-150_TuneCP5_13p6TeV_madgraph-pythia8/NANOAODSIM/130X_mcRun3_2023_realistic_postBPix_v6-v2/2550000/18a477b7-9be3-4c13-9c84-198262168fc1.root",
        "T2_PL_Swierk: davs://se.cis.gov.pl:2880/grid/cms/store/mc/Run3Summer23BPixNanoAODv12/NMSSM_XtoYHto4B_MX-2500_MY-150_TuneCP5_13p6TeV_madgraph-pythia8/NANOAODSIM/130X_mcRun3_2023_realistic_postBPix_v6-v2/2550000/18a477b7-9be3-4c13-9c84-198262168fc1.root",
        "T1_UK_RAL_Disk: davs://rdr.echo.stfc.ac.uk:1094/store/mc/Run3Summer23BPixNanoAODv12/NMSSM_XtoYHto4B_MX-2500_MY-150_TuneCP5_13p6TeV_madgraph-pythia8/NANOAODSIM/130X_mcRun3_2023_realistic_postBPix_v6-v2/2550000/18a477b7-9be3-4c13-9c84-198262168fc1.root",
        "T1_US_FNAL_Tape_Test: davs://cmstnvm1.fnal.gov:2880/store/mc/Run3Summer23BPixNanoAODv12/NMSSM_XtoYHto4B_MX-2500_MY-150_TuneCP5_13p6TeV_madgraph-pythia8/NANOAODSIM/130X_mcRun3_2023_realistic_postBPix_v6-v2/2550000/18a477b7-9be3-4c13-9c84-198262168fc1.root",
        "T2_US_Wisconsin: davs://cmsxrootd.hep.wisc.edu:1094/store/mc/Run3Summer23BPixNanoAODv12/NMSSM_XtoYHto4B_MX-2500_MY-150_TuneCP5_13p6TeV_madgraph-pythia8/NANOAODSIM/130X_mcRun3_2023_realistic_postBPix_v6-v2/2550000/18a477b7-9be3-4c13-9c84-198262168fc1.root",
        "T1_IT_CNAF_Tape: davs://xfer-tape-cms.cr.cnaf.infn.it:8443/cmstape/store/mc/Run3Summer23BPixNanoAODv12/NMSSM_XtoYHto4B_MX-2500_MY-150_TuneCP5_13p6TeV_madgraph-pythia8/NANOAODSIM/130X_mcRun3_2023_realistic_postBPix_v6-v2/2550000/18a477b7-9be3-4c13-9c84-198262168fc1.root",
        "T2_US_Caltech: davs://k8s-redir-stageout.ultralight.org:1094/store/mc/Run3Summer23BPixNanoAODv12/NMSSM_XtoYHto4B_MX-2500_MY-150_TuneCP5_13p6TeV_madgraph-pythia8/NANOAODSIM/130X_mcRun3_2023_realistic_postBPix_v6-v2/2550000/18a477b7-9be3-4c13-9c84-198262168fc1.root",
        "T2_UK_London_IC: davs://gfe02.grid.hep.ph.ic.ac.uk:2880/pnfs/hep.ph.ic.ac.uk/data/cms/store/mc/Run3Summer23BPixNanoAODv12/NMSSM_XtoYHto4B_MX-2500_MY-150_TuneCP5_13p6TeV_madgraph-pythia8/NANOAODSIM/130X_mcRun3_2023_realistic_postBPix_v6-v2/2550000/18a477b7-9be3-4c13-9c84-198262168fc1.root",
        "T1_IT_CNAF_Disk: davs://xfer-cms.cr.cnaf.infn.it:8443/cmsdisk/store/mc/Run3Summer23BPixNanoAODv12/NMSSM_XtoYHto4B_MX-2500_MY-150_TuneCP5_13p6TeV_madgraph-pythia8/NANOAODSIM/130X_mcRun3_2023_realistic_postBPix_v6-v2/2550000/18a477b7-9be3-4c13-9c84-198262168fc1.root"
    ],
    "cms:/store/mc/Run3Summer23BPixNanoAODv12/NMSSM_XtoYHto4B_MX-2500_MY-150_TuneCP5_13p6TeV_madgraph-pythia8/NANOAODSIM/130X_mcRun3_2023_realistic_postBPix_v6-v2/2550000/11fbf5d7-a8b6-4ced-826a-d482f880681a.root": [
        "T1_US_FNAL_Disk: davs://cmsdcadisk.fnal.gov:2880/dcache/uscmsdisk/store/mc/Run3Summer23BPixNanoAODv12/NMSSM_XtoYHto4B_MX-2500_MY-150_TuneCP5_13p6TeV_madgraph-pythia8/NANOAODSIM/130X_mcRun3_2023_realistic_postBPix_v6-v2/2550000/11fbf5d7-a8b6-4ced-826a-d482f880681a.root",
        "T1_DE_KIT_Disk: davs://cmsdcache-kit-disk.gridka.de:2880/pnfs/gridka.de/cms/disk-only/store/mc/Run3Summer23BPixNanoAODv12/NMSSM_XtoYHto4B_MX-2500_MY-150_TuneCP5_13p6TeV_madgraph-pythia8/NANOAODSIM/130X_mcRun3_2023_realistic_postBPix_v6-v2/2550000/11fbf5d7-a8b6-4ced-826a-d482f880681a.root",
        "T2_PL_Swierk: davs://se.cis.gov.pl:2880/grid/cms/store/mc/Run3Summer23BPixNanoAODv12/NMSSM_XtoYHto4B_MX-2500_MY-150_TuneCP5_13p6TeV_madgraph-pythia8/NANOAODSIM/130X_mcRun3_2023_realistic_postBPix_v6-v2/2550000/11fbf5d7-a8b6-4ced-826a-d482f880681a.root",
        "T1_UK_RAL_Disk: davs://rdr.echo.stfc.ac.uk:1094/store/mc/Run3Summer23BPixNanoAODv12/NMSSM_XtoYHto4B_MX-2500_MY-150_TuneCP5_13p6TeV_madgraph-pythia8/NANOAODSIM/130X_mcRun3_2023_realistic_postBPix_v6-v2/2550000/11fbf5d7-a8b6-4ced-826a-d482f880681a.root",
        "T1_ES_PIC_Disk: davs://webdav-cms.pic.es:8459/pnfs/pic.es/data/cms/disk/store/mc/Run3Summer23BPixNanoAODv12/NMSSM_XtoYHto4B_MX-2500_MY-150_TuneCP5_13p6TeV_madgraph-pythia8/NANOAODSIM/130X_mcRun3_2023_realistic_postBPix_v6-v2/2550000/11fbf5d7-a8b6-4ced-826a-d482f880681a.root",
        "T1_US_FNAL_Tape_Test: davs://cmstnvm1.fnal.gov:2880/store/mc/Run3Summer23BPixNanoAODv12/NMSSM_XtoYHto4B_MX-2500_MY-150_TuneCP5_13p6TeV_madgraph-pythia8/NANOAODSIM/130X_mcRun3_2023_realistic_postBPix_v6-v2/2550000/11fbf5d7-a8b6-4ced-826a-d482f880681a.root",
        "T2_US_Wisconsin: davs://cmsxrootd.hep.wisc.edu:1094/store/mc/Run3Summer23BPixNanoAODv12/NMSSM_XtoYHto4B_MX-2500_MY-150_TuneCP5_13p6TeV_madgraph-pythia8/NANOAODSIM/130X_mcRun3_2023_realistic_postBPix_v6-v2/2550000/11fbf5d7-a8b6-4ced-826a-d482f880681a.root",
        "T2_UK_London_IC: davs://gfe02.grid.hep.ph.ic.ac.uk:2880/pnfs/hep.ph.ic.ac.uk/data/cms/store/mc/Run3Summer23BPixNanoAODv12/NMSSM_XtoYHto4B_MX-2500_MY-150_TuneCP5_13p6TeV_madgraph-pythia8/NANOAODSIM/130X_mcRun3_2023_realistic_postBPix_v6-v2/2550000/11fbf5d7-a8b6-4ced-826a-d482f880681a.root",
        "T1_IT_CNAF_Disk: davs://xfer-cms.cr.cnaf.infn.it:8443/cmsdisk/store/mc/Run3Summer23BPixNanoAODv12/NMSSM_XtoYHto4B_MX-2500_MY-150_TuneCP5_13p6TeV_madgraph-pythia8/NANOAODSIM/130X_mcRun3_2023_realistic_postBPix_v6-v2/2550000/11fbf5d7-a8b6-4ced-826a-d482f880681a.root"
    ],
    "cms:/store/mc/Run3Summer23BPixNanoAODv12/NMSSM_XtoYHto4B_MX-2500_MY-150_TuneCP5_13p6TeV_madgraph-pythia8/NANOAODSIM/130X_mcRun3_2023_realistic_postBPix_v6-v2/2550000/459306e6-a4c8-4d0b-b498-7fe0a20739d4.root": [
        "T1_US_FNAL_Disk: davs://cmsdcadisk.fnal.gov:2880/dcache/uscmsdisk/store/mc/Run3Summer23BPixNanoAODv12/NMSSM_XtoYHto4B_MX-2500_MY-150_TuneCP5_13p6TeV_madgraph-pythia8/NANOAODSIM/130X_mcRun3_2023_realistic_postBPix_v6-v2/2550000/459306e6-a4c8-4d0b-b498-7fe0a20739d4.root",
        "T2_PL_Swierk: davs://se.cis.gov.pl:2880/grid/cms/store/mc/Run3Summer23BPixNanoAODv12/NMSSM_XtoYHto4B_MX-2500_MY-150_TuneCP5_13p6TeV_madgraph-pythia8/NANOAODSIM/130X_mcRun3_2023_realistic_postBPix_v6-v2/2550000/459306e6-a4c8-4d0b-b498-7fe0a20739d4.root",
        "T1_UK_RAL_Disk: davs://rdr.echo.stfc.ac.uk:1094/store/mc/Run3Summer23BPixNanoAODv12/NMSSM_XtoYHto4B_MX-2500_MY-150_TuneCP5_13p6TeV_madgraph-pythia8/NANOAODSIM/130X_mcRun3_2023_realistic_postBPix_v6-v2/2550000/459306e6-a4c8-4d0b-b498-7fe0a20739d4.root",
        "T1_US_FNAL_Tape_Test: davs://cmstnvm1.fnal.gov:2880/store/mc/Run3Summer23BPixNanoAODv12/NMSSM_XtoYHto4B_MX-2500_MY-150_TuneCP5_13p6TeV_madgraph-pythia8/NANOAODSIM/130X_mcRun3_2023_realistic_postBPix_v6-v2/2550000/459306e6-a4c8-4d0b-b498-7fe0a20739d4.root",
        "T2_US_Wisconsin: davs://cmsxrootd.hep.wisc.edu:1094/store/mc/Run3Summer23BPixNanoAODv12/NMSSM_XtoYHto4B_MX-2500_MY-150_TuneCP5_13p6TeV_madgraph-pythia8/NANOAODSIM/130X_mcRun3_2023_realistic_postBPix_v6-v2/2550000/459306e6-a4c8-4d0b-b498-7fe0a20739d4.root",
        "T2_UK_London_IC: davs://gfe02.grid.hep.ph.ic.ac.uk:2880/pnfs/hep.ph.ic.ac.uk/data/cms/store/mc/Run3Summer23BPixNanoAODv12/NMSSM_XtoYHto4B_MX-2500_MY-150_TuneCP5_13p6TeV_madgraph-pythia8/NANOAODSIM/130X_mcRun3_2023_realistic_postBPix_v6-v2/2550000/459306e6-a4c8-4d0b-b498-7fe0a20739d4.root",
        "T1_IT_CNAF_Disk: davs://xfer-cms.cr.cnaf.infn.it:8443/cmsdisk/store/mc/Run3Summer23BPixNanoAODv12/NMSSM_XtoYHto4B_MX-2500_MY-150_TuneCP5_13p6TeV_madgraph-pythia8/NANOAODSIM/130X_mcRun3_2023_realistic_postBPix_v6-v2/2550000/459306e6-a4c8-4d0b-b498-7fe0a20739d4.root"
    ],
    "cms:/store/mc/Run3Summer23BPixNanoAODv12/NMSSM_XtoYHto4B_MX-2500_MY-150_TuneCP5_13p6TeV_madgraph-pythia8/NANOAODSIM/130X_mcRun3_2023_realistic_postBPix_v6-v2/2550000/7f09fe7a-46d2-433a-aba8-3d1ead6a204c.root": [
        "T1_US_FNAL_Disk: davs://cmsdcadisk.fnal.gov:2880/dcache/uscmsdisk/store/mc/Run3Summer23BPixNanoAODv12/NMSSM_XtoYHto4B_MX-2500_MY-150_TuneCP5_13p6TeV_madgraph-pythia8/NANOAODSIM/130X_mcRun3_2023_realistic_postBPix_v6-v2/2550000/7f09fe7a-46d2-433a-aba8-3d1ead6a204c.root",
        "T2_CH_CERN: davs://eoscms.cern.ch:443/eos/cms/store/mc/Run3Summer23BPixNanoAODv12/NMSSM_XtoYHto4B_MX-2500_MY-150_TuneCP5_13p6TeV_madgraph-pythia8/NANOAODSIM/130X_mcRun3_2023_realistic_postBPix_v6-v2/2550000/7f09fe7a-46d2-433a-aba8-3d1ead6a204c.root",
        "T2_PL_Swierk: davs://se.cis.gov.pl:2880/grid/cms/store/mc/Run3Summer23BPixNanoAODv12/NMSSM_XtoYHto4B_MX-2500_MY-150_TuneCP5_13p6TeV_madgraph-pythia8/NANOAODSIM/130X_mcRun3_2023_realistic_postBPix_v6-v2/2550000/7f09fe7a-46d2-433a-aba8-3d1ead6a204c.root",
        "T1_UK_RAL_Disk: davs://rdr.echo.stfc.ac.uk:1094/store/mc/Run3Summer23BPixNanoAODv12/NMSSM_XtoYHto4B_MX-2500_MY-150_TuneCP5_13p6TeV_madgraph-pythia8/NANOAODSIM/130X_mcRun3_2023_realistic_postBPix_v6-v2/2550000/7f09fe7a-46d2-433a-aba8-3d1ead6a204c.root",
        "T1_US_FNAL_Tape_Test: davs://cmstnvm1.fnal.gov:2880/store/mc/Run3Summer23BPixNanoAODv12/NMSSM_XtoYHto4B_MX-2500_MY-150_TuneCP5_13p6TeV_madgraph-pythia8/NANOAODSIM/130X_mcRun3_2023_realistic_postBPix_v6-v2/2550000/7f09fe7a-46d2-433a-aba8-3d1ead6a204c.root",
        "T2_US_Wisconsin: davs://cmsxrootd.hep.wisc.edu:1094/store/mc/Run3Summer23BPixNanoAODv12/NMSSM_XtoYHto4B_MX-2500_MY-150_TuneCP5_13p6TeV_madgraph-pythia8/NANOAODSIM/130X_mcRun3_2023_realistic_postBPix_v6-v2/2550000/7f09fe7a-46d2-433a-aba8-3d1ead6a204c.root",
        "T1_IT_CNAF_Tape: davs://xfer-tape-cms.cr.cnaf.infn.it:8443/cmstape/store/mc/Run3Summer23BPixNanoAODv12/NMSSM_XtoYHto4B_MX-2500_MY-150_TuneCP5_13p6TeV_madgraph-pythia8/NANOAODSIM/130X_mcRun3_2023_realistic_postBPix_v6-v2/2550000/7f09fe7a-46d2-433a-aba8-3d1ead6a204c.root",
        "T2_UK_London_IC: davs://gfe02.grid.hep.ph.ic.ac.uk:2880/pnfs/hep.ph.ic.ac.uk/data/cms/store/mc/Run3Summer23BPixNanoAODv12/NMSSM_XtoYHto4B_MX-2500_MY-150_TuneCP5_13p6TeV_madgraph-pythia8/NANOAODSIM/130X_mcRun3_2023_realistic_postBPix_v6-v2/2550000/7f09fe7a-46d2-433a-aba8-3d1ead6a204c.root",
        "T1_IT_CNAF_Disk: davs://xfer-cms.cr.cnaf.infn.it:8443/cmsdisk/store/mc/Run3Summer23BPixNanoAODv12/NMSSM_XtoYHto4B_MX-2500_MY-150_TuneCP5_13p6TeV_madgraph-pythia8/NANOAODSIM/130X_mcRun3_2023_realistic_postBPix_v6-v2/2550000/7f09fe7a-46d2-433a-aba8-3d1ead6a204c.root"
    ],
    "cms:/store/mc/Run3Summer23BPixNanoAODv12/NMSSM_XtoYHto4B_MX-2500_MY-150_TuneCP5_13p6TeV_madgraph-pythia8/NANOAODSIM/130X_mcRun3_2023_realistic_postBPix_v6-v2/2550000/e285e034-6c56-4944-8919-a33da9ccc13f.root": [
        "T1_US_FNAL_Disk: davs://cmsdcadisk.fnal.gov:2880/dcache/uscmsdisk/store/mc/Run3Summer23BPixNanoAODv12/NMSSM_XtoYHto4B_MX-2500_MY-150_TuneCP5_13p6TeV_madgraph-pythia8/NANOAODSIM/130X_mcRun3_2023_realistic_postBPix_v6-v2/2550000/e285e034-6c56-4944-8919-a33da9ccc13f.root",
        "T2_PT_NCG_Lisbon: davs://gftp03.ncg.ingrid.pt:8443/cms/store/mc/Run3Summer23BPixNanoAODv12/NMSSM_XtoYHto4B_MX-2500_MY-150_TuneCP5_13p6TeV_madgraph-pythia8/NANOAODSIM/130X_mcRun3_2023_realistic_postBPix_v6-v2/2550000/e285e034-6c56-4944-8919-a33da9ccc13f.root",
        "T2_PL_Swierk: davs://se.cis.gov.pl:2880/grid/cms/store/mc/Run3Summer23BPixNanoAODv12/NMSSM_XtoYHto4B_MX-2500_MY-150_TuneCP5_13p6TeV_madgraph-pythia8/NANOAODSIM/130X_mcRun3_2023_realistic_postBPix_v6-v2/2550000/e285e034-6c56-4944-8919-a33da9ccc13f.root",
        "T1_UK_RAL_Disk: davs://rdr.echo.stfc.ac.uk:1094/store/mc/Run3Summer23BPixNanoAODv12/NMSSM_XtoYHto4B_MX-2500_MY-150_TuneCP5_13p6TeV_madgraph-pythia8/NANOAODSIM/130X_mcRun3_2023_realistic_postBPix_v6-v2/2550000/e285e034-6c56-4944-8919-a33da9ccc13f.root",
        "T1_US_FNAL_Tape_Test: davs://cmstnvm1.fnal.gov:2880/store/mc/Run3Summer23BPixNanoAODv12/NMSSM_XtoYHto4B_MX-2500_MY-150_TuneCP5_13p6TeV_madgraph-pythia8/NANOAODSIM/130X_mcRun3_2023_realistic_postBPix_v6-v2/2550000/e285e034-6c56-4944-8919-a33da9ccc13f.root",
        "T2_US_Wisconsin: davs://cmsxrootd.hep.wisc.edu:1094/store/mc/Run3Summer23BPixNanoAODv12/NMSSM_XtoYHto4B_MX-2500_MY-150_TuneCP5_13p6TeV_madgraph-pythia8/NANOAODSIM/130X_mcRun3_2023_realistic_postBPix_v6-v2/2550000/e285e034-6c56-4944-8919-a33da9ccc13f.root",
        "T1_IT_CNAF_Tape: davs://xfer-tape-cms.cr.cnaf.infn.it:8443/cmstape/store/mc/Run3Summer23BPixNanoAODv12/NMSSM_XtoYHto4B_MX-2500_MY-150_TuneCP5_13p6TeV_madgraph-pythia8/NANOAODSIM/130X_mcRun3_2023_realistic_postBPix_v6-v2/2550000/e285e034-6c56-4944-8919-a33da9ccc13f.root",
        "T2_UK_London_IC: davs://gfe02.grid.hep.ph.ic.ac.uk:2880/pnfs/hep.ph.ic.ac.uk/data/cms/store/mc/Run3Summer23BPixNanoAODv12/NMSSM_XtoYHto4B_MX-2500_MY-150_TuneCP5_13p6TeV_madgraph-pythia8/NANOAODSIM/130X_mcRun3_2023_realistic_postBPix_v6-v2/2550000/e285e034-6c56-4944-8919-a33da9ccc13f.root",
        "T1_IT_CNAF_Disk: davs://xfer-cms.cr.cnaf.infn.it:8443/cmsdisk/store/mc/Run3Summer23BPixNanoAODv12/NMSSM_XtoYHto4B_MX-2500_MY-150_TuneCP5_13p6TeV_madgraph-pythia8/NANOAODSIM/130X_mcRun3_2023_realistic_postBPix_v6-v2/2550000/e285e034-6c56-4944-8919-a33da9ccc13f.root"
    ],
    "cms:/store/mc/Run3Summer23BPixNanoAODv12/NMSSM_XtoYHto4B_MX-2500_MY-150_TuneCP5_13p6TeV_madgraph-pythia8/NANOAODSIM/130X_mcRun3_2023_realistic_postBPix_v6-v2/2550000/c8f0b642-f7bc-4d44-b040-678020371515.root": [
        "T1_US_FNAL_Disk: davs://cmsdcadisk.fnal.gov:2880/dcache/uscmsdisk/store/mc/Run3Summer23BPixNanoAODv12/NMSSM_XtoYHto4B_MX-2500_MY-150_TuneCP5_13p6TeV_madgraph-pythia8/NANOAODSIM/130X_mcRun3_2023_realistic_postBPix_v6-v2/2550000/c8f0b642-f7bc-4d44-b040-678020371515.root",
        "T2_PL_Swierk: davs://se.cis.gov.pl:2880/grid/cms/store/mc/Run3Summer23BPixNanoAODv12/NMSSM_XtoYHto4B_MX-2500_MY-150_TuneCP5_13p6TeV_madgraph-pythia8/NANOAODSIM/130X_mcRun3_2023_realistic_postBPix_v6-v2/2550000/c8f0b642-f7bc-4d44-b040-678020371515.root",
        "T1_UK_RAL_Disk: davs://rdr.echo.stfc.ac.uk:1094/store/mc/Run3Summer23BPixNanoAODv12/NMSSM_XtoYHto4B_MX-2500_MY-150_TuneCP5_13p6TeV_madgraph-pythia8/NANOAODSIM/130X_mcRun3_2023_realistic_postBPix_v6-v2/2550000/c8f0b642-f7bc-4d44-b040-678020371515.root",
        "T1_US_FNAL_Tape_Test: davs://cmstnvm1.fnal.gov:2880/store/mc/Run3Summer23BPixNanoAODv12/NMSSM_XtoYHto4B_MX-2500_MY-150_TuneCP5_13p6TeV_madgraph-pythia8/NANOAODSIM/130X_mcRun3_2023_realistic_postBPix_v6-v2/2550000/c8f0b642-f7bc-4d44-b040-678020371515.root",
        "T2_US_Wisconsin: davs://cmsxrootd.hep.wisc.edu:1094/store/mc/Run3Summer23BPixNanoAODv12/NMSSM_XtoYHto4B_MX-2500_MY-150_TuneCP5_13p6TeV_madgraph-pythia8/NANOAODSIM/130X_mcRun3_2023_realistic_postBPix_v6-v2/2550000/c8f0b642-f7bc-4d44-b040-678020371515.root",
        "T1_IT_CNAF_Tape: davs://xfer-tape-cms.cr.cnaf.infn.it:8443/cmstape/store/mc/Run3Summer23BPixNanoAODv12/NMSSM_XtoYHto4B_MX-2500_MY-150_TuneCP5_13p6TeV_madgraph-pythia8/NANOAODSIM/130X_mcRun3_2023_realistic_postBPix_v6-v2/2550000/c8f0b642-f7bc-4d44-b040-678020371515.root",
        "T2_UK_London_IC: davs://gfe02.grid.hep.ph.ic.ac.uk:2880/pnfs/hep.ph.ic.ac.uk/data/cms/store/mc/Run3Summer23BPixNanoAODv12/NMSSM_XtoYHto4B_MX-2500_MY-150_TuneCP5_13p6TeV_madgraph-pythia8/NANOAODSIM/130X_mcRun3_2023_realistic_postBPix_v6-v2/2550000/c8f0b642-f7bc-4d44-b040-678020371515.root",
        "T1_IT_CNAF_Disk: davs://xfer-cms.cr.cnaf.infn.it:8443/cmsdisk/store/mc/Run3Summer23BPixNanoAODv12/NMSSM_XtoYHto4B_MX-2500_MY-150_TuneCP5_13p6TeV_madgraph-pythia8/NANOAODSIM/130X_mcRun3_2023_realistic_postBPix_v6-v2/2550000/c8f0b642-f7bc-4d44-b040-678020371515.root"
    ],
    "cms:/store/mc/Run3Summer23BPixNanoAODv12/NMSSM_XtoYHto4B_MX-2500_MY-150_TuneCP5_13p6TeV_madgraph-pythia8/NANOAODSIM/130X_mcRun3_2023_realistic_postBPix_v6-v2/2550000/1fbfd58a-2699-40a1-8056-88eab94f2135.root": [
        "T1_US_FNAL_Disk: davs://cmsdcadisk.fnal.gov:2880/dcache/uscmsdisk/store/mc/Run3Summer23BPixNanoAODv12/NMSSM_XtoYHto4B_MX-2500_MY-150_TuneCP5_13p6TeV_madgraph-pythia8/NANOAODSIM/130X_mcRun3_2023_realistic_postBPix_v6-v2/2550000/1fbfd58a-2699-40a1-8056-88eab94f2135.root",
        "T2_PL_Swierk: davs://se.cis.gov.pl:2880/grid/cms/store/mc/Run3Summer23BPixNanoAODv12/NMSSM_XtoYHto4B_MX-2500_MY-150_TuneCP5_13p6TeV_madgraph-pythia8/NANOAODSIM/130X_mcRun3_2023_realistic_postBPix_v6-v2/2550000/1fbfd58a-2699-40a1-8056-88eab94f2135.root",
        "T1_UK_RAL_Disk: davs://rdr.echo.stfc.ac.uk:1094/store/mc/Run3Summer23BPixNanoAODv12/NMSSM_XtoYHto4B_MX-2500_MY-150_TuneCP5_13p6TeV_madgraph-pythia8/NANOAODSIM/130X_mcRun3_2023_realistic_postBPix_v6-v2/2550000/1fbfd58a-2699-40a1-8056-88eab94f2135.root",
        "T1_US_FNAL_Tape_Test: davs://cmstnvm1.fnal.gov:2880/store/mc/Run3Summer23BPixNanoAODv12/NMSSM_XtoYHto4B_MX-2500_MY-150_TuneCP5_13p6TeV_madgraph-pythia8/NANOAODSIM/130X_mcRun3_2023_realistic_postBPix_v6-v2/2550000/1fbfd58a-2699-40a1-8056-88eab94f2135.root",
        "T2_US_Wisconsin: davs://cmsxrootd.hep.wisc.edu:1094/store/mc/Run3Summer23BPixNanoAODv12/NMSSM_XtoYHto4B_MX-2500_MY-150_TuneCP5_13p6TeV_madgraph-pythia8/NANOAODSIM/130X_mcRun3_2023_realistic_postBPix_v6-v2/2550000/1fbfd58a-2699-40a1-8056-88eab94f2135.root",
        "T1_IT_CNAF_Tape: davs://xfer-tape-cms.cr.cnaf.infn.it:8443/cmstape/store/mc/Run3Summer23BPixNanoAODv12/NMSSM_XtoYHto4B_MX-2500_MY-150_TuneCP5_13p6TeV_madgraph-pythia8/NANOAODSIM/130X_mcRun3_2023_realistic_postBPix_v6-v2/2550000/1fbfd58a-2699-40a1-8056-88eab94f2135.root",
        "T2_US_Nebraska: davs://xrootd-local.unl.edu:1094/store/mc/Run3Summer23BPixNanoAODv12/NMSSM_XtoYHto4B_MX-2500_MY-150_TuneCP5_13p6TeV_madgraph-pythia8/NANOAODSIM/130X_mcRun3_2023_realistic_postBPix_v6-v2/2550000/1fbfd58a-2699-40a1-8056-88eab94f2135.root",
        "T2_UK_London_IC: davs://gfe02.grid.hep.ph.ic.ac.uk:2880/pnfs/hep.ph.ic.ac.uk/data/cms/store/mc/Run3Summer23BPixNanoAODv12/NMSSM_XtoYHto4B_MX-2500_MY-150_TuneCP5_13p6TeV_madgraph-pythia8/NANOAODSIM/130X_mcRun3_2023_realistic_postBPix_v6-v2/2550000/1fbfd58a-2699-40a1-8056-88eab94f2135.root",
        "T1_IT_CNAF_Disk: davs://xfer-cms.cr.cnaf.infn.it:8443/cmsdisk/store/mc/Run3Summer23BPixNanoAODv12/NMSSM_XtoYHto4B_MX-2500_MY-150_TuneCP5_13p6TeV_madgraph-pythia8/NANOAODSIM/130X_mcRun3_2023_realistic_postBPix_v6-v2/2550000/1fbfd58a-2699-40a1-8056-88eab94f2135.root"
    ],
    "cms:/store/mc/Run3Summer23BPixNanoAODv12/NMSSM_XtoYHto4B_MX-2500_MY-150_TuneCP5_13p6TeV_madgraph-pythia8/NANOAODSIM/130X_mcRun3_2023_realistic_postBPix_v6-v2/2550000/4a421f10-e6e7-40b2-8eca-70618c761d64.root": [
        "T1_US_FNAL_Disk: davs://cmsdcadisk.fnal.gov:2880/dcache/uscmsdisk/store/mc/Run3Summer23BPixNanoAODv12/NMSSM_XtoYHto4B_MX-2500_MY-150_TuneCP5_13p6TeV_madgraph-pythia8/NANOAODSIM/130X_mcRun3_2023_realistic_postBPix_v6-v2/2550000/4a421f10-e6e7-40b2-8eca-70618c761d64.root",
        "T2_UK_SGrid_RALPP: davs://mover.pp.rl.ac.uk:2880/pnfs/pp.rl.ac.uk/data/cms/store/mc/Run3Summer23BPixNanoAODv12/NMSSM_XtoYHto4B_MX-2500_MY-150_TuneCP5_13p6TeV_madgraph-pythia8/NANOAODSIM/130X_mcRun3_2023_realistic_postBPix_v6-v2/2550000/4a421f10-e6e7-40b2-8eca-70618c761d64.root",
        "T2_PL_Swierk: davs://se.cis.gov.pl:2880/grid/cms/store/mc/Run3Summer23BPixNanoAODv12/NMSSM_XtoYHto4B_MX-2500_MY-150_TuneCP5_13p6TeV_madgraph-pythia8/NANOAODSIM/130X_mcRun3_2023_realistic_postBPix_v6-v2/2550000/4a421f10-e6e7-40b2-8eca-70618c761d64.root",
        "T1_UK_RAL_Disk: davs://rdr.echo.stfc.ac.uk:1094/store/mc/Run3Summer23BPixNanoAODv12/NMSSM_XtoYHto4B_MX-2500_MY-150_TuneCP5_13p6TeV_madgraph-pythia8/NANOAODSIM/130X_mcRun3_2023_realistic_postBPix_v6-v2/2550000/4a421f10-e6e7-40b2-8eca-70618c761d64.root",
        "T1_US_FNAL_Tape_Test: davs://cmstnvm1.fnal.gov:2880/store/mc/Run3Summer23BPixNanoAODv12/NMSSM_XtoYHto4B_MX-2500_MY-150_TuneCP5_13p6TeV_madgraph-pythia8/NANOAODSIM/130X_mcRun3_2023_realistic_postBPix_v6-v2/2550000/4a421f10-e6e7-40b2-8eca-70618c761d64.root",
        "T2_US_Wisconsin: davs://cmsxrootd.hep.wisc.edu:1094/store/mc/Run3Summer23BPixNanoAODv12/NMSSM_XtoYHto4B_MX-2500_MY-150_TuneCP5_13p6TeV_madgraph-pythia8/NANOAODSIM/130X_mcRun3_2023_realistic_postBPix_v6-v2/2550000/4a421f10-e6e7-40b2-8eca-70618c761d64.root",
        "T1_IT_CNAF_Tape: davs://xfer-tape-cms.cr.cnaf.infn.it:8443/cmstape/store/mc/Run3Summer23BPixNanoAODv12/NMSSM_XtoYHto4B_MX-2500_MY-150_TuneCP5_13p6TeV_madgraph-pythia8/NANOAODSIM/130X_mcRun3_2023_realistic_postBPix_v6-v2/2550000/4a421f10-e6e7-40b2-8eca-70618c761d64.root",
        "T2_UK_London_IC: davs://gfe02.grid.hep.ph.ic.ac.uk:2880/pnfs/hep.ph.ic.ac.uk/data/cms/store/mc/Run3Summer23BPixNanoAODv12/NMSSM_XtoYHto4B_MX-2500_MY-150_TuneCP5_13p6TeV_madgraph-pythia8/NANOAODSIM/130X_mcRun3_2023_realistic_postBPix_v6-v2/2550000/4a421f10-e6e7-40b2-8eca-70618c761d64.root",
        "T1_IT_CNAF_Disk: davs://xfer-cms.cr.cnaf.infn.it:8443/cmsdisk/store/mc/Run3Summer23BPixNanoAODv12/NMSSM_XtoYHto4B_MX-2500_MY-150_TuneCP5_13p6TeV_madgraph-pythia8/NANOAODSIM/130X_mcRun3_2023_realistic_postBPix_v6-v2/2550000/4a421f10-e6e7-40b2-8eca-70618c761d64.root"
    ]
}