#/NMSSM_XtoYHto4B_MX-3000_MY-1200_TuneCP5_13p6TeV_madgraph-pythia8/Run3Summer23BPixNanoAODv12-130X_mcRun3_2023_realistic_postBPix_v6-v2/NANOAODSIM
+------------------------------------------------------------------------------------------------------------------------------------------------------------------------------------------------------------------+--------+-------------+------------+----------+
| SCOPE:NAME                                                                                                                                                                                                       | GUID   | ADLER32     | FILESIZE   | EVENTS   |
|------------------------------------------------------------------------------------------------------------------------------------------------------------------------------------------------------------------+--------+-------------+------------+----------|
| cms:/store/mc/Run3Summer23BPixNanoAODv12/NMSSM_XtoYHto4B_MX-3000_MY-1200_TuneCP5_13p6TeV_madgraph-pythia8/NANOAODSIM/130X_mcRun3_2023_realistic_postBPix_v6-v2/2810000/9f73ba45-c5ea-4b9a-8272-5a38e46057ce.root | (None) | ad:0707b32f | 9.937 MB   |          |
| cms:/store/mc/Run3Summer23BPixNanoAODv12/NMSSM_XtoYHto4B_MX-3000_MY-1200_TuneCP5_13p6TeV_madgraph-pythia8/NANOAODSIM/130X_mcRun3_2023_realistic_postBPix_v6-v2/2810000/9b1477b2-5d32-46e8-8847-8a093f2b17a6.root | (None) | ad:5d3d0ee2 | 9.920 MB   |          |
| cms:/store/mc/Run3Summer23BPixNanoAODv12/NMSSM_XtoYHto4B_MX-3000_MY-1200_TuneCP5_13p6TeV_madgraph-pythia8/NANOAODSIM/130X_mcRun3_2023_realistic_postBPix_v6-v2/2810000/60f99e61-9507-40d7-818f-5a3990dfb2c7.root | (None) | ad:2e86f11c | 30.338 MB  |          |
| cms:/store/mc/Run3Summer23BPixNanoAODv12/NMSSM_XtoYHto4B_MX-3000_MY-1200_TuneCP5_13p6TeV_madgraph-pythia8/NANOAODSIM/130X_mcRun3_2023_realistic_postBPix_v6-v2/2810000/025a9f7f-44c8-4a2b-b6dd-999bfc49b8fe.root | (None) | ad:2f6424a2 | 16.773 MB  |          |
| cms:/store/mc/Run3Summer23BPixNanoAODv12/NMSSM_XtoYHto4B_MX-3000_MY-1200_TuneCP5_13p6TeV_madgraph-pythia8/NANOAODSIM/130X_mcRun3_2023_realistic_postBPix_v6-v2/2810000/292f1399-6290-423b-9dc1-66cc404a227d.root | (None) | ad:ecd1f2c3 | 23.549 MB  |          |
| cms:/store/mc/Run3Summer23BPixNanoAODv12/NMSSM_XtoYHto4B_MX-3000_MY-1200_TuneCP5_13p6TeV_madgraph-pythia8/NANOAODSIM/130X_mcRun3_2023_realistic_postBPix_v6-v2/2810000/b4d7b9e9-dd23-4d8a-89ce-1658f4291f81.root | (None) | ad:b9d62b07 | 23.578 MB  |          |
| cms:/store/mc/Run3Summer23BPixNanoAODv12/NMSSM_XtoYHto4B_MX-3000_MY-1200_TuneCP5_13p6TeV_madgraph-pythia8/NANOAODSIM/130X_mcRun3_2023_realistic_postBPix_v6-v2/2810000/493880e6-da1e-4cee-aaed-7ebaef6570b2.root | (None) | ad:686b84d8 | 6.268 MB   |          |
| cms:/store/mc/Run3Summer23BPixNanoAODv12/NMSSM_XtoYHto4B_MX-3000_MY-1200_TuneCP5_13p6TeV_madgraph-pythia8/NANOAODSIM/130X_mcRun3_2023_realistic_postBPix_v6-v2/2810000/65d8660a-81d8-44bb-8c57-215a98d551c5.root | (None) | ad:f1981532 | 16.786 MB  |          |
+------------------------------------------------------------------------------------------------------------------------------------------------------------------------------------------------------------------+--------+-------------+------------+----------+
Total files : 8
Total size : 137.148 MB
