{
    "cms:/store/mc/Run3Summer23NanoAODv12/NMSSM_XtoYHto4B_MX-700_MY-300_TuneCP5_13p6TeV_madgraph-pythia8/NANOAODSIM/130X_mcRun3_2023_realistic_v15-v2/2820000/7deeb492-7e3f-4b29-aa4c-421e8271a460.root": [
        "T1_US_FNAL_Disk: davs://cmsdcadisk.fnal.gov:2880/dcache/uscmsdisk/store/mc/Run3Summer23NanoAODv12/NMSSM_XtoYHto4B_MX-700_MY-300_TuneCP5_13p6TeV_madgraph-pythia8/NANOAODSIM/130X_mcRun3_2023_realistic_v15-v2/2820000/7deeb492-7e3f-4b29-aa4c-421e8271a460.root",
        "T1_DE_KIT_Disk: davs://cmsdcache-kit-disk.gridka.de:2880/pnfs/gridka.de/cms/disk-only/store/mc/Run3Summer23NanoAODv12/NMSSM_XtoYHto4B_MX-700_MY-300_TuneCP5_13p6TeV_madgraph-pythia8/NANOAODSIM/130X_mcRun3_2023_realistic_v15-v2/2820000/7deeb492-7e3f-4b29-aa4c-421e8271a460.root",
        "T1_UK_RAL_Disk: davs://rdr.echo.stfc.ac.uk:1094/store/mc/Run3Summer23NanoAODv12/NMSSM_XtoYHto4B_MX-700_MY-300_TuneCP5_13p6TeV_madgraph-pythia8/NANOAODSIM/130X_mcRun3_2023_realistic_v15-v2/2820000/7deeb492-7e3f-4b29-aa4c-421e8271a460.root",
        "T2_KR_KISTI: davs://cms-t2-se01.sdfarm.kr:2880/store/mc/Run3Summer23NanoAODv12/NMSSM_XtoYHto4B_MX-700_MY-300_TuneCP5_13p6TeV_madgraph-pythia8/NANOAODSIM/130X_mcRun3_2023_realistic_v15-v2/2820000/7deeb492-7e3f-4b29-aa4c-421e8271a460.root",
        "T1_US_FNAL_Tape_Test: davs://cmstnvm1.fnal.gov:2880/store/mc/Run3Summer23NanoAODv12/NMSSM_XtoYHto4B_MX-700_MY-300_TuneCP5_13p6TeV_madgraph-pythia8/NANOAODSIM/130X_mcRun3_2023_realistic_v15-v2/2820000/7deeb492-7e3f-4b29-aa4c-421e8271a460.root",
        "T2_US_Nebraska: davs://xrootd-local.unl.edu:1094/store/mc/Run3Summer23NanoAODv12/NMSSM_XtoYHto4B_MX-700_MY-300_TuneCP5_13p6TeV_madgraph-pythia8/NANOAODSIM/130X_mcRun3_2023_realistic_v15-v2/2820000/7deeb492-7e3f-4b29-aa4c-421e8271a460.root",
        "T2_IT_Pisa: davs://stwebdav.pi.infn.it:8443/cms/store/mc/Run3Summer23NanoAODv12/NMSSM_XtoYHto4B_MX-700_MY-300_TuneCP5_13p6TeV_madgraph-pythia8/NANOAODSIM/130X_mcRun3_2023_realistic_v15-v2/2820000/7deeb492-7e3f-4b29-aa4c-421e8271a460.root",
        "T1_RU_JINR_Disk: davs://se-wbdv.jinr-t1.ru:2880/pnfs/jinr-t1.ru/data/cms/store/mc/Run3Summer23NanoAODv12/NMSSM_XtoYHto4B_MX-700_MY-300_TuneCP5_13p6TeV_madgraph-pythia8/NANOAODSIM/130X_mcRun3_2023_realistic_v15-v2/2820000/7deeb492-7e3f-4b29-aa4c-421e8271a460.root",
        "T2_US_MIT_Tape: davs://dtn20.nese.mghpcc.org:443/store/mc/Run3Summer23NanoAODv12/NMSSM_XtoYHto4B_MX-700_MY-300_TuneCP5_13p6TeV_madgraph-pythia8/NANOAODSIM/130X_mcRun3_2023_realistic_v15-v2/2820000/7deeb492-7e3f-4b29-aa4c-421e8271a460.root"
    ],
    "cms:/store/mc/Run3Summer23NanoAODv12/NMSSM_XtoYHto4B_MX-700_MY-300_TuneCP5_13p6TeV_madgraph-pythia8/NANOAODSIM/130X_mcRun3_2023_realistic_v15-v2/2820000/179175bd-a161-4b0b-b661-817b1c8762ea.root": [
        "T1_US_FNAL_Disk: davs://cmsdcadisk.fnal.gov:2880/dcache/uscmsdisk/store/mc/Run3Summer23NanoAODv12/NMSSM_XtoYHto4B_MX-700_MY-300_TuneCP5_13p6TeV_madgraph-pythia8/NANOAODSIM/130X_mcRun3_2023_realistic_v15-v2/2820000/179175bd-a161-4b0b-b661-817b1c8762ea.root",
        "T1_DE_KIT_Disk: davs://cmsdcache-kit-disk.gridka.de:2880/pnfs/gridka.de/cms/disk-only/store/mc/Run3Summer23NanoAODv12/NMSSM_XtoYHto4B_MX-700_MY-300_TuneCP5_13p6TeV_madgraph-pythia8/NANOAODSIM/130X_mcRun3_2023_realistic_v15-v2/2820000/179175bd-a161-4b0b-b661-817b1c8762ea.root",
        "T1_UK_RAL_Disk: davs://rdr.echo.stfc.ac.uk:1094/store/mc/Run3Summer23NanoAODv12/NMSSM_XtoYHto4B_MX-700_MY-300_TuneCP5_13p6TeV_madgraph-pythia8/NANOAODSIM/130X_mcRun3_2023_realistic_v15-v2/2820000/179175bd-a161-4b0b-b661-817b1c8762ea.root",
        "T1_US_FNAL_Tape_Test: davs://cmstnvm1.fnal.gov:2880/store/mc/Run3Summer23NanoAODv12/NMSSM_XtoYHto4B_MX-700_MY-300_TuneCP5_13p6TeV_madgraph-pythia8/NANOAODSIM/130X_mcRun3_2023_realistic_v15-v2/2820000/179175bd-a161-4b0b-b661-817b1c8762ea.root",
        "T2_US_Nebraska: davs://xrootd-local.unl.edu:1094/store/mc/Run3Summer23NanoAODv12/NMSSM_XtoYHto4B_MX-700_MY-300_TuneCP5_13p6TeV_madgraph-pythia8/NANOAODSIM/130X_mcRun3_2023_realistic_v15-v2/2820000/179175bd-a161-4b0b-b661-817b1c8762ea.root",
        "T2_IT_Pisa: davs://stwebdav.pi.infn.it:8443/cms/store/mc/Run3Summer23NanoAODv12/NMSSM_XtoYHto4B_MX-700_MY-300_TuneCP5_13p6TeV_madgraph-pythia8/NANOAODSIM/130X_mcRun3_2023_realistic_v15-v2/2820000/179175bd-a161-4b0b-b661-817b1c8762ea.root",
        "T1_RU_JINR_Disk: davs://se-wbdv.jinr-t1.ru:2880/pnfs/jinr-t1.ru/data/cms/store/mc/Run3Summer23NanoAODv12/NMSSM_XtoYHto4B_MX-700_MY-300_TuneCP5_13p6TeV_madgraph-pythia8/NANOAODSIM/130X_mcRun3_2023_realistic_v15-v2/2820000/179175bd-a161-4b0b-b661-817b1c8762ea.root",
        "T2_US_MIT_Tape: davs://dtn20.nese.mghpcc.org:443/store/mc/Run3Summer23NanoAODv12/NMSSM_XtoYHto4B_MX-700_MY-300_TuneCP5_13p6TeV_madgraph-pythia8/NANOAODSIM/130X_mcRun3_2023_realistic_v15-v2/2820000/179175bd-a161-4b0b-b661-817b1c8762ea.root"
    ],
    "cms:/store/mc/Run3Summer23NanoAODv12/NMSSM_XtoYHto4B_MX-700_MY-300_TuneCP5_13p6TeV_madgraph-pythia8/NANOAODSIM/130X_mcRun3_2023_realistic_v15-v2/2820000/d796be78-d0af-4d2b-bed3-b3f9893738dd.root": [
        "T1_US_FNAL_Disk: davs://cmsdcadisk.fnal.gov:2880/dcache/uscmsdisk/store/mc/Run3Summer23NanoAODv12/NMSSM_XtoYHto4B_MX-700_MY-300_TuneCP5_13p6TeV_madgraph-pythia8/NANOAODSIM/130X_mcRun3_2023_realistic_v15-v2/2820000/d796be78-d0af-4d2b-bed3-b3f9893738dd.root",
        "T1_DE_KIT_Disk: davs://cmsdcache-kit-disk.gridka.de:2880/pnfs/gridka.de/cms/disk-only/store/mc/Run3Summer23NanoAODv12/NMSSM_XtoYHto4B_MX-700_MY-300_TuneCP5_13p6TeV_madgraph-pythia8/NANOAODSIM/130X_mcRun3_2023_realistic_v15-v2/2820000/d796be78-d0af-4d2b-bed3-b3f9893738dd.root",
        "T2_FR_GRIF: davs://eos.grif.fr:11000/eos/grif/cms/grif/store/mc/Run3Summer23NanoAODv12/NMSSM_XtoYHto4B_MX-700_MY-300_TuneCP5_13p6TeV_madgraph-pythia8/NANOAODSIM/130X_mcRun3_2023_realistic_v15-v2/2820000/d796be78-d0af-4d2b-bed3-b3f9893738dd.root",
        "T1_UK_RAL_Disk: davs://rdr.echo.stfc.ac.uk:1094/store/mc/Run3Summer23NanoAODv12/NMSSM_XtoYHto4B_MX-700_MY-300_TuneCP5_13p6TeV_madgraph-pythia8/NANOAODSIM/130X_mcRun3_2023_realistic_v15-v2/2820000/d796be78-d0af-4d2b-bed3-b3f9893738dd.root",
        "T1_US_FNAL_Tape_Test: davs://cmstnvm1.fnal.gov:2880/store/mc/Run3Summer23NanoAODv12/NMSSM_XtoYHto4B_MX-700_MY-300_TuneCP5_13p6TeV_madgraph-pythia8/NANOAODSIM/130X_mcRun3_2023_realistic_v15-v2/2820000/d796be78-d0af-4d2b-bed3-b3f9893738dd.root",
        "T2_US_Nebraska: davs://xrootd-local.unl.edu:1094/store/mc/Run3Summer23NanoAODv12/NMSSM_XtoYHto4B_MX-700_MY-300_TuneCP5_13p6TeV_madgraph-pythia8/NANOAODSIM/130X_mcRun3_2023_realistic_v15-v2/2820000/d796be78-d0af-4d2b-bed3-b3f9893738dd.root",
        "T2_IT_Pisa: davs://stwebdav.pi.infn.it:8443/cms/store/mc/Run3Summer23NanoAODv12/NMSSM_XtoYHto4B_MX-700_MY-300_TuneCP5_13p6TeV_madgraph-pythia8/NANOAODSIM/130X_mcRun3_2023_realistic_v15-v2/2820000/d796be78-d0af-4d2b-bed3-b3f9893738dd.root",
        "T1_RU_JINR_Disk: davs://se-wbdv.jinr-t1.ru:2880/pnfs/jinr-t1.ru/data/cms/store/mc/Run3Summer23NanoAODv12/NMSSM_XtoYHto4B_MX-700_MY-300_TuneCP5_13p6TeV_madgraph-pythia8/NANOAODSIM/130X_mcRun3_2023_realistic_v15-v2/2820000/d796be78-d0af-4d2b-bed3-b3f9893738dd.root",
        "T2_US_MIT_Tape: davs://dtn20.nese.mghpcc.org:443/store/mc/Run3Summer23NanoAODv12/NMSSM_XtoYHto4B_MX-700_MY-300_TuneCP5_13p6TeV_madgraph-pythia8/NANOAODSIM/130X_mcRun3_2023_realistic_v15-v2/2820000/d796be78-d0af-4d2b-bed3-b3f9893738dd.root"
    ],
    "cms:/store/mc/Run3Summer23NanoAODv12/NMSSM_XtoYHto4B_MX-700_MY-300_TuneCP5_13p6TeV_madgraph-pythia8/NANOAODSIM/130X_mcRun3_2023_realistic_v15-v2/2820000/e01810b3-fe24-4e2d-8304-33b5b99bcf8e.root": [
        "T1_US_FNAL_Disk: davs://cmsdcadisk.fnal.gov:2880/dcache/uscmsdisk/store/mc/Run3Summer23NanoAODv12/NMSSM_XtoYHto4B_MX-700_MY-300_TuneCP5_13p6TeV_madgraph-pythia8/NANOAODSIM/130X_mcRun3_2023_realistic_v15-v2/2820000/e01810b3-fe24-4e2d-8304-33b5b99bcf8e.root",
        "T1_DE_KIT_Disk: davs://cmsdcache-kit-disk.gridka.de:2880/pnfs/gridka.de/cms/disk-only/store/mc/Run3Summer23NanoAODv12/NMSSM_XtoYHto4B_MX-700_MY-300_TuneCP5_13p6TeV_madgraph-pythia8/NANOAODSIM/130X_mcRun3_2023_realistic_v15-v2/2820000/e01810b3-fe24-4e2d-8304-33b5b99bcf8e.root",
        "T1_UK_RAL_Disk: davs://rdr.echo.stfc.ac.uk:1094/store/mc/Run3Summer23NanoAODv12/NMSSM_XtoYHto4B_MX-700_MY-300_TuneCP5_13p6TeV_madgraph-pythia8/NANOAODSIM/130X_mcRun3_2023_realistic_v15-v2/2820000/e01810b3-fe24-4e2d-8304-33b5b99bcf8e.root",
        "T2_BE_UCL: davs://ingrid-se02.cism.ucl.ac.be:1094/store/mc/Run3Summer23NanoAODv12/NMSSM_XtoYHto4B_MX-700_MY-300_TuneCP5_13p6TeV_madgraph-pythia8/NANOAODSIM/130X_mcRun3_2023_realistic_v15-v2/2820000/e01810b3-fe24-4e2d-8304-33b5b99bcf8e.root",
        "T1_US_FNAL_Tape_Test: davs://cmstnvm1.fnal.gov:2880/store/mc/Run3Summer23NanoAODv12/NMSSM_XtoYHto4B_MX-700_MY-300_TuneCP5_13p6TeV_madgraph-pythia8/NANOAODSIM/130X_mcRun3_2023_realistic_v15-v2/2820000/e01810b3-fe24-4e2d-8304-33b5b99bcf8e.root",
        "T2_US_Nebraska: davs://xrootd-local.unl.edu:1094/store/mc/Run3Summer23NanoAODv12/NMSSM_XtoYHto4B_MX-700_MY-300_TuneCP5_13p6TeV_madgraph-pythia8/NANOAODSIM/130X_mcRun3_2023_realistic_v15-v2/2820000/e01810b3-fe24-4e2d-8304-33b5b99bcf8e.root",
        "T2_IT_Pisa: davs://stwebdav.pi.infn.it:8443/cms/store/mc/Run3Summer23NanoAODv12/NMSSM_XtoYHto4B_MX-700_MY-300_TuneCP5_13p6TeV_madgraph-pythia8/NANOAODSIM/130X_mcRun3_2023_realistic_v15-v2/2820000/e01810b3-fe24-4e2d-8304-33b5b99bcf8e.root",
        "T1_RU_JINR_Disk: davs://se-wbdv.jinr-t1.ru:2880/pnfs/jinr-t1.ru/data/cms/store/mc/Run3Summer23NanoAODv12/NMSSM_XtoYHto4B_MX-700_MY-300_TuneCP5_13p6TeV_madgraph-pythia8/NANOAODSIM/130X_mcRun3_2023_realistic_v15-v2/2820000/e01810b3-fe24-4e2d-8304-33b5b99bcf8e.root",
        "T2_US_MIT_Tape: davs://dtn20.nese.mghpcc.org:443/store/mc/Run3Summer23NanoAODv12/NMSSM_XtoYHto4B_MX-700_MY-300_TuneCP5_13p6TeV_madgraph-pythia8/NANOAODSIM/130X_mcRun3_2023_realistic_v15-v2/2820000/e01810b3-fe24-4e2d-8304-33b5b99bcf8e.root"
    ],
    "cms:/store/mc/Run3Summer23NanoAODv12/NMSSM_XtoYHto4B_MX-700_MY-300_TuneCP5_13p6TeV_madgraph-pythia8/NANOAODSIM/130X_mcRun3_2023_realistic_v15-v2/2820000/ef2d05f6-b9bd-4281-a5e6-5cadd286007b.root": [
        "T1_US_FNAL_Disk: davs://cmsdcadisk.fnal.gov:2880/dcache/uscmsdisk/store/mc/Run3Summer23NanoAODv12/NMSSM_XtoYHto4B_MX-700_MY-300_TuneCP5_13p6TeV_madgraph-pythia8/NANOAODSIM/130X_mcRun3_2023_realistic_v15-v2/2820000/ef2d05f6-b9bd-4281-a5e6-5cadd286007b.root",
        "T1_DE_KIT_Disk: davs://cmsdcache-kit-disk.gridka.de:2880/pnfs/gridka.de/cms/disk-only/store/mc/Run3Summer23NanoAODv12/NMSSM_XtoYHto4B_MX-700_MY-300_TuneCP5_13p6TeV_madgraph-pythia8/NANOAODSIM/130X_mcRun3_2023_realistic_v15-v2/2820000/ef2d05f6-b9bd-4281-a5e6-5cadd286007b.root",
        "T1_UK_RAL_Disk: davs://rdr.echo.stfc.ac.uk:1094/store/mc/Run3Summer23NanoAODv12/NMSSM_XtoYHto4B_MX-700_MY-300_TuneCP5_13p6TeV_madgraph-pythia8/NANOAODSIM/130X_mcRun3_2023_realistic_v15-v2/2820000/ef2d05f6-b9bd-4281-a5e6-5cadd286007b.root",
        "T1_US_FNAL_Tape_Test: davs://cmstnvm1.fnal.gov:2880/store/mc/Run3Summer23NanoAODv12/NMSSM_XtoYHto4B_MX-700_MY-300_TuneCP5_13p6TeV_madgraph-pythia8/NANOAODSIM/130X_mcRun3_2023_realistic_v15-v2/2820000/ef2d05f6-b9bd-4281-a5e6-5cadd286007b.root",
        "T2_US_Nebraska: davs://xrootd-local.unl.edu:1094/store/mc/Run3Summer23NanoAODv12/NMSSM_XtoYHto4B_MX-700_MY-300_TuneCP5_13p6TeV_madgraph-pythia8/NANOAODSIM/130X_mcRun3_2023_realistic_v15-v2/2820000/ef2d05f6-b9bd-4281-a5e6-5cadd286007b.root",
        "T2_IT_Pisa: davs://stwebdav.pi.infn.it:8443/cms/store/mc/Run3Summer23NanoAODv12/NMSSM_XtoYHto4B_MX-700_MY-300_TuneCP5_13p6TeV_madgraph-pythia8/NANOAODSIM/130X_mcRun3_2023_realistic_v15-v2/2820000/ef2d05f6-b9bd-4281-a5e6-5cadd286007b.root",
        "T1_RU_JINR_Disk: davs://se-wbdv.jinr-t1.ru:2880/pnfs/jinr-t1.ru/data/cms/store/mc/Run3Summer23NanoAODv12/NMSSM_XtoYHto4B_MX-700_MY-300_TuneCP5_13p6TeV_madgraph-pythia8/NANOAODSIM/130X_mcRun3_2023_realistic_v15-v2/2820000/ef2d05f6-b9bd-4281-a5e6-5cadd286007b.root",
        "T2_ES_CIEMAT: davs://srm.ciemat.es:2880/pnfs/ciemat.es/data/cms/prod/store/mc/Run3Summer23NanoAODv12/NMSSM_XtoYHto4B_MX-700_MY-300_TuneCP5_13p6TeV_madgraph-pythia8/NANOAODSIM/130X_mcRun3_2023_realistic_v15-v2/2820000/ef2d05f6-b9bd-4281-a5e6-5cadd286007b.root",
        "T2_US_MIT_Tape: davs://dtn20.nese.mghpcc.org:443/store/mc/Run3Summer23NanoAODv12/NMSSM_XtoYHto4B_MX-700_MY-300_TuneCP5_13p6TeV_madgraph-pythia8/NANOAODSIM/130X_mcRun3_2023_realistic_v15-v2/2820000/ef2d05f6-b9bd-4281-a5e6-5cadd286007b.root"
    ],
    "cms:/store/mc/Run3Summer23NanoAODv12/NMSSM_XtoYHto4B_MX-700_MY-300_TuneCP5_13p6TeV_madgraph-pythia8/NANOAODSIM/130X_mcRun3_2023_realistic_v15-v2/2820000/cf9fbdfd-4181-4699-bf33-ddf53b886334.root": [
        "T1_US_FNAL_Disk: davs://cmsdcadisk.fnal.gov:2880/dcache/uscmsdisk/store/mc/Run3Summer23NanoAODv12/NMSSM_XtoYHto4B_MX-700_MY-300_TuneCP5_13p6TeV_madgraph-pythia8/NANOAODSIM/130X_mcRun3_2023_realistic_v15-v2/2820000/cf9fbdfd-4181-4699-bf33-ddf53b886334.root",
        "T1_DE_KIT_Disk: davs://cmsdcache-kit-disk.gridka.de:2880/pnfs/gridka.de/cms/disk-only/store/mc/Run3Summer23NanoAODv12/NMSSM_XtoYHto4B_MX-700_MY-300_TuneCP5_13p6TeV_madgraph-pythia8/NANOAODSIM/130X_mcRun3_2023_realistic_v15-v2/2820000/cf9fbdfd-4181-4699-bf33-ddf53b886334.root",
        "T2_IT_Bari: davs://webdav.recas.ba.infn.it:8443/cms/store/mc/Run3Summer23NanoAODv12/NMSSM_XtoYHto4B_MX-700_MY-300_TuneCP5_13p6TeV_madgraph-pythia8/NANOAODSIM/130X_mcRun3_2023_realistic_v15-v2/2820000/cf9fbdfd-4181-4699-bf33-ddf53b886334.root",
        "T1_UK_RAL_Disk: davs://rdr.echo.stfc.ac.uk:1094/store/mc/Run3Summer23NanoAODv12/NMSSM_XtoYHto4B_MX-700_MY-300_TuneCP5_13p6TeV_madgraph-pythia8/NANOAODSIM/130X_mcRun3_2023_realistic_v15-v2/2820000/cf9fbdfd-4181-4699-bf33-ddf53b886334.root",
        "T1_US_FNAL_Tape_Test: davs://cmstnvm1.fnal.gov:2880/store/mc/Run3Summer23NanoAODv12/NMSSM_XtoYHto4B_MX-700_MY-300_TuneCP5_13p6TeV_madgraph-pythia8/NANOAODSIM/130X_mcRun3_2023_realistic_v15-v2/2820000/cf9fbdfd-4181-4699-bf33-ddf53b886334.root",
        "T2_US_Nebraska: davs://xrootd-local.unl.edu:1094/store/mc/Run3Summer23NanoAODv12/NMSSM_XtoYHto4B_MX-700_MY-300_TuneCP5_13p6TeV_madgraph-pythia8/NANOAODSIM/130X_mcRun3_2023_realistic_v15-v2/2820000/cf9fbdfd-4181-4699-bf33-ddf53b886334.root",
        "T2_IT_Pisa: davs://stwebdav.pi.infn.it:8443/cms/store/mc/Run3Summer23NanoAODv12/NMSSM_XtoYHto4B_MX-700_MY-300_TuneCP5_13p6TeV_madgraph-pythia8/NANOAODSIM/130X_mcRun3_2023_realistic_v15-v2/2820000/cf9fbdfd-4181-4699-bf33-ddf53b886334.root",
        "T1_RU_JINR_Disk: davs://se-wbdv.jinr-t1.ru:2880/pnfs/jinr-t1.ru/data/cms/store/mc/Run3Summer23NanoAODv12/NMSSM_XtoYHto4B_MX-700_MY-300_TuneCP5_13p6TeV_madgraph-pythia8/NANOAODSIM/130X_mcRun3_2023_realistic_v15-v2/2820000/cf9fbdfd-4181-4699-bf33-ddf53b886334.root",
        "T2_US_MIT_Tape: davs://dtn20.nese.mghpcc.org:443/store/mc/Run3Summer23NanoAODv12/NMSSM_XtoYHto4B_MX-700_MY-300_TuneCP5_13p6TeV_madgraph-pythia8/NANOAODSIM/130X_mcRun3_2023_realistic_v15-v2/2820000/cf9fbdfd-4181-4699-bf33-ddf53b886334.root"
    ],
    "cms:/store/mc/Run3Summer23NanoAODv12/NMSSM_XtoYHto4B_MX-700_MY-300_TuneCP5_13p6TeV_madgraph-pythia8/NANOAODSIM/130X_mcRun3_2023_realistic_v15-v2/2820000/aecd6bd2-5461-4de7-a93e-68f8edb59977.root": [
        "T1_US_FNAL_Disk: davs://cmsdcadisk.fnal.gov:2880/dcache/uscmsdisk/store/mc/Run3Summer23NanoAODv12/NMSSM_XtoYHto4B_MX-700_MY-300_TuneCP5_13p6TeV_madgraph-pythia8/NANOAODSIM/130X_mcRun3_2023_realistic_v15-v2/2820000/aecd6bd2-5461-4de7-a93e-68f8edb59977.root",
        "T1_DE_KIT_Disk: davs://cmsdcache-kit-disk.gridka.de:2880/pnfs/gridka.de/cms/disk-only/store/mc/Run3Summer23NanoAODv12/NMSSM_XtoYHto4B_MX-700_MY-300_TuneCP5_13p6TeV_madgraph-pythia8/NANOAODSIM/130X_mcRun3_2023_realistic_v15-v2/2820000/aecd6bd2-5461-4de7-a93e-68f8edb59977.root",
        "T1_UK_RAL_Disk: davs://rdr.echo.stfc.ac.uk:1094/store/mc/Run3Summer23NanoAODv12/NMSSM_XtoYHto4B_MX-700_MY-300_TuneCP5_13p6TeV_madgraph-pythia8/NANOAODSIM/130X_mcRun3_2023_realistic_v15-v2/2820000/aecd6bd2-5461-4de7-a93e-68f8edb59977.root",
        "T1_US_FNAL_Tape_Test: davs://cmstnvm1.fnal.gov:2880/store/mc/Run3Summer23NanoAODv12/NMSSM_XtoYHto4B_MX-700_MY-300_TuneCP5_13p6TeV_madgraph-pythia8/NANOAODSIM/130X_mcRun3_2023_realistic_v15-v2/2820000/aecd6bd2-5461-4de7-a93e-68f8edb59977.root",
        "T2_US_Nebraska: davs://xrootd-local.unl.edu:1094/store/mc/Run3Summer23NanoAODv12/NMSSM_XtoYHto4B_MX-700_MY-300_TuneCP5_13p6TeV_madgraph-pythia8/NANOAODSIM/130X_mcRun3_2023_realistic_v15-v2/2820000/aecd6bd2-5461-4de7-a93e-68f8edb59977.root",
        "T2_IT_Pisa: davs://stwebdav.pi.infn.it:8443/cms/store/mc/Run3Summer23NanoAODv12/NMSSM_XtoYHto4B_MX-700_MY-300_TuneCP5_13p6TeV_madgraph-pythia8/NANOAODSIM/130X_mcRun3_2023_realistic_v15-v2/2820000/aecd6bd2-5461-4de7-a93e-68f8edb59977.root",
        "T1_RU_JINR_Disk: davs://se-wbdv.jinr-t1.ru:2880/pnfs/jinr-t1.ru/data/cms/store/mc/Run3Summer23NanoAODv12/NMSSM_XtoYHto4B_MX-700_MY-300_TuneCP5_13p6TeV_madgraph-pythia8/NANOAODSIM/130X_mcRun3_2023_realistic_v15-v2/2820000/aecd6bd2-5461-4de7-a93e-68f8edb59977.root",
        "T2_US_MIT_Tape: davs://dtn20.nese.mghpcc.org:443/store/mc/Run3Summer23NanoAODv12/NMSSM_XtoYHto4B_MX-700_MY-300_TuneCP5_13p6TeV_madgraph-pythia8/NANOAODSIM/130X_mcRun3_2023_realistic_v15-v2/2820000/aecd6bd2-5461-4de7-a93e-68f8edb59977.root"
    ],
    "cms:/store/mc/Run3Summer23NanoAODv12/NMSSM_XtoYHto4B_MX-700_MY-300_TuneCP5_13p6TeV_madgraph-pythia8/NANOAODSIM/130X_mcRun3_2023_realistic_v15-v2/2820000/0528df38-ff44-47d4-b092-6cb8ec34bcfa.root": [
        "T1_US_FNAL_Disk: davs://cmsdcadisk.fnal.gov:2880/dcache/uscmsdisk/store/mc/Run3Summer23NanoAODv12/NMSSM_XtoYHto4B_MX-700_MY-300_TuneCP5_13p6TeV_madgraph-pythia8/NANOAODSIM/130X_mcRun3_2023_realistic_v15-v2/2820000/0528df38-ff44-47d4-b092-6cb8ec34bcfa.root",
        "T1_DE_KIT_Disk: davs://cmsdcache-kit-disk.gridka.de:2880/pnfs/gridka.de/cms/disk-only/store/mc/Run3Summer23NanoAODv12/NMSSM_XtoYHto4B_MX-700_MY-300_TuneCP5_13p6TeV_madgraph-pythia8/NANOAODSIM/130X_mcRun3_2023_realistic_v15-v2/2820000/0528df38-ff44-47d4-b092-6cb8ec34bcfa.root",
        "T1_UK_RAL_Disk: davs://rdr.echo.stfc.ac.uk:1094/store/mc/Run3Summer23NanoAODv12/NMSSM_XtoYHto4B_MX-700_MY-300_TuneCP5_13p6TeV_madgraph-pythia8/NANOAODSIM/130X_mcRun3_2023_realistic_v15-v2/2820000/0528df38-ff44-47d4-b092-6cb8ec34bcfa.root",
        "T1_US_FNAL_Tape_Test: davs://cmstnvm1.fnal.gov:2880/store/mc/Run3Summer23NanoAODv12/NMSSM_XtoYHto4B_MX-700_MY-300_TuneCP5_13p6TeV_madgraph-pythia8/NANOAODSIM/130X_mcRun3_2023_realistic_v15-v2/2820000/0528df38-ff44-47d4-b092-6cb8ec34bcfa.root",
        "T2_US_Nebraska: davs://xrootd-local.unl.edu:1094/store/mc/Run3Summer23NanoAODv12/NMSSM_XtoYHto4B_MX-700_MY-300_TuneCP5_13p6TeV_madgraph-pythia8/NANOAODSIM/130X_mcRun3_2023_realistic_v15-v2/2820000/0528df38-ff44-47d4-b092-6cb8ec34bcfa.root",
        "T2_IT_Pisa: davs://stwebdav.pi.infn.it:8443/cms/store/mc/Run3Summer23NanoAODv12/NMSSM_XtoYHto4B_MX-700_MY-300_TuneCP5_13p6TeV_madgraph-pythia8/NANOAODSIM/130X_mcRun3_2023_realistic_v15-v2/2820000/0528df38-ff44-47d4-b092-6cb8ec34bcfa.root",
        "T1_RU_JINR_Disk: davs://se-wbdv.jinr-t1.ru:2880/pnfs/jinr-t1.ru/data/cms/store/mc/Run3Summer23NanoAODv12/NMSSM_XtoYHto4B_MX-700_MY-300_TuneCP5_13p6TeV_madgraph-pythia8/NANOAODSIM/130X_mcRun3_2023_realistic_v15-v2/2820000/0528df38-ff44-47d4-b092-6cb8ec34bcfa.root",
        "T2_US_MIT_Tape: davs://dtn20.nese.mghpcc.org:443/store/mc/Run3Summer23NanoAODv12/NMSSM_XtoYHto4B_MX-700_MY-300_TuneCP5_13p6TeV_madgraph-pythia8/NANOAODSIM/130X_mcRun3_2023_realistic_v15-v2/2820000/0528df38-ff44-47d4-b092-6cb8ec34bcfa.root"
    ]
}