#/NMSSM_XtoYHto4B_MX-3500_MY-95_TuneCP5_13p6TeV_madgraph-pythia8/Run3Summer23BPixNanoAODv12-130X_mcRun3_2023_realistic_postBPix_v6-v2/NANOAODSIM
+---------------------------------------------------------------------------------------------------------------------------------------------------------------------------------------------------------------+--------+-------------+------------+----------+
| SCOPE:NAME                                                                                                                                                                                                    | GUID   | ADLER32     | FILESIZE   | EVENTS   |
|---------------------------------------------------------------------------------------------------------------------------------------------------------------------------------------------------------------+--------+-------------+------------+----------|
| cms:/store/mc/Run3Summer23BPixNanoAODv12/NMSSM_XtoYHto4B_MX-3500_MY-95_TuneCP5_13p6TeV_madgraph-pythia8/NANOAODSIM/130X_mcRun3_2023_realistic_postBPix_v6-v2/140000/6e0bf4ad-c26d-4464-94cf-a9451e7c3b45.root | (None) | ad:31b3a9c5 | 100.775 MB |          |
+---------------------------------------------------------------------------------------------------------------------------------------------------------------------------------------------------------------+--------+-------------+------------+----------+
Total files : 1
Total size : 100.775 MB
