#/NMSSM_XtoYHto4B_MX-900_MY-150_TuneCP5_13p6TeV_madgraph-pythia8/Run3Summer23BPixNanoAODv12-130X_mcRun3_2023_realistic_postBPix_v6-v2/NANOAODSIM
+----------------------------------------------------------------------------------------------------------------------------------------------------------------------------------------------------------------+--------+-------------+------------+----------+
| SCOPE:NAME                                                                                                                                                                                                     | GUID   | ADLER32     | FILESIZE   | EVENTS   |
|----------------------------------------------------------------------------------------------------------------------------------------------------------------------------------------------------------------+--------+-------------+------------+----------|
| cms:/store/mc/Run3Summer23BPixNanoAODv12/NMSSM_XtoYHto4B_MX-900_MY-150_TuneCP5_13p6TeV_madgraph-pythia8/NANOAODSIM/130X_mcRun3_2023_realistic_postBPix_v6-v2/2550000/d1f3d206-2e58-463f-ab04-89aa75d4e412.root | (None) | ad:046d0ac8 | 11.039 MB  |          |
| cms:/store/mc/Run3Summer23BPixNanoAODv12/NMSSM_XtoYHto4B_MX-900_MY-150_TuneCP5_13p6TeV_madgraph-pythia8/NANOAODSIM/130X_mcRun3_2023_realistic_postBPix_v6-v2/2550000/4fd395a4-17af-4bb5-b9a0-83f379f71fd4.root | (None) | ad:c08817f2 | 11.018 MB  |          |
| cms:/store/mc/Run3Summer23BPixNanoAODv12/NMSSM_XtoYHto4B_MX-900_MY-150_TuneCP5_13p6TeV_madgraph-pythia8/NANOAODSIM/130X_mcRun3_2023_realistic_postBPix_v6-v2/2550000/8b1daeec-0a5b-4123-96c0-0f6c24449162.root | (None) | ad:5083c489 | 11.039 MB  |          |
| cms:/store/mc/Run3Summer23BPixNanoAODv12/NMSSM_XtoYHto4B_MX-900_MY-150_TuneCP5_13p6TeV_madgraph-pythia8/NANOAODSIM/130X_mcRun3_2023_realistic_postBPix_v6-v2/2550000/a557423b-323d-4830-9658-022a204b8793.root | (None) | ad:8f54606b | 19.072 MB  |          |
| cms:/store/mc/Run3Summer23BPixNanoAODv12/NMSSM_XtoYHto4B_MX-900_MY-150_TuneCP5_13p6TeV_madgraph-pythia8/NANOAODSIM/130X_mcRun3_2023_realistic_postBPix_v6-v2/2550000/33b7e77c-c082-416a-8102-05a0baec5829.root | (None) | ad:4942b23d | 11.052 MB  |          |
| cms:/store/mc/Run3Summer23BPixNanoAODv12/NMSSM_XtoYHto4B_MX-900_MY-150_TuneCP5_13p6TeV_madgraph-pythia8/NANOAODSIM/130X_mcRun3_2023_realistic_postBPix_v6-v2/2550000/d070f6f0-ccdf-4b54-81cf-1f63001eb823.root | (None) | ad:e876fb33 | 11.060 MB  |          |
| cms:/store/mc/Run3Summer23BPixNanoAODv12/NMSSM_XtoYHto4B_MX-900_MY-150_TuneCP5_13p6TeV_madgraph-pythia8/NANOAODSIM/130X_mcRun3_2023_realistic_postBPix_v6-v2/2550000/95946efd-7bae-4942-8164-64263922f21e.root | (None) | ad:cf398511 | 35.007 MB  |          |
+----------------------------------------------------------------------------------------------------------------------------------------------------------------------------------------------------------------+--------+-------------+------------+----------+
Total files : 7
Total size : 109.287 MB
