{
    "cms:/store/mc/Run3Summer22NanoAODv12/NMSSM_XtoYHto4B_MX-650_MY-400_TuneCP5_13p6TeV_madgraph-pythia8/NANOAODSIM/130X_mcRun3_2022_realistic_v5-v2/60000/348f86ee-b9b6-45c6-a28c-338f2baa338d.root": [
        "T1_US_FNAL_Disk: davs://cmsdcadisk.fnal.gov:2880/dcache/uscmsdisk/store/mc/Run3Summer22NanoAODv12/NMSSM_XtoYHto4B_MX-650_MY-400_TuneCP5_13p6TeV_madgraph-pythia8/NANOAODSIM/130X_mcRun3_2022_realistic_v5-v2/60000/348f86ee-b9b6-45c6-a28c-338f2baa338d.root",
        "T2_DE_DESY: davs://dcache-cms-webdav.desy.de:2880/pnfs/desy.de/cms/tier2/store/mc/Run3Summer22NanoAODv12/NMSSM_XtoYHto4B_MX-650_MY-400_TuneCP5_13p6TeV_madgraph-pythia8/NANOAODSIM/130X_mcRun3_2022_realistic_v5-v2/60000/348f86ee-b9b6-45c6-a28c-338f2baa338d.root",
        "T1_DE_KIT_Disk: davs://cmsdcache-kit-disk.gridka.de:2880/pnfs/gridka.de/cms/disk-only/store/mc/Run3Summer22NanoAODv12/NMSSM_XtoYHto4B_MX-650_MY-400_TuneCP5_13p6TeV_madgraph-pythia8/NANOAODSIM/130X_mcRun3_2022_realistic_v5-v2/60000/348f86ee-b9b6-45c6-a28c-338f2baa338d.root",
        "T2_US_Vanderbilt: davs://xrootd-vanderbilt.sites.opensciencegrid.org:1094/store/mc/Run3Summer22NanoAODv12/NMSSM_XtoYHto4B_MX-650_MY-400_TuneCP5_13p6TeV_madgraph-pythia8/NANOAODSIM/130X_mcRun3_2022_realistic_v5-v2/60000/348f86ee-b9b6-45c6-a28c-338f2baa338d.root",
        "T2_BE_UCL: davs://ingrid-se02.cism.ucl.ac.be:1094/store/mc/Run3Summer22NanoAODv12/NMSSM_XtoYHto4B_MX-650_MY-400_TuneCP5_13p6TeV_madgraph-pythia8/NANOAODSIM/130X_mcRun3_2022_realistic_v5-v2/60000/348f86ee-b9b6-45c6-a28c-338f2baa338d.root",
        "T1_IT_CNAF_Tape: davs://xfer-tape-cms.cr.cnaf.infn.it:8443/cmstape/store/mc/Run3Summer22NanoAODv12/NMSSM_XtoYHto4B_MX-650_MY-400_TuneCP5_13p6TeV_madgraph-pythia8/NANOAODSIM/130X_mcRun3_2022_realistic_v5-v2/60000/348f86ee-b9b6-45c6-a28c-338f2baa338d.root",
        "T1_RU_JINR_Disk: davs://se-wbdv.jinr-t1.ru:2880/pnfs/jinr-t1.ru/data/cms/store/mc/Run3Summer22NanoAODv12/NMSSM_XtoYHto4B_MX-650_MY-400_TuneCP5_13p6TeV_madgraph-pythia8/NANOAODSIM/130X_mcRun3_2022_realistic_v5-v2/60000/348f86ee-b9b6-45c6-a28c-338f2baa338d.root"
    ],
    "cms:/store/mc/Run3Summer22NanoAODv12/NMSSM_XtoYHto4B_MX-650_MY-400_TuneCP5_13p6TeV_madgraph-pythia8/NANOAODSIM/130X_mcRun3_2022_realistic_v5-v2/60000/1559d985-d108-432d-82d2-5b57d38aafd1.root": [
        "T1_US_FNAL_Disk: davs://cmsdcadisk.fnal.gov:2880/dcache/uscmsdisk/store/mc/Run3Summer22NanoAODv12/NMSSM_XtoYHto4B_MX-650_MY-400_TuneCP5_13p6TeV_madgraph-pythia8/NANOAODSIM/130X_mcRun3_2022_realistic_v5-v2/60000/1559d985-d108-432d-82d2-5b57d38aafd1.root",
        "T2_DE_DESY: davs://dcache-cms-webdav.desy.de:2880/pnfs/desy.de/cms/tier2/store/mc/Run3Summer22NanoAODv12/NMSSM_XtoYHto4B_MX-650_MY-400_TuneCP5_13p6TeV_madgraph-pythia8/NANOAODSIM/130X_mcRun3_2022_realistic_v5-v2/60000/1559d985-d108-432d-82d2-5b57d38aafd1.root",
        "T1_DE_KIT_Disk: davs://cmsdcache-kit-disk.gridka.de:2880/pnfs/gridka.de/cms/disk-only/store/mc/Run3Summer22NanoAODv12/NMSSM_XtoYHto4B_MX-650_MY-400_TuneCP5_13p6TeV_madgraph-pythia8/NANOAODSIM/130X_mcRun3_2022_realistic_v5-v2/60000/1559d985-d108-432d-82d2-5b57d38aafd1.root",
        "T2_US_Vanderbilt: davs://xrootd-vanderbilt.sites.opensciencegrid.org:1094/store/mc/Run3Summer22NanoAODv12/NMSSM_XtoYHto4B_MX-650_MY-400_TuneCP5_13p6TeV_madgraph-pythia8/NANOAODSIM/130X_mcRun3_2022_realistic_v5-v2/60000/1559d985-d108-432d-82d2-5b57d38aafd1.root",
        "T2_BE_UCL: davs://ingrid-se02.cism.ucl.ac.be:1094/store/mc/Run3Summer22NanoAODv12/NMSSM_XtoYHto4B_MX-650_MY-400_TuneCP5_13p6TeV_madgraph-pythia8/NANOAODSIM/130X_mcRun3_2022_realistic_v5-v2/60000/1559d985-d108-432d-82d2-5b57d38aafd1.root",
        "T1_IT_CNAF_Tape: davs://xfer-tape-cms.cr.cnaf.infn.it:8443/cmstape/store/mc/Run3Summer22NanoAODv12/NMSSM_XtoYHto4B_MX-650_MY-400_TuneCP5_13p6TeV_madgraph-pythia8/NANOAODSIM/130X_mcRun3_2022_realistic_v5-v2/60000/1559d985-d108-432d-82d2-5b57d38aafd1.root",
        "T1_RU_JINR_Disk: davs://se-wbdv.jinr-t1.ru:2880/pnfs/jinr-t1.ru/data/cms/store/mc/Run3Summer22NanoAODv12/NMSSM_XtoYHto4B_MX-650_MY-400_TuneCP5_13p6TeV_madgraph-pythia8/NANOAODSIM/130X_mcRun3_2022_realistic_v5-v2/60000/1559d985-d108-432d-82d2-5b57d38aafd1.root"
    ]
}