{
    "cms:/store/mc/Run3Summer22NanoAODv12/NMSSM_XtoYHto4B_MX-1600_MY-1200_TuneCP5_13p6TeV_madgraph-pythia8/NANOAODSIM/130X_mcRun3_2022_realistic_v5-v2/2820000/e7041cb3-d4d7-4c71-9ca6-6124e94a8acc.root": [
        "T2_DE_DESY: davs://dcache-cms-webdav.desy.de:2880/pnfs/desy.de/cms/tier2/store/mc/Run3Summer22NanoAODv12/NMSSM_XtoYHto4B_MX-1600_MY-1200_TuneCP5_13p6TeV_madgraph-pythia8/NANOAODSIM/130X_mcRun3_2022_realistic_v5-v2/2820000/e7041cb3-d4d7-4c71-9ca6-6124e94a8acc.root",
        "T2_US_MIT: davs://xrootd.cmsaf.mit.edu:1094/store/mc/Run3Summer22NanoAODv12/NMSSM_XtoYHto4B_MX-1600_MY-1200_TuneCP5_13p6TeV_madgraph-pythia8/NANOAODSIM/130X_mcRun3_2022_realistic_v5-v2/2820000/e7041cb3-d4d7-4c71-9ca6-6124e94a8acc.root",
        "T1_UK_RAL_Disk: davs://rdr.echo.stfc.ac.uk:1094/store/mc/Run3Summer22NanoAODv12/NMSSM_XtoYHto4B_MX-1600_MY-1200_TuneCP5_13p6TeV_madgraph-pythia8/NANOAODSIM/130X_mcRun3_2022_realistic_v5-v2/2820000/e7041cb3-d4d7-4c71-9ca6-6124e94a8acc.root",
        "T2_KR_KISTI: davs://cms-t2-se01.sdfarm.kr:2880/store/mc/Run3Summer22NanoAODv12/NMSSM_XtoYHto4B_MX-1600_MY-1200_TuneCP5_13p6TeV_madgraph-pythia8/NANOAODSIM/130X_mcRun3_2022_realistic_v5-v2/2820000/e7041cb3-d4d7-4c71-9ca6-6124e94a8acc.root",
        "T2_US_Florida: davs://cmsio2.rc.ufl.edu:1094/store/mc/Run3Summer22NanoAODv12/NMSSM_XtoYHto4B_MX-1600_MY-1200_TuneCP5_13p6TeV_madgraph-pythia8/NANOAODSIM/130X_mcRun3_2022_realistic_v5-v2/2820000/e7041cb3-d4d7-4c71-9ca6-6124e94a8acc.root",
        "T2_BE_IIHE: davs://maite.iihe.ac.be:2880/pnfs/iihe/cms/ph/sc4/store/mc/Run3Summer22NanoAODv12/NMSSM_XtoYHto4B_MX-1600_MY-1200_TuneCP5_13p6TeV_madgraph-pythia8/NANOAODSIM/130X_mcRun3_2022_realistic_v5-v2/2820000/e7041cb3-d4d7-4c71-9ca6-6124e94a8acc.root",
        "T1_US_FNAL_Tape: davs://cmsdcatape.fnal.gov:2880/WAX/11/store/mc/Run3Summer22NanoAODv12/NMSSM_XtoYHto4B_MX-1600_MY-1200_TuneCP5_13p6TeV_madgraph-pythia8/NANOAODSIM/130X_mcRun3_2022_realistic_v5-v2/2820000/e7041cb3-d4d7-4c71-9ca6-6124e94a8acc.root"
    ],
    "cms:/store/mc/Run3Summer22NanoAODv12/NMSSM_XtoYHto4B_MX-1600_MY-1200_TuneCP5_13p6TeV_madgraph-pythia8/NANOAODSIM/130X_mcRun3_2022_realistic_v5-v2/2820000/2de3fcf3-dccd-4e91-aadf-df56a3ec4f60.root": [
        "T2_DE_DESY: davs://dcache-cms-webdav.desy.de:2880/pnfs/desy.de/cms/tier2/store/mc/Run3Summer22NanoAODv12/NMSSM_XtoYHto4B_MX-1600_MY-1200_TuneCP5_13p6TeV_madgraph-pythia8/NANOAODSIM/130X_mcRun3_2022_realistic_v5-v2/2820000/2de3fcf3-dccd-4e91-aadf-df56a3ec4f60.root",
        "T2_US_MIT: davs://xrootd.cmsaf.mit.edu:1094/store/mc/Run3Summer22NanoAODv12/NMSSM_XtoYHto4B_MX-1600_MY-1200_TuneCP5_13p6TeV_madgraph-pythia8/NANOAODSIM/130X_mcRun3_2022_realistic_v5-v2/2820000/2de3fcf3-dccd-4e91-aadf-df56a3ec4f60.root",
        "T1_UK_RAL_Disk: davs://rdr.echo.stfc.ac.uk:1094/store/mc/Run3Summer22NanoAODv12/NMSSM_XtoYHto4B_MX-1600_MY-1200_TuneCP5_13p6TeV_madgraph-pythia8/NANOAODSIM/130X_mcRun3_2022_realistic_v5-v2/2820000/2de3fcf3-dccd-4e91-aadf-df56a3ec4f60.root",
        "T2_KR_KISTI: davs://cms-t2-se01.sdfarm.kr:2880/store/mc/Run3Summer22NanoAODv12/NMSSM_XtoYHto4B_MX-1600_MY-1200_TuneCP5_13p6TeV_madgraph-pythia8/NANOAODSIM/130X_mcRun3_2022_realistic_v5-v2/2820000/2de3fcf3-dccd-4e91-aadf-df56a3ec4f60.root",
        "T2_US_Florida: davs://cmsio2.rc.ufl.edu:1094/store/mc/Run3Summer22NanoAODv12/NMSSM_XtoYHto4B_MX-1600_MY-1200_TuneCP5_13p6TeV_madgraph-pythia8/NANOAODSIM/130X_mcRun3_2022_realistic_v5-v2/2820000/2de3fcf3-dccd-4e91-aadf-df56a3ec4f60.root",
        "T2_BE_IIHE: davs://maite.iihe.ac.be:2880/pnfs/iihe/cms/ph/sc4/store/mc/Run3Summer22NanoAODv12/NMSSM_XtoYHto4B_MX-1600_MY-1200_TuneCP5_13p6TeV_madgraph-pythia8/NANOAODSIM/130X_mcRun3_2022_realistic_v5-v2/2820000/2de3fcf3-dccd-4e91-aadf-df56a3ec4f60.root",
        "T1_US_FNAL_Tape: davs://cmsdcatape.fnal.gov:2880/WAX/11/store/mc/Run3Summer22NanoAODv12/NMSSM_XtoYHto4B_MX-1600_MY-1200_TuneCP5_13p6TeV_madgraph-pythia8/NANOAODSIM/130X_mcRun3_2022_realistic_v5-v2/2820000/2de3fcf3-dccd-4e91-aadf-df56a3ec4f60.root"
    ],
    "cms:/store/mc/Run3Summer22NanoAODv12/NMSSM_XtoYHto4B_MX-1600_MY-1200_TuneCP5_13p6TeV_madgraph-pythia8/NANOAODSIM/130X_mcRun3_2022_realistic_v5-v2/2820000/da11eff2-170b-466a-82ac-8b023599a2f4.root": [
        "T2_DE_DESY: davs://dcache-cms-webdav.desy.de:2880/pnfs/desy.de/cms/tier2/store/mc/Run3Summer22NanoAODv12/NMSSM_XtoYHto4B_MX-1600_MY-1200_TuneCP5_13p6TeV_madgraph-pythia8/NANOAODSIM/130X_mcRun3_2022_realistic_v5-v2/2820000/da11eff2-170b-466a-82ac-8b023599a2f4.root",
        "T2_US_MIT: davs://xrootd.cmsaf.mit.edu:1094/store/mc/Run3Summer22NanoAODv12/NMSSM_XtoYHto4B_MX-1600_MY-1200_TuneCP5_13p6TeV_madgraph-pythia8/NANOAODSIM/130X_mcRun3_2022_realistic_v5-v2/2820000/da11eff2-170b-466a-82ac-8b023599a2f4.root",
        "T1_UK_RAL_Disk: davs://rdr.echo.stfc.ac.uk:1094/store/mc/Run3Summer22NanoAODv12/NMSSM_XtoYHto4B_MX-1600_MY-1200_TuneCP5_13p6TeV_madgraph-pythia8/NANOAODSIM/130X_mcRun3_2022_realistic_v5-v2/2820000/da11eff2-170b-466a-82ac-8b023599a2f4.root",
        "T2_KR_KISTI: davs://cms-t2-se01.sdfarm.kr:2880/store/mc/Run3Summer22NanoAODv12/NMSSM_XtoYHto4B_MX-1600_MY-1200_TuneCP5_13p6TeV_madgraph-pythia8/NANOAODSIM/130X_mcRun3_2022_realistic_v5-v2/2820000/da11eff2-170b-466a-82ac-8b023599a2f4.root",
        "T2_US_Florida: davs://cmsio2.rc.ufl.edu:1094/store/mc/Run3Summer22NanoAODv12/NMSSM_XtoYHto4B_MX-1600_MY-1200_TuneCP5_13p6TeV_madgraph-pythia8/NANOAODSIM/130X_mcRun3_2022_realistic_v5-v2/2820000/da11eff2-170b-466a-82ac-8b023599a2f4.root",
        "T2_BE_IIHE: davs://maite.iihe.ac.be:2880/pnfs/iihe/cms/ph/sc4/store/mc/Run3Summer22NanoAODv12/NMSSM_XtoYHto4B_MX-1600_MY-1200_TuneCP5_13p6TeV_madgraph-pythia8/NANOAODSIM/130X_mcRun3_2022_realistic_v5-v2/2820000/da11eff2-170b-466a-82ac-8b023599a2f4.root",
        "T1_US_FNAL_Tape: davs://cmsdcatape.fnal.gov:2880/WAX/11/store/mc/Run3Summer22NanoAODv12/NMSSM_XtoYHto4B_MX-1600_MY-1200_TuneCP5_13p6TeV_madgraph-pythia8/NANOAODSIM/130X_mcRun3_2022_realistic_v5-v2/2820000/da11eff2-170b-466a-82ac-8b023599a2f4.root"
    ],
    "cms:/store/mc/Run3Summer22NanoAODv12/NMSSM_XtoYHto4B_MX-1600_MY-1200_TuneCP5_13p6TeV_madgraph-pythia8/NANOAODSIM/130X_mcRun3_2022_realistic_v5-v2/2820000/bd560315-4ee8-4381-8ff6-fb458fb02a45.root": [
        "T2_DE_DESY: davs://dcache-cms-webdav.desy.de:2880/pnfs/desy.de/cms/tier2/store/mc/Run3Summer22NanoAODv12/NMSSM_XtoYHto4B_MX-1600_MY-1200_TuneCP5_13p6TeV_madgraph-pythia8/NANOAODSIM/130X_mcRun3_2022_realistic_v5-v2/2820000/bd560315-4ee8-4381-8ff6-fb458fb02a45.root",
        "T2_US_MIT: davs://xrootd.cmsaf.mit.edu:1094/store/mc/Run3Summer22NanoAODv12/NMSSM_XtoYHto4B_MX-1600_MY-1200_TuneCP5_13p6TeV_madgraph-pythia8/NANOAODSIM/130X_mcRun3_2022_realistic_v5-v2/2820000/bd560315-4ee8-4381-8ff6-fb458fb02a45.root",
        "T1_UK_RAL_Disk: davs://rdr.echo.stfc.ac.uk:1094/store/mc/Run3Summer22NanoAODv12/NMSSM_XtoYHto4B_MX-1600_MY-1200_TuneCP5_13p6TeV_madgraph-pythia8/NANOAODSIM/130X_mcRun3_2022_realistic_v5-v2/2820000/bd560315-4ee8-4381-8ff6-fb458fb02a45.root",
        "T2_KR_KISTI: davs://cms-t2-se01.sdfarm.kr:2880/store/mc/Run3Summer22NanoAODv12/NMSSM_XtoYHto4B_MX-1600_MY-1200_TuneCP5_13p6TeV_madgraph-pythia8/NANOAODSIM/130X_mcRun3_2022_realistic_v5-v2/2820000/bd560315-4ee8-4381-8ff6-fb458fb02a45.root",
        "T2_US_Florida: davs://cmsio2.rc.ufl.edu:1094/store/mc/Run3Summer22NanoAODv12/NMSSM_XtoYHto4B_MX-1600_MY-1200_TuneCP5_13p6TeV_madgraph-pythia8/NANOAODSIM/130X_mcRun3_2022_realistic_v5-v2/2820000/bd560315-4ee8-4381-8ff6-fb458fb02a45.root",
        "T2_BE_IIHE: davs://maite.iihe.ac.be:2880/pnfs/iihe/cms/ph/sc4/store/mc/Run3Summer22NanoAODv12/NMSSM_XtoYHto4B_MX-1600_MY-1200_TuneCP5_13p6TeV_madgraph-pythia8/NANOAODSIM/130X_mcRun3_2022_realistic_v5-v2/2820000/bd560315-4ee8-4381-8ff6-fb458fb02a45.root",
        "T1_US_FNAL_Tape: davs://cmsdcatape.fnal.gov:2880/WAX/11/store/mc/Run3Summer22NanoAODv12/NMSSM_XtoYHto4B_MX-1600_MY-1200_TuneCP5_13p6TeV_madgraph-pythia8/NANOAODSIM/130X_mcRun3_2022_realistic_v5-v2/2820000/bd560315-4ee8-4381-8ff6-fb458fb02a45.root"
    ],
    "cms:/store/mc/Run3Summer22NanoAODv12/NMSSM_XtoYHto4B_MX-1600_MY-1200_TuneCP5_13p6TeV_madgraph-pythia8/NANOAODSIM/130X_mcRun3_2022_realistic_v5-v2/2820000/f0d65540-28ef-4663-8dc3-a5e2ec7ac56b.root": [
        "T2_DE_DESY: davs://dcache-cms-webdav.desy.de:2880/pnfs/desy.de/cms/tier2/store/mc/Run3Summer22NanoAODv12/NMSSM_XtoYHto4B_MX-1600_MY-1200_TuneCP5_13p6TeV_madgraph-pythia8/NANOAODSIM/130X_mcRun3_2022_realistic_v5-v2/2820000/f0d65540-28ef-4663-8dc3-a5e2ec7ac56b.root",
        "T2_US_MIT: davs://xrootd.cmsaf.mit.edu:1094/store/mc/Run3Summer22NanoAODv12/NMSSM_XtoYHto4B_MX-1600_MY-1200_TuneCP5_13p6TeV_madgraph-pythia8/NANOAODSIM/130X_mcRun3_2022_realistic_v5-v2/2820000/f0d65540-28ef-4663-8dc3-a5e2ec7ac56b.root",
        "T1_UK_RAL_Disk: davs://rdr.echo.stfc.ac.uk:1094/store/mc/Run3Summer22NanoAODv12/NMSSM_XtoYHto4B_MX-1600_MY-1200_TuneCP5_13p6TeV_madgraph-pythia8/NANOAODSIM/130X_mcRun3_2022_realistic_v5-v2/2820000/f0d65540-28ef-4663-8dc3-a5e2ec7ac56b.root",
        "T2_KR_KISTI: davs://cms-t2-se01.sdfarm.kr:2880/store/mc/Run3Summer22NanoAODv12/NMSSM_XtoYHto4B_MX-1600_MY-1200_TuneCP5_13p6TeV_madgraph-pythia8/NANOAODSIM/130X_mcRun3_2022_realistic_v5-v2/2820000/f0d65540-28ef-4663-8dc3-a5e2ec7ac56b.root",
        "T2_US_Florida: davs://cmsio2.rc.ufl.edu:1094/store/mc/Run3Summer22NanoAODv12/NMSSM_XtoYHto4B_MX-1600_MY-1200_TuneCP5_13p6TeV_madgraph-pythia8/NANOAODSIM/130X_mcRun3_2022_realistic_v5-v2/2820000/f0d65540-28ef-4663-8dc3-a5e2ec7ac56b.root",
        "T2_BE_IIHE: davs://maite.iihe.ac.be:2880/pnfs/iihe/cms/ph/sc4/store/mc/Run3Summer22NanoAODv12/NMSSM_XtoYHto4B_MX-1600_MY-1200_TuneCP5_13p6TeV_madgraph-pythia8/NANOAODSIM/130X_mcRun3_2022_realistic_v5-v2/2820000/f0d65540-28ef-4663-8dc3-a5e2ec7ac56b.root",
        "T1_US_FNAL_Tape: davs://cmsdcatape.fnal.gov:2880/WAX/11/store/mc/Run3Summer22NanoAODv12/NMSSM_XtoYHto4B_MX-1600_MY-1200_TuneCP5_13p6TeV_madgraph-pythia8/NANOAODSIM/130X_mcRun3_2022_realistic_v5-v2/2820000/f0d65540-28ef-4663-8dc3-a5e2ec7ac56b.root"
    ],
    "cms:/store/mc/Run3Summer22NanoAODv12/NMSSM_XtoYHto4B_MX-1600_MY-1200_TuneCP5_13p6TeV_madgraph-pythia8/NANOAODSIM/130X_mcRun3_2022_realistic_v5-v2/2820000/9b6a77c1-5ff4-4f7b-8798-cbd2b524f765.root": [
        "T2_DE_DESY: davs://dcache-cms-webdav.desy.de:2880/pnfs/desy.de/cms/tier2/store/mc/Run3Summer22NanoAODv12/NMSSM_XtoYHto4B_MX-1600_MY-1200_TuneCP5_13p6TeV_madgraph-pythia8/NANOAODSIM/130X_mcRun3_2022_realistic_v5-v2/2820000/9b6a77c1-5ff4-4f7b-8798-cbd2b524f765.root",
        "T1_UK_RAL_Disk: davs://rdr.echo.stfc.ac.uk:1094/store/mc/Run3Summer22NanoAODv12/NMSSM_XtoYHto4B_MX-1600_MY-1200_TuneCP5_13p6TeV_madgraph-pythia8/NANOAODSIM/130X_mcRun3_2022_realistic_v5-v2/2820000/9b6a77c1-5ff4-4f7b-8798-cbd2b524f765.root",
        "T2_KR_KISTI: davs://cms-t2-se01.sdfarm.kr:2880/store/mc/Run3Summer22NanoAODv12/NMSSM_XtoYHto4B_MX-1600_MY-1200_TuneCP5_13p6TeV_madgraph-pythia8/NANOAODSIM/130X_mcRun3_2022_realistic_v5-v2/2820000/9b6a77c1-5ff4-4f7b-8798-cbd2b524f765.root",
        "T2_US_Wisconsin: davs://cmsxrootd.hep.wisc.edu:1094/store/mc/Run3Summer22NanoAODv12/NMSSM_XtoYHto4B_MX-1600_MY-1200_TuneCP5_13p6TeV_madgraph-pythia8/NANOAODSIM/130X_mcRun3_2022_realistic_v5-v2/2820000/9b6a77c1-5ff4-4f7b-8798-cbd2b524f765.root",
        "T2_US_Florida: davs://cmsio2.rc.ufl.edu:1094/store/mc/Run3Summer22NanoAODv12/NMSSM_XtoYHto4B_MX-1600_MY-1200_TuneCP5_13p6TeV_madgraph-pythia8/NANOAODSIM/130X_mcRun3_2022_realistic_v5-v2/2820000/9b6a77c1-5ff4-4f7b-8798-cbd2b524f765.root",
        "T2_BE_IIHE: davs://maite.iihe.ac.be:2880/pnfs/iihe/cms/ph/sc4/store/mc/Run3Summer22NanoAODv12/NMSSM_XtoYHto4B_MX-1600_MY-1200_TuneCP5_13p6TeV_madgraph-pythia8/NANOAODSIM/130X_mcRun3_2022_realistic_v5-v2/2820000/9b6a77c1-5ff4-4f7b-8798-cbd2b524f765.root",
        "T1_US_FNAL_Tape: davs://cmsdcatape.fnal.gov:2880/WAX/11/store/mc/Run3Summer22NanoAODv12/NMSSM_XtoYHto4B_MX-1600_MY-1200_TuneCP5_13p6TeV_madgraph-pythia8/NANOAODSIM/130X_mcRun3_2022_realistic_v5-v2/2820000/9b6a77c1-5ff4-4f7b-8798-cbd2b524f765.root"
    ],
    "cms:/store/mc/Run3Summer22NanoAODv12/NMSSM_XtoYHto4B_MX-1600_MY-1200_TuneCP5_13p6TeV_madgraph-pythia8/NANOAODSIM/130X_mcRun3_2022_realistic_v5-v2/2820000/02ba1b60-5b10-45e5-9d8b-1179b5e97f1b.root": [
        "T2_DE_DESY: davs://dcache-cms-webdav.desy.de:2880/pnfs/desy.de/cms/tier2/store/mc/Run3Summer22NanoAODv12/NMSSM_XtoYHto4B_MX-1600_MY-1200_TuneCP5_13p6TeV_madgraph-pythia8/NANOAODSIM/130X_mcRun3_2022_realistic_v5-v2/2820000/02ba1b60-5b10-45e5-9d8b-1179b5e97f1b.root",
        "T1_UK_RAL_Disk: davs://rdr.echo.stfc.ac.uk:1094/store/mc/Run3Summer22NanoAODv12/NMSSM_XtoYHto4B_MX-1600_MY-1200_TuneCP5_13p6TeV_madgraph-pythia8/NANOAODSIM/130X_mcRun3_2022_realistic_v5-v2/2820000/02ba1b60-5b10-45e5-9d8b-1179b5e97f1b.root",
        "T2_KR_KISTI: davs://cms-t2-se01.sdfarm.kr:2880/store/mc/Run3Summer22NanoAODv12/NMSSM_XtoYHto4B_MX-1600_MY-1200_TuneCP5_13p6TeV_madgraph-pythia8/NANOAODSIM/130X_mcRun3_2022_realistic_v5-v2/2820000/02ba1b60-5b10-45e5-9d8b-1179b5e97f1b.root",
        "T2_US_Wisconsin: davs://cmsxrootd.hep.wisc.edu:1094/store/mc/Run3Summer22NanoAODv12/NMSSM_XtoYHto4B_MX-1600_MY-1200_TuneCP5_13p6TeV_madgraph-pythia8/NANOAODSIM/130X_mcRun3_2022_realistic_v5-v2/2820000/02ba1b60-5b10-45e5-9d8b-1179b5e97f1b.root",
        "T2_US_Florida: davs://cmsio2.rc.ufl.edu:1094/store/mc/Run3Summer22NanoAODv12/NMSSM_XtoYHto4B_MX-1600_MY-1200_TuneCP5_13p6TeV_madgraph-pythia8/NANOAODSIM/130X_mcRun3_2022_realistic_v5-v2/2820000/02ba1b60-5b10-45e5-9d8b-1179b5e97f1b.root",
        "T2_BE_IIHE: davs://maite.iihe.ac.be:2880/pnfs/iihe/cms/ph/sc4/store/mc/Run3Summer22NanoAODv12/NMSSM_XtoYHto4B_MX-1600_MY-1200_TuneCP5_13p6TeV_madgraph-pythia8/NANOAODSIM/130X_mcRun3_2022_realistic_v5-v2/2820000/02ba1b60-5b10-45e5-9d8b-1179b5e97f1b.root",
        "T1_US_FNAL_Tape: davs://cmsdcatape.fnal.gov:2880/WAX/11/store/mc/Run3Summer22NanoAODv12/NMSSM_XtoYHto4B_MX-1600_MY-1200_TuneCP5_13p6TeV_madgraph-pythia8/NANOAODSIM/130X_mcRun3_2022_realistic_v5-v2/2820000/02ba1b60-5b10-45e5-9d8b-1179b5e97f1b.root"
    ],
    "cms:/store/mc/Run3Summer22NanoAODv12/NMSSM_XtoYHto4B_MX-1600_MY-1200_TuneCP5_13p6TeV_madgraph-pythia8/NANOAODSIM/130X_mcRun3_2022_realistic_v5-v2/2820000/22fb88dc-28da-440b-8454-d5b0bba4c17a.root": [
        "T2_DE_DESY: davs://dcache-cms-webdav.desy.de:2880/pnfs/desy.de/cms/tier2/store/mc/Run3Summer22NanoAODv12/NMSSM_XtoYHto4B_MX-1600_MY-1200_TuneCP5_13p6TeV_madgraph-pythia8/NANOAODSIM/130X_mcRun3_2022_realistic_v5-v2/2820000/22fb88dc-28da-440b-8454-d5b0bba4c17a.root",
        "T2_US_MIT: davs://xrootd.cmsaf.mit.edu:1094/store/mc/Run3Summer22NanoAODv12/NMSSM_XtoYHto4B_MX-1600_MY-1200_TuneCP5_13p6TeV_madgraph-pythia8/NANOAODSIM/130X_mcRun3_2022_realistic_v5-v2/2820000/22fb88dc-28da-440b-8454-d5b0bba4c17a.root",
        "T1_UK_RAL_Disk: davs://rdr.echo.stfc.ac.uk:1094/store/mc/Run3Summer22NanoAODv12/NMSSM_XtoYHto4B_MX-1600_MY-1200_TuneCP5_13p6TeV_madgraph-pythia8/NANOAODSIM/130X_mcRun3_2022_realistic_v5-v2/2820000/22fb88dc-28da-440b-8454-d5b0bba4c17a.root",
        "T2_KR_KISTI: davs://cms-t2-se01.sdfarm.kr:2880/store/mc/Run3Summer22NanoAODv12/NMSSM_XtoYHto4B_MX-1600_MY-1200_TuneCP5_13p6TeV_madgraph-pythia8/NANOAODSIM/130X_mcRun3_2022_realistic_v5-v2/2820000/22fb88dc-28da-440b-8454-d5b0bba4c17a.root",
        "T2_US_Florida: davs://cmsio2.rc.ufl.edu:1094/store/mc/Run3Summer22NanoAODv12/NMSSM_XtoYHto4B_MX-1600_MY-1200_TuneCP5_13p6TeV_madgraph-pythia8/NANOAODSIM/130X_mcRun3_2022_realistic_v5-v2/2820000/22fb88dc-28da-440b-8454-d5b0bba4c17a.root",
        "T2_BE_IIHE: davs://maite.iihe.ac.be:2880/pnfs/iihe/cms/ph/sc4/store/mc/Run3Summer22NanoAODv12/NMSSM_XtoYHto4B_MX-1600_MY-1200_TuneCP5_13p6TeV_madgraph-pythia8/NANOAODSIM/130X_mcRun3_2022_realistic_v5-v2/2820000/22fb88dc-28da-440b-8454-d5b0bba4c17a.root",
        "T1_US_FNAL_Tape: davs://cmsdcatape.fnal.gov:2880/WAX/11/store/mc/Run3Summer22NanoAODv12/NMSSM_XtoYHto4B_MX-1600_MY-1200_TuneCP5_13p6TeV_madgraph-pythia8/NANOAODSIM/130X_mcRun3_2022_realistic_v5-v2/2820000/22fb88dc-28da-440b-8454-d5b0bba4c17a.root"
    ],
    "cms:/store/mc/Run3Summer22NanoAODv12/NMSSM_XtoYHto4B_MX-1600_MY-1200_TuneCP5_13p6TeV_madgraph-pythia8/NANOAODSIM/130X_mcRun3_2022_realistic_v5-v2/2820000/8ee3e038-11af-4488-b1df-4cbf174bf9a8.root": [
        "T2_DE_DESY: davs://dcache-cms-webdav.desy.de:2880/pnfs/desy.de/cms/tier2/store/mc/Run3Summer22NanoAODv12/NMSSM_XtoYHto4B_MX-1600_MY-1200_TuneCP5_13p6TeV_madgraph-pythia8/NANOAODSIM/130X_mcRun3_2022_realistic_v5-v2/2820000/8ee3e038-11af-4488-b1df-4cbf174bf9a8.root",
        "T2_US_MIT: davs://xrootd.cmsaf.mit.edu:1094/store/mc/Run3Summer22NanoAODv12/NMSSM_XtoYHto4B_MX-1600_MY-1200_TuneCP5_13p6TeV_madgraph-pythia8/NANOAODSIM/130X_mcRun3_2022_realistic_v5-v2/2820000/8ee3e038-11af-4488-b1df-4cbf174bf9a8.root",
        "T1_UK_RAL_Disk: davs://rdr.echo.stfc.ac.uk:1094/store/mc/Run3Summer22NanoAODv12/NMSSM_XtoYHto4B_MX-1600_MY-1200_TuneCP5_13p6TeV_madgraph-pythia8/NANOAODSIM/130X_mcRun3_2022_realistic_v5-v2/2820000/8ee3e038-11af-4488-b1df-4cbf174bf9a8.root",
        "T2_KR_KISTI: davs://cms-t2-se01.sdfarm.kr:2880/store/mc/Run3Summer22NanoAODv12/NMSSM_XtoYHto4B_MX-1600_MY-1200_TuneCP5_13p6TeV_madgraph-pythia8/NANOAODSIM/130X_mcRun3_2022_realistic_v5-v2/2820000/8ee3e038-11af-4488-b1df-4cbf174bf9a8.root",
        "T2_US_Florida: davs://cmsio2.rc.ufl.edu:1094/store/mc/Run3Summer22NanoAODv12/NMSSM_XtoYHto4B_MX-1600_MY-1200_TuneCP5_13p6TeV_madgraph-pythia8/NANOAODSIM/130X_mcRun3_2022_realistic_v5-v2/2820000/8ee3e038-11af-4488-b1df-4cbf174bf9a8.root",
        "T2_BE_IIHE: davs://maite.iihe.ac.be:2880/pnfs/iihe/cms/ph/sc4/store/mc/Run3Summer22NanoAODv12/NMSSM_XtoYHto4B_MX-1600_MY-1200_TuneCP5_13p6TeV_madgraph-pythia8/NANOAODSIM/130X_mcRun3_2022_realistic_v5-v2/2820000/8ee3e038-11af-4488-b1df-4cbf174bf9a8.root",
        "T1_US_FNAL_Tape: davs://cmsdcatape.fnal.gov:2880/WAX/11/store/mc/Run3Summer22NanoAODv12/NMSSM_XtoYHto4B_MX-1600_MY-1200_TuneCP5_13p6TeV_madgraph-pythia8/NANOAODSIM/130X_mcRun3_2022_realistic_v5-v2/2820000/8ee3e038-11af-4488-b1df-4cbf174bf9a8.root"
    ],
    "cms:/store/mc/Run3Summer22NanoAODv12/NMSSM_XtoYHto4B_MX-1600_MY-1200_TuneCP5_13p6TeV_madgraph-pythia8/NANOAODSIM/130X_mcRun3_2022_realistic_v5-v2/2820000/1e093a54-b40b-4d15-a443-6d89c7a4fe3d.root": [
        "T2_DE_DESY: davs://dcache-cms-webdav.desy.de:2880/pnfs/desy.de/cms/tier2/store/mc/Run3Summer22NanoAODv12/NMSSM_XtoYHto4B_MX-1600_MY-1200_TuneCP5_13p6TeV_madgraph-pythia8/NANOAODSIM/130X_mcRun3_2022_realistic_v5-v2/2820000/1e093a54-b40b-4d15-a443-6d89c7a4fe3d.root",
        "T2_US_MIT: davs://xrootd.cmsaf.mit.edu:1094/store/mc/Run3Summer22NanoAODv12/NMSSM_XtoYHto4B_MX-1600_MY-1200_TuneCP5_13p6TeV_madgraph-pythia8/NANOAODSIM/130X_mcRun3_2022_realistic_v5-v2/2820000/1e093a54-b40b-4d15-a443-6d89c7a4fe3d.root",
        "T1_UK_RAL_Disk: davs://rdr.echo.stfc.ac.uk:1094/store/mc/Run3Summer22NanoAODv12/NMSSM_XtoYHto4B_MX-1600_MY-1200_TuneCP5_13p6TeV_madgraph-pythia8/NANOAODSIM/130X_mcRun3_2022_realistic_v5-v2/2820000/1e093a54-b40b-4d15-a443-6d89c7a4fe3d.root",
        "T2_KR_KISTI: davs://cms-t2-se01.sdfarm.kr:2880/store/mc/Run3Summer22NanoAODv12/NMSSM_XtoYHto4B_MX-1600_MY-1200_TuneCP5_13p6TeV_madgraph-pythia8/NANOAODSIM/130X_mcRun3_2022_realistic_v5-v2/2820000/1e093a54-b40b-4d15-a443-6d89c7a4fe3d.root",
        "T2_US_Florida: davs://cmsio2.rc.ufl.edu:1094/store/mc/Run3Summer22NanoAODv12/NMSSM_XtoYHto4B_MX-1600_MY-1200_TuneCP5_13p6TeV_madgraph-pythia8/NANOAODSIM/130X_mcRun3_2022_realistic_v5-v2/2820000/1e093a54-b40b-4d15-a443-6d89c7a4fe3d.root",
        "T2_BE_IIHE: davs://maite.iihe.ac.be:2880/pnfs/iihe/cms/ph/sc4/store/mc/Run3Summer22NanoAODv12/NMSSM_XtoYHto4B_MX-1600_MY-1200_TuneCP5_13p6TeV_madgraph-pythia8/NANOAODSIM/130X_mcRun3_2022_realistic_v5-v2/2820000/1e093a54-b40b-4d15-a443-6d89c7a4fe3d.root",
        "T1_US_FNAL_Tape: davs://cmsdcatape.fnal.gov:2880/WAX/11/store/mc/Run3Summer22NanoAODv12/NMSSM_XtoYHto4B_MX-1600_MY-1200_TuneCP5_13p6TeV_madgraph-pythia8/NANOAODSIM/130X_mcRun3_2022_realistic_v5-v2/2820000/1e093a54-b40b-4d15-a443-6d89c7a4fe3d.root"
    ],
    "cms:/store/mc/Run3Summer22NanoAODv12/NMSSM_XtoYHto4B_MX-1600_MY-1200_TuneCP5_13p6TeV_madgraph-pythia8/NANOAODSIM/130X_mcRun3_2022_realistic_v5-v2/2820000/aecf07a5-7953-47da-b4ee-c384403aa90b.root": [
        "T2_DE_DESY: davs://dcache-cms-webdav.desy.de:2880/pnfs/desy.de/cms/tier2/store/mc/Run3Summer22NanoAODv12/NMSSM_XtoYHto4B_MX-1600_MY-1200_TuneCP5_13p6TeV_madgraph-pythia8/NANOAODSIM/130X_mcRun3_2022_realistic_v5-v2/2820000/aecf07a5-7953-47da-b4ee-c384403aa90b.root",
        "T2_FR_IPHC: davs://sbgdcache.in2p3.fr:443/cms/phedex/store/mc/Run3Summer22NanoAODv12/NMSSM_XtoYHto4B_MX-1600_MY-1200_TuneCP5_13p6TeV_madgraph-pythia8/NANOAODSIM/130X_mcRun3_2022_realistic_v5-v2/2820000/aecf07a5-7953-47da-b4ee-c384403aa90b.root",
        "T2_KR_KISTI: davs://cms-t2-se01.sdfarm.kr:2880/store/mc/Run3Summer22NanoAODv12/NMSSM_XtoYHto4B_MX-1600_MY-1200_TuneCP5_13p6TeV_madgraph-pythia8/NANOAODSIM/130X_mcRun3_2022_realistic_v5-v2/2820000/aecf07a5-7953-47da-b4ee-c384403aa90b.root",
        "T2_BR_SPRACE: davs://osg-se.sprace.org.br:1094/store/mc/Run3Summer22NanoAODv12/NMSSM_XtoYHto4B_MX-1600_MY-1200_TuneCP5_13p6TeV_madgraph-pythia8/NANOAODSIM/130X_mcRun3_2022_realistic_v5-v2/2820000/aecf07a5-7953-47da-b4ee-c384403aa90b.root",
        "T2_US_Nebraska: davs://xrootd-local.unl.edu:1094/store/mc/Run3Summer22NanoAODv12/NMSSM_XtoYHto4B_MX-1600_MY-1200_TuneCP5_13p6TeV_madgraph-pythia8/NANOAODSIM/130X_mcRun3_2022_realistic_v5-v2/2820000/aecf07a5-7953-47da-b4ee-c384403aa90b.root",
        "T2_IT_Pisa: davs://stwebdav.pi.infn.it:8443/cms/store/mc/Run3Summer22NanoAODv12/NMSSM_XtoYHto4B_MX-1600_MY-1200_TuneCP5_13p6TeV_madgraph-pythia8/NANOAODSIM/130X_mcRun3_2022_realistic_v5-v2/2820000/aecf07a5-7953-47da-b4ee-c384403aa90b.root",
        "T1_US_FNAL_Tape: davs://cmsdcatape.fnal.gov:2880/WAX/11/store/mc/Run3Summer22NanoAODv12/NMSSM_XtoYHto4B_MX-1600_MY-1200_TuneCP5_13p6TeV_madgraph-pythia8/NANOAODSIM/130X_mcRun3_2022_realistic_v5-v2/2820000/aecf07a5-7953-47da-b4ee-c384403aa90b.root"
    ],
    "cms:/store/mc/Run3Summer22NanoAODv12/NMSSM_XtoYHto4B_MX-1600_MY-1200_TuneCP5_13p6TeV_madgraph-pythia8/NANOAODSIM/130X_mcRun3_2022_realistic_v5-v2/2820000/91048999-5bd1-448f-9733-0d2c9a89408c.root": [
        "T2_DE_DESY: davs://dcache-cms-webdav.desy.de:2880/pnfs/desy.de/cms/tier2/store/mc/Run3Summer22NanoAODv12/NMSSM_XtoYHto4B_MX-1600_MY-1200_TuneCP5_13p6TeV_madgraph-pythia8/NANOAODSIM/130X_mcRun3_2022_realistic_v5-v2/2820000/91048999-5bd1-448f-9733-0d2c9a89408c.root",
        "T2_US_Vanderbilt: davs://xrootd-vanderbilt.sites.opensciencegrid.org:1094/store/mc/Run3Summer22NanoAODv12/NMSSM_XtoYHto4B_MX-1600_MY-1200_TuneCP5_13p6TeV_madgraph-pythia8/NANOAODSIM/130X_mcRun3_2022_realistic_v5-v2/2820000/91048999-5bd1-448f-9733-0d2c9a89408c.root",
        "T1_UK_RAL_Disk: davs://rdr.echo.stfc.ac.uk:1094/store/mc/Run3Summer22NanoAODv12/NMSSM_XtoYHto4B_MX-1600_MY-1200_TuneCP5_13p6TeV_madgraph-pythia8/NANOAODSIM/130X_mcRun3_2022_realistic_v5-v2/2820000/91048999-5bd1-448f-9733-0d2c9a89408c.root",
        "T2_KR_KISTI: davs://cms-t2-se01.sdfarm.kr:2880/store/mc/Run3Summer22NanoAODv12/NMSSM_XtoYHto4B_MX-1600_MY-1200_TuneCP5_13p6TeV_madgraph-pythia8/NANOAODSIM/130X_mcRun3_2022_realistic_v5-v2/2820000/91048999-5bd1-448f-9733-0d2c9a89408c.root",
        "T2_US_Florida: davs://cmsio2.rc.ufl.edu:1094/store/mc/Run3Summer22NanoAODv12/NMSSM_XtoYHto4B_MX-1600_MY-1200_TuneCP5_13p6TeV_madgraph-pythia8/NANOAODSIM/130X_mcRun3_2022_realistic_v5-v2/2820000/91048999-5bd1-448f-9733-0d2c9a89408c.root",
        "T2_BE_IIHE: davs://maite.iihe.ac.be:2880/pnfs/iihe/cms/ph/sc4/store/mc/Run3Summer22NanoAODv12/NMSSM_XtoYHto4B_MX-1600_MY-1200_TuneCP5_13p6TeV_madgraph-pythia8/NANOAODSIM/130X_mcRun3_2022_realistic_v5-v2/2820000/91048999-5bd1-448f-9733-0d2c9a89408c.root",
        "T1_US_FNAL_Tape: davs://cmsdcatape.fnal.gov:2880/WAX/11/store/mc/Run3Summer22NanoAODv12/NMSSM_XtoYHto4B_MX-1600_MY-1200_TuneCP5_13p6TeV_madgraph-pythia8/NANOAODSIM/130X_mcRun3_2022_realistic_v5-v2/2820000/91048999-5bd1-448f-9733-0d2c9a89408c.root"
    ],
    "cms:/store/mc/Run3Summer22NanoAODv12/NMSSM_XtoYHto4B_MX-1600_MY-1200_TuneCP5_13p6TeV_madgraph-pythia8/NANOAODSIM/130X_mcRun3_2022_realistic_v5-v2/2820000/de78db0f-6459-454f-b720-64e10882d491.root": [
        "T2_DE_DESY: davs://dcache-cms-webdav.desy.de:2880/pnfs/desy.de/cms/tier2/store/mc/Run3Summer22NanoAODv12/NMSSM_XtoYHto4B_MX-1600_MY-1200_TuneCP5_13p6TeV_madgraph-pythia8/NANOAODSIM/130X_mcRun3_2022_realistic_v5-v2/2820000/de78db0f-6459-454f-b720-64e10882d491.root",
        "T2_US_MIT: davs://xrootd.cmsaf.mit.edu:1094/store/mc/Run3Summer22NanoAODv12/NMSSM_XtoYHto4B_MX-1600_MY-1200_TuneCP5_13p6TeV_madgraph-pythia8/NANOAODSIM/130X_mcRun3_2022_realistic_v5-v2/2820000/de78db0f-6459-454f-b720-64e10882d491.root",
        "T1_UK_RAL_Disk: davs://rdr.echo.stfc.ac.uk:1094/store/mc/Run3Summer22NanoAODv12/NMSSM_XtoYHto4B_MX-1600_MY-1200_TuneCP5_13p6TeV_madgraph-pythia8/NANOAODSIM/130X_mcRun3_2022_realistic_v5-v2/2820000/de78db0f-6459-454f-b720-64e10882d491.root",
        "T2_KR_KISTI: davs://cms-t2-se01.sdfarm.kr:2880/store/mc/Run3Summer22NanoAODv12/NMSSM_XtoYHto4B_MX-1600_MY-1200_TuneCP5_13p6TeV_madgraph-pythia8/NANOAODSIM/130X_mcRun3_2022_realistic_v5-v2/2820000/de78db0f-6459-454f-b720-64e10882d491.root",
        "T2_US_Florida: davs://cmsio2.rc.ufl.edu:1094/store/mc/Run3Summer22NanoAODv12/NMSSM_XtoYHto4B_MX-1600_MY-1200_TuneCP5_13p6TeV_madgraph-pythia8/NANOAODSIM/130X_mcRun3_2022_realistic_v5-v2/2820000/de78db0f-6459-454f-b720-64e10882d491.root",
        "T2_BE_IIHE: davs://maite.iihe.ac.be:2880/pnfs/iihe/cms/ph/sc4/store/mc/Run3Summer22NanoAODv12/NMSSM_XtoYHto4B_MX-1600_MY-1200_TuneCP5_13p6TeV_madgraph-pythia8/NANOAODSIM/130X_mcRun3_2022_realistic_v5-v2/2820000/de78db0f-6459-454f-b720-64e10882d491.root",
        "T1_US_FNAL_Tape: davs://cmsdcatape.fnal.gov:2880/WAX/11/store/mc/Run3Summer22NanoAODv12/NMSSM_XtoYHto4B_MX-1600_MY-1200_TuneCP5_13p6TeV_madgraph-pythia8/NANOAODSIM/130X_mcRun3_2022_realistic_v5-v2/2820000/de78db0f-6459-454f-b720-64e10882d491.root"
    ],
    "cms:/store/mc/Run3Summer22NanoAODv12/NMSSM_XtoYHto4B_MX-1600_MY-1200_TuneCP5_13p6TeV_madgraph-pythia8/NANOAODSIM/130X_mcRun3_2022_realistic_v5-v2/2820000/2564b236-7d39-430a-bcc1-a330e1744f73.root": [
        "T2_DE_DESY: davs://dcache-cms-webdav.desy.de:2880/pnfs/desy.de/cms/tier2/store/mc/Run3Summer22NanoAODv12/NMSSM_XtoYHto4B_MX-1600_MY-1200_TuneCP5_13p6TeV_madgraph-pythia8/NANOAODSIM/130X_mcRun3_2022_realistic_v5-v2/2820000/2564b236-7d39-430a-bcc1-a330e1744f73.root",
        "T2_US_MIT: davs://xrootd.cmsaf.mit.edu:1094/store/mc/Run3Summer22NanoAODv12/NMSSM_XtoYHto4B_MX-1600_MY-1200_TuneCP5_13p6TeV_madgraph-pythia8/NANOAODSIM/130X_mcRun3_2022_realistic_v5-v2/2820000/2564b236-7d39-430a-bcc1-a330e1744f73.root",
        "T1_UK_RAL_Disk: davs://rdr.echo.stfc.ac.uk:1094/store/mc/Run3Summer22NanoAODv12/NMSSM_XtoYHto4B_MX-1600_MY-1200_TuneCP5_13p6TeV_madgraph-pythia8/NANOAODSIM/130X_mcRun3_2022_realistic_v5-v2/2820000/2564b236-7d39-430a-bcc1-a330e1744f73.root",
        "T2_KR_KISTI: davs://cms-t2-se01.sdfarm.kr:2880/store/mc/Run3Summer22NanoAODv12/NMSSM_XtoYHto4B_MX-1600_MY-1200_TuneCP5_13p6TeV_madgraph-pythia8/NANOAODSIM/130X_mcRun3_2022_realistic_v5-v2/2820000/2564b236-7d39-430a-bcc1-a330e1744f73.root",
        "T2_US_Florida: davs://cmsio2.rc.ufl.edu:1094/store/mc/Run3Summer22NanoAODv12/NMSSM_XtoYHto4B_MX-1600_MY-1200_TuneCP5_13p6TeV_madgraph-pythia8/NANOAODSIM/130X_mcRun3_2022_realistic_v5-v2/2820000/2564b236-7d39-430a-bcc1-a330e1744f73.root",
        "T2_BE_IIHE: davs://maite.iihe.ac.be:2880/pnfs/iihe/cms/ph/sc4/store/mc/Run3Summer22NanoAODv12/NMSSM_XtoYHto4B_MX-1600_MY-1200_TuneCP5_13p6TeV_madgraph-pythia8/NANOAODSIM/130X_mcRun3_2022_realistic_v5-v2/2820000/2564b236-7d39-430a-bcc1-a330e1744f73.root",
        "T1_US_FNAL_Tape: davs://cmsdcatape.fnal.gov:2880/WAX/11/store/mc/Run3Summer22NanoAODv12/NMSSM_XtoYHto4B_MX-1600_MY-1200_TuneCP5_13p6TeV_madgraph-pythia8/NANOAODSIM/130X_mcRun3_2022_realistic_v5-v2/2820000/2564b236-7d39-430a-bcc1-a330e1744f73.root"
    ]
}