#/NMSSM_XtoYHto4B_MX-1800_MY-100_TuneCP5_13p6TeV_madgraph-pythia8/Run3Summer22EENanoAODv12-130X_mcRun3_2022_realistic_postEE_v6-v2/NANOAODSIM
+-------------------------------------------------------------------------------------------------------------------------------------------------------------------------------------------------------------+--------+-------------+------------+----------+
| SCOPE:NAME                                                                                                                                                                                                  | GUID   | ADLER32     | FILESIZE   | EVENTS   |
|-------------------------------------------------------------------------------------------------------------------------------------------------------------------------------------------------------------+--------+-------------+------------+----------|
| cms:/store/mc/Run3Summer22EENanoAODv12/NMSSM_XtoYHto4B_MX-1800_MY-100_TuneCP5_13p6TeV_madgraph-pythia8/NANOAODSIM/130X_mcRun3_2022_realistic_postEE_v6-v2/2820000/e21791a2-6a2a-412c-9078-4717d06a329e.root | (None) | ad:5a35a602 | 14.472 MB  |          |
| cms:/store/mc/Run3Summer22EENanoAODv12/NMSSM_XtoYHto4B_MX-1800_MY-100_TuneCP5_13p6TeV_madgraph-pythia8/NANOAODSIM/130X_mcRun3_2022_realistic_postEE_v6-v2/2820000/f2d0b078-f98b-4dd4-817c-2bd31ddfa062.root | (None) | ad:1d0e8821 | 4.711 MB   |          |
| cms:/store/mc/Run3Summer22EENanoAODv12/NMSSM_XtoYHto4B_MX-1800_MY-100_TuneCP5_13p6TeV_madgraph-pythia8/NANOAODSIM/130X_mcRun3_2022_realistic_postEE_v6-v2/2820000/1c1dfaf8-7b45-48ae-8421-3afcfa7a4a58.root | (None) | ad:f801cb23 | 12.628 MB  |          |
| cms:/store/mc/Run3Summer22EENanoAODv12/NMSSM_XtoYHto4B_MX-1800_MY-100_TuneCP5_13p6TeV_madgraph-pythia8/NANOAODSIM/130X_mcRun3_2022_realistic_postEE_v6-v2/2820000/8a2daf84-e341-445f-afbc-8c2985d91c6b.root | (None) | ad:30093ad1 | 4.729 MB   |          |
| cms:/store/mc/Run3Summer22EENanoAODv12/NMSSM_XtoYHto4B_MX-1800_MY-100_TuneCP5_13p6TeV_madgraph-pythia8/NANOAODSIM/130X_mcRun3_2022_realistic_postEE_v6-v2/2820000/3948bee2-e909-4acf-8b83-4ec922101f72.root | (None) | ad:9f0600dc | 6.973 MB   |          |
| cms:/store/mc/Run3Summer22EENanoAODv12/NMSSM_XtoYHto4B_MX-1800_MY-100_TuneCP5_13p6TeV_madgraph-pythia8/NANOAODSIM/130X_mcRun3_2022_realistic_postEE_v6-v2/2820000/f558cc73-f6e8-449c-a4a1-7d12fc91a07e.root | (None) | ad:e50bb2a6 | 2.789 MB   |          |
| cms:/store/mc/Run3Summer22EENanoAODv12/NMSSM_XtoYHto4B_MX-1800_MY-100_TuneCP5_13p6TeV_madgraph-pythia8/NANOAODSIM/130X_mcRun3_2022_realistic_postEE_v6-v2/2820000/98933411-b3ca-435b-b2e3-e2aa8b279713.root | (None) | ad:9925834f | 8.736 MB   |          |
| cms:/store/mc/Run3Summer22EENanoAODv12/NMSSM_XtoYHto4B_MX-1800_MY-100_TuneCP5_13p6TeV_madgraph-pythia8/NANOAODSIM/130X_mcRun3_2022_realistic_postEE_v6-v2/2820000/b50e6e28-026f-4215-9bd3-a4512d46bc71.root | (None) | ad:66f5a377 | 4.720 MB   |          |
| cms:/store/mc/Run3Summer22EENanoAODv12/NMSSM_XtoYHto4B_MX-1800_MY-100_TuneCP5_13p6TeV_madgraph-pythia8/NANOAODSIM/130X_mcRun3_2022_realistic_postEE_v6-v2/2820000/fbaf2b95-99b9-431b-9487-072d7e17f76e.root | (None) | ad:1bfa6e20 | 16.265 MB  |          |
| cms:/store/mc/Run3Summer22EENanoAODv12/NMSSM_XtoYHto4B_MX-1800_MY-100_TuneCP5_13p6TeV_madgraph-pythia8/NANOAODSIM/130X_mcRun3_2022_realistic_postEE_v6-v2/2820000/51773a95-b802-4a51-a0c0-b18b433fc081.root | (None) | ad:b5d0c7bf | 23.674 MB  |          |
| cms:/store/mc/Run3Summer22EENanoAODv12/NMSSM_XtoYHto4B_MX-1800_MY-100_TuneCP5_13p6TeV_madgraph-pythia8/NANOAODSIM/130X_mcRun3_2022_realistic_postEE_v6-v2/2820000/58957e4f-a16c-4c79-8d8b-f0a52e3f665f.root | (None) | ad:94933283 | 8.780 MB   |          |
| cms:/store/mc/Run3Summer22EENanoAODv12/NMSSM_XtoYHto4B_MX-1800_MY-100_TuneCP5_13p6TeV_madgraph-pythia8/NANOAODSIM/130X_mcRun3_2022_realistic_postEE_v6-v2/2820000/3d13eeee-163e-4548-9a72-56a9d4d2f81c.root | (None) | ad:204f328c | 4.747 MB   |          |
| cms:/store/mc/Run3Summer22EENanoAODv12/NMSSM_XtoYHto4B_MX-1800_MY-100_TuneCP5_13p6TeV_madgraph-pythia8/NANOAODSIM/130X_mcRun3_2022_realistic_postEE_v6-v2/2820000/ed6047e0-deaf-4885-bfbc-ba8ccb1fa3e7.root | (None) | ad:5bd0eb7f | 62.341 MB  |          |
| cms:/store/mc/Run3Summer22EENanoAODv12/NMSSM_XtoYHto4B_MX-1800_MY-100_TuneCP5_13p6TeV_madgraph-pythia8/NANOAODSIM/130X_mcRun3_2022_realistic_postEE_v6-v2/2820000/284cf733-46b3-455f-aaa0-612aa27a1a40.root | (None) | ad:4472a562 | 27.143 MB  |          |
| cms:/store/mc/Run3Summer22EENanoAODv12/NMSSM_XtoYHto4B_MX-1800_MY-100_TuneCP5_13p6TeV_madgraph-pythia8/NANOAODSIM/130X_mcRun3_2022_realistic_postEE_v6-v2/2820000/0d767ec9-1485-4284-9ebf-db82d0ef948c.root | (None) | ad:1e014617 | 4.719 MB   |          |
| cms:/store/mc/Run3Summer22EENanoAODv12/NMSSM_XtoYHto4B_MX-1800_MY-100_TuneCP5_13p6TeV_madgraph-pythia8/NANOAODSIM/130X_mcRun3_2022_realistic_postEE_v6-v2/2820000/e504617b-15ee-456d-8d11-f465d3c4420f.root | (None) | ad:b6a8e4b0 | 6.948 MB   |          |
| cms:/store/mc/Run3Summer22EENanoAODv12/NMSSM_XtoYHto4B_MX-1800_MY-100_TuneCP5_13p6TeV_madgraph-pythia8/NANOAODSIM/130X_mcRun3_2022_realistic_postEE_v6-v2/2820000/419c23c9-be23-4766-b506-478884533d50.root | (None) | ad:d6b157e5 | 21.912 MB  |          |
| cms:/store/mc/Run3Summer22EENanoAODv12/NMSSM_XtoYHto4B_MX-1800_MY-100_TuneCP5_13p6TeV_madgraph-pythia8/NANOAODSIM/130X_mcRun3_2022_realistic_postEE_v6-v2/2820000/2a4f2462-c7c3-4704-8b2f-91de7cb29848.root | (None) | ad:bd211b70 | 10.511 MB  |          |
| cms:/store/mc/Run3Summer22EENanoAODv12/NMSSM_XtoYHto4B_MX-1800_MY-100_TuneCP5_13p6TeV_madgraph-pythia8/NANOAODSIM/130X_mcRun3_2022_realistic_postEE_v6-v2/2820000/078c0269-b583-49ff-80ef-459bcffe362c.root | (None) | ad:e5634489 | 4.724 MB   |          |
| cms:/store/mc/Run3Summer22EENanoAODv12/NMSSM_XtoYHto4B_MX-1800_MY-100_TuneCP5_13p6TeV_madgraph-pythia8/NANOAODSIM/130X_mcRun3_2022_realistic_postEE_v6-v2/2820000/55ddf9fd-648d-402f-81d1-5573619a437e.root | (None) | ad:a158f2e7 | 4.710 MB   |          |
| cms:/store/mc/Run3Summer22EENanoAODv12/NMSSM_XtoYHto4B_MX-1800_MY-100_TuneCP5_13p6TeV_madgraph-pythia8/NANOAODSIM/130X_mcRun3_2022_realistic_postEE_v6-v2/2820000/2c654ecf-b902-4aad-8fb0-53fe6a9e6ef9.root | (None) | ad:062a2eda | 10.481 MB  |          |
| cms:/store/mc/Run3Summer22EENanoAODv12/NMSSM_XtoYHto4B_MX-1800_MY-100_TuneCP5_13p6TeV_madgraph-pythia8/NANOAODSIM/130X_mcRun3_2022_realistic_postEE_v6-v2/2820000/95287e1e-4303-46d8-8837-f3805994fcb0.root | (None) | ad:b435eb04 | 4.718 MB   |          |
+-------------------------------------------------------------------------------------------------------------------------------------------------------------------------------------------------------------+--------+-------------+------------+----------+
Total files : 22
Total size : 271.431 MB
