#/NMSSM_XtoYHto4B_MX-3500_MY-600_TuneCP5_13p6TeV_madgraph-pythia8/Run3Summer23BPixNanoAODv12-130X_mcRun3_2023_realistic_postBPix_v6-v2/NANOAODSIM
+-----------------------------------------------------------------------------------------------------------------------------------------------------------------------------------------------------------------+--------+-------------+------------+----------+
| SCOPE:NAME                                                                                                                                                                                                      | GUID   | ADLER32     | FILESIZE   | EVENTS   |
|-----------------------------------------------------------------------------------------------------------------------------------------------------------------------------------------------------------------+--------+-------------+------------+----------|
| cms:/store/mc/Run3Summer23BPixNanoAODv12/NMSSM_XtoYHto4B_MX-3500_MY-600_TuneCP5_13p6TeV_madgraph-pythia8/NANOAODSIM/130X_mcRun3_2023_realistic_postBPix_v6-v2/2810000/1015dee0-831a-4708-a781-f5dddf25b4ba.root | (None) | ad:b3e737ef | 23.009 MB  |          |
| cms:/store/mc/Run3Summer23BPixNanoAODv12/NMSSM_XtoYHto4B_MX-3500_MY-600_TuneCP5_13p6TeV_madgraph-pythia8/NANOAODSIM/130X_mcRun3_2023_realistic_postBPix_v6-v2/2810000/71089d62-4ed2-44f4-9e46-0751bbb64f0e.root | (None) | ad:1472c51f | 39.297 MB  |          |
| cms:/store/mc/Run3Summer23BPixNanoAODv12/NMSSM_XtoYHto4B_MX-3500_MY-600_TuneCP5_13p6TeV_madgraph-pythia8/NANOAODSIM/130X_mcRun3_2023_realistic_postBPix_v6-v2/2810000/648dd070-c67c-4378-9db3-21c9eb07ad21.root | (None) | ad:c00b3e4c | 9.714 MB   |          |
| cms:/store/mc/Run3Summer23BPixNanoAODv12/NMSSM_XtoYHto4B_MX-3500_MY-600_TuneCP5_13p6TeV_madgraph-pythia8/NANOAODSIM/130X_mcRun3_2023_realistic_postBPix_v6-v2/2810000/e53fdc53-dac7-4767-af46-f1d58e30fd7e.root | (None) | ad:2c875d3a | 9.721 MB   |          |
| cms:/store/mc/Run3Summer23BPixNanoAODv12/NMSSM_XtoYHto4B_MX-3500_MY-600_TuneCP5_13p6TeV_madgraph-pythia8/NANOAODSIM/130X_mcRun3_2023_realistic_postBPix_v6-v2/2810000/c0e1c4e1-093c-4d3e-bc78-eedec0400fec.root | (None) | ad:e0497ede | 9.725 MB   |          |
| cms:/store/mc/Run3Summer23BPixNanoAODv12/NMSSM_XtoYHto4B_MX-3500_MY-600_TuneCP5_13p6TeV_madgraph-pythia8/NANOAODSIM/130X_mcRun3_2023_realistic_postBPix_v6-v2/2810000/82a930df-604b-4a36-a780-caa6a097495f.root | (None) | ad:55b5a376 | 29.137 MB  |          |
| cms:/store/mc/Run3Summer23BPixNanoAODv12/NMSSM_XtoYHto4B_MX-3500_MY-600_TuneCP5_13p6TeV_madgraph-pythia8/NANOAODSIM/130X_mcRun3_2023_realistic_postBPix_v6-v2/2810000/c2126282-818d-4f1e-96cf-e83c952ac0ac.root | (None) | ad:a618a914 | 9.743 MB   |          |
+-----------------------------------------------------------------------------------------------------------------------------------------------------------------------------------------------------------------+--------+-------------+------------+----------+
Total files : 7
Total size : 130.346 MB
