#/NMSSM_XtoYHto4B_MX-4000_MY-1000_TuneCP5_13p6TeV_madgraph-pythia8/Run3Summer22NanoAODv12-130X_mcRun3_2022_realistic_v5-v2/NANOAODSIM
+-----------------------------------------------------------------------------------------------------------------------------------------------------------------------------------------------------+--------+-------------+------------+----------+
| SCOPE:NAME                                                                                                                                                                                          | GUID   | ADLER32     | FILESIZE   | EVENTS   |
|-----------------------------------------------------------------------------------------------------------------------------------------------------------------------------------------------------+--------+-------------+------------+----------|
| cms:/store/mc/Run3Summer22NanoAODv12/NMSSM_XtoYHto4B_MX-4000_MY-1000_TuneCP5_13p6TeV_madgraph-pythia8/NANOAODSIM/130X_mcRun3_2022_realistic_v5-v2/2820000/dd02316e-bd8f-44e1-90b7-26496ebd8e2f.root | (None) | ad:0ec2716d | 5.200 MB   |          |
| cms:/store/mc/Run3Summer22NanoAODv12/NMSSM_XtoYHto4B_MX-4000_MY-1000_TuneCP5_13p6TeV_madgraph-pythia8/NANOAODSIM/130X_mcRun3_2022_realistic_v5-v2/2820000/29f3c002-8550-4743-82ae-f585e513fbd5.root | (None) | ad:3223098e | 16.801 MB  |          |
| cms:/store/mc/Run3Summer22NanoAODv12/NMSSM_XtoYHto4B_MX-4000_MY-1000_TuneCP5_13p6TeV_madgraph-pythia8/NANOAODSIM/130X_mcRun3_2022_realistic_v5-v2/2820000/c80106a2-ca5d-4bd4-aea2-c9f2b713e703.root | (None) | ad:c07ed55b | 14.653 MB  |          |
| cms:/store/mc/Run3Summer22NanoAODv12/NMSSM_XtoYHto4B_MX-4000_MY-1000_TuneCP5_13p6TeV_madgraph-pythia8/NANOAODSIM/130X_mcRun3_2022_realistic_v5-v2/2820000/a19cb077-f1af-40cb-89eb-7d1129ff894e.root | (None) | ad:caa381a5 | 5.183 MB   |          |
| cms:/store/mc/Run3Summer22NanoAODv12/NMSSM_XtoYHto4B_MX-4000_MY-1000_TuneCP5_13p6TeV_madgraph-pythia8/NANOAODSIM/130X_mcRun3_2022_realistic_v5-v2/2820000/36e218aa-6bef-4560-9af9-f1a7809c97f0.root | (None) | ad:32073ba2 | 12.400 MB  |          |
| cms:/store/mc/Run3Summer22NanoAODv12/NMSSM_XtoYHto4B_MX-4000_MY-1000_TuneCP5_13p6TeV_madgraph-pythia8/NANOAODSIM/130X_mcRun3_2022_realistic_v5-v2/2820000/c220c6cc-c411-4ec3-bc85-b54d38c6208b.root | (None) | ad:f4b9312d | 4.955 MB   |          |
| cms:/store/mc/Run3Summer22NanoAODv12/NMSSM_XtoYHto4B_MX-4000_MY-1000_TuneCP5_13p6TeV_madgraph-pythia8/NANOAODSIM/130X_mcRun3_2022_realistic_v5-v2/2820000/e8d44cb6-1589-4d9a-a001-9f941a89812c.root | (None) | ad:16cf4e54 | 7.825 MB   |          |
| cms:/store/mc/Run3Summer22NanoAODv12/NMSSM_XtoYHto4B_MX-4000_MY-1000_TuneCP5_13p6TeV_madgraph-pythia8/NANOAODSIM/130X_mcRun3_2022_realistic_v5-v2/2820000/c84fc258-9780-45e9-a3a2-3a99500a8b71.root | (None) | ad:768d4961 | 5.172 MB   |          |
| cms:/store/mc/Run3Summer22NanoAODv12/NMSSM_XtoYHto4B_MX-4000_MY-1000_TuneCP5_13p6TeV_madgraph-pythia8/NANOAODSIM/130X_mcRun3_2022_realistic_v5-v2/2820000/cc577e38-3169-445f-832f-6beca3c44d97.root | (None) | ad:333515b1 | 5.188 MB   |          |
| cms:/store/mc/Run3Summer22NanoAODv12/NMSSM_XtoYHto4B_MX-4000_MY-1000_TuneCP5_13p6TeV_madgraph-pythia8/NANOAODSIM/130X_mcRun3_2022_realistic_v5-v2/2820000/254ca789-d4a8-42ae-b15c-8476c1b020cc.root | (None) | ad:5f97d2b5 | 7.845 MB   |          |
| cms:/store/mc/Run3Summer22NanoAODv12/NMSSM_XtoYHto4B_MX-4000_MY-1000_TuneCP5_13p6TeV_madgraph-pythia8/NANOAODSIM/130X_mcRun3_2022_realistic_v5-v2/2820000/92d82083-939f-4d75-9c2b-f4dd67570bfc.root | (None) | ad:2f0ea0b6 | 5.198 MB   |          |
| cms:/store/mc/Run3Summer22NanoAODv12/NMSSM_XtoYHto4B_MX-4000_MY-1000_TuneCP5_13p6TeV_madgraph-pythia8/NANOAODSIM/130X_mcRun3_2022_realistic_v5-v2/2820000/5328b39f-3a67-4562-835e-28a4ca2af6b0.root | (None) | ad:cf0ba4c1 | 5.212 MB   |          |
| cms:/store/mc/Run3Summer22NanoAODv12/NMSSM_XtoYHto4B_MX-4000_MY-1000_TuneCP5_13p6TeV_madgraph-pythia8/NANOAODSIM/130X_mcRun3_2022_realistic_v5-v2/2820000/515f48c9-25b2-4584-b95b-d7500064bde4.root | (None) | ad:94ac7840 | 7.810 MB   |          |
| cms:/store/mc/Run3Summer22NanoAODv12/NMSSM_XtoYHto4B_MX-4000_MY-1000_TuneCP5_13p6TeV_madgraph-pythia8/NANOAODSIM/130X_mcRun3_2022_realistic_v5-v2/2820000/28d53ebc-03ee-45d6-9c17-6df3bf5ed712.root | (None) | ad:5af22457 | 7.871 MB   |          |
| cms:/store/mc/Run3Summer22NanoAODv12/NMSSM_XtoYHto4B_MX-4000_MY-1000_TuneCP5_13p6TeV_madgraph-pythia8/NANOAODSIM/130X_mcRun3_2022_realistic_v5-v2/2820000/86747e76-edd5-43b6-ba67-10f5b53d596b.root | (None) | ad:bab3b081 | 5.193 MB   |          |
| cms:/store/mc/Run3Summer22NanoAODv12/NMSSM_XtoYHto4B_MX-4000_MY-1000_TuneCP5_13p6TeV_madgraph-pythia8/NANOAODSIM/130X_mcRun3_2022_realistic_v5-v2/2820000/28c85a83-e106-4276-ab54-74105ab8e804.root | (None) | ad:24f40450 | 5.186 MB   |          |
| cms:/store/mc/Run3Summer22NanoAODv12/NMSSM_XtoYHto4B_MX-4000_MY-1000_TuneCP5_13p6TeV_madgraph-pythia8/NANOAODSIM/130X_mcRun3_2022_realistic_v5-v2/2820000/39a741ad-2e6e-4726-9e78-e3902d27aad3.root | (None) | ad:0351baf6 | 7.814 MB   |          |
+-----------------------------------------------------------------------------------------------------------------------------------------------------------------------------------------------------+--------+-------------+------------+----------+
Total files : 17
Total size : 129.504 MB
