#/NMSSM_XtoYHto4B_MX-1000_MY-400_TuneCP5_13p6TeV_madgraph-pythia8/Run3Summer22NanoAODv12-130X_mcRun3_2022_realistic_v5-v2/NANOAODSIM
+----------------------------------------------------------------------------------------------------------------------------------------------------------------------------------------------------+--------+-------------+------------+----------+
| SCOPE:NAME                                                                                                                                                                                         | GUID   | ADLER32     | FILESIZE   | EVENTS   |
|----------------------------------------------------------------------------------------------------------------------------------------------------------------------------------------------------+--------+-------------+------------+----------|
| cms:/store/mc/Run3Summer22NanoAODv12/NMSSM_XtoYHto4B_MX-1000_MY-400_TuneCP5_13p6TeV_madgraph-pythia8/NANOAODSIM/130X_mcRun3_2022_realistic_v5-v2/2830000/e256946b-1743-47dc-943e-41faeb4f5c96.root | (None) | ad:74c46cef | 7.432 MB   |          |
| cms:/store/mc/Run3Summer22NanoAODv12/NMSSM_XtoYHto4B_MX-1000_MY-400_TuneCP5_13p6TeV_madgraph-pythia8/NANOAODSIM/130X_mcRun3_2022_realistic_v5-v2/2830000/ed024654-e46e-454b-b5bd-69cbcb494531.root | (None) | ad:8f9afa22 | 4.993 MB   |          |
| cms:/store/mc/Run3Summer22NanoAODv12/NMSSM_XtoYHto4B_MX-1000_MY-400_TuneCP5_13p6TeV_madgraph-pythia8/NANOAODSIM/130X_mcRun3_2022_realistic_v5-v2/2830000/6dc2d02a-87cf-4921-9357-27be90a05cd5.root | (None) | ad:e7fdc8d2 | 15.614 MB  |          |
| cms:/store/mc/Run3Summer22NanoAODv12/NMSSM_XtoYHto4B_MX-1000_MY-400_TuneCP5_13p6TeV_madgraph-pythia8/NANOAODSIM/130X_mcRun3_2022_realistic_v5-v2/2830000/939b3a88-45cf-41ff-a434-629ba3abd350.root | (None) | ad:b2987371 | 6.384 MB   |          |
| cms:/store/mc/Run3Summer22NanoAODv12/NMSSM_XtoYHto4B_MX-1000_MY-400_TuneCP5_13p6TeV_madgraph-pythia8/NANOAODSIM/130X_mcRun3_2022_realistic_v5-v2/2830000/c86ca0a5-4072-4262-b8df-b346afbf1ef8.root | (None) | ad:0f249e4f | 9.341 MB   |          |
| cms:/store/mc/Run3Summer22NanoAODv12/NMSSM_XtoYHto4B_MX-1000_MY-400_TuneCP5_13p6TeV_madgraph-pythia8/NANOAODSIM/130X_mcRun3_2022_realistic_v5-v2/2830000/983bd538-3e1d-4425-ad6f-503c2093ec59.root | (None) | ad:95563d9a | 13.605 MB  |          |
| cms:/store/mc/Run3Summer22NanoAODv12/NMSSM_XtoYHto4B_MX-1000_MY-400_TuneCP5_13p6TeV_madgraph-pythia8/NANOAODSIM/130X_mcRun3_2022_realistic_v5-v2/2830000/7d2bbb28-4ad5-4b5a-aedc-0e66e6f9d9eb.root | (None) | ad:6827aaa2 | 7.420 MB   |          |
| cms:/store/mc/Run3Summer22NanoAODv12/NMSSM_XtoYHto4B_MX-1000_MY-400_TuneCP5_13p6TeV_madgraph-pythia8/NANOAODSIM/130X_mcRun3_2022_realistic_v5-v2/2830000/c5dea8cd-7be0-45d9-b179-9faf0b88a9c8.root | (None) | ad:76a9bd5e | 5.012 MB   |          |
| cms:/store/mc/Run3Summer22NanoAODv12/NMSSM_XtoYHto4B_MX-1000_MY-400_TuneCP5_13p6TeV_madgraph-pythia8/NANOAODSIM/130X_mcRun3_2022_realistic_v5-v2/2830000/1f5d36f6-7af9-47e2-a5a8-0c0772be96f3.root | (None) | ad:d43ed259 | 9.352 MB   |          |
| cms:/store/mc/Run3Summer22NanoAODv12/NMSSM_XtoYHto4B_MX-1000_MY-400_TuneCP5_13p6TeV_madgraph-pythia8/NANOAODSIM/130X_mcRun3_2022_realistic_v5-v2/2830000/992e7077-c408-4395-b0cc-212dbfb015de.root | (None) | ad:b2f9538b | 9.334 MB   |          |
| cms:/store/mc/Run3Summer22NanoAODv12/NMSSM_XtoYHto4B_MX-1000_MY-400_TuneCP5_13p6TeV_madgraph-pythia8/NANOAODSIM/130X_mcRun3_2022_realistic_v5-v2/2830000/05c9db6c-26d3-4d43-ba67-49960bd9acc6.root | (None) | ad:e3d978ba | 4.995 MB   |          |
| cms:/store/mc/Run3Summer22NanoAODv12/NMSSM_XtoYHto4B_MX-1000_MY-400_TuneCP5_13p6TeV_madgraph-pythia8/NANOAODSIM/130X_mcRun3_2022_realistic_v5-v2/2830000/1155fb04-3ed4-4bdf-a574-8216e43f9bdb.root | (None) | ad:22208b1c | 7.443 MB   |          |
+----------------------------------------------------------------------------------------------------------------------------------------------------------------------------------------------------+--------+-------------+------------+----------+
Total files : 12
Total size : 100.925 MB
