#/NMSSM_XtoYHto4B_MX-2000_MY-500_TuneCP5_13p6TeV_madgraph-pythia8/Run3Summer22NanoAODv12-130X_mcRun3_2022_realistic_v5-v2/NANOAODSIM
+----------------------------------------------------------------------------------------------------------------------------------------------------------------------------------------------------+--------+-------------+------------+----------+
| SCOPE:NAME                                                                                                                                                                                         | GUID   | ADLER32     | FILESIZE   | EVENTS   |
|----------------------------------------------------------------------------------------------------------------------------------------------------------------------------------------------------+--------+-------------+------------+----------|
| cms:/store/mc/Run3Summer22NanoAODv12/NMSSM_XtoYHto4B_MX-2000_MY-500_TuneCP5_13p6TeV_madgraph-pythia8/NANOAODSIM/130X_mcRun3_2022_realistic_v5-v2/2830000/e75e4aad-2804-41b8-9658-5dba65cce533.root | (None) | ad:59dae0cc | 5.129 MB   |          |
| cms:/store/mc/Run3Summer22NanoAODv12/NMSSM_XtoYHto4B_MX-2000_MY-500_TuneCP5_13p6TeV_madgraph-pythia8/NANOAODSIM/130X_mcRun3_2022_realistic_v5-v2/2830000/9498120a-6ce5-4158-a5c2-2c312787a44c.root | (None) | ad:2643e8c2 | 16.444 MB  |          |
| cms:/store/mc/Run3Summer22NanoAODv12/NMSSM_XtoYHto4B_MX-2000_MY-500_TuneCP5_13p6TeV_madgraph-pythia8/NANOAODSIM/130X_mcRun3_2022_realistic_v5-v2/2830000/1b8ed6aa-bd53-4089-8b26-c5a77708d053.root | (None) | ad:25aa0bf6 | 12.125 MB  |          |
| cms:/store/mc/Run3Summer22NanoAODv12/NMSSM_XtoYHto4B_MX-2000_MY-500_TuneCP5_13p6TeV_madgraph-pythia8/NANOAODSIM/130X_mcRun3_2022_realistic_v5-v2/2830000/835da35c-8f0d-4d4f-b185-de6fbf4c8ba1.root | (None) | ad:42e7d7ab | 7.736 MB   |          |
| cms:/store/mc/Run3Summer22NanoAODv12/NMSSM_XtoYHto4B_MX-2000_MY-500_TuneCP5_13p6TeV_madgraph-pythia8/NANOAODSIM/130X_mcRun3_2022_realistic_v5-v2/2830000/76832a11-f65b-4e58-bdf5-4e80c7949f1d.root | (None) | ad:2a8230e7 | 7.754 MB   |          |
| cms:/store/mc/Run3Summer22NanoAODv12/NMSSM_XtoYHto4B_MX-2000_MY-500_TuneCP5_13p6TeV_madgraph-pythia8/NANOAODSIM/130X_mcRun3_2022_realistic_v5-v2/2830000/c9ece6df-9685-474d-986e-e1e6d8400fb4.root | (None) | ad:ea377e4d | 5.121 MB   |          |
| cms:/store/mc/Run3Summer22NanoAODv12/NMSSM_XtoYHto4B_MX-2000_MY-500_TuneCP5_13p6TeV_madgraph-pythia8/NANOAODSIM/130X_mcRun3_2022_realistic_v5-v2/2830000/aad94ded-4f49-4eef-9ded-a37e3b54d438.root | (None) | ad:f8a43c70 | 3.265 MB   |          |
| cms:/store/mc/Run3Summer22NanoAODv12/NMSSM_XtoYHto4B_MX-2000_MY-500_TuneCP5_13p6TeV_madgraph-pythia8/NANOAODSIM/130X_mcRun3_2022_realistic_v5-v2/2830000/93daae2f-d424-4c34-a413-3b647fb9701e.root | (None) | ad:991c9fd7 | 5.137 MB   |          |
| cms:/store/mc/Run3Summer22NanoAODv12/NMSSM_XtoYHto4B_MX-2000_MY-500_TuneCP5_13p6TeV_madgraph-pythia8/NANOAODSIM/130X_mcRun3_2022_realistic_v5-v2/2830000/40f34cdc-85f6-4067-b9e3-8fd63d6c4e45.root | (None) | ad:6893d89f | 16.452 MB  |          |
| cms:/store/mc/Run3Summer22NanoAODv12/NMSSM_XtoYHto4B_MX-2000_MY-500_TuneCP5_13p6TeV_madgraph-pythia8/NANOAODSIM/130X_mcRun3_2022_realistic_v5-v2/2830000/dbdba786-abc9-4792-b76f-a27085aa863b.root | (None) | ad:16d3cacb | 7.690 MB   |          |
| cms:/store/mc/Run3Summer22NanoAODv12/NMSSM_XtoYHto4B_MX-2000_MY-500_TuneCP5_13p6TeV_madgraph-pythia8/NANOAODSIM/130X_mcRun3_2022_realistic_v5-v2/2830000/76c2e42d-6981-47ad-b10d-e33bb7453ea8.root | (None) | ad:2f99fd80 | 5.149 MB   |          |
| cms:/store/mc/Run3Summer22NanoAODv12/NMSSM_XtoYHto4B_MX-2000_MY-500_TuneCP5_13p6TeV_madgraph-pythia8/NANOAODSIM/130X_mcRun3_2022_realistic_v5-v2/2830000/1d83109c-7b9e-4933-a0fa-da75227f47a6.root | (None) | ad:0a27ab5c | 9.797 MB   |          |
| cms:/store/mc/Run3Summer22NanoAODv12/NMSSM_XtoYHto4B_MX-2000_MY-500_TuneCP5_13p6TeV_madgraph-pythia8/NANOAODSIM/130X_mcRun3_2022_realistic_v5-v2/2830000/b4348921-1711-4eae-8e14-03b05e11c36c.root | (None) | ad:ba7e8f96 | 5.123 MB   |          |
| cms:/store/mc/Run3Summer22NanoAODv12/NMSSM_XtoYHto4B_MX-2000_MY-500_TuneCP5_13p6TeV_madgraph-pythia8/NANOAODSIM/130X_mcRun3_2022_realistic_v5-v2/2830000/0d6f0ba2-c456-4011-8cd2-b14077282921.root | (None) | ad:7256d1a2 | 5.149 MB   |          |
+----------------------------------------------------------------------------------------------------------------------------------------------------------------------------------------------------+--------+-------------+------------+----------+
Total files : 14
Total size : 112.071 MB
