{
    "cms:/store/mc/Run3Summer22EENanoAODv12/NMSSM_XtoYHto4B_MX-400_MY-95_TuneCP5_13p6TeV_madgraph-pythia8/NANOAODSIM/130X_mcRun3_2022_realistic_postEE_v6-v2/2820000/6b03fc61-6cf4-4373-9d6e-c55db52d1345.root": [
        "T1_US_FNAL_Disk: davs://cmsdcadisk.fnal.gov:2880/dcache/uscmsdisk/store/mc/Run3Summer22EENanoAODv12/NMSSM_XtoYHto4B_MX-400_MY-95_TuneCP5_13p6TeV_madgraph-pythia8/NANOAODSIM/130X_mcRun3_2022_realistic_postEE_v6-v2/2820000/6b03fc61-6cf4-4373-9d6e-c55db52d1345.root",
        "T1_FR_CCIN2P3_Disk: davs://ccdavcms.in2p3.fr:2880/disk/data/store/mc/Run3Summer22EENanoAODv12/NMSSM_XtoYHto4B_MX-400_MY-95_TuneCP5_13p6TeV_madgraph-pythia8/NANOAODSIM/130X_mcRun3_2022_realistic_postEE_v6-v2/2820000/6b03fc61-6cf4-4373-9d6e-c55db52d1345.root",
        "T2_US_Vanderbilt: davs://xrootd-vanderbilt.sites.opensciencegrid.org:1094/store/mc/Run3Summer22EENanoAODv12/NMSSM_XtoYHto4B_MX-400_MY-95_TuneCP5_13p6TeV_madgraph-pythia8/NANOAODSIM/130X_mcRun3_2022_realistic_postEE_v6-v2/2820000/6b03fc61-6cf4-4373-9d6e-c55db52d1345.root",
        "T2_FI_HIP: davs://hip-cms-se.csc.fi:2880/store/mc/Run3Summer22EENanoAODv12/NMSSM_XtoYHto4B_MX-400_MY-95_TuneCP5_13p6TeV_madgraph-pythia8/NANOAODSIM/130X_mcRun3_2022_realistic_postEE_v6-v2/2820000/6b03fc61-6cf4-4373-9d6e-c55db52d1345.root",
        "T2_HU_Budapest: davs://grid143.kfki.hu:443/dpm/kfki.hu/home/cms/phedex/store/mc/Run3Summer22EENanoAODv12/NMSSM_XtoYHto4B_MX-400_MY-95_TuneCP5_13p6TeV_madgraph-pythia8/NANOAODSIM/130X_mcRun3_2022_realistic_postEE_v6-v2/2820000/6b03fc61-6cf4-4373-9d6e-c55db52d1345.root",
        "T2_BE_IIHE: davs://maite.iihe.ac.be:2880/pnfs/iihe/cms/ph/sc4/store/mc/Run3Summer22EENanoAODv12/NMSSM_XtoYHto4B_MX-400_MY-95_TuneCP5_13p6TeV_madgraph-pythia8/NANOAODSIM/130X_mcRun3_2022_realistic_postEE_v6-v2/2820000/6b03fc61-6cf4-4373-9d6e-c55db52d1345.root",
        "T1_US_FNAL_Tape: davs://cmsdcatape.fnal.gov:2880/WAX/11/store/mc/Run3Summer22EENanoAODv12/NMSSM_XtoYHto4B_MX-400_MY-95_TuneCP5_13p6TeV_madgraph-pythia8/NANOAODSIM/130X_mcRun3_2022_realistic_postEE_v6-v2/2820000/6b03fc61-6cf4-4373-9d6e-c55db52d1345.root"
    ],
    "cms:/store/mc/Run3Summer22EENanoAODv12/NMSSM_XtoYHto4B_MX-400_MY-95_TuneCP5_13p6TeV_madgraph-pythia8/NANOAODSIM/130X_mcRun3_2022_realistic_postEE_v6-v2/2820000/7c6ca013-718e-42d0-b897-0c1b8c98674e.root": [
        "T1_US_FNAL_Disk: davs://cmsdcadisk.fnal.gov:2880/dcache/uscmsdisk/store/mc/Run3Summer22EENanoAODv12/NMSSM_XtoYHto4B_MX-400_MY-95_TuneCP5_13p6TeV_madgraph-pythia8/NANOAODSIM/130X_mcRun3_2022_realistic_postEE_v6-v2/2820000/7c6ca013-718e-42d0-b897-0c1b8c98674e.root",
        "T1_FR_CCIN2P3_Disk: davs://ccdavcms.in2p3.fr:2880/disk/data/store/mc/Run3Summer22EENanoAODv12/NMSSM_XtoYHto4B_MX-400_MY-95_TuneCP5_13p6TeV_madgraph-pythia8/NANOAODSIM/130X_mcRun3_2022_realistic_postEE_v6-v2/2820000/7c6ca013-718e-42d0-b897-0c1b8c98674e.root",
        "T2_US_Vanderbilt: davs://xrootd-vanderbilt.sites.opensciencegrid.org:1094/store/mc/Run3Summer22EENanoAODv12/NMSSM_XtoYHto4B_MX-400_MY-95_TuneCP5_13p6TeV_madgraph-pythia8/NANOAODSIM/130X_mcRun3_2022_realistic_postEE_v6-v2/2820000/7c6ca013-718e-42d0-b897-0c1b8c98674e.root",
        "T2_FI_HIP: davs://hip-cms-se.csc.fi:2880/store/mc/Run3Summer22EENanoAODv12/NMSSM_XtoYHto4B_MX-400_MY-95_TuneCP5_13p6TeV_madgraph-pythia8/NANOAODSIM/130X_mcRun3_2022_realistic_postEE_v6-v2/2820000/7c6ca013-718e-42d0-b897-0c1b8c98674e.root",
        "T2_HU_Budapest: davs://grid143.kfki.hu:443/dpm/kfki.hu/home/cms/phedex/store/mc/Run3Summer22EENanoAODv12/NMSSM_XtoYHto4B_MX-400_MY-95_TuneCP5_13p6TeV_madgraph-pythia8/NANOAODSIM/130X_mcRun3_2022_realistic_postEE_v6-v2/2820000/7c6ca013-718e-42d0-b897-0c1b8c98674e.root",
        "T2_BE_IIHE: davs://maite.iihe.ac.be:2880/pnfs/iihe/cms/ph/sc4/store/mc/Run3Summer22EENanoAODv12/NMSSM_XtoYHto4B_MX-400_MY-95_TuneCP5_13p6TeV_madgraph-pythia8/NANOAODSIM/130X_mcRun3_2022_realistic_postEE_v6-v2/2820000/7c6ca013-718e-42d0-b897-0c1b8c98674e.root",
        "T1_US_FNAL_Tape: davs://cmsdcatape.fnal.gov:2880/WAX/11/store/mc/Run3Summer22EENanoAODv12/NMSSM_XtoYHto4B_MX-400_MY-95_TuneCP5_13p6TeV_madgraph-pythia8/NANOAODSIM/130X_mcRun3_2022_realistic_postEE_v6-v2/2820000/7c6ca013-718e-42d0-b897-0c1b8c98674e.root"
    ],
    "cms:/store/mc/Run3Summer22EENanoAODv12/NMSSM_XtoYHto4B_MX-400_MY-95_TuneCP5_13p6TeV_madgraph-pythia8/NANOAODSIM/130X_mcRun3_2022_realistic_postEE_v6-v2/2820000/2852be51-4a12-4d2b-bfc1-713f3063f170.root": [
        "T1_US_FNAL_Disk: davs://cmsdcadisk.fnal.gov:2880/dcache/uscmsdisk/store/mc/Run3Summer22EENanoAODv12/NMSSM_XtoYHto4B_MX-400_MY-95_TuneCP5_13p6TeV_madgraph-pythia8/NANOAODSIM/130X_mcRun3_2022_realistic_postEE_v6-v2/2820000/2852be51-4a12-4d2b-bfc1-713f3063f170.root",
        "T1_FR_CCIN2P3_Disk: davs://ccdavcms.in2p3.fr:2880/disk/data/store/mc/Run3Summer22EENanoAODv12/NMSSM_XtoYHto4B_MX-400_MY-95_TuneCP5_13p6TeV_madgraph-pythia8/NANOAODSIM/130X_mcRun3_2022_realistic_postEE_v6-v2/2820000/2852be51-4a12-4d2b-bfc1-713f3063f170.root",
        "T2_US_Vanderbilt: davs://xrootd-vanderbilt.sites.opensciencegrid.org:1094/store/mc/Run3Summer22EENanoAODv12/NMSSM_XtoYHto4B_MX-400_MY-95_TuneCP5_13p6TeV_madgraph-pythia8/NANOAODSIM/130X_mcRun3_2022_realistic_postEE_v6-v2/2820000/2852be51-4a12-4d2b-bfc1-713f3063f170.root",
        "T2_FI_HIP: davs://hip-cms-se.csc.fi:2880/store/mc/Run3Summer22EENanoAODv12/NMSSM_XtoYHto4B_MX-400_MY-95_TuneCP5_13p6TeV_madgraph-pythia8/NANOAODSIM/130X_mcRun3_2022_realistic_postEE_v6-v2/2820000/2852be51-4a12-4d2b-bfc1-713f3063f170.root",
        "T2_HU_Budapest: davs://grid143.kfki.hu:443/dpm/kfki.hu/home/cms/phedex/store/mc/Run3Summer22EENanoAODv12/NMSSM_XtoYHto4B_MX-400_MY-95_TuneCP5_13p6TeV_madgraph-pythia8/NANOAODSIM/130X_mcRun3_2022_realistic_postEE_v6-v2/2820000/2852be51-4a12-4d2b-bfc1-713f3063f170.root",
        "T2_BE_IIHE: davs://maite.iihe.ac.be:2880/pnfs/iihe/cms/ph/sc4/store/mc/Run3Summer22EENanoAODv12/NMSSM_XtoYHto4B_MX-400_MY-95_TuneCP5_13p6TeV_madgraph-pythia8/NANOAODSIM/130X_mcRun3_2022_realistic_postEE_v6-v2/2820000/2852be51-4a12-4d2b-bfc1-713f3063f170.root",
        "T1_US_FNAL_Tape: davs://cmsdcatape.fnal.gov:2880/WAX/11/store/mc/Run3Summer22EENanoAODv12/NMSSM_XtoYHto4B_MX-400_MY-95_TuneCP5_13p6TeV_madgraph-pythia8/NANOAODSIM/130X_mcRun3_2022_realistic_postEE_v6-v2/2820000/2852be51-4a12-4d2b-bfc1-713f3063f170.root"
    ],
    "cms:/store/mc/Run3Summer22EENanoAODv12/NMSSM_XtoYHto4B_MX-400_MY-95_TuneCP5_13p6TeV_madgraph-pythia8/NANOAODSIM/130X_mcRun3_2022_realistic_postEE_v6-v2/2820000/8163a416-be96-44f0-aa4a-d0937bd5b548.root": [
        "T1_US_FNAL_Disk: davs://cmsdcadisk.fnal.gov:2880/dcache/uscmsdisk/store/mc/Run3Summer22EENanoAODv12/NMSSM_XtoYHto4B_MX-400_MY-95_TuneCP5_13p6TeV_madgraph-pythia8/NANOAODSIM/130X_mcRun3_2022_realistic_postEE_v6-v2/2820000/8163a416-be96-44f0-aa4a-d0937bd5b548.root",
        "T1_FR_CCIN2P3_Disk: davs://ccdavcms.in2p3.fr:2880/disk/data/store/mc/Run3Summer22EENanoAODv12/NMSSM_XtoYHto4B_MX-400_MY-95_TuneCP5_13p6TeV_madgraph-pythia8/NANOAODSIM/130X_mcRun3_2022_realistic_postEE_v6-v2/2820000/8163a416-be96-44f0-aa4a-d0937bd5b548.root",
        "T2_US_Vanderbilt: davs://xrootd-vanderbilt.sites.opensciencegrid.org:1094/store/mc/Run3Summer22EENanoAODv12/NMSSM_XtoYHto4B_MX-400_MY-95_TuneCP5_13p6TeV_madgraph-pythia8/NANOAODSIM/130X_mcRun3_2022_realistic_postEE_v6-v2/2820000/8163a416-be96-44f0-aa4a-d0937bd5b548.root",
        "T2_FI_HIP: davs://hip-cms-se.csc.fi:2880/store/mc/Run3Summer22EENanoAODv12/NMSSM_XtoYHto4B_MX-400_MY-95_TuneCP5_13p6TeV_madgraph-pythia8/NANOAODSIM/130X_mcRun3_2022_realistic_postEE_v6-v2/2820000/8163a416-be96-44f0-aa4a-d0937bd5b548.root",
        "T2_HU_Budapest: davs://grid143.kfki.hu:443/dpm/kfki.hu/home/cms/phedex/store/mc/Run3Summer22EENanoAODv12/NMSSM_XtoYHto4B_MX-400_MY-95_TuneCP5_13p6TeV_madgraph-pythia8/NANOAODSIM/130X_mcRun3_2022_realistic_postEE_v6-v2/2820000/8163a416-be96-44f0-aa4a-d0937bd5b548.root",
        "T2_BE_IIHE: davs://maite.iihe.ac.be:2880/pnfs/iihe/cms/ph/sc4/store/mc/Run3Summer22EENanoAODv12/NMSSM_XtoYHto4B_MX-400_MY-95_TuneCP5_13p6TeV_madgraph-pythia8/NANOAODSIM/130X_mcRun3_2022_realistic_postEE_v6-v2/2820000/8163a416-be96-44f0-aa4a-d0937bd5b548.root",
        "T1_US_FNAL_Tape: davs://cmsdcatape.fnal.gov:2880/WAX/11/store/mc/Run3Summer22EENanoAODv12/NMSSM_XtoYHto4B_MX-400_MY-95_TuneCP5_13p6TeV_madgraph-pythia8/NANOAODSIM/130X_mcRun3_2022_realistic_postEE_v6-v2/2820000/8163a416-be96-44f0-aa4a-d0937bd5b548.root"
    ],
    "cms:/store/mc/Run3Summer22EENanoAODv12/NMSSM_XtoYHto4B_MX-400_MY-95_TuneCP5_13p6TeV_madgraph-pythia8/NANOAODSIM/130X_mcRun3_2022_realistic_postEE_v6-v2/2820000/9720b4fe-c180-4a1a-9161-b8e863149c09.root": [
        "T1_US_FNAL_Disk: davs://cmsdcadisk.fnal.gov:2880/dcache/uscmsdisk/store/mc/Run3Summer22EENanoAODv12/NMSSM_XtoYHto4B_MX-400_MY-95_TuneCP5_13p6TeV_madgraph-pythia8/NANOAODSIM/130X_mcRun3_2022_realistic_postEE_v6-v2/2820000/9720b4fe-c180-4a1a-9161-b8e863149c09.root",
        "T1_FR_CCIN2P3_Disk: davs://ccdavcms.in2p3.fr:2880/disk/data/store/mc/Run3Summer22EENanoAODv12/NMSSM_XtoYHto4B_MX-400_MY-95_TuneCP5_13p6TeV_madgraph-pythia8/NANOAODSIM/130X_mcRun3_2022_realistic_postEE_v6-v2/2820000/9720b4fe-c180-4a1a-9161-b8e863149c09.root",
        "T2_US_Vanderbilt: davs://xrootd-vanderbilt.sites.opensciencegrid.org:1094/store/mc/Run3Summer22EENanoAODv12/NMSSM_XtoYHto4B_MX-400_MY-95_TuneCP5_13p6TeV_madgraph-pythia8/NANOAODSIM/130X_mcRun3_2022_realistic_postEE_v6-v2/2820000/9720b4fe-c180-4a1a-9161-b8e863149c09.root",
        "T2_FI_HIP: davs://hip-cms-se.csc.fi:2880/store/mc/Run3Summer22EENanoAODv12/NMSSM_XtoYHto4B_MX-400_MY-95_TuneCP5_13p6TeV_madgraph-pythia8/NANOAODSIM/130X_mcRun3_2022_realistic_postEE_v6-v2/2820000/9720b4fe-c180-4a1a-9161-b8e863149c09.root",
        "T2_HU_Budapest: davs://grid143.kfki.hu:443/dpm/kfki.hu/home/cms/phedex/store/mc/Run3Summer22EENanoAODv12/NMSSM_XtoYHto4B_MX-400_MY-95_TuneCP5_13p6TeV_madgraph-pythia8/NANOAODSIM/130X_mcRun3_2022_realistic_postEE_v6-v2/2820000/9720b4fe-c180-4a1a-9161-b8e863149c09.root",
        "T2_BE_IIHE: davs://maite.iihe.ac.be:2880/pnfs/iihe/cms/ph/sc4/store/mc/Run3Summer22EENanoAODv12/NMSSM_XtoYHto4B_MX-400_MY-95_TuneCP5_13p6TeV_madgraph-pythia8/NANOAODSIM/130X_mcRun3_2022_realistic_postEE_v6-v2/2820000/9720b4fe-c180-4a1a-9161-b8e863149c09.root",
        "T1_US_FNAL_Tape: davs://cmsdcatape.fnal.gov:2880/WAX/11/store/mc/Run3Summer22EENanoAODv12/NMSSM_XtoYHto4B_MX-400_MY-95_TuneCP5_13p6TeV_madgraph-pythia8/NANOAODSIM/130X_mcRun3_2022_realistic_postEE_v6-v2/2820000/9720b4fe-c180-4a1a-9161-b8e863149c09.root"
    ],
    "cms:/store/mc/Run3Summer22EENanoAODv12/NMSSM_XtoYHto4B_MX-400_MY-95_TuneCP5_13p6TeV_madgraph-pythia8/NANOAODSIM/130X_mcRun3_2022_realistic_postEE_v6-v2/2820000/508f4da5-7773-473d-b680-641c8802236d.root": [
        "T1_US_FNAL_Disk: davs://cmsdcadisk.fnal.gov:2880/dcache/uscmsdisk/store/mc/Run3Summer22EENanoAODv12/NMSSM_XtoYHto4B_MX-400_MY-95_TuneCP5_13p6TeV_madgraph-pythia8/NANOAODSIM/130X_mcRun3_2022_realistic_postEE_v6-v2/2820000/508f4da5-7773-473d-b680-641c8802236d.root",
        "T1_FR_CCIN2P3_Disk: davs://ccdavcms.in2p3.fr:2880/disk/data/store/mc/Run3Summer22EENanoAODv12/NMSSM_XtoYHto4B_MX-400_MY-95_TuneCP5_13p6TeV_madgraph-pythia8/NANOAODSIM/130X_mcRun3_2022_realistic_postEE_v6-v2/2820000/508f4da5-7773-473d-b680-641c8802236d.root",
        "T2_US_Vanderbilt: davs://xrootd-vanderbilt.sites.opensciencegrid.org:1094/store/mc/Run3Summer22EENanoAODv12/NMSSM_XtoYHto4B_MX-400_MY-95_TuneCP5_13p6TeV_madgraph-pythia8/NANOAODSIM/130X_mcRun3_2022_realistic_postEE_v6-v2/2820000/508f4da5-7773-473d-b680-641c8802236d.root",
        "T2_FI_HIP: davs://hip-cms-se.csc.fi:2880/store/mc/Run3Summer22EENanoAODv12/NMSSM_XtoYHto4B_MX-400_MY-95_TuneCP5_13p6TeV_madgraph-pythia8/NANOAODSIM/130X_mcRun3_2022_realistic_postEE_v6-v2/2820000/508f4da5-7773-473d-b680-641c8802236d.root",
        "T2_HU_Budapest: davs://grid143.kfki.hu:443/dpm/kfki.hu/home/cms/phedex/store/mc/Run3Summer22EENanoAODv12/NMSSM_XtoYHto4B_MX-400_MY-95_TuneCP5_13p6TeV_madgraph-pythia8/NANOAODSIM/130X_mcRun3_2022_realistic_postEE_v6-v2/2820000/508f4da5-7773-473d-b680-641c8802236d.root",
        "T2_BE_IIHE: davs://maite.iihe.ac.be:2880/pnfs/iihe/cms/ph/sc4/store/mc/Run3Summer22EENanoAODv12/NMSSM_XtoYHto4B_MX-400_MY-95_TuneCP5_13p6TeV_madgraph-pythia8/NANOAODSIM/130X_mcRun3_2022_realistic_postEE_v6-v2/2820000/508f4da5-7773-473d-b680-641c8802236d.root",
        "T1_US_FNAL_Tape: davs://cmsdcatape.fnal.gov:2880/WAX/11/store/mc/Run3Summer22EENanoAODv12/NMSSM_XtoYHto4B_MX-400_MY-95_TuneCP5_13p6TeV_madgraph-pythia8/NANOAODSIM/130X_mcRun3_2022_realistic_postEE_v6-v2/2820000/508f4da5-7773-473d-b680-641c8802236d.root"
    ],
    "cms:/store/mc/Run3Summer22EENanoAODv12/NMSSM_XtoYHto4B_MX-400_MY-95_TuneCP5_13p6TeV_madgraph-pythia8/NANOAODSIM/130X_mcRun3_2022_realistic_postEE_v6-v2/2820000/b9679e80-b86e-4e04-bece-243eac16ba13.root": [
        "T1_US_FNAL_Disk: davs://cmsdcadisk.fnal.gov:2880/dcache/uscmsdisk/store/mc/Run3Summer22EENanoAODv12/NMSSM_XtoYHto4B_MX-400_MY-95_TuneCP5_13p6TeV_madgraph-pythia8/NANOAODSIM/130X_mcRun3_2022_realistic_postEE_v6-v2/2820000/b9679e80-b86e-4e04-bece-243eac16ba13.root",
        "T1_FR_CCIN2P3_Disk: davs://ccdavcms.in2p3.fr:2880/disk/data/store/mc/Run3Summer22EENanoAODv12/NMSSM_XtoYHto4B_MX-400_MY-95_TuneCP5_13p6TeV_madgraph-pythia8/NANOAODSIM/130X_mcRun3_2022_realistic_postEE_v6-v2/2820000/b9679e80-b86e-4e04-bece-243eac16ba13.root",
        "T3_US_Colorado: davs://hepxrd01-colorado.sites.opensciencegrid.org:1094/store/mc/Run3Summer22EENanoAODv12/NMSSM_XtoYHto4B_MX-400_MY-95_TuneCP5_13p6TeV_madgraph-pythia8/NANOAODSIM/130X_mcRun3_2022_realistic_postEE_v6-v2/2820000/b9679e80-b86e-4e04-bece-243eac16ba13.root",
        "T2_US_Vanderbilt: davs://xrootd-vanderbilt.sites.opensciencegrid.org:1094/store/mc/Run3Summer22EENanoAODv12/NMSSM_XtoYHto4B_MX-400_MY-95_TuneCP5_13p6TeV_madgraph-pythia8/NANOAODSIM/130X_mcRun3_2022_realistic_postEE_v6-v2/2820000/b9679e80-b86e-4e04-bece-243eac16ba13.root",
        "T2_FI_HIP: davs://hip-cms-se.csc.fi:2880/store/mc/Run3Summer22EENanoAODv12/NMSSM_XtoYHto4B_MX-400_MY-95_TuneCP5_13p6TeV_madgraph-pythia8/NANOAODSIM/130X_mcRun3_2022_realistic_postEE_v6-v2/2820000/b9679e80-b86e-4e04-bece-243eac16ba13.root",
        "T2_HU_Budapest: davs://grid143.kfki.hu:443/dpm/kfki.hu/home/cms/phedex/store/mc/Run3Summer22EENanoAODv12/NMSSM_XtoYHto4B_MX-400_MY-95_TuneCP5_13p6TeV_madgraph-pythia8/NANOAODSIM/130X_mcRun3_2022_realistic_postEE_v6-v2/2820000/b9679e80-b86e-4e04-bece-243eac16ba13.root",
        "T2_BE_IIHE: davs://maite.iihe.ac.be:2880/pnfs/iihe/cms/ph/sc4/store/mc/Run3Summer22EENanoAODv12/NMSSM_XtoYHto4B_MX-400_MY-95_TuneCP5_13p6TeV_madgraph-pythia8/NANOAODSIM/130X_mcRun3_2022_realistic_postEE_v6-v2/2820000/b9679e80-b86e-4e04-bece-243eac16ba13.root",
        "T1_US_FNAL_Tape: davs://cmsdcatape.fnal.gov:2880/WAX/11/store/mc/Run3Summer22EENanoAODv12/NMSSM_XtoYHto4B_MX-400_MY-95_TuneCP5_13p6TeV_madgraph-pythia8/NANOAODSIM/130X_mcRun3_2022_realistic_postEE_v6-v2/2820000/b9679e80-b86e-4e04-bece-243eac16ba13.root"
    ],
    "cms:/store/mc/Run3Summer22EENanoAODv12/NMSSM_XtoYHto4B_MX-400_MY-95_TuneCP5_13p6TeV_madgraph-pythia8/NANOAODSIM/130X_mcRun3_2022_realistic_postEE_v6-v2/2820000/b539504d-320c-4283-90f7-f2a69d3fa3db.root": [
        "T1_US_FNAL_Disk: davs://cmsdcadisk.fnal.gov:2880/dcache/uscmsdisk/store/mc/Run3Summer22EENanoAODv12/NMSSM_XtoYHto4B_MX-400_MY-95_TuneCP5_13p6TeV_madgraph-pythia8/NANOAODSIM/130X_mcRun3_2022_realistic_postEE_v6-v2/2820000/b539504d-320c-4283-90f7-f2a69d3fa3db.root",
        "T1_FR_CCIN2P3_Disk: davs://ccdavcms.in2p3.fr:2880/disk/data/store/mc/Run3Summer22EENanoAODv12/NMSSM_XtoYHto4B_MX-400_MY-95_TuneCP5_13p6TeV_madgraph-pythia8/NANOAODSIM/130X_mcRun3_2022_realistic_postEE_v6-v2/2820000/b539504d-320c-4283-90f7-f2a69d3fa3db.root",
        "T2_US_Vanderbilt: davs://xrootd-vanderbilt.sites.opensciencegrid.org:1094/store/mc/Run3Summer22EENanoAODv12/NMSSM_XtoYHto4B_MX-400_MY-95_TuneCP5_13p6TeV_madgraph-pythia8/NANOAODSIM/130X_mcRun3_2022_realistic_postEE_v6-v2/2820000/b539504d-320c-4283-90f7-f2a69d3fa3db.root",
        "T2_FI_HIP: davs://hip-cms-se.csc.fi:2880/store/mc/Run3Summer22EENanoAODv12/NMSSM_XtoYHto4B_MX-400_MY-95_TuneCP5_13p6TeV_madgraph-pythia8/NANOAODSIM/130X_mcRun3_2022_realistic_postEE_v6-v2/2820000/b539504d-320c-4283-90f7-f2a69d3fa3db.root",
        "T2_HU_Budapest: davs://grid143.kfki.hu:443/dpm/kfki.hu/home/cms/phedex/store/mc/Run3Summer22EENanoAODv12/NMSSM_XtoYHto4B_MX-400_MY-95_TuneCP5_13p6TeV_madgraph-pythia8/NANOAODSIM/130X_mcRun3_2022_realistic_postEE_v6-v2/2820000/b539504d-320c-4283-90f7-f2a69d3fa3db.root",
        "T2_BE_IIHE: davs://maite.iihe.ac.be:2880/pnfs/iihe/cms/ph/sc4/store/mc/Run3Summer22EENanoAODv12/NMSSM_XtoYHto4B_MX-400_MY-95_TuneCP5_13p6TeV_madgraph-pythia8/NANOAODSIM/130X_mcRun3_2022_realistic_postEE_v6-v2/2820000/b539504d-320c-4283-90f7-f2a69d3fa3db.root",
        "T1_US_FNAL_Tape: davs://cmsdcatape.fnal.gov:2880/WAX/11/store/mc/Run3Summer22EENanoAODv12/NMSSM_XtoYHto4B_MX-400_MY-95_TuneCP5_13p6TeV_madgraph-pythia8/NANOAODSIM/130X_mcRun3_2022_realistic_postEE_v6-v2/2820000/b539504d-320c-4283-90f7-f2a69d3fa3db.root"
    ],
    "cms:/store/mc/Run3Summer22EENanoAODv12/NMSSM_XtoYHto4B_MX-400_MY-95_TuneCP5_13p6TeV_madgraph-pythia8/NANOAODSIM/130X_mcRun3_2022_realistic_postEE_v6-v2/2820000/96bed862-c91f-40a7-8707-8bbb72d3f67e.root": [
        "T1_US_FNAL_Disk: davs://cmsdcadisk.fnal.gov:2880/dcache/uscmsdisk/store/mc/Run3Summer22EENanoAODv12/NMSSM_XtoYHto4B_MX-400_MY-95_TuneCP5_13p6TeV_madgraph-pythia8/NANOAODSIM/130X_mcRun3_2022_realistic_postEE_v6-v2/2820000/96bed862-c91f-40a7-8707-8bbb72d3f67e.root",
        "T1_FR_CCIN2P3_Disk: davs://ccdavcms.in2p3.fr:2880/disk/data/store/mc/Run3Summer22EENanoAODv12/NMSSM_XtoYHto4B_MX-400_MY-95_TuneCP5_13p6TeV_madgraph-pythia8/NANOAODSIM/130X_mcRun3_2022_realistic_postEE_v6-v2/2820000/96bed862-c91f-40a7-8707-8bbb72d3f67e.root",
        "T2_US_Vanderbilt: davs://xrootd-vanderbilt.sites.opensciencegrid.org:1094/store/mc/Run3Summer22EENanoAODv12/NMSSM_XtoYHto4B_MX-400_MY-95_TuneCP5_13p6TeV_madgraph-pythia8/NANOAODSIM/130X_mcRun3_2022_realistic_postEE_v6-v2/2820000/96bed862-c91f-40a7-8707-8bbb72d3f67e.root",
        "T2_FI_HIP: davs://hip-cms-se.csc.fi:2880/store/mc/Run3Summer22EENanoAODv12/NMSSM_XtoYHto4B_MX-400_MY-95_TuneCP5_13p6TeV_madgraph-pythia8/NANOAODSIM/130X_mcRun3_2022_realistic_postEE_v6-v2/2820000/96bed862-c91f-40a7-8707-8bbb72d3f67e.root",
        "T2_HU_Budapest: davs://grid143.kfki.hu:443/dpm/kfki.hu/home/cms/phedex/store/mc/Run3Summer22EENanoAODv12/NMSSM_XtoYHto4B_MX-400_MY-95_TuneCP5_13p6TeV_madgraph-pythia8/NANOAODSIM/130X_mcRun3_2022_realistic_postEE_v6-v2/2820000/96bed862-c91f-40a7-8707-8bbb72d3f67e.root",
        "T2_BE_IIHE: davs://maite.iihe.ac.be:2880/pnfs/iihe/cms/ph/sc4/store/mc/Run3Summer22EENanoAODv12/NMSSM_XtoYHto4B_MX-400_MY-95_TuneCP5_13p6TeV_madgraph-pythia8/NANOAODSIM/130X_mcRun3_2022_realistic_postEE_v6-v2/2820000/96bed862-c91f-40a7-8707-8bbb72d3f67e.root",
        "T1_US_FNAL_Tape: davs://cmsdcatape.fnal.gov:2880/WAX/11/store/mc/Run3Summer22EENanoAODv12/NMSSM_XtoYHto4B_MX-400_MY-95_TuneCP5_13p6TeV_madgraph-pythia8/NANOAODSIM/130X_mcRun3_2022_realistic_postEE_v6-v2/2820000/96bed862-c91f-40a7-8707-8bbb72d3f67e.root"
    ],
    "cms:/store/mc/Run3Summer22EENanoAODv12/NMSSM_XtoYHto4B_MX-400_MY-95_TuneCP5_13p6TeV_madgraph-pythia8/NANOAODSIM/130X_mcRun3_2022_realistic_postEE_v6-v2/2820000/d1a0ffef-4eb5-4f51-ae9e-f7fd41abf4f0.root": [
        "T1_US_FNAL_Disk: davs://cmsdcadisk.fnal.gov:2880/dcache/uscmsdisk/store/mc/Run3Summer22EENanoAODv12/NMSSM_XtoYHto4B_MX-400_MY-95_TuneCP5_13p6TeV_madgraph-pythia8/NANOAODSIM/130X_mcRun3_2022_realistic_postEE_v6-v2/2820000/d1a0ffef-4eb5-4f51-ae9e-f7fd41abf4f0.root",
        "T1_FR_CCIN2P3_Disk: davs://ccdavcms.in2p3.fr:2880/disk/data/store/mc/Run3Summer22EENanoAODv12/NMSSM_XtoYHto4B_MX-400_MY-95_TuneCP5_13p6TeV_madgraph-pythia8/NANOAODSIM/130X_mcRun3_2022_realistic_postEE_v6-v2/2820000/d1a0ffef-4eb5-4f51-ae9e-f7fd41abf4f0.root",
        "T2_US_Vanderbilt: davs://xrootd-vanderbilt.sites.opensciencegrid.org:1094/store/mc/Run3Summer22EENanoAODv12/NMSSM_XtoYHto4B_MX-400_MY-95_TuneCP5_13p6TeV_madgraph-pythia8/NANOAODSIM/130X_mcRun3_2022_realistic_postEE_v6-v2/2820000/d1a0ffef-4eb5-4f51-ae9e-f7fd41abf4f0.root",
        "T2_FI_HIP: davs://hip-cms-se.csc.fi:2880/store/mc/Run3Summer22EENanoAODv12/NMSSM_XtoYHto4B_MX-400_MY-95_TuneCP5_13p6TeV_madgraph-pythia8/NANOAODSIM/130X_mcRun3_2022_realistic_postEE_v6-v2/2820000/d1a0ffef-4eb5-4f51-ae9e-f7fd41abf4f0.root",
        "T2_HU_Budapest: davs://grid143.kfki.hu:443/dpm/kfki.hu/home/cms/phedex/store/mc/Run3Summer22EENanoAODv12/NMSSM_XtoYHto4B_MX-400_MY-95_TuneCP5_13p6TeV_madgraph-pythia8/NANOAODSIM/130X_mcRun3_2022_realistic_postEE_v6-v2/2820000/d1a0ffef-4eb5-4f51-ae9e-f7fd41abf4f0.root",
        "T2_BE_IIHE: davs://maite.iihe.ac.be:2880/pnfs/iihe/cms/ph/sc4/store/mc/Run3Summer22EENanoAODv12/NMSSM_XtoYHto4B_MX-400_MY-95_TuneCP5_13p6TeV_madgraph-pythia8/NANOAODSIM/130X_mcRun3_2022_realistic_postEE_v6-v2/2820000/d1a0ffef-4eb5-4f51-ae9e-f7fd41abf4f0.root",
        "T1_US_FNAL_Tape: davs://cmsdcatape.fnal.gov:2880/WAX/11/store/mc/Run3Summer22EENanoAODv12/NMSSM_XtoYHto4B_MX-400_MY-95_TuneCP5_13p6TeV_madgraph-pythia8/NANOAODSIM/130X_mcRun3_2022_realistic_postEE_v6-v2/2820000/d1a0ffef-4eb5-4f51-ae9e-f7fd41abf4f0.root"
    ],
    "cms:/store/mc/Run3Summer22EENanoAODv12/NMSSM_XtoYHto4B_MX-400_MY-95_TuneCP5_13p6TeV_madgraph-pythia8/NANOAODSIM/130X_mcRun3_2022_realistic_postEE_v6-v2/2820000/dcb7ed76-7573-4cfa-92a4-4500d7212fe1.root": [
        "T1_US_FNAL_Disk: davs://cmsdcadisk.fnal.gov:2880/dcache/uscmsdisk/store/mc/Run3Summer22EENanoAODv12/NMSSM_XtoYHto4B_MX-400_MY-95_TuneCP5_13p6TeV_madgraph-pythia8/NANOAODSIM/130X_mcRun3_2022_realistic_postEE_v6-v2/2820000/dcb7ed76-7573-4cfa-92a4-4500d7212fe1.root",
        "T1_FR_CCIN2P3_Disk: davs://ccdavcms.in2p3.fr:2880/disk/data/store/mc/Run3Summer22EENanoAODv12/NMSSM_XtoYHto4B_MX-400_MY-95_TuneCP5_13p6TeV_madgraph-pythia8/NANOAODSIM/130X_mcRun3_2022_realistic_postEE_v6-v2/2820000/dcb7ed76-7573-4cfa-92a4-4500d7212fe1.root",
        "T2_US_Vanderbilt: davs://xrootd-vanderbilt.sites.opensciencegrid.org:1094/store/mc/Run3Summer22EENanoAODv12/NMSSM_XtoYHto4B_MX-400_MY-95_TuneCP5_13p6TeV_madgraph-pythia8/NANOAODSIM/130X_mcRun3_2022_realistic_postEE_v6-v2/2820000/dcb7ed76-7573-4cfa-92a4-4500d7212fe1.root",
        "T2_FI_HIP: davs://hip-cms-se.csc.fi:2880/store/mc/Run3Summer22EENanoAODv12/NMSSM_XtoYHto4B_MX-400_MY-95_TuneCP5_13p6TeV_madgraph-pythia8/NANOAODSIM/130X_mcRun3_2022_realistic_postEE_v6-v2/2820000/dcb7ed76-7573-4cfa-92a4-4500d7212fe1.root",
        "T2_HU_Budapest: davs://grid143.kfki.hu:443/dpm/kfki.hu/home/cms/phedex/store/mc/Run3Summer22EENanoAODv12/NMSSM_XtoYHto4B_MX-400_MY-95_TuneCP5_13p6TeV_madgraph-pythia8/NANOAODSIM/130X_mcRun3_2022_realistic_postEE_v6-v2/2820000/dcb7ed76-7573-4cfa-92a4-4500d7212fe1.root",
        "T2_BE_IIHE: davs://maite.iihe.ac.be:2880/pnfs/iihe/cms/ph/sc4/store/mc/Run3Summer22EENanoAODv12/NMSSM_XtoYHto4B_MX-400_MY-95_TuneCP5_13p6TeV_madgraph-pythia8/NANOAODSIM/130X_mcRun3_2022_realistic_postEE_v6-v2/2820000/dcb7ed76-7573-4cfa-92a4-4500d7212fe1.root",
        "T1_US_FNAL_Tape: davs://cmsdcatape.fnal.gov:2880/WAX/11/store/mc/Run3Summer22EENanoAODv12/NMSSM_XtoYHto4B_MX-400_MY-95_TuneCP5_13p6TeV_madgraph-pythia8/NANOAODSIM/130X_mcRun3_2022_realistic_postEE_v6-v2/2820000/dcb7ed76-7573-4cfa-92a4-4500d7212fe1.root"
    ],
    "cms:/store/mc/Run3Summer22EENanoAODv12/NMSSM_XtoYHto4B_MX-400_MY-95_TuneCP5_13p6TeV_madgraph-pythia8/NANOAODSIM/130X_mcRun3_2022_realistic_postEE_v6-v2/2820000/cecdfaa8-0748-4979-bed0-5b9dd6015841.root": [
        "T1_US_FNAL_Disk: davs://cmsdcadisk.fnal.gov:2880/dcache/uscmsdisk/store/mc/Run3Summer22EENanoAODv12/NMSSM_XtoYHto4B_MX-400_MY-95_TuneCP5_13p6TeV_madgraph-pythia8/NANOAODSIM/130X_mcRun3_2022_realistic_postEE_v6-v2/2820000/cecdfaa8-0748-4979-bed0-5b9dd6015841.root",
        "T1_FR_CCIN2P3_Disk: davs://ccdavcms.in2p3.fr:2880/disk/data/store/mc/Run3Summer22EENanoAODv12/NMSSM_XtoYHto4B_MX-400_MY-95_TuneCP5_13p6TeV_madgraph-pythia8/NANOAODSIM/130X_mcRun3_2022_realistic_postEE_v6-v2/2820000/cecdfaa8-0748-4979-bed0-5b9dd6015841.root",
        "T2_US_Vanderbilt: davs://xrootd-vanderbilt.sites.opensciencegrid.org:1094/store/mc/Run3Summer22EENanoAODv12/NMSSM_XtoYHto4B_MX-400_MY-95_TuneCP5_13p6TeV_madgraph-pythia8/NANOAODSIM/130X_mcRun3_2022_realistic_postEE_v6-v2/2820000/cecdfaa8-0748-4979-bed0-5b9dd6015841.root",
        "T2_FI_HIP: davs://hip-cms-se.csc.fi:2880/store/mc/Run3Summer22EENanoAODv12/NMSSM_XtoYHto4B_MX-400_MY-95_TuneCP5_13p6TeV_madgraph-pythia8/NANOAODSIM/130X_mcRun3_2022_realistic_postEE_v6-v2/2820000/cecdfaa8-0748-4979-bed0-5b9dd6015841.root",
        "T2_HU_Budapest: davs://grid143.kfki.hu:443/dpm/kfki.hu/home/cms/phedex/store/mc/Run3Summer22EENanoAODv12/NMSSM_XtoYHto4B_MX-400_MY-95_TuneCP5_13p6TeV_madgraph-pythia8/NANOAODSIM/130X_mcRun3_2022_realistic_postEE_v6-v2/2820000/cecdfaa8-0748-4979-bed0-5b9dd6015841.root",
        "T2_BE_IIHE: davs://maite.iihe.ac.be:2880/pnfs/iihe/cms/ph/sc4/store/mc/Run3Summer22EENanoAODv12/NMSSM_XtoYHto4B_MX-400_MY-95_TuneCP5_13p6TeV_madgraph-pythia8/NANOAODSIM/130X_mcRun3_2022_realistic_postEE_v6-v2/2820000/cecdfaa8-0748-4979-bed0-5b9dd6015841.root",
        "T1_US_FNAL_Tape: davs://cmsdcatape.fnal.gov:2880/WAX/11/store/mc/Run3Summer22EENanoAODv12/NMSSM_XtoYHto4B_MX-400_MY-95_TuneCP5_13p6TeV_madgraph-pythia8/NANOAODSIM/130X_mcRun3_2022_realistic_postEE_v6-v2/2820000/cecdfaa8-0748-4979-bed0-5b9dd6015841.root"
    ],
    "cms:/store/mc/Run3Summer22EENanoAODv12/NMSSM_XtoYHto4B_MX-400_MY-95_TuneCP5_13p6TeV_madgraph-pythia8/NANOAODSIM/130X_mcRun3_2022_realistic_postEE_v6-v2/2820000/6c02ab59-1e1e-43e0-bc2d-8c7bbbcb2629.root": [
        "T1_US_FNAL_Disk: davs://cmsdcadisk.fnal.gov:2880/dcache/uscmsdisk/store/mc/Run3Summer22EENanoAODv12/NMSSM_XtoYHto4B_MX-400_MY-95_TuneCP5_13p6TeV_madgraph-pythia8/NANOAODSIM/130X_mcRun3_2022_realistic_postEE_v6-v2/2820000/6c02ab59-1e1e-43e0-bc2d-8c7bbbcb2629.root",
        "T1_FR_CCIN2P3_Disk: davs://ccdavcms.in2p3.fr:2880/disk/data/store/mc/Run3Summer22EENanoAODv12/NMSSM_XtoYHto4B_MX-400_MY-95_TuneCP5_13p6TeV_madgraph-pythia8/NANOAODSIM/130X_mcRun3_2022_realistic_postEE_v6-v2/2820000/6c02ab59-1e1e-43e0-bc2d-8c7bbbcb2629.root",
        "T2_US_Vanderbilt: davs://xrootd-vanderbilt.sites.opensciencegrid.org:1094/store/mc/Run3Summer22EENanoAODv12/NMSSM_XtoYHto4B_MX-400_MY-95_TuneCP5_13p6TeV_madgraph-pythia8/NANOAODSIM/130X_mcRun3_2022_realistic_postEE_v6-v2/2820000/6c02ab59-1e1e-43e0-bc2d-8c7bbbcb2629.root",
        "T2_FI_HIP: davs://hip-cms-se.csc.fi:2880/store/mc/Run3Summer22EENanoAODv12/NMSSM_XtoYHto4B_MX-400_MY-95_TuneCP5_13p6TeV_madgraph-pythia8/NANOAODSIM/130X_mcRun3_2022_realistic_postEE_v6-v2/2820000/6c02ab59-1e1e-43e0-bc2d-8c7bbbcb2629.root",
        "T2_HU_Budapest: davs://grid143.kfki.hu:443/dpm/kfki.hu/home/cms/phedex/store/mc/Run3Summer22EENanoAODv12/NMSSM_XtoYHto4B_MX-400_MY-95_TuneCP5_13p6TeV_madgraph-pythia8/NANOAODSIM/130X_mcRun3_2022_realistic_postEE_v6-v2/2820000/6c02ab59-1e1e-43e0-bc2d-8c7bbbcb2629.root",
        "T2_BE_IIHE: davs://maite.iihe.ac.be:2880/pnfs/iihe/cms/ph/sc4/store/mc/Run3Summer22EENanoAODv12/NMSSM_XtoYHto4B_MX-400_MY-95_TuneCP5_13p6TeV_madgraph-pythia8/NANOAODSIM/130X_mcRun3_2022_realistic_postEE_v6-v2/2820000/6c02ab59-1e1e-43e0-bc2d-8c7bbbcb2629.root",
        "T2_IT_Rome: davs://cmsrm-xrootd01.roma1.infn.it:2880//mc/Run3Summer22EENanoAODv12/NMSSM_XtoYHto4B_MX-400_MY-95_TuneCP5_13p6TeV_madgraph-pythia8/NANOAODSIM/130X_mcRun3_2022_realistic_postEE_v6-v2/2820000/6c02ab59-1e1e-43e0-bc2d-8c7bbbcb2629.root",
        "T1_US_FNAL_Tape: davs://cmsdcatape.fnal.gov:2880/WAX/11/store/mc/Run3Summer22EENanoAODv12/NMSSM_XtoYHto4B_MX-400_MY-95_TuneCP5_13p6TeV_madgraph-pythia8/NANOAODSIM/130X_mcRun3_2022_realistic_postEE_v6-v2/2820000/6c02ab59-1e1e-43e0-bc2d-8c7bbbcb2629.root"
    ],
    "cms:/store/mc/Run3Summer22EENanoAODv12/NMSSM_XtoYHto4B_MX-400_MY-95_TuneCP5_13p6TeV_madgraph-pythia8/NANOAODSIM/130X_mcRun3_2022_realistic_postEE_v6-v2/2820000/0263bca1-0f3b-42e3-b228-b6bc1e3fb8da.root": [
        "T1_US_FNAL_Disk: davs://cmsdcadisk.fnal.gov:2880/dcache/uscmsdisk/store/mc/Run3Summer22EENanoAODv12/NMSSM_XtoYHto4B_MX-400_MY-95_TuneCP5_13p6TeV_madgraph-pythia8/NANOAODSIM/130X_mcRun3_2022_realistic_postEE_v6-v2/2820000/0263bca1-0f3b-42e3-b228-b6bc1e3fb8da.root",
        "T1_FR_CCIN2P3_Disk: davs://ccdavcms.in2p3.fr:2880/disk/data/store/mc/Run3Summer22EENanoAODv12/NMSSM_XtoYHto4B_MX-400_MY-95_TuneCP5_13p6TeV_madgraph-pythia8/NANOAODSIM/130X_mcRun3_2022_realistic_postEE_v6-v2/2820000/0263bca1-0f3b-42e3-b228-b6bc1e3fb8da.root",
        "T2_US_Vanderbilt: davs://xrootd-vanderbilt.sites.opensciencegrid.org:1094/store/mc/Run3Summer22EENanoAODv12/NMSSM_XtoYHto4B_MX-400_MY-95_TuneCP5_13p6TeV_madgraph-pythia8/NANOAODSIM/130X_mcRun3_2022_realistic_postEE_v6-v2/2820000/0263bca1-0f3b-42e3-b228-b6bc1e3fb8da.root",
        "T2_FI_HIP: davs://hip-cms-se.csc.fi:2880/store/mc/Run3Summer22EENanoAODv12/NMSSM_XtoYHto4B_MX-400_MY-95_TuneCP5_13p6TeV_madgraph-pythia8/NANOAODSIM/130X_mcRun3_2022_realistic_postEE_v6-v2/2820000/0263bca1-0f3b-42e3-b228-b6bc1e3fb8da.root",
        "T2_HU_Budapest: davs://grid143.kfki.hu:443/dpm/kfki.hu/home/cms/phedex/store/mc/Run3Summer22EENanoAODv12/NMSSM_XtoYHto4B_MX-400_MY-95_TuneCP5_13p6TeV_madgraph-pythia8/NANOAODSIM/130X_mcRun3_2022_realistic_postEE_v6-v2/2820000/0263bca1-0f3b-42e3-b228-b6bc1e3fb8da.root",
        "T2_BE_IIHE: davs://maite.iihe.ac.be:2880/pnfs/iihe/cms/ph/sc4/store/mc/Run3Summer22EENanoAODv12/NMSSM_XtoYHto4B_MX-400_MY-95_TuneCP5_13p6TeV_madgraph-pythia8/NANOAODSIM/130X_mcRun3_2022_realistic_postEE_v6-v2/2820000/0263bca1-0f3b-42e3-b228-b6bc1e3fb8da.root",
        "T1_US_FNAL_Tape: davs://cmsdcatape.fnal.gov:2880/WAX/11/store/mc/Run3Summer22EENanoAODv12/NMSSM_XtoYHto4B_MX-400_MY-95_TuneCP5_13p6TeV_madgraph-pythia8/NANOAODSIM/130X_mcRun3_2022_realistic_postEE_v6-v2/2820000/0263bca1-0f3b-42e3-b228-b6bc1e3fb8da.root"
    ],
    "cms:/store/mc/Run3Summer22EENanoAODv12/NMSSM_XtoYHto4B_MX-400_MY-95_TuneCP5_13p6TeV_madgraph-pythia8/NANOAODSIM/130X_mcRun3_2022_realistic_postEE_v6-v2/2820000/677fb36a-d8b1-44b2-a021-920ef654929a.root": [
        "T1_US_FNAL_Disk: davs://cmsdcadisk.fnal.gov:2880/dcache/uscmsdisk/store/mc/Run3Summer22EENanoAODv12/NMSSM_XtoYHto4B_MX-400_MY-95_TuneCP5_13p6TeV_madgraph-pythia8/NANOAODSIM/130X_mcRun3_2022_realistic_postEE_v6-v2/2820000/677fb36a-d8b1-44b2-a021-920ef654929a.root",
        "T1_FR_CCIN2P3_Disk: davs://ccdavcms.in2p3.fr:2880/disk/data/store/mc/Run3Summer22EENanoAODv12/NMSSM_XtoYHto4B_MX-400_MY-95_TuneCP5_13p6TeV_madgraph-pythia8/NANOAODSIM/130X_mcRun3_2022_realistic_postEE_v6-v2/2820000/677fb36a-d8b1-44b2-a021-920ef654929a.root",
        "T2_US_Vanderbilt: davs://xrootd-vanderbilt.sites.opensciencegrid.org:1094/store/mc/Run3Summer22EENanoAODv12/NMSSM_XtoYHto4B_MX-400_MY-95_TuneCP5_13p6TeV_madgraph-pythia8/NANOAODSIM/130X_mcRun3_2022_realistic_postEE_v6-v2/2820000/677fb36a-d8b1-44b2-a021-920ef654929a.root",
        "T2_FI_HIP: davs://hip-cms-se.csc.fi:2880/store/mc/Run3Summer22EENanoAODv12/NMSSM_XtoYHto4B_MX-400_MY-95_TuneCP5_13p6TeV_madgraph-pythia8/NANOAODSIM/130X_mcRun3_2022_realistic_postEE_v6-v2/2820000/677fb36a-d8b1-44b2-a021-920ef654929a.root",
        "T2_HU_Budapest: davs://grid143.kfki.hu:443/dpm/kfki.hu/home/cms/phedex/store/mc/Run3Summer22EENanoAODv12/NMSSM_XtoYHto4B_MX-400_MY-95_TuneCP5_13p6TeV_madgraph-pythia8/NANOAODSIM/130X_mcRun3_2022_realistic_postEE_v6-v2/2820000/677fb36a-d8b1-44b2-a021-920ef654929a.root",
        "T2_BE_IIHE: davs://maite.iihe.ac.be:2880/pnfs/iihe/cms/ph/sc4/store/mc/Run3Summer22EENanoAODv12/NMSSM_XtoYHto4B_MX-400_MY-95_TuneCP5_13p6TeV_madgraph-pythia8/NANOAODSIM/130X_mcRun3_2022_realistic_postEE_v6-v2/2820000/677fb36a-d8b1-44b2-a021-920ef654929a.root",
        "T1_US_FNAL_Tape: davs://cmsdcatape.fnal.gov:2880/WAX/11/store/mc/Run3Summer22EENanoAODv12/NMSSM_XtoYHto4B_MX-400_MY-95_TuneCP5_13p6TeV_madgraph-pythia8/NANOAODSIM/130X_mcRun3_2022_realistic_postEE_v6-v2/2820000/677fb36a-d8b1-44b2-a021-920ef654929a.root"
    ],
    "cms:/store/mc/Run3Summer22EENanoAODv12/NMSSM_XtoYHto4B_MX-400_MY-95_TuneCP5_13p6TeV_madgraph-pythia8/NANOAODSIM/130X_mcRun3_2022_realistic_postEE_v6-v2/2820000/92d94e9c-da36-405e-baf5-a6d6e4200e14.root": [
        "T1_US_FNAL_Disk: davs://cmsdcadisk.fnal.gov:2880/dcache/uscmsdisk/store/mc/Run3Summer22EENanoAODv12/NMSSM_XtoYHto4B_MX-400_MY-95_TuneCP5_13p6TeV_madgraph-pythia8/NANOAODSIM/130X_mcRun3_2022_realistic_postEE_v6-v2/2820000/92d94e9c-da36-405e-baf5-a6d6e4200e14.root",
        "T1_FR_CCIN2P3_Disk: davs://ccdavcms.in2p3.fr:2880/disk/data/store/mc/Run3Summer22EENanoAODv12/NMSSM_XtoYHto4B_MX-400_MY-95_TuneCP5_13p6TeV_madgraph-pythia8/NANOAODSIM/130X_mcRun3_2022_realistic_postEE_v6-v2/2820000/92d94e9c-da36-405e-baf5-a6d6e4200e14.root",
        "T2_US_Vanderbilt: davs://xrootd-vanderbilt.sites.opensciencegrid.org:1094/store/mc/Run3Summer22EENanoAODv12/NMSSM_XtoYHto4B_MX-400_MY-95_TuneCP5_13p6TeV_madgraph-pythia8/NANOAODSIM/130X_mcRun3_2022_realistic_postEE_v6-v2/2820000/92d94e9c-da36-405e-baf5-a6d6e4200e14.root",
        "T2_FI_HIP: davs://hip-cms-se.csc.fi:2880/store/mc/Run3Summer22EENanoAODv12/NMSSM_XtoYHto4B_MX-400_MY-95_TuneCP5_13p6TeV_madgraph-pythia8/NANOAODSIM/130X_mcRun3_2022_realistic_postEE_v6-v2/2820000/92d94e9c-da36-405e-baf5-a6d6e4200e14.root",
        "T2_HU_Budapest: davs://grid143.kfki.hu:443/dpm/kfki.hu/home/cms/phedex/store/mc/Run3Summer22EENanoAODv12/NMSSM_XtoYHto4B_MX-400_MY-95_TuneCP5_13p6TeV_madgraph-pythia8/NANOAODSIM/130X_mcRun3_2022_realistic_postEE_v6-v2/2820000/92d94e9c-da36-405e-baf5-a6d6e4200e14.root",
        "T2_BE_IIHE: davs://maite.iihe.ac.be:2880/pnfs/iihe/cms/ph/sc4/store/mc/Run3Summer22EENanoAODv12/NMSSM_XtoYHto4B_MX-400_MY-95_TuneCP5_13p6TeV_madgraph-pythia8/NANOAODSIM/130X_mcRun3_2022_realistic_postEE_v6-v2/2820000/92d94e9c-da36-405e-baf5-a6d6e4200e14.root",
        "T1_US_FNAL_Tape: davs://cmsdcatape.fnal.gov:2880/WAX/11/store/mc/Run3Summer22EENanoAODv12/NMSSM_XtoYHto4B_MX-400_MY-95_TuneCP5_13p6TeV_madgraph-pythia8/NANOAODSIM/130X_mcRun3_2022_realistic_postEE_v6-v2/2820000/92d94e9c-da36-405e-baf5-a6d6e4200e14.root"
    ],
    "cms:/store/mc/Run3Summer22EENanoAODv12/NMSSM_XtoYHto4B_MX-400_MY-95_TuneCP5_13p6TeV_madgraph-pythia8/NANOAODSIM/130X_mcRun3_2022_realistic_postEE_v6-v2/2820000/685937df-6ddc-4f50-b09d-c8929097b150.root": [
        "T1_US_FNAL_Disk: davs://cmsdcadisk.fnal.gov:2880/dcache/uscmsdisk/store/mc/Run3Summer22EENanoAODv12/NMSSM_XtoYHto4B_MX-400_MY-95_TuneCP5_13p6TeV_madgraph-pythia8/NANOAODSIM/130X_mcRun3_2022_realistic_postEE_v6-v2/2820000/685937df-6ddc-4f50-b09d-c8929097b150.root",
        "T1_FR_CCIN2P3_Disk: davs://ccdavcms.in2p3.fr:2880/disk/data/store/mc/Run3Summer22EENanoAODv12/NMSSM_XtoYHto4B_MX-400_MY-95_TuneCP5_13p6TeV_madgraph-pythia8/NANOAODSIM/130X_mcRun3_2022_realistic_postEE_v6-v2/2820000/685937df-6ddc-4f50-b09d-c8929097b150.root",
        "T2_PL_Cyfronet: davs://eos01.grid.cyfronet.pl:8443/eos/cms/store/mc/Run3Summer22EENanoAODv12/NMSSM_XtoYHto4B_MX-400_MY-95_TuneCP5_13p6TeV_madgraph-pythia8/NANOAODSIM/130X_mcRun3_2022_realistic_postEE_v6-v2/2820000/685937df-6ddc-4f50-b09d-c8929097b150.root",
        "T2_US_Vanderbilt: davs://xrootd-vanderbilt.sites.opensciencegrid.org:1094/store/mc/Run3Summer22EENanoAODv12/NMSSM_XtoYHto4B_MX-400_MY-95_TuneCP5_13p6TeV_madgraph-pythia8/NANOAODSIM/130X_mcRun3_2022_realistic_postEE_v6-v2/2820000/685937df-6ddc-4f50-b09d-c8929097b150.root",
        "T2_FI_HIP: davs://hip-cms-se.csc.fi:2880/store/mc/Run3Summer22EENanoAODv12/NMSSM_XtoYHto4B_MX-400_MY-95_TuneCP5_13p6TeV_madgraph-pythia8/NANOAODSIM/130X_mcRun3_2022_realistic_postEE_v6-v2/2820000/685937df-6ddc-4f50-b09d-c8929097b150.root",
        "T2_HU_Budapest: davs://grid143.kfki.hu:443/dpm/kfki.hu/home/cms/phedex/store/mc/Run3Summer22EENanoAODv12/NMSSM_XtoYHto4B_MX-400_MY-95_TuneCP5_13p6TeV_madgraph-pythia8/NANOAODSIM/130X_mcRun3_2022_realistic_postEE_v6-v2/2820000/685937df-6ddc-4f50-b09d-c8929097b150.root",
        "T2_BE_IIHE: davs://maite.iihe.ac.be:2880/pnfs/iihe/cms/ph/sc4/store/mc/Run3Summer22EENanoAODv12/NMSSM_XtoYHto4B_MX-400_MY-95_TuneCP5_13p6TeV_madgraph-pythia8/NANOAODSIM/130X_mcRun3_2022_realistic_postEE_v6-v2/2820000/685937df-6ddc-4f50-b09d-c8929097b150.root",
        "T1_US_FNAL_Tape: davs://cmsdcatape.fnal.gov:2880/WAX/11/store/mc/Run3Summer22EENanoAODv12/NMSSM_XtoYHto4B_MX-400_MY-95_TuneCP5_13p6TeV_madgraph-pythia8/NANOAODSIM/130X_mcRun3_2022_realistic_postEE_v6-v2/2820000/685937df-6ddc-4f50-b09d-c8929097b150.root"
    ],
    "cms:/store/mc/Run3Summer22EENanoAODv12/NMSSM_XtoYHto4B_MX-400_MY-95_TuneCP5_13p6TeV_madgraph-pythia8/NANOAODSIM/130X_mcRun3_2022_realistic_postEE_v6-v2/2820000/a3b6aefc-02e9-4dd5-bdca-ed7828358713.root": [
        "T1_US_FNAL_Disk: davs://cmsdcadisk.fnal.gov:2880/dcache/uscmsdisk/store/mc/Run3Summer22EENanoAODv12/NMSSM_XtoYHto4B_MX-400_MY-95_TuneCP5_13p6TeV_madgraph-pythia8/NANOAODSIM/130X_mcRun3_2022_realistic_postEE_v6-v2/2820000/a3b6aefc-02e9-4dd5-bdca-ed7828358713.root",
        "T1_FR_CCIN2P3_Disk: davs://ccdavcms.in2p3.fr:2880/disk/data/store/mc/Run3Summer22EENanoAODv12/NMSSM_XtoYHto4B_MX-400_MY-95_TuneCP5_13p6TeV_madgraph-pythia8/NANOAODSIM/130X_mcRun3_2022_realistic_postEE_v6-v2/2820000/a3b6aefc-02e9-4dd5-bdca-ed7828358713.root",
        "T2_US_Vanderbilt: davs://xrootd-vanderbilt.sites.opensciencegrid.org:1094/store/mc/Run3Summer22EENanoAODv12/NMSSM_XtoYHto4B_MX-400_MY-95_TuneCP5_13p6TeV_madgraph-pythia8/NANOAODSIM/130X_mcRun3_2022_realistic_postEE_v6-v2/2820000/a3b6aefc-02e9-4dd5-bdca-ed7828358713.root",
        "T2_FI_HIP: davs://hip-cms-se.csc.fi:2880/store/mc/Run3Summer22EENanoAODv12/NMSSM_XtoYHto4B_MX-400_MY-95_TuneCP5_13p6TeV_madgraph-pythia8/NANOAODSIM/130X_mcRun3_2022_realistic_postEE_v6-v2/2820000/a3b6aefc-02e9-4dd5-bdca-ed7828358713.root",
        "T2_HU_Budapest: davs://grid143.kfki.hu:443/dpm/kfki.hu/home/cms/phedex/store/mc/Run3Summer22EENanoAODv12/NMSSM_XtoYHto4B_MX-400_MY-95_TuneCP5_13p6TeV_madgraph-pythia8/NANOAODSIM/130X_mcRun3_2022_realistic_postEE_v6-v2/2820000/a3b6aefc-02e9-4dd5-bdca-ed7828358713.root",
        "T2_BE_IIHE: davs://maite.iihe.ac.be:2880/pnfs/iihe/cms/ph/sc4/store/mc/Run3Summer22EENanoAODv12/NMSSM_XtoYHto4B_MX-400_MY-95_TuneCP5_13p6TeV_madgraph-pythia8/NANOAODSIM/130X_mcRun3_2022_realistic_postEE_v6-v2/2820000/a3b6aefc-02e9-4dd5-bdca-ed7828358713.root",
        "T1_US_FNAL_Tape: davs://cmsdcatape.fnal.gov:2880/WAX/11/store/mc/Run3Summer22EENanoAODv12/NMSSM_XtoYHto4B_MX-400_MY-95_TuneCP5_13p6TeV_madgraph-pythia8/NANOAODSIM/130X_mcRun3_2022_realistic_postEE_v6-v2/2820000/a3b6aefc-02e9-4dd5-bdca-ed7828358713.root"
    ],
    "cms:/store/mc/Run3Summer22EENanoAODv12/NMSSM_XtoYHto4B_MX-400_MY-95_TuneCP5_13p6TeV_madgraph-pythia8/NANOAODSIM/130X_mcRun3_2022_realistic_postEE_v6-v2/2820000/84bedaba-dbf8-4bc5-a916-a8096b037692.root": [
        "T1_US_FNAL_Disk: davs://cmsdcadisk.fnal.gov:2880/dcache/uscmsdisk/store/mc/Run3Summer22EENanoAODv12/NMSSM_XtoYHto4B_MX-400_MY-95_TuneCP5_13p6TeV_madgraph-pythia8/NANOAODSIM/130X_mcRun3_2022_realistic_postEE_v6-v2/2820000/84bedaba-dbf8-4bc5-a916-a8096b037692.root",
        "T1_FR_CCIN2P3_Disk: davs://ccdavcms.in2p3.fr:2880/disk/data/store/mc/Run3Summer22EENanoAODv12/NMSSM_XtoYHto4B_MX-400_MY-95_TuneCP5_13p6TeV_madgraph-pythia8/NANOAODSIM/130X_mcRun3_2022_realistic_postEE_v6-v2/2820000/84bedaba-dbf8-4bc5-a916-a8096b037692.root",
        "T2_US_Vanderbilt: davs://xrootd-vanderbilt.sites.opensciencegrid.org:1094/store/mc/Run3Summer22EENanoAODv12/NMSSM_XtoYHto4B_MX-400_MY-95_TuneCP5_13p6TeV_madgraph-pythia8/NANOAODSIM/130X_mcRun3_2022_realistic_postEE_v6-v2/2820000/84bedaba-dbf8-4bc5-a916-a8096b037692.root",
        "T2_FI_HIP: davs://hip-cms-se.csc.fi:2880/store/mc/Run3Summer22EENanoAODv12/NMSSM_XtoYHto4B_MX-400_MY-95_TuneCP5_13p6TeV_madgraph-pythia8/NANOAODSIM/130X_mcRun3_2022_realistic_postEE_v6-v2/2820000/84bedaba-dbf8-4bc5-a916-a8096b037692.root",
        "T2_HU_Budapest: davs://grid143.kfki.hu:443/dpm/kfki.hu/home/cms/phedex/store/mc/Run3Summer22EENanoAODv12/NMSSM_XtoYHto4B_MX-400_MY-95_TuneCP5_13p6TeV_madgraph-pythia8/NANOAODSIM/130X_mcRun3_2022_realistic_postEE_v6-v2/2820000/84bedaba-dbf8-4bc5-a916-a8096b037692.root",
        "T2_BE_IIHE: davs://maite.iihe.ac.be:2880/pnfs/iihe/cms/ph/sc4/store/mc/Run3Summer22EENanoAODv12/NMSSM_XtoYHto4B_MX-400_MY-95_TuneCP5_13p6TeV_madgraph-pythia8/NANOAODSIM/130X_mcRun3_2022_realistic_postEE_v6-v2/2820000/84bedaba-dbf8-4bc5-a916-a8096b037692.root",
        "T1_US_FNAL_Tape: davs://cmsdcatape.fnal.gov:2880/WAX/11/store/mc/Run3Summer22EENanoAODv12/NMSSM_XtoYHto4B_MX-400_MY-95_TuneCP5_13p6TeV_madgraph-pythia8/NANOAODSIM/130X_mcRun3_2022_realistic_postEE_v6-v2/2820000/84bedaba-dbf8-4bc5-a916-a8096b037692.root"
    ],
    "cms:/store/mc/Run3Summer22EENanoAODv12/NMSSM_XtoYHto4B_MX-400_MY-95_TuneCP5_13p6TeV_madgraph-pythia8/NANOAODSIM/130X_mcRun3_2022_realistic_postEE_v6-v2/2820000/061e113b-c7ea-499f-a4e4-d599542ba108.root": [
        "T1_US_FNAL_Disk: davs://cmsdcadisk.fnal.gov:2880/dcache/uscmsdisk/store/mc/Run3Summer22EENanoAODv12/NMSSM_XtoYHto4B_MX-400_MY-95_TuneCP5_13p6TeV_madgraph-pythia8/NANOAODSIM/130X_mcRun3_2022_realistic_postEE_v6-v2/2820000/061e113b-c7ea-499f-a4e4-d599542ba108.root",
        "T1_FR_CCIN2P3_Disk: davs://ccdavcms.in2p3.fr:2880/disk/data/store/mc/Run3Summer22EENanoAODv12/NMSSM_XtoYHto4B_MX-400_MY-95_TuneCP5_13p6TeV_madgraph-pythia8/NANOAODSIM/130X_mcRun3_2022_realistic_postEE_v6-v2/2820000/061e113b-c7ea-499f-a4e4-d599542ba108.root",
        "T2_US_Vanderbilt: davs://xrootd-vanderbilt.sites.opensciencegrid.org:1094/store/mc/Run3Summer22EENanoAODv12/NMSSM_XtoYHto4B_MX-400_MY-95_TuneCP5_13p6TeV_madgraph-pythia8/NANOAODSIM/130X_mcRun3_2022_realistic_postEE_v6-v2/2820000/061e113b-c7ea-499f-a4e4-d599542ba108.root",
        "T2_FI_HIP: davs://hip-cms-se.csc.fi:2880/store/mc/Run3Summer22EENanoAODv12/NMSSM_XtoYHto4B_MX-400_MY-95_TuneCP5_13p6TeV_madgraph-pythia8/NANOAODSIM/130X_mcRun3_2022_realistic_postEE_v6-v2/2820000/061e113b-c7ea-499f-a4e4-d599542ba108.root",
        "T2_HU_Budapest: davs://grid143.kfki.hu:443/dpm/kfki.hu/home/cms/phedex/store/mc/Run3Summer22EENanoAODv12/NMSSM_XtoYHto4B_MX-400_MY-95_TuneCP5_13p6TeV_madgraph-pythia8/NANOAODSIM/130X_mcRun3_2022_realistic_postEE_v6-v2/2820000/061e113b-c7ea-499f-a4e4-d599542ba108.root",
        "T2_BE_IIHE: davs://maite.iihe.ac.be:2880/pnfs/iihe/cms/ph/sc4/store/mc/Run3Summer22EENanoAODv12/NMSSM_XtoYHto4B_MX-400_MY-95_TuneCP5_13p6TeV_madgraph-pythia8/NANOAODSIM/130X_mcRun3_2022_realistic_postEE_v6-v2/2820000/061e113b-c7ea-499f-a4e4-d599542ba108.root",
        "T1_US_FNAL_Tape: davs://cmsdcatape.fnal.gov:2880/WAX/11/store/mc/Run3Summer22EENanoAODv12/NMSSM_XtoYHto4B_MX-400_MY-95_TuneCP5_13p6TeV_madgraph-pythia8/NANOAODSIM/130X_mcRun3_2022_realistic_postEE_v6-v2/2820000/061e113b-c7ea-499f-a4e4-d599542ba108.root"
    ]
}