#/NMSSM_XtoYHto4B_MX-650_MY-95_TuneCP5_13p6TeV_madgraph-pythia8/Run3Summer22EENanoAODv12-130X_mcRun3_2022_realistic_postEE_v6-v2/NANOAODSIM
+-----------------------------------------------------------------------------------------------------------------------------------------------------------------------------------------------------------+--------+-------------+------------+----------+
| SCOPE:NAME                                                                                                                                                                                                | GUID   | ADLER32     | FILESIZE   | EVENTS   |
|-----------------------------------------------------------------------------------------------------------------------------------------------------------------------------------------------------------+--------+-------------+------------+----------|
| cms:/store/mc/Run3Summer22EENanoAODv12/NMSSM_XtoYHto4B_MX-650_MY-95_TuneCP5_13p6TeV_madgraph-pythia8/NANOAODSIM/130X_mcRun3_2022_realistic_postEE_v6-v2/2820000/700627a3-fbf2-42b9-a19f-1fc2d01b3e62.root | (None) | ad:dd547af0 | 4.618 MB   |          |
| cms:/store/mc/Run3Summer22EENanoAODv12/NMSSM_XtoYHto4B_MX-650_MY-95_TuneCP5_13p6TeV_madgraph-pythia8/NANOAODSIM/130X_mcRun3_2022_realistic_postEE_v6-v2/2820000/bf9de205-3279-4864-88a6-aaeb068a716f.root | (None) | ad:93b9883a | 5.183 MB   |          |
| cms:/store/mc/Run3Summer22EENanoAODv12/NMSSM_XtoYHto4B_MX-650_MY-95_TuneCP5_13p6TeV_madgraph-pythia8/NANOAODSIM/130X_mcRun3_2022_realistic_postEE_v6-v2/2820000/c9afff90-b03c-4d99-a2b6-ec0edbd845b1.root | (None) | ad:7f9bd172 | 8.464 MB   |          |
| cms:/store/mc/Run3Summer22EENanoAODv12/NMSSM_XtoYHto4B_MX-650_MY-95_TuneCP5_13p6TeV_madgraph-pythia8/NANOAODSIM/130X_mcRun3_2022_realistic_postEE_v6-v2/2820000/ea731034-513c-429a-b29e-eaa0b4ad5bfc.root | (None) | ad:0d89bb04 | 12.011 MB  |          |
| cms:/store/mc/Run3Summer22EENanoAODv12/NMSSM_XtoYHto4B_MX-650_MY-95_TuneCP5_13p6TeV_madgraph-pythia8/NANOAODSIM/130X_mcRun3_2022_realistic_postEE_v6-v2/2820000/2e8039eb-9cc3-43ea-bc26-379af2449e91.root | (None) | ad:558f9add | 6.729 MB   |          |
| cms:/store/mc/Run3Summer22EENanoAODv12/NMSSM_XtoYHto4B_MX-650_MY-95_TuneCP5_13p6TeV_madgraph-pythia8/NANOAODSIM/130X_mcRun3_2022_realistic_postEE_v6-v2/2820000/c4343c98-9221-4002-b2a0-f8d3e95bebc2.root | (None) | ad:0eca3008 | 6.691 MB   |          |
| cms:/store/mc/Run3Summer22EENanoAODv12/NMSSM_XtoYHto4B_MX-650_MY-95_TuneCP5_13p6TeV_madgraph-pythia8/NANOAODSIM/130X_mcRun3_2022_realistic_postEE_v6-v2/2820000/7fb161ee-5217-472a-8a16-c75f6859679a.root | (None) | ad:c4bd308f | 20.722 MB  |          |
| cms:/store/mc/Run3Summer22EENanoAODv12/NMSSM_XtoYHto4B_MX-650_MY-95_TuneCP5_13p6TeV_madgraph-pythia8/NANOAODSIM/130X_mcRun3_2022_realistic_postEE_v6-v2/2820000/15378af7-8f22-42db-ad8b-2e045fcf6d98.root | (None) | ad:6a674c70 | 6.709 MB   |          |
| cms:/store/mc/Run3Summer22EENanoAODv12/NMSSM_XtoYHto4B_MX-650_MY-95_TuneCP5_13p6TeV_madgraph-pythia8/NANOAODSIM/130X_mcRun3_2022_realistic_postEE_v6-v2/2820000/c4215e4c-1e63-48e8-832d-8d96f725e6d3.root | (None) | ad:d647a642 | 4.579 MB   |          |
| cms:/store/mc/Run3Summer22EENanoAODv12/NMSSM_XtoYHto4B_MX-650_MY-95_TuneCP5_13p6TeV_madgraph-pythia8/NANOAODSIM/130X_mcRun3_2022_realistic_postEE_v6-v2/2820000/03a7ebeb-dc04-4abe-bb99-e30bdacaa0ce.root | (None) | ad:4210389c | 8.390 MB   |          |
| cms:/store/mc/Run3Summer22EENanoAODv12/NMSSM_XtoYHto4B_MX-650_MY-95_TuneCP5_13p6TeV_madgraph-pythia8/NANOAODSIM/130X_mcRun3_2022_realistic_postEE_v6-v2/2820000/553c7a01-c6a7-4db1-97ad-1d5f0b24dab7.root | (None) | ad:9d8ce033 | 8.388 MB   |          |
| cms:/store/mc/Run3Summer22EENanoAODv12/NMSSM_XtoYHto4B_MX-650_MY-95_TuneCP5_13p6TeV_madgraph-pythia8/NANOAODSIM/130X_mcRun3_2022_realistic_postEE_v6-v2/2820000/784cc486-089e-4da6-959c-9467633f9054.root | (None) | ad:c1abf341 | 4.600 MB   |          |
| cms:/store/mc/Run3Summer22EENanoAODv12/NMSSM_XtoYHto4B_MX-650_MY-95_TuneCP5_13p6TeV_madgraph-pythia8/NANOAODSIM/130X_mcRun3_2022_realistic_postEE_v6-v2/2820000/69298ee5-f344-44c8-ab9c-9f4ced5a9e0d.root | (None) | ad:12b6ae5a | 13.735 MB  |          |
| cms:/store/mc/Run3Summer22EENanoAODv12/NMSSM_XtoYHto4B_MX-650_MY-95_TuneCP5_13p6TeV_madgraph-pythia8/NANOAODSIM/130X_mcRun3_2022_realistic_postEE_v6-v2/2820000/82aeb80f-930a-42f2-b4bd-7a21921a5c75.root | (None) | ad:84becc83 | 27.321 MB  |          |
| cms:/store/mc/Run3Summer22EENanoAODv12/NMSSM_XtoYHto4B_MX-650_MY-95_TuneCP5_13p6TeV_madgraph-pythia8/NANOAODSIM/130X_mcRun3_2022_realistic_postEE_v6-v2/2820000/0af435b4-11d7-48a6-8b44-d669b7eda2c7.root | (None) | ad:62ce60c1 | 11.996 MB  |          |
| cms:/store/mc/Run3Summer22EENanoAODv12/NMSSM_XtoYHto4B_MX-650_MY-95_TuneCP5_13p6TeV_madgraph-pythia8/NANOAODSIM/130X_mcRun3_2022_realistic_postEE_v6-v2/2820000/5f772042-4e77-49ca-a8c7-4b07c257df3f.root | (None) | ad:15470029 | 4.579 MB   |          |
| cms:/store/mc/Run3Summer22EENanoAODv12/NMSSM_XtoYHto4B_MX-650_MY-95_TuneCP5_13p6TeV_madgraph-pythia8/NANOAODSIM/130X_mcRun3_2022_realistic_postEE_v6-v2/2820000/72cd96b3-ee29-4451-a614-43fa419fbeaa.root | (None) | ad:f91ec826 | 27.295 MB  |          |
| cms:/store/mc/Run3Summer22EENanoAODv12/NMSSM_XtoYHto4B_MX-650_MY-95_TuneCP5_13p6TeV_madgraph-pythia8/NANOAODSIM/130X_mcRun3_2022_realistic_postEE_v6-v2/2820000/3d6e7373-376d-4bac-b856-c68f9972eebb.root | (None) | ad:55ebbbe4 | 15.426 MB  |          |
| cms:/store/mc/Run3Summer22EENanoAODv12/NMSSM_XtoYHto4B_MX-650_MY-95_TuneCP5_13p6TeV_madgraph-pythia8/NANOAODSIM/130X_mcRun3_2022_realistic_postEE_v6-v2/2820000/25e2e824-e7ec-44b5-b974-e5f0c1c8e17b.root | (None) | ad:629dbb5c | 17.054 MB  |          |
| cms:/store/mc/Run3Summer22EENanoAODv12/NMSSM_XtoYHto4B_MX-650_MY-95_TuneCP5_13p6TeV_madgraph-pythia8/NANOAODSIM/130X_mcRun3_2022_realistic_postEE_v6-v2/2820000/7bd8f6eb-6fe7-4fb5-abe1-0584f68ccbfc.root | (None) | ad:ff66d1c9 | 4.600 MB   |          |
| cms:/store/mc/Run3Summer22EENanoAODv12/NMSSM_XtoYHto4B_MX-650_MY-95_TuneCP5_13p6TeV_madgraph-pythia8/NANOAODSIM/130X_mcRun3_2022_realistic_postEE_v6-v2/2820000/b4afb454-2a46-4886-b396-3796de308a09.root | (None) | ad:9d52cb6f | 4.605 MB   |          |
| cms:/store/mc/Run3Summer22EENanoAODv12/NMSSM_XtoYHto4B_MX-650_MY-95_TuneCP5_13p6TeV_madgraph-pythia8/NANOAODSIM/130X_mcRun3_2022_realistic_postEE_v6-v2/2820000/2d2ca62d-c2fb-4908-80ba-12db6d6d20c1.root | (None) | ad:72f50eac | 17.025 MB  |          |
| cms:/store/mc/Run3Summer22EENanoAODv12/NMSSM_XtoYHto4B_MX-650_MY-95_TuneCP5_13p6TeV_madgraph-pythia8/NANOAODSIM/130X_mcRun3_2022_realistic_postEE_v6-v2/2820000/e066b368-0ba7-462f-aa81-2981ba2309f5.root | (None) | ad:1b2818ff | 13.727 MB  |          |
| cms:/store/mc/Run3Summer22EENanoAODv12/NMSSM_XtoYHto4B_MX-650_MY-95_TuneCP5_13p6TeV_madgraph-pythia8/NANOAODSIM/130X_mcRun3_2022_realistic_postEE_v6-v2/2820000/0ce4a758-599b-4966-a3b4-b079e062a36b.root | (None) | ad:d58c381b | 4.600 MB   |          |
| cms:/store/mc/Run3Summer22EENanoAODv12/NMSSM_XtoYHto4B_MX-650_MY-95_TuneCP5_13p6TeV_madgraph-pythia8/NANOAODSIM/130X_mcRun3_2022_realistic_postEE_v6-v2/2820000/9c3a13b3-9830-4f85-a394-55f93cb7c9fd.root | (None) | ad:815dc811 | 4.583 MB   |          |
| cms:/store/mc/Run3Summer22EENanoAODv12/NMSSM_XtoYHto4B_MX-650_MY-95_TuneCP5_13p6TeV_madgraph-pythia8/NANOAODSIM/130X_mcRun3_2022_realistic_postEE_v6-v2/2820000/d8a6cdda-fe58-4abb-a182-e47e1e254f0e.root | (None) | ad:ef260955 | 4.599 MB   |          |
+-----------------------------------------------------------------------------------------------------------------------------------------------------------------------------------------------------------+--------+-------------+------------+----------+
Total files : 26
Total size : 268.228 MB
