+---------------------------------------------------------------------------------------------------------------------------------------------------------------------------------------------+--------+-------------+------------+----------+
| SCOPE:NAME                                                                                                                                                                                  | GUID   | ADLER32     | FILESIZE   | EVENTS   |
|---------------------------------------------------------------------------------------------------------------------------------------------------------------------------------------------+--------+-------------+------------+----------|
| cms:/store/mc/Run3Summer23NanoAODv12/QCD-4Jets_HT-40to70_TuneCP5_13p6TeV_madgraphMLM-pythia8/NANOAODSIM/130X_mcRun3_2023_realistic_v14-v2/2550000/0355d3fc-6fcd-4b46-9ca3-c904084d5246.root | (None) | ad:a02de9f7 | 23.312 MB  |          |
| cms:/store/mc/Run3Summer23NanoAODv12/QCD-4Jets_HT-40to70_TuneCP5_13p6TeV_madgraphMLM-pythia8/NANOAODSIM/130X_mcRun3_2023_realistic_v14-v2/30000/e399a3f1-e9e1-4eb1-8bb1-a184a808261e.root   | (None) | ad:6afbfc9d | 67.982 MB  |          |
| cms:/store/mc/Run3Summer23NanoAODv12/QCD-4Jets_HT-40to70_TuneCP5_13p6TeV_madgraphMLM-pythia8/NANOAODSIM/130X_mcRun3_2023_realistic_v14-v2/2560000/c4cb257c-d9b6-4b66-87ba-1d2e57d0495a.root | (None) | ad:34ff8198 | 159.776 MB |          |
| cms:/store/mc/Run3Summer23NanoAODv12/QCD-4Jets_HT-40to70_TuneCP5_13p6TeV_madgraphMLM-pythia8/NANOAODSIM/130X_mcRun3_2023_realistic_v14-v2/30000/c6efe086-75b6-4439-b6a6-ff261728826b.root   | (None) | ad:eb01e9d9 | 139.187 MB |          |
| cms:/store/mc/Run3Summer23NanoAODv12/QCD-4Jets_HT-40to70_TuneCP5_13p6TeV_madgraphMLM-pythia8/NANOAODSIM/130X_mcRun3_2023_realistic_v14-v2/70000/3656ca10-5a49-4dee-a7ab-3d44dbec31d7.root   | (None) | ad:b6bd397c | 138.877 MB |          |
| cms:/store/mc/Run3Summer23NanoAODv12/QCD-4Jets_HT-40to70_TuneCP5_13p6TeV_madgraphMLM-pythia8/NANOAODSIM/130X_mcRun3_2023_realistic_v14-v2/70000/b6f14075-721b-4392-99af-55288cf4c14b.root   | (None) | ad:815b7e9a | 57.243 MB  |          |
| cms:/store/mc/Run3Summer23NanoAODv12/QCD-4Jets_HT-40to70_TuneCP5_13p6TeV_madgraphMLM-pythia8/NANOAODSIM/130X_mcRun3_2023_realistic_v14-v2/2550000/9280384e-e8b8-4839-b9ad-a0484f7f5cd1.root | (None) | ad:abae87ad | 278.596 MB |          |
| cms:/store/mc/Run3Summer23NanoAODv12/QCD-4Jets_HT-40to70_TuneCP5_13p6TeV_madgraphMLM-pythia8/NANOAODSIM/130X_mcRun3_2023_realistic_v14-v2/2550000/9bdfb578-fbf6-45bf-8336-1abbe3598ef6.root | (None) | ad:782f88c4 | 275.671 MB |          |
| cms:/store/mc/Run3Summer23NanoAODv12/QCD-4Jets_HT-40to70_TuneCP5_13p6TeV_madgraphMLM-pythia8/NANOAODSIM/130X_mcRun3_2023_realistic_v14-v2/2550000/d56e28cc-fbf8-4715-ac1c-74d49743ac04.root | (None) | ad:1e6cb05c | 210.798 MB |          |
| cms:/store/mc/Run3Summer23NanoAODv12/QCD-4Jets_HT-40to70_TuneCP5_13p6TeV_madgraphMLM-pythia8/NANOAODSIM/130X_mcRun3_2023_realistic_v14-v2/70000/bf6042cd-a3e8-491c-86c1-7626b4cf861b.root   | (None) | ad:f5b1e900 | 67.818 MB  |          |
| cms:/store/mc/Run3Summer23NanoAODv12/QCD-4Jets_HT-40to70_TuneCP5_13p6TeV_madgraphMLM-pythia8/NANOAODSIM/130X_mcRun3_2023_realistic_v14-v2/2550000/f00d23a3-9f1b-4547-8baf-714b3e99c413.root | (None) | ad:4d10c11c | 16.514 MB  |          |
| cms:/store/mc/Run3Summer23NanoAODv12/QCD-4Jets_HT-40to70_TuneCP5_13p6TeV_madgraphMLM-pythia8/NANOAODSIM/130X_mcRun3_2023_realistic_v14-v2/2550000/a1fbcc1c-0887-4394-b816-320a986e4aa2.root | (None) | ad:30bb7662 | 4.699 MB   |          |
| cms:/store/mc/Run3Summer23NanoAODv12/QCD-4Jets_HT-40to70_TuneCP5_13p6TeV_madgraphMLM-pythia8/NANOAODSIM/130X_mcRun3_2023_realistic_v14-v2/30000/ae8e8eef-5858-4b92-93f9-e30f7c47d236.root   | (None) | ad:a6455101 | 196.770 MB |          |
| cms:/store/mc/Run3Summer23NanoAODv12/QCD-4Jets_HT-40to70_TuneCP5_13p6TeV_madgraphMLM-pythia8/NANOAODSIM/130X_mcRun3_2023_realistic_v14-v2/2560000/03bb1643-5afb-471f-8cfe-7c8104211ff3.root | (None) | ad:7705e563 | 106.362 MB |          |
| cms:/store/mc/Run3Summer23NanoAODv12/QCD-4Jets_HT-40to70_TuneCP5_13p6TeV_madgraphMLM-pythia8/NANOAODSIM/130X_mcRun3_2023_realistic_v14-v2/2560000/31af8f63-60cb-45c5-8858-fcf6349db3ae.root | (None) | ad:fb962aaa | 274.391 MB |          |
| cms:/store/mc/Run3Summer23NanoAODv12/QCD-4Jets_HT-40to70_TuneCP5_13p6TeV_madgraphMLM-pythia8/NANOAODSIM/130X_mcRun3_2023_realistic_v14-v2/2560000/4a766fcf-0f78-4d71-b6f3-450a2f8a52c5.root | (None) | ad:b559ad6f | 278.201 MB |          |
| cms:/store/mc/Run3Summer23NanoAODv12/QCD-4Jets_HT-40to70_TuneCP5_13p6TeV_madgraphMLM-pythia8/NANOAODSIM/130X_mcRun3_2023_realistic_v14-v2/30000/fa154708-e4e3-4347-85ab-74b8017f0492.root   | (None) | ad:3a27501c | 288.717 MB |          |
| cms:/store/mc/Run3Summer23NanoAODv12/QCD-4Jets_HT-40to70_TuneCP5_13p6TeV_madgraphMLM-pythia8/NANOAODSIM/130X_mcRun3_2023_realistic_v14-v2/30000/fa44c8b8-e0dd-4ece-a2cd-2157c319d995.root   | (None) | ad:200a3cce | 115.379 MB |          |
| cms:/store/mc/Run3Summer23NanoAODv12/QCD-4Jets_HT-40to70_TuneCP5_13p6TeV_madgraphMLM-pythia8/NANOAODSIM/130X_mcRun3_2023_realistic_v14-v2/30000/41cedd9b-11cd-440f-b2aa-f071e27c519f.root   | (None) | ad:e2112d41 | 155.581 MB |          |
| cms:/store/mc/Run3Summer23NanoAODv12/QCD-4Jets_HT-40to70_TuneCP5_13p6TeV_madgraphMLM-pythia8/NANOAODSIM/130X_mcRun3_2023_realistic_v14-v2/30000/7f5a0f7f-8ff5-4478-9b3b-10ab941be200.root   | (None) | ad:29dfb82d | 284.988 MB |          |
| cms:/store/mc/Run3Summer23NanoAODv12/QCD-4Jets_HT-40to70_TuneCP5_13p6TeV_madgraphMLM-pythia8/NANOAODSIM/130X_mcRun3_2023_realistic_v14-v2/30000/bddc534b-8108-41b7-b039-32667863afb5.root   | (None) | ad:67612f67 | 71.200 MB  |          |
| cms:/store/mc/Run3Summer23NanoAODv12/QCD-4Jets_HT-40to70_TuneCP5_13p6TeV_madgraphMLM-pythia8/NANOAODSIM/130X_mcRun3_2023_realistic_v14-v2/2560000/214d6df4-f151-422f-9031-66b8cc8c3804.root | (None) | ad:3ae9b5d2 | 276.040 MB |          |
| cms:/store/mc/Run3Summer23NanoAODv12/QCD-4Jets_HT-40to70_TuneCP5_13p6TeV_madgraphMLM-pythia8/NANOAODSIM/130X_mcRun3_2023_realistic_v14-v2/2560000/afe0437a-7e23-4926-b769-ce6100d25b36.root | (None) | ad:50ab2ece | 67.325 MB  |          |
| cms:/store/mc/Run3Summer23NanoAODv12/QCD-4Jets_HT-40to70_TuneCP5_13p6TeV_madgraphMLM-pythia8/NANOAODSIM/130X_mcRun3_2023_realistic_v14-v2/30000/3e3801da-e3db-4d21-9da8-66c0cf953b64.root   | (None) | ad:44111cae | 281.896 MB |          |
| cms:/store/mc/Run3Summer23NanoAODv12/QCD-4Jets_HT-40to70_TuneCP5_13p6TeV_madgraphMLM-pythia8/NANOAODSIM/130X_mcRun3_2023_realistic_v14-v2/320000/96c4b978-b355-4e49-8bae-bc0669f0a0fb.root  | (None) | ad:3fe7e6a4 | 162.416 MB |          |
| cms:/store/mc/Run3Summer23NanoAODv12/QCD-4Jets_HT-40to70_TuneCP5_13p6TeV_madgraphMLM-pythia8/NANOAODSIM/130X_mcRun3_2023_realistic_v14-v2/30000/42e184c1-f9d9-4284-a017-54443c9bf19b.root   | (None) | ad:1e9aec4a | 247.086 MB |          |
| cms:/store/mc/Run3Summer23NanoAODv12/QCD-4Jets_HT-40to70_TuneCP5_13p6TeV_madgraphMLM-pythia8/NANOAODSIM/130X_mcRun3_2023_realistic_v14-v2/30000/c05dd35b-0002-4681-8612-f2b286375596.root   | (None) | ad:3b956016 | 6.525 MB   |          |
| cms:/store/mc/Run3Summer23NanoAODv12/QCD-4Jets_HT-40to70_TuneCP5_13p6TeV_madgraphMLM-pythia8/NANOAODSIM/130X_mcRun3_2023_realistic_v14-v2/30000/6e4e2c68-3d30-4281-b38c-2bb5ffec7f42.root   | (None) | ad:a31cf9a6 | 43.973 MB  |          |
| cms:/store/mc/Run3Summer23NanoAODv12/QCD-4Jets_HT-40to70_TuneCP5_13p6TeV_madgraphMLM-pythia8/NANOAODSIM/130X_mcRun3_2023_realistic_v14-v2/2560000/6b020ed1-9b76-45c5-9aaa-249f1af01f9e.root | (None) | ad:726e9c51 | 6.465 MB   |          |
| cms:/store/mc/Run3Summer23NanoAODv12/QCD-4Jets_HT-40to70_TuneCP5_13p6TeV_madgraphMLM-pythia8/NANOAODSIM/130X_mcRun3_2023_realistic_v14-v2/30000/851d0850-c92c-4fd1-8fe6-a3ed31d14596.root   | (None) | ad:9b406cdf | 70.710 MB  |          |
| cms:/store/mc/Run3Summer23NanoAODv12/QCD-4Jets_HT-40to70_TuneCP5_13p6TeV_madgraphMLM-pythia8/NANOAODSIM/130X_mcRun3_2023_realistic_v14-v2/30000/5a432420-9b27-4b57-aba2-6faf35d5f4b1.root   | (None) | ad:e2a98b8a | 274.901 MB |          |
| cms:/store/mc/Run3Summer23NanoAODv12/QCD-4Jets_HT-40to70_TuneCP5_13p6TeV_madgraphMLM-pythia8/NANOAODSIM/130X_mcRun3_2023_realistic_v14-v2/30000/7c47c312-9d3c-4d53-93d2-7ccfc97daae6.root   | (None) | ad:8ff8f1b8 | 13.181 MB  |          |
| cms:/store/mc/Run3Summer23NanoAODv12/QCD-4Jets_HT-40to70_TuneCP5_13p6TeV_madgraphMLM-pythia8/NANOAODSIM/130X_mcRun3_2023_realistic_v14-v2/2550000/898fbe9e-199c-49d1-9cc8-75b8fcc2c7e8.root | (None) | ad:2bb394a6 | 186.186 MB |          |
| cms:/store/mc/Run3Summer23NanoAODv12/QCD-4Jets_HT-40to70_TuneCP5_13p6TeV_madgraphMLM-pythia8/NANOAODSIM/130X_mcRun3_2023_realistic_v14-v2/2560000/5e7e358b-4a91-40f9-bd9f-59684d8e5985.root | (None) | ad:3f7fb166 | 13.140 MB  |          |
| cms:/store/mc/Run3Summer23NanoAODv12/QCD-4Jets_HT-40to70_TuneCP5_13p6TeV_madgraphMLM-pythia8/NANOAODSIM/130X_mcRun3_2023_realistic_v14-v2/70000/50d42f4b-05f3-43bd-bfa0-6b2c64a018a3.root   | (None) | ad:ceeb12d3 | 238.651 MB |          |
| cms:/store/mc/Run3Summer23NanoAODv12/QCD-4Jets_HT-40to70_TuneCP5_13p6TeV_madgraphMLM-pythia8/NANOAODSIM/130X_mcRun3_2023_realistic_v14-v2/2560000/0cf93b40-86b3-4e12-8706-3d6835b2e55e.root | (None) | ad:58505dae | 275.460 MB |          |
| cms:/store/mc/Run3Summer23NanoAODv12/QCD-4Jets_HT-40to70_TuneCP5_13p6TeV_madgraphMLM-pythia8/NANOAODSIM/130X_mcRun3_2023_realistic_v14-v2/2560000/38ce6b84-372c-4d03-b94a-064177bc6d19.root | (None) | ad:1e7bd7f6 | 324.925 MB |          |
| cms:/store/mc/Run3Summer23NanoAODv12/QCD-4Jets_HT-40to70_TuneCP5_13p6TeV_madgraphMLM-pythia8/NANOAODSIM/130X_mcRun3_2023_realistic_v14-v2/2560000/744c06ca-e426-4e95-a417-3a18e1498b99.root | (None) | ad:88cd139c | 285.203 MB |          |
| cms:/store/mc/Run3Summer23NanoAODv12/QCD-4Jets_HT-40to70_TuneCP5_13p6TeV_madgraphMLM-pythia8/NANOAODSIM/130X_mcRun3_2023_realistic_v14-v2/2560000/89ae8652-84ba-4871-a374-e6030e441997.root | (None) | ad:ef93be64 | 341.961 MB |          |
| cms:/store/mc/Run3Summer23NanoAODv12/QCD-4Jets_HT-40to70_TuneCP5_13p6TeV_madgraphMLM-pythia8/NANOAODSIM/130X_mcRun3_2023_realistic_v14-v2/2560000/8d043367-3b7f-4002-bb07-dd4d841cc262.root | (None) | ad:042b5702 | 302.135 MB |          |
| cms:/store/mc/Run3Summer23NanoAODv12/QCD-4Jets_HT-40to70_TuneCP5_13p6TeV_madgraphMLM-pythia8/NANOAODSIM/130X_mcRun3_2023_realistic_v14-v2/2560000/9de92ca0-105d-40c1-a46a-644a5b1900fe.root | (None) | ad:b27eb54c | 311.977 MB |          |
| cms:/store/mc/Run3Summer23NanoAODv12/QCD-4Jets_HT-40to70_TuneCP5_13p6TeV_madgraphMLM-pythia8/NANOAODSIM/130X_mcRun3_2023_realistic_v14-v2/2560000/a1ed4a3a-c055-4592-ac63-0d8b30455806.root | (None) | ad:2aa20411 | 315.534 MB |          |
| cms:/store/mc/Run3Summer23NanoAODv12/QCD-4Jets_HT-40to70_TuneCP5_13p6TeV_madgraphMLM-pythia8/NANOAODSIM/130X_mcRun3_2023_realistic_v14-v2/2560000/e499d094-1c45-4d15-82f9-41e9f4a81a2e.root | (None) | ad:a63f9109 | 274.549 MB |          |
| cms:/store/mc/Run3Summer23NanoAODv12/QCD-4Jets_HT-40to70_TuneCP5_13p6TeV_madgraphMLM-pythia8/NANOAODSIM/130X_mcRun3_2023_realistic_v14-v2/2560000/2188075b-6ad8-4a9e-b755-2cd037284425.root | (None) | ad:d48d37ef | 277.965 MB |          |
| cms:/store/mc/Run3Summer23NanoAODv12/QCD-4Jets_HT-40to70_TuneCP5_13p6TeV_madgraphMLM-pythia8/NANOAODSIM/130X_mcRun3_2023_realistic_v14-v2/2560000/94ecf758-9e11-4a02-a7b9-2012bc11ab75.root | (None) | ad:2ed6a869 | 319.430 MB |          |
| cms:/store/mc/Run3Summer23NanoAODv12/QCD-4Jets_HT-40to70_TuneCP5_13p6TeV_madgraphMLM-pythia8/NANOAODSIM/130X_mcRun3_2023_realistic_v14-v2/2560000/acb061cf-f605-4347-8660-304a5a87b534.root | (None) | ad:22c9ef9a | 183.545 MB |          |
| cms:/store/mc/Run3Summer23NanoAODv12/QCD-4Jets_HT-40to70_TuneCP5_13p6TeV_madgraphMLM-pythia8/NANOAODSIM/130X_mcRun3_2023_realistic_v14-v2/2560000/f1bd7115-678b-4f13-aa53-8abfc7c8f170.root | (None) | ad:932512d3 | 305.087 MB |          |
| cms:/store/mc/Run3Summer23NanoAODv12/QCD-4Jets_HT-40to70_TuneCP5_13p6TeV_madgraphMLM-pythia8/NANOAODSIM/130X_mcRun3_2023_realistic_v14-v2/2560000/fe24a281-0c9d-4c8d-8182-4426c0a55bbd.root | (None) | ad:84b24005 | 294.868 MB |          |
| cms:/store/mc/Run3Summer23NanoAODv12/QCD-4Jets_HT-40to70_TuneCP5_13p6TeV_madgraphMLM-pythia8/NANOAODSIM/130X_mcRun3_2023_realistic_v14-v2/2560000/8074099a-b567-4610-8375-c68188de046b.root | (None) | ad:41d80f16 | 20.167 MB  |          |
| cms:/store/mc/Run3Summer23NanoAODv12/QCD-4Jets_HT-40to70_TuneCP5_13p6TeV_madgraphMLM-pythia8/NANOAODSIM/130X_mcRun3_2023_realistic_v14-v2/2560000/17fef123-d95e-49f9-8696-6ebfd79e4e98.root | (None) | ad:26f9f7c9 | 176.389 MB |          |
| cms:/store/mc/Run3Summer23NanoAODv12/QCD-4Jets_HT-40to70_TuneCP5_13p6TeV_madgraphMLM-pythia8/NANOAODSIM/130X_mcRun3_2023_realistic_v14-v2/2560000/2fe4fc36-c85c-48fd-9a07-3554253597a9.root | (None) | ad:b22a7f01 | 288.936 MB |          |
| cms:/store/mc/Run3Summer23NanoAODv12/QCD-4Jets_HT-40to70_TuneCP5_13p6TeV_madgraphMLM-pythia8/NANOAODSIM/130X_mcRun3_2023_realistic_v14-v2/2560000/79dd6ac5-a29a-404d-84dc-7fcac8f079ab.root | (None) | ad:3b16b4f2 | 275.165 MB |          |
| cms:/store/mc/Run3Summer23NanoAODv12/QCD-4Jets_HT-40to70_TuneCP5_13p6TeV_madgraphMLM-pythia8/NANOAODSIM/130X_mcRun3_2023_realistic_v14-v2/2560000/9cd4cbb9-857a-4792-ad5c-4237dba08d13.root | (None) | ad:069d6d94 | 298.630 MB |          |
| cms:/store/mc/Run3Summer23NanoAODv12/QCD-4Jets_HT-40to70_TuneCP5_13p6TeV_madgraphMLM-pythia8/NANOAODSIM/130X_mcRun3_2023_realistic_v14-v2/2560000/eb737343-18c2-400f-b3a1-f69ba4dce1eb.root | (None) | ad:58d20339 | 291.444 MB |          |
| cms:/store/mc/Run3Summer23NanoAODv12/QCD-4Jets_HT-40to70_TuneCP5_13p6TeV_madgraphMLM-pythia8/NANOAODSIM/130X_mcRun3_2023_realistic_v14-v2/2560000/b9cdd4f0-c64f-49d0-9d43-c9aab71a6d4f.root | (None) | ad:1bd19713 | 6.467 MB   |          |
| cms:/store/mc/Run3Summer23NanoAODv12/QCD-4Jets_HT-40to70_TuneCP5_13p6TeV_madgraphMLM-pythia8/NANOAODSIM/130X_mcRun3_2023_realistic_v14-v2/70000/672cb72b-1ebb-4a7e-b461-0ccb25cac7fd.root   | (None) | ad:60c76274 | 70.768 MB  |          |
| cms:/store/mc/Run3Summer23NanoAODv12/QCD-4Jets_HT-40to70_TuneCP5_13p6TeV_madgraphMLM-pythia8/NANOAODSIM/130X_mcRun3_2023_realistic_v14-v2/70000/fb950ed1-a14c-40e1-a22a-d18d4105587b.root   | (None) | ad:b5654f72 | 292.545 MB |          |
| cms:/store/mc/Run3Summer23NanoAODv12/QCD-4Jets_HT-40to70_TuneCP5_13p6TeV_madgraphMLM-pythia8/NANOAODSIM/130X_mcRun3_2023_realistic_v14-v2/70000/0d8f4040-30d9-4ff0-9f59-9116319f44f3.root   | (None) | ad:8a2b7b57 | 91.351 MB  |          |
| cms:/store/mc/Run3Summer23NanoAODv12/QCD-4Jets_HT-40to70_TuneCP5_13p6TeV_madgraphMLM-pythia8/NANOAODSIM/130X_mcRun3_2023_realistic_v14-v2/70000/7a9e101e-79d8-4669-861b-3f16c38ce82e.root   | (None) | ad:bded54f6 | 6.529 MB   |          |
| cms:/store/mc/Run3Summer23NanoAODv12/QCD-4Jets_HT-40to70_TuneCP5_13p6TeV_madgraphMLM-pythia8/NANOAODSIM/130X_mcRun3_2023_realistic_v14-v2/70000/ab6b8c87-2213-4674-94d2-9f0c31b250ff.root   | (None) | ad:7008c544 | 23.229 MB  |          |
| cms:/store/mc/Run3Summer23NanoAODv12/QCD-4Jets_HT-40to70_TuneCP5_13p6TeV_madgraphMLM-pythia8/NANOAODSIM/130X_mcRun3_2023_realistic_v14-v2/30000/29161932-e65e-482a-ad67-a5e1989e6dc3.root   | (None) | ad:55d357e5 | 243.925 MB |          |
| cms:/store/mc/Run3Summer23NanoAODv12/QCD-4Jets_HT-40to70_TuneCP5_13p6TeV_madgraphMLM-pythia8/NANOAODSIM/130X_mcRun3_2023_realistic_v14-v2/30000/2d152ddd-eb5b-49bf-883f-b68f811563c8.root   | (None) | ad:856fdfe7 | 274.542 MB |          |
| cms:/store/mc/Run3Summer23NanoAODv12/QCD-4Jets_HT-40to70_TuneCP5_13p6TeV_madgraphMLM-pythia8/NANOAODSIM/130X_mcRun3_2023_realistic_v14-v2/2560000/525a5b01-0c2f-4466-9544-f4ff12ee902d.root | (None) | ad:6ed0025f | 305.400 MB |          |
| cms:/store/mc/Run3Summer23NanoAODv12/QCD-4Jets_HT-40to70_TuneCP5_13p6TeV_madgraphMLM-pythia8/NANOAODSIM/130X_mcRun3_2023_realistic_v14-v2/2560000/7d0720de-6d08-400a-93d6-1cfdf70e97d6.root | (None) | ad:22b85269 | 285.243 MB |          |
| cms:/store/mc/Run3Summer23NanoAODv12/QCD-4Jets_HT-40to70_TuneCP5_13p6TeV_madgraphMLM-pythia8/NANOAODSIM/130X_mcRun3_2023_realistic_v14-v2/2560000/8a7b15ee-4c63-4f2e-9a7b-331294cd209f.root | (None) | ad:c01f9f39 | 227.363 MB |          |
| cms:/store/mc/Run3Summer23NanoAODv12/QCD-4Jets_HT-40to70_TuneCP5_13p6TeV_madgraphMLM-pythia8/NANOAODSIM/130X_mcRun3_2023_realistic_v14-v2/2560000/a7dc8c07-dc42-4371-ad82-e29c1dc0f601.root | (None) | ad:18955080 | 309.106 MB |          |
| cms:/store/mc/Run3Summer23NanoAODv12/QCD-4Jets_HT-40to70_TuneCP5_13p6TeV_madgraphMLM-pythia8/NANOAODSIM/130X_mcRun3_2023_realistic_v14-v2/2560000/d2851619-0b59-4386-b81d-22fe25246ed6.root | (None) | ad:348f7984 | 6.380 MB   |          |
| cms:/store/mc/Run3Summer23NanoAODv12/QCD-4Jets_HT-40to70_TuneCP5_13p6TeV_madgraphMLM-pythia8/NANOAODSIM/130X_mcRun3_2023_realistic_v14-v2/70000/7a3a0403-b172-48be-bb95-bc0eaecf93f8.root   | (None) | ad:441406e4 | 29.889 MB  |          |
| cms:/store/mc/Run3Summer23NanoAODv12/QCD-4Jets_HT-40to70_TuneCP5_13p6TeV_madgraphMLM-pythia8/NANOAODSIM/130X_mcRun3_2023_realistic_v14-v2/2550000/4209fb5c-9ff5-46f7-9af6-db602b1029bd.root | (None) | ad:36f591d4 | 75.063 MB  |          |
| cms:/store/mc/Run3Summer23NanoAODv12/QCD-4Jets_HT-40to70_TuneCP5_13p6TeV_madgraphMLM-pythia8/NANOAODSIM/130X_mcRun3_2023_realistic_v14-v2/2560000/4d1984a8-ae07-4720-ab6d-35ba4711fc31.root | (None) | ad:5b08de37 | 23.409 MB  |          |
| cms:/store/mc/Run3Summer23NanoAODv12/QCD-4Jets_HT-40to70_TuneCP5_13p6TeV_madgraphMLM-pythia8/NANOAODSIM/130X_mcRun3_2023_realistic_v14-v2/2560000/d1485399-fc4a-431d-9c87-40ab7c5c8286.root | (None) | ad:9fab4c15 | 234.612 MB |          |
| cms:/store/mc/Run3Summer23NanoAODv12/QCD-4Jets_HT-40to70_TuneCP5_13p6TeV_madgraphMLM-pythia8/NANOAODSIM/130X_mcRun3_2023_realistic_v14-v2/70000/1c58aaae-8382-42f8-aa45-f0605cfe2119.root   | (None) | ad:c9225523 | 291.395 MB |          |
| cms:/store/mc/Run3Summer23NanoAODv12/QCD-4Jets_HT-40to70_TuneCP5_13p6TeV_madgraphMLM-pythia8/NANOAODSIM/130X_mcRun3_2023_realistic_v14-v2/70000/3666a3e7-adf5-462b-850d-658689c3a4e1.root   | (None) | ad:a02ddeff | 315.363 MB |          |
| cms:/store/mc/Run3Summer23NanoAODv12/QCD-4Jets_HT-40to70_TuneCP5_13p6TeV_madgraphMLM-pythia8/NANOAODSIM/130X_mcRun3_2023_realistic_v14-v2/70000/3b988957-2247-4c48-ad69-42d4fb482872.root   | (None) | ad:aadfc946 | 392.871 MB |          |
| cms:/store/mc/Run3Summer23NanoAODv12/QCD-4Jets_HT-40to70_TuneCP5_13p6TeV_madgraphMLM-pythia8/NANOAODSIM/130X_mcRun3_2023_realistic_v14-v2/70000/87146f1c-055b-45ef-baa3-c31ddb59b629.root   | (None) | ad:34525947 | 332.669 MB |          |
| cms:/store/mc/Run3Summer23NanoAODv12/QCD-4Jets_HT-40to70_TuneCP5_13p6TeV_madgraphMLM-pythia8/NANOAODSIM/130X_mcRun3_2023_realistic_v14-v2/70000/9a58b9be-70f1-4a02-ba46-cff629529097.root   | (None) | ad:8c7620c3 | 342.030 MB |          |
| cms:/store/mc/Run3Summer23NanoAODv12/QCD-4Jets_HT-40to70_TuneCP5_13p6TeV_madgraphMLM-pythia8/NANOAODSIM/130X_mcRun3_2023_realistic_v14-v2/70000/a3f1ba56-5623-4dea-90b9-d1773fb099d8.root   | (None) | ad:f4687e9d | 435.996 MB |          |
| cms:/store/mc/Run3Summer23NanoAODv12/QCD-4Jets_HT-40to70_TuneCP5_13p6TeV_madgraphMLM-pythia8/NANOAODSIM/130X_mcRun3_2023_realistic_v14-v2/70000/c452b452-0fb3-49ad-a1c3-c5a4aa70a986.root   | (None) | ad:b814fce2 | 338.791 MB |          |
| cms:/store/mc/Run3Summer23NanoAODv12/QCD-4Jets_HT-40to70_TuneCP5_13p6TeV_madgraphMLM-pythia8/NANOAODSIM/130X_mcRun3_2023_realistic_v14-v2/70000/d2af5469-b69b-4a68-b014-fad8b19eb261.root   | (None) | ad:ea39ebad | 342.295 MB |          |
| cms:/store/mc/Run3Summer23NanoAODv12/QCD-4Jets_HT-40to70_TuneCP5_13p6TeV_madgraphMLM-pythia8/NANOAODSIM/130X_mcRun3_2023_realistic_v14-v2/70000/d6434749-c34a-4b9b-9cfa-bc7b86208576.root   | (None) | ad:9382b829 | 297.407 MB |          |
| cms:/store/mc/Run3Summer23NanoAODv12/QCD-4Jets_HT-40to70_TuneCP5_13p6TeV_madgraphMLM-pythia8/NANOAODSIM/130X_mcRun3_2023_realistic_v14-v2/70000/e3fd6db6-1838-4c47-abcd-9b45f335848b.root   | (None) | ad:716cceda | 285.538 MB |          |
| cms:/store/mc/Run3Summer23NanoAODv12/QCD-4Jets_HT-40to70_TuneCP5_13p6TeV_madgraphMLM-pythia8/NANOAODSIM/130X_mcRun3_2023_realistic_v14-v2/70000/ec8994ad-0f0f-44ec-805f-e8e8249c5efb.root   | (None) | ad:8d806aed | 315.200 MB |          |
| cms:/store/mc/Run3Summer23NanoAODv12/QCD-4Jets_HT-40to70_TuneCP5_13p6TeV_madgraphMLM-pythia8/NANOAODSIM/130X_mcRun3_2023_realistic_v14-v2/70000/f9dfef10-506b-4074-a3b6-96165b577115.root   | (None) | ad:c29c5ffe | 539.489 MB |          |
| cms:/store/mc/Run3Summer23NanoAODv12/QCD-4Jets_HT-40to70_TuneCP5_13p6TeV_madgraphMLM-pythia8/NANOAODSIM/130X_mcRun3_2023_realistic_v14-v2/2560000/e117cc5c-1308-4a4c-9121-1baec17fab62.root | (None) | ad:1883ed34 | 91.464 MB  |          |
| cms:/store/mc/Run3Summer23NanoAODv12/QCD-4Jets_HT-40to70_TuneCP5_13p6TeV_madgraphMLM-pythia8/NANOAODSIM/130X_mcRun3_2023_realistic_v14-v2/2560000/2e1c400b-fd30-435c-8b59-1467c6ffcf53.root | (None) | ad:393a7804 | 43.635 MB  |          |
| cms:/store/mc/Run3Summer23NanoAODv12/QCD-4Jets_HT-40to70_TuneCP5_13p6TeV_madgraphMLM-pythia8/NANOAODSIM/130X_mcRun3_2023_realistic_v14-v2/2560000/997f171e-d440-4265-afcc-4036a084a1b4.root | (None) | ad:1c7181b3 | 9.580 MB   |          |
| cms:/store/mc/Run3Summer23NanoAODv12/QCD-4Jets_HT-40to70_TuneCP5_13p6TeV_madgraphMLM-pythia8/NANOAODSIM/130X_mcRun3_2023_realistic_v14-v2/2560000/ecda9bdf-5991-4b37-869b-8791c62101e2.root | (None) | ad:6589ce22 | 237.074 MB |          |
| cms:/store/mc/Run3Summer23NanoAODv12/QCD-4Jets_HT-40to70_TuneCP5_13p6TeV_madgraphMLM-pythia8/NANOAODSIM/130X_mcRun3_2023_realistic_v14-v2/70000/1ae91a6a-e1bb-4eaf-8693-0fa4db1d2fad.root   | (None) | ad:9272c8f2 | 30.205 MB  |          |
| cms:/store/mc/Run3Summer23NanoAODv12/QCD-4Jets_HT-40to70_TuneCP5_13p6TeV_madgraphMLM-pythia8/NANOAODSIM/130X_mcRun3_2023_realistic_v14-v2/70000/3bca31a7-2b85-4902-b943-670c08e0e773.root   | (None) | ad:2daa320c | 275.098 MB |          |
| cms:/store/mc/Run3Summer23NanoAODv12/QCD-4Jets_HT-40to70_TuneCP5_13p6TeV_madgraphMLM-pythia8/NANOAODSIM/130X_mcRun3_2023_realistic_v14-v2/70000/3dedc9fd-50b1-4dd1-bfe0-e48ef7661346.root   | (None) | ad:e385a9f6 | 26.888 MB  |          |
| cms:/store/mc/Run3Summer23NanoAODv12/QCD-4Jets_HT-40to70_TuneCP5_13p6TeV_madgraphMLM-pythia8/NANOAODSIM/130X_mcRun3_2023_realistic_v14-v2/2550000/32dd91b5-d1c1-4a36-9013-7c9ef64f7d30.root | (None) | ad:a0ce3cbb | 84.439 MB  |          |
| cms:/store/mc/Run3Summer23NanoAODv12/QCD-4Jets_HT-40to70_TuneCP5_13p6TeV_madgraphMLM-pythia8/NANOAODSIM/130X_mcRun3_2023_realistic_v14-v2/70000/fbbb317e-0557-462d-9f50-21122f62eb7c.root   | (None) | ad:9bf74695 | 57.277 MB  |          |
| cms:/store/mc/Run3Summer23NanoAODv12/QCD-4Jets_HT-40to70_TuneCP5_13p6TeV_madgraphMLM-pythia8/NANOAODSIM/130X_mcRun3_2023_realistic_v14-v2/2560000/635c68a7-68ac-47ea-a1f1-971a210ac449.root | (None) | ad:d52218e7 | 166.064 MB |          |
| cms:/store/mc/Run3Summer23NanoAODv12/QCD-4Jets_HT-40to70_TuneCP5_13p6TeV_madgraphMLM-pythia8/NANOAODSIM/130X_mcRun3_2023_realistic_v14-v2/2560000/ff04aae4-f836-44a4-95d5-adf29ab17e1e.root | (None) | ad:1f00f371 | 6.490 MB   |          |
| cms:/store/mc/Run3Summer23NanoAODv12/QCD-4Jets_HT-40to70_TuneCP5_13p6TeV_madgraphMLM-pythia8/NANOAODSIM/130X_mcRun3_2023_realistic_v14-v2/70000/9d2767ff-d014-433f-b60e-9d589133b4e2.root   | (None) | ad:2a0304a7 | 278.521 MB |          |
| cms:/store/mc/Run3Summer23NanoAODv12/QCD-4Jets_HT-40to70_TuneCP5_13p6TeV_madgraphMLM-pythia8/NANOAODSIM/130X_mcRun3_2023_realistic_v14-v2/70000/e9fb111b-4489-4d60-9937-2978c20e7cef.root   | (None) | ad:f0afb2d4 | 238.265 MB |          |
| cms:/store/mc/Run3Summer23NanoAODv12/QCD-4Jets_HT-40to70_TuneCP5_13p6TeV_madgraphMLM-pythia8/NANOAODSIM/130X_mcRun3_2023_realistic_v14-v2/30000/a474dfc9-d5d0-45ab-89b2-de1b1c0ac5a4.root   | (None) | ad:a3b9d6a5 | 61.158 MB  |          |
| cms:/store/mc/Run3Summer23NanoAODv12/QCD-4Jets_HT-40to70_TuneCP5_13p6TeV_madgraphMLM-pythia8/NANOAODSIM/130X_mcRun3_2023_realistic_v14-v2/2550000/5a77c617-1952-4188-a316-adbb0a67e434.root | (None) | ad:b992e7bf | 180.032 MB |          |
| cms:/store/mc/Run3Summer23NanoAODv12/QCD-4Jets_HT-40to70_TuneCP5_13p6TeV_madgraphMLM-pythia8/NANOAODSIM/130X_mcRun3_2023_realistic_v14-v2/2550000/92b5141a-adb3-46ad-88a2-67ed67fcb0a2.root | (None) | ad:a1915066 | 275.422 MB |          |
| cms:/store/mc/Run3Summer23NanoAODv12/QCD-4Jets_HT-40to70_TuneCP5_13p6TeV_madgraphMLM-pythia8/NANOAODSIM/130X_mcRun3_2023_realistic_v14-v2/2560000/4ce7f272-47fa-41dc-aacb-becc7980ae7f.root | (None) | ad:77b90baf | 50.216 MB  |          |
| cms:/store/mc/Run3Summer23NanoAODv12/QCD-4Jets_HT-40to70_TuneCP5_13p6TeV_madgraphMLM-pythia8/NANOAODSIM/130X_mcRun3_2023_realistic_v14-v2/2560000/64a9bacf-1f07-451c-9958-a1722d38444e.root | (None) | ad:164b7093 | 9.738 MB   |          |
| cms:/store/mc/Run3Summer23NanoAODv12/QCD-4Jets_HT-40to70_TuneCP5_13p6TeV_madgraphMLM-pythia8/NANOAODSIM/130X_mcRun3_2023_realistic_v14-v2/30000/d9f28178-1869-4bbb-879d-95892289cf46.root   | (None) | ad:68c09c7b | 264.131 MB |          |
| cms:/store/mc/Run3Summer23NanoAODv12/QCD-4Jets_HT-40to70_TuneCP5_13p6TeV_madgraphMLM-pythia8/NANOAODSIM/130X_mcRun3_2023_realistic_v14-v2/30000/e836ec7f-a3e7-40e3-9f56-00e91fff14e4.root   | (None) | ad:f6fc7c38 | 126.010 MB |          |
| cms:/store/mc/Run3Summer23NanoAODv12/QCD-4Jets_HT-40to70_TuneCP5_13p6TeV_madgraphMLM-pythia8/NANOAODSIM/130X_mcRun3_2023_realistic_v14-v2/2550000/e617b514-14fb-4ad7-8959-91d5d4a88f54.root | (None) | ad:dd5d8a99 | 9.655 MB   |          |
| cms:/store/mc/Run3Summer23NanoAODv12/QCD-4Jets_HT-40to70_TuneCP5_13p6TeV_madgraphMLM-pythia8/NANOAODSIM/130X_mcRun3_2023_realistic_v14-v2/70000/6b8aff4d-15ed-42e7-aac9-e923d8fadf19.root   | (None) | ad:53f882e6 | 111.824 MB |          |
| cms:/store/mc/Run3Summer23NanoAODv12/QCD-4Jets_HT-40to70_TuneCP5_13p6TeV_madgraphMLM-pythia8/NANOAODSIM/130X_mcRun3_2023_realistic_v14-v2/70000/e0bc742b-7f65-4d1b-ba20-0757a66d71ab.root   | (None) | ad:446df606 | 278.380 MB |          |
| cms:/store/mc/Run3Summer23NanoAODv12/QCD-4Jets_HT-40to70_TuneCP5_13p6TeV_madgraphMLM-pythia8/NANOAODSIM/130X_mcRun3_2023_realistic_v14-v2/2560000/2c1f0684-506d-4a03-90a3-8440a9eb7432.root | (None) | ad:30f48da1 | 302.271 MB |          |
| cms:/store/mc/Run3Summer23NanoAODv12/QCD-4Jets_HT-40to70_TuneCP5_13p6TeV_madgraphMLM-pythia8/NANOAODSIM/130X_mcRun3_2023_realistic_v14-v2/2560000/7e565967-7663-459b-9122-6b88ecbd384c.root | (None) | ad:021e18fe | 292.249 MB |          |
| cms:/store/mc/Run3Summer23NanoAODv12/QCD-4Jets_HT-40to70_TuneCP5_13p6TeV_madgraphMLM-pythia8/NANOAODSIM/130X_mcRun3_2023_realistic_v14-v2/2560000/922bcccc-dd74-4dd0-a2c9-cb85e7d94f90.root | (None) | ad:4eaabb45 | 274.581 MB |          |
| cms:/store/mc/Run3Summer23NanoAODv12/QCD-4Jets_HT-40to70_TuneCP5_13p6TeV_madgraphMLM-pythia8/NANOAODSIM/130X_mcRun3_2023_realistic_v14-v2/2560000/cf6c9084-3ca1-4e5f-9c8b-ec6c10d522e8.root | (None) | ad:bd14be4a | 295.326 MB |          |
| cms:/store/mc/Run3Summer23NanoAODv12/QCD-4Jets_HT-40to70_TuneCP5_13p6TeV_madgraphMLM-pythia8/NANOAODSIM/130X_mcRun3_2023_realistic_v14-v2/2560000/dcc8537f-7bcf-4350-b9ac-cba8c1b71028.root | (None) | ad:9386f852 | 278.111 MB |          |
| cms:/store/mc/Run3Summer23NanoAODv12/QCD-4Jets_HT-40to70_TuneCP5_13p6TeV_madgraphMLM-pythia8/NANOAODSIM/130X_mcRun3_2023_realistic_v14-v2/2560000/deb7745d-e43c-4b6b-940c-7ca15f929081.root | (None) | ad:7ee0ab36 | 148.706 MB |          |
| cms:/store/mc/Run3Summer23NanoAODv12/QCD-4Jets_HT-40to70_TuneCP5_13p6TeV_madgraphMLM-pythia8/NANOAODSIM/130X_mcRun3_2023_realistic_v14-v2/2550000/d8b382a7-15a8-4e7b-ac22-86153b035fe4.root | (None) | ad:74cf6521 | 20.157 MB  |          |
| cms:/store/mc/Run3Summer23NanoAODv12/QCD-4Jets_HT-40to70_TuneCP5_13p6TeV_madgraphMLM-pythia8/NANOAODSIM/130X_mcRun3_2023_realistic_v14-v2/2550000/162c2c4d-705d-47b9-a723-86d9a7174c3b.root | (None) | ad:99ed9104 | 294.826 MB |          |
| cms:/store/mc/Run3Summer23NanoAODv12/QCD-4Jets_HT-40to70_TuneCP5_13p6TeV_madgraphMLM-pythia8/NANOAODSIM/130X_mcRun3_2023_realistic_v14-v2/2550000/66a79dbc-2b1a-4e1d-bf41-94e78b48b3c5.root | (None) | ad:4e0cceea | 6.492 MB   |          |
| cms:/store/mc/Run3Summer23NanoAODv12/QCD-4Jets_HT-40to70_TuneCP5_13p6TeV_madgraphMLM-pythia8/NANOAODSIM/130X_mcRun3_2023_realistic_v14-v2/2550000/96acd3cf-3192-4e1d-80fa-ad05c107e2b8.root | (None) | ad:1d5d6da0 | 278.593 MB |          |
| cms:/store/mc/Run3Summer23NanoAODv12/QCD-4Jets_HT-40to70_TuneCP5_13p6TeV_madgraphMLM-pythia8/NANOAODSIM/130X_mcRun3_2023_realistic_v14-v2/2560000/3a994947-0962-4aa3-8da4-20cea58c91e6.root | (None) | ad:a959972f | 183.832 MB |          |
| cms:/store/mc/Run3Summer23NanoAODv12/QCD-4Jets_HT-40to70_TuneCP5_13p6TeV_madgraphMLM-pythia8/NANOAODSIM/130X_mcRun3_2023_realistic_v14-v2/2560000/56b111e0-a6a6-4240-93e8-1fc208dbbb5b.root | (None) | ad:eacff730 | 6.473 MB   |          |
| cms:/store/mc/Run3Summer23NanoAODv12/QCD-4Jets_HT-40to70_TuneCP5_13p6TeV_madgraphMLM-pythia8/NANOAODSIM/130X_mcRun3_2023_realistic_v14-v2/2560000/64217296-bbbe-4fed-a326-f73fd5838743.root | (None) | ad:c6912aae | 284.792 MB |          |
| cms:/store/mc/Run3Summer23NanoAODv12/QCD-4Jets_HT-40to70_TuneCP5_13p6TeV_madgraphMLM-pythia8/NANOAODSIM/130X_mcRun3_2023_realistic_v14-v2/2550000/6609186d-e651-41bb-9ab2-7ad564265b00.root | (None) | ad:124372e6 | 274.812 MB |          |
| cms:/store/mc/Run3Summer23NanoAODv12/QCD-4Jets_HT-40to70_TuneCP5_13p6TeV_madgraphMLM-pythia8/NANOAODSIM/130X_mcRun3_2023_realistic_v14-v2/2550000/7ff647a2-9df9-4e9f-ad9c-b29323e1d3c1.root | (None) | ad:c794cb01 | 16.492 MB  |          |
| cms:/store/mc/Run3Summer23NanoAODv12/QCD-4Jets_HT-40to70_TuneCP5_13p6TeV_madgraphMLM-pythia8/NANOAODSIM/130X_mcRun3_2023_realistic_v14-v2/2550000/29d8937d-aa0e-4057-ac55-1d05fa1b73d0.root | (None) | ad:dc1f1cdc | 244.815 MB |          |
| cms:/store/mc/Run3Summer23NanoAODv12/QCD-4Jets_HT-40to70_TuneCP5_13p6TeV_madgraphMLM-pythia8/NANOAODSIM/130X_mcRun3_2023_realistic_v14-v2/70000/72b06b2a-4b88-40bf-96d6-2eb99d8e0d91.root   | (None) | ad:5432aab1 | 9.683 MB   |          |
| cms:/store/mc/Run3Summer23NanoAODv12/QCD-4Jets_HT-40to70_TuneCP5_13p6TeV_madgraphMLM-pythia8/NANOAODSIM/130X_mcRun3_2023_realistic_v14-v2/2550000/7fd8f14f-56d8-4d35-bb13-98abf5649b40.root | (None) | ad:4a457a9e | 61.082 MB  |          |
| cms:/store/mc/Run3Summer23NanoAODv12/QCD-4Jets_HT-40to70_TuneCP5_13p6TeV_madgraphMLM-pythia8/NANOAODSIM/130X_mcRun3_2023_realistic_v14-v2/2550000/efde2c71-72b2-401d-bb20-518e7746904a.root | (None) | ad:8fa2542e | 275.362 MB |          |
| cms:/store/mc/Run3Summer23NanoAODv12/QCD-4Jets_HT-40to70_TuneCP5_13p6TeV_madgraphMLM-pythia8/NANOAODSIM/130X_mcRun3_2023_realistic_v14-v2/30000/ba9d4f93-8501-48a6-a2bc-6f2fd6744067.root   | (None) | ad:6f889b74 | 13.211 MB  |          |
| cms:/store/mc/Run3Summer23NanoAODv12/QCD-4Jets_HT-40to70_TuneCP5_13p6TeV_madgraphMLM-pythia8/NANOAODSIM/130X_mcRun3_2023_realistic_v14-v2/30000/c5228cb2-21e0-457b-8d13-974b447f734f.root   | (None) | ad:82091a9a | 125.558 MB |          |
| cms:/store/mc/Run3Summer23NanoAODv12/QCD-4Jets_HT-40to70_TuneCP5_13p6TeV_madgraphMLM-pythia8/NANOAODSIM/130X_mcRun3_2023_realistic_v14-v2/70000/9f06549e-ca87-4967-bace-0811105016b6.root   | (None) | ad:4be7998a | 6.574 MB   |          |
| cms:/store/mc/Run3Summer23NanoAODv12/QCD-4Jets_HT-40to70_TuneCP5_13p6TeV_madgraphMLM-pythia8/NANOAODSIM/130X_mcRun3_2023_realistic_v14-v2/70000/d8e93f3d-83a5-4dfd-b2b4-a58d345a0357.root   | (None) | ad:1a8b55c5 | 20.084 MB  |          |
| cms:/store/mc/Run3Summer23NanoAODv12/QCD-4Jets_HT-40to70_TuneCP5_13p6TeV_madgraphMLM-pythia8/NANOAODSIM/130X_mcRun3_2023_realistic_v14-v2/70000/33daede4-bd6e-4f69-b45f-915dca8599d1.root   | (None) | ad:5ec1c8b1 | 36.657 MB  |          |
| cms:/store/mc/Run3Summer23NanoAODv12/QCD-4Jets_HT-40to70_TuneCP5_13p6TeV_madgraphMLM-pythia8/NANOAODSIM/130X_mcRun3_2023_realistic_v14-v2/2550000/418beea4-903d-4705-a264-a9a16afe58a7.root | (None) | ad:62ad6913 | 87.603 MB  |          |
| cms:/store/mc/Run3Summer23NanoAODv12/QCD-4Jets_HT-40to70_TuneCP5_13p6TeV_madgraphMLM-pythia8/NANOAODSIM/130X_mcRun3_2023_realistic_v14-v2/70000/60b1a078-a29d-4da4-aa66-b8d1cc4802b9.root   | (None) | ad:29b7afb0 | 182.968 MB |          |
| cms:/store/mc/Run3Summer23NanoAODv12/QCD-4Jets_HT-40to70_TuneCP5_13p6TeV_madgraphMLM-pythia8/NANOAODSIM/130X_mcRun3_2023_realistic_v14-v2/30000/43450a7f-444b-4552-a7b4-1cb8d68ee16b.root   | (None) | ad:0f76a303 | 305.726 MB |          |
| cms:/store/mc/Run3Summer23NanoAODv12/QCD-4Jets_HT-40to70_TuneCP5_13p6TeV_madgraphMLM-pythia8/NANOAODSIM/130X_mcRun3_2023_realistic_v14-v2/30000/4b29df2b-db89-424b-a908-1aebcbedc95f.root   | (None) | ad:e8f7e5e4 | 275.211 MB |          |
| cms:/store/mc/Run3Summer23NanoAODv12/QCD-4Jets_HT-40to70_TuneCP5_13p6TeV_madgraphMLM-pythia8/NANOAODSIM/130X_mcRun3_2023_realistic_v14-v2/30000/9c75411f-9fc3-4b53-b95c-6cf544e740d7.root   | (None) | ad:142abf7b | 57.262 MB  |          |
| cms:/store/mc/Run3Summer23NanoAODv12/QCD-4Jets_HT-40to70_TuneCP5_13p6TeV_madgraphMLM-pythia8/NANOAODSIM/130X_mcRun3_2023_realistic_v14-v2/30000/a9239071-8d2f-421c-859e-1f18b1384b97.root   | (None) | ad:cb297743 | 300.931 MB |          |
| cms:/store/mc/Run3Summer23NanoAODv12/QCD-4Jets_HT-40to70_TuneCP5_13p6TeV_madgraphMLM-pythia8/NANOAODSIM/130X_mcRun3_2023_realistic_v14-v2/30000/b601006a-b4ce-447b-9223-12f410782ff3.root   | (None) | ad:2b129a52 | 362.857 MB |          |
| cms:/store/mc/Run3Summer23NanoAODv12/QCD-4Jets_HT-40to70_TuneCP5_13p6TeV_madgraphMLM-pythia8/NANOAODSIM/130X_mcRun3_2023_realistic_v14-v2/30000/db599c08-9a42-48e0-8232-03ca5af38711.root   | (None) | ad:840078d1 | 275.051 MB |          |
| cms:/store/mc/Run3Summer23NanoAODv12/QCD-4Jets_HT-40to70_TuneCP5_13p6TeV_madgraphMLM-pythia8/NANOAODSIM/130X_mcRun3_2023_realistic_v14-v2/2550000/7f8599e4-cf62-4a93-a080-6d6f3b8f89c4.root | (None) | ad:e98d9787 | 172.970 MB |          |
| cms:/store/mc/Run3Summer23NanoAODv12/QCD-4Jets_HT-40to70_TuneCP5_13p6TeV_madgraphMLM-pythia8/NANOAODSIM/130X_mcRun3_2023_realistic_v14-v2/2560000/41687079-66ef-4050-9736-828faf0b2ad0.root | (None) | ad:12ded9fb | 262.256 MB |          |
| cms:/store/mc/Run3Summer23NanoAODv12/QCD-4Jets_HT-40to70_TuneCP5_13p6TeV_madgraphMLM-pythia8/NANOAODSIM/130X_mcRun3_2023_realistic_v14-v2/2560000/5d5ff575-f187-438a-9159-7f0b70a87ae2.root | (None) | ad:55994e29 | 292.263 MB |          |
| cms:/store/mc/Run3Summer23NanoAODv12/QCD-4Jets_HT-40to70_TuneCP5_13p6TeV_madgraphMLM-pythia8/NANOAODSIM/130X_mcRun3_2023_realistic_v14-v2/2560000/97f13b40-cd14-4577-8fa2-66ec406322bd.root | (None) | ad:f58b0039 | 13.296 MB  |          |
| cms:/store/mc/Run3Summer23NanoAODv12/QCD-4Jets_HT-40to70_TuneCP5_13p6TeV_madgraphMLM-pythia8/NANOAODSIM/130X_mcRun3_2023_realistic_v14-v2/2550000/29b18945-7b02-4234-b550-0b0fe91538b0.root | (None) | ad:f3b378ad | 189.860 MB |          |
| cms:/store/mc/Run3Summer23NanoAODv12/QCD-4Jets_HT-40to70_TuneCP5_13p6TeV_madgraphMLM-pythia8/NANOAODSIM/130X_mcRun3_2023_realistic_v14-v2/2550000/836165ab-2a82-46a3-8cf5-855f7e96567a.root | (None) | ad:a8f67215 | 43.567 MB  |          |
| cms:/store/mc/Run3Summer23NanoAODv12/QCD-4Jets_HT-40to70_TuneCP5_13p6TeV_madgraphMLM-pythia8/NANOAODSIM/130X_mcRun3_2023_realistic_v14-v2/2560000/09ef509f-b3d9-469e-98be-711577d5ce78.root | (None) | ad:d552281d | 295.438 MB |          |
| cms:/store/mc/Run3Summer23NanoAODv12/QCD-4Jets_HT-40to70_TuneCP5_13p6TeV_madgraphMLM-pythia8/NANOAODSIM/130X_mcRun3_2023_realistic_v14-v2/2560000/85adafb9-c5af-453a-9882-62053405f4df.root | (None) | ad:57deb3ed | 315.241 MB |          |
| cms:/store/mc/Run3Summer23NanoAODv12/QCD-4Jets_HT-40to70_TuneCP5_13p6TeV_madgraphMLM-pythia8/NANOAODSIM/130X_mcRun3_2023_realistic_v14-v2/2560000/94ad7069-2b8e-46c7-962c-0cbc8af81bf3.root | (None) | ad:10be4bf5 | 277.039 MB |          |
| cms:/store/mc/Run3Summer23NanoAODv12/QCD-4Jets_HT-40to70_TuneCP5_13p6TeV_madgraphMLM-pythia8/NANOAODSIM/130X_mcRun3_2023_realistic_v14-v2/2560000/995039c4-f27d-49ed-a8cd-1c5d5dedce11.root | (None) | ad:914bbec4 | 279.026 MB |          |
| cms:/store/mc/Run3Summer23NanoAODv12/QCD-4Jets_HT-40to70_TuneCP5_13p6TeV_madgraphMLM-pythia8/NANOAODSIM/130X_mcRun3_2023_realistic_v14-v2/2560000/9fd2740f-5966-4338-88cc-d487cbcf3028.root | (None) | ad:a705c704 | 204.250 MB |          |
| cms:/store/mc/Run3Summer23NanoAODv12/QCD-4Jets_HT-40to70_TuneCP5_13p6TeV_madgraphMLM-pythia8/NANOAODSIM/130X_mcRun3_2023_realistic_v14-v2/2560000/fae56bc7-50e3-464b-b238-35ec62097882.root | (None) | ad:f01e4b87 | 324.960 MB |          |
| cms:/store/mc/Run3Summer23NanoAODv12/QCD-4Jets_HT-40to70_TuneCP5_13p6TeV_madgraphMLM-pythia8/NANOAODSIM/130X_mcRun3_2023_realistic_v14-v2/2560000/3f763c68-9173-4670-be4a-264b9aaf1856.root | (None) | ad:3ed3be53 | 50.633 MB  |          |
| cms:/store/mc/Run3Summer23NanoAODv12/QCD-4Jets_HT-40to70_TuneCP5_13p6TeV_madgraphMLM-pythia8/NANOAODSIM/130X_mcRun3_2023_realistic_v14-v2/2560000/f7ae0017-a2cc-44f9-a1b0-3600ee5ac8de.root | (None) | ad:8c1f14a7 | 275.184 MB |          |
| cms:/store/mc/Run3Summer23NanoAODv12/QCD-4Jets_HT-40to70_TuneCP5_13p6TeV_madgraphMLM-pythia8/NANOAODSIM/130X_mcRun3_2023_realistic_v14-v2/2550000/a6832151-e441-40d6-bfdf-440a6fd542ab.root | (None) | ad:38db4d2d | 13.238 MB  |          |
| cms:/store/mc/Run3Summer23NanoAODv12/QCD-4Jets_HT-40to70_TuneCP5_13p6TeV_madgraphMLM-pythia8/NANOAODSIM/130X_mcRun3_2023_realistic_v14-v2/2550000/e5d7efc1-c7d8-4f69-83b3-74ce48678845.root | (None) | ad:01f71bb6 | 247.986 MB |          |
| cms:/store/mc/Run3Summer23NanoAODv12/QCD-4Jets_HT-40to70_TuneCP5_13p6TeV_madgraphMLM-pythia8/NANOAODSIM/130X_mcRun3_2023_realistic_v14-v2/2550000/5dc9732a-387e-4e3d-a819-0956527cd6da.root | (None) | ad:65e6dc37 | 61.058 MB  |          |
| cms:/store/mc/Run3Summer23NanoAODv12/QCD-4Jets_HT-40to70_TuneCP5_13p6TeV_madgraphMLM-pythia8/NANOAODSIM/130X_mcRun3_2023_realistic_v14-v2/2560000/4a08a920-9eae-4c5a-a866-7bc08601bc78.root | (None) | ad:ef4d19bf | 304.447 MB |          |
| cms:/store/mc/Run3Summer23NanoAODv12/QCD-4Jets_HT-40to70_TuneCP5_13p6TeV_madgraphMLM-pythia8/NANOAODSIM/130X_mcRun3_2023_realistic_v14-v2/2560000/536de2d9-f047-49a7-8964-cc5efe6563e2.root | (None) | ad:d1caa55d | 298.438 MB |          |
| cms:/store/mc/Run3Summer23NanoAODv12/QCD-4Jets_HT-40to70_TuneCP5_13p6TeV_madgraphMLM-pythia8/NANOAODSIM/130X_mcRun3_2023_realistic_v14-v2/2560000/5383b7c6-3c6a-4f09-80b2-fbe666f7729a.root | (None) | ad:26e42bd2 | 275.236 MB |          |
| cms:/store/mc/Run3Summer23NanoAODv12/QCD-4Jets_HT-40to70_TuneCP5_13p6TeV_madgraphMLM-pythia8/NANOAODSIM/130X_mcRun3_2023_realistic_v14-v2/2560000/75aae469-5b33-49e6-adee-860a6475f040.root | (None) | ad:e7aa90c1 | 314.945 MB |          |
| cms:/store/mc/Run3Summer23NanoAODv12/QCD-4Jets_HT-40to70_TuneCP5_13p6TeV_madgraphMLM-pythia8/NANOAODSIM/130X_mcRun3_2023_realistic_v14-v2/2560000/c1fda4b4-f94f-480a-b794-dbc3061a225f.root | (None) | ad:423b4819 | 162.600 MB |          |
| cms:/store/mc/Run3Summer23NanoAODv12/QCD-4Jets_HT-40to70_TuneCP5_13p6TeV_madgraphMLM-pythia8/NANOAODSIM/130X_mcRun3_2023_realistic_v14-v2/2560000/fa1f27f0-1e77-4035-9986-481f7d92b074.root | (None) | ad:7b050a3a | 275.532 MB |          |
| cms:/store/mc/Run3Summer23NanoAODv12/QCD-4Jets_HT-40to70_TuneCP5_13p6TeV_madgraphMLM-pythia8/NANOAODSIM/130X_mcRun3_2023_realistic_v14-v2/30000/fb4bb07e-233f-4720-bf69-02955a151869.root   | (None) | ad:cb4d7d91 | 81.394 MB  |          |
| cms:/store/mc/Run3Summer23NanoAODv12/QCD-4Jets_HT-40to70_TuneCP5_13p6TeV_madgraphMLM-pythia8/NANOAODSIM/130X_mcRun3_2023_realistic_v14-v2/70000/c6bce662-76c4-43f6-b77c-194a70ad3b29.root   | (None) | ad:744f420d | 16.469 MB  |          |
| cms:/store/mc/Run3Summer23NanoAODv12/QCD-4Jets_HT-40to70_TuneCP5_13p6TeV_madgraphMLM-pythia8/NANOAODSIM/130X_mcRun3_2023_realistic_v14-v2/70000/2e92b2cf-7ee2-4528-a2a0-44af6316a0d4.root   | (None) | ad:c327c7b3 | 237.091 MB |          |
| cms:/store/mc/Run3Summer23NanoAODv12/QCD-4Jets_HT-40to70_TuneCP5_13p6TeV_madgraphMLM-pythia8/NANOAODSIM/130X_mcRun3_2023_realistic_v14-v2/70000/424300bf-4b72-4315-bb0c-d08e65b95978.root   | (None) | ad:4f1af9cb | 6.498 MB   |          |
| cms:/store/mc/Run3Summer23NanoAODv12/QCD-4Jets_HT-40to70_TuneCP5_13p6TeV_madgraphMLM-pythia8/NANOAODSIM/130X_mcRun3_2023_realistic_v14-v2/70000/645e9f84-3c5a-402b-8a8b-386b38703b12.root   | (None) | ad:c1113ae8 | 141.889 MB |          |
| cms:/store/mc/Run3Summer23NanoAODv12/QCD-4Jets_HT-40to70_TuneCP5_13p6TeV_madgraphMLM-pythia8/NANOAODSIM/130X_mcRun3_2023_realistic_v14-v2/70000/e6623cde-c4ba-4ab2-b0f1-24cc45326f07.root   | (None) | ad:343981a9 | 9.572 MB   |          |
| cms:/store/mc/Run3Summer23NanoAODv12/QCD-4Jets_HT-40to70_TuneCP5_13p6TeV_madgraphMLM-pythia8/NANOAODSIM/130X_mcRun3_2023_realistic_v14-v2/70000/fbefde3f-d7df-4c9f-9b0b-f9fa6ac9b808.root   | (None) | ad:717d1943 | 94.780 MB  |          |
| cms:/store/mc/Run3Summer23NanoAODv12/QCD-4Jets_HT-40to70_TuneCP5_13p6TeV_madgraphMLM-pythia8/NANOAODSIM/130X_mcRun3_2023_realistic_v14-v2/2560000/49d6ed1f-8ce9-4bb5-bc73-a875aee6433c.root | (None) | ad:05f91aaa | 268.188 MB |          |
| cms:/store/mc/Run3Summer23NanoAODv12/QCD-4Jets_HT-40to70_TuneCP5_13p6TeV_madgraphMLM-pythia8/NANOAODSIM/130X_mcRun3_2023_realistic_v14-v2/2560000/83018d9e-ab6c-421f-9ee6-16e6653248ac.root | (None) | ad:06205aa7 | 277.927 MB |          |
| cms:/store/mc/Run3Summer23NanoAODv12/QCD-4Jets_HT-40to70_TuneCP5_13p6TeV_madgraphMLM-pythia8/NANOAODSIM/130X_mcRun3_2023_realistic_v14-v2/2560000/402f4f55-a354-4ea0-976a-f1af0732fafc.root | (None) | ad:cfdd13da | 6.515 MB   |          |
| cms:/store/mc/Run3Summer23NanoAODv12/QCD-4Jets_HT-40to70_TuneCP5_13p6TeV_madgraphMLM-pythia8/NANOAODSIM/130X_mcRun3_2023_realistic_v14-v2/2560000/75df7ebf-06be-434d-939d-ff5b12dd2971.root | (None) | ad:5fd88d09 | 220.235 MB |          |
| cms:/store/mc/Run3Summer23NanoAODv12/QCD-4Jets_HT-40to70_TuneCP5_13p6TeV_madgraphMLM-pythia8/NANOAODSIM/130X_mcRun3_2023_realistic_v14-v2/2560000/d91aade6-79bd-404a-90dd-493286fe2755.root | (None) | ad:9d9cec2e | 139.187 MB |          |
| cms:/store/mc/Run3Summer23NanoAODv12/QCD-4Jets_HT-40to70_TuneCP5_13p6TeV_madgraphMLM-pythia8/NANOAODSIM/130X_mcRun3_2023_realistic_v14-v2/30000/07a656f5-f0fc-4918-9027-8e236ec2c628.root   | (None) | ad:ba59704c | 285.181 MB |          |
| cms:/store/mc/Run3Summer23NanoAODv12/QCD-4Jets_HT-40to70_TuneCP5_13p6TeV_madgraphMLM-pythia8/NANOAODSIM/130X_mcRun3_2023_realistic_v14-v2/30000/2dda7370-d001-4755-aaf3-1289e29bb1e9.root   | (None) | ad:b52bd6ff | 304.627 MB |          |
| cms:/store/mc/Run3Summer23NanoAODv12/QCD-4Jets_HT-40to70_TuneCP5_13p6TeV_madgraphMLM-pythia8/NANOAODSIM/130X_mcRun3_2023_realistic_v14-v2/30000/5fb1620e-ab6d-407f-9f8a-d4b3a1fe2d5b.root   | (None) | ad:f286c6d3 | 84.627 MB  |          |
| cms:/store/mc/Run3Summer23NanoAODv12/QCD-4Jets_HT-40to70_TuneCP5_13p6TeV_madgraphMLM-pythia8/NANOAODSIM/130X_mcRun3_2023_realistic_v14-v2/30000/713cffae-604f-4814-9b0a-dcdfc066ce41.root   | (None) | ad:5c021f37 | 295.254 MB |          |
| cms:/store/mc/Run3Summer23NanoAODv12/QCD-4Jets_HT-40to70_TuneCP5_13p6TeV_madgraphMLM-pythia8/NANOAODSIM/130X_mcRun3_2023_realistic_v14-v2/30000/e52902df-cf4e-460e-9e0b-1dbd7a75699c.root   | (None) | ad:1cc05052 | 302.368 MB |          |
| cms:/store/mc/Run3Summer23NanoAODv12/QCD-4Jets_HT-40to70_TuneCP5_13p6TeV_madgraphMLM-pythia8/NANOAODSIM/130X_mcRun3_2023_realistic_v14-v2/30000/284fde2e-6bef-4a44-97ae-07d6a5a6a1bb.root   | (None) | ad:b8a8e4c6 | 6.457 MB   |          |
| cms:/store/mc/Run3Summer23NanoAODv12/QCD-4Jets_HT-40to70_TuneCP5_13p6TeV_madgraphMLM-pythia8/NANOAODSIM/130X_mcRun3_2023_realistic_v14-v2/30000/c7e988e1-7d50-47d1-9e03-fd2970e6bacc.root   | (None) | ad:fb53fc0f | 155.752 MB |          |
| cms:/store/mc/Run3Summer23NanoAODv12/QCD-4Jets_HT-40to70_TuneCP5_13p6TeV_madgraphMLM-pythia8/NANOAODSIM/130X_mcRun3_2023_realistic_v14-v2/70000/2e3aadcb-974f-45ae-9bc9-9c5c043116de.root   | (None) | ad:55f92174 | 158.551 MB |          |
| cms:/store/mc/Run3Summer23NanoAODv12/QCD-4Jets_HT-40to70_TuneCP5_13p6TeV_madgraphMLM-pythia8/NANOAODSIM/130X_mcRun3_2023_realistic_v14-v2/70000/43e6dab0-5ff4-4a3c-8326-ce8a02b5cad4.root   | (None) | ad:886b3434 | 6.437 MB   |          |
| cms:/store/mc/Run3Summer23NanoAODv12/QCD-4Jets_HT-40to70_TuneCP5_13p6TeV_madgraphMLM-pythia8/NANOAODSIM/130X_mcRun3_2023_realistic_v14-v2/70000/52143069-5073-4962-9593-36767eae39c1.root   | (None) | ad:195938e9 | 220.021 MB |          |
+---------------------------------------------------------------------------------------------------------------------------------------------------------------------------------------------+--------+-------------+------------+----------+
Total files : 183
Total size : 33.777 GB
