+------------------------------------------------------------------------------------------------------------+--------+-------------+------------+----------+
| SCOPE:NAME                                                                                                 | GUID   | ADLER32     | FILESIZE   | EVENTS   |
|------------------------------------------------------------------------------------------------------------+--------+-------------+------------+----------|
| cms:/store/data/Run2023C/EGamma1/NANOAOD/22Sep2023_v1-v1/30000/431151b5-6ee9-4e66-a0d5-0956cd151aaa.root   | (None) | ad:3a7cd5ca | 148.327 MB |          |
| cms:/store/data/Run2023C/EGamma1/NANOAOD/22Sep2023_v1-v1/30000/69c5aa86-b324-4c01-baac-837b151c2d08.root   | (None) | ad:c90268dc | 902.846 MB |          |
| cms:/store/data/Run2023C/EGamma1/NANOAOD/22Sep2023_v1-v1/30000/a518e8e9-66c1-4a99-8090-1b764a2e5f91.root   | (None) | ad:505fc35d | 857.080 MB |          |
| cms:/store/data/Run2023C/EGamma1/NANOAOD/22Sep2023_v1-v1/40000/b005fbb2-f874-46a3-ba50-f454d355a452.root   | (None) | ad:e23038b6 | 28.311 MB  |          |
| cms:/store/data/Run2023C/EGamma1/NANOAOD/22Sep2023_v1-v1/40000/d0639959-a7c3-408d-9d10-42dae5e9adda.root   | (None) | ad:910360e0 | 802.920 MB |          |
| cms:/store/data/Run2023C/EGamma1/NANOAOD/22Sep2023_v1-v1/40000/f207eba8-dfee-414d-9b3d-12a466de6500.root   | (None) | ad:413e4778 | 835.565 MB |          |
| cms:/store/data/Run2023C/EGamma1/NANOAOD/22Sep2023_v1-v1/30000/4eb41ed1-44b8-4524-aa88-d173eea5db53.root   | (None) | ad:13cad4c0 | 231.847 MB |          |
| cms:/store/data/Run2023C/EGamma1/NANOAOD/22Sep2023_v1-v1/40000/16fa98bb-76e5-4850-b9d7-23ea3ab3f52a.root   | (None) | ad:2e79e051 | 1.040 GB   |          |
| cms:/store/data/Run2023C/EGamma1/NANOAOD/22Sep2023_v1-v1/40000/1df898be-85e6-4c62-949d-446a16058af2.root   | (None) | ad:17ebdffd | 1.609 GB   |          |
| cms:/store/data/Run2023C/EGamma1/NANOAOD/22Sep2023_v1-v1/40000/5de39e7e-edd5-47f6-a7e5-596d795b8590.root   | (None) | ad:32296a7e | 1.205 GB   |          |
| cms:/store/data/Run2023C/EGamma1/NANOAOD/22Sep2023_v1-v1/40000/709c652c-2b32-4ed7-8c8a-f1c5f4e36a04.root   | (None) | ad:5f99cb51 | 805.939 MB |          |
| cms:/store/data/Run2023C/EGamma1/NANOAOD/22Sep2023_v1-v1/40000/84ff596c-ce7b-4435-a489-7509ad995401.root   | (None) | ad:64da23d6 | 1.634 GB   |          |
| cms:/store/data/Run2023C/EGamma1/NANOAOD/22Sep2023_v1-v1/40000/bfe02bff-607a-4cc8-8486-054fb27bc1cf.root   | (None) | ad:2f293324 | 1.582 GB   |          |
| cms:/store/data/Run2023C/EGamma1/NANOAOD/22Sep2023_v1-v1/40000/cf9b10c6-d0c4-4c13-8ca6-62c686a6a8ec.root   | (None) | ad:d7f08dbe | 1.318 GB   |          |
| cms:/store/data/Run2023C/EGamma1/NANOAOD/22Sep2023_v1-v1/2530000/63247837-595c-4658-b8a1-fb6fad31d7c4.root | (None) | ad:e317bd2b | 79.168 MB  |          |
| cms:/store/data/Run2023C/EGamma1/NANOAOD/22Sep2023_v1-v1/40000/1b59e599-898c-4833-912b-9493fe3533ed.root   | (None) | ad:4f5c00c5 | 1.093 GB   |          |
| cms:/store/data/Run2023C/EGamma1/NANOAOD/22Sep2023_v1-v1/40000/a4c37080-bfc8-4998-96e2-be54d98a5329.root   | (None) | ad:cdeb9701 | 790.869 MB |          |
| cms:/store/data/Run2023C/EGamma1/NANOAOD/22Sep2023_v1-v1/40000/ed5a30c5-c6a0-4b70-be94-d2cc3e40c5b2.root   | (None) | ad:9e208be3 | 1.351 GB   |          |
| cms:/store/data/Run2023C/EGamma1/NANOAOD/22Sep2023_v1-v1/2530000/4ba3859a-8b64-48d0-ad9f-903e84b991a2.root | (None) | ad:12ed5237 | 396.087 MB |          |
| cms:/store/data/Run2023C/EGamma1/NANOAOD/22Sep2023_v1-v1/2530000/977cea8c-ed95-4dc6-ab86-e3dee403d26e.root | (None) | ad:496be1ed | 192.806 MB |          |
| cms:/store/data/Run2023C/EGamma1/NANOAOD/22Sep2023_v1-v1/30000/b74e22a7-e350-406f-9169-dafa6ffc838f.root   | (None) | ad:da00dc4f | 198.835 MB |          |
| cms:/store/data/Run2023C/EGamma1/NANOAOD/22Sep2023_v1-v1/2530000/157dfaa0-202b-418a-8923-802fb569aa00.root | (None) | ad:44ddab11 | 783.313 MB |          |
| cms:/store/data/Run2023C/EGamma1/NANOAOD/22Sep2023_v1-v1/2530000/430a105c-59e7-4a04-a9e9-74fd711a7770.root | (None) | ad:ae02da63 | 1.303 GB   |          |
| cms:/store/data/Run2023C/EGamma1/NANOAOD/22Sep2023_v1-v1/40000/039a1d6d-67a1-4757-8d1c-ef75828c9e64.root   | (None) | ad:1ac89786 | 1.641 GB   |          |
| cms:/store/data/Run2023C/EGamma1/NANOAOD/22Sep2023_v1-v1/40000/2fe1e707-b46c-40a1-8854-90287ecd47cc.root   | (None) | ad:010effc3 | 709.425 MB |          |
| cms:/store/data/Run2023C/EGamma1/NANOAOD/22Sep2023_v1-v1/40000/3cf30610-5799-4ffc-9c4d-bd003b15be4b.root   | (None) | ad:a75e2e80 | 861.604 MB |          |
| cms:/store/data/Run2023C/EGamma1/NANOAOD/22Sep2023_v1-v1/40000/7c6d63a1-7e9b-4965-8cde-e2c319931d23.root   | (None) | ad:b9e1be67 | 1.621 GB   |          |
| cms:/store/data/Run2023C/EGamma1/NANOAOD/22Sep2023_v1-v1/40000/82a9f652-45d0-4b2a-a56a-40e919414068.root   | (None) | ad:0e72e209 | 214.076 MB |          |
| cms:/store/data/Run2023C/EGamma1/NANOAOD/22Sep2023_v1-v1/40000/b8b29c36-e466-463e-8169-b9fcd2825f96.root   | (None) | ad:6bad17b4 | 1.627 GB   |          |
| cms:/store/data/Run2023C/EGamma1/NANOAOD/22Sep2023_v1-v1/40000/bdb85587-50a5-4def-9826-93155c961759.root   | (None) | ad:ab7322a1 | 1.261 GB   |          |
| cms:/store/data/Run2023C/EGamma1/NANOAOD/22Sep2023_v1-v1/40000/d7680634-23a4-444f-a95a-54bddfc5842d.root   | (None) | ad:a5c09f10 | 1.639 GB   |          |
| cms:/store/data/Run2023C/EGamma1/NANOAOD/22Sep2023_v1-v1/40000/e76042ef-8dcd-40e2-8861-82061e5c36b0.root   | (None) | ad:bc028d2a | 1.004 GB   |          |
| cms:/store/data/Run2023C/EGamma1/NANOAOD/22Sep2023_v1-v1/40000/efadfe19-daf7-4e4a-9155-6653fe3f36d7.root   | (None) | ad:5236db69 | 1.638 GB   |          |
| cms:/store/data/Run2023C/EGamma1/NANOAOD/22Sep2023_v1-v1/30000/1673c138-8269-445b-8b2a-8c1ec1d27c11.root   | (None) | ad:ac9b95cf | 1.049 GB   |          |
| cms:/store/data/Run2023C/EGamma1/NANOAOD/22Sep2023_v1-v1/30000/7d5ef857-0898-47b1-9694-c6980d0e7be1.root   | (None) | ad:8bb7277c | 849.288 MB |          |
| cms:/store/data/Run2023C/EGamma1/NANOAOD/22Sep2023_v1-v1/30000/9b94d6e6-9ca6-4fdc-85c6-710d5675688e.root   | (None) | ad:fad00478 | 54.978 MB  |          |
| cms:/store/data/Run2023C/EGamma1/NANOAOD/22Sep2023_v1-v1/30000/aae15f56-cef7-4654-94fb-067b10c10b06.root   | (None) | ad:3044de6d | 879.975 MB |          |
| cms:/store/data/Run2023C/EGamma1/NANOAOD/22Sep2023_v1-v1/30000/e6e4f66b-59cc-43ef-83a8-1a327c90c797.root   | (None) | ad:a58f44e6 | 869.151 MB |          |
| cms:/store/data/Run2023C/EGamma1/NANOAOD/22Sep2023_v1-v1/30000/e7ecce11-e4b2-4846-a374-139139f51d5f.root   | (None) | ad:1b013b8f | 757.624 MB |          |
| cms:/store/data/Run2023C/EGamma1/NANOAOD/22Sep2023_v1-v1/40000/09b32791-1729-4ab9-b670-f1c247a31068.root   | (None) | ad:ba437267 | 1.227 GB   |          |
| cms:/store/data/Run2023C/EGamma1/NANOAOD/22Sep2023_v1-v1/40000/130b4d9e-a3f4-4b0f-9bad-8e13dc93b69a.root   | (None) | ad:78185589 | 1.261 GB   |          |
| cms:/store/data/Run2023C/EGamma1/NANOAOD/22Sep2023_v1-v1/40000/269facf2-2849-4f9f-91c8-eacf38c7c4cd.root   | (None) | ad:38f776b4 | 1.593 GB   |          |
| cms:/store/data/Run2023C/EGamma1/NANOAOD/22Sep2023_v1-v1/40000/2fb4ff13-ae24-4863-8198-c4fd714de83d.root   | (None) | ad:e3f8a403 | 1.103 GB   |          |
| cms:/store/data/Run2023C/EGamma1/NANOAOD/22Sep2023_v1-v1/40000/3646f496-955e-444c-b986-2903b781542f.root   | (None) | ad:2b722629 | 1.516 GB   |          |
| cms:/store/data/Run2023C/EGamma1/NANOAOD/22Sep2023_v1-v1/40000/44a8ca3f-cb5e-485d-b7e0-c6bbbebcc8c0.root   | (None) | ad:1f36b7fe | 999.550 MB |          |
| cms:/store/data/Run2023C/EGamma1/NANOAOD/22Sep2023_v1-v1/40000/5d60c953-6ca4-4526-8843-c7f960fd8322.root   | (None) | ad:e2313d6a | 1.551 GB   |          |
| cms:/store/data/Run2023C/EGamma1/NANOAOD/22Sep2023_v1-v1/40000/5fb1f79d-9a31-487f-948f-e684aadbe682.root   | (None) | ad:ea3f9d48 | 1.624 GB   |          |
| cms:/store/data/Run2023C/EGamma1/NANOAOD/22Sep2023_v1-v1/40000/905b5471-068e-4022-81d5-e0ba8e72325f.root   | (None) | ad:cd1758d1 | 1.188 GB   |          |
| cms:/store/data/Run2023C/EGamma1/NANOAOD/22Sep2023_v1-v1/40000/976ccb67-5466-497e-9edf-4b3aabf4f7aa.root   | (None) | ad:6405776d | 1.102 GB   |          |
| cms:/store/data/Run2023C/EGamma1/NANOAOD/22Sep2023_v1-v1/40000/b70e038e-cd30-4651-b4f0-f5c309a40f83.root   | (None) | ad:7b40375d | 832.732 MB |          |
| cms:/store/data/Run2023C/EGamma1/NANOAOD/22Sep2023_v1-v1/40000/c7296a2e-a58b-44c1-a227-35f7c24783db.root   | (None) | ad:6b519a8a | 840.599 MB |          |
| cms:/store/data/Run2023C/EGamma1/NANOAOD/22Sep2023_v1-v1/40000/d4cbeca1-f712-433d-81df-3cd9b7071a05.root   | (None) | ad:883ef563 | 336.762 MB |          |
| cms:/store/data/Run2023C/EGamma1/NANOAOD/22Sep2023_v1-v1/40000/d70d3f88-05b9-452e-8c3f-13d59cbd1f2b.root   | (None) | ad:9c269a59 | 857.134 MB |          |
| cms:/store/data/Run2023C/EGamma1/NANOAOD/22Sep2023_v1-v1/40000/e7ad8342-4f4e-4968-88da-05574ff3e456.root   | (None) | ad:ff422421 | 1.652 GB   |          |
| cms:/store/data/Run2023C/EGamma1/NANOAOD/22Sep2023_v1-v1/40000/76b8ca79-99cc-4013-b085-d116dca3dc10.root   | (None) | ad:1d09b29f | 290.208 MB |          |
| cms:/store/data/Run2023C/EGamma1/NANOAOD/22Sep2023_v1-v1/40000/b5599f5d-7c89-4147-83b4-16b65ce55a62.root   | (None) | ad:5996b598 | 979.070 MB |          |
| cms:/store/data/Run2023C/EGamma1/NANOAOD/22Sep2023_v1-v1/2530000/08070e3a-6cfe-465d-b3a8-fd0be8870fc7.root | (None) | ad:723a54b6 | 247.418 MB |          |
| cms:/store/data/Run2023C/EGamma1/NANOAOD/22Sep2023_v1-v1/30000/63412fec-bdbb-4897-bff3-bdd54537e499.root   | (None) | ad:3d04d30e | 545.637 MB |          |
| cms:/store/data/Run2023C/EGamma1/NANOAOD/22Sep2023_v1-v1/2530000/46374dfd-7455-4b26-a4a0-c46b1bc03e6c.root | (None) | ad:c16ce8f5 | 285.121 MB |          |
| cms:/store/data/Run2023C/EGamma1/NANOAOD/22Sep2023_v1-v1/50000/158e5481-cb26-4c47-9a52-28f6e53ec73f.root   | (None) | ad:324a3d8a | 299.898 MB |          |
| cms:/store/data/Run2023C/EGamma1/NANOAOD/22Sep2023_v1-v1/30000/d8275d85-6931-4ac5-996a-6b473c481468.root   | (None) | ad:abf48e70 | 623.155 MB |          |
| cms:/store/data/Run2023C/EGamma1/NANOAOD/22Sep2023_v1-v1/40000/1ed84c01-0264-4099-9969-51104503b4f5.root   | (None) | ad:b8d29377 | 769.543 MB |          |
| cms:/store/data/Run2023C/EGamma1/NANOAOD/22Sep2023_v1-v1/40000/2114fe1d-5282-4082-8c1f-469dfe4a8d3f.root   | (None) | ad:3cfcc74d | 54.534 MB  |          |
| cms:/store/data/Run2023C/EGamma1/NANOAOD/22Sep2023_v1-v1/40000/42b2f7db-2356-4dde-b6e0-2c81945b5e83.root   | (None) | ad:c3e2a9d8 | 1.229 GB   |          |
| cms:/store/data/Run2023C/EGamma1/NANOAOD/22Sep2023_v1-v1/40000/53d60c1a-c814-478d-ba4f-878a7d1d6c5c.root   | (None) | ad:96172f3c | 1.059 GB   |          |
| cms:/store/data/Run2023C/EGamma1/NANOAOD/22Sep2023_v1-v1/40000/78c8a8f7-4545-4772-bc35-265baf41237f.root   | (None) | ad:58a5d79b | 861.523 MB |          |
| cms:/store/data/Run2023C/EGamma1/NANOAOD/22Sep2023_v1-v1/40000/802e1dbc-9046-424c-9d9e-eb4d606466e0.root   | (None) | ad:33c1ccc9 | 938.168 MB |          |
| cms:/store/data/Run2023C/EGamma1/NANOAOD/22Sep2023_v1-v1/40000/8dd0521b-b019-4409-950f-e546149edd75.root   | (None) | ad:56f82fe1 | 852.348 MB |          |
| cms:/store/data/Run2023C/EGamma1/NANOAOD/22Sep2023_v1-v1/40000/ce05c98c-6f0b-4306-ab91-9bf5a81bde3f.root   | (None) | ad:0d704fc8 | 1.102 GB   |          |
| cms:/store/data/Run2023C/EGamma1/NANOAOD/22Sep2023_v1-v1/40000/db83e8d0-82be-4512-8b87-ede5923a2209.root   | (None) | ad:d253691c | 1.117 GB   |          |
| cms:/store/data/Run2023C/EGamma1/NANOAOD/22Sep2023_v1-v1/2530000/e3fa93ee-eb02-4384-95d3-1312cb71d256.root | (None) | ad:07dd941a | 24.903 MB  |          |
+------------------------------------------------------------------------------------------------------------+--------+-------------+------------+----------+
Total files : 71
Total size : 64.827 GB
#EGamma1/Run2023C-22Sep2023_v1-v1/NANOAOD
