+-------------------------------------------------------------------------------------------------------------------+--------+-------------+------------+----------+
| SCOPE:NAME                                                                                                        | GUID   | ADLER32     | FILESIZE   | EVENTS   |
|-------------------------------------------------------------------------------------------------------------------+--------+-------------+------------+----------|
| cms:/store/data/Run2022C/SingleMuon/NANOAOD/ReRecoNanoAODv11-v1/2540000/02155800-7bb1-40d1-be58-c6308fb79995.root | (None) | ad:928886db | 1.361 GB   |          |
| cms:/store/data/Run2022C/SingleMuon/NANOAOD/ReRecoNanoAODv11-v1/2540000/2cee7725-bd72-4598-97c0-7c0f4401e397.root | (None) | ad:9377f2ab | 1.550 GB   |          |
| cms:/store/data/Run2022C/SingleMuon/NANOAOD/ReRecoNanoAODv11-v1/2540000/6d81b5fa-bf26-484b-9dfa-aa5dc5ea5d1c.root | (None) | ad:bcf3e090 | 1.742 GB   |          |
| cms:/store/data/Run2022C/SingleMuon/NANOAOD/ReRecoNanoAODv11-v1/2540000/bdbe5a9a-4b18-4663-b553-a0bbeaad167c.root | (None) | ad:0d5ba8d1 | 48.404 MB  |          |
| cms:/store/data/Run2022C/SingleMuon/NANOAOD/ReRecoNanoAODv11-v1/2540000/11b27637-d69d-4272-9346-5e05ef8beeea.root | (None) | ad:fc11602e | 1.499 GB   |          |
| cms:/store/data/Run2022C/SingleMuon/NANOAOD/ReRecoNanoAODv11-v1/2540000/3eccfc8e-8ff1-40d8-8d01-6798173b26f8.root | (None) | ad:b785fc72 | 1.242 GB   |          |
| cms:/store/data/Run2022C/SingleMuon/NANOAOD/ReRecoNanoAODv11-v1/2540000/4c553d7c-b1cb-4cca-81e0-17be11592fb6.root | (None) | ad:20bc8835 | 730.444 MB |          |
| cms:/store/data/Run2022C/SingleMuon/NANOAOD/ReRecoNanoAODv11-v1/2540000/5ba7aca1-4144-44fc-b4e6-8afae4c7d577.root | (None) | ad:7d619f08 | 899.288 MB |          |
| cms:/store/data/Run2022C/SingleMuon/NANOAOD/ReRecoNanoAODv11-v1/2540000/84ae2f50-2c28-4f69-bca9-17d86bbf0be4.root | (None) | ad:e669e465 | 327.695 MB |          |
| cms:/store/data/Run2022C/SingleMuon/NANOAOD/ReRecoNanoAODv11-v1/2540000/d467d120-12e8-4f22-8f3c-71d4059155af.root | (None) | ad:23508bbc | 8.008 MB   |          |
| cms:/store/data/Run2022C/SingleMuon/NANOAOD/ReRecoNanoAODv11-v1/2540000/a9c95b9e-6bcc-4409-95c3-bca82053aefc.root | (None) | ad:250d143c | 20.175 MB  |          |
| cms:/store/data/Run2022C/SingleMuon/NANOAOD/ReRecoNanoAODv11-v1/2540000/8d0b1a2f-bbad-4fc8-97d9-a39ac63dd94c.root | (None) | ad:b04e6b68 | 1.366 GB   |          |
| cms:/store/data/Run2022C/SingleMuon/NANOAOD/ReRecoNanoAODv11-v1/2540000/5d26ea78-dbe7-4797-b986-fe3651dfb7d2.root | (None) | ad:24fd4f8d | 1.955 GB   |          |
| cms:/store/data/Run2022C/SingleMuon/NANOAOD/ReRecoNanoAODv11-v1/2540000/ab209f96-d076-4aa5-a70d-33ba0a388150.root | (None) | ad:8d0ea8ce | 1.423 GB   |          |
| cms:/store/data/Run2022C/SingleMuon/NANOAOD/ReRecoNanoAODv11-v1/2540000/bd46181c-2dcf-4601-9fd0-1b52513b33bb.root | (None) | ad:1521684d | 1.053 GB   |          |
| cms:/store/data/Run2022C/SingleMuon/NANOAOD/ReRecoNanoAODv11-v1/2540000/fc0d6014-7edf-4a5c-bb8f-9cdcfd849733.root | (None) | ad:1290d203 | 92.270 MB  |          |
+-------------------------------------------------------------------------------------------------------------------+--------+-------------+------------+----------+
Total files : 16
Total size : 15.318 GB
