{
    "cms:/store/mc/Run3Summer23BPixNanoAODv12/ttHto2B_M-125_TuneCP5_13p6TeV_powheg-pythia8/NANOAODSIM/130X_mcRun3_2023_realistic_postBPix_v2-v2/2550000/1e78230e-3304-4cc1-99c1-2cb6a5ded056.root": [
        "T1_US_FNAL_Disk: davs://cmsdcadisk.fnal.gov:2880/dcache/uscmsdisk/store/mc/Run3Summer23BPixNanoAODv12/ttHto2B_M-125_TuneCP5_13p6TeV_powheg-pythia8/NANOAODSIM/130X_mcRun3_2023_realistic_postBPix_v2-v2/2550000/1e78230e-3304-4cc1-99c1-2cb6a5ded056.root",
        "T1_DE_KIT_Tape: davs://cmsdcache-kit-tape.gridka.de:2880/pnfs/gridka.de/cms/tape/store/mc/Run3Summer23BPixNanoAODv12/ttHto2B_M-125_TuneCP5_13p6TeV_powheg-pythia8/NANOAODSIM/130X_mcRun3_2023_realistic_postBPix_v2-v2/2550000/1e78230e-3304-4cc1-99c1-2cb6a5ded056.root",
        "T2_PL_Swierk: davs://se.cis.gov.pl:2880/grid/cms/store/mc/Run3Summer23BPixNanoAODv12/ttHto2B_M-125_TuneCP5_13p6TeV_powheg-pythia8/NANOAODSIM/130X_mcRun3_2023_realistic_postBPix_v2-v2/2550000/1e78230e-3304-4cc1-99c1-2cb6a5ded056.root",
        "T1_ES_PIC_Disk: davs://webdav-cms.pic.es:8459/pnfs/pic.es/data/cms/disk/store/mc/Run3Summer23BPixNanoAODv12/ttHto2B_M-125_TuneCP5_13p6TeV_powheg-pythia8/NANOAODSIM/130X_mcRun3_2023_realistic_postBPix_v2-v2/2550000/1e78230e-3304-4cc1-99c1-2cb6a5ded056.root",
        "T2_US_Wisconsin: davs://cmsxrootd.hep.wisc.edu:1094/store/mc/Run3Summer23BPixNanoAODv12/ttHto2B_M-125_TuneCP5_13p6TeV_powheg-pythia8/NANOAODSIM/130X_mcRun3_2023_realistic_postBPix_v2-v2/2550000/1e78230e-3304-4cc1-99c1-2cb6a5ded056.root",
        "T2_HU_Budapest: davs://grid143.kfki.hu:443/dpm/kfki.hu/home/cms/phedex/store/mc/Run3Summer23BPixNanoAODv12/ttHto2B_M-125_TuneCP5_13p6TeV_powheg-pythia8/NANOAODSIM/130X_mcRun3_2023_realistic_postBPix_v2-v2/2550000/1e78230e-3304-4cc1-99c1-2cb6a5ded056.root",
        "T2_IT_Rome: davs://cmsrm-xrootd01.roma1.infn.it:2880//mc/Run3Summer23BPixNanoAODv12/ttHto2B_M-125_TuneCP5_13p6TeV_powheg-pythia8/NANOAODSIM/130X_mcRun3_2023_realistic_postBPix_v2-v2/2550000/1e78230e-3304-4cc1-99c1-2cb6a5ded056.root"
    ],
    "cms:/store/mc/Run3Summer23BPixNanoAODv12/ttHto2B_M-125_TuneCP5_13p6TeV_powheg-pythia8/NANOAODSIM/130X_mcRun3_2023_realistic_postBPix_v2-v2/2550000/6b304344-386c-45c4-bf50-a8d5fa815bfa.root": [
        "T1_US_FNAL_Disk: davs://cmsdcadisk.fnal.gov:2880/dcache/uscmsdisk/store/mc/Run3Summer23BPixNanoAODv12/ttHto2B_M-125_TuneCP5_13p6TeV_powheg-pythia8/NANOAODSIM/130X_mcRun3_2023_realistic_postBPix_v2-v2/2550000/6b304344-386c-45c4-bf50-a8d5fa815bfa.root",
        "T1_DE_KIT_Tape: davs://cmsdcache-kit-tape.gridka.de:2880/pnfs/gridka.de/cms/tape/store/mc/Run3Summer23BPixNanoAODv12/ttHto2B_M-125_TuneCP5_13p6TeV_powheg-pythia8/NANOAODSIM/130X_mcRun3_2023_realistic_postBPix_v2-v2/2550000/6b304344-386c-45c4-bf50-a8d5fa815bfa.root",
        "T2_PL_Swierk: davs://se.cis.gov.pl:2880/grid/cms/store/mc/Run3Summer23BPixNanoAODv12/ttHto2B_M-125_TuneCP5_13p6TeV_powheg-pythia8/NANOAODSIM/130X_mcRun3_2023_realistic_postBPix_v2-v2/2550000/6b304344-386c-45c4-bf50-a8d5fa815bfa.root",
        "T1_ES_PIC_Disk: davs://webdav-cms.pic.es:8459/pnfs/pic.es/data/cms/disk/store/mc/Run3Summer23BPixNanoAODv12/ttHto2B_M-125_TuneCP5_13p6TeV_powheg-pythia8/NANOAODSIM/130X_mcRun3_2023_realistic_postBPix_v2-v2/2550000/6b304344-386c-45c4-bf50-a8d5fa815bfa.root",
        "T2_US_Wisconsin: davs://cmsxrootd.hep.wisc.edu:1094/store/mc/Run3Summer23BPixNanoAODv12/ttHto2B_M-125_TuneCP5_13p6TeV_powheg-pythia8/NANOAODSIM/130X_mcRun3_2023_realistic_postBPix_v2-v2/2550000/6b304344-386c-45c4-bf50-a8d5fa815bfa.root",
        "T2_HU_Budapest: davs://grid143.kfki.hu:443/dpm/kfki.hu/home/cms/phedex/store/mc/Run3Summer23BPixNanoAODv12/ttHto2B_M-125_TuneCP5_13p6TeV_powheg-pythia8/NANOAODSIM/130X_mcRun3_2023_realistic_postBPix_v2-v2/2550000/6b304344-386c-45c4-bf50-a8d5fa815bfa.root",
        "T2_IT_Rome: davs://cmsrm-xrootd01.roma1.infn.it:2880//mc/Run3Summer23BPixNanoAODv12/ttHto2B_M-125_TuneCP5_13p6TeV_powheg-pythia8/NANOAODSIM/130X_mcRun3_2023_realistic_postBPix_v2-v2/2550000/6b304344-386c-45c4-bf50-a8d5fa815bfa.root"
    ],
    "cms:/store/mc/Run3Summer23BPixNanoAODv12/ttHto2B_M-125_TuneCP5_13p6TeV_powheg-pythia8/NANOAODSIM/130X_mcRun3_2023_realistic_postBPix_v2-v2/2550000/a8303181-893f-4341-b613-5120cabf9b3e.root": [
        "T1_US_FNAL_Disk: davs://cmsdcadisk.fnal.gov:2880/dcache/uscmsdisk/store/mc/Run3Summer23BPixNanoAODv12/ttHto2B_M-125_TuneCP5_13p6TeV_powheg-pythia8/NANOAODSIM/130X_mcRun3_2023_realistic_postBPix_v2-v2/2550000/a8303181-893f-4341-b613-5120cabf9b3e.root",
        "T1_DE_KIT_Tape: davs://cmsdcache-kit-tape.gridka.de:2880/pnfs/gridka.de/cms/tape/store/mc/Run3Summer23BPixNanoAODv12/ttHto2B_M-125_TuneCP5_13p6TeV_powheg-pythia8/NANOAODSIM/130X_mcRun3_2023_realistic_postBPix_v2-v2/2550000/a8303181-893f-4341-b613-5120cabf9b3e.root",
        "T2_PL_Swierk: davs://se.cis.gov.pl:2880/grid/cms/store/mc/Run3Summer23BPixNanoAODv12/ttHto2B_M-125_TuneCP5_13p6TeV_powheg-pythia8/NANOAODSIM/130X_mcRun3_2023_realistic_postBPix_v2-v2/2550000/a8303181-893f-4341-b613-5120cabf9b3e.root",
        "T1_ES_PIC_Disk: davs://webdav-cms.pic.es:8459/pnfs/pic.es/data/cms/disk/store/mc/Run3Summer23BPixNanoAODv12/ttHto2B_M-125_TuneCP5_13p6TeV_powheg-pythia8/NANOAODSIM/130X_mcRun3_2023_realistic_postBPix_v2-v2/2550000/a8303181-893f-4341-b613-5120cabf9b3e.root",
        "T2_US_Wisconsin: davs://cmsxrootd.hep.wisc.edu:1094/store/mc/Run3Summer23BPixNanoAODv12/ttHto2B_M-125_TuneCP5_13p6TeV_powheg-pythia8/NANOAODSIM/130X_mcRun3_2023_realistic_postBPix_v2-v2/2550000/a8303181-893f-4341-b613-5120cabf9b3e.root",
        "T2_HU_Budapest: davs://grid143.kfki.hu:443/dpm/kfki.hu/home/cms/phedex/store/mc/Run3Summer23BPixNanoAODv12/ttHto2B_M-125_TuneCP5_13p6TeV_powheg-pythia8/NANOAODSIM/130X_mcRun3_2023_realistic_postBPix_v2-v2/2550000/a8303181-893f-4341-b613-5120cabf9b3e.root",
        "T2_IT_Rome: davs://cmsrm-xrootd01.roma1.infn.it:2880//mc/Run3Summer23BPixNanoAODv12/ttHto2B_M-125_TuneCP5_13p6TeV_powheg-pythia8/NANOAODSIM/130X_mcRun3_2023_realistic_postBPix_v2-v2/2550000/a8303181-893f-4341-b613-5120cabf9b3e.root"
    ],
    "cms:/store/mc/Run3Summer23BPixNanoAODv12/ttHto2B_M-125_TuneCP5_13p6TeV_powheg-pythia8/NANOAODSIM/130X_mcRun3_2023_realistic_postBPix_v2-v2/2550000/fa803bf7-7ca4-4b35-b023-7b5b4d632e09.root": [
        "T1_US_FNAL_Disk: davs://cmsdcadisk.fnal.gov:2880/dcache/uscmsdisk/store/mc/Run3Summer23BPixNanoAODv12/ttHto2B_M-125_TuneCP5_13p6TeV_powheg-pythia8/NANOAODSIM/130X_mcRun3_2023_realistic_postBPix_v2-v2/2550000/fa803bf7-7ca4-4b35-b023-7b5b4d632e09.root",
        "T1_DE_KIT_Tape: davs://cmsdcache-kit-tape.gridka.de:2880/pnfs/gridka.de/cms/tape/store/mc/Run3Summer23BPixNanoAODv12/ttHto2B_M-125_TuneCP5_13p6TeV_powheg-pythia8/NANOAODSIM/130X_mcRun3_2023_realistic_postBPix_v2-v2/2550000/fa803bf7-7ca4-4b35-b023-7b5b4d632e09.root",
        "T2_PL_Swierk: davs://se.cis.gov.pl:2880/grid/cms/store/mc/Run3Summer23BPixNanoAODv12/ttHto2B_M-125_TuneCP5_13p6TeV_powheg-pythia8/NANOAODSIM/130X_mcRun3_2023_realistic_postBPix_v2-v2/2550000/fa803bf7-7ca4-4b35-b023-7b5b4d632e09.root",
        "T1_ES_PIC_Disk: davs://webdav-cms.pic.es:8459/pnfs/pic.es/data/cms/disk/store/mc/Run3Summer23BPixNanoAODv12/ttHto2B_M-125_TuneCP5_13p6TeV_powheg-pythia8/NANOAODSIM/130X_mcRun3_2023_realistic_postBPix_v2-v2/2550000/fa803bf7-7ca4-4b35-b023-7b5b4d632e09.root",
        "T2_US_Wisconsin: davs://cmsxrootd.hep.wisc.edu:1094/store/mc/Run3Summer23BPixNanoAODv12/ttHto2B_M-125_TuneCP5_13p6TeV_powheg-pythia8/NANOAODSIM/130X_mcRun3_2023_realistic_postBPix_v2-v2/2550000/fa803bf7-7ca4-4b35-b023-7b5b4d632e09.root",
        "T2_HU_Budapest: davs://grid143.kfki.hu:443/dpm/kfki.hu/home/cms/phedex/store/mc/Run3Summer23BPixNanoAODv12/ttHto2B_M-125_TuneCP5_13p6TeV_powheg-pythia8/NANOAODSIM/130X_mcRun3_2023_realistic_postBPix_v2-v2/2550000/fa803bf7-7ca4-4b35-b023-7b5b4d632e09.root",
        "T1_RU_JINR_Disk: davs://se-wbdv.jinr-t1.ru:2880/pnfs/jinr-t1.ru/data/cms/store/mc/Run3Summer23BPixNanoAODv12/ttHto2B_M-125_TuneCP5_13p6TeV_powheg-pythia8/NANOAODSIM/130X_mcRun3_2023_realistic_postBPix_v2-v2/2550000/fa803bf7-7ca4-4b35-b023-7b5b4d632e09.root",
        "T2_IT_Rome: davs://cmsrm-xrootd01.roma1.infn.it:2880//mc/Run3Summer23BPixNanoAODv12/ttHto2B_M-125_TuneCP5_13p6TeV_powheg-pythia8/NANOAODSIM/130X_mcRun3_2023_realistic_postBPix_v2-v2/2550000/fa803bf7-7ca4-4b35-b023-7b5b4d632e09.root"
    ],
    "cms:/store/mc/Run3Summer23BPixNanoAODv12/ttHto2B_M-125_TuneCP5_13p6TeV_powheg-pythia8/NANOAODSIM/130X_mcRun3_2023_realistic_postBPix_v2-v2/2550000/31f048e7-c570-46b4-bf5a-67071845092e.root": [
        "T1_US_FNAL_Disk: davs://cmsdcadisk.fnal.gov:2880/dcache/uscmsdisk/store/mc/Run3Summer23BPixNanoAODv12/ttHto2B_M-125_TuneCP5_13p6TeV_powheg-pythia8/NANOAODSIM/130X_mcRun3_2023_realistic_postBPix_v2-v2/2550000/31f048e7-c570-46b4-bf5a-67071845092e.root",
        "T1_DE_KIT_Disk: davs://cmsdcache-kit-disk.gridka.de:2880/pnfs/gridka.de/cms/disk-only/store/mc/Run3Summer23BPixNanoAODv12/ttHto2B_M-125_TuneCP5_13p6TeV_powheg-pythia8/NANOAODSIM/130X_mcRun3_2023_realistic_postBPix_v2-v2/2550000/31f048e7-c570-46b4-bf5a-67071845092e.root",
        "T1_DE_KIT_Tape: davs://cmsdcache-kit-tape.gridka.de:2880/pnfs/gridka.de/cms/tape/store/mc/Run3Summer23BPixNanoAODv12/ttHto2B_M-125_TuneCP5_13p6TeV_powheg-pythia8/NANOAODSIM/130X_mcRun3_2023_realistic_postBPix_v2-v2/2550000/31f048e7-c570-46b4-bf5a-67071845092e.root",
        "T2_PL_Swierk: davs://se.cis.gov.pl:2880/grid/cms/store/mc/Run3Summer23BPixNanoAODv12/ttHto2B_M-125_TuneCP5_13p6TeV_powheg-pythia8/NANOAODSIM/130X_mcRun3_2023_realistic_postBPix_v2-v2/2550000/31f048e7-c570-46b4-bf5a-67071845092e.root",
        "T1_ES_PIC_Disk: davs://webdav-cms.pic.es:8459/pnfs/pic.es/data/cms/disk/store/mc/Run3Summer23BPixNanoAODv12/ttHto2B_M-125_TuneCP5_13p6TeV_powheg-pythia8/NANOAODSIM/130X_mcRun3_2023_realistic_postBPix_v2-v2/2550000/31f048e7-c570-46b4-bf5a-67071845092e.root",
        "T2_US_Wisconsin: davs://cmsxrootd.hep.wisc.edu:1094/store/mc/Run3Summer23BPixNanoAODv12/ttHto2B_M-125_TuneCP5_13p6TeV_powheg-pythia8/NANOAODSIM/130X_mcRun3_2023_realistic_postBPix_v2-v2/2550000/31f048e7-c570-46b4-bf5a-67071845092e.root",
        "T2_HU_Budapest: davs://grid143.kfki.hu:443/dpm/kfki.hu/home/cms/phedex/store/mc/Run3Summer23BPixNanoAODv12/ttHto2B_M-125_TuneCP5_13p6TeV_powheg-pythia8/NANOAODSIM/130X_mcRun3_2023_realistic_postBPix_v2-v2/2550000/31f048e7-c570-46b4-bf5a-67071845092e.root",
        "T2_IT_Rome: davs://cmsrm-xrootd01.roma1.infn.it:2880//mc/Run3Summer23BPixNanoAODv12/ttHto2B_M-125_TuneCP5_13p6TeV_powheg-pythia8/NANOAODSIM/130X_mcRun3_2023_realistic_postBPix_v2-v2/2550000/31f048e7-c570-46b4-bf5a-67071845092e.root"
    ],
    "cms:/store/mc/Run3Summer23BPixNanoAODv12/ttHto2B_M-125_TuneCP5_13p6TeV_powheg-pythia8/NANOAODSIM/130X_mcRun3_2023_realistic_postBPix_v2-v2/2550000/146f53da-4234-442e-9ac2-3ad01cd01700.root": [
        "T1_US_FNAL_Disk: davs://cmsdcadisk.fnal.gov:2880/dcache/uscmsdisk/store/mc/Run3Summer23BPixNanoAODv12/ttHto2B_M-125_TuneCP5_13p6TeV_powheg-pythia8/NANOAODSIM/130X_mcRun3_2023_realistic_postBPix_v2-v2/2550000/146f53da-4234-442e-9ac2-3ad01cd01700.root",
        "T1_DE_KIT_Tape: davs://cmsdcache-kit-tape.gridka.de:2880/pnfs/gridka.de/cms/tape/store/mc/Run3Summer23BPixNanoAODv12/ttHto2B_M-125_TuneCP5_13p6TeV_powheg-pythia8/NANOAODSIM/130X_mcRun3_2023_realistic_postBPix_v2-v2/2550000/146f53da-4234-442e-9ac2-3ad01cd01700.root",
        "T2_PL_Swierk: davs://se.cis.gov.pl:2880/grid/cms/store/mc/Run3Summer23BPixNanoAODv12/ttHto2B_M-125_TuneCP5_13p6TeV_powheg-pythia8/NANOAODSIM/130X_mcRun3_2023_realistic_postBPix_v2-v2/2550000/146f53da-4234-442e-9ac2-3ad01cd01700.root",
        "T1_ES_PIC_Disk: davs://webdav-cms.pic.es:8459/pnfs/pic.es/data/cms/disk/store/mc/Run3Summer23BPixNanoAODv12/ttHto2B_M-125_TuneCP5_13p6TeV_powheg-pythia8/NANOAODSIM/130X_mcRun3_2023_realistic_postBPix_v2-v2/2550000/146f53da-4234-442e-9ac2-3ad01cd01700.root",
        "T2_US_Wisconsin: davs://cmsxrootd.hep.wisc.edu:1094/store/mc/Run3Summer23BPixNanoAODv12/ttHto2B_M-125_TuneCP5_13p6TeV_powheg-pythia8/NANOAODSIM/130X_mcRun3_2023_realistic_postBPix_v2-v2/2550000/146f53da-4234-442e-9ac2-3ad01cd01700.root",
        "T2_HU_Budapest: davs://grid143.kfki.hu:443/dpm/kfki.hu/home/cms/phedex/store/mc/Run3Summer23BPixNanoAODv12/ttHto2B_M-125_TuneCP5_13p6TeV_powheg-pythia8/NANOAODSIM/130X_mcRun3_2023_realistic_postBPix_v2-v2/2550000/146f53da-4234-442e-9ac2-3ad01cd01700.root",
        "T2_IT_Rome: davs://cmsrm-xrootd01.roma1.infn.it:2880//mc/Run3Summer23BPixNanoAODv12/ttHto2B_M-125_TuneCP5_13p6TeV_powheg-pythia8/NANOAODSIM/130X_mcRun3_2023_realistic_postBPix_v2-v2/2550000/146f53da-4234-442e-9ac2-3ad01cd01700.root"
    ],
    "cms:/store/mc/Run3Summer23BPixNanoAODv12/ttHto2B_M-125_TuneCP5_13p6TeV_powheg-pythia8/NANOAODSIM/130X_mcRun3_2023_realistic_postBPix_v2-v2/2550000/43c478a3-1e29-4980-b762-f7dc3aab6616.root": [
        "T1_US_FNAL_Disk: davs://cmsdcadisk.fnal.gov:2880/dcache/uscmsdisk/store/mc/Run3Summer23BPixNanoAODv12/ttHto2B_M-125_TuneCP5_13p6TeV_powheg-pythia8/NANOAODSIM/130X_mcRun3_2023_realistic_postBPix_v2-v2/2550000/43c478a3-1e29-4980-b762-f7dc3aab6616.root",
        "T1_DE_KIT_Tape: davs://cmsdcache-kit-tape.gridka.de:2880/pnfs/gridka.de/cms/tape/store/mc/Run3Summer23BPixNanoAODv12/ttHto2B_M-125_TuneCP5_13p6TeV_powheg-pythia8/NANOAODSIM/130X_mcRun3_2023_realistic_postBPix_v2-v2/2550000/43c478a3-1e29-4980-b762-f7dc3aab6616.root",
        "T2_PL_Swierk: davs://se.cis.gov.pl:2880/grid/cms/store/mc/Run3Summer23BPixNanoAODv12/ttHto2B_M-125_TuneCP5_13p6TeV_powheg-pythia8/NANOAODSIM/130X_mcRun3_2023_realistic_postBPix_v2-v2/2550000/43c478a3-1e29-4980-b762-f7dc3aab6616.root",
        "T1_ES_PIC_Disk: davs://webdav-cms.pic.es:8459/pnfs/pic.es/data/cms/disk/store/mc/Run3Summer23BPixNanoAODv12/ttHto2B_M-125_TuneCP5_13p6TeV_powheg-pythia8/NANOAODSIM/130X_mcRun3_2023_realistic_postBPix_v2-v2/2550000/43c478a3-1e29-4980-b762-f7dc3aab6616.root",
        "T2_US_Wisconsin: davs://cmsxrootd.hep.wisc.edu:1094/store/mc/Run3Summer23BPixNanoAODv12/ttHto2B_M-125_TuneCP5_13p6TeV_powheg-pythia8/NANOAODSIM/130X_mcRun3_2023_realistic_postBPix_v2-v2/2550000/43c478a3-1e29-4980-b762-f7dc3aab6616.root",
        "T2_HU_Budapest: davs://grid143.kfki.hu:443/dpm/kfki.hu/home/cms/phedex/store/mc/Run3Summer23BPixNanoAODv12/ttHto2B_M-125_TuneCP5_13p6TeV_powheg-pythia8/NANOAODSIM/130X_mcRun3_2023_realistic_postBPix_v2-v2/2550000/43c478a3-1e29-4980-b762-f7dc3aab6616.root",
        "T2_IT_Rome: davs://cmsrm-xrootd01.roma1.infn.it:2880//mc/Run3Summer23BPixNanoAODv12/ttHto2B_M-125_TuneCP5_13p6TeV_powheg-pythia8/NANOAODSIM/130X_mcRun3_2023_realistic_postBPix_v2-v2/2550000/43c478a3-1e29-4980-b762-f7dc3aab6616.root"
    ],
    "cms:/store/mc/Run3Summer23BPixNanoAODv12/ttHto2B_M-125_TuneCP5_13p6TeV_powheg-pythia8/NANOAODSIM/130X_mcRun3_2023_realistic_postBPix_v2-v2/2550000/9dc5bafe-8eaf-4011-b9d8-2c4b86ad5344.root": [
        "T1_US_FNAL_Disk: davs://cmsdcadisk.fnal.gov:2880/dcache/uscmsdisk/store/mc/Run3Summer23BPixNanoAODv12/ttHto2B_M-125_TuneCP5_13p6TeV_powheg-pythia8/NANOAODSIM/130X_mcRun3_2023_realistic_postBPix_v2-v2/2550000/9dc5bafe-8eaf-4011-b9d8-2c4b86ad5344.root",
        "T1_DE_KIT_Tape: davs://cmsdcache-kit-tape.gridka.de:2880/pnfs/gridka.de/cms/tape/store/mc/Run3Summer23BPixNanoAODv12/ttHto2B_M-125_TuneCP5_13p6TeV_powheg-pythia8/NANOAODSIM/130X_mcRun3_2023_realistic_postBPix_v2-v2/2550000/9dc5bafe-8eaf-4011-b9d8-2c4b86ad5344.root",
        "T2_PL_Swierk: davs://se.cis.gov.pl:2880/grid/cms/store/mc/Run3Summer23BPixNanoAODv12/ttHto2B_M-125_TuneCP5_13p6TeV_powheg-pythia8/NANOAODSIM/130X_mcRun3_2023_realistic_postBPix_v2-v2/2550000/9dc5bafe-8eaf-4011-b9d8-2c4b86ad5344.root",
        "T1_ES_PIC_Disk: davs://webdav-cms.pic.es:8459/pnfs/pic.es/data/cms/disk/store/mc/Run3Summer23BPixNanoAODv12/ttHto2B_M-125_TuneCP5_13p6TeV_powheg-pythia8/NANOAODSIM/130X_mcRun3_2023_realistic_postBPix_v2-v2/2550000/9dc5bafe-8eaf-4011-b9d8-2c4b86ad5344.root",
        "T2_BE_UCL: davs://ingrid-se02.cism.ucl.ac.be:1094/store/mc/Run3Summer23BPixNanoAODv12/ttHto2B_M-125_TuneCP5_13p6TeV_powheg-pythia8/NANOAODSIM/130X_mcRun3_2023_realistic_postBPix_v2-v2/2550000/9dc5bafe-8eaf-4011-b9d8-2c4b86ad5344.root",
        "T2_US_Wisconsin: davs://cmsxrootd.hep.wisc.edu:1094/store/mc/Run3Summer23BPixNanoAODv12/ttHto2B_M-125_TuneCP5_13p6TeV_powheg-pythia8/NANOAODSIM/130X_mcRun3_2023_realistic_postBPix_v2-v2/2550000/9dc5bafe-8eaf-4011-b9d8-2c4b86ad5344.root",
        "T2_HU_Budapest: davs://grid143.kfki.hu:443/dpm/kfki.hu/home/cms/phedex/store/mc/Run3Summer23BPixNanoAODv12/ttHto2B_M-125_TuneCP5_13p6TeV_powheg-pythia8/NANOAODSIM/130X_mcRun3_2023_realistic_postBPix_v2-v2/2550000/9dc5bafe-8eaf-4011-b9d8-2c4b86ad5344.root",
        "T2_IT_Rome: davs://cmsrm-xrootd01.roma1.infn.it:2880//mc/Run3Summer23BPixNanoAODv12/ttHto2B_M-125_TuneCP5_13p6TeV_powheg-pythia8/NANOAODSIM/130X_mcRun3_2023_realistic_postBPix_v2-v2/2550000/9dc5bafe-8eaf-4011-b9d8-2c4b86ad5344.root"
    ],
    "cms:/store/mc/Run3Summer23BPixNanoAODv12/ttHto2B_M-125_TuneCP5_13p6TeV_powheg-pythia8/NANOAODSIM/130X_mcRun3_2023_realistic_postBPix_v2-v2/2550000/6462f0ce-62a2-4863-8af3-5592c3be73f9.root": [
        "T1_US_FNAL_Disk: davs://cmsdcadisk.fnal.gov:2880/dcache/uscmsdisk/store/mc/Run3Summer23BPixNanoAODv12/ttHto2B_M-125_TuneCP5_13p6TeV_powheg-pythia8/NANOAODSIM/130X_mcRun3_2023_realistic_postBPix_v2-v2/2550000/6462f0ce-62a2-4863-8af3-5592c3be73f9.root",
        "T1_DE_KIT_Tape: davs://cmsdcache-kit-tape.gridka.de:2880/pnfs/gridka.de/cms/tape/store/mc/Run3Summer23BPixNanoAODv12/ttHto2B_M-125_TuneCP5_13p6TeV_powheg-pythia8/NANOAODSIM/130X_mcRun3_2023_realistic_postBPix_v2-v2/2550000/6462f0ce-62a2-4863-8af3-5592c3be73f9.root",
        "T2_PL_Swierk: davs://se.cis.gov.pl:2880/grid/cms/store/mc/Run3Summer23BPixNanoAODv12/ttHto2B_M-125_TuneCP5_13p6TeV_powheg-pythia8/NANOAODSIM/130X_mcRun3_2023_realistic_postBPix_v2-v2/2550000/6462f0ce-62a2-4863-8af3-5592c3be73f9.root",
        "T1_ES_PIC_Disk: davs://webdav-cms.pic.es:8459/pnfs/pic.es/data/cms/disk/store/mc/Run3Summer23BPixNanoAODv12/ttHto2B_M-125_TuneCP5_13p6TeV_powheg-pythia8/NANOAODSIM/130X_mcRun3_2023_realistic_postBPix_v2-v2/2550000/6462f0ce-62a2-4863-8af3-5592c3be73f9.root",
        "T2_US_Wisconsin: davs://cmsxrootd.hep.wisc.edu:1094/store/mc/Run3Summer23BPixNanoAODv12/ttHto2B_M-125_TuneCP5_13p6TeV_powheg-pythia8/NANOAODSIM/130X_mcRun3_2023_realistic_postBPix_v2-v2/2550000/6462f0ce-62a2-4863-8af3-5592c3be73f9.root",
        "T2_HU_Budapest: davs://grid143.kfki.hu:443/dpm/kfki.hu/home/cms/phedex/store/mc/Run3Summer23BPixNanoAODv12/ttHto2B_M-125_TuneCP5_13p6TeV_powheg-pythia8/NANOAODSIM/130X_mcRun3_2023_realistic_postBPix_v2-v2/2550000/6462f0ce-62a2-4863-8af3-5592c3be73f9.root",
        "T2_IT_Rome: davs://cmsrm-xrootd01.roma1.infn.it:2880//mc/Run3Summer23BPixNanoAODv12/ttHto2B_M-125_TuneCP5_13p6TeV_powheg-pythia8/NANOAODSIM/130X_mcRun3_2023_realistic_postBPix_v2-v2/2550000/6462f0ce-62a2-4863-8af3-5592c3be73f9.root"
    ],
    "cms:/store/mc/Run3Summer23BPixNanoAODv12/ttHto2B_M-125_TuneCP5_13p6TeV_powheg-pythia8/NANOAODSIM/130X_mcRun3_2023_realistic_postBPix_v2-v2/2550000/9da343cb-39d2-4c41-b397-36f276b22009.root": [
        "T1_US_FNAL_Disk: davs://cmsdcadisk.fnal.gov:2880/dcache/uscmsdisk/store/mc/Run3Summer23BPixNanoAODv12/ttHto2B_M-125_TuneCP5_13p6TeV_powheg-pythia8/NANOAODSIM/130X_mcRun3_2023_realistic_postBPix_v2-v2/2550000/9da343cb-39d2-4c41-b397-36f276b22009.root",
        "T1_DE_KIT_Tape: davs://cmsdcache-kit-tape.gridka.de:2880/pnfs/gridka.de/cms/tape/store/mc/Run3Summer23BPixNanoAODv12/ttHto2B_M-125_TuneCP5_13p6TeV_powheg-pythia8/NANOAODSIM/130X_mcRun3_2023_realistic_postBPix_v2-v2/2550000/9da343cb-39d2-4c41-b397-36f276b22009.root",
        "T2_PL_Swierk: davs://se.cis.gov.pl:2880/grid/cms/store/mc/Run3Summer23BPixNanoAODv12/ttHto2B_M-125_TuneCP5_13p6TeV_powheg-pythia8/NANOAODSIM/130X_mcRun3_2023_realistic_postBPix_v2-v2/2550000/9da343cb-39d2-4c41-b397-36f276b22009.root",
        "T1_ES_PIC_Disk: davs://webdav-cms.pic.es:8459/pnfs/pic.es/data/cms/disk/store/mc/Run3Summer23BPixNanoAODv12/ttHto2B_M-125_TuneCP5_13p6TeV_powheg-pythia8/NANOAODSIM/130X_mcRun3_2023_realistic_postBPix_v2-v2/2550000/9da343cb-39d2-4c41-b397-36f276b22009.root",
        "T2_US_Wisconsin: davs://cmsxrootd.hep.wisc.edu:1094/store/mc/Run3Summer23BPixNanoAODv12/ttHto2B_M-125_TuneCP5_13p6TeV_powheg-pythia8/NANOAODSIM/130X_mcRun3_2023_realistic_postBPix_v2-v2/2550000/9da343cb-39d2-4c41-b397-36f276b22009.root",
        "T2_HU_Budapest: davs://grid143.kfki.hu:443/dpm/kfki.hu/home/cms/phedex/store/mc/Run3Summer23BPixNanoAODv12/ttHto2B_M-125_TuneCP5_13p6TeV_powheg-pythia8/NANOAODSIM/130X_mcRun3_2023_realistic_postBPix_v2-v2/2550000/9da343cb-39d2-4c41-b397-36f276b22009.root",
        "T2_IT_Rome: davs://cmsrm-xrootd01.roma1.infn.it:2880//mc/Run3Summer23BPixNanoAODv12/ttHto2B_M-125_TuneCP5_13p6TeV_powheg-pythia8/NANOAODSIM/130X_mcRun3_2023_realistic_postBPix_v2-v2/2550000/9da343cb-39d2-4c41-b397-36f276b22009.root"
    ],
    "cms:/store/mc/Run3Summer23BPixNanoAODv12/ttHto2B_M-125_TuneCP5_13p6TeV_powheg-pythia8/NANOAODSIM/130X_mcRun3_2023_realistic_postBPix_v2-v2/2550000/ce84d49e-e4a7-4a7b-86c8-105ac14bfaf3.root": [
        "T1_US_FNAL_Disk: davs://cmsdcadisk.fnal.gov:2880/dcache/uscmsdisk/store/mc/Run3Summer23BPixNanoAODv12/ttHto2B_M-125_TuneCP5_13p6TeV_powheg-pythia8/NANOAODSIM/130X_mcRun3_2023_realistic_postBPix_v2-v2/2550000/ce84d49e-e4a7-4a7b-86c8-105ac14bfaf3.root",
        "T1_DE_KIT_Tape: davs://cmsdcache-kit-tape.gridka.de:2880/pnfs/gridka.de/cms/tape/store/mc/Run3Summer23BPixNanoAODv12/ttHto2B_M-125_TuneCP5_13p6TeV_powheg-pythia8/NANOAODSIM/130X_mcRun3_2023_realistic_postBPix_v2-v2/2550000/ce84d49e-e4a7-4a7b-86c8-105ac14bfaf3.root",
        "T2_PL_Swierk: davs://se.cis.gov.pl:2880/grid/cms/store/mc/Run3Summer23BPixNanoAODv12/ttHto2B_M-125_TuneCP5_13p6TeV_powheg-pythia8/NANOAODSIM/130X_mcRun3_2023_realistic_postBPix_v2-v2/2550000/ce84d49e-e4a7-4a7b-86c8-105ac14bfaf3.root",
        "T1_ES_PIC_Disk: davs://webdav-cms.pic.es:8459/pnfs/pic.es/data/cms/disk/store/mc/Run3Summer23BPixNanoAODv12/ttHto2B_M-125_TuneCP5_13p6TeV_powheg-pythia8/NANOAODSIM/130X_mcRun3_2023_realistic_postBPix_v2-v2/2550000/ce84d49e-e4a7-4a7b-86c8-105ac14bfaf3.root",
        "T2_US_Wisconsin: davs://cmsxrootd.hep.wisc.edu:1094/store/mc/Run3Summer23BPixNanoAODv12/ttHto2B_M-125_TuneCP5_13p6TeV_powheg-pythia8/NANOAODSIM/130X_mcRun3_2023_realistic_postBPix_v2-v2/2550000/ce84d49e-e4a7-4a7b-86c8-105ac14bfaf3.root",
        "T2_HU_Budapest: davs://grid143.kfki.hu:443/dpm/kfki.hu/home/cms/phedex/store/mc/Run3Summer23BPixNanoAODv12/ttHto2B_M-125_TuneCP5_13p6TeV_powheg-pythia8/NANOAODSIM/130X_mcRun3_2023_realistic_postBPix_v2-v2/2550000/ce84d49e-e4a7-4a7b-86c8-105ac14bfaf3.root",
        "T2_IT_Rome: davs://cmsrm-xrootd01.roma1.infn.it:2880//mc/Run3Summer23BPixNanoAODv12/ttHto2B_M-125_TuneCP5_13p6TeV_powheg-pythia8/NANOAODSIM/130X_mcRun3_2023_realistic_postBPix_v2-v2/2550000/ce84d49e-e4a7-4a7b-86c8-105ac14bfaf3.root"
    ],
    "cms:/store/mc/Run3Summer23BPixNanoAODv12/ttHto2B_M-125_TuneCP5_13p6TeV_powheg-pythia8/NANOAODSIM/130X_mcRun3_2023_realistic_postBPix_v2-v2/2550000/05f715ac-4f4f-4ea8-8f28-6abca9461145.root": [
        "T1_US_FNAL_Disk: davs://cmsdcadisk.fnal.gov:2880/dcache/uscmsdisk/store/mc/Run3Summer23BPixNanoAODv12/ttHto2B_M-125_TuneCP5_13p6TeV_powheg-pythia8/NANOAODSIM/130X_mcRun3_2023_realistic_postBPix_v2-v2/2550000/05f715ac-4f4f-4ea8-8f28-6abca9461145.root",
        "T1_DE_KIT_Tape: davs://cmsdcache-kit-tape.gridka.de:2880/pnfs/gridka.de/cms/tape/store/mc/Run3Summer23BPixNanoAODv12/ttHto2B_M-125_TuneCP5_13p6TeV_powheg-pythia8/NANOAODSIM/130X_mcRun3_2023_realistic_postBPix_v2-v2/2550000/05f715ac-4f4f-4ea8-8f28-6abca9461145.root",
        "T2_PL_Swierk: davs://se.cis.gov.pl:2880/grid/cms/store/mc/Run3Summer23BPixNanoAODv12/ttHto2B_M-125_TuneCP5_13p6TeV_powheg-pythia8/NANOAODSIM/130X_mcRun3_2023_realistic_postBPix_v2-v2/2550000/05f715ac-4f4f-4ea8-8f28-6abca9461145.root",
        "T1_ES_PIC_Disk: davs://webdav-cms.pic.es:8459/pnfs/pic.es/data/cms/disk/store/mc/Run3Summer23BPixNanoAODv12/ttHto2B_M-125_TuneCP5_13p6TeV_powheg-pythia8/NANOAODSIM/130X_mcRun3_2023_realistic_postBPix_v2-v2/2550000/05f715ac-4f4f-4ea8-8f28-6abca9461145.root",
        "T2_US_Wisconsin: davs://cmsxrootd.hep.wisc.edu:1094/store/mc/Run3Summer23BPixNanoAODv12/ttHto2B_M-125_TuneCP5_13p6TeV_powheg-pythia8/NANOAODSIM/130X_mcRun3_2023_realistic_postBPix_v2-v2/2550000/05f715ac-4f4f-4ea8-8f28-6abca9461145.root",
        "T2_HU_Budapest: davs://grid143.kfki.hu:443/dpm/kfki.hu/home/cms/phedex/store/mc/Run3Summer23BPixNanoAODv12/ttHto2B_M-125_TuneCP5_13p6TeV_powheg-pythia8/NANOAODSIM/130X_mcRun3_2023_realistic_postBPix_v2-v2/2550000/05f715ac-4f4f-4ea8-8f28-6abca9461145.root",
        "T2_IT_Rome: davs://cmsrm-xrootd01.roma1.infn.it:2880//mc/Run3Summer23BPixNanoAODv12/ttHto2B_M-125_TuneCP5_13p6TeV_powheg-pythia8/NANOAODSIM/130X_mcRun3_2023_realistic_postBPix_v2-v2/2550000/05f715ac-4f4f-4ea8-8f28-6abca9461145.root"
    ],
    "cms:/store/mc/Run3Summer23BPixNanoAODv12/ttHto2B_M-125_TuneCP5_13p6TeV_powheg-pythia8/NANOAODSIM/130X_mcRun3_2023_realistic_postBPix_v2-v2/2550000/cf1cbc03-65bf-42d0-8489-693a18aae634.root": [
        "T1_US_FNAL_Disk: davs://cmsdcadisk.fnal.gov:2880/dcache/uscmsdisk/store/mc/Run3Summer23BPixNanoAODv12/ttHto2B_M-125_TuneCP5_13p6TeV_powheg-pythia8/NANOAODSIM/130X_mcRun3_2023_realistic_postBPix_v2-v2/2550000/cf1cbc03-65bf-42d0-8489-693a18aae634.root",
        "T1_DE_KIT_Tape: davs://cmsdcache-kit-tape.gridka.de:2880/pnfs/gridka.de/cms/tape/store/mc/Run3Summer23BPixNanoAODv12/ttHto2B_M-125_TuneCP5_13p6TeV_powheg-pythia8/NANOAODSIM/130X_mcRun3_2023_realistic_postBPix_v2-v2/2550000/cf1cbc03-65bf-42d0-8489-693a18aae634.root",
        "T2_PL_Swierk: davs://se.cis.gov.pl:2880/grid/cms/store/mc/Run3Summer23BPixNanoAODv12/ttHto2B_M-125_TuneCP5_13p6TeV_powheg-pythia8/NANOAODSIM/130X_mcRun3_2023_realistic_postBPix_v2-v2/2550000/cf1cbc03-65bf-42d0-8489-693a18aae634.root",
        "T1_ES_PIC_Disk: davs://webdav-cms.pic.es:8459/pnfs/pic.es/data/cms/disk/store/mc/Run3Summer23BPixNanoAODv12/ttHto2B_M-125_TuneCP5_13p6TeV_powheg-pythia8/NANOAODSIM/130X_mcRun3_2023_realistic_postBPix_v2-v2/2550000/cf1cbc03-65bf-42d0-8489-693a18aae634.root",
        "T2_US_Wisconsin: davs://cmsxrootd.hep.wisc.edu:1094/store/mc/Run3Summer23BPixNanoAODv12/ttHto2B_M-125_TuneCP5_13p6TeV_powheg-pythia8/NANOAODSIM/130X_mcRun3_2023_realistic_postBPix_v2-v2/2550000/cf1cbc03-65bf-42d0-8489-693a18aae634.root",
        "T2_HU_Budapest: davs://grid143.kfki.hu:443/dpm/kfki.hu/home/cms/phedex/store/mc/Run3Summer23BPixNanoAODv12/ttHto2B_M-125_TuneCP5_13p6TeV_powheg-pythia8/NANOAODSIM/130X_mcRun3_2023_realistic_postBPix_v2-v2/2550000/cf1cbc03-65bf-42d0-8489-693a18aae634.root",
        "T2_IT_Rome: davs://cmsrm-xrootd01.roma1.infn.it:2880//mc/Run3Summer23BPixNanoAODv12/ttHto2B_M-125_TuneCP5_13p6TeV_powheg-pythia8/NANOAODSIM/130X_mcRun3_2023_realistic_postBPix_v2-v2/2550000/cf1cbc03-65bf-42d0-8489-693a18aae634.root"
    ],
    "cms:/store/mc/Run3Summer23BPixNanoAODv12/ttHto2B_M-125_TuneCP5_13p6TeV_powheg-pythia8/NANOAODSIM/130X_mcRun3_2023_realistic_postBPix_v2-v2/2550000/757f721e-db92-431a-a5b2-24ce1f78ba9b.root": [
        "T1_US_FNAL_Disk: davs://cmsdcadisk.fnal.gov:2880/dcache/uscmsdisk/store/mc/Run3Summer23BPixNanoAODv12/ttHto2B_M-125_TuneCP5_13p6TeV_powheg-pythia8/NANOAODSIM/130X_mcRun3_2023_realistic_postBPix_v2-v2/2550000/757f721e-db92-431a-a5b2-24ce1f78ba9b.root",
        "T1_DE_KIT_Tape: davs://cmsdcache-kit-tape.gridka.de:2880/pnfs/gridka.de/cms/tape/store/mc/Run3Summer23BPixNanoAODv12/ttHto2B_M-125_TuneCP5_13p6TeV_powheg-pythia8/NANOAODSIM/130X_mcRun3_2023_realistic_postBPix_v2-v2/2550000/757f721e-db92-431a-a5b2-24ce1f78ba9b.root",
        "T2_PL_Swierk: davs://se.cis.gov.pl:2880/grid/cms/store/mc/Run3Summer23BPixNanoAODv12/ttHto2B_M-125_TuneCP5_13p6TeV_powheg-pythia8/NANOAODSIM/130X_mcRun3_2023_realistic_postBPix_v2-v2/2550000/757f721e-db92-431a-a5b2-24ce1f78ba9b.root",
        "T1_ES_PIC_Disk: davs://webdav-cms.pic.es:8459/pnfs/pic.es/data/cms/disk/store/mc/Run3Summer23BPixNanoAODv12/ttHto2B_M-125_TuneCP5_13p6TeV_powheg-pythia8/NANOAODSIM/130X_mcRun3_2023_realistic_postBPix_v2-v2/2550000/757f721e-db92-431a-a5b2-24ce1f78ba9b.root",
        "T2_US_Wisconsin: davs://cmsxrootd.hep.wisc.edu:1094/store/mc/Run3Summer23BPixNanoAODv12/ttHto2B_M-125_TuneCP5_13p6TeV_powheg-pythia8/NANOAODSIM/130X_mcRun3_2023_realistic_postBPix_v2-v2/2550000/757f721e-db92-431a-a5b2-24ce1f78ba9b.root",
        "T2_HU_Budapest: davs://grid143.kfki.hu:443/dpm/kfki.hu/home/cms/phedex/store/mc/Run3Summer23BPixNanoAODv12/ttHto2B_M-125_TuneCP5_13p6TeV_powheg-pythia8/NANOAODSIM/130X_mcRun3_2023_realistic_postBPix_v2-v2/2550000/757f721e-db92-431a-a5b2-24ce1f78ba9b.root",
        "T2_IT_Rome: davs://cmsrm-xrootd01.roma1.infn.it:2880//mc/Run3Summer23BPixNanoAODv12/ttHto2B_M-125_TuneCP5_13p6TeV_powheg-pythia8/NANOAODSIM/130X_mcRun3_2023_realistic_postBPix_v2-v2/2550000/757f721e-db92-431a-a5b2-24ce1f78ba9b.root"
    ],
    "cms:/store/mc/Run3Summer23BPixNanoAODv12/ttHto2B_M-125_TuneCP5_13p6TeV_powheg-pythia8/NANOAODSIM/130X_mcRun3_2023_realistic_postBPix_v2-v2/2550000/4f368191-e3f6-41f1-9299-e9b66360f3cf.root": [
        "T1_US_FNAL_Disk: davs://cmsdcadisk.fnal.gov:2880/dcache/uscmsdisk/store/mc/Run3Summer23BPixNanoAODv12/ttHto2B_M-125_TuneCP5_13p6TeV_powheg-pythia8/NANOAODSIM/130X_mcRun3_2023_realistic_postBPix_v2-v2/2550000/4f368191-e3f6-41f1-9299-e9b66360f3cf.root",
        "T1_DE_KIT_Tape: davs://cmsdcache-kit-tape.gridka.de:2880/pnfs/gridka.de/cms/tape/store/mc/Run3Summer23BPixNanoAODv12/ttHto2B_M-125_TuneCP5_13p6TeV_powheg-pythia8/NANOAODSIM/130X_mcRun3_2023_realistic_postBPix_v2-v2/2550000/4f368191-e3f6-41f1-9299-e9b66360f3cf.root",
        "T2_PL_Swierk: davs://se.cis.gov.pl:2880/grid/cms/store/mc/Run3Summer23BPixNanoAODv12/ttHto2B_M-125_TuneCP5_13p6TeV_powheg-pythia8/NANOAODSIM/130X_mcRun3_2023_realistic_postBPix_v2-v2/2550000/4f368191-e3f6-41f1-9299-e9b66360f3cf.root",
        "T1_ES_PIC_Disk: davs://webdav-cms.pic.es:8459/pnfs/pic.es/data/cms/disk/store/mc/Run3Summer23BPixNanoAODv12/ttHto2B_M-125_TuneCP5_13p6TeV_powheg-pythia8/NANOAODSIM/130X_mcRun3_2023_realistic_postBPix_v2-v2/2550000/4f368191-e3f6-41f1-9299-e9b66360f3cf.root",
        "T2_US_Wisconsin: davs://cmsxrootd.hep.wisc.edu:1094/store/mc/Run3Summer23BPixNanoAODv12/ttHto2B_M-125_TuneCP5_13p6TeV_powheg-pythia8/NANOAODSIM/130X_mcRun3_2023_realistic_postBPix_v2-v2/2550000/4f368191-e3f6-41f1-9299-e9b66360f3cf.root",
        "T2_HU_Budapest: davs://grid143.kfki.hu:443/dpm/kfki.hu/home/cms/phedex/store/mc/Run3Summer23BPixNanoAODv12/ttHto2B_M-125_TuneCP5_13p6TeV_powheg-pythia8/NANOAODSIM/130X_mcRun3_2023_realistic_postBPix_v2-v2/2550000/4f368191-e3f6-41f1-9299-e9b66360f3cf.root",
        "T2_IT_Rome: davs://cmsrm-xrootd01.roma1.infn.it:2880//mc/Run3Summer23BPixNanoAODv12/ttHto2B_M-125_TuneCP5_13p6TeV_powheg-pythia8/NANOAODSIM/130X_mcRun3_2023_realistic_postBPix_v2-v2/2550000/4f368191-e3f6-41f1-9299-e9b66360f3cf.root"
    ],
    "cms:/store/mc/Run3Summer23BPixNanoAODv12/ttHto2B_M-125_TuneCP5_13p6TeV_powheg-pythia8/NANOAODSIM/130X_mcRun3_2023_realistic_postBPix_v2-v2/2550000/ebbfc1b8-2fed-4033-ae02-529ada7cfb97.root": [
        "T1_US_FNAL_Disk: davs://cmsdcadisk.fnal.gov:2880/dcache/uscmsdisk/store/mc/Run3Summer23BPixNanoAODv12/ttHto2B_M-125_TuneCP5_13p6TeV_powheg-pythia8/NANOAODSIM/130X_mcRun3_2023_realistic_postBPix_v2-v2/2550000/ebbfc1b8-2fed-4033-ae02-529ada7cfb97.root",
        "T1_DE_KIT_Tape: davs://cmsdcache-kit-tape.gridka.de:2880/pnfs/gridka.de/cms/tape/store/mc/Run3Summer23BPixNanoAODv12/ttHto2B_M-125_TuneCP5_13p6TeV_powheg-pythia8/NANOAODSIM/130X_mcRun3_2023_realistic_postBPix_v2-v2/2550000/ebbfc1b8-2fed-4033-ae02-529ada7cfb97.root",
        "T2_PL_Swierk: davs://se.cis.gov.pl:2880/grid/cms/store/mc/Run3Summer23BPixNanoAODv12/ttHto2B_M-125_TuneCP5_13p6TeV_powheg-pythia8/NANOAODSIM/130X_mcRun3_2023_realistic_postBPix_v2-v2/2550000/ebbfc1b8-2fed-4033-ae02-529ada7cfb97.root",
        "T1_ES_PIC_Disk: davs://webdav-cms.pic.es:8459/pnfs/pic.es/data/cms/disk/store/mc/Run3Summer23BPixNanoAODv12/ttHto2B_M-125_TuneCP5_13p6TeV_powheg-pythia8/NANOAODSIM/130X_mcRun3_2023_realistic_postBPix_v2-v2/2550000/ebbfc1b8-2fed-4033-ae02-529ada7cfb97.root",
        "T2_US_Wisconsin: davs://cmsxrootd.hep.wisc.edu:1094/store/mc/Run3Summer23BPixNanoAODv12/ttHto2B_M-125_TuneCP5_13p6TeV_powheg-pythia8/NANOAODSIM/130X_mcRun3_2023_realistic_postBPix_v2-v2/2550000/ebbfc1b8-2fed-4033-ae02-529ada7cfb97.root",
        "T2_HU_Budapest: davs://grid143.kfki.hu:443/dpm/kfki.hu/home/cms/phedex/store/mc/Run3Summer23BPixNanoAODv12/ttHto2B_M-125_TuneCP5_13p6TeV_powheg-pythia8/NANOAODSIM/130X_mcRun3_2023_realistic_postBPix_v2-v2/2550000/ebbfc1b8-2fed-4033-ae02-529ada7cfb97.root",
        "T2_IT_Rome: davs://cmsrm-xrootd01.roma1.infn.it:2880//mc/Run3Summer23BPixNanoAODv12/ttHto2B_M-125_TuneCP5_13p6TeV_powheg-pythia8/NANOAODSIM/130X_mcRun3_2023_realistic_postBPix_v2-v2/2550000/ebbfc1b8-2fed-4033-ae02-529ada7cfb97.root"
    ],
    "cms:/store/mc/Run3Summer23BPixNanoAODv12/ttHto2B_M-125_TuneCP5_13p6TeV_powheg-pythia8/NANOAODSIM/130X_mcRun3_2023_realistic_postBPix_v2-v2/2550000/076f34f3-e30b-4102-a3c6-ee8ca10dad15.root": [
        "T1_US_FNAL_Disk: davs://cmsdcadisk.fnal.gov:2880/dcache/uscmsdisk/store/mc/Run3Summer23BPixNanoAODv12/ttHto2B_M-125_TuneCP5_13p6TeV_powheg-pythia8/NANOAODSIM/130X_mcRun3_2023_realistic_postBPix_v2-v2/2550000/076f34f3-e30b-4102-a3c6-ee8ca10dad15.root",
        "T1_DE_KIT_Tape: davs://cmsdcache-kit-tape.gridka.de:2880/pnfs/gridka.de/cms/tape/store/mc/Run3Summer23BPixNanoAODv12/ttHto2B_M-125_TuneCP5_13p6TeV_powheg-pythia8/NANOAODSIM/130X_mcRun3_2023_realistic_postBPix_v2-v2/2550000/076f34f3-e30b-4102-a3c6-ee8ca10dad15.root",
        "T2_PL_Swierk: davs://se.cis.gov.pl:2880/grid/cms/store/mc/Run3Summer23BPixNanoAODv12/ttHto2B_M-125_TuneCP5_13p6TeV_powheg-pythia8/NANOAODSIM/130X_mcRun3_2023_realistic_postBPix_v2-v2/2550000/076f34f3-e30b-4102-a3c6-ee8ca10dad15.root",
        "T1_ES_PIC_Disk: davs://webdav-cms.pic.es:8459/pnfs/pic.es/data/cms/disk/store/mc/Run3Summer23BPixNanoAODv12/ttHto2B_M-125_TuneCP5_13p6TeV_powheg-pythia8/NANOAODSIM/130X_mcRun3_2023_realistic_postBPix_v2-v2/2550000/076f34f3-e30b-4102-a3c6-ee8ca10dad15.root",
        "T2_US_Wisconsin: davs://cmsxrootd.hep.wisc.edu:1094/store/mc/Run3Summer23BPixNanoAODv12/ttHto2B_M-125_TuneCP5_13p6TeV_powheg-pythia8/NANOAODSIM/130X_mcRun3_2023_realistic_postBPix_v2-v2/2550000/076f34f3-e30b-4102-a3c6-ee8ca10dad15.root",
        "T2_HU_Budapest: davs://grid143.kfki.hu:443/dpm/kfki.hu/home/cms/phedex/store/mc/Run3Summer23BPixNanoAODv12/ttHto2B_M-125_TuneCP5_13p6TeV_powheg-pythia8/NANOAODSIM/130X_mcRun3_2023_realistic_postBPix_v2-v2/2550000/076f34f3-e30b-4102-a3c6-ee8ca10dad15.root",
        "T2_IT_Rome: davs://cmsrm-xrootd01.roma1.infn.it:2880//mc/Run3Summer23BPixNanoAODv12/ttHto2B_M-125_TuneCP5_13p6TeV_powheg-pythia8/NANOAODSIM/130X_mcRun3_2023_realistic_postBPix_v2-v2/2550000/076f34f3-e30b-4102-a3c6-ee8ca10dad15.root"
    ],
    "cms:/store/mc/Run3Summer23BPixNanoAODv12/ttHto2B_M-125_TuneCP5_13p6TeV_powheg-pythia8/NANOAODSIM/130X_mcRun3_2023_realistic_postBPix_v2-v2/2550000/16d9ea25-a859-436e-8ec8-4078927114d3.root": [
        "T1_US_FNAL_Disk: davs://cmsdcadisk.fnal.gov:2880/dcache/uscmsdisk/store/mc/Run3Summer23BPixNanoAODv12/ttHto2B_M-125_TuneCP5_13p6TeV_powheg-pythia8/NANOAODSIM/130X_mcRun3_2023_realistic_postBPix_v2-v2/2550000/16d9ea25-a859-436e-8ec8-4078927114d3.root",
        "T1_DE_KIT_Tape: davs://cmsdcache-kit-tape.gridka.de:2880/pnfs/gridka.de/cms/tape/store/mc/Run3Summer23BPixNanoAODv12/ttHto2B_M-125_TuneCP5_13p6TeV_powheg-pythia8/NANOAODSIM/130X_mcRun3_2023_realistic_postBPix_v2-v2/2550000/16d9ea25-a859-436e-8ec8-4078927114d3.root",
        "T2_PL_Swierk: davs://se.cis.gov.pl:2880/grid/cms/store/mc/Run3Summer23BPixNanoAODv12/ttHto2B_M-125_TuneCP5_13p6TeV_powheg-pythia8/NANOAODSIM/130X_mcRun3_2023_realistic_postBPix_v2-v2/2550000/16d9ea25-a859-436e-8ec8-4078927114d3.root",
        "T1_ES_PIC_Disk: davs://webdav-cms.pic.es:8459/pnfs/pic.es/data/cms/disk/store/mc/Run3Summer23BPixNanoAODv12/ttHto2B_M-125_TuneCP5_13p6TeV_powheg-pythia8/NANOAODSIM/130X_mcRun3_2023_realistic_postBPix_v2-v2/2550000/16d9ea25-a859-436e-8ec8-4078927114d3.root",
        "T2_US_Wisconsin: davs://cmsxrootd.hep.wisc.edu:1094/store/mc/Run3Summer23BPixNanoAODv12/ttHto2B_M-125_TuneCP5_13p6TeV_powheg-pythia8/NANOAODSIM/130X_mcRun3_2023_realistic_postBPix_v2-v2/2550000/16d9ea25-a859-436e-8ec8-4078927114d3.root",
        "T2_HU_Budapest: davs://grid143.kfki.hu:443/dpm/kfki.hu/home/cms/phedex/store/mc/Run3Summer23BPixNanoAODv12/ttHto2B_M-125_TuneCP5_13p6TeV_powheg-pythia8/NANOAODSIM/130X_mcRun3_2023_realistic_postBPix_v2-v2/2550000/16d9ea25-a859-436e-8ec8-4078927114d3.root",
        "T2_IT_Rome: davs://cmsrm-xrootd01.roma1.infn.it:2880//mc/Run3Summer23BPixNanoAODv12/ttHto2B_M-125_TuneCP5_13p6TeV_powheg-pythia8/NANOAODSIM/130X_mcRun3_2023_realistic_postBPix_v2-v2/2550000/16d9ea25-a859-436e-8ec8-4078927114d3.root"
    ],
    "cms:/store/mc/Run3Summer23BPixNanoAODv12/ttHto2B_M-125_TuneCP5_13p6TeV_powheg-pythia8/NANOAODSIM/130X_mcRun3_2023_realistic_postBPix_v2-v2/2550000/3cefc98c-4420-42b4-b4e4-c670bef67d20.root": [
        "T1_US_FNAL_Disk: davs://cmsdcadisk.fnal.gov:2880/dcache/uscmsdisk/store/mc/Run3Summer23BPixNanoAODv12/ttHto2B_M-125_TuneCP5_13p6TeV_powheg-pythia8/NANOAODSIM/130X_mcRun3_2023_realistic_postBPix_v2-v2/2550000/3cefc98c-4420-42b4-b4e4-c670bef67d20.root",
        "T1_DE_KIT_Tape: davs://cmsdcache-kit-tape.gridka.de:2880/pnfs/gridka.de/cms/tape/store/mc/Run3Summer23BPixNanoAODv12/ttHto2B_M-125_TuneCP5_13p6TeV_powheg-pythia8/NANOAODSIM/130X_mcRun3_2023_realistic_postBPix_v2-v2/2550000/3cefc98c-4420-42b4-b4e4-c670bef67d20.root",
        "T2_PL_Swierk: davs://se.cis.gov.pl:2880/grid/cms/store/mc/Run3Summer23BPixNanoAODv12/ttHto2B_M-125_TuneCP5_13p6TeV_powheg-pythia8/NANOAODSIM/130X_mcRun3_2023_realistic_postBPix_v2-v2/2550000/3cefc98c-4420-42b4-b4e4-c670bef67d20.root",
        "T1_ES_PIC_Disk: davs://webdav-cms.pic.es:8459/pnfs/pic.es/data/cms/disk/store/mc/Run3Summer23BPixNanoAODv12/ttHto2B_M-125_TuneCP5_13p6TeV_powheg-pythia8/NANOAODSIM/130X_mcRun3_2023_realistic_postBPix_v2-v2/2550000/3cefc98c-4420-42b4-b4e4-c670bef67d20.root",
        "T2_US_Wisconsin: davs://cmsxrootd.hep.wisc.edu:1094/store/mc/Run3Summer23BPixNanoAODv12/ttHto2B_M-125_TuneCP5_13p6TeV_powheg-pythia8/NANOAODSIM/130X_mcRun3_2023_realistic_postBPix_v2-v2/2550000/3cefc98c-4420-42b4-b4e4-c670bef67d20.root",
        "T2_HU_Budapest: davs://grid143.kfki.hu:443/dpm/kfki.hu/home/cms/phedex/store/mc/Run3Summer23BPixNanoAODv12/ttHto2B_M-125_TuneCP5_13p6TeV_powheg-pythia8/NANOAODSIM/130X_mcRun3_2023_realistic_postBPix_v2-v2/2550000/3cefc98c-4420-42b4-b4e4-c670bef67d20.root",
        "T2_IT_Rome: davs://cmsrm-xrootd01.roma1.infn.it:2880//mc/Run3Summer23BPixNanoAODv12/ttHto2B_M-125_TuneCP5_13p6TeV_powheg-pythia8/NANOAODSIM/130X_mcRun3_2023_realistic_postBPix_v2-v2/2550000/3cefc98c-4420-42b4-b4e4-c670bef67d20.root"
    ],
    "cms:/store/mc/Run3Summer23BPixNanoAODv12/ttHto2B_M-125_TuneCP5_13p6TeV_powheg-pythia8/NANOAODSIM/130X_mcRun3_2023_realistic_postBPix_v2-v2/2550000/c23d2ac6-2732-4bbb-8f2a-a3d756f576ac.root": [
        "T1_US_FNAL_Disk: davs://cmsdcadisk.fnal.gov:2880/dcache/uscmsdisk/store/mc/Run3Summer23BPixNanoAODv12/ttHto2B_M-125_TuneCP5_13p6TeV_powheg-pythia8/NANOAODSIM/130X_mcRun3_2023_realistic_postBPix_v2-v2/2550000/c23d2ac6-2732-4bbb-8f2a-a3d756f576ac.root",
        "T1_DE_KIT_Tape: davs://cmsdcache-kit-tape.gridka.de:2880/pnfs/gridka.de/cms/tape/store/mc/Run3Summer23BPixNanoAODv12/ttHto2B_M-125_TuneCP5_13p6TeV_powheg-pythia8/NANOAODSIM/130X_mcRun3_2023_realistic_postBPix_v2-v2/2550000/c23d2ac6-2732-4bbb-8f2a-a3d756f576ac.root",
        "T2_PL_Swierk: davs://se.cis.gov.pl:2880/grid/cms/store/mc/Run3Summer23BPixNanoAODv12/ttHto2B_M-125_TuneCP5_13p6TeV_powheg-pythia8/NANOAODSIM/130X_mcRun3_2023_realistic_postBPix_v2-v2/2550000/c23d2ac6-2732-4bbb-8f2a-a3d756f576ac.root",
        "T1_ES_PIC_Disk: davs://webdav-cms.pic.es:8459/pnfs/pic.es/data/cms/disk/store/mc/Run3Summer23BPixNanoAODv12/ttHto2B_M-125_TuneCP5_13p6TeV_powheg-pythia8/NANOAODSIM/130X_mcRun3_2023_realistic_postBPix_v2-v2/2550000/c23d2ac6-2732-4bbb-8f2a-a3d756f576ac.root",
        "T2_US_Wisconsin: davs://cmsxrootd.hep.wisc.edu:1094/store/mc/Run3Summer23BPixNanoAODv12/ttHto2B_M-125_TuneCP5_13p6TeV_powheg-pythia8/NANOAODSIM/130X_mcRun3_2023_realistic_postBPix_v2-v2/2550000/c23d2ac6-2732-4bbb-8f2a-a3d756f576ac.root",
        "T2_HU_Budapest: davs://grid143.kfki.hu:443/dpm/kfki.hu/home/cms/phedex/store/mc/Run3Summer23BPixNanoAODv12/ttHto2B_M-125_TuneCP5_13p6TeV_powheg-pythia8/NANOAODSIM/130X_mcRun3_2023_realistic_postBPix_v2-v2/2550000/c23d2ac6-2732-4bbb-8f2a-a3d756f576ac.root",
        "T2_IT_Rome: davs://cmsrm-xrootd01.roma1.infn.it:2880//mc/Run3Summer23BPixNanoAODv12/ttHto2B_M-125_TuneCP5_13p6TeV_powheg-pythia8/NANOAODSIM/130X_mcRun3_2023_realistic_postBPix_v2-v2/2550000/c23d2ac6-2732-4bbb-8f2a-a3d756f576ac.root"
    ],
    "cms:/store/mc/Run3Summer23BPixNanoAODv12/ttHto2B_M-125_TuneCP5_13p6TeV_powheg-pythia8/NANOAODSIM/130X_mcRun3_2023_realistic_postBPix_v2-v2/2550000/de771214-8522-4920-b3af-00c4b12f9710.root": [
        "T1_US_FNAL_Disk: davs://cmsdcadisk.fnal.gov:2880/dcache/uscmsdisk/store/mc/Run3Summer23BPixNanoAODv12/ttHto2B_M-125_TuneCP5_13p6TeV_powheg-pythia8/NANOAODSIM/130X_mcRun3_2023_realistic_postBPix_v2-v2/2550000/de771214-8522-4920-b3af-00c4b12f9710.root",
        "T1_DE_KIT_Tape: davs://cmsdcache-kit-tape.gridka.de:2880/pnfs/gridka.de/cms/tape/store/mc/Run3Summer23BPixNanoAODv12/ttHto2B_M-125_TuneCP5_13p6TeV_powheg-pythia8/NANOAODSIM/130X_mcRun3_2023_realistic_postBPix_v2-v2/2550000/de771214-8522-4920-b3af-00c4b12f9710.root",
        "T2_PL_Swierk: davs://se.cis.gov.pl:2880/grid/cms/store/mc/Run3Summer23BPixNanoAODv12/ttHto2B_M-125_TuneCP5_13p6TeV_powheg-pythia8/NANOAODSIM/130X_mcRun3_2023_realistic_postBPix_v2-v2/2550000/de771214-8522-4920-b3af-00c4b12f9710.root",
        "T1_ES_PIC_Disk: davs://webdav-cms.pic.es:8459/pnfs/pic.es/data/cms/disk/store/mc/Run3Summer23BPixNanoAODv12/ttHto2B_M-125_TuneCP5_13p6TeV_powheg-pythia8/NANOAODSIM/130X_mcRun3_2023_realistic_postBPix_v2-v2/2550000/de771214-8522-4920-b3af-00c4b12f9710.root",
        "T2_US_Wisconsin: davs://cmsxrootd.hep.wisc.edu:1094/store/mc/Run3Summer23BPixNanoAODv12/ttHto2B_M-125_TuneCP5_13p6TeV_powheg-pythia8/NANOAODSIM/130X_mcRun3_2023_realistic_postBPix_v2-v2/2550000/de771214-8522-4920-b3af-00c4b12f9710.root",
        "T2_HU_Budapest: davs://grid143.kfki.hu:443/dpm/kfki.hu/home/cms/phedex/store/mc/Run3Summer23BPixNanoAODv12/ttHto2B_M-125_TuneCP5_13p6TeV_powheg-pythia8/NANOAODSIM/130X_mcRun3_2023_realistic_postBPix_v2-v2/2550000/de771214-8522-4920-b3af-00c4b12f9710.root",
        "T2_IT_Rome: davs://cmsrm-xrootd01.roma1.infn.it:2880//mc/Run3Summer23BPixNanoAODv12/ttHto2B_M-125_TuneCP5_13p6TeV_powheg-pythia8/NANOAODSIM/130X_mcRun3_2023_realistic_postBPix_v2-v2/2550000/de771214-8522-4920-b3af-00c4b12f9710.root"
    ],
    "cms:/store/mc/Run3Summer23BPixNanoAODv12/ttHto2B_M-125_TuneCP5_13p6TeV_powheg-pythia8/NANOAODSIM/130X_mcRun3_2023_realistic_postBPix_v2-v2/2550000/e63002a9-d2dc-47a0-99a2-82a7e12ad1d7.root": [
        "T1_US_FNAL_Disk: davs://cmsdcadisk.fnal.gov:2880/dcache/uscmsdisk/store/mc/Run3Summer23BPixNanoAODv12/ttHto2B_M-125_TuneCP5_13p6TeV_powheg-pythia8/NANOAODSIM/130X_mcRun3_2023_realistic_postBPix_v2-v2/2550000/e63002a9-d2dc-47a0-99a2-82a7e12ad1d7.root",
        "T1_DE_KIT_Tape: davs://cmsdcache-kit-tape.gridka.de:2880/pnfs/gridka.de/cms/tape/store/mc/Run3Summer23BPixNanoAODv12/ttHto2B_M-125_TuneCP5_13p6TeV_powheg-pythia8/NANOAODSIM/130X_mcRun3_2023_realistic_postBPix_v2-v2/2550000/e63002a9-d2dc-47a0-99a2-82a7e12ad1d7.root",
        "T2_PL_Swierk: davs://se.cis.gov.pl:2880/grid/cms/store/mc/Run3Summer23BPixNanoAODv12/ttHto2B_M-125_TuneCP5_13p6TeV_powheg-pythia8/NANOAODSIM/130X_mcRun3_2023_realistic_postBPix_v2-v2/2550000/e63002a9-d2dc-47a0-99a2-82a7e12ad1d7.root",
        "T1_ES_PIC_Disk: davs://webdav-cms.pic.es:8459/pnfs/pic.es/data/cms/disk/store/mc/Run3Summer23BPixNanoAODv12/ttHto2B_M-125_TuneCP5_13p6TeV_powheg-pythia8/NANOAODSIM/130X_mcRun3_2023_realistic_postBPix_v2-v2/2550000/e63002a9-d2dc-47a0-99a2-82a7e12ad1d7.root",
        "T2_US_Wisconsin: davs://cmsxrootd.hep.wisc.edu:1094/store/mc/Run3Summer23BPixNanoAODv12/ttHto2B_M-125_TuneCP5_13p6TeV_powheg-pythia8/NANOAODSIM/130X_mcRun3_2023_realistic_postBPix_v2-v2/2550000/e63002a9-d2dc-47a0-99a2-82a7e12ad1d7.root",
        "T2_HU_Budapest: davs://grid143.kfki.hu:443/dpm/kfki.hu/home/cms/phedex/store/mc/Run3Summer23BPixNanoAODv12/ttHto2B_M-125_TuneCP5_13p6TeV_powheg-pythia8/NANOAODSIM/130X_mcRun3_2023_realistic_postBPix_v2-v2/2550000/e63002a9-d2dc-47a0-99a2-82a7e12ad1d7.root",
        "T2_IT_Rome: davs://cmsrm-xrootd01.roma1.infn.it:2880//mc/Run3Summer23BPixNanoAODv12/ttHto2B_M-125_TuneCP5_13p6TeV_powheg-pythia8/NANOAODSIM/130X_mcRun3_2023_realistic_postBPix_v2-v2/2550000/e63002a9-d2dc-47a0-99a2-82a7e12ad1d7.root"
    ],
    "cms:/store/mc/Run3Summer23BPixNanoAODv12/ttHto2B_M-125_TuneCP5_13p6TeV_powheg-pythia8/NANOAODSIM/130X_mcRun3_2023_realistic_postBPix_v2-v2/2550000/f02af4cf-8602-4155-b262-a48e62f9c599.root": [
        "T1_US_FNAL_Disk: davs://cmsdcadisk.fnal.gov:2880/dcache/uscmsdisk/store/mc/Run3Summer23BPixNanoAODv12/ttHto2B_M-125_TuneCP5_13p6TeV_powheg-pythia8/NANOAODSIM/130X_mcRun3_2023_realistic_postBPix_v2-v2/2550000/f02af4cf-8602-4155-b262-a48e62f9c599.root",
        "T1_DE_KIT_Tape: davs://cmsdcache-kit-tape.gridka.de:2880/pnfs/gridka.de/cms/tape/store/mc/Run3Summer23BPixNanoAODv12/ttHto2B_M-125_TuneCP5_13p6TeV_powheg-pythia8/NANOAODSIM/130X_mcRun3_2023_realistic_postBPix_v2-v2/2550000/f02af4cf-8602-4155-b262-a48e62f9c599.root",
        "T2_PL_Swierk: davs://se.cis.gov.pl:2880/grid/cms/store/mc/Run3Summer23BPixNanoAODv12/ttHto2B_M-125_TuneCP5_13p6TeV_powheg-pythia8/NANOAODSIM/130X_mcRun3_2023_realistic_postBPix_v2-v2/2550000/f02af4cf-8602-4155-b262-a48e62f9c599.root",
        "T1_ES_PIC_Disk: davs://webdav-cms.pic.es:8459/pnfs/pic.es/data/cms/disk/store/mc/Run3Summer23BPixNanoAODv12/ttHto2B_M-125_TuneCP5_13p6TeV_powheg-pythia8/NANOAODSIM/130X_mcRun3_2023_realistic_postBPix_v2-v2/2550000/f02af4cf-8602-4155-b262-a48e62f9c599.root",
        "T2_US_Wisconsin: davs://cmsxrootd.hep.wisc.edu:1094/store/mc/Run3Summer23BPixNanoAODv12/ttHto2B_M-125_TuneCP5_13p6TeV_powheg-pythia8/NANOAODSIM/130X_mcRun3_2023_realistic_postBPix_v2-v2/2550000/f02af4cf-8602-4155-b262-a48e62f9c599.root",
        "T2_HU_Budapest: davs://grid143.kfki.hu:443/dpm/kfki.hu/home/cms/phedex/store/mc/Run3Summer23BPixNanoAODv12/ttHto2B_M-125_TuneCP5_13p6TeV_powheg-pythia8/NANOAODSIM/130X_mcRun3_2023_realistic_postBPix_v2-v2/2550000/f02af4cf-8602-4155-b262-a48e62f9c599.root",
        "T2_IT_Rome: davs://cmsrm-xrootd01.roma1.infn.it:2880//mc/Run3Summer23BPixNanoAODv12/ttHto2B_M-125_TuneCP5_13p6TeV_powheg-pythia8/NANOAODSIM/130X_mcRun3_2023_realistic_postBPix_v2-v2/2550000/f02af4cf-8602-4155-b262-a48e62f9c599.root"
    ],
    "cms:/store/mc/Run3Summer23BPixNanoAODv12/ttHto2B_M-125_TuneCP5_13p6TeV_powheg-pythia8/NANOAODSIM/130X_mcRun3_2023_realistic_postBPix_v2-v2/2550000/3564cd2b-ff5e-4663-add7-0045372b7cda.root": [
        "T1_US_FNAL_Disk: davs://cmsdcadisk.fnal.gov:2880/dcache/uscmsdisk/store/mc/Run3Summer23BPixNanoAODv12/ttHto2B_M-125_TuneCP5_13p6TeV_powheg-pythia8/NANOAODSIM/130X_mcRun3_2023_realistic_postBPix_v2-v2/2550000/3564cd2b-ff5e-4663-add7-0045372b7cda.root",
        "T1_DE_KIT_Tape: davs://cmsdcache-kit-tape.gridka.de:2880/pnfs/gridka.de/cms/tape/store/mc/Run3Summer23BPixNanoAODv12/ttHto2B_M-125_TuneCP5_13p6TeV_powheg-pythia8/NANOAODSIM/130X_mcRun3_2023_realistic_postBPix_v2-v2/2550000/3564cd2b-ff5e-4663-add7-0045372b7cda.root",
        "T2_PL_Swierk: davs://se.cis.gov.pl:2880/grid/cms/store/mc/Run3Summer23BPixNanoAODv12/ttHto2B_M-125_TuneCP5_13p6TeV_powheg-pythia8/NANOAODSIM/130X_mcRun3_2023_realistic_postBPix_v2-v2/2550000/3564cd2b-ff5e-4663-add7-0045372b7cda.root",
        "T1_ES_PIC_Disk: davs://webdav-cms.pic.es:8459/pnfs/pic.es/data/cms/disk/store/mc/Run3Summer23BPixNanoAODv12/ttHto2B_M-125_TuneCP5_13p6TeV_powheg-pythia8/NANOAODSIM/130X_mcRun3_2023_realistic_postBPix_v2-v2/2550000/3564cd2b-ff5e-4663-add7-0045372b7cda.root",
        "T2_US_Wisconsin: davs://cmsxrootd.hep.wisc.edu:1094/store/mc/Run3Summer23BPixNanoAODv12/ttHto2B_M-125_TuneCP5_13p6TeV_powheg-pythia8/NANOAODSIM/130X_mcRun3_2023_realistic_postBPix_v2-v2/2550000/3564cd2b-ff5e-4663-add7-0045372b7cda.root",
        "T2_HU_Budapest: davs://grid143.kfki.hu:443/dpm/kfki.hu/home/cms/phedex/store/mc/Run3Summer23BPixNanoAODv12/ttHto2B_M-125_TuneCP5_13p6TeV_powheg-pythia8/NANOAODSIM/130X_mcRun3_2023_realistic_postBPix_v2-v2/2550000/3564cd2b-ff5e-4663-add7-0045372b7cda.root",
        "T2_IT_Rome: davs://cmsrm-xrootd01.roma1.infn.it:2880//mc/Run3Summer23BPixNanoAODv12/ttHto2B_M-125_TuneCP5_13p6TeV_powheg-pythia8/NANOAODSIM/130X_mcRun3_2023_realistic_postBPix_v2-v2/2550000/3564cd2b-ff5e-4663-add7-0045372b7cda.root"
    ],
    "cms:/store/mc/Run3Summer23BPixNanoAODv12/ttHto2B_M-125_TuneCP5_13p6TeV_powheg-pythia8/NANOAODSIM/130X_mcRun3_2023_realistic_postBPix_v2-v2/2550000/846006fd-c939-4940-b2ad-8362400be857.root": [
        "T1_US_FNAL_Disk: davs://cmsdcadisk.fnal.gov:2880/dcache/uscmsdisk/store/mc/Run3Summer23BPixNanoAODv12/ttHto2B_M-125_TuneCP5_13p6TeV_powheg-pythia8/NANOAODSIM/130X_mcRun3_2023_realistic_postBPix_v2-v2/2550000/846006fd-c939-4940-b2ad-8362400be857.root",
        "T1_DE_KIT_Tape: davs://cmsdcache-kit-tape.gridka.de:2880/pnfs/gridka.de/cms/tape/store/mc/Run3Summer23BPixNanoAODv12/ttHto2B_M-125_TuneCP5_13p6TeV_powheg-pythia8/NANOAODSIM/130X_mcRun3_2023_realistic_postBPix_v2-v2/2550000/846006fd-c939-4940-b2ad-8362400be857.root",
        "T2_PL_Swierk: davs://se.cis.gov.pl:2880/grid/cms/store/mc/Run3Summer23BPixNanoAODv12/ttHto2B_M-125_TuneCP5_13p6TeV_powheg-pythia8/NANOAODSIM/130X_mcRun3_2023_realistic_postBPix_v2-v2/2550000/846006fd-c939-4940-b2ad-8362400be857.root",
        "T1_ES_PIC_Disk: davs://webdav-cms.pic.es:8459/pnfs/pic.es/data/cms/disk/store/mc/Run3Summer23BPixNanoAODv12/ttHto2B_M-125_TuneCP5_13p6TeV_powheg-pythia8/NANOAODSIM/130X_mcRun3_2023_realistic_postBPix_v2-v2/2550000/846006fd-c939-4940-b2ad-8362400be857.root",
        "T2_US_Wisconsin: davs://cmsxrootd.hep.wisc.edu:1094/store/mc/Run3Summer23BPixNanoAODv12/ttHto2B_M-125_TuneCP5_13p6TeV_powheg-pythia8/NANOAODSIM/130X_mcRun3_2023_realistic_postBPix_v2-v2/2550000/846006fd-c939-4940-b2ad-8362400be857.root",
        "T2_HU_Budapest: davs://grid143.kfki.hu:443/dpm/kfki.hu/home/cms/phedex/store/mc/Run3Summer23BPixNanoAODv12/ttHto2B_M-125_TuneCP5_13p6TeV_powheg-pythia8/NANOAODSIM/130X_mcRun3_2023_realistic_postBPix_v2-v2/2550000/846006fd-c939-4940-b2ad-8362400be857.root",
        "T2_IT_Rome: davs://cmsrm-xrootd01.roma1.infn.it:2880//mc/Run3Summer23BPixNanoAODv12/ttHto2B_M-125_TuneCP5_13p6TeV_powheg-pythia8/NANOAODSIM/130X_mcRun3_2023_realistic_postBPix_v2-v2/2550000/846006fd-c939-4940-b2ad-8362400be857.root"
    ],
    "cms:/store/mc/Run3Summer23BPixNanoAODv12/ttHto2B_M-125_TuneCP5_13p6TeV_powheg-pythia8/NANOAODSIM/130X_mcRun3_2023_realistic_postBPix_v2-v2/2550000/80b701e4-1a41-4fbe-8d75-6feed35191c7.root": [
        "T1_US_FNAL_Disk: davs://cmsdcadisk.fnal.gov:2880/dcache/uscmsdisk/store/mc/Run3Summer23BPixNanoAODv12/ttHto2B_M-125_TuneCP5_13p6TeV_powheg-pythia8/NANOAODSIM/130X_mcRun3_2023_realistic_postBPix_v2-v2/2550000/80b701e4-1a41-4fbe-8d75-6feed35191c7.root",
        "T1_DE_KIT_Tape: davs://cmsdcache-kit-tape.gridka.de:2880/pnfs/gridka.de/cms/tape/store/mc/Run3Summer23BPixNanoAODv12/ttHto2B_M-125_TuneCP5_13p6TeV_powheg-pythia8/NANOAODSIM/130X_mcRun3_2023_realistic_postBPix_v2-v2/2550000/80b701e4-1a41-4fbe-8d75-6feed35191c7.root",
        "T2_PL_Swierk: davs://se.cis.gov.pl:2880/grid/cms/store/mc/Run3Summer23BPixNanoAODv12/ttHto2B_M-125_TuneCP5_13p6TeV_powheg-pythia8/NANOAODSIM/130X_mcRun3_2023_realistic_postBPix_v2-v2/2550000/80b701e4-1a41-4fbe-8d75-6feed35191c7.root",
        "T1_ES_PIC_Disk: davs://webdav-cms.pic.es:8459/pnfs/pic.es/data/cms/disk/store/mc/Run3Summer23BPixNanoAODv12/ttHto2B_M-125_TuneCP5_13p6TeV_powheg-pythia8/NANOAODSIM/130X_mcRun3_2023_realistic_postBPix_v2-v2/2550000/80b701e4-1a41-4fbe-8d75-6feed35191c7.root",
        "T2_US_Wisconsin: davs://cmsxrootd.hep.wisc.edu:1094/store/mc/Run3Summer23BPixNanoAODv12/ttHto2B_M-125_TuneCP5_13p6TeV_powheg-pythia8/NANOAODSIM/130X_mcRun3_2023_realistic_postBPix_v2-v2/2550000/80b701e4-1a41-4fbe-8d75-6feed35191c7.root",
        "T2_HU_Budapest: davs://grid143.kfki.hu:443/dpm/kfki.hu/home/cms/phedex/store/mc/Run3Summer23BPixNanoAODv12/ttHto2B_M-125_TuneCP5_13p6TeV_powheg-pythia8/NANOAODSIM/130X_mcRun3_2023_realistic_postBPix_v2-v2/2550000/80b701e4-1a41-4fbe-8d75-6feed35191c7.root",
        "T2_IT_Rome: davs://cmsrm-xrootd01.roma1.infn.it:2880//mc/Run3Summer23BPixNanoAODv12/ttHto2B_M-125_TuneCP5_13p6TeV_powheg-pythia8/NANOAODSIM/130X_mcRun3_2023_realistic_postBPix_v2-v2/2550000/80b701e4-1a41-4fbe-8d75-6feed35191c7.root"
    ],
    "cms:/store/mc/Run3Summer23BPixNanoAODv12/ttHto2B_M-125_TuneCP5_13p6TeV_powheg-pythia8/NANOAODSIM/130X_mcRun3_2023_realistic_postBPix_v2-v2/2550000/01ec75b9-db4a-49f6-84be-6f2286328064.root": [
        "T1_US_FNAL_Disk: davs://cmsdcadisk.fnal.gov:2880/dcache/uscmsdisk/store/mc/Run3Summer23BPixNanoAODv12/ttHto2B_M-125_TuneCP5_13p6TeV_powheg-pythia8/NANOAODSIM/130X_mcRun3_2023_realistic_postBPix_v2-v2/2550000/01ec75b9-db4a-49f6-84be-6f2286328064.root",
        "T1_DE_KIT_Tape: davs://cmsdcache-kit-tape.gridka.de:2880/pnfs/gridka.de/cms/tape/store/mc/Run3Summer23BPixNanoAODv12/ttHto2B_M-125_TuneCP5_13p6TeV_powheg-pythia8/NANOAODSIM/130X_mcRun3_2023_realistic_postBPix_v2-v2/2550000/01ec75b9-db4a-49f6-84be-6f2286328064.root",
        "T2_PL_Swierk: davs://se.cis.gov.pl:2880/grid/cms/store/mc/Run3Summer23BPixNanoAODv12/ttHto2B_M-125_TuneCP5_13p6TeV_powheg-pythia8/NANOAODSIM/130X_mcRun3_2023_realistic_postBPix_v2-v2/2550000/01ec75b9-db4a-49f6-84be-6f2286328064.root",
        "T1_ES_PIC_Disk: davs://webdav-cms.pic.es:8459/pnfs/pic.es/data/cms/disk/store/mc/Run3Summer23BPixNanoAODv12/ttHto2B_M-125_TuneCP5_13p6TeV_powheg-pythia8/NANOAODSIM/130X_mcRun3_2023_realistic_postBPix_v2-v2/2550000/01ec75b9-db4a-49f6-84be-6f2286328064.root",
        "T2_US_Wisconsin: davs://cmsxrootd.hep.wisc.edu:1094/store/mc/Run3Summer23BPixNanoAODv12/ttHto2B_M-125_TuneCP5_13p6TeV_powheg-pythia8/NANOAODSIM/130X_mcRun3_2023_realistic_postBPix_v2-v2/2550000/01ec75b9-db4a-49f6-84be-6f2286328064.root",
        "T2_HU_Budapest: davs://grid143.kfki.hu:443/dpm/kfki.hu/home/cms/phedex/store/mc/Run3Summer23BPixNanoAODv12/ttHto2B_M-125_TuneCP5_13p6TeV_powheg-pythia8/NANOAODSIM/130X_mcRun3_2023_realistic_postBPix_v2-v2/2550000/01ec75b9-db4a-49f6-84be-6f2286328064.root",
        "T2_IT_Rome: davs://cmsrm-xrootd01.roma1.infn.it:2880//mc/Run3Summer23BPixNanoAODv12/ttHto2B_M-125_TuneCP5_13p6TeV_powheg-pythia8/NANOAODSIM/130X_mcRun3_2023_realistic_postBPix_v2-v2/2550000/01ec75b9-db4a-49f6-84be-6f2286328064.root"
    ],
    "cms:/store/mc/Run3Summer23BPixNanoAODv12/ttHto2B_M-125_TuneCP5_13p6TeV_powheg-pythia8/NANOAODSIM/130X_mcRun3_2023_realistic_postBPix_v2-v2/2550000/12eeeb38-54c5-494c-bb4a-ccdd55ca4a44.root": [
        "T1_US_FNAL_Disk: davs://cmsdcadisk.fnal.gov:2880/dcache/uscmsdisk/store/mc/Run3Summer23BPixNanoAODv12/ttHto2B_M-125_TuneCP5_13p6TeV_powheg-pythia8/NANOAODSIM/130X_mcRun3_2023_realistic_postBPix_v2-v2/2550000/12eeeb38-54c5-494c-bb4a-ccdd55ca4a44.root",
        "T1_DE_KIT_Tape: davs://cmsdcache-kit-tape.gridka.de:2880/pnfs/gridka.de/cms/tape/store/mc/Run3Summer23BPixNanoAODv12/ttHto2B_M-125_TuneCP5_13p6TeV_powheg-pythia8/NANOAODSIM/130X_mcRun3_2023_realistic_postBPix_v2-v2/2550000/12eeeb38-54c5-494c-bb4a-ccdd55ca4a44.root",
        "T2_PL_Swierk: davs://se.cis.gov.pl:2880/grid/cms/store/mc/Run3Summer23BPixNanoAODv12/ttHto2B_M-125_TuneCP5_13p6TeV_powheg-pythia8/NANOAODSIM/130X_mcRun3_2023_realistic_postBPix_v2-v2/2550000/12eeeb38-54c5-494c-bb4a-ccdd55ca4a44.root",
        "T1_ES_PIC_Disk: davs://webdav-cms.pic.es:8459/pnfs/pic.es/data/cms/disk/store/mc/Run3Summer23BPixNanoAODv12/ttHto2B_M-125_TuneCP5_13p6TeV_powheg-pythia8/NANOAODSIM/130X_mcRun3_2023_realistic_postBPix_v2-v2/2550000/12eeeb38-54c5-494c-bb4a-ccdd55ca4a44.root",
        "T2_US_Wisconsin: davs://cmsxrootd.hep.wisc.edu:1094/store/mc/Run3Summer23BPixNanoAODv12/ttHto2B_M-125_TuneCP5_13p6TeV_powheg-pythia8/NANOAODSIM/130X_mcRun3_2023_realistic_postBPix_v2-v2/2550000/12eeeb38-54c5-494c-bb4a-ccdd55ca4a44.root",
        "T2_HU_Budapest: davs://grid143.kfki.hu:443/dpm/kfki.hu/home/cms/phedex/store/mc/Run3Summer23BPixNanoAODv12/ttHto2B_M-125_TuneCP5_13p6TeV_powheg-pythia8/NANOAODSIM/130X_mcRun3_2023_realistic_postBPix_v2-v2/2550000/12eeeb38-54c5-494c-bb4a-ccdd55ca4a44.root",
        "T2_IT_Rome: davs://cmsrm-xrootd01.roma1.infn.it:2880//mc/Run3Summer23BPixNanoAODv12/ttHto2B_M-125_TuneCP5_13p6TeV_powheg-pythia8/NANOAODSIM/130X_mcRun3_2023_realistic_postBPix_v2-v2/2550000/12eeeb38-54c5-494c-bb4a-ccdd55ca4a44.root"
    ],
    "cms:/store/mc/Run3Summer23BPixNanoAODv12/ttHto2B_M-125_TuneCP5_13p6TeV_powheg-pythia8/NANOAODSIM/130X_mcRun3_2023_realistic_postBPix_v2-v2/2550000/e8f734ff-03b6-49a0-a0c4-b4552bf12b88.root": [
        "T1_US_FNAL_Disk: davs://cmsdcadisk.fnal.gov:2880/dcache/uscmsdisk/store/mc/Run3Summer23BPixNanoAODv12/ttHto2B_M-125_TuneCP5_13p6TeV_powheg-pythia8/NANOAODSIM/130X_mcRun3_2023_realistic_postBPix_v2-v2/2550000/e8f734ff-03b6-49a0-a0c4-b4552bf12b88.root",
        "T1_DE_KIT_Tape: davs://cmsdcache-kit-tape.gridka.de:2880/pnfs/gridka.de/cms/tape/store/mc/Run3Summer23BPixNanoAODv12/ttHto2B_M-125_TuneCP5_13p6TeV_powheg-pythia8/NANOAODSIM/130X_mcRun3_2023_realistic_postBPix_v2-v2/2550000/e8f734ff-03b6-49a0-a0c4-b4552bf12b88.root",
        "T2_PL_Swierk: davs://se.cis.gov.pl:2880/grid/cms/store/mc/Run3Summer23BPixNanoAODv12/ttHto2B_M-125_TuneCP5_13p6TeV_powheg-pythia8/NANOAODSIM/130X_mcRun3_2023_realistic_postBPix_v2-v2/2550000/e8f734ff-03b6-49a0-a0c4-b4552bf12b88.root",
        "T1_ES_PIC_Disk: davs://webdav-cms.pic.es:8459/pnfs/pic.es/data/cms/disk/store/mc/Run3Summer23BPixNanoAODv12/ttHto2B_M-125_TuneCP5_13p6TeV_powheg-pythia8/NANOAODSIM/130X_mcRun3_2023_realistic_postBPix_v2-v2/2550000/e8f734ff-03b6-49a0-a0c4-b4552bf12b88.root",
        "T2_US_Wisconsin: davs://cmsxrootd.hep.wisc.edu:1094/store/mc/Run3Summer23BPixNanoAODv12/ttHto2B_M-125_TuneCP5_13p6TeV_powheg-pythia8/NANOAODSIM/130X_mcRun3_2023_realistic_postBPix_v2-v2/2550000/e8f734ff-03b6-49a0-a0c4-b4552bf12b88.root",
        "T2_HU_Budapest: davs://grid143.kfki.hu:443/dpm/kfki.hu/home/cms/phedex/store/mc/Run3Summer23BPixNanoAODv12/ttHto2B_M-125_TuneCP5_13p6TeV_powheg-pythia8/NANOAODSIM/130X_mcRun3_2023_realistic_postBPix_v2-v2/2550000/e8f734ff-03b6-49a0-a0c4-b4552bf12b88.root",
        "T2_IT_Rome: davs://cmsrm-xrootd01.roma1.infn.it:2880//mc/Run3Summer23BPixNanoAODv12/ttHto2B_M-125_TuneCP5_13p6TeV_powheg-pythia8/NANOAODSIM/130X_mcRun3_2023_realistic_postBPix_v2-v2/2550000/e8f734ff-03b6-49a0-a0c4-b4552bf12b88.root"
    ]
}