+----------------------------------------------------------------------------------------------------------------------------------------------------------------------------------+--------+-------------+------------+----------+
| SCOPE:NAME                                                                                                                                                                       | GUID   | ADLER32     | FILESIZE   | EVENTS   |
|----------------------------------------------------------------------------------------------------------------------------------------------------------------------------------+--------+-------------+------------+----------|
| cms:/store/mc/Run3Summer23NanoAODv12/ttHto2B_M-125_TuneCP5_13p6TeV_powheg-pythia8/NANOAODSIM/130X_mcRun3_2023_realistic_v14-v2/2560000/6f7904a4-91df-43dc-a4f1-6ea26fc6c80e.root | (None) | ad:4be739c7 | 295.199 MB |          |
| cms:/store/mc/Run3Summer23NanoAODv12/ttHto2B_M-125_TuneCP5_13p6TeV_powheg-pythia8/NANOAODSIM/130X_mcRun3_2023_realistic_v14-v2/2560000/62ccdd5d-8a02-490a-a6c8-dee8d433d211.root | (None) | ad:507045a9 | 41.030 MB  |          |
| cms:/store/mc/Run3Summer23NanoAODv12/ttHto2B_M-125_TuneCP5_13p6TeV_powheg-pythia8/NANOAODSIM/130X_mcRun3_2023_realistic_v14-v2/2560000/2866d565-7fea-40fa-a59d-41576b5c2f10.root | (None) | ad:b951e344 | 31.657 MB  |          |
| cms:/store/mc/Run3Summer23NanoAODv12/ttHto2B_M-125_TuneCP5_13p6TeV_powheg-pythia8/NANOAODSIM/130X_mcRun3_2023_realistic_v14-v2/2560000/03b33c80-42fe-4c76-8c8a-278470e42034.root | (None) | ad:725caed1 | 41.155 MB  |          |
| cms:/store/mc/Run3Summer23NanoAODv12/ttHto2B_M-125_TuneCP5_13p6TeV_powheg-pythia8/NANOAODSIM/130X_mcRun3_2023_realistic_v14-v2/2560000/e6266a6f-d1cb-4408-b813-c839ebc8cf6a.root | (None) | ad:80e0907a | 12.952 MB  |          |
| cms:/store/mc/Run3Summer23NanoAODv12/ttHto2B_M-125_TuneCP5_13p6TeV_powheg-pythia8/NANOAODSIM/130X_mcRun3_2023_realistic_v14-v2/2560000/c4d10631-3766-4c0a-b946-4dddad932b00.root | (None) | ad:64c88e33 | 698.631 MB |          |
| cms:/store/mc/Run3Summer23NanoAODv12/ttHto2B_M-125_TuneCP5_13p6TeV_powheg-pythia8/NANOAODSIM/130X_mcRun3_2023_realistic_v14-v2/2560000/28395027-732c-43bb-b8f7-408279ef85e9.root | (None) | ad:b3622c72 | 134.889 MB |          |
| cms:/store/mc/Run3Summer23NanoAODv12/ttHto2B_M-125_TuneCP5_13p6TeV_powheg-pythia8/NANOAODSIM/130X_mcRun3_2023_realistic_v14-v2/2560000/f65d5f0a-3671-4abc-8c0d-202f2cf18e84.root | (None) | ad:fedb52e0 | 708.706 MB |          |
| cms:/store/mc/Run3Summer23NanoAODv12/ttHto2B_M-125_TuneCP5_13p6TeV_powheg-pythia8/NANOAODSIM/130X_mcRun3_2023_realistic_v14-v2/2560000/3861757a-73fc-4009-86e2-bb6289d5340f.root | (None) | ad:b1dc9824 | 708.910 MB |          |
| cms:/store/mc/Run3Summer23NanoAODv12/ttHto2B_M-125_TuneCP5_13p6TeV_powheg-pythia8/NANOAODSIM/130X_mcRun3_2023_realistic_v14-v2/2560000/d8789829-efee-4af2-938a-2152e0d9159a.root | (None) | ad:1e0764bd | 87.981 MB  |          |
| cms:/store/mc/Run3Summer23NanoAODv12/ttHto2B_M-125_TuneCP5_13p6TeV_powheg-pythia8/NANOAODSIM/130X_mcRun3_2023_realistic_v14-v2/2560000/7e52177a-7592-43ea-bf17-75995e4ff5b7.root | (None) | ad:9b2b2532 | 229.284 MB |          |
| cms:/store/mc/Run3Summer23NanoAODv12/ttHto2B_M-125_TuneCP5_13p6TeV_powheg-pythia8/NANOAODSIM/130X_mcRun3_2023_realistic_v14-v2/2560000/3ab614eb-0c4b-4c88-8c50-09767403b545.root | (None) | ad:c865caee | 219.695 MB |          |
| cms:/store/mc/Run3Summer23NanoAODv12/ttHto2B_M-125_TuneCP5_13p6TeV_powheg-pythia8/NANOAODSIM/130X_mcRun3_2023_realistic_v14-v2/2560000/c52456e2-bdd7-4c93-9619-d2ca8bbe7086.root | (None) | ad:b39e7266 | 709.063 MB |          |
| cms:/store/mc/Run3Summer23NanoAODv12/ttHto2B_M-125_TuneCP5_13p6TeV_powheg-pythia8/NANOAODSIM/130X_mcRun3_2023_realistic_v14-v2/2560000/0cc1c5fb-6f22-4763-8d4b-ac59c0ad6d46.root | (None) | ad:63de8c3e | 202.958 MB |          |
| cms:/store/mc/Run3Summer23NanoAODv12/ttHto2B_M-125_TuneCP5_13p6TeV_powheg-pythia8/NANOAODSIM/130X_mcRun3_2023_realistic_v14-v2/2560000/47d139a2-fc2a-451c-8a2f-a2077b2a3bc4.root | (None) | ad:e0261bb0 | 709.841 MB |          |
| cms:/store/mc/Run3Summer23NanoAODv12/ttHto2B_M-125_TuneCP5_13p6TeV_powheg-pythia8/NANOAODSIM/130X_mcRun3_2023_realistic_v14-v2/2560000/4aaaa10e-1e1f-4f3d-b1eb-4d73154ceaf9.root | (None) | ad:e34dae26 | 417.396 MB |          |
| cms:/store/mc/Run3Summer23NanoAODv12/ttHto2B_M-125_TuneCP5_13p6TeV_powheg-pythia8/NANOAODSIM/130X_mcRun3_2023_realistic_v14-v2/2560000/cb5dae34-32f1-44cf-a9ac-f5c9bae84dfa.root | (None) | ad:d51fbd24 | 78.650 MB  |          |
| cms:/store/mc/Run3Summer23NanoAODv12/ttHto2B_M-125_TuneCP5_13p6TeV_powheg-pythia8/NANOAODSIM/130X_mcRun3_2023_realistic_v14-v2/2560000/d7537c7b-2990-4729-a2ba-97198cd2857d.root | (None) | ad:4f947b3b | 502.063 MB |          |
| cms:/store/mc/Run3Summer23NanoAODv12/ttHto2B_M-125_TuneCP5_13p6TeV_powheg-pythia8/NANOAODSIM/130X_mcRun3_2023_realistic_v14-v2/2560000/ede4787e-60e0-44ad-ac2b-ef4e0e350371.root | (None) | ad:2a16d208 | 749.753 MB |          |
| cms:/store/mc/Run3Summer23NanoAODv12/ttHto2B_M-125_TuneCP5_13p6TeV_powheg-pythia8/NANOAODSIM/130X_mcRun3_2023_realistic_v14-v2/2560000/a9a8a70c-a2cf-40c1-ac5e-1b1d660cdf91.root | (None) | ad:1c76a240 | 125.439 MB |          |
| cms:/store/mc/Run3Summer23NanoAODv12/ttHto2B_M-125_TuneCP5_13p6TeV_powheg-pythia8/NANOAODSIM/130X_mcRun3_2023_realistic_v14-v2/2560000/9178c802-3516-427b-a922-16cb43a8d9a8.root | (None) | ad:4566ff38 | 717.326 MB |          |
| cms:/store/mc/Run3Summer23NanoAODv12/ttHto2B_M-125_TuneCP5_13p6TeV_powheg-pythia8/NANOAODSIM/130X_mcRun3_2023_realistic_v14-v2/2560000/f309ed4c-23d6-472d-8030-4eb87615bb0d.root | (None) | ad:2be2cfea | 633.076 MB |          |
| cms:/store/mc/Run3Summer23NanoAODv12/ttHto2B_M-125_TuneCP5_13p6TeV_powheg-pythia8/NANOAODSIM/130X_mcRun3_2023_realistic_v14-v2/2560000/1744a1ed-277b-4b9d-ab36-2912c1c0f8e7.root | (None) | ad:95faa130 | 313.641 MB |          |
| cms:/store/mc/Run3Summer23NanoAODv12/ttHto2B_M-125_TuneCP5_13p6TeV_powheg-pythia8/NANOAODSIM/130X_mcRun3_2023_realistic_v14-v2/2560000/46931074-4d3b-43db-8dc4-f2a8c2db7912.root | (None) | ad:48232a2d | 708.002 MB |          |
| cms:/store/mc/Run3Summer23NanoAODv12/ttHto2B_M-125_TuneCP5_13p6TeV_powheg-pythia8/NANOAODSIM/130X_mcRun3_2023_realistic_v14-v2/2560000/56b02ce9-d1ca-47e1-b121-6282bec1bb76.root | (None) | ad:6f2b1dbe | 12.885 MB  |          |
| cms:/store/mc/Run3Summer23NanoAODv12/ttHto2B_M-125_TuneCP5_13p6TeV_powheg-pythia8/NANOAODSIM/130X_mcRun3_2023_realistic_v14-v2/2560000/60ed01de-d8ac-4dc0-a2cd-a1a85e4d7c1e.root | (None) | ad:11aeb8d5 | 727.942 MB |          |
| cms:/store/mc/Run3Summer23NanoAODv12/ttHto2B_M-125_TuneCP5_13p6TeV_powheg-pythia8/NANOAODSIM/130X_mcRun3_2023_realistic_v14-v2/2560000/dab55322-4219-453a-aacb-aec75b6ffb36.root | (None) | ad:aacbdde0 | 708.956 MB |          |
| cms:/store/mc/Run3Summer23NanoAODv12/ttHto2B_M-125_TuneCP5_13p6TeV_powheg-pythia8/NANOAODSIM/130X_mcRun3_2023_realistic_v14-v2/2560000/c910659f-a07d-4a6b-9574-378044678b28.root | (None) | ad:2a8eb254 | 670.928 MB |          |
| cms:/store/mc/Run3Summer23NanoAODv12/ttHto2B_M-125_TuneCP5_13p6TeV_powheg-pythia8/NANOAODSIM/130X_mcRun3_2023_realistic_v14-v2/2560000/48495d10-69fd-4337-bece-c14e2df6a74e.root | (None) | ad:4547b8e4 | 717.722 MB |          |
| cms:/store/mc/Run3Summer23NanoAODv12/ttHto2B_M-125_TuneCP5_13p6TeV_powheg-pythia8/NANOAODSIM/130X_mcRun3_2023_realistic_v14-v2/2560000/5245581d-3dda-4448-8896-2b1dfaa65580.root | (None) | ad:227de4a2 | 567.485 MB |          |
| cms:/store/mc/Run3Summer23NanoAODv12/ttHto2B_M-125_TuneCP5_13p6TeV_powheg-pythia8/NANOAODSIM/130X_mcRun3_2023_realistic_v14-v2/2560000/a6bae4cf-1a4e-4feb-9907-5c5c74935367.root | (None) | ad:af2cb8f7 | 12.953 MB  |          |
| cms:/store/mc/Run3Summer23NanoAODv12/ttHto2B_M-125_TuneCP5_13p6TeV_powheg-pythia8/NANOAODSIM/130X_mcRun3_2023_realistic_v14-v2/2560000/7281c78f-bb58-4067-9e85-36a907c1a5bf.root | (None) | ad:2efeb748 | 332.710 MB |          |
| cms:/store/mc/Run3Summer23NanoAODv12/ttHto2B_M-125_TuneCP5_13p6TeV_powheg-pythia8/NANOAODSIM/130X_mcRun3_2023_realistic_v14-v2/2560000/385f00a5-364b-4cf3-b77c-1fa04a414af7.root | (None) | ad:5248ff54 | 680.369 MB |          |
| cms:/store/mc/Run3Summer23NanoAODv12/ttHto2B_M-125_TuneCP5_13p6TeV_powheg-pythia8/NANOAODSIM/130X_mcRun3_2023_realistic_v14-v2/2560000/a5e11be8-9ee3-4bff-8707-e30598487e5b.root | (None) | ad:d2b27c98 | 407.925 MB |          |
| cms:/store/mc/Run3Summer23NanoAODv12/ttHto2B_M-125_TuneCP5_13p6TeV_powheg-pythia8/NANOAODSIM/130X_mcRun3_2023_realistic_v14-v2/2560000/c87644ea-c2d5-4ff1-a6e3-be6f41ec99e3.root | (None) | ad:6a7a42c3 | 31.682 MB  |          |
| cms:/store/mc/Run3Summer23NanoAODv12/ttHto2B_M-125_TuneCP5_13p6TeV_powheg-pythia8/NANOAODSIM/130X_mcRun3_2023_realistic_v14-v2/2560000/7f03b6be-90a9-4a07-bc2c-c149f15ba168.root | (None) | ad:3bf764e4 | 69.220 MB  |          |
| cms:/store/mc/Run3Summer23NanoAODv12/ttHto2B_M-125_TuneCP5_13p6TeV_powheg-pythia8/NANOAODSIM/130X_mcRun3_2023_realistic_v14-v2/2560000/9e6974e5-c7f8-48f7-948c-9c3e65f4ae4b.root | (None) | ad:dc672e6c | 642.825 MB |          |
| cms:/store/mc/Run3Summer23NanoAODv12/ttHto2B_M-125_TuneCP5_13p6TeV_powheg-pythia8/NANOAODSIM/130X_mcRun3_2023_realistic_v14-v2/2560000/0c280a93-a9f7-4e07-847b-232fd79e2db7.root | (None) | ad:eac182d5 | 473.478 MB |          |
| cms:/store/mc/Run3Summer23NanoAODv12/ttHto2B_M-125_TuneCP5_13p6TeV_powheg-pythia8/NANOAODSIM/130X_mcRun3_2023_realistic_v14-v2/2560000/713c2cfd-59f0-4a76-92d2-2ade598b611e.root | (None) | ad:1846f7f7 | 708.999 MB |          |
| cms:/store/mc/Run3Summer23NanoAODv12/ttHto2B_M-125_TuneCP5_13p6TeV_powheg-pythia8/NANOAODSIM/130X_mcRun3_2023_realistic_v14-v2/2560000/cf95e9f2-998d-442a-8417-71c449575f36.root | (None) | ad:d64ea483 | 313.994 MB |          |
| cms:/store/mc/Run3Summer23NanoAODv12/ttHto2B_M-125_TuneCP5_13p6TeV_powheg-pythia8/NANOAODSIM/130X_mcRun3_2023_realistic_v14-v2/2560000/4741d749-a63d-498a-b478-80bb8dffe607.root | (None) | ad:91e62b40 | 182.045 MB |          |
+----------------------------------------------------------------------------------------------------------------------------------------------------------------------------------+--------+-------------+------------+----------+
Total files : 41
Total size : 16.339 GB
