+-----------------------------------------------------------------------------------------------------------------------------------------------------------------------------------+--------+-------------+------------+----------+
| SCOPE:NAME                                                                                                                                                                        | GUID   | ADLER32     | FILESIZE   | EVENTS   |
|-----------------------------------------------------------------------------------------------------------------------------------------------------------------------------------+--------+-------------+------------+----------|
| cms:/store/mc/Run3Summer22EENanoAODv12/TTto4Q_TuneCP5_13p6TeV_powheg-pythia8/NANOAODSIM/130X_mcRun3_2022_realistic_postEE_v6-v2/2540000/03f456cc-413f-44bb-9f30-4497dd61f2ce.root | (None) | ad:bcdfacbf | 193.230 MB |          |
| cms:/store/mc/Run3Summer22EENanoAODv12/TTto4Q_TuneCP5_13p6TeV_powheg-pythia8/NANOAODSIM/130X_mcRun3_2022_realistic_postEE_v6-v2/2540000/58a93b85-d5cb-4689-be4f-6a1e4c935838.root | (None) | ad:e47e67de | 1.759 GB   |          |
| cms:/store/mc/Run3Summer22EENanoAODv12/TTto4Q_TuneCP5_13p6TeV_powheg-pythia8/NANOAODSIM/130X_mcRun3_2022_realistic_postEE_v6-v2/2540000/c7f7d384-945a-4fd6-914e-14f9e3785995.root | (None) | ad:46ead38c | 2.140 GB   |          |
| cms:/store/mc/Run3Summer22EENanoAODv12/TTto4Q_TuneCP5_13p6TeV_powheg-pythia8/NANOAODSIM/130X_mcRun3_2022_realistic_postEE_v6-v2/2540000/d7644031-bc60-461e-806d-ec999a0b9dde.root | (None) | ad:00912e7f | 1.133 GB   |          |
| cms:/store/mc/Run3Summer22EENanoAODv12/TTto4Q_TuneCP5_13p6TeV_powheg-pythia8/NANOAODSIM/130X_mcRun3_2022_realistic_postEE_v6-v2/2540000/ea04ff55-4fb5-452c-bc44-b7a3c9d4f824.root | (None) | ad:0654dff9 | 1.237 GB   |          |
| cms:/store/mc/Run3Summer22EENanoAODv12/TTto4Q_TuneCP5_13p6TeV_powheg-pythia8/NANOAODSIM/130X_mcRun3_2022_realistic_postEE_v6-v2/40000/7d9c24e9-a47c-4baa-9d44-82bd52e78701.root   | (None) | ad:550485e2 | 50.590 MB  |          |
| cms:/store/mc/Run3Summer22EENanoAODv12/TTto4Q_TuneCP5_13p6TeV_powheg-pythia8/NANOAODSIM/130X_mcRun3_2022_realistic_postEE_v6-v2/50000/3f2d51cb-a382-493e-a6e0-1f17500398cd.root   | (None) | ad:796ab073 | 2.330 GB   |          |
| cms:/store/mc/Run3Summer22EENanoAODv12/TTto4Q_TuneCP5_13p6TeV_powheg-pythia8/NANOAODSIM/130X_mcRun3_2022_realistic_postEE_v6-v2/50000/49127cd2-5ddd-4781-9f98-9fa600678299.root   | (None) | ad:e9ff37f3 | 2.328 GB   |          |
| cms:/store/mc/Run3Summer22EENanoAODv12/TTto4Q_TuneCP5_13p6TeV_powheg-pythia8/NANOAODSIM/130X_mcRun3_2022_realistic_postEE_v6-v2/50000/5b2b31ef-edff-45bf-ad07-44d44bfa58a4.root   | (None) | ad:1d480074 | 2.327 GB   |          |
| cms:/store/mc/Run3Summer22EENanoAODv12/TTto4Q_TuneCP5_13p6TeV_powheg-pythia8/NANOAODSIM/130X_mcRun3_2022_realistic_postEE_v6-v2/50000/5d5463f0-47fa-4ab1-a6de-65804fee4cee.root   | (None) | ad:d46b17aa | 2.328 GB   |          |
| cms:/store/mc/Run3Summer22EENanoAODv12/TTto4Q_TuneCP5_13p6TeV_powheg-pythia8/NANOAODSIM/130X_mcRun3_2022_realistic_postEE_v6-v2/50000/731ad689-8f75-409e-9e84-21bdf4899b2b.root   | (None) | ad:beed63b4 | 2.331 GB   |          |
| cms:/store/mc/Run3Summer22EENanoAODv12/TTto4Q_TuneCP5_13p6TeV_powheg-pythia8/NANOAODSIM/130X_mcRun3_2022_realistic_postEE_v6-v2/50000/8d0b75f0-cb18-44f6-99bf-f4cf33769628.root   | (None) | ad:c8ce0093 | 969.616 MB |          |
| cms:/store/mc/Run3Summer22EENanoAODv12/TTto4Q_TuneCP5_13p6TeV_powheg-pythia8/NANOAODSIM/130X_mcRun3_2022_realistic_postEE_v6-v2/50000/900f46d8-71df-4d34-93f4-f19098f13e8e.root   | (None) | ad:134e7552 | 2.329 GB   |          |
| cms:/store/mc/Run3Summer22EENanoAODv12/TTto4Q_TuneCP5_13p6TeV_powheg-pythia8/NANOAODSIM/130X_mcRun3_2022_realistic_postEE_v6-v2/50000/a2185168-296d-4a83-b03b-c5857c269aa3.root   | (None) | ad:1fec5e9d | 2.329 GB   |          |
| cms:/store/mc/Run3Summer22EENanoAODv12/TTto4Q_TuneCP5_13p6TeV_powheg-pythia8/NANOAODSIM/130X_mcRun3_2022_realistic_postEE_v6-v2/50000/aba68f5d-8a6b-4f5f-a5f4-1e8bd89189fe.root   | (None) | ad:d2265c30 | 2.329 GB   |          |
| cms:/store/mc/Run3Summer22EENanoAODv12/TTto4Q_TuneCP5_13p6TeV_powheg-pythia8/NANOAODSIM/130X_mcRun3_2022_realistic_postEE_v6-v2/50000/d363c7ae-878e-44f6-bd59-ff59ea4fec14.root   | (None) | ad:5112edcc | 2.325 GB   |          |
| cms:/store/mc/Run3Summer22EENanoAODv12/TTto4Q_TuneCP5_13p6TeV_powheg-pythia8/NANOAODSIM/130X_mcRun3_2022_realistic_postEE_v6-v2/50000/d73d8055-f5af-4a10-8de9-c00da23436d6.root   | (None) | ad:c51217d7 | 2.076 GB   |          |
| cms:/store/mc/Run3Summer22EENanoAODv12/TTto4Q_TuneCP5_13p6TeV_powheg-pythia8/NANOAODSIM/130X_mcRun3_2022_realistic_postEE_v6-v2/50000/da5cffc0-bc5d-455d-8c48-01da79eb62ec.root   | (None) | ad:2323e01a | 2.327 GB   |          |
| cms:/store/mc/Run3Summer22EENanoAODv12/TTto4Q_TuneCP5_13p6TeV_powheg-pythia8/NANOAODSIM/130X_mcRun3_2022_realistic_postEE_v6-v2/50000/efe78853-543f-464e-b65e-03b91f27c716.root   | (None) | ad:1b5fe5ca | 2.303 GB   |          |
| cms:/store/mc/Run3Summer22EENanoAODv12/TTto4Q_TuneCP5_13p6TeV_powheg-pythia8/NANOAODSIM/130X_mcRun3_2022_realistic_postEE_v6-v2/50000/fba1cbfc-446e-456f-9468-cd8da0d456a7.root   | (None) | ad:631cbd21 | 2.331 GB   |          |
| cms:/store/mc/Run3Summer22EENanoAODv12/TTto4Q_TuneCP5_13p6TeV_powheg-pythia8/NANOAODSIM/130X_mcRun3_2022_realistic_postEE_v6-v2/50000/0fc359a3-e542-4c3e-86bd-c9208cf0e0fa.root   | (None) | ad:3ae92eb8 | 2.330 GB   |          |
| cms:/store/mc/Run3Summer22EENanoAODv12/TTto4Q_TuneCP5_13p6TeV_powheg-pythia8/NANOAODSIM/130X_mcRun3_2022_realistic_postEE_v6-v2/50000/1c685375-312e-407c-8617-935feb94e5ac.root   | (None) | ad:b75001ee | 2.303 GB   |          |
| cms:/store/mc/Run3Summer22EENanoAODv12/TTto4Q_TuneCP5_13p6TeV_powheg-pythia8/NANOAODSIM/130X_mcRun3_2022_realistic_postEE_v6-v2/50000/35abdfd9-cedf-407c-b32c-0ec18a49a17e.root   | (None) | ad:aa779110 | 2.328 GB   |          |
| cms:/store/mc/Run3Summer22EENanoAODv12/TTto4Q_TuneCP5_13p6TeV_powheg-pythia8/NANOAODSIM/130X_mcRun3_2022_realistic_postEE_v6-v2/50000/6f8af984-71f2-4f02-9a73-53cd5ecddb85.root   | (None) | ad:6dbfdc7f | 2.328 GB   |          |
| cms:/store/mc/Run3Summer22EENanoAODv12/TTto4Q_TuneCP5_13p6TeV_powheg-pythia8/NANOAODSIM/130X_mcRun3_2022_realistic_postEE_v6-v2/50000/c06b3dee-8926-4a4b-b329-26027a84bb1a.root   | (None) | ad:907312b3 | 2.331 GB   |          |
| cms:/store/mc/Run3Summer22EENanoAODv12/TTto4Q_TuneCP5_13p6TeV_powheg-pythia8/NANOAODSIM/130X_mcRun3_2022_realistic_postEE_v6-v2/50000/d5db152c-cc92-40a6-8956-af7a240d0d9d.root   | (None) | ad:bb797a20 | 2.067 GB   |          |
| cms:/store/mc/Run3Summer22EENanoAODv12/TTto4Q_TuneCP5_13p6TeV_powheg-pythia8/NANOAODSIM/130X_mcRun3_2022_realistic_postEE_v6-v2/2540000/ad6bc8bd-b21c-4bce-9d85-44f78e8bf24f.root | (None) | ad:70ea79f6 | 1.314 GB   |          |
| cms:/store/mc/Run3Summer22EENanoAODv12/TTto4Q_TuneCP5_13p6TeV_powheg-pythia8/NANOAODSIM/130X_mcRun3_2022_realistic_postEE_v6-v2/2540000/72dc8094-0d4f-47c5-8904-abfd53050862.root | (None) | ad:efd5a878 | 1.173 GB   |          |
| cms:/store/mc/Run3Summer22EENanoAODv12/TTto4Q_TuneCP5_13p6TeV_powheg-pythia8/NANOAODSIM/130X_mcRun3_2022_realistic_postEE_v6-v2/2540000/c9d4eb56-58ca-4770-98ad-8d5e76c2b1b5.root | (None) | ad:b1cc4b43 | 382.766 MB |          |
| cms:/store/mc/Run3Summer22EENanoAODv12/TTto4Q_TuneCP5_13p6TeV_powheg-pythia8/NANOAODSIM/130X_mcRun3_2022_realistic_postEE_v6-v2/50000/201e7760-da6b-4577-a8a5-bc186e5be8e5.root   | (None) | ad:64d0b49a | 739.271 MB |          |
| cms:/store/mc/Run3Summer22EENanoAODv12/TTto4Q_TuneCP5_13p6TeV_powheg-pythia8/NANOAODSIM/130X_mcRun3_2022_realistic_postEE_v6-v2/50000/352fa864-1816-4816-841d-b18b03861861.root   | (None) | ad:92897339 | 1.334 GB   |          |
| cms:/store/mc/Run3Summer22EENanoAODv12/TTto4Q_TuneCP5_13p6TeV_powheg-pythia8/NANOAODSIM/130X_mcRun3_2022_realistic_postEE_v6-v2/50000/da931cdb-92d7-4913-9ec2-c8c108df6535.root   | (None) | ad:adbb9ce8 | 1.213 GB   |          |
| cms:/store/mc/Run3Summer22EENanoAODv12/TTto4Q_TuneCP5_13p6TeV_powheg-pythia8/NANOAODSIM/130X_mcRun3_2022_realistic_postEE_v6-v2/50000/df7a58cf-25e7-40f1-9bc3-6790c253343b.root   | (None) | ad:53818808 | 2.335 GB   |          |
| cms:/store/mc/Run3Summer22EENanoAODv12/TTto4Q_TuneCP5_13p6TeV_powheg-pythia8/NANOAODSIM/130X_mcRun3_2022_realistic_postEE_v6-v2/50000/f2a26633-3051-4b55-8663-1766b5b26745.root   | (None) | ad:94b7d278 | 2.310 GB   |          |
| cms:/store/mc/Run3Summer22EENanoAODv12/TTto4Q_TuneCP5_13p6TeV_powheg-pythia8/NANOAODSIM/130X_mcRun3_2022_realistic_postEE_v6-v2/30000/7fc8710c-c19b-40dc-8062-3463592ef759.root   | (None) | ad:083ff248 | 132.006 MB |          |
| cms:/store/mc/Run3Summer22EENanoAODv12/TTto4Q_TuneCP5_13p6TeV_powheg-pythia8/NANOAODSIM/130X_mcRun3_2022_realistic_postEE_v6-v2/40000/b4d35e13-bede-4e0a-af73-71c0cf3e24dd.root   | (None) | ad:06b615a2 | 217.833 MB |          |
| cms:/store/mc/Run3Summer22EENanoAODv12/TTto4Q_TuneCP5_13p6TeV_powheg-pythia8/NANOAODSIM/130X_mcRun3_2022_realistic_postEE_v6-v2/40000/01a05ae8-fbc9-47b4-928f-01cefc20b4fe.root   | (None) | ad:7645a1dc | 2.329 GB   |          |
| cms:/store/mc/Run3Summer22EENanoAODv12/TTto4Q_TuneCP5_13p6TeV_powheg-pythia8/NANOAODSIM/130X_mcRun3_2022_realistic_postEE_v6-v2/40000/60d16ecd-6042-4b8f-9af1-328b897c164f.root   | (None) | ad:1497b306 | 9.224 MB   |          |
| cms:/store/mc/Run3Summer22EENanoAODv12/TTto4Q_TuneCP5_13p6TeV_powheg-pythia8/NANOAODSIM/130X_mcRun3_2022_realistic_postEE_v6-v2/40000/776ada09-9a9e-465f-a17e-2e44a7e468a1.root   | (None) | ad:2eefd543 | 50.629 MB  |          |
| cms:/store/mc/Run3Summer22EENanoAODv12/TTto4Q_TuneCP5_13p6TeV_powheg-pythia8/NANOAODSIM/130X_mcRun3_2022_realistic_postEE_v6-v2/40000/79dbf754-cb7d-4132-94b0-2882e13f4974.root   | (None) | ad:79c0ff56 | 1.574 GB   |          |
| cms:/store/mc/Run3Summer22EENanoAODv12/TTto4Q_TuneCP5_13p6TeV_powheg-pythia8/NANOAODSIM/130X_mcRun3_2022_realistic_postEE_v6-v2/2540000/c792b7ad-eff9-4d32-bdaf-9b26a22a82ed.root | (None) | ad:0f453020 | 24.624 MB  |          |
| cms:/store/mc/Run3Summer22EENanoAODv12/TTto4Q_TuneCP5_13p6TeV_powheg-pythia8/NANOAODSIM/130X_mcRun3_2022_realistic_postEE_v6-v2/50000/9ffa3392-a9b3-4149-b200-c366eacab0a8.root   | (None) | ad:20e53f4c | 52.101 MB  |          |
| cms:/store/mc/Run3Summer22EENanoAODv12/TTto4Q_TuneCP5_13p6TeV_powheg-pythia8/NANOAODSIM/130X_mcRun3_2022_realistic_postEE_v6-v2/50000/8528271b-b9f1-4525-bf28-2701de7ee53b.root   | (None) | ad:1dba58bb | 2.329 GB   |          |
| cms:/store/mc/Run3Summer22EENanoAODv12/TTto4Q_TuneCP5_13p6TeV_powheg-pythia8/NANOAODSIM/130X_mcRun3_2022_realistic_postEE_v6-v2/50000/986fe3fa-965a-4231-9d73-431a6ca56557.root   | (None) | ad:c9893bef | 2.301 GB   |          |
| cms:/store/mc/Run3Summer22EENanoAODv12/TTto4Q_TuneCP5_13p6TeV_powheg-pythia8/NANOAODSIM/130X_mcRun3_2022_realistic_postEE_v6-v2/50000/9d124b14-d846-48fb-9939-7f4cc467f699.root   | (None) | ad:f62fc1f1 | 1.237 GB   |          |
| cms:/store/mc/Run3Summer22EENanoAODv12/TTto4Q_TuneCP5_13p6TeV_powheg-pythia8/NANOAODSIM/130X_mcRun3_2022_realistic_postEE_v6-v2/50000/a13cc847-4b57-4e9d-a6dc-57caf590d4fb.root   | (None) | ad:a42c1a57 | 2.330 GB   |          |
| cms:/store/mc/Run3Summer22EENanoAODv12/TTto4Q_TuneCP5_13p6TeV_powheg-pythia8/NANOAODSIM/130X_mcRun3_2022_realistic_postEE_v6-v2/50000/a28329cf-713b-42a9-b766-1d09c4425dd0.root   | (None) | ad:dbd0292c | 2.330 GB   |          |
| cms:/store/mc/Run3Summer22EENanoAODv12/TTto4Q_TuneCP5_13p6TeV_powheg-pythia8/NANOAODSIM/130X_mcRun3_2022_realistic_postEE_v6-v2/50000/b6400696-a353-4895-9b0e-f8cf480cab9d.root   | (None) | ad:81b4bfa4 | 2.332 GB   |          |
| cms:/store/mc/Run3Summer22EENanoAODv12/TTto4Q_TuneCP5_13p6TeV_powheg-pythia8/NANOAODSIM/130X_mcRun3_2022_realistic_postEE_v6-v2/50000/bec49973-0e6d-40d0-b5c2-205de4fa1507.root   | (None) | ad:d2a10be5 | 6.296 MB   |          |
| cms:/store/mc/Run3Summer22EENanoAODv12/TTto4Q_TuneCP5_13p6TeV_powheg-pythia8/NANOAODSIM/130X_mcRun3_2022_realistic_postEE_v6-v2/50000/ce21e8ce-be59-4902-aded-8dc6376a5ba0.root   | (None) | ad:7e23b1b6 | 2.330 GB   |          |
| cms:/store/mc/Run3Summer22EENanoAODv12/TTto4Q_TuneCP5_13p6TeV_powheg-pythia8/NANOAODSIM/130X_mcRun3_2022_realistic_postEE_v6-v2/2520000/0bea9b42-47ee-41fd-b976-31079fd198a6.root | (None) | ad:e2844eb8 | 1.190 GB   |          |
| cms:/store/mc/Run3Summer22EENanoAODv12/TTto4Q_TuneCP5_13p6TeV_powheg-pythia8/NANOAODSIM/130X_mcRun3_2022_realistic_postEE_v6-v2/2520000/0c11bff1-280d-4b14-957c-be9879ebd476.root | (None) | ad:513a3bc5 | 1.713 GB   |          |
| cms:/store/mc/Run3Summer22EENanoAODv12/TTto4Q_TuneCP5_13p6TeV_powheg-pythia8/NANOAODSIM/130X_mcRun3_2022_realistic_postEE_v6-v2/2520000/1a55f906-c37c-47eb-8404-bb256136c192.root | (None) | ad:f64b0b5a | 1.286 GB   |          |
| cms:/store/mc/Run3Summer22EENanoAODv12/TTto4Q_TuneCP5_13p6TeV_powheg-pythia8/NANOAODSIM/130X_mcRun3_2022_realistic_postEE_v6-v2/2520000/3a495f05-9eb7-4f18-93bf-52a4b7b21f75.root | (None) | ad:a02ce058 | 2.328 GB   |          |
| cms:/store/mc/Run3Summer22EENanoAODv12/TTto4Q_TuneCP5_13p6TeV_powheg-pythia8/NANOAODSIM/130X_mcRun3_2022_realistic_postEE_v6-v2/2520000/8ff2d7d4-0dd2-4f4f-97e3-2d0e316b8510.root | (None) | ad:2364384d | 1.520 GB   |          |
| cms:/store/mc/Run3Summer22EENanoAODv12/TTto4Q_TuneCP5_13p6TeV_powheg-pythia8/NANOAODSIM/130X_mcRun3_2022_realistic_postEE_v6-v2/2520000/94802ffc-ff98-41a5-b67c-f7623c694b0a.root | (None) | ad:e6b9bda8 | 145.490 MB |          |
| cms:/store/mc/Run3Summer22EENanoAODv12/TTto4Q_TuneCP5_13p6TeV_powheg-pythia8/NANOAODSIM/130X_mcRun3_2022_realistic_postEE_v6-v2/2520000/a56916de-e038-4017-8584-00c050929c5f.root | (None) | ad:4e47f9dc | 1.190 GB   |          |
| cms:/store/mc/Run3Summer22EENanoAODv12/TTto4Q_TuneCP5_13p6TeV_powheg-pythia8/NANOAODSIM/130X_mcRun3_2022_realistic_postEE_v6-v2/2520000/e1ab1b44-c08f-4714-abf9-b3af0ff03ba8.root | (None) | ad:b520e80c | 1.191 GB   |          |
| cms:/store/mc/Run3Summer22EENanoAODv12/TTto4Q_TuneCP5_13p6TeV_powheg-pythia8/NANOAODSIM/130X_mcRun3_2022_realistic_postEE_v6-v2/50000/1f65acc7-d440-4a1a-917e-830b42b1bed3.root   | (None) | ad:50bc132f | 1.950 GB   |          |
| cms:/store/mc/Run3Summer22EENanoAODv12/TTto4Q_TuneCP5_13p6TeV_powheg-pythia8/NANOAODSIM/130X_mcRun3_2022_realistic_postEE_v6-v2/50000/74d024ec-9aa3-4dd9-b7a0-dd0566ff3c52.root   | (None) | ad:5334b00e | 335.743 MB |          |
| cms:/store/mc/Run3Summer22EENanoAODv12/TTto4Q_TuneCP5_13p6TeV_powheg-pythia8/NANOAODSIM/130X_mcRun3_2022_realistic_postEE_v6-v2/50000/991aeea1-a649-4de8-b10e-181f9596079c.root   | (None) | ad:0585be9e | 2.294 GB   |          |
| cms:/store/mc/Run3Summer22EENanoAODv12/TTto4Q_TuneCP5_13p6TeV_powheg-pythia8/NANOAODSIM/130X_mcRun3_2022_realistic_postEE_v6-v2/50000/b8411e25-ce44-4a93-a635-187ef34faee7.root   | (None) | ad:1a50f2e0 | 1.318 GB   |          |
| cms:/store/mc/Run3Summer22EENanoAODv12/TTto4Q_TuneCP5_13p6TeV_powheg-pythia8/NANOAODSIM/130X_mcRun3_2022_realistic_postEE_v6-v2/2530000/65c42ff8-72d1-42b2-9711-ff4bdbb6cb9c.root | (None) | ad:f48e3a91 | 12.561 MB  |          |
| cms:/store/mc/Run3Summer22EENanoAODv12/TTto4Q_TuneCP5_13p6TeV_powheg-pythia8/NANOAODSIM/130X_mcRun3_2022_realistic_postEE_v6-v2/40000/0049546e-8d63-47db-a414-f4968f135397.root   | (None) | ad:9b3dc4ea | 1.781 GB   |          |
| cms:/store/mc/Run3Summer22EENanoAODv12/TTto4Q_TuneCP5_13p6TeV_powheg-pythia8/NANOAODSIM/130X_mcRun3_2022_realistic_postEE_v6-v2/40000/36efb9ed-b503-4478-8125-410e90d38189.root   | (None) | ad:772beee6 | 1.428 GB   |          |
| cms:/store/mc/Run3Summer22EENanoAODv12/TTto4Q_TuneCP5_13p6TeV_powheg-pythia8/NANOAODSIM/130X_mcRun3_2022_realistic_postEE_v6-v2/40000/8ad9c25f-a786-4121-9efa-adeea7b56d89.root   | (None) | ad:dde91d4a | 1.438 GB   |          |
| cms:/store/mc/Run3Summer22EENanoAODv12/TTto4Q_TuneCP5_13p6TeV_powheg-pythia8/NANOAODSIM/130X_mcRun3_2022_realistic_postEE_v6-v2/40000/a10a5f62-28ea-48af-b1d8-90fa735d19a1.root   | (None) | ad:afdb2ef7 | 50.748 MB  |          |
| cms:/store/mc/Run3Summer22EENanoAODv12/TTto4Q_TuneCP5_13p6TeV_powheg-pythia8/NANOAODSIM/130X_mcRun3_2022_realistic_postEE_v6-v2/40000/c865ba6c-f4de-403c-bb95-a634c4569e97.root   | (None) | ad:41a65dbd | 14.057 MB  |          |
| cms:/store/mc/Run3Summer22EENanoAODv12/TTto4Q_TuneCP5_13p6TeV_powheg-pythia8/NANOAODSIM/130X_mcRun3_2022_realistic_postEE_v6-v2/50000/69128aed-590e-4e8f-aa1e-70fb357ec034.root   | (None) | ad:fc5b8a0e | 1.239 GB   |          |
| cms:/store/mc/Run3Summer22EENanoAODv12/TTto4Q_TuneCP5_13p6TeV_powheg-pythia8/NANOAODSIM/130X_mcRun3_2022_realistic_postEE_v6-v2/50000/7a0f03c1-7cbd-4e09-bca1-30166545bd27.root   | (None) | ad:af087c8f | 1.470 GB   |          |
| cms:/store/mc/Run3Summer22EENanoAODv12/TTto4Q_TuneCP5_13p6TeV_powheg-pythia8/NANOAODSIM/130X_mcRun3_2022_realistic_postEE_v6-v2/50000/aa635a3c-4643-4ec7-bbe1-bc002dc1894e.root   | (None) | ad:a19eed69 | 50.533 MB  |          |
| cms:/store/mc/Run3Summer22EENanoAODv12/TTto4Q_TuneCP5_13p6TeV_powheg-pythia8/NANOAODSIM/130X_mcRun3_2022_realistic_postEE_v6-v2/30000/34724fae-a80a-4b6a-aa5f-93539ece987e.root   | (None) | ad:c5b1605f | 1.595 GB   |          |
| cms:/store/mc/Run3Summer22EENanoAODv12/TTto4Q_TuneCP5_13p6TeV_powheg-pythia8/NANOAODSIM/130X_mcRun3_2022_realistic_postEE_v6-v2/30000/41f35b6b-2d4e-4ad1-8ef1-df230034f427.root   | (None) | ad:f379fd71 | 999.166 MB |          |
| cms:/store/mc/Run3Summer22EENanoAODv12/TTto4Q_TuneCP5_13p6TeV_powheg-pythia8/NANOAODSIM/130X_mcRun3_2022_realistic_postEE_v6-v2/30000/af850629-9e74-477c-a0d1-d31e878b3d73.root   | (None) | ad:8a4b2b0c | 108.761 MB |          |
| cms:/store/mc/Run3Summer22EENanoAODv12/TTto4Q_TuneCP5_13p6TeV_powheg-pythia8/NANOAODSIM/130X_mcRun3_2022_realistic_postEE_v6-v2/30000/374a9d0d-2126-4001-aad1-9f04628bac1f.root   | (None) | ad:0b4f6ccb | 51.992 MB  |          |
| cms:/store/mc/Run3Summer22EENanoAODv12/TTto4Q_TuneCP5_13p6TeV_powheg-pythia8/NANOAODSIM/130X_mcRun3_2022_realistic_postEE_v6-v2/30000/a0007a85-feab-471b-b5c9-3e46650725bc.root   | (None) | ad:ede07306 | 32.345 MB  |          |
| cms:/store/mc/Run3Summer22EENanoAODv12/TTto4Q_TuneCP5_13p6TeV_powheg-pythia8/NANOAODSIM/130X_mcRun3_2022_realistic_postEE_v6-v2/30000/111eaf2a-0e03-4fc5-9318-0a7a3330fd67.root   | (None) | ad:c303f51e | 2.100 GB   |          |
| cms:/store/mc/Run3Summer22EENanoAODv12/TTto4Q_TuneCP5_13p6TeV_powheg-pythia8/NANOAODSIM/130X_mcRun3_2022_realistic_postEE_v6-v2/30000/ad8be6f7-69c4-41fa-a790-69993abc25b0.root   | (None) | ad:dd006bc0 | 2.330 GB   |          |
| cms:/store/mc/Run3Summer22EENanoAODv12/TTto4Q_TuneCP5_13p6TeV_powheg-pythia8/NANOAODSIM/130X_mcRun3_2022_realistic_postEE_v6-v2/30000/b0bec614-8ef8-4c60-8f65-bcf618e594cf.root   | (None) | ad:351b31b4 | 1.664 GB   |          |
| cms:/store/mc/Run3Summer22EENanoAODv12/TTto4Q_TuneCP5_13p6TeV_powheg-pythia8/NANOAODSIM/130X_mcRun3_2022_realistic_postEE_v6-v2/30000/b58e667e-a033-4a47-b9f0-b1b007de383b.root   | (None) | ad:488a6713 | 857.940 MB |          |
| cms:/store/mc/Run3Summer22EENanoAODv12/TTto4Q_TuneCP5_13p6TeV_powheg-pythia8/NANOAODSIM/130X_mcRun3_2022_realistic_postEE_v6-v2/30000/bac693bf-047d-46f6-b5b5-8b8606d6b3a1.root   | (None) | ad:0bec39df | 55.419 MB  |          |
| cms:/store/mc/Run3Summer22EENanoAODv12/TTto4Q_TuneCP5_13p6TeV_powheg-pythia8/NANOAODSIM/130X_mcRun3_2022_realistic_postEE_v6-v2/40000/4099bd93-58f0-412b-99c5-632b2040fc2e.root   | (None) | ad:75961121 | 667.529 MB |          |
| cms:/store/mc/Run3Summer22EENanoAODv12/TTto4Q_TuneCP5_13p6TeV_powheg-pythia8/NANOAODSIM/130X_mcRun3_2022_realistic_postEE_v6-v2/40000/afd6a1c9-9130-4079-bc38-f2c7304f0df8.root   | (None) | ad:fd8cd0a9 | 1.221 GB   |          |
| cms:/store/mc/Run3Summer22EENanoAODv12/TTto4Q_TuneCP5_13p6TeV_powheg-pythia8/NANOAODSIM/130X_mcRun3_2022_realistic_postEE_v6-v2/2530000/4dc2e05d-3d14-498a-b7fc-e1e3e79c26c0.root | (None) | ad:ef8bad87 | 110.251 MB |          |
| cms:/store/mc/Run3Summer22EENanoAODv12/TTto4Q_TuneCP5_13p6TeV_powheg-pythia8/NANOAODSIM/130X_mcRun3_2022_realistic_postEE_v6-v2/40000/358ec1ab-e165-480b-ad70-bfd76110e4af.root   | (None) | ad:6827f7b0 | 277.330 MB |          |
| cms:/store/mc/Run3Summer22EENanoAODv12/TTto4Q_TuneCP5_13p6TeV_powheg-pythia8/NANOAODSIM/130X_mcRun3_2022_realistic_postEE_v6-v2/50000/0ea6e63c-a4dd-48ae-9eea-956c0f4456a1.root   | (None) | ad:f09dcb19 | 263.299 MB |          |
| cms:/store/mc/Run3Summer22EENanoAODv12/TTto4Q_TuneCP5_13p6TeV_powheg-pythia8/NANOAODSIM/130X_mcRun3_2022_realistic_postEE_v6-v2/50000/3d1e7a92-3e61-429c-9afb-dc9cb3c1b411.root   | (None) | ad:761477f5 | 2.276 GB   |          |
| cms:/store/mc/Run3Summer22EENanoAODv12/TTto4Q_TuneCP5_13p6TeV_powheg-pythia8/NANOAODSIM/130X_mcRun3_2022_realistic_postEE_v6-v2/50000/d7ded1bf-4c41-493d-92d7-e504edbb03d9.root   | (None) | ad:21b50423 | 102.464 MB |          |
| cms:/store/mc/Run3Summer22EENanoAODv12/TTto4Q_TuneCP5_13p6TeV_powheg-pythia8/NANOAODSIM/130X_mcRun3_2022_realistic_postEE_v6-v2/2540000/6946d81e-23ed-421a-a0c6-df153319d3e5.root | (None) | ad:c9ebfdfb | 430.185 MB |          |
| cms:/store/mc/Run3Summer22EENanoAODv12/TTto4Q_TuneCP5_13p6TeV_powheg-pythia8/NANOAODSIM/130X_mcRun3_2022_realistic_postEE_v6-v2/2540000/6eacb558-6a4d-402b-bc8c-14fd457441f6.root | (None) | ad:78f75e63 | 1.284 GB   |          |
| cms:/store/mc/Run3Summer22EENanoAODv12/TTto4Q_TuneCP5_13p6TeV_powheg-pythia8/NANOAODSIM/130X_mcRun3_2022_realistic_postEE_v6-v2/2540000/b71f2c1c-d86d-465e-822c-d9eed9477033.root | (None) | ad:619586f4 | 1.867 GB   |          |
| cms:/store/mc/Run3Summer22EENanoAODv12/TTto4Q_TuneCP5_13p6TeV_powheg-pythia8/NANOAODSIM/130X_mcRun3_2022_realistic_postEE_v6-v2/2530000/7b91bfa9-6010-40c8-bdba-8591e8a8a006.root | (None) | ad:bf5eb202 | 99.715 MB  |          |
| cms:/store/mc/Run3Summer22EENanoAODv12/TTto4Q_TuneCP5_13p6TeV_powheg-pythia8/NANOAODSIM/130X_mcRun3_2022_realistic_postEE_v6-v2/40000/9e530eaa-ee45-4ca4-b5f5-ef55d01094c6.root   | (None) | ad:861179c7 | 13.934 MB  |          |
| cms:/store/mc/Run3Summer22EENanoAODv12/TTto4Q_TuneCP5_13p6TeV_powheg-pythia8/NANOAODSIM/130X_mcRun3_2022_realistic_postEE_v6-v2/50000/0d1f0b6f-7981-492a-a3e8-490068c9db63.root   | (None) | ad:b5b9e692 | 50.584 MB  |          |
| cms:/store/mc/Run3Summer22EENanoAODv12/TTto4Q_TuneCP5_13p6TeV_powheg-pythia8/NANOAODSIM/130X_mcRun3_2022_realistic_postEE_v6-v2/50000/f40b3266-5ea2-475c-b67d-f7d0d3bbf9a4.root   | (None) | ad:79bb9a00 | 954.309 MB |          |
| cms:/store/mc/Run3Summer22EENanoAODv12/TTto4Q_TuneCP5_13p6TeV_powheg-pythia8/NANOAODSIM/130X_mcRun3_2022_realistic_postEE_v6-v2/2530000/b20809dc-e51b-4b8a-8d65-e481dbef6886.root | (None) | ad:dd8782e3 | 4.348 MB   |          |
| cms:/store/mc/Run3Summer22EENanoAODv12/TTto4Q_TuneCP5_13p6TeV_powheg-pythia8/NANOAODSIM/130X_mcRun3_2022_realistic_postEE_v6-v2/40000/252ca0ec-784f-487c-8c2a-ff1fec27b3e1.root   | (None) | ad:9a3ab78c | 72.158 MB  |          |
| cms:/store/mc/Run3Summer22EENanoAODv12/TTto4Q_TuneCP5_13p6TeV_powheg-pythia8/NANOAODSIM/130X_mcRun3_2022_realistic_postEE_v6-v2/40000/97cf81ae-6ac1-47ef-b8b7-d43a520dca5e.root   | (None) | ad:786f4a88 | 12.557 MB  |          |
| cms:/store/mc/Run3Summer22EENanoAODv12/TTto4Q_TuneCP5_13p6TeV_powheg-pythia8/NANOAODSIM/130X_mcRun3_2022_realistic_postEE_v6-v2/40000/9ac03d66-fe3f-4b0b-a229-054a43c9b8a3.root   | (None) | ad:6ecc9eab | 44.429 MB  |          |
| cms:/store/mc/Run3Summer22EENanoAODv12/TTto4Q_TuneCP5_13p6TeV_powheg-pythia8/NANOAODSIM/130X_mcRun3_2022_realistic_postEE_v6-v2/40000/d4ca4ba9-4c3f-4bb6-98e0-4010a5459022.root   | (None) | ad:d6cf78d2 | 10.684 MB  |          |
| cms:/store/mc/Run3Summer22EENanoAODv12/TTto4Q_TuneCP5_13p6TeV_powheg-pythia8/NANOAODSIM/130X_mcRun3_2022_realistic_postEE_v6-v2/30000/29b0b7f7-ae84-4bfa-8f88-5671be41b898.root   | (None) | ad:344c2790 | 1.482 GB   |          |
| cms:/store/mc/Run3Summer22EENanoAODv12/TTto4Q_TuneCP5_13p6TeV_powheg-pythia8/NANOAODSIM/130X_mcRun3_2022_realistic_postEE_v6-v2/30000/60038666-61ca-440b-983f-fbd6174d1eca.root   | (None) | ad:316689a1 | 1.474 GB   |          |
| cms:/store/mc/Run3Summer22EENanoAODv12/TTto4Q_TuneCP5_13p6TeV_powheg-pythia8/NANOAODSIM/130X_mcRun3_2022_realistic_postEE_v6-v2/30000/bb5a5e72-b87d-47fc-a64f-ba4f0e7654c7.root   | (None) | ad:bd91c561 | 1.475 GB   |          |
| cms:/store/mc/Run3Summer22EENanoAODv12/TTto4Q_TuneCP5_13p6TeV_powheg-pythia8/NANOAODSIM/130X_mcRun3_2022_realistic_postEE_v6-v2/30000/c0917bb1-a178-4460-a0d8-9fcda6bf284d.root   | (None) | ad:b937dcc1 | 1.712 GB   |          |
| cms:/store/mc/Run3Summer22EENanoAODv12/TTto4Q_TuneCP5_13p6TeV_powheg-pythia8/NANOAODSIM/130X_mcRun3_2022_realistic_postEE_v6-v2/30000/d9031321-009f-49fc-94f5-247d15187e1d.root   | (None) | ad:c52e97fe | 1.854 GB   |          |
| cms:/store/mc/Run3Summer22EENanoAODv12/TTto4Q_TuneCP5_13p6TeV_powheg-pythia8/NANOAODSIM/130X_mcRun3_2022_realistic_postEE_v6-v2/30000/f2805aff-385a-49b0-9a22-8fd366bf002a.root   | (None) | ad:16a78af8 | 50.523 MB  |          |
| cms:/store/mc/Run3Summer22EENanoAODv12/TTto4Q_TuneCP5_13p6TeV_powheg-pythia8/NANOAODSIM/130X_mcRun3_2022_realistic_postEE_v6-v2/30000/f691c90b-c3c4-41be-979d-865910dedec9.root   | (None) | ad:8d210bb8 | 1.190 GB   |          |
| cms:/store/mc/Run3Summer22EENanoAODv12/TTto4Q_TuneCP5_13p6TeV_powheg-pythia8/NANOAODSIM/130X_mcRun3_2022_realistic_postEE_v6-v2/30000/bae69259-57b6-4eaa-ac6c-6dce9d2ae60a.root   | (None) | ad:12181ee3 | 9.221 MB   |          |
| cms:/store/mc/Run3Summer22EENanoAODv12/TTto4Q_TuneCP5_13p6TeV_powheg-pythia8/NANOAODSIM/130X_mcRun3_2022_realistic_postEE_v6-v2/30000/e1a9bc68-e7c3-4218-82b7-5d301609d065.root   | (None) | ad:e57d8280 | 14.037 MB  |          |
| cms:/store/mc/Run3Summer22EENanoAODv12/TTto4Q_TuneCP5_13p6TeV_powheg-pythia8/NANOAODSIM/130X_mcRun3_2022_realistic_postEE_v6-v2/50000/24ce5a58-7dae-4e74-a826-a5f9d7868596.root   | (None) | ad:991ef971 | 1.723 GB   |          |
| cms:/store/mc/Run3Summer22EENanoAODv12/TTto4Q_TuneCP5_13p6TeV_powheg-pythia8/NANOAODSIM/130X_mcRun3_2022_realistic_postEE_v6-v2/50000/bc8832d1-3a8d-423a-bb21-69b099c4db22.root   | (None) | ad:966b6081 | 240.381 MB |          |
| cms:/store/mc/Run3Summer22EENanoAODv12/TTto4Q_TuneCP5_13p6TeV_powheg-pythia8/NANOAODSIM/130X_mcRun3_2022_realistic_postEE_v6-v2/40000/cf4ccf44-d342-4e12-9c90-428b9e090cdf.root   | (None) | ad:ae35a061 | 1.446 GB   |          |
| cms:/store/mc/Run3Summer22EENanoAODv12/TTto4Q_TuneCP5_13p6TeV_powheg-pythia8/NANOAODSIM/130X_mcRun3_2022_realistic_postEE_v6-v2/40000/f0ae8a29-de49-4d3c-afef-63e31a37f504.root   | (None) | ad:ad71c1e1 | 335.501 MB |          |
| cms:/store/mc/Run3Summer22EENanoAODv12/TTto4Q_TuneCP5_13p6TeV_powheg-pythia8/NANOAODSIM/130X_mcRun3_2022_realistic_postEE_v6-v2/30000/e501fcce-6818-4cdf-ad0c-5d983598185e.root   | (None) | ad:eb89f8ea | 4.369 MB   |          |
| cms:/store/mc/Run3Summer22EENanoAODv12/TTto4Q_TuneCP5_13p6TeV_powheg-pythia8/NANOAODSIM/130X_mcRun3_2022_realistic_postEE_v6-v2/30000/ece7e3fb-aa3d-4b5c-aae8-272e60573d36.root   | (None) | ad:b0189de1 | 1.952 GB   |          |
| cms:/store/mc/Run3Summer22EENanoAODv12/TTto4Q_TuneCP5_13p6TeV_powheg-pythia8/NANOAODSIM/130X_mcRun3_2022_realistic_postEE_v6-v2/30000/f6fa2f75-10d5-40f8-bea3-8ec77a1e5e13.root   | (None) | ad:219f4cd2 | 905.338 MB |          |
| cms:/store/mc/Run3Summer22EENanoAODv12/TTto4Q_TuneCP5_13p6TeV_powheg-pythia8/NANOAODSIM/130X_mcRun3_2022_realistic_postEE_v6-v2/2520000/3bceb950-830f-45a7-85d4-43876c9c704b.root | (None) | ad:a1cd15aa | 336.045 MB |          |
| cms:/store/mc/Run3Summer22EENanoAODv12/TTto4Q_TuneCP5_13p6TeV_powheg-pythia8/NANOAODSIM/130X_mcRun3_2022_realistic_postEE_v6-v2/2520000/5593dfa7-32f3-48f7-ad22-4e662a36fdc6.root | (None) | ad:d8d74e0c | 1.228 GB   |          |
| cms:/store/mc/Run3Summer22EENanoAODv12/TTto4Q_TuneCP5_13p6TeV_powheg-pythia8/NANOAODSIM/130X_mcRun3_2022_realistic_postEE_v6-v2/40000/9c13a7c3-8c36-4d3c-a26e-c80d5d43a333.root   | (None) | ad:a2f64594 | 240.778 MB |          |
| cms:/store/mc/Run3Summer22EENanoAODv12/TTto4Q_TuneCP5_13p6TeV_powheg-pythia8/NANOAODSIM/130X_mcRun3_2022_realistic_postEE_v6-v2/50000/68fb6299-1c9a-4e38-b45b-3b6a47909efb.root   | (None) | ad:5f522c31 | 542.320 MB |          |
| cms:/store/mc/Run3Summer22EENanoAODv12/TTto4Q_TuneCP5_13p6TeV_powheg-pythia8/NANOAODSIM/130X_mcRun3_2022_realistic_postEE_v6-v2/50000/6c650c8e-6b9e-475f-9ec2-6e7878f553e8.root   | (None) | ad:f9960537 | 2.304 GB   |          |
| cms:/store/mc/Run3Summer22EENanoAODv12/TTto4Q_TuneCP5_13p6TeV_powheg-pythia8/NANOAODSIM/130X_mcRun3_2022_realistic_postEE_v6-v2/50000/8900aa78-fe4c-47cb-af63-a9c9dd8b6364.root   | (None) | ad:c73726ce | 2.331 GB   |          |
| cms:/store/mc/Run3Summer22EENanoAODv12/TTto4Q_TuneCP5_13p6TeV_powheg-pythia8/NANOAODSIM/130X_mcRun3_2022_realistic_postEE_v6-v2/50000/9705f18f-3b44-4410-8243-509582a37cc5.root   | (None) | ad:78e8e58a | 2.327 GB   |          |
| cms:/store/mc/Run3Summer22EENanoAODv12/TTto4Q_TuneCP5_13p6TeV_powheg-pythia8/NANOAODSIM/130X_mcRun3_2022_realistic_postEE_v6-v2/50000/bef3bbaa-137a-4792-bac3-172aced4a0a5.root   | (None) | ad:42571257 | 2.329 GB   |          |
| cms:/store/mc/Run3Summer22EENanoAODv12/TTto4Q_TuneCP5_13p6TeV_powheg-pythia8/NANOAODSIM/130X_mcRun3_2022_realistic_postEE_v6-v2/50000/df1bdf0d-6326-4a40-b9aa-9ea1b172e43b.root   | (None) | ad:1ebad041 | 2.330 GB   |          |
| cms:/store/mc/Run3Summer22EENanoAODv12/TTto4Q_TuneCP5_13p6TeV_powheg-pythia8/NANOAODSIM/130X_mcRun3_2022_realistic_postEE_v6-v2/50000/df39bb5a-eb34-44e5-9df6-9968caff676c.root   | (None) | ad:32b3be17 | 1.956 GB   |          |
| cms:/store/mc/Run3Summer22EENanoAODv12/TTto4Q_TuneCP5_13p6TeV_powheg-pythia8/NANOAODSIM/130X_mcRun3_2022_realistic_postEE_v6-v2/2530000/91cfcb71-266e-473d-9b38-f03c5d07c2b9.root | (None) | ad:cdc941bf | 277.500 MB |          |
| cms:/store/mc/Run3Summer22EENanoAODv12/TTto4Q_TuneCP5_13p6TeV_powheg-pythia8/NANOAODSIM/130X_mcRun3_2022_realistic_postEE_v6-v2/50000/29d5d250-5a38-4198-91d5-95eea77cce57.root   | (None) | ad:c7de1b81 | 2.328 GB   |          |
| cms:/store/mc/Run3Summer22EENanoAODv12/TTto4Q_TuneCP5_13p6TeV_powheg-pythia8/NANOAODSIM/130X_mcRun3_2022_realistic_postEE_v6-v2/50000/41364961-055f-4347-8640-d2e0f7aa0678.root   | (None) | ad:034d1cb5 | 2.326 GB   |          |
| cms:/store/mc/Run3Summer22EENanoAODv12/TTto4Q_TuneCP5_13p6TeV_powheg-pythia8/NANOAODSIM/130X_mcRun3_2022_realistic_postEE_v6-v2/50000/633dd501-5449-4969-88af-28a8b27de791.root   | (None) | ad:409ceffa | 1.488 GB   |          |
| cms:/store/mc/Run3Summer22EENanoAODv12/TTto4Q_TuneCP5_13p6TeV_powheg-pythia8/NANOAODSIM/130X_mcRun3_2022_realistic_postEE_v6-v2/50000/6dbcbf03-9a24-426e-9724-6a657ab7d8d0.root   | (None) | ad:82985fbe | 1.955 GB   |          |
| cms:/store/mc/Run3Summer22EENanoAODv12/TTto4Q_TuneCP5_13p6TeV_powheg-pythia8/NANOAODSIM/130X_mcRun3_2022_realistic_postEE_v6-v2/50000/735e32b7-7782-437a-83a8-adfe38a516a6.root   | (None) | ad:aba440f2 | 2.294 GB   |          |
| cms:/store/mc/Run3Summer22EENanoAODv12/TTto4Q_TuneCP5_13p6TeV_powheg-pythia8/NANOAODSIM/130X_mcRun3_2022_realistic_postEE_v6-v2/50000/783a136f-113c-4961-a910-1c58a9afae8d.root   | (None) | ad:124b4357 | 2.338 GB   |          |
| cms:/store/mc/Run3Summer22EENanoAODv12/TTto4Q_TuneCP5_13p6TeV_powheg-pythia8/NANOAODSIM/130X_mcRun3_2022_realistic_postEE_v6-v2/50000/82cfde20-d7af-4955-a96c-815653b93a89.root   | (None) | ad:6e03afd5 | 2.330 GB   |          |
| cms:/store/mc/Run3Summer22EENanoAODv12/TTto4Q_TuneCP5_13p6TeV_powheg-pythia8/NANOAODSIM/130X_mcRun3_2022_realistic_postEE_v6-v2/50000/8a8bcc43-162b-4422-92b9-95bd62fde970.root   | (None) | ad:068c3acb | 2.317 GB   |          |
| cms:/store/mc/Run3Summer22EENanoAODv12/TTto4Q_TuneCP5_13p6TeV_powheg-pythia8/NANOAODSIM/130X_mcRun3_2022_realistic_postEE_v6-v2/2540000/938b3425-f7da-4b64-91da-950d373a1739.root | (None) | ad:0ee53270 | 4.366 MB   |          |
| cms:/store/mc/Run3Summer22EENanoAODv12/TTto4Q_TuneCP5_13p6TeV_powheg-pythia8/NANOAODSIM/130X_mcRun3_2022_realistic_postEE_v6-v2/40000/04517e21-be4d-4223-ba45-24172aa1bd7f.root   | (None) | ad:abf32ff0 | 668.005 MB |          |
| cms:/store/mc/Run3Summer22EENanoAODv12/TTto4Q_TuneCP5_13p6TeV_powheg-pythia8/NANOAODSIM/130X_mcRun3_2022_realistic_postEE_v6-v2/40000/07f2a360-c2e1-45fe-8c59-ef57a842d4cc.root   | (None) | ad:e7a7079f | 1.238 GB   |          |
| cms:/store/mc/Run3Summer22EENanoAODv12/TTto4Q_TuneCP5_13p6TeV_powheg-pythia8/NANOAODSIM/130X_mcRun3_2022_realistic_postEE_v6-v2/40000/143cf230-2723-42e8-beba-affd43a95230.root   | (None) | ad:e925e2ff | 1.066 GB   |          |
| cms:/store/mc/Run3Summer22EENanoAODv12/TTto4Q_TuneCP5_13p6TeV_powheg-pythia8/NANOAODSIM/130X_mcRun3_2022_realistic_postEE_v6-v2/40000/1e669905-32a9-4352-9095-b2bb7421c30b.root   | (None) | ad:318912e1 | 1.712 GB   |          |
| cms:/store/mc/Run3Summer22EENanoAODv12/TTto4Q_TuneCP5_13p6TeV_powheg-pythia8/NANOAODSIM/130X_mcRun3_2022_realistic_postEE_v6-v2/40000/24552a74-6707-4f90-b4b9-33ba5f200324.root   | (None) | ad:0a52c76c | 1.189 GB   |          |
| cms:/store/mc/Run3Summer22EENanoAODv12/TTto4Q_TuneCP5_13p6TeV_powheg-pythia8/NANOAODSIM/130X_mcRun3_2022_realistic_postEE_v6-v2/40000/4019d5e4-29f7-45cc-b0f7-b3ecb9e8d909.root   | (None) | ad:a42116a3 | 1.470 GB   |          |
| cms:/store/mc/Run3Summer22EENanoAODv12/TTto4Q_TuneCP5_13p6TeV_powheg-pythia8/NANOAODSIM/130X_mcRun3_2022_realistic_postEE_v6-v2/40000/667f393e-c05f-4ef9-8839-980699f60c5c.root   | (None) | ad:0f33c846 | 1.333 GB   |          |
| cms:/store/mc/Run3Summer22EENanoAODv12/TTto4Q_TuneCP5_13p6TeV_powheg-pythia8/NANOAODSIM/130X_mcRun3_2022_realistic_postEE_v6-v2/40000/7a2b94f7-3d24-487d-b5eb-dcba8190f218.root   | (None) | ad:39ab1e1f | 1.401 GB   |          |
| cms:/store/mc/Run3Summer22EENanoAODv12/TTto4Q_TuneCP5_13p6TeV_powheg-pythia8/NANOAODSIM/130X_mcRun3_2022_realistic_postEE_v6-v2/40000/98c717bd-5e17-4cbd-af52-f24b23bf79cd.root   | (None) | ad:18ca7c0c | 1.357 GB   |          |
| cms:/store/mc/Run3Summer22EENanoAODv12/TTto4Q_TuneCP5_13p6TeV_powheg-pythia8/NANOAODSIM/130X_mcRun3_2022_realistic_postEE_v6-v2/40000/9f71a73d-e85b-4a9e-aedb-8b8d3a989509.root   | (None) | ad:ac2af760 | 1.760 GB   |          |
| cms:/store/mc/Run3Summer22EENanoAODv12/TTto4Q_TuneCP5_13p6TeV_powheg-pythia8/NANOAODSIM/130X_mcRun3_2022_realistic_postEE_v6-v2/40000/a203f4ce-4ee0-497d-92e9-301f64706fc5.root   | (None) | ad:271cdb6b | 1.285 GB   |          |
| cms:/store/mc/Run3Summer22EENanoAODv12/TTto4Q_TuneCP5_13p6TeV_powheg-pythia8/NANOAODSIM/130X_mcRun3_2022_realistic_postEE_v6-v2/40000/c8a6f62b-757d-4b91-9ab8-40f617290356.root   | (None) | ad:05e6906f | 1.759 GB   |          |
| cms:/store/mc/Run3Summer22EENanoAODv12/TTto4Q_TuneCP5_13p6TeV_powheg-pythia8/NANOAODSIM/130X_mcRun3_2022_realistic_postEE_v6-v2/40000/dac85ba9-9129-401d-8a98-1eec8e784746.root   | (None) | ad:c7d9723e | 50.707 MB  |          |
| cms:/store/mc/Run3Summer22EENanoAODv12/TTto4Q_TuneCP5_13p6TeV_powheg-pythia8/NANOAODSIM/130X_mcRun3_2022_realistic_postEE_v6-v2/40000/dd2a44d7-394a-4509-a759-c769b3d7b350.root   | (None) | ad:b16b2013 | 1.238 GB   |          |
| cms:/store/mc/Run3Summer22EENanoAODv12/TTto4Q_TuneCP5_13p6TeV_powheg-pythia8/NANOAODSIM/130X_mcRun3_2022_realistic_postEE_v6-v2/40000/ec8d4a57-567e-46ef-9b61-03c4e17b0959.root   | (None) | ad:9b576d3b | 1.190 GB   |          |
| cms:/store/mc/Run3Summer22EENanoAODv12/TTto4Q_TuneCP5_13p6TeV_powheg-pythia8/NANOAODSIM/130X_mcRun3_2022_realistic_postEE_v6-v2/40000/f579e796-7d42-4701-8a1b-7f55d19ce977.root   | (None) | ad:806cd101 | 2.328 GB   |          |
| cms:/store/mc/Run3Summer22EENanoAODv12/TTto4Q_TuneCP5_13p6TeV_powheg-pythia8/NANOAODSIM/130X_mcRun3_2022_realistic_postEE_v6-v2/2520000/4eca8e03-b645-444a-8c15-cb33aeddb153.root | (None) | ad:c301d874 | 1.476 GB   |          |
| cms:/store/mc/Run3Summer22EENanoAODv12/TTto4Q_TuneCP5_13p6TeV_powheg-pythia8/NANOAODSIM/130X_mcRun3_2022_realistic_postEE_v6-v2/2520000/ceb13560-d5ab-4ea0-88c1-b75d1dee5434.root | (None) | ad:7ac646b1 | 619.914 MB |          |
| cms:/store/mc/Run3Summer22EENanoAODv12/TTto4Q_TuneCP5_13p6TeV_powheg-pythia8/NANOAODSIM/130X_mcRun3_2022_realistic_postEE_v6-v2/30000/19078f3a-4c8a-499a-9b9d-7f621e666654.root   | (None) | ad:da828627 | 1.892 GB   |          |
| cms:/store/mc/Run3Summer22EENanoAODv12/TTto4Q_TuneCP5_13p6TeV_powheg-pythia8/NANOAODSIM/130X_mcRun3_2022_realistic_postEE_v6-v2/30000/7de08104-f665-4d32-8b77-e063183893f5.root   | (None) | ad:1b1f81ba | 98.349 MB  |          |
| cms:/store/mc/Run3Summer22EENanoAODv12/TTto4Q_TuneCP5_13p6TeV_powheg-pythia8/NANOAODSIM/130X_mcRun3_2022_realistic_postEE_v6-v2/60000/4c1c634b-50fb-4229-ba32-1a34dabfc4d1.root   | (None) | ad:9ed2b98a | 1.332 GB   |          |
| cms:/store/mc/Run3Summer22EENanoAODv12/TTto4Q_TuneCP5_13p6TeV_powheg-pythia8/NANOAODSIM/130X_mcRun3_2022_realistic_postEE_v6-v2/60000/a0dd4a25-3307-45f8-8939-1555bd441266.root   | (None) | ad:c4572c80 | 2.125 GB   |          |
| cms:/store/mc/Run3Summer22EENanoAODv12/TTto4Q_TuneCP5_13p6TeV_powheg-pythia8/NANOAODSIM/130X_mcRun3_2022_realistic_postEE_v6-v2/60000/afdac264-027e-4c6c-b040-cc89ae8aa270.root   | (None) | ad:f21b9cad | 382.928 MB |          |
| cms:/store/mc/Run3Summer22EENanoAODv12/TTto4Q_TuneCP5_13p6TeV_powheg-pythia8/NANOAODSIM/130X_mcRun3_2022_realistic_postEE_v6-v2/60000/d173b4e3-4fb0-4bc4-84dc-d999e3897b4a.root   | (None) | ad:fc6f4234 | 1.522 GB   |          |
| cms:/store/mc/Run3Summer22EENanoAODv12/TTto4Q_TuneCP5_13p6TeV_powheg-pythia8/NANOAODSIM/130X_mcRun3_2022_realistic_postEE_v6-v2/40000/079006ef-fda6-4b84-952a-3f93d51a97c6.root   | (None) | ad:1cb7f084 | 2.106 GB   |          |
| cms:/store/mc/Run3Summer22EENanoAODv12/TTto4Q_TuneCP5_13p6TeV_powheg-pythia8/NANOAODSIM/130X_mcRun3_2022_realistic_postEE_v6-v2/40000/4e08f5ff-d11a-4768-b4f4-1122309565ee.root   | (None) | ad:1cb73677 | 2.330 GB   |          |
| cms:/store/mc/Run3Summer22EENanoAODv12/TTto4Q_TuneCP5_13p6TeV_powheg-pythia8/NANOAODSIM/130X_mcRun3_2022_realistic_postEE_v6-v2/40000/5d24f2a8-7806-481e-be7d-1e8630e4573f.root   | (None) | ad:d6625333 | 1.284 GB   |          |
| cms:/store/mc/Run3Summer22EENanoAODv12/TTto4Q_TuneCP5_13p6TeV_powheg-pythia8/NANOAODSIM/130X_mcRun3_2022_realistic_postEE_v6-v2/40000/94ee3330-c59f-4d5e-af16-ec419fbd32cc.root   | (None) | ad:2cc655c3 | 2.082 GB   |          |
| cms:/store/mc/Run3Summer22EENanoAODv12/TTto4Q_TuneCP5_13p6TeV_powheg-pythia8/NANOAODSIM/130X_mcRun3_2022_realistic_postEE_v6-v2/40000/9e26154b-3539-43a5-94b7-d83afc8f5e12.root   | (None) | ad:daa927d1 | 2.328 GB   |          |
| cms:/store/mc/Run3Summer22EENanoAODv12/TTto4Q_TuneCP5_13p6TeV_powheg-pythia8/NANOAODSIM/130X_mcRun3_2022_realistic_postEE_v6-v2/40000/b5b0c031-b84d-4954-be72-b30366b96db6.root   | (None) | ad:fa1f75d2 | 1.475 GB   |          |
| cms:/store/mc/Run3Summer22EENanoAODv12/TTto4Q_TuneCP5_13p6TeV_powheg-pythia8/NANOAODSIM/130X_mcRun3_2022_realistic_postEE_v6-v2/40000/bd41bb9c-222f-4366-9863-c5cadcec06d8.root   | (None) | ad:89fe227c | 2.328 GB   |          |
| cms:/store/mc/Run3Summer22EENanoAODv12/TTto4Q_TuneCP5_13p6TeV_powheg-pythia8/NANOAODSIM/130X_mcRun3_2022_realistic_postEE_v6-v2/40000/c299dfab-9421-44d0-8ea6-73be1737f38c.root   | (None) | ad:41f6f545 | 1.333 GB   |          |
| cms:/store/mc/Run3Summer22EENanoAODv12/TTto4Q_TuneCP5_13p6TeV_powheg-pythia8/NANOAODSIM/130X_mcRun3_2022_realistic_postEE_v6-v2/40000/c73e261a-b98b-4d5e-afa6-2dcbf7c99adf.root   | (None) | ad:a4d08a87 | 2.092 GB   |          |
| cms:/store/mc/Run3Summer22EENanoAODv12/TTto4Q_TuneCP5_13p6TeV_powheg-pythia8/NANOAODSIM/130X_mcRun3_2022_realistic_postEE_v6-v2/40000/e9cbfa92-de67-4723-9073-db2f0307fc7b.root   | (None) | ad:f0d31e19 | 2.329 GB   |          |
| cms:/store/mc/Run3Summer22EENanoAODv12/TTto4Q_TuneCP5_13p6TeV_powheg-pythia8/NANOAODSIM/130X_mcRun3_2022_realistic_postEE_v6-v2/40000/f680ef5e-9f3d-41a9-af32-2471f919b8be.root   | (None) | ad:4c6f428c | 430.521 MB |          |
| cms:/store/mc/Run3Summer22EENanoAODv12/TTto4Q_TuneCP5_13p6TeV_powheg-pythia8/NANOAODSIM/130X_mcRun3_2022_realistic_postEE_v6-v2/30000/5ecdeeeb-a230-4cfd-aeeb-1779d810fa70.root   | (None) | ad:826a84ee | 122.723 MB |          |
| cms:/store/mc/Run3Summer22EENanoAODv12/TTto4Q_TuneCP5_13p6TeV_powheg-pythia8/NANOAODSIM/130X_mcRun3_2022_realistic_postEE_v6-v2/50000/3f0240c7-ac7a-49a1-a860-ad8ca01a66e3.root   | (None) | ad:2e346f4d | 2.330 GB   |          |
| cms:/store/mc/Run3Summer22EENanoAODv12/TTto4Q_TuneCP5_13p6TeV_powheg-pythia8/NANOAODSIM/130X_mcRun3_2022_realistic_postEE_v6-v2/50000/5325d345-fc32-4933-8d9a-ad4967edc546.root   | (None) | ad:c490ba97 | 2.304 GB   |          |
| cms:/store/mc/Run3Summer22EENanoAODv12/TTto4Q_TuneCP5_13p6TeV_powheg-pythia8/NANOAODSIM/130X_mcRun3_2022_realistic_postEE_v6-v2/50000/72f81e66-9e0f-4330-b42f-5dc668f87722.root   | (None) | ad:8031ef7f | 2.339 GB   |          |
| cms:/store/mc/Run3Summer22EENanoAODv12/TTto4Q_TuneCP5_13p6TeV_powheg-pythia8/NANOAODSIM/130X_mcRun3_2022_realistic_postEE_v6-v2/50000/7a75231c-464c-4753-bfde-a8b43f560f18.root   | (None) | ad:e4dc3b1f | 2.309 GB   |          |
| cms:/store/mc/Run3Summer22EENanoAODv12/TTto4Q_TuneCP5_13p6TeV_powheg-pythia8/NANOAODSIM/130X_mcRun3_2022_realistic_postEE_v6-v2/50000/8a802fb4-33d8-47a5-9271-b187181f99dd.root   | (None) | ad:8e672408 | 2.329 GB   |          |
| cms:/store/mc/Run3Summer22EENanoAODv12/TTto4Q_TuneCP5_13p6TeV_powheg-pythia8/NANOAODSIM/130X_mcRun3_2022_realistic_postEE_v6-v2/50000/8feaf829-0d92-4773-a85e-2b170ef9cd45.root   | (None) | ad:2addb427 | 2.329 GB   |          |
| cms:/store/mc/Run3Summer22EENanoAODv12/TTto4Q_TuneCP5_13p6TeV_powheg-pythia8/NANOAODSIM/130X_mcRun3_2022_realistic_postEE_v6-v2/50000/a78192f7-1a32-4c78-9707-7b608b403059.root   | (None) | ad:90707e57 | 2.321 GB   |          |
| cms:/store/mc/Run3Summer22EENanoAODv12/TTto4Q_TuneCP5_13p6TeV_powheg-pythia8/NANOAODSIM/130X_mcRun3_2022_realistic_postEE_v6-v2/50000/bfd0c704-9e33-4ca5-ae40-d2f984bb48c5.root   | (None) | ad:c9830be0 | 2.331 GB   |          |
| cms:/store/mc/Run3Summer22EENanoAODv12/TTto4Q_TuneCP5_13p6TeV_powheg-pythia8/NANOAODSIM/130X_mcRun3_2022_realistic_postEE_v6-v2/50000/f31f9bbc-ecb6-458f-a5b1-d336f6ab8f06.root   | (None) | ad:4e2c554d | 756.495 MB |          |
| cms:/store/mc/Run3Summer22EENanoAODv12/TTto4Q_TuneCP5_13p6TeV_powheg-pythia8/NANOAODSIM/130X_mcRun3_2022_realistic_postEE_v6-v2/50000/f623484b-6450-4e69-a881-4e5c7d46be3b.root   | (None) | ad:d4c30fd2 | 2.326 GB   |          |
| cms:/store/mc/Run3Summer22EENanoAODv12/TTto4Q_TuneCP5_13p6TeV_powheg-pythia8/NANOAODSIM/130X_mcRun3_2022_realistic_postEE_v6-v2/2530000/00e288a5-99a5-4122-ab95-3853ab63f713.root | (None) | ad:f0a58c39 | 1.474 GB   |          |
| cms:/store/mc/Run3Summer22EENanoAODv12/TTto4Q_TuneCP5_13p6TeV_powheg-pythia8/NANOAODSIM/130X_mcRun3_2022_realistic_postEE_v6-v2/2530000/1a2e27f6-dc92-423b-9a94-7a4f78731866.root | (None) | ad:77a2bac1 | 1.237 GB   |          |
| cms:/store/mc/Run3Summer22EENanoAODv12/TTto4Q_TuneCP5_13p6TeV_powheg-pythia8/NANOAODSIM/130X_mcRun3_2022_realistic_postEE_v6-v2/2530000/22d7683d-91a2-4c2d-875f-d68133911d64.root | (None) | ad:6afaf4f7 | 1.190 GB   |          |
| cms:/store/mc/Run3Summer22EENanoAODv12/TTto4Q_TuneCP5_13p6TeV_powheg-pythia8/NANOAODSIM/130X_mcRun3_2022_realistic_postEE_v6-v2/2530000/2e91edaf-4e68-432c-904d-a2466e7aeac8.root | (None) | ad:8d7b4b00 | 2.329 GB   |          |
| cms:/store/mc/Run3Summer22EENanoAODv12/TTto4Q_TuneCP5_13p6TeV_powheg-pythia8/NANOAODSIM/130X_mcRun3_2022_realistic_postEE_v6-v2/2530000/7c23d5aa-fa6f-4f8f-a3b9-3f13eb8d902c.root | (None) | ad:092cbee7 | 1.569 GB   |          |
| cms:/store/mc/Run3Summer22EENanoAODv12/TTto4Q_TuneCP5_13p6TeV_powheg-pythia8/NANOAODSIM/130X_mcRun3_2022_realistic_postEE_v6-v2/2530000/9e6a2a1d-ff8e-400a-90af-345d115ce6cd.root | (None) | ad:4fcb44b0 | 1.997 GB   |          |
| cms:/store/mc/Run3Summer22EENanoAODv12/TTto4Q_TuneCP5_13p6TeV_powheg-pythia8/NANOAODSIM/130X_mcRun3_2022_realistic_postEE_v6-v2/2530000/a2eebc88-af83-4b45-b453-318aa6c10fee.root | (None) | ad:49d30e5d | 2.180 GB   |          |
| cms:/store/mc/Run3Summer22EENanoAODv12/TTto4Q_TuneCP5_13p6TeV_powheg-pythia8/NANOAODSIM/130X_mcRun3_2022_realistic_postEE_v6-v2/2530000/a8de2f6c-6b25-4372-9fc9-80ad7ac7fd02.root | (None) | ad:f25d2107 | 1.855 GB   |          |
| cms:/store/mc/Run3Summer22EENanoAODv12/TTto4Q_TuneCP5_13p6TeV_powheg-pythia8/NANOAODSIM/130X_mcRun3_2022_realistic_postEE_v6-v2/2530000/af43b45c-f7e1-416e-a1ad-032e80c295ef.root | (None) | ad:1c823b3d | 2.331 GB   |          |
| cms:/store/mc/Run3Summer22EENanoAODv12/TTto4Q_TuneCP5_13p6TeV_powheg-pythia8/NANOAODSIM/130X_mcRun3_2022_realistic_postEE_v6-v2/2530000/e9cd31ff-dfa3-446c-88bc-6ab1a7f8ee65.root | (None) | ad:809a9204 | 1.272 GB   |          |
| cms:/store/mc/Run3Summer22EENanoAODv12/TTto4Q_TuneCP5_13p6TeV_powheg-pythia8/NANOAODSIM/130X_mcRun3_2022_realistic_postEE_v6-v2/2530000/f701c015-fed4-43b7-94cf-e4814e390a9e.root | (None) | ad:8676cfc4 | 1.380 GB   |          |
| cms:/store/mc/Run3Summer22EENanoAODv12/TTto4Q_TuneCP5_13p6TeV_powheg-pythia8/NANOAODSIM/130X_mcRun3_2022_realistic_postEE_v6-v2/40000/8f8e52a6-1213-4ebb-ad8d-aa97ca2d2586.root   | (None) | ad:53059dea | 7.812 MB   |          |
| cms:/store/mc/Run3Summer22EENanoAODv12/TTto4Q_TuneCP5_13p6TeV_powheg-pythia8/NANOAODSIM/130X_mcRun3_2022_realistic_postEE_v6-v2/50000/65bcc285-735d-4d5f-b0ef-2f92efa948fc.root   | (None) | ad:5b8fe4fd | 696.165 MB |          |
| cms:/store/mc/Run3Summer22EENanoAODv12/TTto4Q_TuneCP5_13p6TeV_powheg-pythia8/NANOAODSIM/130X_mcRun3_2022_realistic_postEE_v6-v2/2530000/17871843-a76b-440e-87dc-52bbf292ac85.root | (None) | ad:3b6c1aa8 | 1.570 GB   |          |
| cms:/store/mc/Run3Summer22EENanoAODv12/TTto4Q_TuneCP5_13p6TeV_powheg-pythia8/NANOAODSIM/130X_mcRun3_2022_realistic_postEE_v6-v2/2530000/4737195f-cb25-448d-b6f5-4919abb19102.root | (None) | ad:d384e08b | 1.713 GB   |          |
| cms:/store/mc/Run3Summer22EENanoAODv12/TTto4Q_TuneCP5_13p6TeV_powheg-pythia8/NANOAODSIM/130X_mcRun3_2022_realistic_postEE_v6-v2/2530000/6b13888b-0271-4f46-a981-28b11b63eeb9.root | (None) | ad:346e32bd | 2.329 GB   |          |
| cms:/store/mc/Run3Summer22EENanoAODv12/TTto4Q_TuneCP5_13p6TeV_powheg-pythia8/NANOAODSIM/130X_mcRun3_2022_realistic_postEE_v6-v2/2530000/815a38b3-169c-4526-89fd-5c22a1cb3d66.root | (None) | ad:f99002c7 | 1.190 GB   |          |
| cms:/store/mc/Run3Summer22EENanoAODv12/TTto4Q_TuneCP5_13p6TeV_powheg-pythia8/NANOAODSIM/130X_mcRun3_2022_realistic_postEE_v6-v2/2530000/bee7cbb2-8304-4d01-b6b4-522899870a94.root | (None) | ad:f6ea69c3 | 1.237 GB   |          |
| cms:/store/mc/Run3Summer22EENanoAODv12/TTto4Q_TuneCP5_13p6TeV_powheg-pythia8/NANOAODSIM/130X_mcRun3_2022_realistic_postEE_v6-v2/2530000/c5117999-f000-4db0-8eb0-1c8435968c3a.root | (None) | ad:4f197e63 | 1.205 GB   |          |
| cms:/store/mc/Run3Summer22EENanoAODv12/TTto4Q_TuneCP5_13p6TeV_powheg-pythia8/NANOAODSIM/130X_mcRun3_2022_realistic_postEE_v6-v2/2530000/d8561b00-c697-458a-8e2c-d64fd0662fa5.root | (None) | ad:e92e2712 | 857.576 MB |          |
| cms:/store/mc/Run3Summer22EENanoAODv12/TTto4Q_TuneCP5_13p6TeV_powheg-pythia8/NANOAODSIM/130X_mcRun3_2022_realistic_postEE_v6-v2/40000/2abccd4a-3421-4b66-8726-923787c766ac.root   | (None) | ad:c171e700 | 237.374 MB |          |
| cms:/store/mc/Run3Summer22EENanoAODv12/TTto4Q_TuneCP5_13p6TeV_powheg-pythia8/NANOAODSIM/130X_mcRun3_2022_realistic_postEE_v6-v2/30000/2a6ac173-eba0-4db5-a6ca-673fe49160d4.root   | (None) | ad:457522f1 | 1.569 GB   |          |
| cms:/store/mc/Run3Summer22EENanoAODv12/TTto4Q_TuneCP5_13p6TeV_powheg-pythia8/NANOAODSIM/130X_mcRun3_2022_realistic_postEE_v6-v2/30000/38aa9d09-8896-4544-995f-03516f047d1d.root   | (None) | ad:14525913 | 1.522 GB   |          |
| cms:/store/mc/Run3Summer22EENanoAODv12/TTto4Q_TuneCP5_13p6TeV_powheg-pythia8/NANOAODSIM/130X_mcRun3_2022_realistic_postEE_v6-v2/30000/653375ed-b854-4283-937b-d088185e22fc.root   | (None) | ad:3464612b | 1.536 GB   |          |
| cms:/store/mc/Run3Summer22EENanoAODv12/TTto4Q_TuneCP5_13p6TeV_powheg-pythia8/NANOAODSIM/130X_mcRun3_2022_realistic_postEE_v6-v2/30000/93685b77-e13a-47e3-866f-9cacb69ee1fb.root   | (None) | ad:e40817ff | 2.329 GB   |          |
| cms:/store/mc/Run3Summer22EENanoAODv12/TTto4Q_TuneCP5_13p6TeV_powheg-pythia8/NANOAODSIM/130X_mcRun3_2022_realistic_postEE_v6-v2/30000/9867d91d-f1f3-4813-975e-3b8589b05499.root   | (None) | ad:ce589e7f | 1.997 GB   |          |
| cms:/store/mc/Run3Summer22EENanoAODv12/TTto4Q_TuneCP5_13p6TeV_powheg-pythia8/NANOAODSIM/130X_mcRun3_2022_realistic_postEE_v6-v2/30000/b1301fbd-7b8c-4328-a2f0-a942a6627dbd.root   | (None) | ad:015ca372 | 145.385 MB |          |
| cms:/store/mc/Run3Summer22EENanoAODv12/TTto4Q_TuneCP5_13p6TeV_powheg-pythia8/NANOAODSIM/130X_mcRun3_2022_realistic_postEE_v6-v2/30000/fd174e70-cfbb-47b9-92a3-d4cb204e5a56.root   | (None) | ad:05bf5a67 | 1.333 GB   |          |
| cms:/store/mc/Run3Summer22EENanoAODv12/TTto4Q_TuneCP5_13p6TeV_powheg-pythia8/NANOAODSIM/130X_mcRun3_2022_realistic_postEE_v6-v2/2530000/9ccf6da1-3692-4854-a2dd-c7086352d9f1.root | (None) | ad:64c3466c | 572.510 MB |          |
| cms:/store/mc/Run3Summer22EENanoAODv12/TTto4Q_TuneCP5_13p6TeV_powheg-pythia8/NANOAODSIM/130X_mcRun3_2022_realistic_postEE_v6-v2/40000/3637ecfe-d831-44a7-83c4-cfee3bcbc62d.root   | (None) | ad:cd40b39d | 66.023 MB  |          |
| cms:/store/mc/Run3Summer22EENanoAODv12/TTto4Q_TuneCP5_13p6TeV_powheg-pythia8/NANOAODSIM/130X_mcRun3_2022_realistic_postEE_v6-v2/40000/aafaed35-c8e6-4a13-b724-fb70dbd5745e.root   | (None) | ad:2c5e6907 | 2.153 GB   |          |
| cms:/store/mc/Run3Summer22EENanoAODv12/TTto4Q_TuneCP5_13p6TeV_powheg-pythia8/NANOAODSIM/130X_mcRun3_2022_realistic_postEE_v6-v2/40000/ee61b6a3-4734-45ca-95be-597a9f1fae33.root   | (None) | ad:a28f289e | 1.713 GB   |          |
| cms:/store/mc/Run3Summer22EENanoAODv12/TTto4Q_TuneCP5_13p6TeV_powheg-pythia8/NANOAODSIM/130X_mcRun3_2022_realistic_postEE_v6-v2/40000/f117c85c-ef2f-47c9-a89e-97eca8d01d92.root   | (None) | ad:4f813432 | 810.559 MB |          |
| cms:/store/mc/Run3Summer22EENanoAODv12/TTto4Q_TuneCP5_13p6TeV_powheg-pythia8/NANOAODSIM/130X_mcRun3_2022_realistic_postEE_v6-v2/40000/f31bb211-98bc-4e43-889e-4b5bf27c5a89.root   | (None) | ad:62c9cfac | 1.428 GB   |          |
| cms:/store/mc/Run3Summer22EENanoAODv12/TTto4Q_TuneCP5_13p6TeV_powheg-pythia8/NANOAODSIM/130X_mcRun3_2022_realistic_postEE_v6-v2/40000/52b8cd55-32b5-4ef4-b80d-52aa5e71bc5a.root   | (None) | ad:26efd274 | 32.287 MB  |          |
| cms:/store/mc/Run3Summer22EENanoAODv12/TTto4Q_TuneCP5_13p6TeV_powheg-pythia8/NANOAODSIM/130X_mcRun3_2022_realistic_postEE_v6-v2/40000/f9c9415d-42e9-47cf-b550-c7afe9662f28.root   | (None) | ad:897137f0 | 132.021 MB |          |
| cms:/store/mc/Run3Summer22EENanoAODv12/TTto4Q_TuneCP5_13p6TeV_powheg-pythia8/NANOAODSIM/130X_mcRun3_2022_realistic_postEE_v6-v2/50000/19667391-57cf-461f-b2fa-2aba4b8d398b.root   | (None) | ad:fec700d5 | 987.285 MB |          |
| cms:/store/mc/Run3Summer22EENanoAODv12/TTto4Q_TuneCP5_13p6TeV_powheg-pythia8/NANOAODSIM/130X_mcRun3_2022_realistic_postEE_v6-v2/50000/2983ec68-6e0a-4e1a-ab64-b914d01766b7.root   | (None) | ad:ef8b0b0b | 2.326 GB   |          |
| cms:/store/mc/Run3Summer22EENanoAODv12/TTto4Q_TuneCP5_13p6TeV_powheg-pythia8/NANOAODSIM/130X_mcRun3_2022_realistic_postEE_v6-v2/50000/603dda93-cd27-48bc-807a-a911ccee8567.root   | (None) | ad:f1bcbdc8 | 2.327 GB   |          |
| cms:/store/mc/Run3Summer22EENanoAODv12/TTto4Q_TuneCP5_13p6TeV_powheg-pythia8/NANOAODSIM/130X_mcRun3_2022_realistic_postEE_v6-v2/50000/66d34f3c-5ccc-4f53-80db-f95e6abb1a76.root   | (None) | ad:c4ec0f3f | 2.328 GB   |          |
| cms:/store/mc/Run3Summer22EENanoAODv12/TTto4Q_TuneCP5_13p6TeV_powheg-pythia8/NANOAODSIM/130X_mcRun3_2022_realistic_postEE_v6-v2/30000/2deac904-7ed1-43d2-b730-c9d9e7ab3d9f.root   | (None) | ad:953158b2 | 1.190 GB   |          |
| cms:/store/mc/Run3Summer22EENanoAODv12/TTto4Q_TuneCP5_13p6TeV_powheg-pythia8/NANOAODSIM/130X_mcRun3_2022_realistic_postEE_v6-v2/30000/3ac96623-dda7-4363-8e92-142e5db8dfcc.root   | (None) | ad:721d37dd | 1.856 GB   |          |
| cms:/store/mc/Run3Summer22EENanoAODv12/TTto4Q_TuneCP5_13p6TeV_powheg-pythia8/NANOAODSIM/130X_mcRun3_2022_realistic_postEE_v6-v2/30000/7664f6b2-5d5a-428f-ad65-9cbd928ba749.root   | (None) | ad:4d4890d1 | 1.743 GB   |          |
| cms:/store/mc/Run3Summer22EENanoAODv12/TTto4Q_TuneCP5_13p6TeV_powheg-pythia8/NANOAODSIM/130X_mcRun3_2022_realistic_postEE_v6-v2/30000/92cc3b95-1625-4603-b9bc-4cd3ba4e8786.root   | (None) | ad:8922f721 | 1.807 GB   |          |
| cms:/store/mc/Run3Summer22EENanoAODv12/TTto4Q_TuneCP5_13p6TeV_powheg-pythia8/NANOAODSIM/130X_mcRun3_2022_realistic_postEE_v6-v2/30000/a5ac7d95-8f42-48f9-92a3-7498b86a11f9.root   | (None) | ad:8ebc12a9 | 1.236 GB   |          |
| cms:/store/mc/Run3Summer22EENanoAODv12/TTto4Q_TuneCP5_13p6TeV_powheg-pythia8/NANOAODSIM/130X_mcRun3_2022_realistic_postEE_v6-v2/30000/bda3d51f-0050-430a-9d63-233b33fe2884.root   | (None) | ad:e87cd853 | 1.143 GB   |          |
| cms:/store/mc/Run3Summer22EENanoAODv12/TTto4Q_TuneCP5_13p6TeV_powheg-pythia8/NANOAODSIM/130X_mcRun3_2022_realistic_postEE_v6-v2/30000/ef6f20aa-3da7-417d-8a71-dd73b44bb57f.root   | (None) | ad:dc2a94bc | 1.474 GB   |          |
| cms:/store/mc/Run3Summer22EENanoAODv12/TTto4Q_TuneCP5_13p6TeV_powheg-pythia8/NANOAODSIM/130X_mcRun3_2022_realistic_postEE_v6-v2/2530000/21c6fd30-0073-4842-b1cf-6fd060617665.root | (None) | ad:e0e17488 | 217.610 MB |          |
| cms:/store/mc/Run3Summer22EENanoAODv12/TTto4Q_TuneCP5_13p6TeV_powheg-pythia8/NANOAODSIM/130X_mcRun3_2022_realistic_postEE_v6-v2/30000/5fbd5bb4-48eb-4aa3-97f7-7459646d13cc.root   | (None) | ad:95ef61a1 | 455.759 MB |          |
| cms:/store/mc/Run3Summer22EENanoAODv12/TTto4Q_TuneCP5_13p6TeV_powheg-pythia8/NANOAODSIM/130X_mcRun3_2022_realistic_postEE_v6-v2/30000/6e0cf0c8-fbca-41b8-8349-9ae90015c1f1.root   | (None) | ad:7cd34c1b | 820.852 MB |          |
| cms:/store/mc/Run3Summer22EENanoAODv12/TTto4Q_TuneCP5_13p6TeV_powheg-pythia8/NANOAODSIM/130X_mcRun3_2022_realistic_postEE_v6-v2/50000/19182145-b870-49d3-b94e-612d9f6c40a5.root   | (None) | ad:4f2c8958 | 2.330 GB   |          |
| cms:/store/mc/Run3Summer22EENanoAODv12/TTto4Q_TuneCP5_13p6TeV_powheg-pythia8/NANOAODSIM/130X_mcRun3_2022_realistic_postEE_v6-v2/50000/631ddbf8-9ff9-4c97-9c9b-5a97d4d158e9.root   | (None) | ad:86e054bb | 15.530 MB  |          |
| cms:/store/mc/Run3Summer22EENanoAODv12/TTto4Q_TuneCP5_13p6TeV_powheg-pythia8/NANOAODSIM/130X_mcRun3_2022_realistic_postEE_v6-v2/50000/64f37afd-ab44-4f28-90ed-6dca27a9717a.root   | (None) | ad:f10e881f | 2.336 GB   |          |
| cms:/store/mc/Run3Summer22EENanoAODv12/TTto4Q_TuneCP5_13p6TeV_powheg-pythia8/NANOAODSIM/130X_mcRun3_2022_realistic_postEE_v6-v2/50000/6a36021f-1141-4654-9d81-8fe00094bc49.root   | (None) | ad:f18f3a59 | 2.330 GB   |          |
| cms:/store/mc/Run3Summer22EENanoAODv12/TTto4Q_TuneCP5_13p6TeV_powheg-pythia8/NANOAODSIM/130X_mcRun3_2022_realistic_postEE_v6-v2/50000/6b45985b-e381-46ac-affa-5eed74423834.root   | (None) | ad:4868f2e6 | 2.330 GB   |          |
| cms:/store/mc/Run3Summer22EENanoAODv12/TTto4Q_TuneCP5_13p6TeV_powheg-pythia8/NANOAODSIM/130X_mcRun3_2022_realistic_postEE_v6-v2/50000/6beab337-c8cc-498d-b1c0-7d2742464f79.root   | (None) | ad:7a69061f | 2.329 GB   |          |
| cms:/store/mc/Run3Summer22EENanoAODv12/TTto4Q_TuneCP5_13p6TeV_powheg-pythia8/NANOAODSIM/130X_mcRun3_2022_realistic_postEE_v6-v2/50000/7add9c27-146c-474b-9590-53a3ba28190a.root   | (None) | ad:560e6323 | 2.328 GB   |          |
| cms:/store/mc/Run3Summer22EENanoAODv12/TTto4Q_TuneCP5_13p6TeV_powheg-pythia8/NANOAODSIM/130X_mcRun3_2022_realistic_postEE_v6-v2/50000/ccbea521-0c95-445d-b13f-be4a93ef15ca.root   | (None) | ad:dc08d5c1 | 2.332 GB   |          |
| cms:/store/mc/Run3Summer22EENanoAODv12/TTto4Q_TuneCP5_13p6TeV_powheg-pythia8/NANOAODSIM/130X_mcRun3_2022_realistic_postEE_v6-v2/50000/d3dc86a7-20f3-412d-a9cb-a6547714e751.root   | (None) | ad:141d127a | 2.297 GB   |          |
| cms:/store/mc/Run3Summer22EENanoAODv12/TTto4Q_TuneCP5_13p6TeV_powheg-pythia8/NANOAODSIM/130X_mcRun3_2022_realistic_postEE_v6-v2/50000/d91eee75-c341-4dde-b039-6eab2c0de269.root   | (None) | ad:a3f1b650 | 2.328 GB   |          |
| cms:/store/mc/Run3Summer22EENanoAODv12/TTto4Q_TuneCP5_13p6TeV_powheg-pythia8/NANOAODSIM/130X_mcRun3_2022_realistic_postEE_v6-v2/50000/daec2693-abb3-4b64-a954-96af27c1c371.root   | (None) | ad:f5c13d0c | 2.331 GB   |          |
| cms:/store/mc/Run3Summer22EENanoAODv12/TTto4Q_TuneCP5_13p6TeV_powheg-pythia8/NANOAODSIM/130X_mcRun3_2022_realistic_postEE_v6-v2/50000/e6b69932-b185-4483-8c5f-735e333e13bc.root   | (None) | ad:173948a4 | 2.335 GB   |          |
| cms:/store/mc/Run3Summer22EENanoAODv12/TTto4Q_TuneCP5_13p6TeV_powheg-pythia8/NANOAODSIM/130X_mcRun3_2022_realistic_postEE_v6-v2/50000/ec703f1f-074d-4e86-bb92-7eb1794408b3.root   | (None) | ad:15d4ac35 | 2.332 GB   |          |
| cms:/store/mc/Run3Summer22EENanoAODv12/TTto4Q_TuneCP5_13p6TeV_powheg-pythia8/NANOAODSIM/130X_mcRun3_2022_realistic_postEE_v6-v2/50000/f9665dcb-7796-4dc3-9e05-ef32b3dd8e76.root   | (None) | ad:85891c2f | 2.330 GB   |          |
| cms:/store/mc/Run3Summer22EENanoAODv12/TTto4Q_TuneCP5_13p6TeV_powheg-pythia8/NANOAODSIM/130X_mcRun3_2022_realistic_postEE_v6-v2/50000/ffa60ed9-368a-421e-813c-e8ed7ca59b30.root   | (None) | ad:b596d875 | 2.318 GB   |          |
| cms:/store/mc/Run3Summer22EENanoAODv12/TTto4Q_TuneCP5_13p6TeV_powheg-pythia8/NANOAODSIM/130X_mcRun3_2022_realistic_postEE_v6-v2/40000/25470692-5251-451c-a37c-05b052e09c42.root   | (None) | ad:d5e8cd10 | 1.332 GB   |          |
| cms:/store/mc/Run3Summer22EENanoAODv12/TTto4Q_TuneCP5_13p6TeV_powheg-pythia8/NANOAODSIM/130X_mcRun3_2022_realistic_postEE_v6-v2/40000/53ad0d5a-3113-417d-9e09-36890e7f1731.root   | (None) | ad:bdf8070e | 811.205 MB |          |
| cms:/store/mc/Run3Summer22EENanoAODv12/TTto4Q_TuneCP5_13p6TeV_powheg-pythia8/NANOAODSIM/130X_mcRun3_2022_realistic_postEE_v6-v2/40000/c2740440-8012-4224-bf32-0a26e3920e13.root   | (None) | ad:df70aa4e | 1.617 GB   |          |
| cms:/store/mc/Run3Summer22EENanoAODv12/TTto4Q_TuneCP5_13p6TeV_powheg-pythia8/NANOAODSIM/130X_mcRun3_2022_realistic_postEE_v6-v2/40000/ef32acbf-2166-44ec-84e3-26d1c622ae6c.root   | (None) | ad:8ba301a1 | 2.076 GB   |          |
| cms:/store/mc/Run3Summer22EENanoAODv12/TTto4Q_TuneCP5_13p6TeV_powheg-pythia8/NANOAODSIM/130X_mcRun3_2022_realistic_postEE_v6-v2/30000/44bf6418-a255-4933-b787-7723f896f5d4.root   | (None) | ad:1e8e05e6 | 65.968 MB  |          |
| cms:/store/mc/Run3Summer22EENanoAODv12/TTto4Q_TuneCP5_13p6TeV_powheg-pythia8/NANOAODSIM/130X_mcRun3_2022_realistic_postEE_v6-v2/50000/5603de87-8333-4468-9b3f-cf3126c7233b.root   | (None) | ad:18cc2166 | 6.272 MB   |          |
| cms:/store/mc/Run3Summer22EENanoAODv12/TTto4Q_TuneCP5_13p6TeV_powheg-pythia8/NANOAODSIM/130X_mcRun3_2022_realistic_postEE_v6-v2/2530000/069ae5e7-bca1-49ba-8ef8-c4e4ac308ba8.root | (None) | ad:2858cffb | 1.517 GB   |          |
| cms:/store/mc/Run3Summer22EENanoAODv12/TTto4Q_TuneCP5_13p6TeV_powheg-pythia8/NANOAODSIM/130X_mcRun3_2022_realistic_postEE_v6-v2/2530000/5aeabb9d-2930-4740-9d9b-1b9529f0de59.root | (None) | ad:5c464a7c | 1.855 GB   |          |
| cms:/store/mc/Run3Summer22EENanoAODv12/TTto4Q_TuneCP5_13p6TeV_powheg-pythia8/NANOAODSIM/130X_mcRun3_2022_realistic_postEE_v6-v2/2530000/6baa1139-d062-4039-86f8-58d8c4f67d0c.root | (None) | ad:a19fdedb | 1.333 GB   |          |
| cms:/store/mc/Run3Summer22EENanoAODv12/TTto4Q_TuneCP5_13p6TeV_powheg-pythia8/NANOAODSIM/130X_mcRun3_2022_realistic_postEE_v6-v2/2530000/8acfcf54-3bb9-4e1b-a491-cd84fb3dab18.root | (None) | ad:93550931 | 1.666 GB   |          |
| cms:/store/mc/Run3Summer22EENanoAODv12/TTto4Q_TuneCP5_13p6TeV_powheg-pythia8/NANOAODSIM/130X_mcRun3_2022_realistic_postEE_v6-v2/2530000/99610f48-a9de-4f7f-b06e-834ef760fdf9.root | (None) | ad:f4371fbc | 1.901 GB   |          |
| cms:/store/mc/Run3Summer22EENanoAODv12/TTto4Q_TuneCP5_13p6TeV_powheg-pythia8/NANOAODSIM/130X_mcRun3_2022_realistic_postEE_v6-v2/2530000/9a06ee20-eb30-4719-95d3-d361f4f27baa.root | (None) | ad:35db06e5 | 1.379 GB   |          |
| cms:/store/mc/Run3Summer22EENanoAODv12/TTto4Q_TuneCP5_13p6TeV_powheg-pythia8/NANOAODSIM/130X_mcRun3_2022_realistic_postEE_v6-v2/2530000/ae0ad7c4-2400-48ab-bab8-cb5142867b4a.root | (None) | ad:b44d2b91 | 1.708 GB   |          |
| cms:/store/mc/Run3Summer22EENanoAODv12/TTto4Q_TuneCP5_13p6TeV_powheg-pythia8/NANOAODSIM/130X_mcRun3_2022_realistic_postEE_v6-v2/2530000/c14fa197-172f-4055-af9e-2fbb4162e19d.root | (None) | ad:35aa866d | 1.760 GB   |          |
| cms:/store/mc/Run3Summer22EENanoAODv12/TTto4Q_TuneCP5_13p6TeV_powheg-pythia8/NANOAODSIM/130X_mcRun3_2022_realistic_postEE_v6-v2/50000/0ad5250e-5bae-40ca-8421-fa6405cff73e.root   | (None) | ad:7ff4660c | 1.297 GB   |          |
| cms:/store/mc/Run3Summer22EENanoAODv12/TTto4Q_TuneCP5_13p6TeV_powheg-pythia8/NANOAODSIM/130X_mcRun3_2022_realistic_postEE_v6-v2/50000/62e6fe67-db59-4a41-ac79-4e1da236d20e.root   | (None) | ad:a501acbd | 2.282 GB   |          |
| cms:/store/mc/Run3Summer22EENanoAODv12/TTto4Q_TuneCP5_13p6TeV_powheg-pythia8/NANOAODSIM/130X_mcRun3_2022_realistic_postEE_v6-v2/50000/8c6c2349-4b4f-4d06-be79-f5ea6baee59b.root   | (None) | ad:cbb5a491 | 1.902 GB   |          |
| cms:/store/mc/Run3Summer22EENanoAODv12/TTto4Q_TuneCP5_13p6TeV_powheg-pythia8/NANOAODSIM/130X_mcRun3_2022_realistic_postEE_v6-v2/30000/bddf3ad2-5ce6-4600-b96e-2b1c7163afb9.root   | (None) | ad:771a1197 | 1.178 GB   |          |
| cms:/store/mc/Run3Summer22EENanoAODv12/TTto4Q_TuneCP5_13p6TeV_powheg-pythia8/NANOAODSIM/130X_mcRun3_2022_realistic_postEE_v6-v2/30000/d367bfd9-39df-450e-b1b7-6c1e8c58018f.root   | (None) | ad:f0e7087a | 477.871 MB |          |
| cms:/store/mc/Run3Summer22EENanoAODv12/TTto4Q_TuneCP5_13p6TeV_powheg-pythia8/NANOAODSIM/130X_mcRun3_2022_realistic_postEE_v6-v2/50000/34e9daed-6cb2-46f4-9bf5-5349551edade.root   | (None) | ad:a6b47228 | 1.234 GB   |          |
| cms:/store/mc/Run3Summer22EENanoAODv12/TTto4Q_TuneCP5_13p6TeV_powheg-pythia8/NANOAODSIM/130X_mcRun3_2022_realistic_postEE_v6-v2/50000/5b30d844-e4ef-46f7-9d65-2a611830c4c5.root   | (None) | ad:51d4da3b | 98.347 MB  |          |
| cms:/store/mc/Run3Summer22EENanoAODv12/TTto4Q_TuneCP5_13p6TeV_powheg-pythia8/NANOAODSIM/130X_mcRun3_2022_realistic_postEE_v6-v2/50000/dc00058b-f2fa-48bd-9a55-4d8b1b2012ae.root   | (None) | ad:0aa9adcb | 1.188 GB   |          |
| cms:/store/mc/Run3Summer22EENanoAODv12/TTto4Q_TuneCP5_13p6TeV_powheg-pythia8/NANOAODSIM/130X_mcRun3_2022_realistic_postEE_v6-v2/2540000/cd0d3896-664b-44ed-b9ed-508c420d5702.root | (None) | ad:d040df9c | 10.703 MB  |          |
| cms:/store/mc/Run3Summer22EENanoAODv12/TTto4Q_TuneCP5_13p6TeV_powheg-pythia8/NANOAODSIM/130X_mcRun3_2022_realistic_postEE_v6-v2/40000/1f1dd691-1acc-4425-82df-fce080707735.root   | (None) | ad:fcb6ee9e | 1.523 GB   |          |
| cms:/store/mc/Run3Summer22EENanoAODv12/TTto4Q_TuneCP5_13p6TeV_powheg-pythia8/NANOAODSIM/130X_mcRun3_2022_realistic_postEE_v6-v2/40000/a07e8fcd-a349-4078-a8c3-098dd8636cd0.root   | (None) | ad:86567dd3 | 2.329 GB   |          |
| cms:/store/mc/Run3Summer22EENanoAODv12/TTto4Q_TuneCP5_13p6TeV_powheg-pythia8/NANOAODSIM/130X_mcRun3_2022_realistic_postEE_v6-v2/40000/af7c0d5a-11b3-428e-8314-4667f9a98ca9.root   | (None) | ad:e7e1bc43 | 2.329 GB   |          |
| cms:/store/mc/Run3Summer22EENanoAODv12/TTto4Q_TuneCP5_13p6TeV_powheg-pythia8/NANOAODSIM/130X_mcRun3_2022_realistic_postEE_v6-v2/40000/bfc2dc17-842f-474b-b711-8aff8bc4f423.root   | (None) | ad:763cdaf9 | 1.978 GB   |          |
| cms:/store/mc/Run3Summer22EENanoAODv12/TTto4Q_TuneCP5_13p6TeV_powheg-pythia8/NANOAODSIM/130X_mcRun3_2022_realistic_postEE_v6-v2/40000/d628b7d0-46a5-475f-ba41-85c2ec754706.root   | (None) | ad:650b659a | 2.330 GB   |          |
| cms:/store/mc/Run3Summer22EENanoAODv12/TTto4Q_TuneCP5_13p6TeV_powheg-pythia8/NANOAODSIM/130X_mcRun3_2022_realistic_postEE_v6-v2/2520000/6edf565f-dc5f-4d30-a31e-0ffcdd6543c2.root | (None) | ad:9c85bed2 | 16.898 MB  |          |
| cms:/store/mc/Run3Summer22EENanoAODv12/TTto4Q_TuneCP5_13p6TeV_powheg-pythia8/NANOAODSIM/130X_mcRun3_2022_realistic_postEE_v6-v2/2540000/2877ac1a-f795-42cf-8849-61dff4539668.root | (None) | ad:2523a8b2 | 287.801 MB |          |
| cms:/store/mc/Run3Summer22EENanoAODv12/TTto4Q_TuneCP5_13p6TeV_powheg-pythia8/NANOAODSIM/130X_mcRun3_2022_realistic_postEE_v6-v2/2540000/a5e2d365-9d62-409f-a37b-25183347a550.root | (None) | ad:bc19cd7c | 98.125 MB  |          |
| cms:/store/mc/Run3Summer22EENanoAODv12/TTto4Q_TuneCP5_13p6TeV_powheg-pythia8/NANOAODSIM/130X_mcRun3_2022_realistic_postEE_v6-v2/2530000/04ecd7cd-8c5f-4fef-9586-5bb6bbc42738.root | (None) | ad:e155aa4e | 1.380 GB   |          |
| cms:/store/mc/Run3Summer22EENanoAODv12/TTto4Q_TuneCP5_13p6TeV_powheg-pythia8/NANOAODSIM/130X_mcRun3_2022_realistic_postEE_v6-v2/2530000/0e115f01-087c-406a-a03c-8ccbacc8d536.root | (None) | ad:cafec7c3 | 620.783 MB |          |
| cms:/store/mc/Run3Summer22EENanoAODv12/TTto4Q_TuneCP5_13p6TeV_powheg-pythia8/NANOAODSIM/130X_mcRun3_2022_realistic_postEE_v6-v2/2530000/110b5f2a-cba2-46e5-aacb-215b2cdf62d0.root | (None) | ad:d7d9f165 | 1.569 GB   |          |
| cms:/store/mc/Run3Summer22EENanoAODv12/TTto4Q_TuneCP5_13p6TeV_powheg-pythia8/NANOAODSIM/130X_mcRun3_2022_realistic_postEE_v6-v2/2530000/2dbbf599-b470-408d-bd0d-94f2d79d8d22.root | (None) | ad:657a8111 | 2.043 GB   |          |
| cms:/store/mc/Run3Summer22EENanoAODv12/TTto4Q_TuneCP5_13p6TeV_powheg-pythia8/NANOAODSIM/130X_mcRun3_2022_realistic_postEE_v6-v2/2530000/30381fc2-ca07-4bb6-a18f-9b2dffcf424b.root | (None) | ad:e0852129 | 1.807 GB   |          |
| cms:/store/mc/Run3Summer22EENanoAODv12/TTto4Q_TuneCP5_13p6TeV_powheg-pythia8/NANOAODSIM/130X_mcRun3_2022_realistic_postEE_v6-v2/2530000/4cc40535-acd1-4cc4-85b6-b47c8f9921e6.root | (None) | ad:4417f056 | 1.807 GB   |          |
| cms:/store/mc/Run3Summer22EENanoAODv12/TTto4Q_TuneCP5_13p6TeV_powheg-pythia8/NANOAODSIM/130X_mcRun3_2022_realistic_postEE_v6-v2/2530000/5f32bb8e-8f88-4213-a675-75645efa1835.root | (None) | ad:3b7c374e | 1.285 GB   |          |
| cms:/store/mc/Run3Summer22EENanoAODv12/TTto4Q_TuneCP5_13p6TeV_powheg-pythia8/NANOAODSIM/130X_mcRun3_2022_realistic_postEE_v6-v2/2530000/745ec3bd-c76f-42b9-9e78-5d1e3fd57317.root | (None) | ad:20ed4316 | 2.328 GB   |          |
| cms:/store/mc/Run3Summer22EENanoAODv12/TTto4Q_TuneCP5_13p6TeV_powheg-pythia8/NANOAODSIM/130X_mcRun3_2022_realistic_postEE_v6-v2/2530000/97691f0e-97bf-49ac-b9ab-81a3e82e0a25.root | (None) | ad:a072b1d2 | 1.428 GB   |          |
| cms:/store/mc/Run3Summer22EENanoAODv12/TTto4Q_TuneCP5_13p6TeV_powheg-pythia8/NANOAODSIM/130X_mcRun3_2022_realistic_postEE_v6-v2/2530000/a8efe86b-41b8-42f1-89f4-63067e167ec3.root | (None) | ad:27d38f54 | 1.371 GB   |          |
| cms:/store/mc/Run3Summer22EENanoAODv12/TTto4Q_TuneCP5_13p6TeV_powheg-pythia8/NANOAODSIM/130X_mcRun3_2022_realistic_postEE_v6-v2/2530000/bbe98c5c-9c3c-4261-9ee9-080e0ec71130.root | (None) | ad:5b5f8212 | 1.332 GB   |          |
| cms:/store/mc/Run3Summer22EENanoAODv12/TTto4Q_TuneCP5_13p6TeV_powheg-pythia8/NANOAODSIM/130X_mcRun3_2022_realistic_postEE_v6-v2/2530000/ca50d2ac-d2e3-4507-b02c-37fdfcaa31b3.root | (None) | ad:022691af | 1.855 GB   |          |
| cms:/store/mc/Run3Summer22EENanoAODv12/TTto4Q_TuneCP5_13p6TeV_powheg-pythia8/NANOAODSIM/130X_mcRun3_2022_realistic_postEE_v6-v2/2530000/cc976453-7e9b-4669-af8e-9fe3b42ec43a.root | (None) | ad:3cd368b7 | 1.380 GB   |          |
| cms:/store/mc/Run3Summer22EENanoAODv12/TTto4Q_TuneCP5_13p6TeV_powheg-pythia8/NANOAODSIM/130X_mcRun3_2022_realistic_postEE_v6-v2/50000/513a5a6a-d934-445e-aae6-96ae313d769f.root   | (None) | ad:0bd3543f | 1.301 GB   |          |
| cms:/store/mc/Run3Summer22EENanoAODv12/TTto4Q_TuneCP5_13p6TeV_powheg-pythia8/NANOAODSIM/130X_mcRun3_2022_realistic_postEE_v6-v2/50000/6cc47605-39d6-4adc-9ed4-f11a0507ebeb.root   | (None) | ad:8c1089ec | 50.645 MB  |          |
| cms:/store/mc/Run3Summer22EENanoAODv12/TTto4Q_TuneCP5_13p6TeV_powheg-pythia8/NANOAODSIM/130X_mcRun3_2022_realistic_postEE_v6-v2/30000/2c86855d-8e82-4996-8366-c62e5c1d9176.root   | (None) | ad:821a9fdd | 4.369 MB   |          |
+-----------------------------------------------------------------------------------------------------------------------------------------------------------------------------------+--------+-------------+------------+----------+
Total files : 294
Total size : 407.770 GB
