{
    "cms:/store/mc/Run3Summer22EENanoAODv12/VBFHHto4B_CV-m1p60_C2V-2p72_C3-m1p36_TuneCP5_13p6TeV_madgraph-pythia8/NANOAODSIM/130X_mcRun3_2022_realistic_postEE_v6-v2/2540000/ff19aea4-575e-425e-85c9-75f41f5d56d4.root": [
        "T2_DE_DESY: davs://dcache-cms-webdav-wan.desy.de:2880/pnfs/desy.de/cms/tier2/store/mc/Run3Summer22EENanoAODv12/VBFHHto4B_CV-m1p60_C2V-2p72_C3-m1p36_TuneCP5_13p6TeV_madgraph-pythia8/NANOAODSIM/130X_mcRun3_2022_realistic_postEE_v6-v2/2540000/ff19aea4-575e-425e-85c9-75f41f5d56d4.root",
        "T1_FR_CCIN2P3_Disk: davs://ccdavcms.in2p3.fr:2880/disk/data/store/mc/Run3Summer22EENanoAODv12/VBFHHto4B_CV-m1p60_C2V-2p72_C3-m1p36_TuneCP5_13p6TeV_madgraph-pythia8/NANOAODSIM/130X_mcRun3_2022_realistic_postEE_v6-v2/2540000/ff19aea4-575e-425e-85c9-75f41f5d56d4.root",
        "T2_US_MIT: davs://xrootd.cmsaf.mit.edu:1094/store/mc/Run3Summer22EENanoAODv12/VBFHHto4B_CV-m1p60_C2V-2p72_C3-m1p36_TuneCP5_13p6TeV_madgraph-pythia8/NANOAODSIM/130X_mcRun3_2022_realistic_postEE_v6-v2/2540000/ff19aea4-575e-425e-85c9-75f41f5d56d4.root",
        "T2_TW_NCHC: davs://se01.grid.nchc.org.tw:443//cms/store/mc/Run3Summer22EENanoAODv12/VBFHHto4B_CV-m1p60_C2V-2p72_C3-m1p36_TuneCP5_13p6TeV_madgraph-pythia8/NANOAODSIM/130X_mcRun3_2022_realistic_postEE_v6-v2/2540000/ff19aea4-575e-425e-85c9-75f41f5d56d4.root",
        "T1_UK_RAL_Disk: davs://rdr.echo.stfc.ac.uk:1094/store/mc/Run3Summer22EENanoAODv12/VBFHHto4B_CV-m1p60_C2V-2p72_C3-m1p36_TuneCP5_13p6TeV_madgraph-pythia8/NANOAODSIM/130X_mcRun3_2022_realistic_postEE_v6-v2/2540000/ff19aea4-575e-425e-85c9-75f41f5d56d4.root",
        "T2_US_Wisconsin: davs://cmsxrootd.hep.wisc.edu:1094/store/mc/Run3Summer22EENanoAODv12/VBFHHto4B_CV-m1p60_C2V-2p72_C3-m1p36_TuneCP5_13p6TeV_madgraph-pythia8/NANOAODSIM/130X_mcRun3_2022_realistic_postEE_v6-v2/2540000/ff19aea4-575e-425e-85c9-75f41f5d56d4.root",
        "T2_BE_IIHE: davs://maite.iihe.ac.be:2880/pnfs/iihe/cms/ph/sc4/store/mc/Run3Summer22EENanoAODv12/VBFHHto4B_CV-m1p60_C2V-2p72_C3-m1p36_TuneCP5_13p6TeV_madgraph-pythia8/NANOAODSIM/130X_mcRun3_2022_realistic_postEE_v6-v2/2540000/ff19aea4-575e-425e-85c9-75f41f5d56d4.root",
        "T2_ES_CIEMAT: davs://srm.ciemat.es:2880/pnfs/ciemat.es/data/cms/prod/store/mc/Run3Summer22EENanoAODv12/VBFHHto4B_CV-m1p60_C2V-2p72_C3-m1p36_TuneCP5_13p6TeV_madgraph-pythia8/NANOAODSIM/130X_mcRun3_2022_realistic_postEE_v6-v2/2540000/ff19aea4-575e-425e-85c9-75f41f5d56d4.root",
        "T0_CH_CERN_Tape: davs://eosctacms.cern.ch:8444//eos/ctacms/archive/cms/store/mc/Run3Summer22EENanoAODv12/VBFHHto4B_CV-m1p60_C2V-2p72_C3-m1p36_TuneCP5_13p6TeV_madgraph-pythia8/NANOAODSIM/130X_mcRun3_2022_realistic_postEE_v6-v2/2540000/ff19aea4-575e-425e-85c9-75f41f5d56d4.root"
    ],
    "cms:/store/mc/Run3Summer22EENanoAODv12/VBFHHto4B_CV-m1p60_C2V-2p72_C3-m1p36_TuneCP5_13p6TeV_madgraph-pythia8/NANOAODSIM/130X_mcRun3_2022_realistic_postEE_v6-v2/2540000/d9090f66-aa7c-4c24-9a30-d2e6243674f9.root": [
        "T1_FR_CCIN2P3_Disk: davs://ccdavcms.in2p3.fr:2880/disk/data/store/mc/Run3Summer22EENanoAODv12/VBFHHto4B_CV-m1p60_C2V-2p72_C3-m1p36_TuneCP5_13p6TeV_madgraph-pythia8/NANOAODSIM/130X_mcRun3_2022_realistic_postEE_v6-v2/2540000/d9090f66-aa7c-4c24-9a30-d2e6243674f9.root",
        "T2_US_MIT: davs://xrootd.cmsaf.mit.edu:1094/store/mc/Run3Summer22EENanoAODv12/VBFHHto4B_CV-m1p60_C2V-2p72_C3-m1p36_TuneCP5_13p6TeV_madgraph-pythia8/NANOAODSIM/130X_mcRun3_2022_realistic_postEE_v6-v2/2540000/d9090f66-aa7c-4c24-9a30-d2e6243674f9.root",
        "T2_TW_NCHC: davs://se01.grid.nchc.org.tw:443//cms/store/mc/Run3Summer22EENanoAODv12/VBFHHto4B_CV-m1p60_C2V-2p72_C3-m1p36_TuneCP5_13p6TeV_madgraph-pythia8/NANOAODSIM/130X_mcRun3_2022_realistic_postEE_v6-v2/2540000/d9090f66-aa7c-4c24-9a30-d2e6243674f9.root",
        "T2_US_UCSD: davs://redirector.t2.ucsd.edu:1095/store/mc/Run3Summer22EENanoAODv12/VBFHHto4B_CV-m1p60_C2V-2p72_C3-m1p36_TuneCP5_13p6TeV_madgraph-pythia8/NANOAODSIM/130X_mcRun3_2022_realistic_postEE_v6-v2/2540000/d9090f66-aa7c-4c24-9a30-d2e6243674f9.root",
        "T1_UK_RAL_Disk: davs://rdr.echo.stfc.ac.uk:1094/store/mc/Run3Summer22EENanoAODv12/VBFHHto4B_CV-m1p60_C2V-2p72_C3-m1p36_TuneCP5_13p6TeV_madgraph-pythia8/NANOAODSIM/130X_mcRun3_2022_realistic_postEE_v6-v2/2540000/d9090f66-aa7c-4c24-9a30-d2e6243674f9.root",
        "T2_US_Wisconsin: davs://cmsxrootd.hep.wisc.edu:1094/store/mc/Run3Summer22EENanoAODv12/VBFHHto4B_CV-m1p60_C2V-2p72_C3-m1p36_TuneCP5_13p6TeV_madgraph-pythia8/NANOAODSIM/130X_mcRun3_2022_realistic_postEE_v6-v2/2540000/d9090f66-aa7c-4c24-9a30-d2e6243674f9.root",
        "T2_BE_IIHE: davs://maite.iihe.ac.be:2880/pnfs/iihe/cms/ph/sc4/store/mc/Run3Summer22EENanoAODv12/VBFHHto4B_CV-m1p60_C2V-2p72_C3-m1p36_TuneCP5_13p6TeV_madgraph-pythia8/NANOAODSIM/130X_mcRun3_2022_realistic_postEE_v6-v2/2540000/d9090f66-aa7c-4c24-9a30-d2e6243674f9.root",
        "T0_CH_CERN_Tape: davs://eosctacms.cern.ch:8444//eos/ctacms/archive/cms/store/mc/Run3Summer22EENanoAODv12/VBFHHto4B_CV-m1p60_C2V-2p72_C3-m1p36_TuneCP5_13p6TeV_madgraph-pythia8/NANOAODSIM/130X_mcRun3_2022_realistic_postEE_v6-v2/2540000/d9090f66-aa7c-4c24-9a30-d2e6243674f9.root"
    ],
    "cms:/store/mc/Run3Summer22EENanoAODv12/VBFHHto4B_CV-m1p60_C2V-2p72_C3-m1p36_TuneCP5_13p6TeV_madgraph-pythia8/NANOAODSIM/130X_mcRun3_2022_realistic_postEE_v6-v2/2540000/c717ea45-af5c-4cba-b51f-854726d722c3.root": [
        "T1_FR_CCIN2P3_Disk: davs://ccdavcms.in2p3.fr:2880/disk/data/store/mc/Run3Summer22EENanoAODv12/VBFHHto4B_CV-m1p60_C2V-2p72_C3-m1p36_TuneCP5_13p6TeV_madgraph-pythia8/NANOAODSIM/130X_mcRun3_2022_realistic_postEE_v6-v2/2540000/c717ea45-af5c-4cba-b51f-854726d722c3.root",
        "T2_US_MIT: davs://xrootd.cmsaf.mit.edu:1094/store/mc/Run3Summer22EENanoAODv12/VBFHHto4B_CV-m1p60_C2V-2p72_C3-m1p36_TuneCP5_13p6TeV_madgraph-pythia8/NANOAODSIM/130X_mcRun3_2022_realistic_postEE_v6-v2/2540000/c717ea45-af5c-4cba-b51f-854726d722c3.root",
        "T2_TW_NCHC: davs://se01.grid.nchc.org.tw:443//cms/store/mc/Run3Summer22EENanoAODv12/VBFHHto4B_CV-m1p60_C2V-2p72_C3-m1p36_TuneCP5_13p6TeV_madgraph-pythia8/NANOAODSIM/130X_mcRun3_2022_realistic_postEE_v6-v2/2540000/c717ea45-af5c-4cba-b51f-854726d722c3.root",
        "T1_UK_RAL_Disk: davs://rdr.echo.stfc.ac.uk:1094/store/mc/Run3Summer22EENanoAODv12/VBFHHto4B_CV-m1p60_C2V-2p72_C3-m1p36_TuneCP5_13p6TeV_madgraph-pythia8/NANOAODSIM/130X_mcRun3_2022_realistic_postEE_v6-v2/2540000/c717ea45-af5c-4cba-b51f-854726d722c3.root",
        "T2_US_Wisconsin: davs://cmsxrootd.hep.wisc.edu:1094/store/mc/Run3Summer22EENanoAODv12/VBFHHto4B_CV-m1p60_C2V-2p72_C3-m1p36_TuneCP5_13p6TeV_madgraph-pythia8/NANOAODSIM/130X_mcRun3_2022_realistic_postEE_v6-v2/2540000/c717ea45-af5c-4cba-b51f-854726d722c3.root",
        "T2_BE_IIHE: davs://maite.iihe.ac.be:2880/pnfs/iihe/cms/ph/sc4/store/mc/Run3Summer22EENanoAODv12/VBFHHto4B_CV-m1p60_C2V-2p72_C3-m1p36_TuneCP5_13p6TeV_madgraph-pythia8/NANOAODSIM/130X_mcRun3_2022_realistic_postEE_v6-v2/2540000/c717ea45-af5c-4cba-b51f-854726d722c3.root",
        "T0_CH_CERN_Tape: davs://eosctacms.cern.ch:8444//eos/ctacms/archive/cms/store/mc/Run3Summer22EENanoAODv12/VBFHHto4B_CV-m1p60_C2V-2p72_C3-m1p36_TuneCP5_13p6TeV_madgraph-pythia8/NANOAODSIM/130X_mcRun3_2022_realistic_postEE_v6-v2/2540000/c717ea45-af5c-4cba-b51f-854726d722c3.root"
    ],
    "cms:/store/mc/Run3Summer22EENanoAODv12/VBFHHto4B_CV-m1p60_C2V-2p72_C3-m1p36_TuneCP5_13p6TeV_madgraph-pythia8/NANOAODSIM/130X_mcRun3_2022_realistic_postEE_v6-v2/2540000/e8da0e5d-b1f7-4af6-8326-932332ce1bb9.root": [
        "T1_FR_CCIN2P3_Disk: davs://ccdavcms.in2p3.fr:2880/disk/data/store/mc/Run3Summer22EENanoAODv12/VBFHHto4B_CV-m1p60_C2V-2p72_C3-m1p36_TuneCP5_13p6TeV_madgraph-pythia8/NANOAODSIM/130X_mcRun3_2022_realistic_postEE_v6-v2/2540000/e8da0e5d-b1f7-4af6-8326-932332ce1bb9.root",
        "T2_US_MIT: davs://xrootd.cmsaf.mit.edu:1094/store/mc/Run3Summer22EENanoAODv12/VBFHHto4B_CV-m1p60_C2V-2p72_C3-m1p36_TuneCP5_13p6TeV_madgraph-pythia8/NANOAODSIM/130X_mcRun3_2022_realistic_postEE_v6-v2/2540000/e8da0e5d-b1f7-4af6-8326-932332ce1bb9.root",
        "T2_TW_NCHC: davs://se01.grid.nchc.org.tw:443//cms/store/mc/Run3Summer22EENanoAODv12/VBFHHto4B_CV-m1p60_C2V-2p72_C3-m1p36_TuneCP5_13p6TeV_madgraph-pythia8/NANOAODSIM/130X_mcRun3_2022_realistic_postEE_v6-v2/2540000/e8da0e5d-b1f7-4af6-8326-932332ce1bb9.root",
        "T1_UK_RAL_Disk: davs://rdr.echo.stfc.ac.uk:1094/store/mc/Run3Summer22EENanoAODv12/VBFHHto4B_CV-m1p60_C2V-2p72_C3-m1p36_TuneCP5_13p6TeV_madgraph-pythia8/NANOAODSIM/130X_mcRun3_2022_realistic_postEE_v6-v2/2540000/e8da0e5d-b1f7-4af6-8326-932332ce1bb9.root",
        "T2_US_Wisconsin: davs://cmsxrootd.hep.wisc.edu:1094/store/mc/Run3Summer22EENanoAODv12/VBFHHto4B_CV-m1p60_C2V-2p72_C3-m1p36_TuneCP5_13p6TeV_madgraph-pythia8/NANOAODSIM/130X_mcRun3_2022_realistic_postEE_v6-v2/2540000/e8da0e5d-b1f7-4af6-8326-932332ce1bb9.root",
        "T2_BE_IIHE: davs://maite.iihe.ac.be:2880/pnfs/iihe/cms/ph/sc4/store/mc/Run3Summer22EENanoAODv12/VBFHHto4B_CV-m1p60_C2V-2p72_C3-m1p36_TuneCP5_13p6TeV_madgraph-pythia8/NANOAODSIM/130X_mcRun3_2022_realistic_postEE_v6-v2/2540000/e8da0e5d-b1f7-4af6-8326-932332ce1bb9.root",
        "T0_CH_CERN_Tape: davs://eosctacms.cern.ch:8444//eos/ctacms/archive/cms/store/mc/Run3Summer22EENanoAODv12/VBFHHto4B_CV-m1p60_C2V-2p72_C3-m1p36_TuneCP5_13p6TeV_madgraph-pythia8/NANOAODSIM/130X_mcRun3_2022_realistic_postEE_v6-v2/2540000/e8da0e5d-b1f7-4af6-8326-932332ce1bb9.root"
    ],
    "cms:/store/mc/Run3Summer22EENanoAODv12/VBFHHto4B_CV-m1p60_C2V-2p72_C3-m1p36_TuneCP5_13p6TeV_madgraph-pythia8/NANOAODSIM/130X_mcRun3_2022_realistic_postEE_v6-v2/2540000/f47715d2-504b-49d1-8cf0-13a017db5ffb.root": [
        "T1_FR_CCIN2P3_Disk: davs://ccdavcms.in2p3.fr:2880/disk/data/store/mc/Run3Summer22EENanoAODv12/VBFHHto4B_CV-m1p60_C2V-2p72_C3-m1p36_TuneCP5_13p6TeV_madgraph-pythia8/NANOAODSIM/130X_mcRun3_2022_realistic_postEE_v6-v2/2540000/f47715d2-504b-49d1-8cf0-13a017db5ffb.root",
        "T2_US_MIT: davs://xrootd.cmsaf.mit.edu:1094/store/mc/Run3Summer22EENanoAODv12/VBFHHto4B_CV-m1p60_C2V-2p72_C3-m1p36_TuneCP5_13p6TeV_madgraph-pythia8/NANOAODSIM/130X_mcRun3_2022_realistic_postEE_v6-v2/2540000/f47715d2-504b-49d1-8cf0-13a017db5ffb.root",
        "T2_TW_NCHC: davs://se01.grid.nchc.org.tw:443//cms/store/mc/Run3Summer22EENanoAODv12/VBFHHto4B_CV-m1p60_C2V-2p72_C3-m1p36_TuneCP5_13p6TeV_madgraph-pythia8/NANOAODSIM/130X_mcRun3_2022_realistic_postEE_v6-v2/2540000/f47715d2-504b-49d1-8cf0-13a017db5ffb.root",
        "T1_UK_RAL_Disk: davs://rdr.echo.stfc.ac.uk:1094/store/mc/Run3Summer22EENanoAODv12/VBFHHto4B_CV-m1p60_C2V-2p72_C3-m1p36_TuneCP5_13p6TeV_madgraph-pythia8/NANOAODSIM/130X_mcRun3_2022_realistic_postEE_v6-v2/2540000/f47715d2-504b-49d1-8cf0-13a017db5ffb.root",
        "T2_FI_HIP: davs://hip-cms-se.csc.fi:2880/store/mc/Run3Summer22EENanoAODv12/VBFHHto4B_CV-m1p60_C2V-2p72_C3-m1p36_TuneCP5_13p6TeV_madgraph-pythia8/NANOAODSIM/130X_mcRun3_2022_realistic_postEE_v6-v2/2540000/f47715d2-504b-49d1-8cf0-13a017db5ffb.root",
        "T2_US_Wisconsin: davs://cmsxrootd.hep.wisc.edu:1094/store/mc/Run3Summer22EENanoAODv12/VBFHHto4B_CV-m1p60_C2V-2p72_C3-m1p36_TuneCP5_13p6TeV_madgraph-pythia8/NANOAODSIM/130X_mcRun3_2022_realistic_postEE_v6-v2/2540000/f47715d2-504b-49d1-8cf0-13a017db5ffb.root",
        "T2_BE_IIHE: davs://maite.iihe.ac.be:2880/pnfs/iihe/cms/ph/sc4/store/mc/Run3Summer22EENanoAODv12/VBFHHto4B_CV-m1p60_C2V-2p72_C3-m1p36_TuneCP5_13p6TeV_madgraph-pythia8/NANOAODSIM/130X_mcRun3_2022_realistic_postEE_v6-v2/2540000/f47715d2-504b-49d1-8cf0-13a017db5ffb.root",
        "T2_ES_CIEMAT: davs://srm.ciemat.es:2880/pnfs/ciemat.es/data/cms/prod/store/mc/Run3Summer22EENanoAODv12/VBFHHto4B_CV-m1p60_C2V-2p72_C3-m1p36_TuneCP5_13p6TeV_madgraph-pythia8/NANOAODSIM/130X_mcRun3_2022_realistic_postEE_v6-v2/2540000/f47715d2-504b-49d1-8cf0-13a017db5ffb.root",
        "T0_CH_CERN_Tape: davs://eosctacms.cern.ch:8444//eos/ctacms/archive/cms/store/mc/Run3Summer22EENanoAODv12/VBFHHto4B_CV-m1p60_C2V-2p72_C3-m1p36_TuneCP5_13p6TeV_madgraph-pythia8/NANOAODSIM/130X_mcRun3_2022_realistic_postEE_v6-v2/2540000/f47715d2-504b-49d1-8cf0-13a017db5ffb.root"
    ],
    "cms:/store/mc/Run3Summer22EENanoAODv12/VBFHHto4B_CV-m1p60_C2V-2p72_C3-m1p36_TuneCP5_13p6TeV_madgraph-pythia8/NANOAODSIM/130X_mcRun3_2022_realistic_postEE_v6-v2/2540000/3c3934ab-41ab-4ce2-b05d-3902321f963a.root": [
        "T1_FR_CCIN2P3_Disk: davs://ccdavcms.in2p3.fr:2880/disk/data/store/mc/Run3Summer22EENanoAODv12/VBFHHto4B_CV-m1p60_C2V-2p72_C3-m1p36_TuneCP5_13p6TeV_madgraph-pythia8/NANOAODSIM/130X_mcRun3_2022_realistic_postEE_v6-v2/2540000/3c3934ab-41ab-4ce2-b05d-3902321f963a.root",
        "T2_US_MIT: davs://xrootd.cmsaf.mit.edu:1094/store/mc/Run3Summer22EENanoAODv12/VBFHHto4B_CV-m1p60_C2V-2p72_C3-m1p36_TuneCP5_13p6TeV_madgraph-pythia8/NANOAODSIM/130X_mcRun3_2022_realistic_postEE_v6-v2/2540000/3c3934ab-41ab-4ce2-b05d-3902321f963a.root",
        "T2_TW_NCHC: davs://se01.grid.nchc.org.tw:443//cms/store/mc/Run3Summer22EENanoAODv12/VBFHHto4B_CV-m1p60_C2V-2p72_C3-m1p36_TuneCP5_13p6TeV_madgraph-pythia8/NANOAODSIM/130X_mcRun3_2022_realistic_postEE_v6-v2/2540000/3c3934ab-41ab-4ce2-b05d-3902321f963a.root",
        "T1_UK_RAL_Disk: davs://rdr.echo.stfc.ac.uk:1094/store/mc/Run3Summer22EENanoAODv12/VBFHHto4B_CV-m1p60_C2V-2p72_C3-m1p36_TuneCP5_13p6TeV_madgraph-pythia8/NANOAODSIM/130X_mcRun3_2022_realistic_postEE_v6-v2/2540000/3c3934ab-41ab-4ce2-b05d-3902321f963a.root",
        "T2_US_Wisconsin: davs://cmsxrootd.hep.wisc.edu:1094/store/mc/Run3Summer22EENanoAODv12/VBFHHto4B_CV-m1p60_C2V-2p72_C3-m1p36_TuneCP5_13p6TeV_madgraph-pythia8/NANOAODSIM/130X_mcRun3_2022_realistic_postEE_v6-v2/2540000/3c3934ab-41ab-4ce2-b05d-3902321f963a.root",
        "T2_BE_IIHE: davs://maite.iihe.ac.be:2880/pnfs/iihe/cms/ph/sc4/store/mc/Run3Summer22EENanoAODv12/VBFHHto4B_CV-m1p60_C2V-2p72_C3-m1p36_TuneCP5_13p6TeV_madgraph-pythia8/NANOAODSIM/130X_mcRun3_2022_realistic_postEE_v6-v2/2540000/3c3934ab-41ab-4ce2-b05d-3902321f963a.root",
        "T0_CH_CERN_Tape: davs://eosctacms.cern.ch:8444//eos/ctacms/archive/cms/store/mc/Run3Summer22EENanoAODv12/VBFHHto4B_CV-m1p60_C2V-2p72_C3-m1p36_TuneCP5_13p6TeV_madgraph-pythia8/NANOAODSIM/130X_mcRun3_2022_realistic_postEE_v6-v2/2540000/3c3934ab-41ab-4ce2-b05d-3902321f963a.root"
    ],
    "cms:/store/mc/Run3Summer22EENanoAODv12/VBFHHto4B_CV-m1p60_C2V-2p72_C3-m1p36_TuneCP5_13p6TeV_madgraph-pythia8/NANOAODSIM/130X_mcRun3_2022_realistic_postEE_v6-v2/2540000/e70c3112-b5ba-4ee2-906c-4ab8c1952bfa.root": [
        "T1_FR_CCIN2P3_Disk: davs://ccdavcms.in2p3.fr:2880/disk/data/store/mc/Run3Summer22EENanoAODv12/VBFHHto4B_CV-m1p60_C2V-2p72_C3-m1p36_TuneCP5_13p6TeV_madgraph-pythia8/NANOAODSIM/130X_mcRun3_2022_realistic_postEE_v6-v2/2540000/e70c3112-b5ba-4ee2-906c-4ab8c1952bfa.root",
        "T2_US_MIT: davs://xrootd.cmsaf.mit.edu:1094/store/mc/Run3Summer22EENanoAODv12/VBFHHto4B_CV-m1p60_C2V-2p72_C3-m1p36_TuneCP5_13p6TeV_madgraph-pythia8/NANOAODSIM/130X_mcRun3_2022_realistic_postEE_v6-v2/2540000/e70c3112-b5ba-4ee2-906c-4ab8c1952bfa.root",
        "T2_TW_NCHC: davs://se01.grid.nchc.org.tw:443//cms/store/mc/Run3Summer22EENanoAODv12/VBFHHto4B_CV-m1p60_C2V-2p72_C3-m1p36_TuneCP5_13p6TeV_madgraph-pythia8/NANOAODSIM/130X_mcRun3_2022_realistic_postEE_v6-v2/2540000/e70c3112-b5ba-4ee2-906c-4ab8c1952bfa.root",
        "T1_UK_RAL_Disk: davs://rdr.echo.stfc.ac.uk:1094/store/mc/Run3Summer22EENanoAODv12/VBFHHto4B_CV-m1p60_C2V-2p72_C3-m1p36_TuneCP5_13p6TeV_madgraph-pythia8/NANOAODSIM/130X_mcRun3_2022_realistic_postEE_v6-v2/2540000/e70c3112-b5ba-4ee2-906c-4ab8c1952bfa.root",
        "T2_BE_UCL: davs://ingrid-se02.cism.ucl.ac.be:1094/store/mc/Run3Summer22EENanoAODv12/VBFHHto4B_CV-m1p60_C2V-2p72_C3-m1p36_TuneCP5_13p6TeV_madgraph-pythia8/NANOAODSIM/130X_mcRun3_2022_realistic_postEE_v6-v2/2540000/e70c3112-b5ba-4ee2-906c-4ab8c1952bfa.root",
        "T2_US_Wisconsin: davs://cmsxrootd.hep.wisc.edu:1094/store/mc/Run3Summer22EENanoAODv12/VBFHHto4B_CV-m1p60_C2V-2p72_C3-m1p36_TuneCP5_13p6TeV_madgraph-pythia8/NANOAODSIM/130X_mcRun3_2022_realistic_postEE_v6-v2/2540000/e70c3112-b5ba-4ee2-906c-4ab8c1952bfa.root",
        "T2_BE_IIHE: davs://maite.iihe.ac.be:2880/pnfs/iihe/cms/ph/sc4/store/mc/Run3Summer22EENanoAODv12/VBFHHto4B_CV-m1p60_C2V-2p72_C3-m1p36_TuneCP5_13p6TeV_madgraph-pythia8/NANOAODSIM/130X_mcRun3_2022_realistic_postEE_v6-v2/2540000/e70c3112-b5ba-4ee2-906c-4ab8c1952bfa.root",
        "T0_CH_CERN_Tape: davs://eosctacms.cern.ch:8444//eos/ctacms/archive/cms/store/mc/Run3Summer22EENanoAODv12/VBFHHto4B_CV-m1p60_C2V-2p72_C3-m1p36_TuneCP5_13p6TeV_madgraph-pythia8/NANOAODSIM/130X_mcRun3_2022_realistic_postEE_v6-v2/2540000/e70c3112-b5ba-4ee2-906c-4ab8c1952bfa.root"
    ],
    "cms:/store/mc/Run3Summer22EENanoAODv12/VBFHHto4B_CV-m1p60_C2V-2p72_C3-m1p36_TuneCP5_13p6TeV_madgraph-pythia8/NANOAODSIM/130X_mcRun3_2022_realistic_postEE_v6-v2/2540000/d71fe11d-7030-4eda-8ba5-870bebf8983e.root": [
        "T1_FR_CCIN2P3_Disk: davs://ccdavcms.in2p3.fr:2880/disk/data/store/mc/Run3Summer22EENanoAODv12/VBFHHto4B_CV-m1p60_C2V-2p72_C3-m1p36_TuneCP5_13p6TeV_madgraph-pythia8/NANOAODSIM/130X_mcRun3_2022_realistic_postEE_v6-v2/2540000/d71fe11d-7030-4eda-8ba5-870bebf8983e.root",
        "T2_US_MIT: davs://xrootd.cmsaf.mit.edu:1094/store/mc/Run3Summer22EENanoAODv12/VBFHHto4B_CV-m1p60_C2V-2p72_C3-m1p36_TuneCP5_13p6TeV_madgraph-pythia8/NANOAODSIM/130X_mcRun3_2022_realistic_postEE_v6-v2/2540000/d71fe11d-7030-4eda-8ba5-870bebf8983e.root",
        "T2_TW_NCHC: davs://se01.grid.nchc.org.tw:443//cms/store/mc/Run3Summer22EENanoAODv12/VBFHHto4B_CV-m1p60_C2V-2p72_C3-m1p36_TuneCP5_13p6TeV_madgraph-pythia8/NANOAODSIM/130X_mcRun3_2022_realistic_postEE_v6-v2/2540000/d71fe11d-7030-4eda-8ba5-870bebf8983e.root",
        "T1_UK_RAL_Disk: davs://rdr.echo.stfc.ac.uk:1094/store/mc/Run3Summer22EENanoAODv12/VBFHHto4B_CV-m1p60_C2V-2p72_C3-m1p36_TuneCP5_13p6TeV_madgraph-pythia8/NANOAODSIM/130X_mcRun3_2022_realistic_postEE_v6-v2/2540000/d71fe11d-7030-4eda-8ba5-870bebf8983e.root",
        "T2_US_Wisconsin: davs://cmsxrootd.hep.wisc.edu:1094/store/mc/Run3Summer22EENanoAODv12/VBFHHto4B_CV-m1p60_C2V-2p72_C3-m1p36_TuneCP5_13p6TeV_madgraph-pythia8/NANOAODSIM/130X_mcRun3_2022_realistic_postEE_v6-v2/2540000/d71fe11d-7030-4eda-8ba5-870bebf8983e.root",
        "T2_RU_JINR: davs://lcgsedr08.jinr.ru:2880/pnfs/jinr.ru/data/cms/store/mc/Run3Summer22EENanoAODv12/VBFHHto4B_CV-m1p60_C2V-2p72_C3-m1p36_TuneCP5_13p6TeV_madgraph-pythia8/NANOAODSIM/130X_mcRun3_2022_realistic_postEE_v6-v2/2540000/d71fe11d-7030-4eda-8ba5-870bebf8983e.root",
        "T2_BE_IIHE: davs://maite.iihe.ac.be:2880/pnfs/iihe/cms/ph/sc4/store/mc/Run3Summer22EENanoAODv12/VBFHHto4B_CV-m1p60_C2V-2p72_C3-m1p36_TuneCP5_13p6TeV_madgraph-pythia8/NANOAODSIM/130X_mcRun3_2022_realistic_postEE_v6-v2/2540000/d71fe11d-7030-4eda-8ba5-870bebf8983e.root",
        "T1_RU_JINR_Disk: davs://se-wbdv.jinr-t1.ru:2880/pnfs/jinr-t1.ru/data/cms/store/mc/Run3Summer22EENanoAODv12/VBFHHto4B_CV-m1p60_C2V-2p72_C3-m1p36_TuneCP5_13p6TeV_madgraph-pythia8/NANOAODSIM/130X_mcRun3_2022_realistic_postEE_v6-v2/2540000/d71fe11d-7030-4eda-8ba5-870bebf8983e.root",
        "T0_CH_CERN_Tape: davs://eosctacms.cern.ch:8444//eos/ctacms/archive/cms/store/mc/Run3Summer22EENanoAODv12/VBFHHto4B_CV-m1p60_C2V-2p72_C3-m1p36_TuneCP5_13p6TeV_madgraph-pythia8/NANOAODSIM/130X_mcRun3_2022_realistic_postEE_v6-v2/2540000/d71fe11d-7030-4eda-8ba5-870bebf8983e.root"
    ],
    "cms:/store/mc/Run3Summer22EENanoAODv12/VBFHHto4B_CV-m1p60_C2V-2p72_C3-m1p36_TuneCP5_13p6TeV_madgraph-pythia8/NANOAODSIM/130X_mcRun3_2022_realistic_postEE_v6-v2/2540000/0fa1c97b-895e-4f01-aedf-41dbb983ac09.root": [
        "T1_US_FNAL_Disk: davs://cmsdcadisk.fnal.gov:2880/dcache/uscmsdisk/store/mc/Run3Summer22EENanoAODv12/VBFHHto4B_CV-m1p60_C2V-2p72_C3-m1p36_TuneCP5_13p6TeV_madgraph-pythia8/NANOAODSIM/130X_mcRun3_2022_realistic_postEE_v6-v2/2540000/0fa1c97b-895e-4f01-aedf-41dbb983ac09.root",
        "T1_FR_CCIN2P3_Disk: davs://ccdavcms.in2p3.fr:2880/disk/data/store/mc/Run3Summer22EENanoAODv12/VBFHHto4B_CV-m1p60_C2V-2p72_C3-m1p36_TuneCP5_13p6TeV_madgraph-pythia8/NANOAODSIM/130X_mcRun3_2022_realistic_postEE_v6-v2/2540000/0fa1c97b-895e-4f01-aedf-41dbb983ac09.root",
        "T2_US_MIT: davs://xrootd.cmsaf.mit.edu:1094/store/mc/Run3Summer22EENanoAODv12/VBFHHto4B_CV-m1p60_C2V-2p72_C3-m1p36_TuneCP5_13p6TeV_madgraph-pythia8/NANOAODSIM/130X_mcRun3_2022_realistic_postEE_v6-v2/2540000/0fa1c97b-895e-4f01-aedf-41dbb983ac09.root",
        "T2_TW_NCHC: davs://se01.grid.nchc.org.tw:443//cms/store/mc/Run3Summer22EENanoAODv12/VBFHHto4B_CV-m1p60_C2V-2p72_C3-m1p36_TuneCP5_13p6TeV_madgraph-pythia8/NANOAODSIM/130X_mcRun3_2022_realistic_postEE_v6-v2/2540000/0fa1c97b-895e-4f01-aedf-41dbb983ac09.root",
        "T1_UK_RAL_Disk: davs://rdr.echo.stfc.ac.uk:1094/store/mc/Run3Summer22EENanoAODv12/VBFHHto4B_CV-m1p60_C2V-2p72_C3-m1p36_TuneCP5_13p6TeV_madgraph-pythia8/NANOAODSIM/130X_mcRun3_2022_realistic_postEE_v6-v2/2540000/0fa1c97b-895e-4f01-aedf-41dbb983ac09.root",
        "T2_US_Wisconsin: davs://cmsxrootd.hep.wisc.edu:1094/store/mc/Run3Summer22EENanoAODv12/VBFHHto4B_CV-m1p60_C2V-2p72_C3-m1p36_TuneCP5_13p6TeV_madgraph-pythia8/NANOAODSIM/130X_mcRun3_2022_realistic_postEE_v6-v2/2540000/0fa1c97b-895e-4f01-aedf-41dbb983ac09.root",
        "T2_BE_IIHE: davs://maite.iihe.ac.be:2880/pnfs/iihe/cms/ph/sc4/store/mc/Run3Summer22EENanoAODv12/VBFHHto4B_CV-m1p60_C2V-2p72_C3-m1p36_TuneCP5_13p6TeV_madgraph-pythia8/NANOAODSIM/130X_mcRun3_2022_realistic_postEE_v6-v2/2540000/0fa1c97b-895e-4f01-aedf-41dbb983ac09.root",
        "T0_CH_CERN_Tape: davs://eosctacms.cern.ch:8444//eos/ctacms/archive/cms/store/mc/Run3Summer22EENanoAODv12/VBFHHto4B_CV-m1p60_C2V-2p72_C3-m1p36_TuneCP5_13p6TeV_madgraph-pythia8/NANOAODSIM/130X_mcRun3_2022_realistic_postEE_v6-v2/2540000/0fa1c97b-895e-4f01-aedf-41dbb983ac09.root"
    ],
    "cms:/store/mc/Run3Summer22EENanoAODv12/VBFHHto4B_CV-m1p60_C2V-2p72_C3-m1p36_TuneCP5_13p6TeV_madgraph-pythia8/NANOAODSIM/130X_mcRun3_2022_realistic_postEE_v6-v2/2540000/941cb490-ef30-4db2-99de-9b85777d92ff.root": [
        "T1_FR_CCIN2P3_Disk: davs://ccdavcms.in2p3.fr:2880/disk/data/store/mc/Run3Summer22EENanoAODv12/VBFHHto4B_CV-m1p60_C2V-2p72_C3-m1p36_TuneCP5_13p6TeV_madgraph-pythia8/NANOAODSIM/130X_mcRun3_2022_realistic_postEE_v6-v2/2540000/941cb490-ef30-4db2-99de-9b85777d92ff.root",
        "T2_US_MIT: davs://xrootd.cmsaf.mit.edu:1094/store/mc/Run3Summer22EENanoAODv12/VBFHHto4B_CV-m1p60_C2V-2p72_C3-m1p36_TuneCP5_13p6TeV_madgraph-pythia8/NANOAODSIM/130X_mcRun3_2022_realistic_postEE_v6-v2/2540000/941cb490-ef30-4db2-99de-9b85777d92ff.root",
        "T2_TW_NCHC: davs://se01.grid.nchc.org.tw:443//cms/store/mc/Run3Summer22EENanoAODv12/VBFHHto4B_CV-m1p60_C2V-2p72_C3-m1p36_TuneCP5_13p6TeV_madgraph-pythia8/NANOAODSIM/130X_mcRun3_2022_realistic_postEE_v6-v2/2540000/941cb490-ef30-4db2-99de-9b85777d92ff.root",
        "T1_UK_RAL_Disk: davs://rdr.echo.stfc.ac.uk:1094/store/mc/Run3Summer22EENanoAODv12/VBFHHto4B_CV-m1p60_C2V-2p72_C3-m1p36_TuneCP5_13p6TeV_madgraph-pythia8/NANOAODSIM/130X_mcRun3_2022_realistic_postEE_v6-v2/2540000/941cb490-ef30-4db2-99de-9b85777d92ff.root",
        "T2_US_Wisconsin: davs://cmsxrootd.hep.wisc.edu:1094/store/mc/Run3Summer22EENanoAODv12/VBFHHto4B_CV-m1p60_C2V-2p72_C3-m1p36_TuneCP5_13p6TeV_madgraph-pythia8/NANOAODSIM/130X_mcRun3_2022_realistic_postEE_v6-v2/2540000/941cb490-ef30-4db2-99de-9b85777d92ff.root",
        "T2_HU_Budapest: davs://grid143.kfki.hu:443/dpm/kfki.hu/home/cms/phedex/store/mc/Run3Summer22EENanoAODv12/VBFHHto4B_CV-m1p60_C2V-2p72_C3-m1p36_TuneCP5_13p6TeV_madgraph-pythia8/NANOAODSIM/130X_mcRun3_2022_realistic_postEE_v6-v2/2540000/941cb490-ef30-4db2-99de-9b85777d92ff.root",
        "T2_BE_IIHE: davs://maite.iihe.ac.be:2880/pnfs/iihe/cms/ph/sc4/store/mc/Run3Summer22EENanoAODv12/VBFHHto4B_CV-m1p60_C2V-2p72_C3-m1p36_TuneCP5_13p6TeV_madgraph-pythia8/NANOAODSIM/130X_mcRun3_2022_realistic_postEE_v6-v2/2540000/941cb490-ef30-4db2-99de-9b85777d92ff.root",
        "T0_CH_CERN_Tape: davs://eosctacms.cern.ch:8444//eos/ctacms/archive/cms/store/mc/Run3Summer22EENanoAODv12/VBFHHto4B_CV-m1p60_C2V-2p72_C3-m1p36_TuneCP5_13p6TeV_madgraph-pythia8/NANOAODSIM/130X_mcRun3_2022_realistic_postEE_v6-v2/2540000/941cb490-ef30-4db2-99de-9b85777d92ff.root"
    ],
    "cms:/store/mc/Run3Summer22EENanoAODv12/VBFHHto4B_CV-m1p60_C2V-2p72_C3-m1p36_TuneCP5_13p6TeV_madgraph-pythia8/NANOAODSIM/130X_mcRun3_2022_realistic_postEE_v6-v2/2540000/bb701168-a2c1-4775-888a-87caeea6d8fd.root": [
        "T1_FR_CCIN2P3_Disk: davs://ccdavcms.in2p3.fr:2880/disk/data/store/mc/Run3Summer22EENanoAODv12/VBFHHto4B_CV-m1p60_C2V-2p72_C3-m1p36_TuneCP5_13p6TeV_madgraph-pythia8/NANOAODSIM/130X_mcRun3_2022_realistic_postEE_v6-v2/2540000/bb701168-a2c1-4775-888a-87caeea6d8fd.root",
        "T2_US_MIT: davs://xrootd.cmsaf.mit.edu:1094/store/mc/Run3Summer22EENanoAODv12/VBFHHto4B_CV-m1p60_C2V-2p72_C3-m1p36_TuneCP5_13p6TeV_madgraph-pythia8/NANOAODSIM/130X_mcRun3_2022_realistic_postEE_v6-v2/2540000/bb701168-a2c1-4775-888a-87caeea6d8fd.root",
        "T2_TW_NCHC: davs://se01.grid.nchc.org.tw:443//cms/store/mc/Run3Summer22EENanoAODv12/VBFHHto4B_CV-m1p60_C2V-2p72_C3-m1p36_TuneCP5_13p6TeV_madgraph-pythia8/NANOAODSIM/130X_mcRun3_2022_realistic_postEE_v6-v2/2540000/bb701168-a2c1-4775-888a-87caeea6d8fd.root",
        "T2_IT_Legnaro: davs://t2-xrdcms.lnl.infn.it:2880/pnfs/lnl.infn.it/data/cms/store/mc/Run3Summer22EENanoAODv12/VBFHHto4B_CV-m1p60_C2V-2p72_C3-m1p36_TuneCP5_13p6TeV_madgraph-pythia8/NANOAODSIM/130X_mcRun3_2022_realistic_postEE_v6-v2/2540000/bb701168-a2c1-4775-888a-87caeea6d8fd.root",
        "T1_UK_RAL_Disk: davs://rdr.echo.stfc.ac.uk:1094/store/mc/Run3Summer22EENanoAODv12/VBFHHto4B_CV-m1p60_C2V-2p72_C3-m1p36_TuneCP5_13p6TeV_madgraph-pythia8/NANOAODSIM/130X_mcRun3_2022_realistic_postEE_v6-v2/2540000/bb701168-a2c1-4775-888a-87caeea6d8fd.root",
        "T2_US_Wisconsin: davs://cmsxrootd.hep.wisc.edu:1094/store/mc/Run3Summer22EENanoAODv12/VBFHHto4B_CV-m1p60_C2V-2p72_C3-m1p36_TuneCP5_13p6TeV_madgraph-pythia8/NANOAODSIM/130X_mcRun3_2022_realistic_postEE_v6-v2/2540000/bb701168-a2c1-4775-888a-87caeea6d8fd.root",
        "T2_BE_IIHE: davs://maite.iihe.ac.be:2880/pnfs/iihe/cms/ph/sc4/store/mc/Run3Summer22EENanoAODv12/VBFHHto4B_CV-m1p60_C2V-2p72_C3-m1p36_TuneCP5_13p6TeV_madgraph-pythia8/NANOAODSIM/130X_mcRun3_2022_realistic_postEE_v6-v2/2540000/bb701168-a2c1-4775-888a-87caeea6d8fd.root",
        "T0_CH_CERN_Tape: davs://eosctacms.cern.ch:8444//eos/ctacms/archive/cms/store/mc/Run3Summer22EENanoAODv12/VBFHHto4B_CV-m1p60_C2V-2p72_C3-m1p36_TuneCP5_13p6TeV_madgraph-pythia8/NANOAODSIM/130X_mcRun3_2022_realistic_postEE_v6-v2/2540000/bb701168-a2c1-4775-888a-87caeea6d8fd.root"
    ],
    "cms:/store/mc/Run3Summer22EENanoAODv12/VBFHHto4B_CV-m1p60_C2V-2p72_C3-m1p36_TuneCP5_13p6TeV_madgraph-pythia8/NANOAODSIM/130X_mcRun3_2022_realistic_postEE_v6-v2/2540000/05ad61a0-b29c-4da1-bb94-92db6e93d31f.root": [
        "T1_FR_CCIN2P3_Disk: davs://ccdavcms.in2p3.fr:2880/disk/data/store/mc/Run3Summer22EENanoAODv12/VBFHHto4B_CV-m1p60_C2V-2p72_C3-m1p36_TuneCP5_13p6TeV_madgraph-pythia8/NANOAODSIM/130X_mcRun3_2022_realistic_postEE_v6-v2/2540000/05ad61a0-b29c-4da1-bb94-92db6e93d31f.root",
        "T2_US_MIT: davs://xrootd.cmsaf.mit.edu:1094/store/mc/Run3Summer22EENanoAODv12/VBFHHto4B_CV-m1p60_C2V-2p72_C3-m1p36_TuneCP5_13p6TeV_madgraph-pythia8/NANOAODSIM/130X_mcRun3_2022_realistic_postEE_v6-v2/2540000/05ad61a0-b29c-4da1-bb94-92db6e93d31f.root",
        "T2_TW_NCHC: davs://se01.grid.nchc.org.tw:443//cms/store/mc/Run3Summer22EENanoAODv12/VBFHHto4B_CV-m1p60_C2V-2p72_C3-m1p36_TuneCP5_13p6TeV_madgraph-pythia8/NANOAODSIM/130X_mcRun3_2022_realistic_postEE_v6-v2/2540000/05ad61a0-b29c-4da1-bb94-92db6e93d31f.root",
        "T1_UK_RAL_Disk: davs://rdr.echo.stfc.ac.uk:1094/store/mc/Run3Summer22EENanoAODv12/VBFHHto4B_CV-m1p60_C2V-2p72_C3-m1p36_TuneCP5_13p6TeV_madgraph-pythia8/NANOAODSIM/130X_mcRun3_2022_realistic_postEE_v6-v2/2540000/05ad61a0-b29c-4da1-bb94-92db6e93d31f.root",
        "T2_US_Wisconsin: davs://cmsxrootd.hep.wisc.edu:1094/store/mc/Run3Summer22EENanoAODv12/VBFHHto4B_CV-m1p60_C2V-2p72_C3-m1p36_TuneCP5_13p6TeV_madgraph-pythia8/NANOAODSIM/130X_mcRun3_2022_realistic_postEE_v6-v2/2540000/05ad61a0-b29c-4da1-bb94-92db6e93d31f.root",
        "T2_US_Florida: davs://cmsio2.rc.ufl.edu:1094/store/mc/Run3Summer22EENanoAODv12/VBFHHto4B_CV-m1p60_C2V-2p72_C3-m1p36_TuneCP5_13p6TeV_madgraph-pythia8/NANOAODSIM/130X_mcRun3_2022_realistic_postEE_v6-v2/2540000/05ad61a0-b29c-4da1-bb94-92db6e93d31f.root",
        "T2_BE_IIHE: davs://maite.iihe.ac.be:2880/pnfs/iihe/cms/ph/sc4/store/mc/Run3Summer22EENanoAODv12/VBFHHto4B_CV-m1p60_C2V-2p72_C3-m1p36_TuneCP5_13p6TeV_madgraph-pythia8/NANOAODSIM/130X_mcRun3_2022_realistic_postEE_v6-v2/2540000/05ad61a0-b29c-4da1-bb94-92db6e93d31f.root",
        "T0_CH_CERN_Tape: davs://eosctacms.cern.ch:8444//eos/ctacms/archive/cms/store/mc/Run3Summer22EENanoAODv12/VBFHHto4B_CV-m1p60_C2V-2p72_C3-m1p36_TuneCP5_13p6TeV_madgraph-pythia8/NANOAODSIM/130X_mcRun3_2022_realistic_postEE_v6-v2/2540000/05ad61a0-b29c-4da1-bb94-92db6e93d31f.root"
    ],
    "cms:/store/mc/Run3Summer22EENanoAODv12/VBFHHto4B_CV-m1p60_C2V-2p72_C3-m1p36_TuneCP5_13p6TeV_madgraph-pythia8/NANOAODSIM/130X_mcRun3_2022_realistic_postEE_v6-v2/2540000/0af08e9d-da29-4294-a1e6-822dbecca1e8.root": [
        "T1_FR_CCIN2P3_Disk: davs://ccdavcms.in2p3.fr:2880/disk/data/store/mc/Run3Summer22EENanoAODv12/VBFHHto4B_CV-m1p60_C2V-2p72_C3-m1p36_TuneCP5_13p6TeV_madgraph-pythia8/NANOAODSIM/130X_mcRun3_2022_realistic_postEE_v6-v2/2540000/0af08e9d-da29-4294-a1e6-822dbecca1e8.root",
        "T2_US_MIT: davs://xrootd.cmsaf.mit.edu:1094/store/mc/Run3Summer22EENanoAODv12/VBFHHto4B_CV-m1p60_C2V-2p72_C3-m1p36_TuneCP5_13p6TeV_madgraph-pythia8/NANOAODSIM/130X_mcRun3_2022_realistic_postEE_v6-v2/2540000/0af08e9d-da29-4294-a1e6-822dbecca1e8.root",
        "T2_TW_NCHC: davs://se01.grid.nchc.org.tw:443//cms/store/mc/Run3Summer22EENanoAODv12/VBFHHto4B_CV-m1p60_C2V-2p72_C3-m1p36_TuneCP5_13p6TeV_madgraph-pythia8/NANOAODSIM/130X_mcRun3_2022_realistic_postEE_v6-v2/2540000/0af08e9d-da29-4294-a1e6-822dbecca1e8.root",
        "T1_UK_RAL_Disk: davs://rdr.echo.stfc.ac.uk:1094/store/mc/Run3Summer22EENanoAODv12/VBFHHto4B_CV-m1p60_C2V-2p72_C3-m1p36_TuneCP5_13p6TeV_madgraph-pythia8/NANOAODSIM/130X_mcRun3_2022_realistic_postEE_v6-v2/2540000/0af08e9d-da29-4294-a1e6-822dbecca1e8.root",
        "T2_BE_UCL: davs://ingrid-se02.cism.ucl.ac.be:1094/store/mc/Run3Summer22EENanoAODv12/VBFHHto4B_CV-m1p60_C2V-2p72_C3-m1p36_TuneCP5_13p6TeV_madgraph-pythia8/NANOAODSIM/130X_mcRun3_2022_realistic_postEE_v6-v2/2540000/0af08e9d-da29-4294-a1e6-822dbecca1e8.root",
        "T2_US_Wisconsin: davs://cmsxrootd.hep.wisc.edu:1094/store/mc/Run3Summer22EENanoAODv12/VBFHHto4B_CV-m1p60_C2V-2p72_C3-m1p36_TuneCP5_13p6TeV_madgraph-pythia8/NANOAODSIM/130X_mcRun3_2022_realistic_postEE_v6-v2/2540000/0af08e9d-da29-4294-a1e6-822dbecca1e8.root",
        "T2_US_Nebraska: davs://xrootd-local.unl.edu:1094/store/mc/Run3Summer22EENanoAODv12/VBFHHto4B_CV-m1p60_C2V-2p72_C3-m1p36_TuneCP5_13p6TeV_madgraph-pythia8/NANOAODSIM/130X_mcRun3_2022_realistic_postEE_v6-v2/2540000/0af08e9d-da29-4294-a1e6-822dbecca1e8.root",
        "T2_BE_IIHE: davs://maite.iihe.ac.be:2880/pnfs/iihe/cms/ph/sc4/store/mc/Run3Summer22EENanoAODv12/VBFHHto4B_CV-m1p60_C2V-2p72_C3-m1p36_TuneCP5_13p6TeV_madgraph-pythia8/NANOAODSIM/130X_mcRun3_2022_realistic_postEE_v6-v2/2540000/0af08e9d-da29-4294-a1e6-822dbecca1e8.root",
        "T0_CH_CERN_Tape: davs://eosctacms.cern.ch:8444//eos/ctacms/archive/cms/store/mc/Run3Summer22EENanoAODv12/VBFHHto4B_CV-m1p60_C2V-2p72_C3-m1p36_TuneCP5_13p6TeV_madgraph-pythia8/NANOAODSIM/130X_mcRun3_2022_realistic_postEE_v6-v2/2540000/0af08e9d-da29-4294-a1e6-822dbecca1e8.root"
    ],
    "cms:/store/mc/Run3Summer22EENanoAODv12/VBFHHto4B_CV-m1p60_C2V-2p72_C3-m1p36_TuneCP5_13p6TeV_madgraph-pythia8/NANOAODSIM/130X_mcRun3_2022_realistic_postEE_v6-v2/2540000/588aab27-9e9b-4a23-80c1-3b81cf03c097.root": [
        "T1_FR_CCIN2P3_Disk: davs://ccdavcms.in2p3.fr:2880/disk/data/store/mc/Run3Summer22EENanoAODv12/VBFHHto4B_CV-m1p60_C2V-2p72_C3-m1p36_TuneCP5_13p6TeV_madgraph-pythia8/NANOAODSIM/130X_mcRun3_2022_realistic_postEE_v6-v2/2540000/588aab27-9e9b-4a23-80c1-3b81cf03c097.root",
        "T2_US_MIT: davs://xrootd.cmsaf.mit.edu:1094/store/mc/Run3Summer22EENanoAODv12/VBFHHto4B_CV-m1p60_C2V-2p72_C3-m1p36_TuneCP5_13p6TeV_madgraph-pythia8/NANOAODSIM/130X_mcRun3_2022_realistic_postEE_v6-v2/2540000/588aab27-9e9b-4a23-80c1-3b81cf03c097.root",
        "T2_TW_NCHC: davs://se01.grid.nchc.org.tw:443//cms/store/mc/Run3Summer22EENanoAODv12/VBFHHto4B_CV-m1p60_C2V-2p72_C3-m1p36_TuneCP5_13p6TeV_madgraph-pythia8/NANOAODSIM/130X_mcRun3_2022_realistic_postEE_v6-v2/2540000/588aab27-9e9b-4a23-80c1-3b81cf03c097.root",
        "T2_FR_GRIF: davs://eos.grif.fr:11000/eos/grif/cms/grif/store/mc/Run3Summer22EENanoAODv12/VBFHHto4B_CV-m1p60_C2V-2p72_C3-m1p36_TuneCP5_13p6TeV_madgraph-pythia8/NANOAODSIM/130X_mcRun3_2022_realistic_postEE_v6-v2/2540000/588aab27-9e9b-4a23-80c1-3b81cf03c097.root",
        "T1_UK_RAL_Disk: davs://rdr.echo.stfc.ac.uk:1094/store/mc/Run3Summer22EENanoAODv12/VBFHHto4B_CV-m1p60_C2V-2p72_C3-m1p36_TuneCP5_13p6TeV_madgraph-pythia8/NANOAODSIM/130X_mcRun3_2022_realistic_postEE_v6-v2/2540000/588aab27-9e9b-4a23-80c1-3b81cf03c097.root",
        "T2_US_Wisconsin: davs://cmsxrootd.hep.wisc.edu:1094/store/mc/Run3Summer22EENanoAODv12/VBFHHto4B_CV-m1p60_C2V-2p72_C3-m1p36_TuneCP5_13p6TeV_madgraph-pythia8/NANOAODSIM/130X_mcRun3_2022_realistic_postEE_v6-v2/2540000/588aab27-9e9b-4a23-80c1-3b81cf03c097.root",
        "T2_BE_IIHE: davs://maite.iihe.ac.be:2880/pnfs/iihe/cms/ph/sc4/store/mc/Run3Summer22EENanoAODv12/VBFHHto4B_CV-m1p60_C2V-2p72_C3-m1p36_TuneCP5_13p6TeV_madgraph-pythia8/NANOAODSIM/130X_mcRun3_2022_realistic_postEE_v6-v2/2540000/588aab27-9e9b-4a23-80c1-3b81cf03c097.root",
        "T0_CH_CERN_Tape: davs://eosctacms.cern.ch:8444//eos/ctacms/archive/cms/store/mc/Run3Summer22EENanoAODv12/VBFHHto4B_CV-m1p60_C2V-2p72_C3-m1p36_TuneCP5_13p6TeV_madgraph-pythia8/NANOAODSIM/130X_mcRun3_2022_realistic_postEE_v6-v2/2540000/588aab27-9e9b-4a23-80c1-3b81cf03c097.root"
    ],
    "cms:/store/mc/Run3Summer22EENanoAODv12/VBFHHto4B_CV-m1p60_C2V-2p72_C3-m1p36_TuneCP5_13p6TeV_madgraph-pythia8/NANOAODSIM/130X_mcRun3_2022_realistic_postEE_v6-v2/2540000/28d089b3-6aaa-4b6b-985e-c3013aa29dd8.root": [
        "T1_FR_CCIN2P3_Disk: davs://ccdavcms.in2p3.fr:2880/disk/data/store/mc/Run3Summer22EENanoAODv12/VBFHHto4B_CV-m1p60_C2V-2p72_C3-m1p36_TuneCP5_13p6TeV_madgraph-pythia8/NANOAODSIM/130X_mcRun3_2022_realistic_postEE_v6-v2/2540000/28d089b3-6aaa-4b6b-985e-c3013aa29dd8.root",
        "T2_US_MIT: davs://xrootd.cmsaf.mit.edu:1094/store/mc/Run3Summer22EENanoAODv12/VBFHHto4B_CV-m1p60_C2V-2p72_C3-m1p36_TuneCP5_13p6TeV_madgraph-pythia8/NANOAODSIM/130X_mcRun3_2022_realistic_postEE_v6-v2/2540000/28d089b3-6aaa-4b6b-985e-c3013aa29dd8.root",
        "T2_TW_NCHC: davs://se01.grid.nchc.org.tw:443//cms/store/mc/Run3Summer22EENanoAODv12/VBFHHto4B_CV-m1p60_C2V-2p72_C3-m1p36_TuneCP5_13p6TeV_madgraph-pythia8/NANOAODSIM/130X_mcRun3_2022_realistic_postEE_v6-v2/2540000/28d089b3-6aaa-4b6b-985e-c3013aa29dd8.root",
        "T1_UK_RAL_Disk: davs://rdr.echo.stfc.ac.uk:1094/store/mc/Run3Summer22EENanoAODv12/VBFHHto4B_CV-m1p60_C2V-2p72_C3-m1p36_TuneCP5_13p6TeV_madgraph-pythia8/NANOAODSIM/130X_mcRun3_2022_realistic_postEE_v6-v2/2540000/28d089b3-6aaa-4b6b-985e-c3013aa29dd8.root",
        "T2_US_Wisconsin: davs://cmsxrootd.hep.wisc.edu:1094/store/mc/Run3Summer22EENanoAODv12/VBFHHto4B_CV-m1p60_C2V-2p72_C3-m1p36_TuneCP5_13p6TeV_madgraph-pythia8/NANOAODSIM/130X_mcRun3_2022_realistic_postEE_v6-v2/2540000/28d089b3-6aaa-4b6b-985e-c3013aa29dd8.root",
        "T2_HU_Budapest: davs://grid143.kfki.hu:443/dpm/kfki.hu/home/cms/phedex/store/mc/Run3Summer22EENanoAODv12/VBFHHto4B_CV-m1p60_C2V-2p72_C3-m1p36_TuneCP5_13p6TeV_madgraph-pythia8/NANOAODSIM/130X_mcRun3_2022_realistic_postEE_v6-v2/2540000/28d089b3-6aaa-4b6b-985e-c3013aa29dd8.root",
        "T2_BE_IIHE: davs://maite.iihe.ac.be:2880/pnfs/iihe/cms/ph/sc4/store/mc/Run3Summer22EENanoAODv12/VBFHHto4B_CV-m1p60_C2V-2p72_C3-m1p36_TuneCP5_13p6TeV_madgraph-pythia8/NANOAODSIM/130X_mcRun3_2022_realistic_postEE_v6-v2/2540000/28d089b3-6aaa-4b6b-985e-c3013aa29dd8.root",
        "T0_CH_CERN_Tape: davs://eosctacms.cern.ch:8444//eos/ctacms/archive/cms/store/mc/Run3Summer22EENanoAODv12/VBFHHto4B_CV-m1p60_C2V-2p72_C3-m1p36_TuneCP5_13p6TeV_madgraph-pythia8/NANOAODSIM/130X_mcRun3_2022_realistic_postEE_v6-v2/2540000/28d089b3-6aaa-4b6b-985e-c3013aa29dd8.root"
    ],
    "cms:/store/mc/Run3Summer22EENanoAODv12/VBFHHto4B_CV-m1p60_C2V-2p72_C3-m1p36_TuneCP5_13p6TeV_madgraph-pythia8/NANOAODSIM/130X_mcRun3_2022_realistic_postEE_v6-v2/2540000/ff3b3874-a990-45b4-8871-84e3f44f7241.root": [
        "T1_FR_CCIN2P3_Disk: davs://ccdavcms.in2p3.fr:2880/disk/data/store/mc/Run3Summer22EENanoAODv12/VBFHHto4B_CV-m1p60_C2V-2p72_C3-m1p36_TuneCP5_13p6TeV_madgraph-pythia8/NANOAODSIM/130X_mcRun3_2022_realistic_postEE_v6-v2/2540000/ff3b3874-a990-45b4-8871-84e3f44f7241.root",
        "T2_US_MIT: davs://xrootd.cmsaf.mit.edu:1094/store/mc/Run3Summer22EENanoAODv12/VBFHHto4B_CV-m1p60_C2V-2p72_C3-m1p36_TuneCP5_13p6TeV_madgraph-pythia8/NANOAODSIM/130X_mcRun3_2022_realistic_postEE_v6-v2/2540000/ff3b3874-a990-45b4-8871-84e3f44f7241.root",
        "T2_TW_NCHC: davs://se01.grid.nchc.org.tw:443//cms/store/mc/Run3Summer22EENanoAODv12/VBFHHto4B_CV-m1p60_C2V-2p72_C3-m1p36_TuneCP5_13p6TeV_madgraph-pythia8/NANOAODSIM/130X_mcRun3_2022_realistic_postEE_v6-v2/2540000/ff3b3874-a990-45b4-8871-84e3f44f7241.root",
        "T1_UK_RAL_Disk: davs://rdr.echo.stfc.ac.uk:1094/store/mc/Run3Summer22EENanoAODv12/VBFHHto4B_CV-m1p60_C2V-2p72_C3-m1p36_TuneCP5_13p6TeV_madgraph-pythia8/NANOAODSIM/130X_mcRun3_2022_realistic_postEE_v6-v2/2540000/ff3b3874-a990-45b4-8871-84e3f44f7241.root",
        "T2_US_Wisconsin: davs://cmsxrootd.hep.wisc.edu:1094/store/mc/Run3Summer22EENanoAODv12/VBFHHto4B_CV-m1p60_C2V-2p72_C3-m1p36_TuneCP5_13p6TeV_madgraph-pythia8/NANOAODSIM/130X_mcRun3_2022_realistic_postEE_v6-v2/2540000/ff3b3874-a990-45b4-8871-84e3f44f7241.root",
        "T2_BE_IIHE: davs://maite.iihe.ac.be:2880/pnfs/iihe/cms/ph/sc4/store/mc/Run3Summer22EENanoAODv12/VBFHHto4B_CV-m1p60_C2V-2p72_C3-m1p36_TuneCP5_13p6TeV_madgraph-pythia8/NANOAODSIM/130X_mcRun3_2022_realistic_postEE_v6-v2/2540000/ff3b3874-a990-45b4-8871-84e3f44f7241.root",
        "T0_CH_CERN_Tape: davs://eosctacms.cern.ch:8444//eos/ctacms/archive/cms/store/mc/Run3Summer22EENanoAODv12/VBFHHto4B_CV-m1p60_C2V-2p72_C3-m1p36_TuneCP5_13p6TeV_madgraph-pythia8/NANOAODSIM/130X_mcRun3_2022_realistic_postEE_v6-v2/2540000/ff3b3874-a990-45b4-8871-84e3f44f7241.root"
    ],
    "cms:/store/mc/Run3Summer22EENanoAODv12/VBFHHto4B_CV-m1p60_C2V-2p72_C3-m1p36_TuneCP5_13p6TeV_madgraph-pythia8/NANOAODSIM/130X_mcRun3_2022_realistic_postEE_v6-v2/2540000/a79d91e4-738e-4690-9cdd-312e4daa01cb.root": [
        "T1_FR_CCIN2P3_Disk: davs://ccdavcms.in2p3.fr:2880/disk/data/store/mc/Run3Summer22EENanoAODv12/VBFHHto4B_CV-m1p60_C2V-2p72_C3-m1p36_TuneCP5_13p6TeV_madgraph-pythia8/NANOAODSIM/130X_mcRun3_2022_realistic_postEE_v6-v2/2540000/a79d91e4-738e-4690-9cdd-312e4daa01cb.root",
        "T2_US_MIT: davs://xrootd.cmsaf.mit.edu:1094/store/mc/Run3Summer22EENanoAODv12/VBFHHto4B_CV-m1p60_C2V-2p72_C3-m1p36_TuneCP5_13p6TeV_madgraph-pythia8/NANOAODSIM/130X_mcRun3_2022_realistic_postEE_v6-v2/2540000/a79d91e4-738e-4690-9cdd-312e4daa01cb.root",
        "T2_TW_NCHC: davs://se01.grid.nchc.org.tw:443//cms/store/mc/Run3Summer22EENanoAODv12/VBFHHto4B_CV-m1p60_C2V-2p72_C3-m1p36_TuneCP5_13p6TeV_madgraph-pythia8/NANOAODSIM/130X_mcRun3_2022_realistic_postEE_v6-v2/2540000/a79d91e4-738e-4690-9cdd-312e4daa01cb.root",
        "T2_IT_Legnaro: davs://t2-xrdcms.lnl.infn.it:2880/pnfs/lnl.infn.it/data/cms/store/mc/Run3Summer22EENanoAODv12/VBFHHto4B_CV-m1p60_C2V-2p72_C3-m1p36_TuneCP5_13p6TeV_madgraph-pythia8/NANOAODSIM/130X_mcRun3_2022_realistic_postEE_v6-v2/2540000/a79d91e4-738e-4690-9cdd-312e4daa01cb.root",
        "T1_UK_RAL_Disk: davs://rdr.echo.stfc.ac.uk:1094/store/mc/Run3Summer22EENanoAODv12/VBFHHto4B_CV-m1p60_C2V-2p72_C3-m1p36_TuneCP5_13p6TeV_madgraph-pythia8/NANOAODSIM/130X_mcRun3_2022_realistic_postEE_v6-v2/2540000/a79d91e4-738e-4690-9cdd-312e4daa01cb.root",
        "T2_US_Wisconsin: davs://cmsxrootd.hep.wisc.edu:1094/store/mc/Run3Summer22EENanoAODv12/VBFHHto4B_CV-m1p60_C2V-2p72_C3-m1p36_TuneCP5_13p6TeV_madgraph-pythia8/NANOAODSIM/130X_mcRun3_2022_realistic_postEE_v6-v2/2540000/a79d91e4-738e-4690-9cdd-312e4daa01cb.root",
        "T2_BE_IIHE: davs://maite.iihe.ac.be:2880/pnfs/iihe/cms/ph/sc4/store/mc/Run3Summer22EENanoAODv12/VBFHHto4B_CV-m1p60_C2V-2p72_C3-m1p36_TuneCP5_13p6TeV_madgraph-pythia8/NANOAODSIM/130X_mcRun3_2022_realistic_postEE_v6-v2/2540000/a79d91e4-738e-4690-9cdd-312e4daa01cb.root",
        "T0_CH_CERN_Tape: davs://eosctacms.cern.ch:8444//eos/ctacms/archive/cms/store/mc/Run3Summer22EENanoAODv12/VBFHHto4B_CV-m1p60_C2V-2p72_C3-m1p36_TuneCP5_13p6TeV_madgraph-pythia8/NANOAODSIM/130X_mcRun3_2022_realistic_postEE_v6-v2/2540000/a79d91e4-738e-4690-9cdd-312e4daa01cb.root"
    ],
    "cms:/store/mc/Run3Summer22EENanoAODv12/VBFHHto4B_CV-m1p60_C2V-2p72_C3-m1p36_TuneCP5_13p6TeV_madgraph-pythia8/NANOAODSIM/130X_mcRun3_2022_realistic_postEE_v6-v2/2540000/c4078a83-ee8c-41d9-9ace-faa1a6d454e2.root": [
        "T1_FR_CCIN2P3_Disk: davs://ccdavcms.in2p3.fr:2880/disk/data/store/mc/Run3Summer22EENanoAODv12/VBFHHto4B_CV-m1p60_C2V-2p72_C3-m1p36_TuneCP5_13p6TeV_madgraph-pythia8/NANOAODSIM/130X_mcRun3_2022_realistic_postEE_v6-v2/2540000/c4078a83-ee8c-41d9-9ace-faa1a6d454e2.root",
        "T2_US_MIT: davs://xrootd.cmsaf.mit.edu:1094/store/mc/Run3Summer22EENanoAODv12/VBFHHto4B_CV-m1p60_C2V-2p72_C3-m1p36_TuneCP5_13p6TeV_madgraph-pythia8/NANOAODSIM/130X_mcRun3_2022_realistic_postEE_v6-v2/2540000/c4078a83-ee8c-41d9-9ace-faa1a6d454e2.root",
        "T2_TW_NCHC: davs://se01.grid.nchc.org.tw:443//cms/store/mc/Run3Summer22EENanoAODv12/VBFHHto4B_CV-m1p60_C2V-2p72_C3-m1p36_TuneCP5_13p6TeV_madgraph-pythia8/NANOAODSIM/130X_mcRun3_2022_realistic_postEE_v6-v2/2540000/c4078a83-ee8c-41d9-9ace-faa1a6d454e2.root",
        "T1_UK_RAL_Disk: davs://rdr.echo.stfc.ac.uk:1094/store/mc/Run3Summer22EENanoAODv12/VBFHHto4B_CV-m1p60_C2V-2p72_C3-m1p36_TuneCP5_13p6TeV_madgraph-pythia8/NANOAODSIM/130X_mcRun3_2022_realistic_postEE_v6-v2/2540000/c4078a83-ee8c-41d9-9ace-faa1a6d454e2.root",
        "T2_US_Wisconsin: davs://cmsxrootd.hep.wisc.edu:1094/store/mc/Run3Summer22EENanoAODv12/VBFHHto4B_CV-m1p60_C2V-2p72_C3-m1p36_TuneCP5_13p6TeV_madgraph-pythia8/NANOAODSIM/130X_mcRun3_2022_realistic_postEE_v6-v2/2540000/c4078a83-ee8c-41d9-9ace-faa1a6d454e2.root",
        "T2_BE_IIHE: davs://maite.iihe.ac.be:2880/pnfs/iihe/cms/ph/sc4/store/mc/Run3Summer22EENanoAODv12/VBFHHto4B_CV-m1p60_C2V-2p72_C3-m1p36_TuneCP5_13p6TeV_madgraph-pythia8/NANOAODSIM/130X_mcRun3_2022_realistic_postEE_v6-v2/2540000/c4078a83-ee8c-41d9-9ace-faa1a6d454e2.root",
        "T2_ES_CIEMAT: davs://srm.ciemat.es:2880/pnfs/ciemat.es/data/cms/prod/store/mc/Run3Summer22EENanoAODv12/VBFHHto4B_CV-m1p60_C2V-2p72_C3-m1p36_TuneCP5_13p6TeV_madgraph-pythia8/NANOAODSIM/130X_mcRun3_2022_realistic_postEE_v6-v2/2540000/c4078a83-ee8c-41d9-9ace-faa1a6d454e2.root",
        "T2_DE_RWTH: davs://grid-webdav.physik.rwth-aachen.de:2889/store/mc/Run3Summer22EENanoAODv12/VBFHHto4B_CV-m1p60_C2V-2p72_C3-m1p36_TuneCP5_13p6TeV_madgraph-pythia8/NANOAODSIM/130X_mcRun3_2022_realistic_postEE_v6-v2/2540000/c4078a83-ee8c-41d9-9ace-faa1a6d454e2.root",
        "T0_CH_CERN_Tape: davs://eosctacms.cern.ch:8444//eos/ctacms/archive/cms/store/mc/Run3Summer22EENanoAODv12/VBFHHto4B_CV-m1p60_C2V-2p72_C3-m1p36_TuneCP5_13p6TeV_madgraph-pythia8/NANOAODSIM/130X_mcRun3_2022_realistic_postEE_v6-v2/2540000/c4078a83-ee8c-41d9-9ace-faa1a6d454e2.root"
    ],
    "cms:/store/mc/Run3Summer22EENanoAODv12/VBFHHto4B_CV-m1p60_C2V-2p72_C3-m1p36_TuneCP5_13p6TeV_madgraph-pythia8/NANOAODSIM/130X_mcRun3_2022_realistic_postEE_v6-v2/2540000/98ba7553-8753-4d2a-99ff-692d931e9eef.root": [
        "T1_FR_CCIN2P3_Disk: davs://ccdavcms.in2p3.fr:2880/disk/data/store/mc/Run3Summer22EENanoAODv12/VBFHHto4B_CV-m1p60_C2V-2p72_C3-m1p36_TuneCP5_13p6TeV_madgraph-pythia8/NANOAODSIM/130X_mcRun3_2022_realistic_postEE_v6-v2/2540000/98ba7553-8753-4d2a-99ff-692d931e9eef.root",
        "T2_US_MIT: davs://xrootd.cmsaf.mit.edu:1094/store/mc/Run3Summer22EENanoAODv12/VBFHHto4B_CV-m1p60_C2V-2p72_C3-m1p36_TuneCP5_13p6TeV_madgraph-pythia8/NANOAODSIM/130X_mcRun3_2022_realistic_postEE_v6-v2/2540000/98ba7553-8753-4d2a-99ff-692d931e9eef.root",
        "T2_TW_NCHC: davs://se01.grid.nchc.org.tw:443//cms/store/mc/Run3Summer22EENanoAODv12/VBFHHto4B_CV-m1p60_C2V-2p72_C3-m1p36_TuneCP5_13p6TeV_madgraph-pythia8/NANOAODSIM/130X_mcRun3_2022_realistic_postEE_v6-v2/2540000/98ba7553-8753-4d2a-99ff-692d931e9eef.root",
        "T2_IT_Legnaro: davs://t2-xrdcms.lnl.infn.it:2880/pnfs/lnl.infn.it/data/cms/store/mc/Run3Summer22EENanoAODv12/VBFHHto4B_CV-m1p60_C2V-2p72_C3-m1p36_TuneCP5_13p6TeV_madgraph-pythia8/NANOAODSIM/130X_mcRun3_2022_realistic_postEE_v6-v2/2540000/98ba7553-8753-4d2a-99ff-692d931e9eef.root",
        "T1_UK_RAL_Disk: davs://rdr.echo.stfc.ac.uk:1094/store/mc/Run3Summer22EENanoAODv12/VBFHHto4B_CV-m1p60_C2V-2p72_C3-m1p36_TuneCP5_13p6TeV_madgraph-pythia8/NANOAODSIM/130X_mcRun3_2022_realistic_postEE_v6-v2/2540000/98ba7553-8753-4d2a-99ff-692d931e9eef.root",
        "T2_US_Wisconsin: davs://cmsxrootd.hep.wisc.edu:1094/store/mc/Run3Summer22EENanoAODv12/VBFHHto4B_CV-m1p60_C2V-2p72_C3-m1p36_TuneCP5_13p6TeV_madgraph-pythia8/NANOAODSIM/130X_mcRun3_2022_realistic_postEE_v6-v2/2540000/98ba7553-8753-4d2a-99ff-692d931e9eef.root",
        "T2_BE_IIHE: davs://maite.iihe.ac.be:2880/pnfs/iihe/cms/ph/sc4/store/mc/Run3Summer22EENanoAODv12/VBFHHto4B_CV-m1p60_C2V-2p72_C3-m1p36_TuneCP5_13p6TeV_madgraph-pythia8/NANOAODSIM/130X_mcRun3_2022_realistic_postEE_v6-v2/2540000/98ba7553-8753-4d2a-99ff-692d931e9eef.root",
        "T0_CH_CERN_Tape: davs://eosctacms.cern.ch:8444//eos/ctacms/archive/cms/store/mc/Run3Summer22EENanoAODv12/VBFHHto4B_CV-m1p60_C2V-2p72_C3-m1p36_TuneCP5_13p6TeV_madgraph-pythia8/NANOAODSIM/130X_mcRun3_2022_realistic_postEE_v6-v2/2540000/98ba7553-8753-4d2a-99ff-692d931e9eef.root"
    ],
    "cms:/store/mc/Run3Summer22EENanoAODv12/VBFHHto4B_CV-m1p60_C2V-2p72_C3-m1p36_TuneCP5_13p6TeV_madgraph-pythia8/NANOAODSIM/130X_mcRun3_2022_realistic_postEE_v6-v2/2540000/f659c959-c5df-434c-8427-fd0ae60867e2.root": [
        "T1_FR_CCIN2P3_Disk: davs://ccdavcms.in2p3.fr:2880/disk/data/store/mc/Run3Summer22EENanoAODv12/VBFHHto4B_CV-m1p60_C2V-2p72_C3-m1p36_TuneCP5_13p6TeV_madgraph-pythia8/NANOAODSIM/130X_mcRun3_2022_realistic_postEE_v6-v2/2540000/f659c959-c5df-434c-8427-fd0ae60867e2.root",
        "T2_US_MIT: davs://xrootd.cmsaf.mit.edu:1094/store/mc/Run3Summer22EENanoAODv12/VBFHHto4B_CV-m1p60_C2V-2p72_C3-m1p36_TuneCP5_13p6TeV_madgraph-pythia8/NANOAODSIM/130X_mcRun3_2022_realistic_postEE_v6-v2/2540000/f659c959-c5df-434c-8427-fd0ae60867e2.root",
        "T2_TW_NCHC: davs://se01.grid.nchc.org.tw:443//cms/store/mc/Run3Summer22EENanoAODv12/VBFHHto4B_CV-m1p60_C2V-2p72_C3-m1p36_TuneCP5_13p6TeV_madgraph-pythia8/NANOAODSIM/130X_mcRun3_2022_realistic_postEE_v6-v2/2540000/f659c959-c5df-434c-8427-fd0ae60867e2.root",
        "T2_PL_Swierk: davs://se.cis.gov.pl:2880/grid/cms/store/mc/Run3Summer22EENanoAODv12/VBFHHto4B_CV-m1p60_C2V-2p72_C3-m1p36_TuneCP5_13p6TeV_madgraph-pythia8/NANOAODSIM/130X_mcRun3_2022_realistic_postEE_v6-v2/2540000/f659c959-c5df-434c-8427-fd0ae60867e2.root",
        "T1_UK_RAL_Disk: davs://rdr.echo.stfc.ac.uk:1094/store/mc/Run3Summer22EENanoAODv12/VBFHHto4B_CV-m1p60_C2V-2p72_C3-m1p36_TuneCP5_13p6TeV_madgraph-pythia8/NANOAODSIM/130X_mcRun3_2022_realistic_postEE_v6-v2/2540000/f659c959-c5df-434c-8427-fd0ae60867e2.root",
        "T2_US_Wisconsin: davs://cmsxrootd.hep.wisc.edu:1094/store/mc/Run3Summer22EENanoAODv12/VBFHHto4B_CV-m1p60_C2V-2p72_C3-m1p36_TuneCP5_13p6TeV_madgraph-pythia8/NANOAODSIM/130X_mcRun3_2022_realistic_postEE_v6-v2/2540000/f659c959-c5df-434c-8427-fd0ae60867e2.root",
        "T2_BE_IIHE: davs://maite.iihe.ac.be:2880/pnfs/iihe/cms/ph/sc4/store/mc/Run3Summer22EENanoAODv12/VBFHHto4B_CV-m1p60_C2V-2p72_C3-m1p36_TuneCP5_13p6TeV_madgraph-pythia8/NANOAODSIM/130X_mcRun3_2022_realistic_postEE_v6-v2/2540000/f659c959-c5df-434c-8427-fd0ae60867e2.root",
        "T0_CH_CERN_Tape: davs://eosctacms.cern.ch:8444//eos/ctacms/archive/cms/store/mc/Run3Summer22EENanoAODv12/VBFHHto4B_CV-m1p60_C2V-2p72_C3-m1p36_TuneCP5_13p6TeV_madgraph-pythia8/NANOAODSIM/130X_mcRun3_2022_realistic_postEE_v6-v2/2540000/f659c959-c5df-434c-8427-fd0ae60867e2.root",
        "T2_IN_TIFR: davs://se01.indiacms.res.in:443/dpm/indiacms.res.in/home/cms/store/mc/Run3Summer22EENanoAODv12/VBFHHto4B_CV-m1p60_C2V-2p72_C3-m1p36_TuneCP5_13p6TeV_madgraph-pythia8/NANOAODSIM/130X_mcRun3_2022_realistic_postEE_v6-v2/2540000/f659c959-c5df-434c-8427-fd0ae60867e2.root"
    ],
    "cms:/store/mc/Run3Summer22EENanoAODv12/VBFHHto4B_CV-m1p60_C2V-2p72_C3-m1p36_TuneCP5_13p6TeV_madgraph-pythia8/NANOAODSIM/130X_mcRun3_2022_realistic_postEE_v6-v2/2540000/68eae588-1d34-4e67-ae0f-a493978ddea4.root": [
        "T1_FR_CCIN2P3_Disk: davs://ccdavcms.in2p3.fr:2880/disk/data/store/mc/Run3Summer22EENanoAODv12/VBFHHto4B_CV-m1p60_C2V-2p72_C3-m1p36_TuneCP5_13p6TeV_madgraph-pythia8/NANOAODSIM/130X_mcRun3_2022_realistic_postEE_v6-v2/2540000/68eae588-1d34-4e67-ae0f-a493978ddea4.root",
        "T2_US_MIT: davs://xrootd.cmsaf.mit.edu:1094/store/mc/Run3Summer22EENanoAODv12/VBFHHto4B_CV-m1p60_C2V-2p72_C3-m1p36_TuneCP5_13p6TeV_madgraph-pythia8/NANOAODSIM/130X_mcRun3_2022_realistic_postEE_v6-v2/2540000/68eae588-1d34-4e67-ae0f-a493978ddea4.root",
        "T2_TW_NCHC: davs://se01.grid.nchc.org.tw:443//cms/store/mc/Run3Summer22EENanoAODv12/VBFHHto4B_CV-m1p60_C2V-2p72_C3-m1p36_TuneCP5_13p6TeV_madgraph-pythia8/NANOAODSIM/130X_mcRun3_2022_realistic_postEE_v6-v2/2540000/68eae588-1d34-4e67-ae0f-a493978ddea4.root",
        "T1_UK_RAL_Disk: davs://rdr.echo.stfc.ac.uk:1094/store/mc/Run3Summer22EENanoAODv12/VBFHHto4B_CV-m1p60_C2V-2p72_C3-m1p36_TuneCP5_13p6TeV_madgraph-pythia8/NANOAODSIM/130X_mcRun3_2022_realistic_postEE_v6-v2/2540000/68eae588-1d34-4e67-ae0f-a493978ddea4.root",
        "T2_US_Wisconsin: davs://cmsxrootd.hep.wisc.edu:1094/store/mc/Run3Summer22EENanoAODv12/VBFHHto4B_CV-m1p60_C2V-2p72_C3-m1p36_TuneCP5_13p6TeV_madgraph-pythia8/NANOAODSIM/130X_mcRun3_2022_realistic_postEE_v6-v2/2540000/68eae588-1d34-4e67-ae0f-a493978ddea4.root",
        "T2_BE_IIHE: davs://maite.iihe.ac.be:2880/pnfs/iihe/cms/ph/sc4/store/mc/Run3Summer22EENanoAODv12/VBFHHto4B_CV-m1p60_C2V-2p72_C3-m1p36_TuneCP5_13p6TeV_madgraph-pythia8/NANOAODSIM/130X_mcRun3_2022_realistic_postEE_v6-v2/2540000/68eae588-1d34-4e67-ae0f-a493978ddea4.root",
        "T0_CH_CERN_Tape: davs://eosctacms.cern.ch:8444//eos/ctacms/archive/cms/store/mc/Run3Summer22EENanoAODv12/VBFHHto4B_CV-m1p60_C2V-2p72_C3-m1p36_TuneCP5_13p6TeV_madgraph-pythia8/NANOAODSIM/130X_mcRun3_2022_realistic_postEE_v6-v2/2540000/68eae588-1d34-4e67-ae0f-a493978ddea4.root",
        "T2_IN_TIFR: davs://se01.indiacms.res.in:443/dpm/indiacms.res.in/home/cms/store/mc/Run3Summer22EENanoAODv12/VBFHHto4B_CV-m1p60_C2V-2p72_C3-m1p36_TuneCP5_13p6TeV_madgraph-pythia8/NANOAODSIM/130X_mcRun3_2022_realistic_postEE_v6-v2/2540000/68eae588-1d34-4e67-ae0f-a493978ddea4.root"
    ],
    "cms:/store/mc/Run3Summer22EENanoAODv12/VBFHHto4B_CV-m1p60_C2V-2p72_C3-m1p36_TuneCP5_13p6TeV_madgraph-pythia8/NANOAODSIM/130X_mcRun3_2022_realistic_postEE_v6-v2/2540000/460ade95-0a5c-4d64-ada5-e531558c9137.root": [
        "T1_FR_CCIN2P3_Disk: davs://ccdavcms.in2p3.fr:2880/disk/data/store/mc/Run3Summer22EENanoAODv12/VBFHHto4B_CV-m1p60_C2V-2p72_C3-m1p36_TuneCP5_13p6TeV_madgraph-pythia8/NANOAODSIM/130X_mcRun3_2022_realistic_postEE_v6-v2/2540000/460ade95-0a5c-4d64-ada5-e531558c9137.root",
        "T2_UK_SGrid_RALPP: davs://mover.pp.rl.ac.uk:2880/pnfs/pp.rl.ac.uk/data/cms/store/mc/Run3Summer22EENanoAODv12/VBFHHto4B_CV-m1p60_C2V-2p72_C3-m1p36_TuneCP5_13p6TeV_madgraph-pythia8/NANOAODSIM/130X_mcRun3_2022_realistic_postEE_v6-v2/2540000/460ade95-0a5c-4d64-ada5-e531558c9137.root",
        "T2_US_MIT: davs://xrootd.cmsaf.mit.edu:1094/store/mc/Run3Summer22EENanoAODv12/VBFHHto4B_CV-m1p60_C2V-2p72_C3-m1p36_TuneCP5_13p6TeV_madgraph-pythia8/NANOAODSIM/130X_mcRun3_2022_realistic_postEE_v6-v2/2540000/460ade95-0a5c-4d64-ada5-e531558c9137.root",
        "T2_TW_NCHC: davs://se01.grid.nchc.org.tw:443//cms/store/mc/Run3Summer22EENanoAODv12/VBFHHto4B_CV-m1p60_C2V-2p72_C3-m1p36_TuneCP5_13p6TeV_madgraph-pythia8/NANOAODSIM/130X_mcRun3_2022_realistic_postEE_v6-v2/2540000/460ade95-0a5c-4d64-ada5-e531558c9137.root",
        "T1_UK_RAL_Disk: davs://rdr.echo.stfc.ac.uk:1094/store/mc/Run3Summer22EENanoAODv12/VBFHHto4B_CV-m1p60_C2V-2p72_C3-m1p36_TuneCP5_13p6TeV_madgraph-pythia8/NANOAODSIM/130X_mcRun3_2022_realistic_postEE_v6-v2/2540000/460ade95-0a5c-4d64-ada5-e531558c9137.root",
        "T2_US_Wisconsin: davs://cmsxrootd.hep.wisc.edu:1094/store/mc/Run3Summer22EENanoAODv12/VBFHHto4B_CV-m1p60_C2V-2p72_C3-m1p36_TuneCP5_13p6TeV_madgraph-pythia8/NANOAODSIM/130X_mcRun3_2022_realistic_postEE_v6-v2/2540000/460ade95-0a5c-4d64-ada5-e531558c9137.root",
        "T2_BE_IIHE: davs://maite.iihe.ac.be:2880/pnfs/iihe/cms/ph/sc4/store/mc/Run3Summer22EENanoAODv12/VBFHHto4B_CV-m1p60_C2V-2p72_C3-m1p36_TuneCP5_13p6TeV_madgraph-pythia8/NANOAODSIM/130X_mcRun3_2022_realistic_postEE_v6-v2/2540000/460ade95-0a5c-4d64-ada5-e531558c9137.root",
        "T0_CH_CERN_Tape: davs://eosctacms.cern.ch:8444//eos/ctacms/archive/cms/store/mc/Run3Summer22EENanoAODv12/VBFHHto4B_CV-m1p60_C2V-2p72_C3-m1p36_TuneCP5_13p6TeV_madgraph-pythia8/NANOAODSIM/130X_mcRun3_2022_realistic_postEE_v6-v2/2540000/460ade95-0a5c-4d64-ada5-e531558c9137.root"
    ],
    "cms:/store/mc/Run3Summer22EENanoAODv12/VBFHHto4B_CV-m1p60_C2V-2p72_C3-m1p36_TuneCP5_13p6TeV_madgraph-pythia8/NANOAODSIM/130X_mcRun3_2022_realistic_postEE_v6-v2/2540000/c8908fd6-7c7e-4344-90b2-a7e3641da0ad.root": [
        "T1_FR_CCIN2P3_Disk: davs://ccdavcms.in2p3.fr:2880/disk/data/store/mc/Run3Summer22EENanoAODv12/VBFHHto4B_CV-m1p60_C2V-2p72_C3-m1p36_TuneCP5_13p6TeV_madgraph-pythia8/NANOAODSIM/130X_mcRun3_2022_realistic_postEE_v6-v2/2540000/c8908fd6-7c7e-4344-90b2-a7e3641da0ad.root",
        "T2_US_MIT: davs://xrootd.cmsaf.mit.edu:1094/store/mc/Run3Summer22EENanoAODv12/VBFHHto4B_CV-m1p60_C2V-2p72_C3-m1p36_TuneCP5_13p6TeV_madgraph-pythia8/NANOAODSIM/130X_mcRun3_2022_realistic_postEE_v6-v2/2540000/c8908fd6-7c7e-4344-90b2-a7e3641da0ad.root",
        "T2_TW_NCHC: davs://se01.grid.nchc.org.tw:443//cms/store/mc/Run3Summer22EENanoAODv12/VBFHHto4B_CV-m1p60_C2V-2p72_C3-m1p36_TuneCP5_13p6TeV_madgraph-pythia8/NANOAODSIM/130X_mcRun3_2022_realistic_postEE_v6-v2/2540000/c8908fd6-7c7e-4344-90b2-a7e3641da0ad.root",
        "T1_UK_RAL_Disk: davs://rdr.echo.stfc.ac.uk:1094/store/mc/Run3Summer22EENanoAODv12/VBFHHto4B_CV-m1p60_C2V-2p72_C3-m1p36_TuneCP5_13p6TeV_madgraph-pythia8/NANOAODSIM/130X_mcRun3_2022_realistic_postEE_v6-v2/2540000/c8908fd6-7c7e-4344-90b2-a7e3641da0ad.root",
        "T2_US_Wisconsin: davs://cmsxrootd.hep.wisc.edu:1094/store/mc/Run3Summer22EENanoAODv12/VBFHHto4B_CV-m1p60_C2V-2p72_C3-m1p36_TuneCP5_13p6TeV_madgraph-pythia8/NANOAODSIM/130X_mcRun3_2022_realistic_postEE_v6-v2/2540000/c8908fd6-7c7e-4344-90b2-a7e3641da0ad.root",
        "T2_BE_IIHE: davs://maite.iihe.ac.be:2880/pnfs/iihe/cms/ph/sc4/store/mc/Run3Summer22EENanoAODv12/VBFHHto4B_CV-m1p60_C2V-2p72_C3-m1p36_TuneCP5_13p6TeV_madgraph-pythia8/NANOAODSIM/130X_mcRun3_2022_realistic_postEE_v6-v2/2540000/c8908fd6-7c7e-4344-90b2-a7e3641da0ad.root",
        "T1_RU_JINR_Disk: davs://se-wbdv.jinr-t1.ru:2880/pnfs/jinr-t1.ru/data/cms/store/mc/Run3Summer22EENanoAODv12/VBFHHto4B_CV-m1p60_C2V-2p72_C3-m1p36_TuneCP5_13p6TeV_madgraph-pythia8/NANOAODSIM/130X_mcRun3_2022_realistic_postEE_v6-v2/2540000/c8908fd6-7c7e-4344-90b2-a7e3641da0ad.root",
        "T0_CH_CERN_Tape: davs://eosctacms.cern.ch:8444//eos/ctacms/archive/cms/store/mc/Run3Summer22EENanoAODv12/VBFHHto4B_CV-m1p60_C2V-2p72_C3-m1p36_TuneCP5_13p6TeV_madgraph-pythia8/NANOAODSIM/130X_mcRun3_2022_realistic_postEE_v6-v2/2540000/c8908fd6-7c7e-4344-90b2-a7e3641da0ad.root"
    ],
    "cms:/store/mc/Run3Summer22EENanoAODv12/VBFHHto4B_CV-m1p60_C2V-2p72_C3-m1p36_TuneCP5_13p6TeV_madgraph-pythia8/NANOAODSIM/130X_mcRun3_2022_realistic_postEE_v6-v2/2540000/467d97af-f1f0-4ed1-aa5a-b882a0f891aa.root": [
        "T1_FR_CCIN2P3_Disk: davs://ccdavcms.in2p3.fr:2880/disk/data/store/mc/Run3Summer22EENanoAODv12/VBFHHto4B_CV-m1p60_C2V-2p72_C3-m1p36_TuneCP5_13p6TeV_madgraph-pythia8/NANOAODSIM/130X_mcRun3_2022_realistic_postEE_v6-v2/2540000/467d97af-f1f0-4ed1-aa5a-b882a0f891aa.root",
        "T2_US_MIT: davs://xrootd.cmsaf.mit.edu:1094/store/mc/Run3Summer22EENanoAODv12/VBFHHto4B_CV-m1p60_C2V-2p72_C3-m1p36_TuneCP5_13p6TeV_madgraph-pythia8/NANOAODSIM/130X_mcRun3_2022_realistic_postEE_v6-v2/2540000/467d97af-f1f0-4ed1-aa5a-b882a0f891aa.root",
        "T2_TW_NCHC: davs://se01.grid.nchc.org.tw:443//cms/store/mc/Run3Summer22EENanoAODv12/VBFHHto4B_CV-m1p60_C2V-2p72_C3-m1p36_TuneCP5_13p6TeV_madgraph-pythia8/NANOAODSIM/130X_mcRun3_2022_realistic_postEE_v6-v2/2540000/467d97af-f1f0-4ed1-aa5a-b882a0f891aa.root",
        "T1_UK_RAL_Disk: davs://rdr.echo.stfc.ac.uk:1094/store/mc/Run3Summer22EENanoAODv12/VBFHHto4B_CV-m1p60_C2V-2p72_C3-m1p36_TuneCP5_13p6TeV_madgraph-pythia8/NANOAODSIM/130X_mcRun3_2022_realistic_postEE_v6-v2/2540000/467d97af-f1f0-4ed1-aa5a-b882a0f891aa.root",
        "T2_US_Wisconsin: davs://cmsxrootd.hep.wisc.edu:1094/store/mc/Run3Summer22EENanoAODv12/VBFHHto4B_CV-m1p60_C2V-2p72_C3-m1p36_TuneCP5_13p6TeV_madgraph-pythia8/NANOAODSIM/130X_mcRun3_2022_realistic_postEE_v6-v2/2540000/467d97af-f1f0-4ed1-aa5a-b882a0f891aa.root",
        "T2_BE_IIHE: davs://maite.iihe.ac.be:2880/pnfs/iihe/cms/ph/sc4/store/mc/Run3Summer22EENanoAODv12/VBFHHto4B_CV-m1p60_C2V-2p72_C3-m1p36_TuneCP5_13p6TeV_madgraph-pythia8/NANOAODSIM/130X_mcRun3_2022_realistic_postEE_v6-v2/2540000/467d97af-f1f0-4ed1-aa5a-b882a0f891aa.root",
        "T0_CH_CERN_Tape: davs://eosctacms.cern.ch:8444//eos/ctacms/archive/cms/store/mc/Run3Summer22EENanoAODv12/VBFHHto4B_CV-m1p60_C2V-2p72_C3-m1p36_TuneCP5_13p6TeV_madgraph-pythia8/NANOAODSIM/130X_mcRun3_2022_realistic_postEE_v6-v2/2540000/467d97af-f1f0-4ed1-aa5a-b882a0f891aa.root"
    ],
    "cms:/store/mc/Run3Summer22EENanoAODv12/VBFHHto4B_CV-m1p60_C2V-2p72_C3-m1p36_TuneCP5_13p6TeV_madgraph-pythia8/NANOAODSIM/130X_mcRun3_2022_realistic_postEE_v6-v2/2540000/c0c89a74-1bd5-40cc-88c4-0b57c62b0356.root": [
        "T1_FR_CCIN2P3_Disk: davs://ccdavcms.in2p3.fr:2880/disk/data/store/mc/Run3Summer22EENanoAODv12/VBFHHto4B_CV-m1p60_C2V-2p72_C3-m1p36_TuneCP5_13p6TeV_madgraph-pythia8/NANOAODSIM/130X_mcRun3_2022_realistic_postEE_v6-v2/2540000/c0c89a74-1bd5-40cc-88c4-0b57c62b0356.root",
        "T2_US_MIT: davs://xrootd.cmsaf.mit.edu:1094/store/mc/Run3Summer22EENanoAODv12/VBFHHto4B_CV-m1p60_C2V-2p72_C3-m1p36_TuneCP5_13p6TeV_madgraph-pythia8/NANOAODSIM/130X_mcRun3_2022_realistic_postEE_v6-v2/2540000/c0c89a74-1bd5-40cc-88c4-0b57c62b0356.root",
        "T2_TW_NCHC: davs://se01.grid.nchc.org.tw:443//cms/store/mc/Run3Summer22EENanoAODv12/VBFHHto4B_CV-m1p60_C2V-2p72_C3-m1p36_TuneCP5_13p6TeV_madgraph-pythia8/NANOAODSIM/130X_mcRun3_2022_realistic_postEE_v6-v2/2540000/c0c89a74-1bd5-40cc-88c4-0b57c62b0356.root",
        "T1_UK_RAL_Disk: davs://rdr.echo.stfc.ac.uk:1094/store/mc/Run3Summer22EENanoAODv12/VBFHHto4B_CV-m1p60_C2V-2p72_C3-m1p36_TuneCP5_13p6TeV_madgraph-pythia8/NANOAODSIM/130X_mcRun3_2022_realistic_postEE_v6-v2/2540000/c0c89a74-1bd5-40cc-88c4-0b57c62b0356.root",
        "T2_US_Wisconsin: davs://cmsxrootd.hep.wisc.edu:1094/store/mc/Run3Summer22EENanoAODv12/VBFHHto4B_CV-m1p60_C2V-2p72_C3-m1p36_TuneCP5_13p6TeV_madgraph-pythia8/NANOAODSIM/130X_mcRun3_2022_realistic_postEE_v6-v2/2540000/c0c89a74-1bd5-40cc-88c4-0b57c62b0356.root",
        "T2_BE_IIHE: davs://maite.iihe.ac.be:2880/pnfs/iihe/cms/ph/sc4/store/mc/Run3Summer22EENanoAODv12/VBFHHto4B_CV-m1p60_C2V-2p72_C3-m1p36_TuneCP5_13p6TeV_madgraph-pythia8/NANOAODSIM/130X_mcRun3_2022_realistic_postEE_v6-v2/2540000/c0c89a74-1bd5-40cc-88c4-0b57c62b0356.root",
        "T0_CH_CERN_Tape: davs://eosctacms.cern.ch:8444//eos/ctacms/archive/cms/store/mc/Run3Summer22EENanoAODv12/VBFHHto4B_CV-m1p60_C2V-2p72_C3-m1p36_TuneCP5_13p6TeV_madgraph-pythia8/NANOAODSIM/130X_mcRun3_2022_realistic_postEE_v6-v2/2540000/c0c89a74-1bd5-40cc-88c4-0b57c62b0356.root"
    ],
    "cms:/store/mc/Run3Summer22EENanoAODv12/VBFHHto4B_CV-m1p60_C2V-2p72_C3-m1p36_TuneCP5_13p6TeV_madgraph-pythia8/NANOAODSIM/130X_mcRun3_2022_realistic_postEE_v6-v2/2540000/d1b8f7d7-f528-429c-9bc5-63f5bbff10d0.root": [
        "T1_FR_CCIN2P3_Disk: davs://ccdavcms.in2p3.fr:2880/disk/data/store/mc/Run3Summer22EENanoAODv12/VBFHHto4B_CV-m1p60_C2V-2p72_C3-m1p36_TuneCP5_13p6TeV_madgraph-pythia8/NANOAODSIM/130X_mcRun3_2022_realistic_postEE_v6-v2/2540000/d1b8f7d7-f528-429c-9bc5-63f5bbff10d0.root",
        "T2_US_MIT: davs://xrootd.cmsaf.mit.edu:1094/store/mc/Run3Summer22EENanoAODv12/VBFHHto4B_CV-m1p60_C2V-2p72_C3-m1p36_TuneCP5_13p6TeV_madgraph-pythia8/NANOAODSIM/130X_mcRun3_2022_realistic_postEE_v6-v2/2540000/d1b8f7d7-f528-429c-9bc5-63f5bbff10d0.root",
        "T2_TW_NCHC: davs://se01.grid.nchc.org.tw:443//cms/store/mc/Run3Summer22EENanoAODv12/VBFHHto4B_CV-m1p60_C2V-2p72_C3-m1p36_TuneCP5_13p6TeV_madgraph-pythia8/NANOAODSIM/130X_mcRun3_2022_realistic_postEE_v6-v2/2540000/d1b8f7d7-f528-429c-9bc5-63f5bbff10d0.root",
        "T1_UK_RAL_Disk: davs://rdr.echo.stfc.ac.uk:1094/store/mc/Run3Summer22EENanoAODv12/VBFHHto4B_CV-m1p60_C2V-2p72_C3-m1p36_TuneCP5_13p6TeV_madgraph-pythia8/NANOAODSIM/130X_mcRun3_2022_realistic_postEE_v6-v2/2540000/d1b8f7d7-f528-429c-9bc5-63f5bbff10d0.root",
        "T2_US_Wisconsin: davs://cmsxrootd.hep.wisc.edu:1094/store/mc/Run3Summer22EENanoAODv12/VBFHHto4B_CV-m1p60_C2V-2p72_C3-m1p36_TuneCP5_13p6TeV_madgraph-pythia8/NANOAODSIM/130X_mcRun3_2022_realistic_postEE_v6-v2/2540000/d1b8f7d7-f528-429c-9bc5-63f5bbff10d0.root",
        "T2_BE_IIHE: davs://maite.iihe.ac.be:2880/pnfs/iihe/cms/ph/sc4/store/mc/Run3Summer22EENanoAODv12/VBFHHto4B_CV-m1p60_C2V-2p72_C3-m1p36_TuneCP5_13p6TeV_madgraph-pythia8/NANOAODSIM/130X_mcRun3_2022_realistic_postEE_v6-v2/2540000/d1b8f7d7-f528-429c-9bc5-63f5bbff10d0.root",
        "T0_CH_CERN_Tape: davs://eosctacms.cern.ch:8444//eos/ctacms/archive/cms/store/mc/Run3Summer22EENanoAODv12/VBFHHto4B_CV-m1p60_C2V-2p72_C3-m1p36_TuneCP5_13p6TeV_madgraph-pythia8/NANOAODSIM/130X_mcRun3_2022_realistic_postEE_v6-v2/2540000/d1b8f7d7-f528-429c-9bc5-63f5bbff10d0.root"
    ]
}