+-----------------------------------------------------------------------------------------------------------------------------------------------------------------------------------------------------------+--------+-------------+------------+----------+
| SCOPE:NAME                                                                                                                                                                                                | GUID   | ADLER32     | FILESIZE   | EVENTS   |
|-----------------------------------------------------------------------------------------------------------------------------------------------------------------------------------------------------------+--------+-------------+------------+----------|
| cms:/store/mc/Run3Summer22NanoAODv12/VBFHHto4B_CV-m0p012_C2V-0p030_C3-10p2_TuneCP5_13p6TeV_madgraph-pythia8/NANOAODSIM/130X_mcRun3_2022_realistic_v5-v2/2540000/cab5cd91-900b-402f-966d-8436b56c28c1.root | (None) | ad:5934e3cf | 6.764 MB   |          |
| cms:/store/mc/Run3Summer22NanoAODv12/VBFHHto4B_CV-m0p012_C2V-0p030_C3-10p2_TuneCP5_13p6TeV_madgraph-pythia8/NANOAODSIM/130X_mcRun3_2022_realistic_v5-v2/2540000/a9b5709d-0f70-4350-bda4-03208b2fb8c3.root | (None) | ad:76b88e87 | 4.641 MB   |          |
| cms:/store/mc/Run3Summer22NanoAODv12/VBFHHto4B_CV-m0p012_C2V-0p030_C3-10p2_TuneCP5_13p6TeV_madgraph-pythia8/NANOAODSIM/130X_mcRun3_2022_realistic_v5-v2/2540000/6f122ff4-0b6d-4f1b-9e4a-b26dc779253e.root | (None) | ad:ee7a386a | 30.657 MB  |          |
| cms:/store/mc/Run3Summer22NanoAODv12/VBFHHto4B_CV-m0p012_C2V-0p030_C3-10p2_TuneCP5_13p6TeV_madgraph-pythia8/NANOAODSIM/130X_mcRun3_2022_realistic_v5-v2/2540000/6e0d9aec-2b1b-42b8-811a-398ddb5bbe3d.root | (None) | ad:d9d488d0 | 33.961 MB  |          |
| cms:/store/mc/Run3Summer22NanoAODv12/VBFHHto4B_CV-m0p012_C2V-0p030_C3-10p2_TuneCP5_13p6TeV_madgraph-pythia8/NANOAODSIM/130X_mcRun3_2022_realistic_v5-v2/2540000/989cb804-546e-4043-8cdf-e0b6f727d2bc.root | (None) | ad:1a7c1fb0 | 79.511 MB  |          |
| cms:/store/mc/Run3Summer22NanoAODv12/VBFHHto4B_CV-m0p012_C2V-0p030_C3-10p2_TuneCP5_13p6TeV_madgraph-pythia8/NANOAODSIM/130X_mcRun3_2022_realistic_v5-v2/2540000/1010cc2a-b3d0-4c39-be15-e18ad4d3acba.root | (None) | ad:2ede0f26 | 6.722 MB   |          |
| cms:/store/mc/Run3Summer22NanoAODv12/VBFHHto4B_CV-m0p012_C2V-0p030_C3-10p2_TuneCP5_13p6TeV_madgraph-pythia8/NANOAODSIM/130X_mcRun3_2022_realistic_v5-v2/2540000/badc5fd6-2969-473c-8c6d-73009f5b9c15.root | (None) | ad:ebdda224 | 15.329 MB  |          |
| cms:/store/mc/Run3Summer22NanoAODv12/VBFHHto4B_CV-m0p012_C2V-0p030_C3-10p2_TuneCP5_13p6TeV_madgraph-pythia8/NANOAODSIM/130X_mcRun3_2022_realistic_v5-v2/2540000/27eeacd1-1685-41a8-9f27-cbeff31f5ae9.root | (None) | ad:340aa7cc | 11.620 MB  |          |
| cms:/store/mc/Run3Summer22NanoAODv12/VBFHHto4B_CV-m0p012_C2V-0p030_C3-10p2_TuneCP5_13p6TeV_madgraph-pythia8/NANOAODSIM/130X_mcRun3_2022_realistic_v5-v2/2540000/804d3a9f-64fd-4838-a8cb-c3b324d49abd.root | (None) | ad:62f6e950 | 13.650 MB  |          |
| cms:/store/mc/Run3Summer22NanoAODv12/VBFHHto4B_CV-m0p012_C2V-0p030_C3-10p2_TuneCP5_13p6TeV_madgraph-pythia8/NANOAODSIM/130X_mcRun3_2022_realistic_v5-v2/2540000/149f6a8b-13d3-4317-bbd9-f6f51e829ecf.root | (None) | ad:d733426f | 33.875 MB  |          |
| cms:/store/mc/Run3Summer22NanoAODv12/VBFHHto4B_CV-m0p012_C2V-0p030_C3-10p2_TuneCP5_13p6TeV_madgraph-pythia8/NANOAODSIM/130X_mcRun3_2022_realistic_v5-v2/2540000/154ec73d-a7fd-4744-a78d-e30cf7f050d2.root | (None) | ad:3f456f24 | 15.368 MB  |          |
| cms:/store/mc/Run3Summer22NanoAODv12/VBFHHto4B_CV-m0p012_C2V-0p030_C3-10p2_TuneCP5_13p6TeV_madgraph-pythia8/NANOAODSIM/130X_mcRun3_2022_realistic_v5-v2/2540000/9be7fbe5-a9a1-4d70-b4a8-26faf2315ea1.root | (None) | ad:f4a252a8 | 30.668 MB  |          |
| cms:/store/mc/Run3Summer22NanoAODv12/VBFHHto4B_CV-m0p012_C2V-0p030_C3-10p2_TuneCP5_13p6TeV_madgraph-pythia8/NANOAODSIM/130X_mcRun3_2022_realistic_v5-v2/2540000/fb837ec3-63db-457e-b42c-f68d18182ca4.root | (None) | ad:b16634a2 | 15.318 MB  |          |
| cms:/store/mc/Run3Summer22NanoAODv12/VBFHHto4B_CV-m0p012_C2V-0p030_C3-10p2_TuneCP5_13p6TeV_madgraph-pythia8/NANOAODSIM/130X_mcRun3_2022_realistic_v5-v2/2540000/73e65f55-e894-41d4-9b52-538e81974bc9.root | (None) | ad:d5d1bfa0 | 47.599 MB  |          |
| cms:/store/mc/Run3Summer22NanoAODv12/VBFHHto4B_CV-m0p012_C2V-0p030_C3-10p2_TuneCP5_13p6TeV_madgraph-pythia8/NANOAODSIM/130X_mcRun3_2022_realistic_v5-v2/2540000/441c9c65-9e6b-4f1c-b66c-249eebb46760.root | (None) | ad:c42075a3 | 56.224 MB  |          |
| cms:/store/mc/Run3Summer22NanoAODv12/VBFHHto4B_CV-m0p012_C2V-0p030_C3-10p2_TuneCP5_13p6TeV_madgraph-pythia8/NANOAODSIM/130X_mcRun3_2022_realistic_v5-v2/2540000/5bc50488-51f7-4703-bec4-76b70871ce32.root | (None) | ad:018c726f | 4.647 MB   |          |
| cms:/store/mc/Run3Summer22NanoAODv12/VBFHHto4B_CV-m0p012_C2V-0p030_C3-10p2_TuneCP5_13p6TeV_madgraph-pythia8/NANOAODSIM/130X_mcRun3_2022_realistic_v5-v2/2540000/0c2624e9-0da5-494f-9ffd-fd5555f343be.root | (None) | ad:23044104 | 15.315 MB  |          |
| cms:/store/mc/Run3Summer22NanoAODv12/VBFHHto4B_CV-m0p012_C2V-0p030_C3-10p2_TuneCP5_13p6TeV_madgraph-pythia8/NANOAODSIM/130X_mcRun3_2022_realistic_v5-v2/2540000/504b4afa-abb3-475a-8dbe-c0c856c578b1.root | (None) | ad:1f92cfcc | 22.157 MB  |          |
| cms:/store/mc/Run3Summer22NanoAODv12/VBFHHto4B_CV-m0p012_C2V-0p030_C3-10p2_TuneCP5_13p6TeV_madgraph-pythia8/NANOAODSIM/130X_mcRun3_2022_realistic_v5-v2/2540000/ae981369-002d-4915-a990-119a21d26b43.root | (None) | ad:9dfe77a7 | 22.225 MB  |          |
| cms:/store/mc/Run3Summer22NanoAODv12/VBFHHto4B_CV-m0p012_C2V-0p030_C3-10p2_TuneCP5_13p6TeV_madgraph-pythia8/NANOAODSIM/130X_mcRun3_2022_realistic_v5-v2/2540000/0ea454ef-2898-408a-9f9e-ca48616182f6.root | (None) | ad:6869c16f | 74.800 MB  |          |
| cms:/store/mc/Run3Summer22NanoAODv12/VBFHHto4B_CV-m0p012_C2V-0p030_C3-10p2_TuneCP5_13p6TeV_madgraph-pythia8/NANOAODSIM/130X_mcRun3_2022_realistic_v5-v2/2540000/a91042d2-6a00-4d12-a524-fe7b973403cc.root | (None) | ad:0f7e1d71 | 22.164 MB  |          |
| cms:/store/mc/Run3Summer22NanoAODv12/VBFHHto4B_CV-m0p012_C2V-0p030_C3-10p2_TuneCP5_13p6TeV_madgraph-pythia8/NANOAODSIM/130X_mcRun3_2022_realistic_v5-v2/2540000/724bd95b-95e4-4ba1-8aae-af176b86b3cc.root | (None) | ad:0ae9bd67 | 4.657 MB   |          |
| cms:/store/mc/Run3Summer22NanoAODv12/VBFHHto4B_CV-m0p012_C2V-0p030_C3-10p2_TuneCP5_13p6TeV_madgraph-pythia8/NANOAODSIM/130X_mcRun3_2022_realistic_v5-v2/2540000/038e2ee3-319f-4542-95d1-cef0a4fa8b72.root | (None) | ad:16b760f2 | 13.866 MB  |          |
| cms:/store/mc/Run3Summer22NanoAODv12/VBFHHto4B_CV-m0p012_C2V-0p030_C3-10p2_TuneCP5_13p6TeV_madgraph-pythia8/NANOAODSIM/130X_mcRun3_2022_realistic_v5-v2/2540000/57e728dd-c297-4a34-adc3-05b328254d47.root | (None) | ad:a8c4c752 | 42.340 MB  |          |
+-----------------------------------------------------------------------------------------------------------------------------------------------------------------------------------------------------------+--------+-------------+------------+----------+
Total files : 24
Total size : 624.081 MB
