+-----------------------------------------------------------------------------------------------------------------------------------------------------------------------------------+--------+-------------+------------+----------+
| SCOPE:NAME                                                                                                                                                                        | GUID   | ADLER32     | FILESIZE   | EVENTS   |
|-----------------------------------------------------------------------------------------------------------------------------------------------------------------------------------+--------+-------------+------------+----------|
| cms:/store/mc/Run3Summer23NanoAODv12/VBFHto2B_M-125_TuneCP5_13p6TeV_powheg-pythia8/NANOAODSIM/130X_mcRun3_2023_realistic_v14-v3/30000/1dd6316e-60a1-4cb3-9bf0-5f99805bc27a.root   | (None) | ad:a5209684 | 12.969 MB  |          |
| cms:/store/mc/Run3Summer23NanoAODv12/VBFHto2B_M-125_TuneCP5_13p6TeV_powheg-pythia8/NANOAODSIM/130X_mcRun3_2023_realistic_v14-v3/40000/04b8da48-baea-4212-8678-189eb9d5feab.root   | (None) | ad:35652927 | 61.892 MB  |          |
| cms:/store/mc/Run3Summer23NanoAODv12/VBFHto2B_M-125_TuneCP5_13p6TeV_powheg-pythia8/NANOAODSIM/130X_mcRun3_2023_realistic_v14-v3/2810000/2214f633-223b-4735-8f25-8748b0abdcfb.root | (None) | ad:48e0cbea | 80.935 MB  |          |
| cms:/store/mc/Run3Summer23NanoAODv12/VBFHto2B_M-125_TuneCP5_13p6TeV_powheg-pythia8/NANOAODSIM/130X_mcRun3_2023_realistic_v14-v3/2810000/64c29005-13da-4cc7-8a06-8151969374ff.root | (None) | ad:99a7a12e | 403.135 MB |          |
| cms:/store/mc/Run3Summer23NanoAODv12/VBFHto2B_M-125_TuneCP5_13p6TeV_powheg-pythia8/NANOAODSIM/130X_mcRun3_2023_realistic_v14-v3/30000/70e98b90-7f9e-4bb7-bc2e-0d54f948dbc6.root   | (None) | ad:4f8f42e6 | 285.923 MB |          |
| cms:/store/mc/Run3Summer23NanoAODv12/VBFHto2B_M-125_TuneCP5_13p6TeV_powheg-pythia8/NANOAODSIM/130X_mcRun3_2023_realistic_v14-v3/2820000/f3375a51-d836-4405-b227-f41501861d6f.root | (None) | ad:ce873381 | 154.223 MB |          |
| cms:/store/mc/Run3Summer23NanoAODv12/VBFHto2B_M-125_TuneCP5_13p6TeV_powheg-pythia8/NANOAODSIM/130X_mcRun3_2023_realistic_v14-v3/2810000/1c5eeca9-1f60-458d-9c69-2cd6dc6c99e3.root | (None) | ad:e42848d9 | 129.673 MB |          |
| cms:/store/mc/Run3Summer23NanoAODv12/VBFHto2B_M-125_TuneCP5_13p6TeV_powheg-pythia8/NANOAODSIM/130X_mcRun3_2023_realistic_v14-v3/40000/435912a1-5d48-4963-a8a8-785bac24660f.root   | (None) | ad:a31234b8 | 37.274 MB  |          |
| cms:/store/mc/Run3Summer23NanoAODv12/VBFHto2B_M-125_TuneCP5_13p6TeV_powheg-pythia8/NANOAODSIM/130X_mcRun3_2023_realistic_v14-v3/2820000/521b71af-71bb-42d6-96e3-53b0674d308b.root | (None) | ad:263f3289 | 115.040 MB |          |
| cms:/store/mc/Run3Summer23NanoAODv12/VBFHto2B_M-125_TuneCP5_13p6TeV_powheg-pythia8/NANOAODSIM/130X_mcRun3_2023_realistic_v14-v3/40000/cd72883e-99cf-4994-a737-e19c480974b7.root   | (None) | ad:2d80c786 | 71.328 MB  |          |
| cms:/store/mc/Run3Summer23NanoAODv12/VBFHto2B_M-125_TuneCP5_13p6TeV_powheg-pythia8/NANOAODSIM/130X_mcRun3_2023_realistic_v14-v3/30000/3db1b887-41ce-4c2c-894e-09c22b3aa6cb.root   | (None) | ad:c29fc895 | 27.231 MB  |          |
| cms:/store/mc/Run3Summer23NanoAODv12/VBFHto2B_M-125_TuneCP5_13p6TeV_powheg-pythia8/NANOAODSIM/130X_mcRun3_2023_realistic_v14-v3/2810000/884cd1d2-8831-4f89-b375-491c448eecbe.root | (None) | ad:9f9b73ff | 32.227 MB  |          |
| cms:/store/mc/Run3Summer23NanoAODv12/VBFHto2B_M-125_TuneCP5_13p6TeV_powheg-pythia8/NANOAODSIM/130X_mcRun3_2023_realistic_v14-v3/2820000/c2c009f3-ad13-4fa3-ac56-8f803c1fdc85.root | (None) | ad:19804401 | 466.282 MB |          |
| cms:/store/mc/Run3Summer23NanoAODv12/VBFHto2B_M-125_TuneCP5_13p6TeV_powheg-pythia8/NANOAODSIM/130X_mcRun3_2023_realistic_v14-v3/2820000/d7ac3472-9732-4a4b-bec8-c79c0f383c79.root | (None) | ad:bde0dc1a | 7.947 MB   |          |
| cms:/store/mc/Run3Summer23NanoAODv12/VBFHto2B_M-125_TuneCP5_13p6TeV_powheg-pythia8/NANOAODSIM/130X_mcRun3_2023_realistic_v14-v3/2820000/fc9a830a-b284-4151-a726-44e7da4930e2.root | (None) | ad:1cdb276f | 144.436 MB |          |
| cms:/store/mc/Run3Summer23NanoAODv12/VBFHto2B_M-125_TuneCP5_13p6TeV_powheg-pythia8/NANOAODSIM/130X_mcRun3_2023_realistic_v14-v3/30000/cdf47443-c7db-4d3d-9251-463e592d76a3.root   | (None) | ad:6f413e53 | 8.003 MB   |          |
| cms:/store/mc/Run3Summer23NanoAODv12/VBFHto2B_M-125_TuneCP5_13p6TeV_powheg-pythia8/NANOAODSIM/130X_mcRun3_2023_realistic_v14-v3/40000/e19f38a7-9393-4583-b929-428e43353343.root   | (None) | ad:59d1944c | 32.286 MB  |          |
| cms:/store/mc/Run3Summer23NanoAODv12/VBFHto2B_M-125_TuneCP5_13p6TeV_powheg-pythia8/NANOAODSIM/130X_mcRun3_2023_realistic_v14-v3/30000/681b16f8-3229-4cf8-b582-6ea1cb052815.root   | (None) | ad:708fa774 | 27.136 MB  |          |
| cms:/store/mc/Run3Summer23NanoAODv12/VBFHto2B_M-125_TuneCP5_13p6TeV_powheg-pythia8/NANOAODSIM/130X_mcRun3_2023_realistic_v14-v3/30000/14d6fa22-92ff-4041-9fff-295b6d274a4d.root   | (None) | ad:1dc795bf | 27.222 MB  |          |
| cms:/store/mc/Run3Summer23NanoAODv12/VBFHto2B_M-125_TuneCP5_13p6TeV_powheg-pythia8/NANOAODSIM/130X_mcRun3_2023_realistic_v14-v3/2820000/f759b338-4c7b-4220-8fed-4d9e21c43478.root | (None) | ad:b157419a | 232.347 MB |          |
| cms:/store/mc/Run3Summer23NanoAODv12/VBFHto2B_M-125_TuneCP5_13p6TeV_powheg-pythia8/NANOAODSIM/130X_mcRun3_2023_realistic_v14-v3/2810000/b39065b3-97f3-4008-8f2b-a25b9773ee64.root | (None) | ad:437fa64f | 27.212 MB  |          |
| cms:/store/mc/Run3Summer23NanoAODv12/VBFHto2B_M-125_TuneCP5_13p6TeV_powheg-pythia8/NANOAODSIM/130X_mcRun3_2023_realistic_v14-v3/2820000/991db2e0-233d-468b-b153-38935c81c14e.root | (None) | ad:d6dfc09a | 22.604 MB  |          |
| cms:/store/mc/Run3Summer23NanoAODv12/VBFHto2B_M-125_TuneCP5_13p6TeV_powheg-pythia8/NANOAODSIM/130X_mcRun3_2023_realistic_v14-v3/40000/5a298ffe-6e55-4a5d-9ca7-7911ae712d9f.root   | (None) | ad:d6ebd00a | 276.025 MB |          |
| cms:/store/mc/Run3Summer23NanoAODv12/VBFHto2B_M-125_TuneCP5_13p6TeV_powheg-pythia8/NANOAODSIM/130X_mcRun3_2023_realistic_v14-v3/2820000/de06790e-51d3-40a0-a965-54b5f6ab1b24.root | (None) | ad:c2d1a07c | 119.936 MB |          |
| cms:/store/mc/Run3Summer23NanoAODv12/VBFHto2B_M-125_TuneCP5_13p6TeV_powheg-pythia8/NANOAODSIM/130X_mcRun3_2023_realistic_v14-v3/2820000/c87f59a7-b286-44e5-ae8a-4930b2e4cd43.root | (None) | ad:e3142bb7 | 17.442 MB  |          |
| cms:/store/mc/Run3Summer23NanoAODv12/VBFHto2B_M-125_TuneCP5_13p6TeV_powheg-pythia8/NANOAODSIM/130X_mcRun3_2023_realistic_v14-v3/30000/4ea750e5-5308-42f1-b9de-78af942bca8b.root   | (None) | ad:0542a387 | 402.894 MB |          |
| cms:/store/mc/Run3Summer23NanoAODv12/VBFHto2B_M-125_TuneCP5_13p6TeV_powheg-pythia8/NANOAODSIM/130X_mcRun3_2023_realistic_v14-v3/30000/705cd9b3-383f-4ea2-b814-13c4af490f54.root   | (None) | ad:97b6b9f4 | 431.918 MB |          |
| cms:/store/mc/Run3Summer23NanoAODv12/VBFHto2B_M-125_TuneCP5_13p6TeV_powheg-pythia8/NANOAODSIM/130X_mcRun3_2023_realistic_v14-v3/30000/8b931276-1d11-47ad-893a-d475dc6ddb94.root   | (None) | ad:8f24e6f2 | 792.821 MB |          |
| cms:/store/mc/Run3Summer23NanoAODv12/VBFHto2B_M-125_TuneCP5_13p6TeV_powheg-pythia8/NANOAODSIM/130X_mcRun3_2023_realistic_v14-v3/30000/a3fe2795-2a1e-4d85-a58f-28e4cdae5851.root   | (None) | ad:c639bd20 | 793.282 MB |          |
| cms:/store/mc/Run3Summer23NanoAODv12/VBFHto2B_M-125_TuneCP5_13p6TeV_powheg-pythia8/NANOAODSIM/130X_mcRun3_2023_realistic_v14-v3/30000/b64bc6a6-d8ba-4fd1-9227-90c0be52f6b5.root   | (None) | ad:5c612257 | 792.716 MB |          |
| cms:/store/mc/Run3Summer23NanoAODv12/VBFHto2B_M-125_TuneCP5_13p6TeV_powheg-pythia8/NANOAODSIM/130X_mcRun3_2023_realistic_v14-v3/30000/c8d436d0-fb32-40f3-b8ad-5864c444495a.root   | (None) | ad:0765bcbb | 792.813 MB |          |
| cms:/store/mc/Run3Summer23NanoAODv12/VBFHto2B_M-125_TuneCP5_13p6TeV_powheg-pythia8/NANOAODSIM/130X_mcRun3_2023_realistic_v14-v3/30000/fce7567b-a7b5-48ac-9774-a17a7a895251.root   | (None) | ad:9bc7b7e1 | 56.590 MB  |          |
| cms:/store/mc/Run3Summer23NanoAODv12/VBFHto2B_M-125_TuneCP5_13p6TeV_powheg-pythia8/NANOAODSIM/130X_mcRun3_2023_realistic_v14-v3/2810000/1884b00c-bbc2-4756-978d-ac245cc3484f.root | (None) | ad:9f775f6e | 32.210 MB  |          |
| cms:/store/mc/Run3Summer23NanoAODv12/VBFHto2B_M-125_TuneCP5_13p6TeV_powheg-pythia8/NANOAODSIM/130X_mcRun3_2023_realistic_v14-v3/2810000/afd5d55f-42f7-4834-85da-df5ff1dc55e0.root | (None) | ad:dee2e3c4 | 51.656 MB  |          |
| cms:/store/mc/Run3Summer23NanoAODv12/VBFHto2B_M-125_TuneCP5_13p6TeV_powheg-pythia8/NANOAODSIM/130X_mcRun3_2023_realistic_v14-v3/30000/05cdd61c-b46b-4676-82c2-80f79e17d9cb.root   | (None) | ad:a41b1b97 | 7.994 MB   |          |
| cms:/store/mc/Run3Summer23NanoAODv12/VBFHto2B_M-125_TuneCP5_13p6TeV_powheg-pythia8/NANOAODSIM/130X_mcRun3_2023_realistic_v14-v3/2820000/0f3f83a1-04fa-472e-8b4c-5242cbabb3fc.root | (None) | ad:d7cd7b30 | 412.930 MB |          |
| cms:/store/mc/Run3Summer23NanoAODv12/VBFHto2B_M-125_TuneCP5_13p6TeV_powheg-pythia8/NANOAODSIM/130X_mcRun3_2023_realistic_v14-v3/40000/ab93d148-f861-4a94-9d57-c82668a72683.root   | (None) | ad:b808bc08 | 47.074 MB  |          |
| cms:/store/mc/Run3Summer23NanoAODv12/VBFHto2B_M-125_TuneCP5_13p6TeV_powheg-pythia8/NANOAODSIM/130X_mcRun3_2023_realistic_v14-v3/2820000/c4d04217-392e-42cc-bc83-dbfe55a3190c.root | (None) | ad:e2ee5675 | 266.324 MB |          |
| cms:/store/mc/Run3Summer23NanoAODv12/VBFHto2B_M-125_TuneCP5_13p6TeV_powheg-pythia8/NANOAODSIM/130X_mcRun3_2023_realistic_v14-v3/2810000/8e4a7e33-4bf7-4467-a7ad-1a1eb75fddae.root | (None) | ad:a14f012d | 51.995 MB  |          |
| cms:/store/mc/Run3Summer23NanoAODv12/VBFHto2B_M-125_TuneCP5_13p6TeV_powheg-pythia8/NANOAODSIM/130X_mcRun3_2023_realistic_v14-v3/2810000/ffc1bf0b-21b6-4308-8cc3-11243c499498.root | (None) | ad:2113723a | 51.888 MB  |          |
| cms:/store/mc/Run3Summer23NanoAODv12/VBFHto2B_M-125_TuneCP5_13p6TeV_powheg-pythia8/NANOAODSIM/130X_mcRun3_2023_realistic_v14-v3/2820000/06ab3947-0d19-4d1a-a6b3-bd214cb3c59e.root | (None) | ad:3734b484 | 407.620 MB |          |
| cms:/store/mc/Run3Summer23NanoAODv12/VBFHto2B_M-125_TuneCP5_13p6TeV_powheg-pythia8/NANOAODSIM/130X_mcRun3_2023_realistic_v14-v3/2820000/dd600550-688e-4de1-bd2e-42e3f62639a8.root | (None) | ad:68beabfe | 56.653 MB  |          |
| cms:/store/mc/Run3Summer23NanoAODv12/VBFHto2B_M-125_TuneCP5_13p6TeV_powheg-pythia8/NANOAODSIM/130X_mcRun3_2023_realistic_v14-v3/2810000/029eefe6-461e-42bf-8237-c8f3737c3c27.root | (None) | ad:0dca32c6 | 163.890 MB |          |
| cms:/store/mc/Run3Summer23NanoAODv12/VBFHto2B_M-125_TuneCP5_13p6TeV_powheg-pythia8/NANOAODSIM/130X_mcRun3_2023_realistic_v14-v3/2820000/20620a9f-3d0d-4484-806e-674bd46966eb.root | (None) | ad:9990cc50 | 330.006 MB |          |
| cms:/store/mc/Run3Summer23NanoAODv12/VBFHto2B_M-125_TuneCP5_13p6TeV_powheg-pythia8/NANOAODSIM/130X_mcRun3_2023_realistic_v14-v3/2810000/78603198-ad39-47b3-b8a8-940188be2578.root | (None) | ad:79f4982d | 8.047 MB   |          |
| cms:/store/mc/Run3Summer23NanoAODv12/VBFHto2B_M-125_TuneCP5_13p6TeV_powheg-pythia8/NANOAODSIM/130X_mcRun3_2023_realistic_v14-v3/30000/256451c7-dd25-4006-8dd3-f42d50e140a6.root   | (None) | ad:fa4a82a5 | 47.026 MB  |          |
| cms:/store/mc/Run3Summer23NanoAODv12/VBFHto2B_M-125_TuneCP5_13p6TeV_powheg-pythia8/NANOAODSIM/130X_mcRun3_2023_realistic_v14-v3/40000/4a50da88-2a63-4740-abc8-dd3117e24152.root   | (None) | ad:4d060c95 | 7.984 MB   |          |
| cms:/store/mc/Run3Summer23NanoAODv12/VBFHto2B_M-125_TuneCP5_13p6TeV_powheg-pythia8/NANOAODSIM/130X_mcRun3_2023_realistic_v14-v3/2820000/7e92df88-dcf1-4bff-9d5b-2815ced0a9e6.root | (None) | ad:f279e489 | 47.052 MB  |          |
| cms:/store/mc/Run3Summer23NanoAODv12/VBFHto2B_M-125_TuneCP5_13p6TeV_powheg-pythia8/NANOAODSIM/130X_mcRun3_2023_realistic_v14-v3/40000/4897d4d8-42b5-4c43-b17e-b924b9251079.root   | (None) | ad:c7f7ddb3 | 12.940 MB  |          |
| cms:/store/mc/Run3Summer23NanoAODv12/VBFHto2B_M-125_TuneCP5_13p6TeV_powheg-pythia8/NANOAODSIM/130X_mcRun3_2023_realistic_v14-v3/40000/92e970d9-f5d9-43ae-9f3f-90430ffa5f6f.root   | (None) | ad:cd3523d3 | 27.554 MB  |          |
| cms:/store/mc/Run3Summer23NanoAODv12/VBFHto2B_M-125_TuneCP5_13p6TeV_powheg-pythia8/NANOAODSIM/130X_mcRun3_2023_realistic_v14-v3/2810000/1e8c751b-917a-404e-b219-6b5bb33920b6.root | (None) | ad:1714845d | 407.814 MB |          |
| cms:/store/mc/Run3Summer23NanoAODv12/VBFHto2B_M-125_TuneCP5_13p6TeV_powheg-pythia8/NANOAODSIM/130X_mcRun3_2023_realistic_v14-v3/2810000/e16bad47-1d2b-49d4-bf1d-8661c35196b2.root | (None) | ad:718e56fd | 66.217 MB  |          |
| cms:/store/mc/Run3Summer23NanoAODv12/VBFHto2B_M-125_TuneCP5_13p6TeV_powheg-pythia8/NANOAODSIM/130X_mcRun3_2023_realistic_v14-v3/2820000/0f7d6335-17fc-40f3-9515-59b45b3bf5db.root | (None) | ad:a68bcf4f | 408.021 MB |          |
| cms:/store/mc/Run3Summer23NanoAODv12/VBFHto2B_M-125_TuneCP5_13p6TeV_powheg-pythia8/NANOAODSIM/130X_mcRun3_2023_realistic_v14-v3/2820000/95f803f1-13f1-44de-b5c3-c3f6a99f5493.root | (None) | ad:8b244321 | 173.899 MB |          |
| cms:/store/mc/Run3Summer23NanoAODv12/VBFHto2B_M-125_TuneCP5_13p6TeV_powheg-pythia8/NANOAODSIM/130X_mcRun3_2023_realistic_v14-v3/30000/7803675f-c946-48c1-858d-a463c93bc7e3.root   | (None) | ad:6100e2a9 | 17.523 MB  |          |
| cms:/store/mc/Run3Summer23NanoAODv12/VBFHto2B_M-125_TuneCP5_13p6TeV_powheg-pythia8/NANOAODSIM/130X_mcRun3_2023_realistic_v14-v3/2820000/be0ca048-3f87-4516-9add-1c828e62275e.root | (None) | ad:093c4274 | 7.958 MB   |          |
| cms:/store/mc/Run3Summer23NanoAODv12/VBFHto2B_M-125_TuneCP5_13p6TeV_powheg-pythia8/NANOAODSIM/130X_mcRun3_2023_realistic_v14-v3/40000/66a94805-c74f-44d6-b062-cab7b004cc98.root   | (None) | ad:793f094c | 7.996 MB   |          |
| cms:/store/mc/Run3Summer23NanoAODv12/VBFHto2B_M-125_TuneCP5_13p6TeV_powheg-pythia8/NANOAODSIM/130X_mcRun3_2023_realistic_v14-v3/30000/4b7ff321-0df3-413c-b9ee-684f503272aa.root   | (None) | ad:b71b303b | 46.997 MB  |          |
| cms:/store/mc/Run3Summer23NanoAODv12/VBFHto2B_M-125_TuneCP5_13p6TeV_powheg-pythia8/NANOAODSIM/130X_mcRun3_2023_realistic_v14-v3/2810000/040122cf-43ed-4adf-bf10-003abb02d9da.root | (None) | ad:ec4c7013 | 90.610 MB  |          |
| cms:/store/mc/Run3Summer23NanoAODv12/VBFHto2B_M-125_TuneCP5_13p6TeV_powheg-pythia8/NANOAODSIM/130X_mcRun3_2023_realistic_v14-v3/2810000/5f22c962-bd74-48de-90b6-5e50695e411a.root | (None) | ad:d5facf6c | 7.972 MB   |          |
| cms:/store/mc/Run3Summer23NanoAODv12/VBFHto2B_M-125_TuneCP5_13p6TeV_powheg-pythia8/NANOAODSIM/130X_mcRun3_2023_realistic_v14-v3/40000/1bda041b-9186-452d-ad53-b36787c832a0.root   | (None) | ad:404d9f34 | 41.874 MB  |          |
| cms:/store/mc/Run3Summer23NanoAODv12/VBFHto2B_M-125_TuneCP5_13p6TeV_powheg-pythia8/NANOAODSIM/130X_mcRun3_2023_realistic_v14-v3/40000/2094ed93-22f5-4624-b3eb-a8585112a095.root   | (None) | ad:1d8857a0 | 431.833 MB |          |
| cms:/store/mc/Run3Summer23NanoAODv12/VBFHto2B_M-125_TuneCP5_13p6TeV_powheg-pythia8/NANOAODSIM/130X_mcRun3_2023_realistic_v14-v3/40000/ae4c2ea5-36ac-4df6-b790-5e469b7c7aeb.root   | (None) | ad:6d5e7cdc | 446.666 MB |          |
| cms:/store/mc/Run3Summer23NanoAODv12/VBFHto2B_M-125_TuneCP5_13p6TeV_powheg-pythia8/NANOAODSIM/130X_mcRun3_2023_realistic_v14-v3/40000/b038d0b3-78e2-48f4-8d06-a8061f75efe3.root   | (None) | ad:73df1c5d | 412.732 MB |          |
| cms:/store/mc/Run3Summer23NanoAODv12/VBFHto2B_M-125_TuneCP5_13p6TeV_powheg-pythia8/NANOAODSIM/130X_mcRun3_2023_realistic_v14-v3/40000/d2e152bd-0106-474e-8cc1-91aa1b3dac8e.root   | (None) | ad:351a76e6 | 417.395 MB |          |
| cms:/store/mc/Run3Summer23NanoAODv12/VBFHto2B_M-125_TuneCP5_13p6TeV_powheg-pythia8/NANOAODSIM/130X_mcRun3_2023_realistic_v14-v3/40000/f0713d80-ff01-43c5-a5c3-3e772a920a7f.root   | (None) | ad:17238801 | 476.333 MB |          |
| cms:/store/mc/Run3Summer23NanoAODv12/VBFHto2B_M-125_TuneCP5_13p6TeV_powheg-pythia8/NANOAODSIM/130X_mcRun3_2023_realistic_v14-v3/40000/f1cf11dd-91ca-47f5-b74d-2c5470ffe4c5.root   | (None) | ad:40e47696 | 412.552 MB |          |
| cms:/store/mc/Run3Summer23NanoAODv12/VBFHto2B_M-125_TuneCP5_13p6TeV_powheg-pythia8/NANOAODSIM/130X_mcRun3_2023_realistic_v14-v3/40000/44bf9bb9-450e-4178-8013-c529f409efef.root   | (None) | ad:d4a8be43 | 329.637 MB |          |
| cms:/store/mc/Run3Summer23NanoAODv12/VBFHto2B_M-125_TuneCP5_13p6TeV_powheg-pythia8/NANOAODSIM/130X_mcRun3_2023_realistic_v14-v3/2810000/5bb1dd8c-358a-4a4a-9f6b-412b705adc44.root | (None) | ad:c6a5bccb | 22.633 MB  |          |
| cms:/store/mc/Run3Summer23NanoAODv12/VBFHto2B_M-125_TuneCP5_13p6TeV_powheg-pythia8/NANOAODSIM/130X_mcRun3_2023_realistic_v14-v3/2810000/406946e0-1a31-49e6-9034-70b4ffd03f0b.root | (None) | ad:63212443 | 71.281 MB  |          |
| cms:/store/mc/Run3Summer23NanoAODv12/VBFHto2B_M-125_TuneCP5_13p6TeV_powheg-pythia8/NANOAODSIM/130X_mcRun3_2023_realistic_v14-v3/40000/1ea49c7c-86c7-4db4-af2e-98b8fbfbd1de.root   | (None) | ad:b38ba0d3 | 61.661 MB  |          |
| cms:/store/mc/Run3Summer23NanoAODv12/VBFHto2B_M-125_TuneCP5_13p6TeV_powheg-pythia8/NANOAODSIM/130X_mcRun3_2023_realistic_v14-v3/2810000/e8708301-a6be-47fd-b108-2327ef0e157e.root | (None) | ad:4a9c3620 | 139.559 MB |          |
| cms:/store/mc/Run3Summer23NanoAODv12/VBFHto2B_M-125_TuneCP5_13p6TeV_powheg-pythia8/NANOAODSIM/130X_mcRun3_2023_realistic_v14-v3/30000/19545426-e93b-407e-b1fb-33bafd48061b.root   | (None) | ad:69d3289b | 32.223 MB  |          |
| cms:/store/mc/Run3Summer23NanoAODv12/VBFHto2B_M-125_TuneCP5_13p6TeV_powheg-pythia8/NANOAODSIM/130X_mcRun3_2023_realistic_v14-v3/30000/11f5553f-8530-4dee-ac30-753484a85ac3.root   | (None) | ad:82c39e1a | 7.991 MB   |          |
| cms:/store/mc/Run3Summer23NanoAODv12/VBFHto2B_M-125_TuneCP5_13p6TeV_powheg-pythia8/NANOAODSIM/130X_mcRun3_2023_realistic_v14-v3/40000/301a0f3b-7d95-42df-890a-2deb4509806e.root   | (None) | ad:35f717da | 12.966 MB  |          |
| cms:/store/mc/Run3Summer23NanoAODv12/VBFHto2B_M-125_TuneCP5_13p6TeV_powheg-pythia8/NANOAODSIM/130X_mcRun3_2023_realistic_v14-v3/2810000/e8f90582-197e-41c2-8f20-60e57db3fa4e.root | (None) | ad:c714b33d | 61.802 MB  |          |
| cms:/store/mc/Run3Summer23NanoAODv12/VBFHto2B_M-125_TuneCP5_13p6TeV_powheg-pythia8/NANOAODSIM/130X_mcRun3_2023_realistic_v14-v3/30000/bdaa21bb-bcb5-4e3f-9802-a3a9059c0f63.root   | (None) | ad:afb7c4c1 | 86.058 MB  |          |
| cms:/store/mc/Run3Summer23NanoAODv12/VBFHto2B_M-125_TuneCP5_13p6TeV_powheg-pythia8/NANOAODSIM/130X_mcRun3_2023_realistic_v14-v3/30000/aa7a43d8-99ad-453c-ac8f-920b63cc1e60.root   | (None) | ad:0ce43288 | 105.433 MB |          |
| cms:/store/mc/Run3Summer23NanoAODv12/VBFHto2B_M-125_TuneCP5_13p6TeV_powheg-pythia8/NANOAODSIM/130X_mcRun3_2023_realistic_v14-v3/40000/7d1ec9ee-6b3c-485e-8c02-827bd35c0bc1.root   | (None) | ad:96ca5587 | 86.131 MB  |          |
| cms:/store/mc/Run3Summer23NanoAODv12/VBFHto2B_M-125_TuneCP5_13p6TeV_powheg-pythia8/NANOAODSIM/130X_mcRun3_2023_realistic_v14-v3/2820000/5cff2579-8c7c-4187-b337-79c2989ca0aa.root | (None) | ad:74786c68 | 32.357 MB  |          |
| cms:/store/mc/Run3Summer23NanoAODv12/VBFHto2B_M-125_TuneCP5_13p6TeV_powheg-pythia8/NANOAODSIM/130X_mcRun3_2023_realistic_v14-v3/2810000/dd410f8c-712b-4955-9cda-2a275aac6907.root | (None) | ad:9db9b528 | 329.475 MB |          |
| cms:/store/mc/Run3Summer23NanoAODv12/VBFHto2B_M-125_TuneCP5_13p6TeV_powheg-pythia8/NANOAODSIM/130X_mcRun3_2023_realistic_v14-v3/2820000/824524f8-8b43-40f5-860d-7f383b19a85a.root | (None) | ad:775c9a48 | 168.777 MB |          |
| cms:/store/mc/Run3Summer23NanoAODv12/VBFHto2B_M-125_TuneCP5_13p6TeV_powheg-pythia8/NANOAODSIM/130X_mcRun3_2023_realistic_v14-v3/2820000/2d35514e-b7d0-4988-9be5-3391e73e79f3.root | (None) | ad:53966bee | 129.710 MB |          |
| cms:/store/mc/Run3Summer23NanoAODv12/VBFHto2B_M-125_TuneCP5_13p6TeV_powheg-pythia8/NANOAODSIM/130X_mcRun3_2023_realistic_v14-v3/40000/4f6fded4-6595-484f-980d-298b9c51d716.root   | (None) | ad:4d998063 | 17.522 MB  |          |
| cms:/store/mc/Run3Summer23NanoAODv12/VBFHto2B_M-125_TuneCP5_13p6TeV_powheg-pythia8/NANOAODSIM/130X_mcRun3_2023_realistic_v14-v3/40000/0b2aa6f1-a9c3-425f-adf8-129590b1e394.root   | (None) | ad:d7d82e4c | 12.951 MB  |          |
| cms:/store/mc/Run3Summer23NanoAODv12/VBFHto2B_M-125_TuneCP5_13p6TeV_powheg-pythia8/NANOAODSIM/130X_mcRun3_2023_realistic_v14-v3/2820000/790dcf53-8d8c-485c-b0cf-bb25d5a581c0.root | (None) | ad:7a4f67f9 | 52.006 MB  |          |
| cms:/store/mc/Run3Summer23NanoAODv12/VBFHto2B_M-125_TuneCP5_13p6TeV_powheg-pythia8/NANOAODSIM/130X_mcRun3_2023_realistic_v14-v3/2820000/2d4a7f19-74dc-461d-ae00-68460c642391.root | (None) | ad:4eb339cd | 163.792 MB |          |
| cms:/store/mc/Run3Summer23NanoAODv12/VBFHto2B_M-125_TuneCP5_13p6TeV_powheg-pythia8/NANOAODSIM/130X_mcRun3_2023_realistic_v14-v3/2810000/ad8f2c3b-b7a9-4250-a408-280f519e124a.root | (None) | ad:c9fff54c | 173.301 MB |          |
| cms:/store/mc/Run3Summer23NanoAODv12/VBFHto2B_M-125_TuneCP5_13p6TeV_powheg-pythia8/NANOAODSIM/130X_mcRun3_2023_realistic_v14-v3/40000/24615cf9-c746-4243-9251-d64781f0b6d0.root   | (None) | ad:13832623 | 66.253 MB  |          |
| cms:/store/mc/Run3Summer23NanoAODv12/VBFHto2B_M-125_TuneCP5_13p6TeV_powheg-pythia8/NANOAODSIM/130X_mcRun3_2023_realistic_v14-v3/2820000/cfc41cec-a98b-434a-9aef-c81d5a02aed3.root | (None) | ad:a0700046 | 86.147 MB  |          |
| cms:/store/mc/Run3Summer23NanoAODv12/VBFHto2B_M-125_TuneCP5_13p6TeV_powheg-pythia8/NANOAODSIM/130X_mcRun3_2023_realistic_v14-v3/2820000/cce48fe3-eb62-4c73-aff0-6e396cb54778.root | (None) | ad:03ead080 | 7.956 MB   |          |
| cms:/store/mc/Run3Summer23NanoAODv12/VBFHto2B_M-125_TuneCP5_13p6TeV_powheg-pythia8/NANOAODSIM/130X_mcRun3_2023_realistic_v14-v3/2820000/eb1043b1-3882-4cb6-aec6-febf6548dfe1.root | (None) | ad:e55a31d4 | 85.963 MB  |          |
| cms:/store/mc/Run3Summer23NanoAODv12/VBFHto2B_M-125_TuneCP5_13p6TeV_powheg-pythia8/NANOAODSIM/130X_mcRun3_2023_realistic_v14-v3/2810000/0efde805-55c0-4ef8-98be-1a48801b071f.root | (None) | ad:18dd9312 | 144.461 MB |          |
| cms:/store/mc/Run3Summer23NanoAODv12/VBFHto2B_M-125_TuneCP5_13p6TeV_powheg-pythia8/NANOAODSIM/130X_mcRun3_2023_realistic_v14-v3/40000/aac677d6-ce01-40fc-9e8a-e23bbb12a717.root   | (None) | ad:900a598a | 22.672 MB  |          |
| cms:/store/mc/Run3Summer23NanoAODv12/VBFHto2B_M-125_TuneCP5_13p6TeV_powheg-pythia8/NANOAODSIM/130X_mcRun3_2023_realistic_v14-v3/2810000/be2d7841-a2bd-47bf-80bc-ab7eb66b1709.root | (None) | ad:bda19af2 | 164.006 MB |          |
| cms:/store/mc/Run3Summer23NanoAODv12/VBFHto2B_M-125_TuneCP5_13p6TeV_powheg-pythia8/NANOAODSIM/130X_mcRun3_2023_realistic_v14-v3/2820000/43d7fb64-2b65-47da-9ab7-cd6d9b6d84a6.root | (None) | ad:0a3eb7fc | 22.649 MB  |          |
| cms:/store/mc/Run3Summer23NanoAODv12/VBFHto2B_M-125_TuneCP5_13p6TeV_powheg-pythia8/NANOAODSIM/130X_mcRun3_2023_realistic_v14-v3/30000/5e1c6f4a-b7cc-4714-913c-1e2a4092ddf5.root   | (None) | ad:6d3e3784 | 12.923 MB  |          |
| cms:/store/mc/Run3Summer23NanoAODv12/VBFHto2B_M-125_TuneCP5_13p6TeV_powheg-pythia8/NANOAODSIM/130X_mcRun3_2023_realistic_v14-v3/2810000/eb4086f2-acd2-4690-899f-52960a6e2388.root | (None) | ad:e22e3f89 | 66.343 MB  |          |
| cms:/store/mc/Run3Summer23NanoAODv12/VBFHto2B_M-125_TuneCP5_13p6TeV_powheg-pythia8/NANOAODSIM/130X_mcRun3_2023_realistic_v14-v3/2810000/e5dbc764-5075-41b4-8bd1-19f8548d515f.root | (None) | ad:1e91ec7f | 86.099 MB  |          |
| cms:/store/mc/Run3Summer23NanoAODv12/VBFHto2B_M-125_TuneCP5_13p6TeV_powheg-pythia8/NANOAODSIM/130X_mcRun3_2023_realistic_v14-v3/2810000/14689c91-c276-4dca-a04d-5beecac068a2.root | (None) | ad:5c5a2f95 | 7.986 MB   |          |
| cms:/store/mc/Run3Summer23NanoAODv12/VBFHto2B_M-125_TuneCP5_13p6TeV_powheg-pythia8/NANOAODSIM/130X_mcRun3_2023_realistic_v14-v3/40000/e01c615f-1b11-456d-8cff-77415207d64e.root   | (None) | ad:9cc7a7b0 | 8.004 MB   |          |
| cms:/store/mc/Run3Summer23NanoAODv12/VBFHto2B_M-125_TuneCP5_13p6TeV_powheg-pythia8/NANOAODSIM/130X_mcRun3_2023_realistic_v14-v3/40000/c7804f64-b2d0-4d59-9c93-c6644e2dc81e.root   | (None) | ad:d13dfd02 | 22.645 MB  |          |
| cms:/store/mc/Run3Summer23NanoAODv12/VBFHto2B_M-125_TuneCP5_13p6TeV_powheg-pythia8/NANOAODSIM/130X_mcRun3_2023_realistic_v14-v3/40000/27ab5380-8762-40a5-8426-7621351f8b87.root   | (None) | ad:db2cf7e4 | 246.802 MB |          |
| cms:/store/mc/Run3Summer23NanoAODv12/VBFHto2B_M-125_TuneCP5_13p6TeV_powheg-pythia8/NANOAODSIM/130X_mcRun3_2023_realistic_v14-v3/40000/82ab9be3-fdf3-473f-82a6-eec85e91b569.root   | (None) | ad:940b9a94 | 407.500 MB |          |
| cms:/store/mc/Run3Summer23NanoAODv12/VBFHto2B_M-125_TuneCP5_13p6TeV_powheg-pythia8/NANOAODSIM/130X_mcRun3_2023_realistic_v14-v3/40000/e964375b-35b4-4e8d-a3b2-3619ca4b65c2.root   | (None) | ad:a22f2a72 | 32.269 MB  |          |
| cms:/store/mc/Run3Summer23NanoAODv12/VBFHto2B_M-125_TuneCP5_13p6TeV_powheg-pythia8/NANOAODSIM/130X_mcRun3_2023_realistic_v14-v3/2810000/3750a54e-5337-4c91-953a-98fb7125c206.root | (None) | ad:90b3b62b | 266.343 MB |          |
| cms:/store/mc/Run3Summer23NanoAODv12/VBFHto2B_M-125_TuneCP5_13p6TeV_powheg-pythia8/NANOAODSIM/130X_mcRun3_2023_realistic_v14-v3/30000/68143cdb-74eb-4458-a174-84716dc25e7f.root   | (None) | ad:c686d8d5 | 12.952 MB  |          |
| cms:/store/mc/Run3Summer23NanoAODv12/VBFHto2B_M-125_TuneCP5_13p6TeV_powheg-pythia8/NANOAODSIM/130X_mcRun3_2023_realistic_v14-v3/30000/2a567773-d6b5-4125-8d9b-79e95c08f44a.root   | (None) | ad:582e5fc3 | 12.892 MB  |          |
| cms:/store/mc/Run3Summer23NanoAODv12/VBFHto2B_M-125_TuneCP5_13p6TeV_powheg-pythia8/NANOAODSIM/130X_mcRun3_2023_realistic_v14-v3/2810000/df184617-ecd0-40d5-99fa-037c34389e86.root | (None) | ad:42f75aad | 149.092 MB |          |
| cms:/store/mc/Run3Summer23NanoAODv12/VBFHto2B_M-125_TuneCP5_13p6TeV_powheg-pythia8/NANOAODSIM/130X_mcRun3_2023_realistic_v14-v3/30000/20ea030e-a790-4a71-8e3a-82b9167a4453.root   | (None) | ad:f4e267ef | 12.955 MB  |          |
| cms:/store/mc/Run3Summer23NanoAODv12/VBFHto2B_M-125_TuneCP5_13p6TeV_powheg-pythia8/NANOAODSIM/130X_mcRun3_2023_realistic_v14-v3/2820000/988a330b-b6ec-4236-87bc-ec2a184e8c2b.root | (None) | ad:639fa52a | 105.441 MB |          |
| cms:/store/mc/Run3Summer23NanoAODv12/VBFHto2B_M-125_TuneCP5_13p6TeV_powheg-pythia8/NANOAODSIM/130X_mcRun3_2023_realistic_v14-v3/30000/40f534b7-68aa-4936-aefb-a5acf3e375ea.root   | (None) | ad:b16efc87 | 86.016 MB  |          |
| cms:/store/mc/Run3Summer23NanoAODv12/VBFHto2B_M-125_TuneCP5_13p6TeV_powheg-pythia8/NANOAODSIM/130X_mcRun3_2023_realistic_v14-v3/2820000/f80cd726-3800-430b-9f26-9a94d01dc8ba.root | (None) | ad:2dd4439a | 129.600 MB |          |
| cms:/store/mc/Run3Summer23NanoAODv12/VBFHto2B_M-125_TuneCP5_13p6TeV_powheg-pythia8/NANOAODSIM/130X_mcRun3_2023_realistic_v14-v3/2820000/b25613d8-2407-47f2-b03d-f5f31c86b4ca.root | (None) | ad:cfbce2a3 | 115.118 MB |          |
| cms:/store/mc/Run3Summer23NanoAODv12/VBFHto2B_M-125_TuneCP5_13p6TeV_powheg-pythia8/NANOAODSIM/130X_mcRun3_2023_realistic_v14-v3/2810000/89fc2df9-898f-487d-9980-8e38b299ed43.root | (None) | ad:e8245f50 | 80.946 MB  |          |
| cms:/store/mc/Run3Summer23NanoAODv12/VBFHto2B_M-125_TuneCP5_13p6TeV_powheg-pythia8/NANOAODSIM/130X_mcRun3_2023_realistic_v14-v3/40000/53e41cd0-71ec-495e-a56a-0656b89a9ff0.root   | (None) | ad:c88b046c | 71.413 MB  |          |
| cms:/store/mc/Run3Summer23NanoAODv12/VBFHto2B_M-125_TuneCP5_13p6TeV_powheg-pythia8/NANOAODSIM/130X_mcRun3_2023_realistic_v14-v3/2820000/d8cfa26f-0ba0-4251-9fda-d58fec8f3b26.root | (None) | ad:3b973412 | 134.925 MB |          |
| cms:/store/mc/Run3Summer23NanoAODv12/VBFHto2B_M-125_TuneCP5_13p6TeV_powheg-pythia8/NANOAODSIM/130X_mcRun3_2023_realistic_v14-v3/2820000/9745d148-8dd5-4073-ba6b-d1d420e83618.root | (None) | ad:18670afa | 95.732 MB  |          |
| cms:/store/mc/Run3Summer23NanoAODv12/VBFHto2B_M-125_TuneCP5_13p6TeV_powheg-pythia8/NANOAODSIM/130X_mcRun3_2023_realistic_v14-v3/2820000/6da37f09-b6ba-4126-92d5-6d153b251b2f.root | (None) | ad:4f02f5bf | 212.396 MB |          |
| cms:/store/mc/Run3Summer23NanoAODv12/VBFHto2B_M-125_TuneCP5_13p6TeV_powheg-pythia8/NANOAODSIM/130X_mcRun3_2023_realistic_v14-v3/40000/dabab25b-8360-4a04-8263-6e80debe0a38.root   | (None) | ad:3d072acf | 344.493 MB |          |
| cms:/store/mc/Run3Summer23NanoAODv12/VBFHto2B_M-125_TuneCP5_13p6TeV_powheg-pythia8/NANOAODSIM/130X_mcRun3_2023_realistic_v14-v3/2810000/18719859-80cd-45e1-a76c-9cbf4f12f09e.root | (None) | ad:2d27e0d8 | 120.051 MB |          |
+-----------------------------------------------------------------------------------------------------------------------------------------------------------------------------------+--------+-------------+------------+----------+
Total files : 121
Total size : 18.327 GB
