+--------------------------------------------------------------------------------------------------------------------------------------------------------------------------------------------------------+--------+-------------+------------+----------+
| SCOPE:NAME                                                                                                                                                                                             | GUID   | ADLER32     | FILESIZE   | EVENTS   |
|--------------------------------------------------------------------------------------------------------------------------------------------------------------------------------------------------------+--------+-------------+------------+----------|
| cms:/store/mc/Run3Summer22NanoAODv12/VBFHHto4B_CV-m2p12_C2V-3p87_C3-m5p96_TuneCP5_13p6TeV_madgraph-pythia8/NANOAODSIM/130X_mcRun3_2022_realistic_v5-v2/50000/d73a9ea2-feee-4b61-ad28-fb9072b083e6.root | (None) | ad:f09193a0 | 19.744 MB  |          |
| cms:/store/mc/Run3Summer22NanoAODv12/VBFHHto4B_CV-m2p12_C2V-3p87_C3-m5p96_TuneCP5_13p6TeV_madgraph-pythia8/NANOAODSIM/130X_mcRun3_2022_realistic_v5-v2/50000/086170f5-d2d7-4a46-98e6-0e2a3f22dc99.root | (None) | ad:6711ebe5 | 16.897 MB  |          |
| cms:/store/mc/Run3Summer22NanoAODv12/VBFHHto4B_CV-m2p12_C2V-3p87_C3-m5p96_TuneCP5_13p6TeV_madgraph-pythia8/NANOAODSIM/130X_mcRun3_2022_realistic_v5-v2/50000/113cc400-8180-44cc-9c75-81373933a341.root | (None) | ad:8c8d1119 | 280.781 MB |          |
| cms:/store/mc/Run3Summer22NanoAODv12/VBFHHto4B_CV-m2p12_C2V-3p87_C3-m5p96_TuneCP5_13p6TeV_madgraph-pythia8/NANOAODSIM/130X_mcRun3_2022_realistic_v5-v2/50000/0e157fba-aace-46c9-b6f7-eed4c478654a.root | (None) | ad:d55be531 | 6.366 MB   |          |
| cms:/store/mc/Run3Summer22NanoAODv12/VBFHHto4B_CV-m2p12_C2V-3p87_C3-m5p96_TuneCP5_13p6TeV_madgraph-pythia8/NANOAODSIM/130X_mcRun3_2022_realistic_v5-v2/50000/4b39de21-198c-4a41-9465-840221a76eb4.root | (None) | ad:abc6fe93 | 4.446 MB   |          |
| cms:/store/mc/Run3Summer22NanoAODv12/VBFHHto4B_CV-m2p12_C2V-3p87_C3-m5p96_TuneCP5_13p6TeV_madgraph-pythia8/NANOAODSIM/130X_mcRun3_2022_realistic_v5-v2/50000/52b027a9-7279-4fa1-a674-37f99ec8ce83.root | (None) | ad:5e05a2db | 9.241 MB   |          |
| cms:/store/mc/Run3Summer22NanoAODv12/VBFHHto4B_CV-m2p12_C2V-3p87_C3-m5p96_TuneCP5_13p6TeV_madgraph-pythia8/NANOAODSIM/130X_mcRun3_2022_realistic_v5-v2/50000/e028b355-78ea-4a2a-8853-fc326ac7e6ba.root | (None) | ad:1a574fb7 | 7.864 MB   |          |
| cms:/store/mc/Run3Summer22NanoAODv12/VBFHHto4B_CV-m2p12_C2V-3p87_C3-m5p96_TuneCP5_13p6TeV_madgraph-pythia8/NANOAODSIM/130X_mcRun3_2022_realistic_v5-v2/50000/8df3cc27-8fd1-4317-be01-bf6c51ccd680.root | (None) | ad:554e7241 | 16.910 MB  |          |
| cms:/store/mc/Run3Summer22NanoAODv12/VBFHHto4B_CV-m2p12_C2V-3p87_C3-m5p96_TuneCP5_13p6TeV_madgraph-pythia8/NANOAODSIM/130X_mcRun3_2022_realistic_v5-v2/50000/117ac783-3eca-4f80-abb3-30006f06565f.root | (None) | ad:4d4a9742 | 14.017 MB  |          |
| cms:/store/mc/Run3Summer22NanoAODv12/VBFHHto4B_CV-m2p12_C2V-3p87_C3-m5p96_TuneCP5_13p6TeV_madgraph-pythia8/NANOAODSIM/130X_mcRun3_2022_realistic_v5-v2/50000/3d07d3d2-8ae8-46d6-b0b2-e8c1af1a5d20.root | (None) | ad:efc01fb4 | 6.390 MB   |          |
| cms:/store/mc/Run3Summer22NanoAODv12/VBFHHto4B_CV-m2p12_C2V-3p87_C3-m5p96_TuneCP5_13p6TeV_madgraph-pythia8/NANOAODSIM/130X_mcRun3_2022_realistic_v5-v2/50000/4b647dbb-3e91-487c-9af2-0675f0dd80fa.root | (None) | ad:4eb1f361 | 16.900 MB  |          |
| cms:/store/mc/Run3Summer22NanoAODv12/VBFHHto4B_CV-m2p12_C2V-3p87_C3-m5p96_TuneCP5_13p6TeV_madgraph-pythia8/NANOAODSIM/130X_mcRun3_2022_realistic_v5-v2/50000/ab1bd9f5-eecc-43f4-9f4e-7946379806d5.root | (None) | ad:a66b2bfd | 6.384 MB   |          |
| cms:/store/mc/Run3Summer22NanoAODv12/VBFHHto4B_CV-m2p12_C2V-3p87_C3-m5p96_TuneCP5_13p6TeV_madgraph-pythia8/NANOAODSIM/130X_mcRun3_2022_realistic_v5-v2/50000/f30dc339-17a5-4f36-8c13-28116f958525.root | (None) | ad:1e73fd77 | 38.434 MB  |          |
| cms:/store/mc/Run3Summer22NanoAODv12/VBFHHto4B_CV-m2p12_C2V-3p87_C3-m5p96_TuneCP5_13p6TeV_madgraph-pythia8/NANOAODSIM/130X_mcRun3_2022_realistic_v5-v2/50000/7671ed72-004a-4c16-84dc-d639ad71dd36.root | (None) | ad:2f187267 | 21.683 MB  |          |
| cms:/store/mc/Run3Summer22NanoAODv12/VBFHHto4B_CV-m2p12_C2V-3p87_C3-m5p96_TuneCP5_13p6TeV_madgraph-pythia8/NANOAODSIM/130X_mcRun3_2022_realistic_v5-v2/50000/402463e6-9f7d-4a36-8474-1fb8a7f9b784.root | (None) | ad:48ce7f6e | 10.647 MB  |          |
| cms:/store/mc/Run3Summer22NanoAODv12/VBFHHto4B_CV-m2p12_C2V-3p87_C3-m5p96_TuneCP5_13p6TeV_madgraph-pythia8/NANOAODSIM/130X_mcRun3_2022_realistic_v5-v2/50000/417d1e1d-0e2b-42a5-8e6d-45245ff47d94.root | (None) | ad:d84f34bc | 14.006 MB  |          |
| cms:/store/mc/Run3Summer22NanoAODv12/VBFHHto4B_CV-m2p12_C2V-3p87_C3-m5p96_TuneCP5_13p6TeV_madgraph-pythia8/NANOAODSIM/130X_mcRun3_2022_realistic_v5-v2/50000/aa2d9b57-83d0-4f74-85b1-8024fb661a90.root | (None) | ad:9584aa72 | 7.874 MB   |          |
| cms:/store/mc/Run3Summer22NanoAODv12/VBFHHto4B_CV-m2p12_C2V-3p87_C3-m5p96_TuneCP5_13p6TeV_madgraph-pythia8/NANOAODSIM/130X_mcRun3_2022_realistic_v5-v2/50000/7b1afb42-d471-41b3-ac55-ee539ba5e59b.root | (None) | ad:784d4285 | 6.399 MB   |          |
| cms:/store/mc/Run3Summer22NanoAODv12/VBFHHto4B_CV-m2p12_C2V-3p87_C3-m5p96_TuneCP5_13p6TeV_madgraph-pythia8/NANOAODSIM/130X_mcRun3_2022_realistic_v5-v2/50000/9f7e1e97-873a-464c-ad3b-1ab6244f8c77.root | (None) | ad:0d92f0f9 | 24.629 MB  |          |
| cms:/store/mc/Run3Summer22NanoAODv12/VBFHHto4B_CV-m2p12_C2V-3p87_C3-m5p96_TuneCP5_13p6TeV_madgraph-pythia8/NANOAODSIM/130X_mcRun3_2022_realistic_v5-v2/50000/b76039de-5aaf-4d3c-ab9a-8a0ab10b5cec.root | (None) | ad:2c964013 | 4.483 MB   |          |
| cms:/store/mc/Run3Summer22NanoAODv12/VBFHHto4B_CV-m2p12_C2V-3p87_C3-m5p96_TuneCP5_13p6TeV_madgraph-pythia8/NANOAODSIM/130X_mcRun3_2022_realistic_v5-v2/50000/5cda04c2-1b7b-46b6-8cbb-c9dd53ce2afe.root | (None) | ad:9b13da3a | 12.591 MB  |          |
| cms:/store/mc/Run3Summer22NanoAODv12/VBFHHto4B_CV-m2p12_C2V-3p87_C3-m5p96_TuneCP5_13p6TeV_madgraph-pythia8/NANOAODSIM/130X_mcRun3_2022_realistic_v5-v2/50000/a770596c-882c-40af-a390-3a6eb140cf57.root | (None) | ad:f7b0e7f6 | 6.387 MB   |          |
+--------------------------------------------------------------------------------------------------------------------------------------------------------------------------------------------------------+--------+-------------+------------+----------+
Total files : 22
Total size : 553.074 MB
