+--------------------------------------------------------------------------------------------------------------------------------------------------------------------------------------------------------+--------+-------------+------------+----------+
| SCOPE:NAME                                                                                                                                                                                             | GUID   | ADLER32     | FILESIZE   | EVENTS   |
|--------------------------------------------------------------------------------------------------------------------------------------------------------------------------------------------------------+--------+-------------+------------+----------|
| cms:/store/mc/Run3Summer22EENanoAODv12/VBFHHto4B_CV_1_C2V_1_C3_1_TuneCP5_13p6TeV_madgraph-pythia8/NANOAODSIM/130X_mcRun3_2022_realistic_postEE_v6-v3/80000/508f1313-c598-48b5-984e-86cd0f02a820.root   | (None) | ad:a29bf9bc | 180.174 MB |          |
| cms:/store/mc/Run3Summer22EENanoAODv12/VBFHHto4B_CV_1_C2V_1_C3_1_TuneCP5_13p6TeV_madgraph-pythia8/NANOAODSIM/130X_mcRun3_2022_realistic_postEE_v6-v3/80000/5f800902-4fc5-4ad9-bdc8-8aa77fdea933.root   | (None) | ad:0614bcd0 | 25.837 MB  |          |
| cms:/store/mc/Run3Summer22EENanoAODv12/VBFHHto4B_CV_1_C2V_1_C3_1_TuneCP5_13p6TeV_madgraph-pythia8/NANOAODSIM/130X_mcRun3_2022_realistic_postEE_v6-v3/80000/0082a144-4874-4bdd-bd46-86d73c0a2c3d.root   | (None) | ad:dbc5712f | 60.288 MB  |          |
| cms:/store/mc/Run3Summer22EENanoAODv12/VBFHHto4B_CV_1_C2V_1_C3_1_TuneCP5_13p6TeV_madgraph-pythia8/NANOAODSIM/130X_mcRun3_2022_realistic_postEE_v6-v3/2550000/a1836d40-4fc3-416d-85dd-34a8ced004f0.root | (None) | ad:9e8a7b0e | 291.363 MB |          |
| cms:/store/mc/Run3Summer22EENanoAODv12/VBFHHto4B_CV_1_C2V_1_C3_1_TuneCP5_13p6TeV_madgraph-pythia8/NANOAODSIM/130X_mcRun3_2022_realistic_postEE_v6-v3/80000/e6c83a50-0006-4412-8c93-81fceb75660e.root   | (None) | ad:a5792f13 | 180.180 MB |          |
| cms:/store/mc/Run3Summer22EENanoAODv12/VBFHHto4B_CV_1_C2V_1_C3_1_TuneCP5_13p6TeV_madgraph-pythia8/NANOAODSIM/130X_mcRun3_2022_realistic_postEE_v6-v3/80000/e485e829-6ef3-4c57-a55c-339e3324ee26.root   | (None) | ad:208ba1c4 | 40.304 MB  |          |
| cms:/store/mc/Run3Summer22EENanoAODv12/VBFHHto4B_CV_1_C2V_1_C3_1_TuneCP5_13p6TeV_madgraph-pythia8/NANOAODSIM/130X_mcRun3_2022_realistic_postEE_v6-v3/80000/fb657cf0-a60a-418e-970d-9cbeb89411df.root   | (None) | ad:6dab5a1a | 849.149 MB |          |
| cms:/store/mc/Run3Summer22EENanoAODv12/VBFHHto4B_CV_1_C2V_1_C3_1_TuneCP5_13p6TeV_madgraph-pythia8/NANOAODSIM/130X_mcRun3_2022_realistic_postEE_v6-v3/80000/7c48b9f9-c916-44f2-99ea-ce1dd2c7c4cf.root   | (None) | ad:96c0a3e4 | 47.464 MB  |          |
| cms:/store/mc/Run3Summer22EENanoAODv12/VBFHHto4B_CV_1_C2V_1_C3_1_TuneCP5_13p6TeV_madgraph-pythia8/NANOAODSIM/130X_mcRun3_2022_realistic_postEE_v6-v3/80000/b5b30b11-6fa2-4d2c-9e73-614a67d38c3b.root   | (None) | ad:02d403d5 | 1.155 GB   |          |
| cms:/store/mc/Run3Summer22EENanoAODv12/VBFHHto4B_CV_1_C2V_1_C3_1_TuneCP5_13p6TeV_madgraph-pythia8/NANOAODSIM/130X_mcRun3_2022_realistic_postEE_v6-v3/80000/df876a98-2c19-4193-9814-d1b741b4fab4.root   | (None) | ad:ad4abd8c | 1.296 GB   |          |
| cms:/store/mc/Run3Summer22EENanoAODv12/VBFHHto4B_CV_1_C2V_1_C3_1_TuneCP5_13p6TeV_madgraph-pythia8/NANOAODSIM/130X_mcRun3_2022_realistic_postEE_v6-v3/80000/6afabf32-da6c-494c-8640-a6547175f662.root   | (None) | ad:8df36812 | 319.951 MB |          |
| cms:/store/mc/Run3Summer22EENanoAODv12/VBFHHto4B_CV_1_C2V_1_C3_1_TuneCP5_13p6TeV_madgraph-pythia8/NANOAODSIM/130X_mcRun3_2022_realistic_postEE_v6-v3/50000/0db26bb2-2918-452a-81a2-30c703b5559c.root   | (None) | ad:768e68d1 | 131.825 MB |          |
| cms:/store/mc/Run3Summer22EENanoAODv12/VBFHHto4B_CV_1_C2V_1_C3_1_TuneCP5_13p6TeV_madgraph-pythia8/NANOAODSIM/130X_mcRun3_2022_realistic_postEE_v6-v3/80000/c4c2c3dc-2e9e-4d22-8ab3-dea49e81eed2.root   | (None) | ad:488029a4 | 65.700 MB  |          |
| cms:/store/mc/Run3Summer22EENanoAODv12/VBFHHto4B_CV_1_C2V_1_C3_1_TuneCP5_13p6TeV_madgraph-pythia8/NANOAODSIM/130X_mcRun3_2022_realistic_postEE_v6-v3/80000/54663968-5a70-4c6c-b8af-afcec8ef9aa0.root   | (None) | ad:276e19b5 | 67.476 MB  |          |
| cms:/store/mc/Run3Summer22EENanoAODv12/VBFHHto4B_CV_1_C2V_1_C3_1_TuneCP5_13p6TeV_madgraph-pythia8/NANOAODSIM/130X_mcRun3_2022_realistic_postEE_v6-v3/80000/4c5289ef-2a37-4f95-8522-b719b23fb9a1.root   | (None) | ad:5cd6672a | 241.476 MB |          |
| cms:/store/mc/Run3Summer22EENanoAODv12/VBFHHto4B_CV_1_C2V_1_C3_1_TuneCP5_13p6TeV_madgraph-pythia8/NANOAODSIM/130X_mcRun3_2022_realistic_postEE_v6-v3/80000/ccf463eb-786a-4c8f-b761-eb5c725c392c.root   | (None) | ad:0615c1fd | 206.059 MB |          |
| cms:/store/mc/Run3Summer22EENanoAODv12/VBFHHto4B_CV_1_C2V_1_C3_1_TuneCP5_13p6TeV_madgraph-pythia8/NANOAODSIM/130X_mcRun3_2022_realistic_postEE_v6-v3/80000/c4040b0d-d697-4dd3-8861-4dc24c2062c2.root   | (None) | ad:8b39ab25 | 52.771 MB  |          |
| cms:/store/mc/Run3Summer22EENanoAODv12/VBFHHto4B_CV_1_C2V_1_C3_1_TuneCP5_13p6TeV_madgraph-pythia8/NANOAODSIM/130X_mcRun3_2022_realistic_postEE_v6-v3/80000/5fb22394-7bfd-45de-b93e-87f1b4ce9b24.root   | (None) | ad:1b7a1faf | 841.261 MB |          |
| cms:/store/mc/Run3Summer22EENanoAODv12/VBFHHto4B_CV_1_C2V_1_C3_1_TuneCP5_13p6TeV_madgraph-pythia8/NANOAODSIM/130X_mcRun3_2022_realistic_postEE_v6-v3/80000/a897cbbf-ea0b-40d5-b850-f9f24a7906a5.root   | (None) | ad:587f649a | 363.150 MB |          |
| cms:/store/mc/Run3Summer22EENanoAODv12/VBFHHto4B_CV_1_C2V_1_C3_1_TuneCP5_13p6TeV_madgraph-pythia8/NANOAODSIM/130X_mcRun3_2022_realistic_postEE_v6-v3/80000/0ec5a549-a75b-4a9a-81a3-c42ef8b42017.root   | (None) | ad:0bc8138b | 144.476 MB |          |
| cms:/store/mc/Run3Summer22EENanoAODv12/VBFHHto4B_CV_1_C2V_1_C3_1_TuneCP5_13p6TeV_madgraph-pythia8/NANOAODSIM/130X_mcRun3_2022_realistic_postEE_v6-v3/80000/180e6eda-a593-444e-a40f-b1678cc76ff8.root   | (None) | ad:4b4ecfda | 25.926 MB  |          |
| cms:/store/mc/Run3Summer22EENanoAODv12/VBFHHto4B_CV_1_C2V_1_C3_1_TuneCP5_13p6TeV_madgraph-pythia8/NANOAODSIM/130X_mcRun3_2022_realistic_postEE_v6-v3/80000/0ccfa209-3701-49c6-b1c8-3d4ecf5b5b4f.root   | (None) | ad:da4283e1 | 377.126 MB |          |
| cms:/store/mc/Run3Summer22EENanoAODv12/VBFHHto4B_CV_1_C2V_1_C3_1_TuneCP5_13p6TeV_madgraph-pythia8/NANOAODSIM/130X_mcRun3_2022_realistic_postEE_v6-v3/80000/002ef26a-aee0-44f1-b5f7-d103153b7bbe.root   | (None) | ad:9436d117 | 281.467 MB |          |
+--------------------------------------------------------------------------------------------------------------------------------------------------------------------------------------------------------+--------+-------------+------------+----------+
Total files : 23
Total size : 7.245 GB
