+-----------------------------------------------------------------------------------------------------------------------------------------------------------------------------------------------+--------+-------------+------------+----------+
| SCOPE:NAME                                                                                                                                                                                    | GUID   | ADLER32     | FILESIZE   | EVENTS   |
|-----------------------------------------------------------------------------------------------------------------------------------------------------------------------------------------------+--------+-------------+------------+----------|
| cms:/store/mc/Run3Summer22NanoAODv12/VBFHHto4B_CV-1_C2V-1_C3-1_TuneCP5_13p6TeV_madgraph-pythia8/NANOAODSIM/130X_mcRun3_2022_realistic_v5-v2/40000/90298185-9b92-4dc6-ab20-b90b33cef8e4.root   | (None) | ad:8d39a52e | 4.350 MB   |          |
| cms:/store/mc/Run3Summer22NanoAODv12/VBFHHto4B_CV-1_C2V-1_C3-1_TuneCP5_13p6TeV_madgraph-pythia8/NANOAODSIM/130X_mcRun3_2022_realistic_v5-v2/30000/937250ee-095b-4133-ba8d-abf250d76d8b.root   | (None) | ad:a026ed7e | 8.166 MB   |          |
| cms:/store/mc/Run3Summer22NanoAODv12/VBFHHto4B_CV-1_C2V-1_C3-1_TuneCP5_13p6TeV_madgraph-pythia8/NANOAODSIM/130X_mcRun3_2022_realistic_v5-v2/30000/c0c27b3f-43aa-415f-9540-1f11a0769fd9.root   | (None) | ad:69c0430d | 55.453 MB  |          |
| cms:/store/mc/Run3Summer22NanoAODv12/VBFHHto4B_CV-1_C2V-1_C3-1_TuneCP5_13p6TeV_madgraph-pythia8/NANOAODSIM/130X_mcRun3_2022_realistic_v5-v2/2540000/05770aeb-b89b-46a2-8d33-f10e8328878e.root | (None) | ad:a0f639d5 | 17.591 MB  |          |
| cms:/store/mc/Run3Summer22NanoAODv12/VBFHHto4B_CV-1_C2V-1_C3-1_TuneCP5_13p6TeV_madgraph-pythia8/NANOAODSIM/130X_mcRun3_2022_realistic_v5-v2/2540000/44d198fb-223b-45f6-a690-4a99d991b57b.root | (None) | ad:99e3aff5 | 133.567 MB |          |
+-----------------------------------------------------------------------------------------------------------------------------------------------------------------------------------------------+--------+-------------+------------+----------+
Total files : 5
Total size : 219.127 MB
