{
    "cms:/store/mc/Run3Summer22EENanoAODv12/VBFHto2Mu_M-125_TuneCP5_withDipoleRecoil_13p6TeV_powheg-pythia8/NANOAODSIM/130X_mcRun3_2022_realistic_postEE_v6-v3/50000/b0540f69-dd7e-49ff-83d9-b6e1f3d80753.root": [
        "T1_US_FNAL_Disk: davs://cmsdcadisk.fnal.gov:2880/dcache/uscmsdisk/store/mc/Run3Summer22EENanoAODv12/VBFHto2Mu_M-125_TuneCP5_withDipoleRecoil_13p6TeV_powheg-pythia8/NANOAODSIM/130X_mcRun3_2022_realistic_postEE_v6-v3/50000/b0540f69-dd7e-49ff-83d9-b6e1f3d80753.root",
        "T2_FR_IPHC: davs://sbgdcache.in2p3.fr:443/cms/phedex/store/mc/Run3Summer22EENanoAODv12/VBFHto2Mu_M-125_TuneCP5_withDipoleRecoil_13p6TeV_powheg-pythia8/NANOAODSIM/130X_mcRun3_2022_realistic_postEE_v6-v3/50000/b0540f69-dd7e-49ff-83d9-b6e1f3d80753.root",
        "T2_FR_GRIF: davs://eos.grif.fr:11000/eos/grif/cms/grif/store/mc/Run3Summer22EENanoAODv12/VBFHto2Mu_M-125_TuneCP5_withDipoleRecoil_13p6TeV_powheg-pythia8/NANOAODSIM/130X_mcRun3_2022_realistic_postEE_v6-v3/50000/b0540f69-dd7e-49ff-83d9-b6e1f3d80753.root",
        "T2_RU_IHEP: davs://dp0015.m45.ihep.su:2880/pnfs/m45.ihep.su/data/cms/store/mc/Run3Summer22EENanoAODv12/VBFHto2Mu_M-125_TuneCP5_withDipoleRecoil_13p6TeV_powheg-pythia8/NANOAODSIM/130X_mcRun3_2022_realistic_postEE_v6-v3/50000/b0540f69-dd7e-49ff-83d9-b6e1f3d80753.root",
        "T2_US_Wisconsin: davs://cmsxrootd.hep.wisc.edu:1094/store/mc/Run3Summer22EENanoAODv12/VBFHto2Mu_M-125_TuneCP5_withDipoleRecoil_13p6TeV_powheg-pythia8/NANOAODSIM/130X_mcRun3_2022_realistic_postEE_v6-v3/50000/b0540f69-dd7e-49ff-83d9-b6e1f3d80753.root",
        "T1_IT_CNAF_Tape: davs://xfer-cms.cr.cnaf.infn.it:8443/cmstape/store/mc/Run3Summer22EENanoAODv12/VBFHto2Mu_M-125_TuneCP5_withDipoleRecoil_13p6TeV_powheg-pythia8/NANOAODSIM/130X_mcRun3_2022_realistic_postEE_v6-v3/50000/b0540f69-dd7e-49ff-83d9-b6e1f3d80753.root",
        "T2_IT_Pisa: davs://stwebdav.pi.infn.it:8443/cms/store/mc/Run3Summer22EENanoAODv12/VBFHto2Mu_M-125_TuneCP5_withDipoleRecoil_13p6TeV_powheg-pythia8/NANOAODSIM/130X_mcRun3_2022_realistic_postEE_v6-v3/50000/b0540f69-dd7e-49ff-83d9-b6e1f3d80753.root",
        "T2_US_Purdue: davs://eos.cms.rcac.purdue.edu:9000/store/mc/Run3Summer22EENanoAODv12/VBFHto2Mu_M-125_TuneCP5_withDipoleRecoil_13p6TeV_powheg-pythia8/NANOAODSIM/130X_mcRun3_2022_realistic_postEE_v6-v3/50000/b0540f69-dd7e-49ff-83d9-b6e1f3d80753.root"
    ],
    "cms:/store/mc/Run3Summer22EENanoAODv12/VBFHto2Mu_M-125_TuneCP5_withDipoleRecoil_13p6TeV_powheg-pythia8/NANOAODSIM/130X_mcRun3_2022_realistic_postEE_v6-v3/50000/e67b03ea-e7f1-4e97-bc80-304e48e6ee08.root": [
        "T1_US_FNAL_Disk: davs://cmsdcadisk.fnal.gov:2880/dcache/uscmsdisk/store/mc/Run3Summer22EENanoAODv12/VBFHto2Mu_M-125_TuneCP5_withDipoleRecoil_13p6TeV_powheg-pythia8/NANOAODSIM/130X_mcRun3_2022_realistic_postEE_v6-v3/50000/e67b03ea-e7f1-4e97-bc80-304e48e6ee08.root",
        "T2_FR_IPHC: davs://sbgdcache.in2p3.fr:443/cms/phedex/store/mc/Run3Summer22EENanoAODv12/VBFHto2Mu_M-125_TuneCP5_withDipoleRecoil_13p6TeV_powheg-pythia8/NANOAODSIM/130X_mcRun3_2022_realistic_postEE_v6-v3/50000/e67b03ea-e7f1-4e97-bc80-304e48e6ee08.root",
        "T2_FR_GRIF: davs://eos.grif.fr:11000/eos/grif/cms/grif/store/mc/Run3Summer22EENanoAODv12/VBFHto2Mu_M-125_TuneCP5_withDipoleRecoil_13p6TeV_powheg-pythia8/NANOAODSIM/130X_mcRun3_2022_realistic_postEE_v6-v3/50000/e67b03ea-e7f1-4e97-bc80-304e48e6ee08.root",
        "T2_RU_IHEP: davs://dp0015.m45.ihep.su:2880/pnfs/m45.ihep.su/data/cms/store/mc/Run3Summer22EENanoAODv12/VBFHto2Mu_M-125_TuneCP5_withDipoleRecoil_13p6TeV_powheg-pythia8/NANOAODSIM/130X_mcRun3_2022_realistic_postEE_v6-v3/50000/e67b03ea-e7f1-4e97-bc80-304e48e6ee08.root",
        "T2_US_Wisconsin: davs://cmsxrootd.hep.wisc.edu:1094/store/mc/Run3Summer22EENanoAODv12/VBFHto2Mu_M-125_TuneCP5_withDipoleRecoil_13p6TeV_powheg-pythia8/NANOAODSIM/130X_mcRun3_2022_realistic_postEE_v6-v3/50000/e67b03ea-e7f1-4e97-bc80-304e48e6ee08.root",
        "T1_IT_CNAF_Tape: davs://xfer-cms.cr.cnaf.infn.it:8443/cmstape/store/mc/Run3Summer22EENanoAODv12/VBFHto2Mu_M-125_TuneCP5_withDipoleRecoil_13p6TeV_powheg-pythia8/NANOAODSIM/130X_mcRun3_2022_realistic_postEE_v6-v3/50000/e67b03ea-e7f1-4e97-bc80-304e48e6ee08.root",
        "T2_US_Florida: davs://cmsio2.rc.ufl.edu:1094/store/mc/Run3Summer22EENanoAODv12/VBFHto2Mu_M-125_TuneCP5_withDipoleRecoil_13p6TeV_powheg-pythia8/NANOAODSIM/130X_mcRun3_2022_realistic_postEE_v6-v3/50000/e67b03ea-e7f1-4e97-bc80-304e48e6ee08.root",
        "T2_IT_Pisa: davs://stwebdav.pi.infn.it:8443/cms/store/mc/Run3Summer22EENanoAODv12/VBFHto2Mu_M-125_TuneCP5_withDipoleRecoil_13p6TeV_powheg-pythia8/NANOAODSIM/130X_mcRun3_2022_realistic_postEE_v6-v3/50000/e67b03ea-e7f1-4e97-bc80-304e48e6ee08.root"
    ],
    "cms:/store/mc/Run3Summer22EENanoAODv12/VBFHto2Mu_M-125_TuneCP5_withDipoleRecoil_13p6TeV_powheg-pythia8/NANOAODSIM/130X_mcRun3_2022_realistic_postEE_v6-v3/50000/8e1dc822-7b6a-4666-ad04-b913cd17d88e.root": [
        "T1_US_FNAL_Disk: davs://cmsdcadisk.fnal.gov:2880/dcache/uscmsdisk/store/mc/Run3Summer22EENanoAODv12/VBFHto2Mu_M-125_TuneCP5_withDipoleRecoil_13p6TeV_powheg-pythia8/NANOAODSIM/130X_mcRun3_2022_realistic_postEE_v6-v3/50000/8e1dc822-7b6a-4666-ad04-b913cd17d88e.root",
        "T2_FR_IPHC: davs://sbgdcache.in2p3.fr:443/cms/phedex/store/mc/Run3Summer22EENanoAODv12/VBFHto2Mu_M-125_TuneCP5_withDipoleRecoil_13p6TeV_powheg-pythia8/NANOAODSIM/130X_mcRun3_2022_realistic_postEE_v6-v3/50000/8e1dc822-7b6a-4666-ad04-b913cd17d88e.root",
        "T2_FR_GRIF: davs://eos.grif.fr:11000/eos/grif/cms/grif/store/mc/Run3Summer22EENanoAODv12/VBFHto2Mu_M-125_TuneCP5_withDipoleRecoil_13p6TeV_powheg-pythia8/NANOAODSIM/130X_mcRun3_2022_realistic_postEE_v6-v3/50000/8e1dc822-7b6a-4666-ad04-b913cd17d88e.root",
        "T2_RU_IHEP: davs://dp0015.m45.ihep.su:2880/pnfs/m45.ihep.su/data/cms/store/mc/Run3Summer22EENanoAODv12/VBFHto2Mu_M-125_TuneCP5_withDipoleRecoil_13p6TeV_powheg-pythia8/NANOAODSIM/130X_mcRun3_2022_realistic_postEE_v6-v3/50000/8e1dc822-7b6a-4666-ad04-b913cd17d88e.root",
        "T2_US_Wisconsin: davs://cmsxrootd.hep.wisc.edu:1094/store/mc/Run3Summer22EENanoAODv12/VBFHto2Mu_M-125_TuneCP5_withDipoleRecoil_13p6TeV_powheg-pythia8/NANOAODSIM/130X_mcRun3_2022_realistic_postEE_v6-v3/50000/8e1dc822-7b6a-4666-ad04-b913cd17d88e.root",
        "T1_IT_CNAF_Tape: davs://xfer-cms.cr.cnaf.infn.it:8443/cmstape/store/mc/Run3Summer22EENanoAODv12/VBFHto2Mu_M-125_TuneCP5_withDipoleRecoil_13p6TeV_powheg-pythia8/NANOAODSIM/130X_mcRun3_2022_realistic_postEE_v6-v3/50000/8e1dc822-7b6a-4666-ad04-b913cd17d88e.root",
        "T2_IT_Pisa: davs://stwebdav.pi.infn.it:8443/cms/store/mc/Run3Summer22EENanoAODv12/VBFHto2Mu_M-125_TuneCP5_withDipoleRecoil_13p6TeV_powheg-pythia8/NANOAODSIM/130X_mcRun3_2022_realistic_postEE_v6-v3/50000/8e1dc822-7b6a-4666-ad04-b913cd17d88e.root"
    ],
    "cms:/store/mc/Run3Summer22EENanoAODv12/VBFHto2Mu_M-125_TuneCP5_withDipoleRecoil_13p6TeV_powheg-pythia8/NANOAODSIM/130X_mcRun3_2022_realistic_postEE_v6-v3/50000/08f2be07-aa16-42b1-8964-61d22ce5177d.root": [
        "T1_US_FNAL_Disk: davs://cmsdcadisk.fnal.gov:2880/dcache/uscmsdisk/store/mc/Run3Summer22EENanoAODv12/VBFHto2Mu_M-125_TuneCP5_withDipoleRecoil_13p6TeV_powheg-pythia8/NANOAODSIM/130X_mcRun3_2022_realistic_postEE_v6-v3/50000/08f2be07-aa16-42b1-8964-61d22ce5177d.root",
        "T2_FR_IPHC: davs://sbgdcache.in2p3.fr:443/cms/phedex/store/mc/Run3Summer22EENanoAODv12/VBFHto2Mu_M-125_TuneCP5_withDipoleRecoil_13p6TeV_powheg-pythia8/NANOAODSIM/130X_mcRun3_2022_realistic_postEE_v6-v3/50000/08f2be07-aa16-42b1-8964-61d22ce5177d.root",
        "T2_FR_GRIF: davs://eos.grif.fr:11000/eos/grif/cms/grif/store/mc/Run3Summer22EENanoAODv12/VBFHto2Mu_M-125_TuneCP5_withDipoleRecoil_13p6TeV_powheg-pythia8/NANOAODSIM/130X_mcRun3_2022_realistic_postEE_v6-v3/50000/08f2be07-aa16-42b1-8964-61d22ce5177d.root",
        "T2_RU_IHEP: davs://dp0015.m45.ihep.su:2880/pnfs/m45.ihep.su/data/cms/store/mc/Run3Summer22EENanoAODv12/VBFHto2Mu_M-125_TuneCP5_withDipoleRecoil_13p6TeV_powheg-pythia8/NANOAODSIM/130X_mcRun3_2022_realistic_postEE_v6-v3/50000/08f2be07-aa16-42b1-8964-61d22ce5177d.root",
        "T2_US_Wisconsin: davs://cmsxrootd.hep.wisc.edu:1094/store/mc/Run3Summer22EENanoAODv12/VBFHto2Mu_M-125_TuneCP5_withDipoleRecoil_13p6TeV_powheg-pythia8/NANOAODSIM/130X_mcRun3_2022_realistic_postEE_v6-v3/50000/08f2be07-aa16-42b1-8964-61d22ce5177d.root",
        "T1_IT_CNAF_Tape: davs://xfer-cms.cr.cnaf.infn.it:8443/cmstape/store/mc/Run3Summer22EENanoAODv12/VBFHto2Mu_M-125_TuneCP5_withDipoleRecoil_13p6TeV_powheg-pythia8/NANOAODSIM/130X_mcRun3_2022_realistic_postEE_v6-v3/50000/08f2be07-aa16-42b1-8964-61d22ce5177d.root",
        "T2_IT_Pisa: davs://stwebdav.pi.infn.it:8443/cms/store/mc/Run3Summer22EENanoAODv12/VBFHto2Mu_M-125_TuneCP5_withDipoleRecoil_13p6TeV_powheg-pythia8/NANOAODSIM/130X_mcRun3_2022_realistic_postEE_v6-v3/50000/08f2be07-aa16-42b1-8964-61d22ce5177d.root"
    ],
    "cms:/store/mc/Run3Summer22EENanoAODv12/VBFHto2Mu_M-125_TuneCP5_withDipoleRecoil_13p6TeV_powheg-pythia8/NANOAODSIM/130X_mcRun3_2022_realistic_postEE_v6-v3/50000/03865492-4a5d-4ec1-9c7b-fabd14c43d5e.root": [
        "T1_US_FNAL_Disk: davs://cmsdcadisk.fnal.gov:2880/dcache/uscmsdisk/store/mc/Run3Summer22EENanoAODv12/VBFHto2Mu_M-125_TuneCP5_withDipoleRecoil_13p6TeV_powheg-pythia8/NANOAODSIM/130X_mcRun3_2022_realistic_postEE_v6-v3/50000/03865492-4a5d-4ec1-9c7b-fabd14c43d5e.root",
        "T2_FR_IPHC: davs://sbgdcache.in2p3.fr:443/cms/phedex/store/mc/Run3Summer22EENanoAODv12/VBFHto2Mu_M-125_TuneCP5_withDipoleRecoil_13p6TeV_powheg-pythia8/NANOAODSIM/130X_mcRun3_2022_realistic_postEE_v6-v3/50000/03865492-4a5d-4ec1-9c7b-fabd14c43d5e.root",
        "T2_FR_GRIF: davs://eos.grif.fr:11000/eos/grif/cms/grif/store/mc/Run3Summer22EENanoAODv12/VBFHto2Mu_M-125_TuneCP5_withDipoleRecoil_13p6TeV_powheg-pythia8/NANOAODSIM/130X_mcRun3_2022_realistic_postEE_v6-v3/50000/03865492-4a5d-4ec1-9c7b-fabd14c43d5e.root",
        "T2_RU_IHEP: davs://dp0015.m45.ihep.su:2880/pnfs/m45.ihep.su/data/cms/store/mc/Run3Summer22EENanoAODv12/VBFHto2Mu_M-125_TuneCP5_withDipoleRecoil_13p6TeV_powheg-pythia8/NANOAODSIM/130X_mcRun3_2022_realistic_postEE_v6-v3/50000/03865492-4a5d-4ec1-9c7b-fabd14c43d5e.root",
        "T2_US_Wisconsin: davs://cmsxrootd.hep.wisc.edu:1094/store/mc/Run3Summer22EENanoAODv12/VBFHto2Mu_M-125_TuneCP5_withDipoleRecoil_13p6TeV_powheg-pythia8/NANOAODSIM/130X_mcRun3_2022_realistic_postEE_v6-v3/50000/03865492-4a5d-4ec1-9c7b-fabd14c43d5e.root",
        "T1_IT_CNAF_Tape: davs://xfer-cms.cr.cnaf.infn.it:8443/cmstape/store/mc/Run3Summer22EENanoAODv12/VBFHto2Mu_M-125_TuneCP5_withDipoleRecoil_13p6TeV_powheg-pythia8/NANOAODSIM/130X_mcRun3_2022_realistic_postEE_v6-v3/50000/03865492-4a5d-4ec1-9c7b-fabd14c43d5e.root",
        "T2_IT_Pisa: davs://stwebdav.pi.infn.it:8443/cms/store/mc/Run3Summer22EENanoAODv12/VBFHto2Mu_M-125_TuneCP5_withDipoleRecoil_13p6TeV_powheg-pythia8/NANOAODSIM/130X_mcRun3_2022_realistic_postEE_v6-v3/50000/03865492-4a5d-4ec1-9c7b-fabd14c43d5e.root"
    ],
    "cms:/store/mc/Run3Summer22EENanoAODv12/VBFHto2Mu_M-125_TuneCP5_withDipoleRecoil_13p6TeV_powheg-pythia8/NANOAODSIM/130X_mcRun3_2022_realistic_postEE_v6-v3/50000/27149280-5995-46ce-8451-9542c3836d83.root": [
        "T1_US_FNAL_Disk: davs://cmsdcadisk.fnal.gov:2880/dcache/uscmsdisk/store/mc/Run3Summer22EENanoAODv12/VBFHto2Mu_M-125_TuneCP5_withDipoleRecoil_13p6TeV_powheg-pythia8/NANOAODSIM/130X_mcRun3_2022_realistic_postEE_v6-v3/50000/27149280-5995-46ce-8451-9542c3836d83.root",
        "T2_FR_IPHC: davs://sbgdcache.in2p3.fr:443/cms/phedex/store/mc/Run3Summer22EENanoAODv12/VBFHto2Mu_M-125_TuneCP5_withDipoleRecoil_13p6TeV_powheg-pythia8/NANOAODSIM/130X_mcRun3_2022_realistic_postEE_v6-v3/50000/27149280-5995-46ce-8451-9542c3836d83.root",
        "T2_FR_GRIF: davs://eos.grif.fr:11000/eos/grif/cms/grif/store/mc/Run3Summer22EENanoAODv12/VBFHto2Mu_M-125_TuneCP5_withDipoleRecoil_13p6TeV_powheg-pythia8/NANOAODSIM/130X_mcRun3_2022_realistic_postEE_v6-v3/50000/27149280-5995-46ce-8451-9542c3836d83.root",
        "T2_RU_IHEP: davs://dp0015.m45.ihep.su:2880/pnfs/m45.ihep.su/data/cms/store/mc/Run3Summer22EENanoAODv12/VBFHto2Mu_M-125_TuneCP5_withDipoleRecoil_13p6TeV_powheg-pythia8/NANOAODSIM/130X_mcRun3_2022_realistic_postEE_v6-v3/50000/27149280-5995-46ce-8451-9542c3836d83.root",
        "T2_US_Wisconsin: davs://cmsxrootd.hep.wisc.edu:1094/store/mc/Run3Summer22EENanoAODv12/VBFHto2Mu_M-125_TuneCP5_withDipoleRecoil_13p6TeV_powheg-pythia8/NANOAODSIM/130X_mcRun3_2022_realistic_postEE_v6-v3/50000/27149280-5995-46ce-8451-9542c3836d83.root",
        "T1_IT_CNAF_Tape: davs://xfer-cms.cr.cnaf.infn.it:8443/cmstape/store/mc/Run3Summer22EENanoAODv12/VBFHto2Mu_M-125_TuneCP5_withDipoleRecoil_13p6TeV_powheg-pythia8/NANOAODSIM/130X_mcRun3_2022_realistic_postEE_v6-v3/50000/27149280-5995-46ce-8451-9542c3836d83.root",
        "T2_IT_Pisa: davs://stwebdav.pi.infn.it:8443/cms/store/mc/Run3Summer22EENanoAODv12/VBFHto2Mu_M-125_TuneCP5_withDipoleRecoil_13p6TeV_powheg-pythia8/NANOAODSIM/130X_mcRun3_2022_realistic_postEE_v6-v3/50000/27149280-5995-46ce-8451-9542c3836d83.root"
    ],
    "cms:/store/mc/Run3Summer22EENanoAODv12/VBFHto2Mu_M-125_TuneCP5_withDipoleRecoil_13p6TeV_powheg-pythia8/NANOAODSIM/130X_mcRun3_2022_realistic_postEE_v6-v3/50000/400d66cf-4f82-4b91-bd14-058551fcbdf0.root": [
        "T1_US_FNAL_Disk: davs://cmsdcadisk.fnal.gov:2880/dcache/uscmsdisk/store/mc/Run3Summer22EENanoAODv12/VBFHto2Mu_M-125_TuneCP5_withDipoleRecoil_13p6TeV_powheg-pythia8/NANOAODSIM/130X_mcRun3_2022_realistic_postEE_v6-v3/50000/400d66cf-4f82-4b91-bd14-058551fcbdf0.root",
        "T2_FR_IPHC: davs://sbgdcache.in2p3.fr:443/cms/phedex/store/mc/Run3Summer22EENanoAODv12/VBFHto2Mu_M-125_TuneCP5_withDipoleRecoil_13p6TeV_powheg-pythia8/NANOAODSIM/130X_mcRun3_2022_realistic_postEE_v6-v3/50000/400d66cf-4f82-4b91-bd14-058551fcbdf0.root",
        "T2_FR_GRIF: davs://eos.grif.fr:11000/eos/grif/cms/grif/store/mc/Run3Summer22EENanoAODv12/VBFHto2Mu_M-125_TuneCP5_withDipoleRecoil_13p6TeV_powheg-pythia8/NANOAODSIM/130X_mcRun3_2022_realistic_postEE_v6-v3/50000/400d66cf-4f82-4b91-bd14-058551fcbdf0.root",
        "T2_RU_IHEP: davs://dp0015.m45.ihep.su:2880/pnfs/m45.ihep.su/data/cms/store/mc/Run3Summer22EENanoAODv12/VBFHto2Mu_M-125_TuneCP5_withDipoleRecoil_13p6TeV_powheg-pythia8/NANOAODSIM/130X_mcRun3_2022_realistic_postEE_v6-v3/50000/400d66cf-4f82-4b91-bd14-058551fcbdf0.root",
        "T2_US_Wisconsin: davs://cmsxrootd.hep.wisc.edu:1094/store/mc/Run3Summer22EENanoAODv12/VBFHto2Mu_M-125_TuneCP5_withDipoleRecoil_13p6TeV_powheg-pythia8/NANOAODSIM/130X_mcRun3_2022_realistic_postEE_v6-v3/50000/400d66cf-4f82-4b91-bd14-058551fcbdf0.root",
        "T1_IT_CNAF_Tape: davs://xfer-cms.cr.cnaf.infn.it:8443/cmstape/store/mc/Run3Summer22EENanoAODv12/VBFHto2Mu_M-125_TuneCP5_withDipoleRecoil_13p6TeV_powheg-pythia8/NANOAODSIM/130X_mcRun3_2022_realistic_postEE_v6-v3/50000/400d66cf-4f82-4b91-bd14-058551fcbdf0.root",
        "T2_IT_Pisa: davs://stwebdav.pi.infn.it:8443/cms/store/mc/Run3Summer22EENanoAODv12/VBFHto2Mu_M-125_TuneCP5_withDipoleRecoil_13p6TeV_powheg-pythia8/NANOAODSIM/130X_mcRun3_2022_realistic_postEE_v6-v3/50000/400d66cf-4f82-4b91-bd14-058551fcbdf0.root"
    ],
    "cms:/store/mc/Run3Summer22EENanoAODv12/VBFHto2Mu_M-125_TuneCP5_withDipoleRecoil_13p6TeV_powheg-pythia8/NANOAODSIM/130X_mcRun3_2022_realistic_postEE_v6-v3/50000/7b0c0aa7-aa5d-4f6b-adac-cf076a1afe1d.root": [
        "T1_US_FNAL_Disk: davs://cmsdcadisk.fnal.gov:2880/dcache/uscmsdisk/store/mc/Run3Summer22EENanoAODv12/VBFHto2Mu_M-125_TuneCP5_withDipoleRecoil_13p6TeV_powheg-pythia8/NANOAODSIM/130X_mcRun3_2022_realistic_postEE_v6-v3/50000/7b0c0aa7-aa5d-4f6b-adac-cf076a1afe1d.root",
        "T2_FR_IPHC: davs://sbgdcache.in2p3.fr:443/cms/phedex/store/mc/Run3Summer22EENanoAODv12/VBFHto2Mu_M-125_TuneCP5_withDipoleRecoil_13p6TeV_powheg-pythia8/NANOAODSIM/130X_mcRun3_2022_realistic_postEE_v6-v3/50000/7b0c0aa7-aa5d-4f6b-adac-cf076a1afe1d.root",
        "T2_FR_GRIF: davs://eos.grif.fr:11000/eos/grif/cms/grif/store/mc/Run3Summer22EENanoAODv12/VBFHto2Mu_M-125_TuneCP5_withDipoleRecoil_13p6TeV_powheg-pythia8/NANOAODSIM/130X_mcRun3_2022_realistic_postEE_v6-v3/50000/7b0c0aa7-aa5d-4f6b-adac-cf076a1afe1d.root",
        "T2_RU_IHEP: davs://dp0015.m45.ihep.su:2880/pnfs/m45.ihep.su/data/cms/store/mc/Run3Summer22EENanoAODv12/VBFHto2Mu_M-125_TuneCP5_withDipoleRecoil_13p6TeV_powheg-pythia8/NANOAODSIM/130X_mcRun3_2022_realistic_postEE_v6-v3/50000/7b0c0aa7-aa5d-4f6b-adac-cf076a1afe1d.root",
        "T2_US_Wisconsin: davs://cmsxrootd.hep.wisc.edu:1094/store/mc/Run3Summer22EENanoAODv12/VBFHto2Mu_M-125_TuneCP5_withDipoleRecoil_13p6TeV_powheg-pythia8/NANOAODSIM/130X_mcRun3_2022_realistic_postEE_v6-v3/50000/7b0c0aa7-aa5d-4f6b-adac-cf076a1afe1d.root",
        "T1_IT_CNAF_Tape: davs://xfer-cms.cr.cnaf.infn.it:8443/cmstape/store/mc/Run3Summer22EENanoAODv12/VBFHto2Mu_M-125_TuneCP5_withDipoleRecoil_13p6TeV_powheg-pythia8/NANOAODSIM/130X_mcRun3_2022_realistic_postEE_v6-v3/50000/7b0c0aa7-aa5d-4f6b-adac-cf076a1afe1d.root",
        "T2_IT_Pisa: davs://stwebdav.pi.infn.it:8443/cms/store/mc/Run3Summer22EENanoAODv12/VBFHto2Mu_M-125_TuneCP5_withDipoleRecoil_13p6TeV_powheg-pythia8/NANOAODSIM/130X_mcRun3_2022_realistic_postEE_v6-v3/50000/7b0c0aa7-aa5d-4f6b-adac-cf076a1afe1d.root"
    ],
    "cms:/store/mc/Run3Summer22EENanoAODv12/VBFHto2Mu_M-125_TuneCP5_withDipoleRecoil_13p6TeV_powheg-pythia8/NANOAODSIM/130X_mcRun3_2022_realistic_postEE_v6-v3/50000/d3f4902d-9d5c-48a2-b9a5-b84b74b8201c.root": [
        "T1_US_FNAL_Disk: davs://cmsdcadisk.fnal.gov:2880/dcache/uscmsdisk/store/mc/Run3Summer22EENanoAODv12/VBFHto2Mu_M-125_TuneCP5_withDipoleRecoil_13p6TeV_powheg-pythia8/NANOAODSIM/130X_mcRun3_2022_realistic_postEE_v6-v3/50000/d3f4902d-9d5c-48a2-b9a5-b84b74b8201c.root",
        "T2_FR_IPHC: davs://sbgdcache.in2p3.fr:443/cms/phedex/store/mc/Run3Summer22EENanoAODv12/VBFHto2Mu_M-125_TuneCP5_withDipoleRecoil_13p6TeV_powheg-pythia8/NANOAODSIM/130X_mcRun3_2022_realistic_postEE_v6-v3/50000/d3f4902d-9d5c-48a2-b9a5-b84b74b8201c.root",
        "T2_FR_GRIF: davs://eos.grif.fr:11000/eos/grif/cms/grif/store/mc/Run3Summer22EENanoAODv12/VBFHto2Mu_M-125_TuneCP5_withDipoleRecoil_13p6TeV_powheg-pythia8/NANOAODSIM/130X_mcRun3_2022_realistic_postEE_v6-v3/50000/d3f4902d-9d5c-48a2-b9a5-b84b74b8201c.root",
        "T2_RU_IHEP: davs://dp0015.m45.ihep.su:2880/pnfs/m45.ihep.su/data/cms/store/mc/Run3Summer22EENanoAODv12/VBFHto2Mu_M-125_TuneCP5_withDipoleRecoil_13p6TeV_powheg-pythia8/NANOAODSIM/130X_mcRun3_2022_realistic_postEE_v6-v3/50000/d3f4902d-9d5c-48a2-b9a5-b84b74b8201c.root",
        "T2_US_Wisconsin: davs://cmsxrootd.hep.wisc.edu:1094/store/mc/Run3Summer22EENanoAODv12/VBFHto2Mu_M-125_TuneCP5_withDipoleRecoil_13p6TeV_powheg-pythia8/NANOAODSIM/130X_mcRun3_2022_realistic_postEE_v6-v3/50000/d3f4902d-9d5c-48a2-b9a5-b84b74b8201c.root",
        "T1_IT_CNAF_Tape: davs://xfer-cms.cr.cnaf.infn.it:8443/cmstape/store/mc/Run3Summer22EENanoAODv12/VBFHto2Mu_M-125_TuneCP5_withDipoleRecoil_13p6TeV_powheg-pythia8/NANOAODSIM/130X_mcRun3_2022_realistic_postEE_v6-v3/50000/d3f4902d-9d5c-48a2-b9a5-b84b74b8201c.root",
        "T2_IT_Pisa: davs://stwebdav.pi.infn.it:8443/cms/store/mc/Run3Summer22EENanoAODv12/VBFHto2Mu_M-125_TuneCP5_withDipoleRecoil_13p6TeV_powheg-pythia8/NANOAODSIM/130X_mcRun3_2022_realistic_postEE_v6-v3/50000/d3f4902d-9d5c-48a2-b9a5-b84b74b8201c.root"
    ],
    "cms:/store/mc/Run3Summer22EENanoAODv12/VBFHto2Mu_M-125_TuneCP5_withDipoleRecoil_13p6TeV_powheg-pythia8/NANOAODSIM/130X_mcRun3_2022_realistic_postEE_v6-v3/50000/e7b08496-f995-4280-a5de-ac8803c9dde1.root": [
        "T1_US_FNAL_Disk: davs://cmsdcadisk.fnal.gov:2880/dcache/uscmsdisk/store/mc/Run3Summer22EENanoAODv12/VBFHto2Mu_M-125_TuneCP5_withDipoleRecoil_13p6TeV_powheg-pythia8/NANOAODSIM/130X_mcRun3_2022_realistic_postEE_v6-v3/50000/e7b08496-f995-4280-a5de-ac8803c9dde1.root",
        "T2_FR_IPHC: davs://sbgdcache.in2p3.fr:443/cms/phedex/store/mc/Run3Summer22EENanoAODv12/VBFHto2Mu_M-125_TuneCP5_withDipoleRecoil_13p6TeV_powheg-pythia8/NANOAODSIM/130X_mcRun3_2022_realistic_postEE_v6-v3/50000/e7b08496-f995-4280-a5de-ac8803c9dde1.root",
        "T2_FR_GRIF: davs://eos.grif.fr:11000/eos/grif/cms/grif/store/mc/Run3Summer22EENanoAODv12/VBFHto2Mu_M-125_TuneCP5_withDipoleRecoil_13p6TeV_powheg-pythia8/NANOAODSIM/130X_mcRun3_2022_realistic_postEE_v6-v3/50000/e7b08496-f995-4280-a5de-ac8803c9dde1.root",
        "T2_RU_IHEP: davs://dp0015.m45.ihep.su:2880/pnfs/m45.ihep.su/data/cms/store/mc/Run3Summer22EENanoAODv12/VBFHto2Mu_M-125_TuneCP5_withDipoleRecoil_13p6TeV_powheg-pythia8/NANOAODSIM/130X_mcRun3_2022_realistic_postEE_v6-v3/50000/e7b08496-f995-4280-a5de-ac8803c9dde1.root",
        "T2_US_Wisconsin: davs://cmsxrootd.hep.wisc.edu:1094/store/mc/Run3Summer22EENanoAODv12/VBFHto2Mu_M-125_TuneCP5_withDipoleRecoil_13p6TeV_powheg-pythia8/NANOAODSIM/130X_mcRun3_2022_realistic_postEE_v6-v3/50000/e7b08496-f995-4280-a5de-ac8803c9dde1.root",
        "T1_IT_CNAF_Tape: davs://xfer-cms.cr.cnaf.infn.it:8443/cmstape/store/mc/Run3Summer22EENanoAODv12/VBFHto2Mu_M-125_TuneCP5_withDipoleRecoil_13p6TeV_powheg-pythia8/NANOAODSIM/130X_mcRun3_2022_realistic_postEE_v6-v3/50000/e7b08496-f995-4280-a5de-ac8803c9dde1.root",
        "T2_IT_Pisa: davs://stwebdav.pi.infn.it:8443/cms/store/mc/Run3Summer22EENanoAODv12/VBFHto2Mu_M-125_TuneCP5_withDipoleRecoil_13p6TeV_powheg-pythia8/NANOAODSIM/130X_mcRun3_2022_realistic_postEE_v6-v3/50000/e7b08496-f995-4280-a5de-ac8803c9dde1.root"
    ],
    "cms:/store/mc/Run3Summer22EENanoAODv12/VBFHto2Mu_M-125_TuneCP5_withDipoleRecoil_13p6TeV_powheg-pythia8/NANOAODSIM/130X_mcRun3_2022_realistic_postEE_v6-v3/50000/bc97c33a-5e3b-4585-9ccd-505223146ffa.root": [
        "T1_US_FNAL_Disk: davs://cmsdcadisk.fnal.gov:2880/dcache/uscmsdisk/store/mc/Run3Summer22EENanoAODv12/VBFHto2Mu_M-125_TuneCP5_withDipoleRecoil_13p6TeV_powheg-pythia8/NANOAODSIM/130X_mcRun3_2022_realistic_postEE_v6-v3/50000/bc97c33a-5e3b-4585-9ccd-505223146ffa.root",
        "T2_FR_IPHC: davs://sbgdcache.in2p3.fr:443/cms/phedex/store/mc/Run3Summer22EENanoAODv12/VBFHto2Mu_M-125_TuneCP5_withDipoleRecoil_13p6TeV_powheg-pythia8/NANOAODSIM/130X_mcRun3_2022_realistic_postEE_v6-v3/50000/bc97c33a-5e3b-4585-9ccd-505223146ffa.root",
        "T2_FR_GRIF: davs://eos.grif.fr:11000/eos/grif/cms/grif/store/mc/Run3Summer22EENanoAODv12/VBFHto2Mu_M-125_TuneCP5_withDipoleRecoil_13p6TeV_powheg-pythia8/NANOAODSIM/130X_mcRun3_2022_realistic_postEE_v6-v3/50000/bc97c33a-5e3b-4585-9ccd-505223146ffa.root",
        "T2_RU_IHEP: davs://dp0015.m45.ihep.su:2880/pnfs/m45.ihep.su/data/cms/store/mc/Run3Summer22EENanoAODv12/VBFHto2Mu_M-125_TuneCP5_withDipoleRecoil_13p6TeV_powheg-pythia8/NANOAODSIM/130X_mcRun3_2022_realistic_postEE_v6-v3/50000/bc97c33a-5e3b-4585-9ccd-505223146ffa.root",
        "T2_US_Wisconsin: davs://cmsxrootd.hep.wisc.edu:1094/store/mc/Run3Summer22EENanoAODv12/VBFHto2Mu_M-125_TuneCP5_withDipoleRecoil_13p6TeV_powheg-pythia8/NANOAODSIM/130X_mcRun3_2022_realistic_postEE_v6-v3/50000/bc97c33a-5e3b-4585-9ccd-505223146ffa.root",
        "T1_IT_CNAF_Tape: davs://xfer-cms.cr.cnaf.infn.it:8443/cmstape/store/mc/Run3Summer22EENanoAODv12/VBFHto2Mu_M-125_TuneCP5_withDipoleRecoil_13p6TeV_powheg-pythia8/NANOAODSIM/130X_mcRun3_2022_realistic_postEE_v6-v3/50000/bc97c33a-5e3b-4585-9ccd-505223146ffa.root",
        "T2_IT_Pisa: davs://stwebdav.pi.infn.it:8443/cms/store/mc/Run3Summer22EENanoAODv12/VBFHto2Mu_M-125_TuneCP5_withDipoleRecoil_13p6TeV_powheg-pythia8/NANOAODSIM/130X_mcRun3_2022_realistic_postEE_v6-v3/50000/bc97c33a-5e3b-4585-9ccd-505223146ffa.root"
    ],
    "cms:/store/mc/Run3Summer22EENanoAODv12/VBFHto2Mu_M-125_TuneCP5_withDipoleRecoil_13p6TeV_powheg-pythia8/NANOAODSIM/130X_mcRun3_2022_realistic_postEE_v6-v3/50000/55e0f227-2950-4f4a-9adc-87c357b4cff2.root": [
        "T1_US_FNAL_Disk: davs://cmsdcadisk.fnal.gov:2880/dcache/uscmsdisk/store/mc/Run3Summer22EENanoAODv12/VBFHto2Mu_M-125_TuneCP5_withDipoleRecoil_13p6TeV_powheg-pythia8/NANOAODSIM/130X_mcRun3_2022_realistic_postEE_v6-v3/50000/55e0f227-2950-4f4a-9adc-87c357b4cff2.root",
        "T2_FR_IPHC: davs://sbgdcache.in2p3.fr:443/cms/phedex/store/mc/Run3Summer22EENanoAODv12/VBFHto2Mu_M-125_TuneCP5_withDipoleRecoil_13p6TeV_powheg-pythia8/NANOAODSIM/130X_mcRun3_2022_realistic_postEE_v6-v3/50000/55e0f227-2950-4f4a-9adc-87c357b4cff2.root",
        "T2_FR_GRIF: davs://eos.grif.fr:11000/eos/grif/cms/grif/store/mc/Run3Summer22EENanoAODv12/VBFHto2Mu_M-125_TuneCP5_withDipoleRecoil_13p6TeV_powheg-pythia8/NANOAODSIM/130X_mcRun3_2022_realistic_postEE_v6-v3/50000/55e0f227-2950-4f4a-9adc-87c357b4cff2.root",
        "T2_RU_IHEP: davs://dp0015.m45.ihep.su:2880/pnfs/m45.ihep.su/data/cms/store/mc/Run3Summer22EENanoAODv12/VBFHto2Mu_M-125_TuneCP5_withDipoleRecoil_13p6TeV_powheg-pythia8/NANOAODSIM/130X_mcRun3_2022_realistic_postEE_v6-v3/50000/55e0f227-2950-4f4a-9adc-87c357b4cff2.root",
        "T2_US_Wisconsin: davs://cmsxrootd.hep.wisc.edu:1094/store/mc/Run3Summer22EENanoAODv12/VBFHto2Mu_M-125_TuneCP5_withDipoleRecoil_13p6TeV_powheg-pythia8/NANOAODSIM/130X_mcRun3_2022_realistic_postEE_v6-v3/50000/55e0f227-2950-4f4a-9adc-87c357b4cff2.root",
        "T1_IT_CNAF_Tape: davs://xfer-cms.cr.cnaf.infn.it:8443/cmstape/store/mc/Run3Summer22EENanoAODv12/VBFHto2Mu_M-125_TuneCP5_withDipoleRecoil_13p6TeV_powheg-pythia8/NANOAODSIM/130X_mcRun3_2022_realistic_postEE_v6-v3/50000/55e0f227-2950-4f4a-9adc-87c357b4cff2.root",
        "T2_IT_Pisa: davs://stwebdav.pi.infn.it:8443/cms/store/mc/Run3Summer22EENanoAODv12/VBFHto2Mu_M-125_TuneCP5_withDipoleRecoil_13p6TeV_powheg-pythia8/NANOAODSIM/130X_mcRun3_2022_realistic_postEE_v6-v3/50000/55e0f227-2950-4f4a-9adc-87c357b4cff2.root"
    ]
}