+--------------------------------------------------------------------------------------------------------------------------------------------------------------------------------------------------------------------------+--------+-------------+------------+----------+
| SCOPE:NAME                                                                                                                                                                                                               | GUID   | ADLER32     | FILESIZE   | EVENTS   |
|--------------------------------------------------------------------------------------------------------------------------------------------------------------------------------------------------------------------------+--------+-------------+------------+----------|
| cms:/store/mc/Run3Summer22EENanoAODv12/WminusH_Hto2Zto4L_M-125_TuneCP5_13p6TeV_powheg2-minlo-HWJ-JHUGenV752-pythia8/NANOAODSIM/130X_mcRun3_2022_realistic_postEE_v6-v2/50000/b7e10997-f6be-4999-9640-760e131bcb0a.root   | (None) | ad:630f9d5e | 10.127 MB  |          |
| cms:/store/mc/Run3Summer22EENanoAODv12/WminusH_Hto2Zto4L_M-125_TuneCP5_13p6TeV_powheg2-minlo-HWJ-JHUGenV752-pythia8/NANOAODSIM/130X_mcRun3_2022_realistic_postEE_v6-v2/50000/f8bd3d84-7e99-488f-bcc9-9c11d22d07b9.root   | (None) | ad:f2bb6984 | 77.943 MB  |          |
| cms:/store/mc/Run3Summer22EENanoAODv12/WminusH_Hto2Zto4L_M-125_TuneCP5_13p6TeV_powheg2-minlo-HWJ-JHUGenV752-pythia8/NANOAODSIM/130X_mcRun3_2022_realistic_postEE_v6-v2/50000/a136aa51-f0ea-4ffe-a8da-d9b97c67641b.root   | (None) | ad:7b62398e | 70.497 MB  |          |
| cms:/store/mc/Run3Summer22EENanoAODv12/WminusH_Hto2Zto4L_M-125_TuneCP5_13p6TeV_powheg2-minlo-HWJ-JHUGenV752-pythia8/NANOAODSIM/130X_mcRun3_2022_realistic_postEE_v6-v2/50000/270d0b77-c94d-4b72-9aff-4f0faeb81244.root   | (None) | ad:d2f171db | 69.513 MB  |          |
| cms:/store/mc/Run3Summer22EENanoAODv12/WminusH_Hto2Zto4L_M-125_TuneCP5_13p6TeV_powheg2-minlo-HWJ-JHUGenV752-pythia8/NANOAODSIM/130X_mcRun3_2022_realistic_postEE_v6-v2/50000/cfb04d3f-6216-4502-8769-341fdd4279f3.root   | (None) | ad:72f10b6a | 377.625 MB |          |
| cms:/store/mc/Run3Summer22EENanoAODv12/WminusH_Hto2Zto4L_M-125_TuneCP5_13p6TeV_powheg2-minlo-HWJ-JHUGenV752-pythia8/NANOAODSIM/130X_mcRun3_2022_realistic_postEE_v6-v2/50000/8029cf3b-63e7-4784-bd97-24340e798816.root   | (None) | ad:efb8ea7a | 76.702 MB  |          |
| cms:/store/mc/Run3Summer22EENanoAODv12/WminusH_Hto2Zto4L_M-125_TuneCP5_13p6TeV_powheg2-minlo-HWJ-JHUGenV752-pythia8/NANOAODSIM/130X_mcRun3_2022_realistic_postEE_v6-v2/2520000/0fd70b2d-c96e-4403-9e71-1274b69348c5.root | (None) | ad:27b55509 | 21.699 MB  |          |
| cms:/store/mc/Run3Summer22EENanoAODv12/WminusH_Hto2Zto4L_M-125_TuneCP5_13p6TeV_powheg2-minlo-HWJ-JHUGenV752-pythia8/NANOAODSIM/130X_mcRun3_2022_realistic_postEE_v6-v2/50000/d418759f-4b00-4dd0-9d2a-f9a14737a782.root   | (None) | ad:a4ee75a6 | 8.754 MB   |          |
| cms:/store/mc/Run3Summer22EENanoAODv12/WminusH_Hto2Zto4L_M-125_TuneCP5_13p6TeV_powheg2-minlo-HWJ-JHUGenV752-pythia8/NANOAODSIM/130X_mcRun3_2022_realistic_postEE_v6-v2/2530000/c70f639f-ae76-427d-8a7c-4e3d1438ba7b.root | (None) | ad:803bf807 | 404.362 MB |          |
| cms:/store/mc/Run3Summer22EENanoAODv12/WminusH_Hto2Zto4L_M-125_TuneCP5_13p6TeV_powheg2-minlo-HWJ-JHUGenV752-pythia8/NANOAODSIM/130X_mcRun3_2022_realistic_postEE_v6-v2/30000/d1c8d663-f1fd-44fb-a032-91d91be546e6.root   | (None) | ad:c92af795 | 76.539 MB  |          |
| cms:/store/mc/Run3Summer22EENanoAODv12/WminusH_Hto2Zto4L_M-125_TuneCP5_13p6TeV_powheg2-minlo-HWJ-JHUGenV752-pythia8/NANOAODSIM/130X_mcRun3_2022_realistic_postEE_v6-v2/30000/1c660291-1e78-4f19-86e1-4e50b576d2d5.root   | (None) | ad:4869fe46 | 268.760 MB |          |
| cms:/store/mc/Run3Summer22EENanoAODv12/WminusH_Hto2Zto4L_M-125_TuneCP5_13p6TeV_powheg2-minlo-HWJ-JHUGenV752-pythia8/NANOAODSIM/130X_mcRun3_2022_realistic_postEE_v6-v2/50000/b26f0f50-2902-4963-a772-e373e11c3011.root   | (None) | ad:8a32cdbb | 4.273 MB   |          |
| cms:/store/mc/Run3Summer22EENanoAODv12/WminusH_Hto2Zto4L_M-125_TuneCP5_13p6TeV_powheg2-minlo-HWJ-JHUGenV752-pythia8/NANOAODSIM/130X_mcRun3_2022_realistic_postEE_v6-v2/50000/61328908-97b4-4e5c-aa66-2be4712079ae.root   | (None) | ad:ae30ec54 | 343.408 MB |          |
| cms:/store/mc/Run3Summer22EENanoAODv12/WminusH_Hto2Zto4L_M-125_TuneCP5_13p6TeV_powheg2-minlo-HWJ-JHUGenV752-pythia8/NANOAODSIM/130X_mcRun3_2022_realistic_postEE_v6-v2/50000/76ed9bfe-b4c4-42fc-9645-53c70b98e67b.root   | (None) | ad:4bb90901 | 32.832 MB  |          |
| cms:/store/mc/Run3Summer22EENanoAODv12/WminusH_Hto2Zto4L_M-125_TuneCP5_13p6TeV_powheg2-minlo-HWJ-JHUGenV752-pythia8/NANOAODSIM/130X_mcRun3_2022_realistic_postEE_v6-v2/50000/c2e70c1a-ee04-47a4-a596-50f8b5c1d183.root   | (None) | ad:d28f68ea | 42.566 MB  |          |
| cms:/store/mc/Run3Summer22EENanoAODv12/WminusH_Hto2Zto4L_M-125_TuneCP5_13p6TeV_powheg2-minlo-HWJ-JHUGenV752-pythia8/NANOAODSIM/130X_mcRun3_2022_realistic_postEE_v6-v2/40000/15711bc0-89fc-47d1-a6ad-59d4743dd2dc.root   | (None) | ad:615ea727 | 10.080 MB  |          |
| cms:/store/mc/Run3Summer22EENanoAODv12/WminusH_Hto2Zto4L_M-125_TuneCP5_13p6TeV_powheg2-minlo-HWJ-JHUGenV752-pythia8/NANOAODSIM/130X_mcRun3_2022_realistic_postEE_v6-v2/2540000/314b1a3c-837b-40f3-989d-0ef61a551d7a.root | (None) | ad:52d7ea2a | 10.056 MB  |          |
| cms:/store/mc/Run3Summer22EENanoAODv12/WminusH_Hto2Zto4L_M-125_TuneCP5_13p6TeV_powheg2-minlo-HWJ-JHUGenV752-pythia8/NANOAODSIM/130X_mcRun3_2022_realistic_postEE_v6-v2/30000/e1d767cd-d43a-4048-bc8d-96d74f48f8d8.root   | (None) | ad:aa67816c | 64.096 MB  |          |
| cms:/store/mc/Run3Summer22EENanoAODv12/WminusH_Hto2Zto4L_M-125_TuneCP5_13p6TeV_powheg2-minlo-HWJ-JHUGenV752-pythia8/NANOAODSIM/130X_mcRun3_2022_realistic_postEE_v6-v2/50000/5f9c08d0-dc41-4b43-aa59-9ae443d650cb.root   | (None) | ad:60b0a87c | 13.148 MB  |          |
| cms:/store/mc/Run3Summer22EENanoAODv12/WminusH_Hto2Zto4L_M-125_TuneCP5_13p6TeV_powheg2-minlo-HWJ-JHUGenV752-pythia8/NANOAODSIM/130X_mcRun3_2022_realistic_postEE_v6-v2/40000/9547f5b1-4b50-4fbe-ae6a-720db8d10e9e.root   | (None) | ad:5fd0d70c | 151.594 MB |          |
| cms:/store/mc/Run3Summer22EENanoAODv12/WminusH_Hto2Zto4L_M-125_TuneCP5_13p6TeV_powheg2-minlo-HWJ-JHUGenV752-pythia8/NANOAODSIM/130X_mcRun3_2022_realistic_postEE_v6-v2/50000/851f85b1-73b4-4be9-8e7e-a78bc7bbcba0.root   | (None) | ad:ffc9b97a | 436.773 MB |          |
| cms:/store/mc/Run3Summer22EENanoAODv12/WminusH_Hto2Zto4L_M-125_TuneCP5_13p6TeV_powheg2-minlo-HWJ-JHUGenV752-pythia8/NANOAODSIM/130X_mcRun3_2022_realistic_postEE_v6-v2/50000/fdb18997-330b-4814-8576-708144d3197d.root   | (None) | ad:d87c50b0 | 44.030 MB  |          |
| cms:/store/mc/Run3Summer22EENanoAODv12/WminusH_Hto2Zto4L_M-125_TuneCP5_13p6TeV_powheg2-minlo-HWJ-JHUGenV752-pythia8/NANOAODSIM/130X_mcRun3_2022_realistic_postEE_v6-v2/2520000/3c2ed1b5-1944-48c7-9d51-6bbc1c95e210.root | (None) | ad:a7a8cc11 | 11.411 MB  |          |
| cms:/store/mc/Run3Summer22EENanoAODv12/WminusH_Hto2Zto4L_M-125_TuneCP5_13p6TeV_powheg2-minlo-HWJ-JHUGenV752-pythia8/NANOAODSIM/130X_mcRun3_2022_realistic_postEE_v6-v2/2520000/c2da3d54-f08a-4b45-8816-dbb3efb773c4.root | (None) | ad:9018d2fe | 8.759 MB   |          |
| cms:/store/mc/Run3Summer22EENanoAODv12/WminusH_Hto2Zto4L_M-125_TuneCP5_13p6TeV_powheg2-minlo-HWJ-JHUGenV752-pythia8/NANOAODSIM/130X_mcRun3_2022_realistic_postEE_v6-v2/2540000/a954782b-f3e8-4f83-83d3-0ae9957ad7eb.root | (None) | ad:8d1dc67c | 15.910 MB  |          |
| cms:/store/mc/Run3Summer22EENanoAODv12/WminusH_Hto2Zto4L_M-125_TuneCP5_13p6TeV_powheg2-minlo-HWJ-JHUGenV752-pythia8/NANOAODSIM/130X_mcRun3_2022_realistic_postEE_v6-v2/30000/392856c1-1c15-44fd-9651-3269126ea650.root   | (None) | ad:db500f98 | 14.591 MB  |          |
| cms:/store/mc/Run3Summer22EENanoAODv12/WminusH_Hto2Zto4L_M-125_TuneCP5_13p6TeV_powheg2-minlo-HWJ-JHUGenV752-pythia8/NANOAODSIM/130X_mcRun3_2022_realistic_postEE_v6-v2/40000/670d5be0-3481-4048-b7da-566e081c9521.root   | (None) | ad:d161b744 | 7.386 MB   |          |
| cms:/store/mc/Run3Summer22EENanoAODv12/WminusH_Hto2Zto4L_M-125_TuneCP5_13p6TeV_powheg2-minlo-HWJ-JHUGenV752-pythia8/NANOAODSIM/130X_mcRun3_2022_realistic_postEE_v6-v2/50000/64d90713-77b1-46bb-9f59-9ef3f735c9fb.root   | (None) | ad:4382876b | 77.835 MB  |          |
| cms:/store/mc/Run3Summer22EENanoAODv12/WminusH_Hto2Zto4L_M-125_TuneCP5_13p6TeV_powheg2-minlo-HWJ-JHUGenV752-pythia8/NANOAODSIM/130X_mcRun3_2022_realistic_postEE_v6-v2/50000/803196c5-f9a6-4f0a-a6dc-81ca51677639.root   | (None) | ad:be920421 | 75.098 MB  |          |
| cms:/store/mc/Run3Summer22EENanoAODv12/WminusH_Hto2Zto4L_M-125_TuneCP5_13p6TeV_powheg2-minlo-HWJ-JHUGenV752-pythia8/NANOAODSIM/130X_mcRun3_2022_realistic_postEE_v6-v2/40000/edb17331-25cd-4d1e-bf46-19f72962c1c1.root   | (None) | ad:769689c4 | 40.033 MB  |          |
| cms:/store/mc/Run3Summer22EENanoAODv12/WminusH_Hto2Zto4L_M-125_TuneCP5_13p6TeV_powheg2-minlo-HWJ-JHUGenV752-pythia8/NANOAODSIM/130X_mcRun3_2022_realistic_postEE_v6-v2/50000/3286752a-a6d4-4a56-80c3-19abcb202989.root   | (None) | ad:0ca72d84 | 53.883 MB  |          |
| cms:/store/mc/Run3Summer22EENanoAODv12/WminusH_Hto2Zto4L_M-125_TuneCP5_13p6TeV_powheg2-minlo-HWJ-JHUGenV752-pythia8/NANOAODSIM/130X_mcRun3_2022_realistic_postEE_v6-v2/2540000/c1098145-2c86-4a11-b495-a62595d4055d.root | (None) | ad:6ab0ddb0 | 55.545 MB  |          |
| cms:/store/mc/Run3Summer22EENanoAODv12/WminusH_Hto2Zto4L_M-125_TuneCP5_13p6TeV_powheg2-minlo-HWJ-JHUGenV752-pythia8/NANOAODSIM/130X_mcRun3_2022_realistic_postEE_v6-v2/2540000/cbfe4100-63ba-4a11-b050-174ade5b9f95.root | (None) | ad:3739a925 | 52.505 MB  |          |
| cms:/store/mc/Run3Summer22EENanoAODv12/WminusH_Hto2Zto4L_M-125_TuneCP5_13p6TeV_powheg2-minlo-HWJ-JHUGenV752-pythia8/NANOAODSIM/130X_mcRun3_2022_realistic_postEE_v6-v2/2540000/53fd0467-f1ca-45cd-8ad8-30d58f736d65.root | (None) | ad:ddaf936b | 47.077 MB  |          |
| cms:/store/mc/Run3Summer22EENanoAODv12/WminusH_Hto2Zto4L_M-125_TuneCP5_13p6TeV_powheg2-minlo-HWJ-JHUGenV752-pythia8/NANOAODSIM/130X_mcRun3_2022_realistic_postEE_v6-v2/50000/57a3f6dd-455a-44c2-bc03-b1f5fc1bfbf0.root   | (None) | ad:b84fe038 | 145.750 MB |          |
| cms:/store/mc/Run3Summer22EENanoAODv12/WminusH_Hto2Zto4L_M-125_TuneCP5_13p6TeV_powheg2-minlo-HWJ-JHUGenV752-pythia8/NANOAODSIM/130X_mcRun3_2022_realistic_postEE_v6-v2/2530000/23ef3153-4dbc-42c1-935e-846cec0f676d.root | (None) | ad:1fb7d5c2 | 210.799 MB |          |
| cms:/store/mc/Run3Summer22EENanoAODv12/WminusH_Hto2Zto4L_M-125_TuneCP5_13p6TeV_powheg2-minlo-HWJ-JHUGenV752-pythia8/NANOAODSIM/130X_mcRun3_2022_realistic_postEE_v6-v2/2520000/aa36fa73-e666-4a2a-a381-3b447def8236.root | (None) | ad:59673f74 | 91.000 MB  |          |
| cms:/store/mc/Run3Summer22EENanoAODv12/WminusH_Hto2Zto4L_M-125_TuneCP5_13p6TeV_powheg2-minlo-HWJ-JHUGenV752-pythia8/NANOAODSIM/130X_mcRun3_2022_realistic_postEE_v6-v2/2520000/ab136b83-54c1-4e20-89aa-9ec6382247ca.root | (None) | ad:c07e07ad | 62.267 MB  |          |
| cms:/store/mc/Run3Summer22EENanoAODv12/WminusH_Hto2Zto4L_M-125_TuneCP5_13p6TeV_powheg2-minlo-HWJ-JHUGenV752-pythia8/NANOAODSIM/130X_mcRun3_2022_realistic_postEE_v6-v2/50000/bae9a55d-9197-42b5-93fe-2efab0d78662.root   | (None) | ad:80ef62ff | 45.270 MB  |          |
| cms:/store/mc/Run3Summer22EENanoAODv12/WminusH_Hto2Zto4L_M-125_TuneCP5_13p6TeV_powheg2-minlo-HWJ-JHUGenV752-pythia8/NANOAODSIM/130X_mcRun3_2022_realistic_postEE_v6-v2/30000/64efc161-1248-4443-91f9-cfa53b5c13ca.root   | (None) | ad:b4d0090d | 6.034 MB   |          |
| cms:/store/mc/Run3Summer22EENanoAODv12/WminusH_Hto2Zto4L_M-125_TuneCP5_13p6TeV_powheg2-minlo-HWJ-JHUGenV752-pythia8/NANOAODSIM/130X_mcRun3_2022_realistic_postEE_v6-v2/30000/a50c93e7-1deb-49e8-bf76-3e5f3fdedf78.root   | (None) | ad:e60a0b0b | 331.584 MB |          |
| cms:/store/mc/Run3Summer22EENanoAODv12/WminusH_Hto2Zto4L_M-125_TuneCP5_13p6TeV_powheg2-minlo-HWJ-JHUGenV752-pythia8/NANOAODSIM/130X_mcRun3_2022_realistic_postEE_v6-v2/50000/3d3e11fc-84e5-4370-8c26-ad1668df3094.root   | (None) | ad:ba901021 | 41.402 MB  |          |
+--------------------------------------------------------------------------------------------------------------------------------------------------------------------------------------------------------------------------+--------+-------------+------------+----------+
Total files : 42
Total size : 4.010 GB
