{
    "cms:/store/mc/Run3Summer23NanoAODv12/WminusH_Hto2Mu_WtoAll_M-125_TuneCP5_13p6TeV_powheg-minlo-pythia8/NANOAODSIM/130X_mcRun3_2023_realistic_v15-v2/120000/6e013f62-f6c8-4505-b13c-4ac00cd8cdfa.root": [
        "T1_US_FNAL_Disk: davs://cmsdcadisk.fnal.gov:2880/dcache/uscmsdisk/store/mc/Run3Summer23NanoAODv12/WminusH_Hto2Mu_WtoAll_M-125_TuneCP5_13p6TeV_powheg-minlo-pythia8/NANOAODSIM/130X_mcRun3_2023_realistic_v15-v2/120000/6e013f62-f6c8-4505-b13c-4ac00cd8cdfa.root",
        "T2_DE_DESY: davs://dcache-cms-webdav-wan.desy.de:2880/pnfs/desy.de/cms/tier2/store/mc/Run3Summer23NanoAODv12/WminusH_Hto2Mu_WtoAll_M-125_TuneCP5_13p6TeV_powheg-minlo-pythia8/NANOAODSIM/130X_mcRun3_2023_realistic_v15-v2/120000/6e013f62-f6c8-4505-b13c-4ac00cd8cdfa.root",
        "T2_IT_Legnaro: davs://t2-xrdcms.lnl.infn.it:2880/pnfs/lnl.infn.it/data/cms/store/mc/Run3Summer23NanoAODv12/WminusH_Hto2Mu_WtoAll_M-125_TuneCP5_13p6TeV_powheg-minlo-pythia8/NANOAODSIM/130X_mcRun3_2023_realistic_v15-v2/120000/6e013f62-f6c8-4505-b13c-4ac00cd8cdfa.root",
        "T2_US_Wisconsin: davs://cmsxrootd.hep.wisc.edu:1094/store/mc/Run3Summer23NanoAODv12/WminusH_Hto2Mu_WtoAll_M-125_TuneCP5_13p6TeV_powheg-minlo-pythia8/NANOAODSIM/130X_mcRun3_2023_realistic_v15-v2/120000/6e013f62-f6c8-4505-b13c-4ac00cd8cdfa.root",
        "T2_US_Florida: davs://cmsio2.rc.ufl.edu:1094/store/mc/Run3Summer23NanoAODv12/WminusH_Hto2Mu_WtoAll_M-125_TuneCP5_13p6TeV_powheg-minlo-pythia8/NANOAODSIM/130X_mcRun3_2023_realistic_v15-v2/120000/6e013f62-f6c8-4505-b13c-4ac00cd8cdfa.root",
        "T2_IT_Pisa: davs://stwebdav.pi.infn.it:8443/cms/store/mc/Run3Summer23NanoAODv12/WminusH_Hto2Mu_WtoAll_M-125_TuneCP5_13p6TeV_powheg-minlo-pythia8/NANOAODSIM/130X_mcRun3_2023_realistic_v15-v2/120000/6e013f62-f6c8-4505-b13c-4ac00cd8cdfa.root",
        "T1_RU_JINR_Disk: davs://se-wbdv.jinr-t1.ru:2880/pnfs/jinr-t1.ru/data/cms/store/mc/Run3Summer23NanoAODv12/WminusH_Hto2Mu_WtoAll_M-125_TuneCP5_13p6TeV_powheg-minlo-pythia8/NANOAODSIM/130X_mcRun3_2023_realistic_v15-v2/120000/6e013f62-f6c8-4505-b13c-4ac00cd8cdfa.root",
        "T2_UK_London_IC: davs://gfe02.grid.hep.ph.ic.ac.uk:2880/pnfs/hep.ph.ic.ac.uk/data/cms/store/mc/Run3Summer23NanoAODv12/WminusH_Hto2Mu_WtoAll_M-125_TuneCP5_13p6TeV_powheg-minlo-pythia8/NANOAODSIM/130X_mcRun3_2023_realistic_v15-v2/120000/6e013f62-f6c8-4505-b13c-4ac00cd8cdfa.root"
    ],
    "cms:/store/mc/Run3Summer23NanoAODv12/WminusH_Hto2Mu_WtoAll_M-125_TuneCP5_13p6TeV_powheg-minlo-pythia8/NANOAODSIM/130X_mcRun3_2023_realistic_v15-v2/2820000/8e77cdc5-d241-4c64-9cb5-6f1500c3e9ff.root": [
        "T2_DE_DESY: davs://dcache-cms-webdav-wan.desy.de:2880/pnfs/desy.de/cms/tier2/store/mc/Run3Summer23NanoAODv12/WminusH_Hto2Mu_WtoAll_M-125_TuneCP5_13p6TeV_powheg-minlo-pythia8/NANOAODSIM/130X_mcRun3_2023_realistic_v15-v2/2820000/8e77cdc5-d241-4c64-9cb5-6f1500c3e9ff.root",
        "T1_UK_RAL_Disk: davs://rdr.echo.stfc.ac.uk:1094/store/mc/Run3Summer23NanoAODv12/WminusH_Hto2Mu_WtoAll_M-125_TuneCP5_13p6TeV_powheg-minlo-pythia8/NANOAODSIM/130X_mcRun3_2023_realistic_v15-v2/2820000/8e77cdc5-d241-4c64-9cb5-6f1500c3e9ff.root",
        "T2_KR_KISTI: davs://cms-t2-se01.sdfarm.kr:2880/store/mc/Run3Summer23NanoAODv12/WminusH_Hto2Mu_WtoAll_M-125_TuneCP5_13p6TeV_powheg-minlo-pythia8/NANOAODSIM/130X_mcRun3_2023_realistic_v15-v2/2820000/8e77cdc5-d241-4c64-9cb5-6f1500c3e9ff.root",
        "T2_US_Wisconsin: davs://cmsxrootd.hep.wisc.edu:1094/store/mc/Run3Summer23NanoAODv12/WminusH_Hto2Mu_WtoAll_M-125_TuneCP5_13p6TeV_powheg-minlo-pythia8/NANOAODSIM/130X_mcRun3_2023_realistic_v15-v2/2820000/8e77cdc5-d241-4c64-9cb5-6f1500c3e9ff.root",
        "T2_US_Florida: davs://cmsio2.rc.ufl.edu:1094/store/mc/Run3Summer23NanoAODv12/WminusH_Hto2Mu_WtoAll_M-125_TuneCP5_13p6TeV_powheg-minlo-pythia8/NANOAODSIM/130X_mcRun3_2023_realistic_v15-v2/2820000/8e77cdc5-d241-4c64-9cb5-6f1500c3e9ff.root",
        "T2_IT_Pisa: davs://stwebdav.pi.infn.it:8443/cms/store/mc/Run3Summer23NanoAODv12/WminusH_Hto2Mu_WtoAll_M-125_TuneCP5_13p6TeV_powheg-minlo-pythia8/NANOAODSIM/130X_mcRun3_2023_realistic_v15-v2/2820000/8e77cdc5-d241-4c64-9cb5-6f1500c3e9ff.root",
        "T1_RU_JINR_Disk: davs://se-wbdv.jinr-t1.ru:2880/pnfs/jinr-t1.ru/data/cms/store/mc/Run3Summer23NanoAODv12/WminusH_Hto2Mu_WtoAll_M-125_TuneCP5_13p6TeV_powheg-minlo-pythia8/NANOAODSIM/130X_mcRun3_2023_realistic_v15-v2/2820000/8e77cdc5-d241-4c64-9cb5-6f1500c3e9ff.root",
        "T2_UK_London_IC: davs://gfe02.grid.hep.ph.ic.ac.uk:2880/pnfs/hep.ph.ic.ac.uk/data/cms/store/mc/Run3Summer23NanoAODv12/WminusH_Hto2Mu_WtoAll_M-125_TuneCP5_13p6TeV_powheg-minlo-pythia8/NANOAODSIM/130X_mcRun3_2023_realistic_v15-v2/2820000/8e77cdc5-d241-4c64-9cb5-6f1500c3e9ff.root"
    ],
    "cms:/store/mc/Run3Summer23NanoAODv12/WminusH_Hto2Mu_WtoAll_M-125_TuneCP5_13p6TeV_powheg-minlo-pythia8/NANOAODSIM/130X_mcRun3_2023_realistic_v15-v2/2820000/42436cc1-8121-48d6-8d13-ff7b8f3a4129.root": [
        "T2_DE_DESY: davs://dcache-cms-webdav-wan.desy.de:2880/pnfs/desy.de/cms/tier2/store/mc/Run3Summer23NanoAODv12/WminusH_Hto2Mu_WtoAll_M-125_TuneCP5_13p6TeV_powheg-minlo-pythia8/NANOAODSIM/130X_mcRun3_2023_realistic_v15-v2/2820000/42436cc1-8121-48d6-8d13-ff7b8f3a4129.root",
        "T2_US_MIT: davs://xrootd.cmsaf.mit.edu:1094/store/mc/Run3Summer23NanoAODv12/WminusH_Hto2Mu_WtoAll_M-125_TuneCP5_13p6TeV_powheg-minlo-pythia8/NANOAODSIM/130X_mcRun3_2023_realistic_v15-v2/2820000/42436cc1-8121-48d6-8d13-ff7b8f3a4129.root",
        "T2_US_UCSD: davs://redirector.t2.ucsd.edu:1095/store/mc/Run3Summer23NanoAODv12/WminusH_Hto2Mu_WtoAll_M-125_TuneCP5_13p6TeV_powheg-minlo-pythia8/NANOAODSIM/130X_mcRun3_2023_realistic_v15-v2/2820000/42436cc1-8121-48d6-8d13-ff7b8f3a4129.root",
        "T2_US_Wisconsin: davs://cmsxrootd.hep.wisc.edu:1094/store/mc/Run3Summer23NanoAODv12/WminusH_Hto2Mu_WtoAll_M-125_TuneCP5_13p6TeV_powheg-minlo-pythia8/NANOAODSIM/130X_mcRun3_2023_realistic_v15-v2/2820000/42436cc1-8121-48d6-8d13-ff7b8f3a4129.root",
        "T2_US_Florida: davs://cmsio2.rc.ufl.edu:1094/store/mc/Run3Summer23NanoAODv12/WminusH_Hto2Mu_WtoAll_M-125_TuneCP5_13p6TeV_powheg-minlo-pythia8/NANOAODSIM/130X_mcRun3_2023_realistic_v15-v2/2820000/42436cc1-8121-48d6-8d13-ff7b8f3a4129.root",
        "T2_IT_Pisa: davs://stwebdav.pi.infn.it:8443/cms/store/mc/Run3Summer23NanoAODv12/WminusH_Hto2Mu_WtoAll_M-125_TuneCP5_13p6TeV_powheg-minlo-pythia8/NANOAODSIM/130X_mcRun3_2023_realistic_v15-v2/2820000/42436cc1-8121-48d6-8d13-ff7b8f3a4129.root",
        "T1_RU_JINR_Disk: davs://se-wbdv.jinr-t1.ru:2880/pnfs/jinr-t1.ru/data/cms/store/mc/Run3Summer23NanoAODv12/WminusH_Hto2Mu_WtoAll_M-125_TuneCP5_13p6TeV_powheg-minlo-pythia8/NANOAODSIM/130X_mcRun3_2023_realistic_v15-v2/2820000/42436cc1-8121-48d6-8d13-ff7b8f3a4129.root",
        "T2_UK_London_IC: davs://gfe02.grid.hep.ph.ic.ac.uk:2880/pnfs/hep.ph.ic.ac.uk/data/cms/store/mc/Run3Summer23NanoAODv12/WminusH_Hto2Mu_WtoAll_M-125_TuneCP5_13p6TeV_powheg-minlo-pythia8/NANOAODSIM/130X_mcRun3_2023_realistic_v15-v2/2820000/42436cc1-8121-48d6-8d13-ff7b8f3a4129.root"
    ],
    "cms:/store/mc/Run3Summer23NanoAODv12/WminusH_Hto2Mu_WtoAll_M-125_TuneCP5_13p6TeV_powheg-minlo-pythia8/NANOAODSIM/130X_mcRun3_2023_realistic_v15-v2/2820000/c55f0a6f-3b77-4f18-b99d-4b247af653cc.root": [
        "T2_DE_DESY: davs://dcache-cms-webdav-wan.desy.de:2880/pnfs/desy.de/cms/tier2/store/mc/Run3Summer23NanoAODv12/WminusH_Hto2Mu_WtoAll_M-125_TuneCP5_13p6TeV_powheg-minlo-pythia8/NANOAODSIM/130X_mcRun3_2023_realistic_v15-v2/2820000/c55f0a6f-3b77-4f18-b99d-4b247af653cc.root",
        "T1_ES_PIC_Disk: davs://webdav-cms.pic.es:8459/pnfs/pic.es/data/cms/disk/store/mc/Run3Summer23NanoAODv12/WminusH_Hto2Mu_WtoAll_M-125_TuneCP5_13p6TeV_powheg-minlo-pythia8/NANOAODSIM/130X_mcRun3_2023_realistic_v15-v2/2820000/c55f0a6f-3b77-4f18-b99d-4b247af653cc.root",
        "T2_US_Wisconsin: davs://cmsxrootd.hep.wisc.edu:1094/store/mc/Run3Summer23NanoAODv12/WminusH_Hto2Mu_WtoAll_M-125_TuneCP5_13p6TeV_powheg-minlo-pythia8/NANOAODSIM/130X_mcRun3_2023_realistic_v15-v2/2820000/c55f0a6f-3b77-4f18-b99d-4b247af653cc.root",
        "T2_US_Florida: davs://cmsio2.rc.ufl.edu:1094/store/mc/Run3Summer23NanoAODv12/WminusH_Hto2Mu_WtoAll_M-125_TuneCP5_13p6TeV_powheg-minlo-pythia8/NANOAODSIM/130X_mcRun3_2023_realistic_v15-v2/2820000/c55f0a6f-3b77-4f18-b99d-4b247af653cc.root",
        "T2_IT_Pisa: davs://stwebdav.pi.infn.it:8443/cms/store/mc/Run3Summer23NanoAODv12/WminusH_Hto2Mu_WtoAll_M-125_TuneCP5_13p6TeV_powheg-minlo-pythia8/NANOAODSIM/130X_mcRun3_2023_realistic_v15-v2/2820000/c55f0a6f-3b77-4f18-b99d-4b247af653cc.root",
        "T1_RU_JINR_Disk: davs://se-wbdv.jinr-t1.ru:2880/pnfs/jinr-t1.ru/data/cms/store/mc/Run3Summer23NanoAODv12/WminusH_Hto2Mu_WtoAll_M-125_TuneCP5_13p6TeV_powheg-minlo-pythia8/NANOAODSIM/130X_mcRun3_2023_realistic_v15-v2/2820000/c55f0a6f-3b77-4f18-b99d-4b247af653cc.root",
        "T2_ES_CIEMAT: davs://srm.ciemat.es:2880/pnfs/ciemat.es/data/cms/prod/store/mc/Run3Summer23NanoAODv12/WminusH_Hto2Mu_WtoAll_M-125_TuneCP5_13p6TeV_powheg-minlo-pythia8/NANOAODSIM/130X_mcRun3_2023_realistic_v15-v2/2820000/c55f0a6f-3b77-4f18-b99d-4b247af653cc.root",
        "T2_UK_London_IC: davs://gfe02.grid.hep.ph.ic.ac.uk:2880/pnfs/hep.ph.ic.ac.uk/data/cms/store/mc/Run3Summer23NanoAODv12/WminusH_Hto2Mu_WtoAll_M-125_TuneCP5_13p6TeV_powheg-minlo-pythia8/NANOAODSIM/130X_mcRun3_2023_realistic_v15-v2/2820000/c55f0a6f-3b77-4f18-b99d-4b247af653cc.root"
    ],
    "cms:/store/mc/Run3Summer23NanoAODv12/WminusH_Hto2Mu_WtoAll_M-125_TuneCP5_13p6TeV_powheg-minlo-pythia8/NANOAODSIM/130X_mcRun3_2023_realistic_v15-v2/2820000/21eb2352-645c-4d6a-9e1f-bf878fb5c08c.root": [
        "T2_DE_DESY: davs://dcache-cms-webdav-wan.desy.de:2880/pnfs/desy.de/cms/tier2/store/mc/Run3Summer23NanoAODv12/WminusH_Hto2Mu_WtoAll_M-125_TuneCP5_13p6TeV_powheg-minlo-pythia8/NANOAODSIM/130X_mcRun3_2023_realistic_v15-v2/2820000/21eb2352-645c-4d6a-9e1f-bf878fb5c08c.root",
        "T1_FR_CCIN2P3_Disk: davs://ccdavcms.in2p3.fr:2880/disk/data/store/mc/Run3Summer23NanoAODv12/WminusH_Hto2Mu_WtoAll_M-125_TuneCP5_13p6TeV_powheg-minlo-pythia8/NANOAODSIM/130X_mcRun3_2023_realistic_v15-v2/2820000/21eb2352-645c-4d6a-9e1f-bf878fb5c08c.root",
        "T2_US_Wisconsin: davs://cmsxrootd.hep.wisc.edu:1094/store/mc/Run3Summer23NanoAODv12/WminusH_Hto2Mu_WtoAll_M-125_TuneCP5_13p6TeV_powheg-minlo-pythia8/NANOAODSIM/130X_mcRun3_2023_realistic_v15-v2/2820000/21eb2352-645c-4d6a-9e1f-bf878fb5c08c.root",
        "T2_US_Florida: davs://cmsio2.rc.ufl.edu:1094/store/mc/Run3Summer23NanoAODv12/WminusH_Hto2Mu_WtoAll_M-125_TuneCP5_13p6TeV_powheg-minlo-pythia8/NANOAODSIM/130X_mcRun3_2023_realistic_v15-v2/2820000/21eb2352-645c-4d6a-9e1f-bf878fb5c08c.root",
        "T2_IT_Pisa: davs://stwebdav.pi.infn.it:8443/cms/store/mc/Run3Summer23NanoAODv12/WminusH_Hto2Mu_WtoAll_M-125_TuneCP5_13p6TeV_powheg-minlo-pythia8/NANOAODSIM/130X_mcRun3_2023_realistic_v15-v2/2820000/21eb2352-645c-4d6a-9e1f-bf878fb5c08c.root",
        "T2_US_Purdue: davs://eos.cms.rcac.purdue.edu:9000/store/mc/Run3Summer23NanoAODv12/WminusH_Hto2Mu_WtoAll_M-125_TuneCP5_13p6TeV_powheg-minlo-pythia8/NANOAODSIM/130X_mcRun3_2023_realistic_v15-v2/2820000/21eb2352-645c-4d6a-9e1f-bf878fb5c08c.root",
        "T1_RU_JINR_Disk: davs://se-wbdv.jinr-t1.ru:2880/pnfs/jinr-t1.ru/data/cms/store/mc/Run3Summer23NanoAODv12/WminusH_Hto2Mu_WtoAll_M-125_TuneCP5_13p6TeV_powheg-minlo-pythia8/NANOAODSIM/130X_mcRun3_2023_realistic_v15-v2/2820000/21eb2352-645c-4d6a-9e1f-bf878fb5c08c.root",
        "T2_UK_London_IC: davs://gfe02.grid.hep.ph.ic.ac.uk:2880/pnfs/hep.ph.ic.ac.uk/data/cms/store/mc/Run3Summer23NanoAODv12/WminusH_Hto2Mu_WtoAll_M-125_TuneCP5_13p6TeV_powheg-minlo-pythia8/NANOAODSIM/130X_mcRun3_2023_realistic_v15-v2/2820000/21eb2352-645c-4d6a-9e1f-bf878fb5c08c.root"
    ],
    "cms:/store/mc/Run3Summer23NanoAODv12/WminusH_Hto2Mu_WtoAll_M-125_TuneCP5_13p6TeV_powheg-minlo-pythia8/NANOAODSIM/130X_mcRun3_2023_realistic_v15-v2/2820000/0fffa456-8be6-4798-97ca-cd43ed777867.root": [
        "T1_US_FNAL_Disk: davs://cmsdcadisk.fnal.gov:2880/dcache/uscmsdisk/store/mc/Run3Summer23NanoAODv12/WminusH_Hto2Mu_WtoAll_M-125_TuneCP5_13p6TeV_powheg-minlo-pythia8/NANOAODSIM/130X_mcRun3_2023_realistic_v15-v2/2820000/0fffa456-8be6-4798-97ca-cd43ed777867.root",
        "T2_DE_DESY: davs://dcache-cms-webdav-wan.desy.de:2880/pnfs/desy.de/cms/tier2/store/mc/Run3Summer23NanoAODv12/WminusH_Hto2Mu_WtoAll_M-125_TuneCP5_13p6TeV_powheg-minlo-pythia8/NANOAODSIM/130X_mcRun3_2023_realistic_v15-v2/2820000/0fffa456-8be6-4798-97ca-cd43ed777867.root",
        "T2_PL_Swierk: davs://se.cis.gov.pl:2880/grid/cms/store/mc/Run3Summer23NanoAODv12/WminusH_Hto2Mu_WtoAll_M-125_TuneCP5_13p6TeV_powheg-minlo-pythia8/NANOAODSIM/130X_mcRun3_2023_realistic_v15-v2/2820000/0fffa456-8be6-4798-97ca-cd43ed777867.root",
        "T2_US_Wisconsin: davs://cmsxrootd.hep.wisc.edu:1094/store/mc/Run3Summer23NanoAODv12/WminusH_Hto2Mu_WtoAll_M-125_TuneCP5_13p6TeV_powheg-minlo-pythia8/NANOAODSIM/130X_mcRun3_2023_realistic_v15-v2/2820000/0fffa456-8be6-4798-97ca-cd43ed777867.root",
        "T2_US_Florida: davs://cmsio2.rc.ufl.edu:1094/store/mc/Run3Summer23NanoAODv12/WminusH_Hto2Mu_WtoAll_M-125_TuneCP5_13p6TeV_powheg-minlo-pythia8/NANOAODSIM/130X_mcRun3_2023_realistic_v15-v2/2820000/0fffa456-8be6-4798-97ca-cd43ed777867.root",
        "T2_IT_Pisa: davs://stwebdav.pi.infn.it:8443/cms/store/mc/Run3Summer23NanoAODv12/WminusH_Hto2Mu_WtoAll_M-125_TuneCP5_13p6TeV_powheg-minlo-pythia8/NANOAODSIM/130X_mcRun3_2023_realistic_v15-v2/2820000/0fffa456-8be6-4798-97ca-cd43ed777867.root",
        "T1_RU_JINR_Disk: davs://se-wbdv.jinr-t1.ru:2880/pnfs/jinr-t1.ru/data/cms/store/mc/Run3Summer23NanoAODv12/WminusH_Hto2Mu_WtoAll_M-125_TuneCP5_13p6TeV_powheg-minlo-pythia8/NANOAODSIM/130X_mcRun3_2023_realistic_v15-v2/2820000/0fffa456-8be6-4798-97ca-cd43ed777867.root",
        "T2_UK_London_IC: davs://gfe02.grid.hep.ph.ic.ac.uk:2880/pnfs/hep.ph.ic.ac.uk/data/cms/store/mc/Run3Summer23NanoAODv12/WminusH_Hto2Mu_WtoAll_M-125_TuneCP5_13p6TeV_powheg-minlo-pythia8/NANOAODSIM/130X_mcRun3_2023_realistic_v15-v2/2820000/0fffa456-8be6-4798-97ca-cd43ed777867.root"
    ],
    "cms:/store/mc/Run3Summer23NanoAODv12/WminusH_Hto2Mu_WtoAll_M-125_TuneCP5_13p6TeV_powheg-minlo-pythia8/NANOAODSIM/130X_mcRun3_2023_realistic_v15-v2/2820000/8981a49c-1cf2-4b04-95f8-2c0409e760db.root": [
        "T1_US_FNAL_Disk: davs://cmsdcadisk.fnal.gov:2880/dcache/uscmsdisk/store/mc/Run3Summer23NanoAODv12/WminusH_Hto2Mu_WtoAll_M-125_TuneCP5_13p6TeV_powheg-minlo-pythia8/NANOAODSIM/130X_mcRun3_2023_realistic_v15-v2/2820000/8981a49c-1cf2-4b04-95f8-2c0409e760db.root",
        "T2_DE_DESY: davs://dcache-cms-webdav-wan.desy.de:2880/pnfs/desy.de/cms/tier2/store/mc/Run3Summer23NanoAODv12/WminusH_Hto2Mu_WtoAll_M-125_TuneCP5_13p6TeV_powheg-minlo-pythia8/NANOAODSIM/130X_mcRun3_2023_realistic_v15-v2/2820000/8981a49c-1cf2-4b04-95f8-2c0409e760db.root",
        "T2_PL_Swierk: davs://se.cis.gov.pl:2880/grid/cms/store/mc/Run3Summer23NanoAODv12/WminusH_Hto2Mu_WtoAll_M-125_TuneCP5_13p6TeV_powheg-minlo-pythia8/NANOAODSIM/130X_mcRun3_2023_realistic_v15-v2/2820000/8981a49c-1cf2-4b04-95f8-2c0409e760db.root",
        "T2_US_Wisconsin: davs://cmsxrootd.hep.wisc.edu:1094/store/mc/Run3Summer23NanoAODv12/WminusH_Hto2Mu_WtoAll_M-125_TuneCP5_13p6TeV_powheg-minlo-pythia8/NANOAODSIM/130X_mcRun3_2023_realistic_v15-v2/2820000/8981a49c-1cf2-4b04-95f8-2c0409e760db.root",
        "T2_US_Florida: davs://cmsio2.rc.ufl.edu:1094/store/mc/Run3Summer23NanoAODv12/WminusH_Hto2Mu_WtoAll_M-125_TuneCP5_13p6TeV_powheg-minlo-pythia8/NANOAODSIM/130X_mcRun3_2023_realistic_v15-v2/2820000/8981a49c-1cf2-4b04-95f8-2c0409e760db.root",
        "T2_IT_Pisa: davs://stwebdav.pi.infn.it:8443/cms/store/mc/Run3Summer23NanoAODv12/WminusH_Hto2Mu_WtoAll_M-125_TuneCP5_13p6TeV_powheg-minlo-pythia8/NANOAODSIM/130X_mcRun3_2023_realistic_v15-v2/2820000/8981a49c-1cf2-4b04-95f8-2c0409e760db.root",
        "T1_RU_JINR_Disk: davs://se-wbdv.jinr-t1.ru:2880/pnfs/jinr-t1.ru/data/cms/store/mc/Run3Summer23NanoAODv12/WminusH_Hto2Mu_WtoAll_M-125_TuneCP5_13p6TeV_powheg-minlo-pythia8/NANOAODSIM/130X_mcRun3_2023_realistic_v15-v2/2820000/8981a49c-1cf2-4b04-95f8-2c0409e760db.root",
        "T2_UK_London_IC: davs://gfe02.grid.hep.ph.ic.ac.uk:2880/pnfs/hep.ph.ic.ac.uk/data/cms/store/mc/Run3Summer23NanoAODv12/WminusH_Hto2Mu_WtoAll_M-125_TuneCP5_13p6TeV_powheg-minlo-pythia8/NANOAODSIM/130X_mcRun3_2023_realistic_v15-v2/2820000/8981a49c-1cf2-4b04-95f8-2c0409e760db.root"
    ],
    "cms:/store/mc/Run3Summer23NanoAODv12/WminusH_Hto2Mu_WtoAll_M-125_TuneCP5_13p6TeV_powheg-minlo-pythia8/NANOAODSIM/130X_mcRun3_2023_realistic_v15-v2/2820000/356aae97-ca68-4dda-a35a-20d725a0dec4.root": [
        "T2_DE_DESY: davs://dcache-cms-webdav-wan.desy.de:2880/pnfs/desy.de/cms/tier2/store/mc/Run3Summer23NanoAODv12/WminusH_Hto2Mu_WtoAll_M-125_TuneCP5_13p6TeV_powheg-minlo-pythia8/NANOAODSIM/130X_mcRun3_2023_realistic_v15-v2/2820000/356aae97-ca68-4dda-a35a-20d725a0dec4.root",
        "T2_KR_KISTI: davs://cms-t2-se01.sdfarm.kr:2880/store/mc/Run3Summer23NanoAODv12/WminusH_Hto2Mu_WtoAll_M-125_TuneCP5_13p6TeV_powheg-minlo-pythia8/NANOAODSIM/130X_mcRun3_2023_realistic_v15-v2/2820000/356aae97-ca68-4dda-a35a-20d725a0dec4.root",
        "T2_US_Wisconsin: davs://cmsxrootd.hep.wisc.edu:1094/store/mc/Run3Summer23NanoAODv12/WminusH_Hto2Mu_WtoAll_M-125_TuneCP5_13p6TeV_powheg-minlo-pythia8/NANOAODSIM/130X_mcRun3_2023_realistic_v15-v2/2820000/356aae97-ca68-4dda-a35a-20d725a0dec4.root",
        "T2_US_Florida: davs://cmsio2.rc.ufl.edu:1094/store/mc/Run3Summer23NanoAODv12/WminusH_Hto2Mu_WtoAll_M-125_TuneCP5_13p6TeV_powheg-minlo-pythia8/NANOAODSIM/130X_mcRun3_2023_realistic_v15-v2/2820000/356aae97-ca68-4dda-a35a-20d725a0dec4.root",
        "T2_IT_Pisa: davs://stwebdav.pi.infn.it:8443/cms/store/mc/Run3Summer23NanoAODv12/WminusH_Hto2Mu_WtoAll_M-125_TuneCP5_13p6TeV_powheg-minlo-pythia8/NANOAODSIM/130X_mcRun3_2023_realistic_v15-v2/2820000/356aae97-ca68-4dda-a35a-20d725a0dec4.root",
        "T1_RU_JINR_Disk: davs://se-wbdv.jinr-t1.ru:2880/pnfs/jinr-t1.ru/data/cms/store/mc/Run3Summer23NanoAODv12/WminusH_Hto2Mu_WtoAll_M-125_TuneCP5_13p6TeV_powheg-minlo-pythia8/NANOAODSIM/130X_mcRun3_2023_realistic_v15-v2/2820000/356aae97-ca68-4dda-a35a-20d725a0dec4.root",
        "T2_UK_London_IC: davs://gfe02.grid.hep.ph.ic.ac.uk:2880/pnfs/hep.ph.ic.ac.uk/data/cms/store/mc/Run3Summer23NanoAODv12/WminusH_Hto2Mu_WtoAll_M-125_TuneCP5_13p6TeV_powheg-minlo-pythia8/NANOAODSIM/130X_mcRun3_2023_realistic_v15-v2/2820000/356aae97-ca68-4dda-a35a-20d725a0dec4.root"
    ],
    "cms:/store/mc/Run3Summer23NanoAODv12/WminusH_Hto2Mu_WtoAll_M-125_TuneCP5_13p6TeV_powheg-minlo-pythia8/NANOAODSIM/130X_mcRun3_2023_realistic_v15-v2/2820000/76849c2f-0cba-4b4b-9918-95403d1bca60.root": [
        "T2_DE_DESY: davs://dcache-cms-webdav-wan.desy.de:2880/pnfs/desy.de/cms/tier2/store/mc/Run3Summer23NanoAODv12/WminusH_Hto2Mu_WtoAll_M-125_TuneCP5_13p6TeV_powheg-minlo-pythia8/NANOAODSIM/130X_mcRun3_2023_realistic_v15-v2/2820000/76849c2f-0cba-4b4b-9918-95403d1bca60.root",
        "T2_KR_KISTI: davs://cms-t2-se01.sdfarm.kr:2880/store/mc/Run3Summer23NanoAODv12/WminusH_Hto2Mu_WtoAll_M-125_TuneCP5_13p6TeV_powheg-minlo-pythia8/NANOAODSIM/130X_mcRun3_2023_realistic_v15-v2/2820000/76849c2f-0cba-4b4b-9918-95403d1bca60.root",
        "T2_US_Wisconsin: davs://cmsxrootd.hep.wisc.edu:1094/store/mc/Run3Summer23NanoAODv12/WminusH_Hto2Mu_WtoAll_M-125_TuneCP5_13p6TeV_powheg-minlo-pythia8/NANOAODSIM/130X_mcRun3_2023_realistic_v15-v2/2820000/76849c2f-0cba-4b4b-9918-95403d1bca60.root",
        "T2_US_Florida: davs://cmsio2.rc.ufl.edu:1094/store/mc/Run3Summer23NanoAODv12/WminusH_Hto2Mu_WtoAll_M-125_TuneCP5_13p6TeV_powheg-minlo-pythia8/NANOAODSIM/130X_mcRun3_2023_realistic_v15-v2/2820000/76849c2f-0cba-4b4b-9918-95403d1bca60.root",
        "T2_IT_Pisa: davs://stwebdav.pi.infn.it:8443/cms/store/mc/Run3Summer23NanoAODv12/WminusH_Hto2Mu_WtoAll_M-125_TuneCP5_13p6TeV_powheg-minlo-pythia8/NANOAODSIM/130X_mcRun3_2023_realistic_v15-v2/2820000/76849c2f-0cba-4b4b-9918-95403d1bca60.root",
        "T1_RU_JINR_Disk: davs://se-wbdv.jinr-t1.ru:2880/pnfs/jinr-t1.ru/data/cms/store/mc/Run3Summer23NanoAODv12/WminusH_Hto2Mu_WtoAll_M-125_TuneCP5_13p6TeV_powheg-minlo-pythia8/NANOAODSIM/130X_mcRun3_2023_realistic_v15-v2/2820000/76849c2f-0cba-4b4b-9918-95403d1bca60.root",
        "T2_UK_London_IC: davs://gfe02.grid.hep.ph.ic.ac.uk:2880/pnfs/hep.ph.ic.ac.uk/data/cms/store/mc/Run3Summer23NanoAODv12/WminusH_Hto2Mu_WtoAll_M-125_TuneCP5_13p6TeV_powheg-minlo-pythia8/NANOAODSIM/130X_mcRun3_2023_realistic_v15-v2/2820000/76849c2f-0cba-4b4b-9918-95403d1bca60.root"
    ],
    "cms:/store/mc/Run3Summer23NanoAODv12/WminusH_Hto2Mu_WtoAll_M-125_TuneCP5_13p6TeV_powheg-minlo-pythia8/NANOAODSIM/130X_mcRun3_2023_realistic_v15-v2/2820000/d7b6da49-52ae-4c4b-af6d-3cd72b454189.root": [
        "T2_DE_DESY: davs://dcache-cms-webdav-wan.desy.de:2880/pnfs/desy.de/cms/tier2/store/mc/Run3Summer23NanoAODv12/WminusH_Hto2Mu_WtoAll_M-125_TuneCP5_13p6TeV_powheg-minlo-pythia8/NANOAODSIM/130X_mcRun3_2023_realistic_v15-v2/2820000/d7b6da49-52ae-4c4b-af6d-3cd72b454189.root",
        "T2_US_Wisconsin: davs://cmsxrootd.hep.wisc.edu:1094/store/mc/Run3Summer23NanoAODv12/WminusH_Hto2Mu_WtoAll_M-125_TuneCP5_13p6TeV_powheg-minlo-pythia8/NANOAODSIM/130X_mcRun3_2023_realistic_v15-v2/2820000/d7b6da49-52ae-4c4b-af6d-3cd72b454189.root",
        "T2_US_Florida: davs://cmsio2.rc.ufl.edu:1094/store/mc/Run3Summer23NanoAODv12/WminusH_Hto2Mu_WtoAll_M-125_TuneCP5_13p6TeV_powheg-minlo-pythia8/NANOAODSIM/130X_mcRun3_2023_realistic_v15-v2/2820000/d7b6da49-52ae-4c4b-af6d-3cd72b454189.root",
        "T2_IT_Pisa: davs://stwebdav.pi.infn.it:8443/cms/store/mc/Run3Summer23NanoAODv12/WminusH_Hto2Mu_WtoAll_M-125_TuneCP5_13p6TeV_powheg-minlo-pythia8/NANOAODSIM/130X_mcRun3_2023_realistic_v15-v2/2820000/d7b6da49-52ae-4c4b-af6d-3cd72b454189.root",
        "T1_RU_JINR_Disk: davs://se-wbdv.jinr-t1.ru:2880/pnfs/jinr-t1.ru/data/cms/store/mc/Run3Summer23NanoAODv12/WminusH_Hto2Mu_WtoAll_M-125_TuneCP5_13p6TeV_powheg-minlo-pythia8/NANOAODSIM/130X_mcRun3_2023_realistic_v15-v2/2820000/d7b6da49-52ae-4c4b-af6d-3cd72b454189.root",
        "T2_UK_London_IC: davs://gfe02.grid.hep.ph.ic.ac.uk:2880/pnfs/hep.ph.ic.ac.uk/data/cms/store/mc/Run3Summer23NanoAODv12/WminusH_Hto2Mu_WtoAll_M-125_TuneCP5_13p6TeV_powheg-minlo-pythia8/NANOAODSIM/130X_mcRun3_2023_realistic_v15-v2/2820000/d7b6da49-52ae-4c4b-af6d-3cd72b454189.root"
    ],
    "cms:/store/mc/Run3Summer23NanoAODv12/WminusH_Hto2Mu_WtoAll_M-125_TuneCP5_13p6TeV_powheg-minlo-pythia8/NANOAODSIM/130X_mcRun3_2023_realistic_v15-v2/2820000/d6423cbd-868b-4870-918a-bc59c7ffd54f.root": [
        "T2_DE_DESY: davs://dcache-cms-webdav-wan.desy.de:2880/pnfs/desy.de/cms/tier2/store/mc/Run3Summer23NanoAODv12/WminusH_Hto2Mu_WtoAll_M-125_TuneCP5_13p6TeV_powheg-minlo-pythia8/NANOAODSIM/130X_mcRun3_2023_realistic_v15-v2/2820000/d6423cbd-868b-4870-918a-bc59c7ffd54f.root",
        "T2_US_Wisconsin: davs://cmsxrootd.hep.wisc.edu:1094/store/mc/Run3Summer23NanoAODv12/WminusH_Hto2Mu_WtoAll_M-125_TuneCP5_13p6TeV_powheg-minlo-pythia8/NANOAODSIM/130X_mcRun3_2023_realistic_v15-v2/2820000/d6423cbd-868b-4870-918a-bc59c7ffd54f.root",
        "T2_US_Florida: davs://cmsio2.rc.ufl.edu:1094/store/mc/Run3Summer23NanoAODv12/WminusH_Hto2Mu_WtoAll_M-125_TuneCP5_13p6TeV_powheg-minlo-pythia8/NANOAODSIM/130X_mcRun3_2023_realistic_v15-v2/2820000/d6423cbd-868b-4870-918a-bc59c7ffd54f.root",
        "T2_RU_JINR: davs://lcgsedr08.jinr.ru:2880/pnfs/jinr.ru/data/cms/store/mc/Run3Summer23NanoAODv12/WminusH_Hto2Mu_WtoAll_M-125_TuneCP5_13p6TeV_powheg-minlo-pythia8/NANOAODSIM/130X_mcRun3_2023_realistic_v15-v2/2820000/d6423cbd-868b-4870-918a-bc59c7ffd54f.root",
        "T2_IT_Pisa: davs://stwebdav.pi.infn.it:8443/cms/store/mc/Run3Summer23NanoAODv12/WminusH_Hto2Mu_WtoAll_M-125_TuneCP5_13p6TeV_powheg-minlo-pythia8/NANOAODSIM/130X_mcRun3_2023_realistic_v15-v2/2820000/d6423cbd-868b-4870-918a-bc59c7ffd54f.root",
        "T1_RU_JINR_Disk: davs://se-wbdv.jinr-t1.ru:2880/pnfs/jinr-t1.ru/data/cms/store/mc/Run3Summer23NanoAODv12/WminusH_Hto2Mu_WtoAll_M-125_TuneCP5_13p6TeV_powheg-minlo-pythia8/NANOAODSIM/130X_mcRun3_2023_realistic_v15-v2/2820000/d6423cbd-868b-4870-918a-bc59c7ffd54f.root",
        "T2_UK_London_IC: davs://gfe02.grid.hep.ph.ic.ac.uk:2880/pnfs/hep.ph.ic.ac.uk/data/cms/store/mc/Run3Summer23NanoAODv12/WminusH_Hto2Mu_WtoAll_M-125_TuneCP5_13p6TeV_powheg-minlo-pythia8/NANOAODSIM/130X_mcRun3_2023_realistic_v15-v2/2820000/d6423cbd-868b-4870-918a-bc59c7ffd54f.root"
    ],
    "cms:/store/mc/Run3Summer23NanoAODv12/WminusH_Hto2Mu_WtoAll_M-125_TuneCP5_13p6TeV_powheg-minlo-pythia8/NANOAODSIM/130X_mcRun3_2023_realistic_v15-v2/2820000/f3776d8f-1837-4e8b-a369-38227b51769e.root": [
        "T2_DE_DESY: davs://dcache-cms-webdav-wan.desy.de:2880/pnfs/desy.de/cms/tier2/store/mc/Run3Summer23NanoAODv12/WminusH_Hto2Mu_WtoAll_M-125_TuneCP5_13p6TeV_powheg-minlo-pythia8/NANOAODSIM/130X_mcRun3_2023_realistic_v15-v2/2820000/f3776d8f-1837-4e8b-a369-38227b51769e.root",
        "T2_US_Wisconsin: davs://cmsxrootd.hep.wisc.edu:1094/store/mc/Run3Summer23NanoAODv12/WminusH_Hto2Mu_WtoAll_M-125_TuneCP5_13p6TeV_powheg-minlo-pythia8/NANOAODSIM/130X_mcRun3_2023_realistic_v15-v2/2820000/f3776d8f-1837-4e8b-a369-38227b51769e.root",
        "T2_US_Florida: davs://cmsio2.rc.ufl.edu:1094/store/mc/Run3Summer23NanoAODv12/WminusH_Hto2Mu_WtoAll_M-125_TuneCP5_13p6TeV_powheg-minlo-pythia8/NANOAODSIM/130X_mcRun3_2023_realistic_v15-v2/2820000/f3776d8f-1837-4e8b-a369-38227b51769e.root",
        "T2_RU_JINR: davs://lcgsedr08.jinr.ru:2880/pnfs/jinr.ru/data/cms/store/mc/Run3Summer23NanoAODv12/WminusH_Hto2Mu_WtoAll_M-125_TuneCP5_13p6TeV_powheg-minlo-pythia8/NANOAODSIM/130X_mcRun3_2023_realistic_v15-v2/2820000/f3776d8f-1837-4e8b-a369-38227b51769e.root",
        "T2_IT_Pisa: davs://stwebdav.pi.infn.it:8443/cms/store/mc/Run3Summer23NanoAODv12/WminusH_Hto2Mu_WtoAll_M-125_TuneCP5_13p6TeV_powheg-minlo-pythia8/NANOAODSIM/130X_mcRun3_2023_realistic_v15-v2/2820000/f3776d8f-1837-4e8b-a369-38227b51769e.root",
        "T1_RU_JINR_Disk: davs://se-wbdv.jinr-t1.ru:2880/pnfs/jinr-t1.ru/data/cms/store/mc/Run3Summer23NanoAODv12/WminusH_Hto2Mu_WtoAll_M-125_TuneCP5_13p6TeV_powheg-minlo-pythia8/NANOAODSIM/130X_mcRun3_2023_realistic_v15-v2/2820000/f3776d8f-1837-4e8b-a369-38227b51769e.root",
        "T2_UK_London_IC: davs://gfe02.grid.hep.ph.ic.ac.uk:2880/pnfs/hep.ph.ic.ac.uk/data/cms/store/mc/Run3Summer23NanoAODv12/WminusH_Hto2Mu_WtoAll_M-125_TuneCP5_13p6TeV_powheg-minlo-pythia8/NANOAODSIM/130X_mcRun3_2023_realistic_v15-v2/2820000/f3776d8f-1837-4e8b-a369-38227b51769e.root"
    ],
    "cms:/store/mc/Run3Summer23NanoAODv12/WminusH_Hto2Mu_WtoAll_M-125_TuneCP5_13p6TeV_powheg-minlo-pythia8/NANOAODSIM/130X_mcRun3_2023_realistic_v15-v2/2820000/9710fe21-d78f-4762-8049-ce9c49e92036.root": [
        "T2_DE_DESY: davs://dcache-cms-webdav-wan.desy.de:2880/pnfs/desy.de/cms/tier2/store/mc/Run3Summer23NanoAODv12/WminusH_Hto2Mu_WtoAll_M-125_TuneCP5_13p6TeV_powheg-minlo-pythia8/NANOAODSIM/130X_mcRun3_2023_realistic_v15-v2/2820000/9710fe21-d78f-4762-8049-ce9c49e92036.root",
        "T2_US_Wisconsin: davs://cmsxrootd.hep.wisc.edu:1094/store/mc/Run3Summer23NanoAODv12/WminusH_Hto2Mu_WtoAll_M-125_TuneCP5_13p6TeV_powheg-minlo-pythia8/NANOAODSIM/130X_mcRun3_2023_realistic_v15-v2/2820000/9710fe21-d78f-4762-8049-ce9c49e92036.root",
        "T2_US_Florida: davs://cmsio2.rc.ufl.edu:1094/store/mc/Run3Summer23NanoAODv12/WminusH_Hto2Mu_WtoAll_M-125_TuneCP5_13p6TeV_powheg-minlo-pythia8/NANOAODSIM/130X_mcRun3_2023_realistic_v15-v2/2820000/9710fe21-d78f-4762-8049-ce9c49e92036.root",
        "T2_IT_Pisa: davs://stwebdav.pi.infn.it:8443/cms/store/mc/Run3Summer23NanoAODv12/WminusH_Hto2Mu_WtoAll_M-125_TuneCP5_13p6TeV_powheg-minlo-pythia8/NANOAODSIM/130X_mcRun3_2023_realistic_v15-v2/2820000/9710fe21-d78f-4762-8049-ce9c49e92036.root",
        "T1_RU_JINR_Disk: davs://se-wbdv.jinr-t1.ru:2880/pnfs/jinr-t1.ru/data/cms/store/mc/Run3Summer23NanoAODv12/WminusH_Hto2Mu_WtoAll_M-125_TuneCP5_13p6TeV_powheg-minlo-pythia8/NANOAODSIM/130X_mcRun3_2023_realistic_v15-v2/2820000/9710fe21-d78f-4762-8049-ce9c49e92036.root",
        "T2_ES_CIEMAT: davs://srm.ciemat.es:2880/pnfs/ciemat.es/data/cms/prod/store/mc/Run3Summer23NanoAODv12/WminusH_Hto2Mu_WtoAll_M-125_TuneCP5_13p6TeV_powheg-minlo-pythia8/NANOAODSIM/130X_mcRun3_2023_realistic_v15-v2/2820000/9710fe21-d78f-4762-8049-ce9c49e92036.root",
        "T2_UK_London_IC: davs://gfe02.grid.hep.ph.ic.ac.uk:2880/pnfs/hep.ph.ic.ac.uk/data/cms/store/mc/Run3Summer23NanoAODv12/WminusH_Hto2Mu_WtoAll_M-125_TuneCP5_13p6TeV_powheg-minlo-pythia8/NANOAODSIM/130X_mcRun3_2023_realistic_v15-v2/2820000/9710fe21-d78f-4762-8049-ce9c49e92036.root",
        "T1_IT_CNAF_Disk: davs://xfer-cms.cr.cnaf.infn.it:8443/cmsdisk/store/mc/Run3Summer23NanoAODv12/WminusH_Hto2Mu_WtoAll_M-125_TuneCP5_13p6TeV_powheg-minlo-pythia8/NANOAODSIM/130X_mcRun3_2023_realistic_v15-v2/2820000/9710fe21-d78f-4762-8049-ce9c49e92036.root"
    ],
    "cms:/store/mc/Run3Summer23NanoAODv12/WminusH_Hto2Mu_WtoAll_M-125_TuneCP5_13p6TeV_powheg-minlo-pythia8/NANOAODSIM/130X_mcRun3_2023_realistic_v15-v2/2820000/be8966f6-9786-47dc-bef8-ab52c66aada3.root": [
        "T2_DE_DESY: davs://dcache-cms-webdav-wan.desy.de:2880/pnfs/desy.de/cms/tier2/store/mc/Run3Summer23NanoAODv12/WminusH_Hto2Mu_WtoAll_M-125_TuneCP5_13p6TeV_powheg-minlo-pythia8/NANOAODSIM/130X_mcRun3_2023_realistic_v15-v2/2820000/be8966f6-9786-47dc-bef8-ab52c66aada3.root",
        "T2_US_Wisconsin: davs://cmsxrootd.hep.wisc.edu:1094/store/mc/Run3Summer23NanoAODv12/WminusH_Hto2Mu_WtoAll_M-125_TuneCP5_13p6TeV_powheg-minlo-pythia8/NANOAODSIM/130X_mcRun3_2023_realistic_v15-v2/2820000/be8966f6-9786-47dc-bef8-ab52c66aada3.root",
        "T2_US_Florida: davs://cmsio2.rc.ufl.edu:1094/store/mc/Run3Summer23NanoAODv12/WminusH_Hto2Mu_WtoAll_M-125_TuneCP5_13p6TeV_powheg-minlo-pythia8/NANOAODSIM/130X_mcRun3_2023_realistic_v15-v2/2820000/be8966f6-9786-47dc-bef8-ab52c66aada3.root",
        "T2_IT_Pisa: davs://stwebdav.pi.infn.it:8443/cms/store/mc/Run3Summer23NanoAODv12/WminusH_Hto2Mu_WtoAll_M-125_TuneCP5_13p6TeV_powheg-minlo-pythia8/NANOAODSIM/130X_mcRun3_2023_realistic_v15-v2/2820000/be8966f6-9786-47dc-bef8-ab52c66aada3.root",
        "T1_RU_JINR_Disk: davs://se-wbdv.jinr-t1.ru:2880/pnfs/jinr-t1.ru/data/cms/store/mc/Run3Summer23NanoAODv12/WminusH_Hto2Mu_WtoAll_M-125_TuneCP5_13p6TeV_powheg-minlo-pythia8/NANOAODSIM/130X_mcRun3_2023_realistic_v15-v2/2820000/be8966f6-9786-47dc-bef8-ab52c66aada3.root",
        "T2_ES_CIEMAT: davs://srm.ciemat.es:2880/pnfs/ciemat.es/data/cms/prod/store/mc/Run3Summer23NanoAODv12/WminusH_Hto2Mu_WtoAll_M-125_TuneCP5_13p6TeV_powheg-minlo-pythia8/NANOAODSIM/130X_mcRun3_2023_realistic_v15-v2/2820000/be8966f6-9786-47dc-bef8-ab52c66aada3.root",
        "T2_UK_London_IC: davs://gfe02.grid.hep.ph.ic.ac.uk:2880/pnfs/hep.ph.ic.ac.uk/data/cms/store/mc/Run3Summer23NanoAODv12/WminusH_Hto2Mu_WtoAll_M-125_TuneCP5_13p6TeV_powheg-minlo-pythia8/NANOAODSIM/130X_mcRun3_2023_realistic_v15-v2/2820000/be8966f6-9786-47dc-bef8-ab52c66aada3.root"
    ],
    "cms:/store/mc/Run3Summer23NanoAODv12/WminusH_Hto2Mu_WtoAll_M-125_TuneCP5_13p6TeV_powheg-minlo-pythia8/NANOAODSIM/130X_mcRun3_2023_realistic_v15-v2/2820000/f59e3a6a-54a2-48f2-8e32-f685375913dc.root": [
        "T2_DE_DESY: davs://dcache-cms-webdav-wan.desy.de:2880/pnfs/desy.de/cms/tier2/store/mc/Run3Summer23NanoAODv12/WminusH_Hto2Mu_WtoAll_M-125_TuneCP5_13p6TeV_powheg-minlo-pythia8/NANOAODSIM/130X_mcRun3_2023_realistic_v15-v2/2820000/f59e3a6a-54a2-48f2-8e32-f685375913dc.root",
        "T2_FR_IPHC: davs://sbgdcache.in2p3.fr:443/cms/phedex/store/mc/Run3Summer23NanoAODv12/WminusH_Hto2Mu_WtoAll_M-125_TuneCP5_13p6TeV_powheg-minlo-pythia8/NANOAODSIM/130X_mcRun3_2023_realistic_v15-v2/2820000/f59e3a6a-54a2-48f2-8e32-f685375913dc.root",
        "T2_US_Wisconsin: davs://cmsxrootd.hep.wisc.edu:1094/store/mc/Run3Summer23NanoAODv12/WminusH_Hto2Mu_WtoAll_M-125_TuneCP5_13p6TeV_powheg-minlo-pythia8/NANOAODSIM/130X_mcRun3_2023_realistic_v15-v2/2820000/f59e3a6a-54a2-48f2-8e32-f685375913dc.root",
        "T2_US_Florida: davs://cmsio2.rc.ufl.edu:1094/store/mc/Run3Summer23NanoAODv12/WminusH_Hto2Mu_WtoAll_M-125_TuneCP5_13p6TeV_powheg-minlo-pythia8/NANOAODSIM/130X_mcRun3_2023_realistic_v15-v2/2820000/f59e3a6a-54a2-48f2-8e32-f685375913dc.root",
        "T2_IT_Pisa: davs://stwebdav.pi.infn.it:8443/cms/store/mc/Run3Summer23NanoAODv12/WminusH_Hto2Mu_WtoAll_M-125_TuneCP5_13p6TeV_powheg-minlo-pythia8/NANOAODSIM/130X_mcRun3_2023_realistic_v15-v2/2820000/f59e3a6a-54a2-48f2-8e32-f685375913dc.root",
        "T1_RU_JINR_Disk: davs://se-wbdv.jinr-t1.ru:2880/pnfs/jinr-t1.ru/data/cms/store/mc/Run3Summer23NanoAODv12/WminusH_Hto2Mu_WtoAll_M-125_TuneCP5_13p6TeV_powheg-minlo-pythia8/NANOAODSIM/130X_mcRun3_2023_realistic_v15-v2/2820000/f59e3a6a-54a2-48f2-8e32-f685375913dc.root",
        "T2_UK_London_IC: davs://gfe02.grid.hep.ph.ic.ac.uk:2880/pnfs/hep.ph.ic.ac.uk/data/cms/store/mc/Run3Summer23NanoAODv12/WminusH_Hto2Mu_WtoAll_M-125_TuneCP5_13p6TeV_powheg-minlo-pythia8/NANOAODSIM/130X_mcRun3_2023_realistic_v15-v2/2820000/f59e3a6a-54a2-48f2-8e32-f685375913dc.root",
        "T2_DE_RWTH: davs://grid-webdav.physik.rwth-aachen.de:2889/store/mc/Run3Summer23NanoAODv12/WminusH_Hto2Mu_WtoAll_M-125_TuneCP5_13p6TeV_powheg-minlo-pythia8/NANOAODSIM/130X_mcRun3_2023_realistic_v15-v2/2820000/f59e3a6a-54a2-48f2-8e32-f685375913dc.root"
    ],
    "cms:/store/mc/Run3Summer23NanoAODv12/WminusH_Hto2Mu_WtoAll_M-125_TuneCP5_13p6TeV_powheg-minlo-pythia8/NANOAODSIM/130X_mcRun3_2023_realistic_v15-v2/2820000/6a7077a1-aa40-48ed-b48f-0d55662494c5.root": [
        "T2_DE_DESY: davs://dcache-cms-webdav-wan.desy.de:2880/pnfs/desy.de/cms/tier2/store/mc/Run3Summer23NanoAODv12/WminusH_Hto2Mu_WtoAll_M-125_TuneCP5_13p6TeV_powheg-minlo-pythia8/NANOAODSIM/130X_mcRun3_2023_realistic_v15-v2/2820000/6a7077a1-aa40-48ed-b48f-0d55662494c5.root",
        "T2_IT_Legnaro: davs://t2-xrdcms.lnl.infn.it:2880/pnfs/lnl.infn.it/data/cms/store/mc/Run3Summer23NanoAODv12/WminusH_Hto2Mu_WtoAll_M-125_TuneCP5_13p6TeV_powheg-minlo-pythia8/NANOAODSIM/130X_mcRun3_2023_realistic_v15-v2/2820000/6a7077a1-aa40-48ed-b48f-0d55662494c5.root",
        "T2_US_Wisconsin: davs://cmsxrootd.hep.wisc.edu:1094/store/mc/Run3Summer23NanoAODv12/WminusH_Hto2Mu_WtoAll_M-125_TuneCP5_13p6TeV_powheg-minlo-pythia8/NANOAODSIM/130X_mcRun3_2023_realistic_v15-v2/2820000/6a7077a1-aa40-48ed-b48f-0d55662494c5.root",
        "T2_US_Florida: davs://cmsio2.rc.ufl.edu:1094/store/mc/Run3Summer23NanoAODv12/WminusH_Hto2Mu_WtoAll_M-125_TuneCP5_13p6TeV_powheg-minlo-pythia8/NANOAODSIM/130X_mcRun3_2023_realistic_v15-v2/2820000/6a7077a1-aa40-48ed-b48f-0d55662494c5.root",
        "T2_IT_Pisa: davs://stwebdav.pi.infn.it:8443/cms/store/mc/Run3Summer23NanoAODv12/WminusH_Hto2Mu_WtoAll_M-125_TuneCP5_13p6TeV_powheg-minlo-pythia8/NANOAODSIM/130X_mcRun3_2023_realistic_v15-v2/2820000/6a7077a1-aa40-48ed-b48f-0d55662494c5.root",
        "T2_US_Purdue: davs://eos.cms.rcac.purdue.edu:9000/store/mc/Run3Summer23NanoAODv12/WminusH_Hto2Mu_WtoAll_M-125_TuneCP5_13p6TeV_powheg-minlo-pythia8/NANOAODSIM/130X_mcRun3_2023_realistic_v15-v2/2820000/6a7077a1-aa40-48ed-b48f-0d55662494c5.root",
        "T1_RU_JINR_Disk: davs://se-wbdv.jinr-t1.ru:2880/pnfs/jinr-t1.ru/data/cms/store/mc/Run3Summer23NanoAODv12/WminusH_Hto2Mu_WtoAll_M-125_TuneCP5_13p6TeV_powheg-minlo-pythia8/NANOAODSIM/130X_mcRun3_2023_realistic_v15-v2/2820000/6a7077a1-aa40-48ed-b48f-0d55662494c5.root",
        "T2_UK_London_IC: davs://gfe02.grid.hep.ph.ic.ac.uk:2880/pnfs/hep.ph.ic.ac.uk/data/cms/store/mc/Run3Summer23NanoAODv12/WminusH_Hto2Mu_WtoAll_M-125_TuneCP5_13p6TeV_powheg-minlo-pythia8/NANOAODSIM/130X_mcRun3_2023_realistic_v15-v2/2820000/6a7077a1-aa40-48ed-b48f-0d55662494c5.root"
    ],
    "cms:/store/mc/Run3Summer23NanoAODv12/WminusH_Hto2Mu_WtoAll_M-125_TuneCP5_13p6TeV_powheg-minlo-pythia8/NANOAODSIM/130X_mcRun3_2023_realistic_v15-v2/2820000/59b9e8f9-0667-411f-8678-8f3af91a72ec.root": [
        "T2_DE_DESY: davs://dcache-cms-webdav-wan.desy.de:2880/pnfs/desy.de/cms/tier2/store/mc/Run3Summer23NanoAODv12/WminusH_Hto2Mu_WtoAll_M-125_TuneCP5_13p6TeV_powheg-minlo-pythia8/NANOAODSIM/130X_mcRun3_2023_realistic_v15-v2/2820000/59b9e8f9-0667-411f-8678-8f3af91a72ec.root",
        "T2_PL_Cyfronet: davs://se02.grid.cyfronet.pl:443/dpm/grid.cyfronet.pl/home/cms/store/mc/Run3Summer23NanoAODv12/WminusH_Hto2Mu_WtoAll_M-125_TuneCP5_13p6TeV_powheg-minlo-pythia8/NANOAODSIM/130X_mcRun3_2023_realistic_v15-v2/2820000/59b9e8f9-0667-411f-8678-8f3af91a72ec.root",
        "T2_US_Wisconsin: davs://cmsxrootd.hep.wisc.edu:1094/store/mc/Run3Summer23NanoAODv12/WminusH_Hto2Mu_WtoAll_M-125_TuneCP5_13p6TeV_powheg-minlo-pythia8/NANOAODSIM/130X_mcRun3_2023_realistic_v15-v2/2820000/59b9e8f9-0667-411f-8678-8f3af91a72ec.root",
        "T2_US_Florida: davs://cmsio2.rc.ufl.edu:1094/store/mc/Run3Summer23NanoAODv12/WminusH_Hto2Mu_WtoAll_M-125_TuneCP5_13p6TeV_powheg-minlo-pythia8/NANOAODSIM/130X_mcRun3_2023_realistic_v15-v2/2820000/59b9e8f9-0667-411f-8678-8f3af91a72ec.root",
        "T2_IT_Pisa: davs://stwebdav.pi.infn.it:8443/cms/store/mc/Run3Summer23NanoAODv12/WminusH_Hto2Mu_WtoAll_M-125_TuneCP5_13p6TeV_powheg-minlo-pythia8/NANOAODSIM/130X_mcRun3_2023_realistic_v15-v2/2820000/59b9e8f9-0667-411f-8678-8f3af91a72ec.root",
        "T1_RU_JINR_Disk: davs://se-wbdv.jinr-t1.ru:2880/pnfs/jinr-t1.ru/data/cms/store/mc/Run3Summer23NanoAODv12/WminusH_Hto2Mu_WtoAll_M-125_TuneCP5_13p6TeV_powheg-minlo-pythia8/NANOAODSIM/130X_mcRun3_2023_realistic_v15-v2/2820000/59b9e8f9-0667-411f-8678-8f3af91a72ec.root",
        "T2_UK_London_IC: davs://gfe02.grid.hep.ph.ic.ac.uk:2880/pnfs/hep.ph.ic.ac.uk/data/cms/store/mc/Run3Summer23NanoAODv12/WminusH_Hto2Mu_WtoAll_M-125_TuneCP5_13p6TeV_powheg-minlo-pythia8/NANOAODSIM/130X_mcRun3_2023_realistic_v15-v2/2820000/59b9e8f9-0667-411f-8678-8f3af91a72ec.root"
    ],
    "cms:/store/mc/Run3Summer23NanoAODv12/WminusH_Hto2Mu_WtoAll_M-125_TuneCP5_13p6TeV_powheg-minlo-pythia8/NANOAODSIM/130X_mcRun3_2023_realistic_v15-v2/2820000/71a0c2c1-6037-4d3b-a838-394e469d6f52.root": [
        "T2_DE_DESY: davs://dcache-cms-webdav-wan.desy.de:2880/pnfs/desy.de/cms/tier2/store/mc/Run3Summer23NanoAODv12/WminusH_Hto2Mu_WtoAll_M-125_TuneCP5_13p6TeV_powheg-minlo-pythia8/NANOAODSIM/130X_mcRun3_2023_realistic_v15-v2/2820000/71a0c2c1-6037-4d3b-a838-394e469d6f52.root",
        "T1_UK_RAL_Disk: davs://rdr.echo.stfc.ac.uk:1094/store/mc/Run3Summer23NanoAODv12/WminusH_Hto2Mu_WtoAll_M-125_TuneCP5_13p6TeV_powheg-minlo-pythia8/NANOAODSIM/130X_mcRun3_2023_realistic_v15-v2/2820000/71a0c2c1-6037-4d3b-a838-394e469d6f52.root",
        "T2_US_Wisconsin: davs://cmsxrootd.hep.wisc.edu:1094/store/mc/Run3Summer23NanoAODv12/WminusH_Hto2Mu_WtoAll_M-125_TuneCP5_13p6TeV_powheg-minlo-pythia8/NANOAODSIM/130X_mcRun3_2023_realistic_v15-v2/2820000/71a0c2c1-6037-4d3b-a838-394e469d6f52.root",
        "T2_US_Florida: davs://cmsio2.rc.ufl.edu:1094/store/mc/Run3Summer23NanoAODv12/WminusH_Hto2Mu_WtoAll_M-125_TuneCP5_13p6TeV_powheg-minlo-pythia8/NANOAODSIM/130X_mcRun3_2023_realistic_v15-v2/2820000/71a0c2c1-6037-4d3b-a838-394e469d6f52.root",
        "T2_IT_Pisa: davs://stwebdav.pi.infn.it:8443/cms/store/mc/Run3Summer23NanoAODv12/WminusH_Hto2Mu_WtoAll_M-125_TuneCP5_13p6TeV_powheg-minlo-pythia8/NANOAODSIM/130X_mcRun3_2023_realistic_v15-v2/2820000/71a0c2c1-6037-4d3b-a838-394e469d6f52.root",
        "T1_RU_JINR_Disk: davs://se-wbdv.jinr-t1.ru:2880/pnfs/jinr-t1.ru/data/cms/store/mc/Run3Summer23NanoAODv12/WminusH_Hto2Mu_WtoAll_M-125_TuneCP5_13p6TeV_powheg-minlo-pythia8/NANOAODSIM/130X_mcRun3_2023_realistic_v15-v2/2820000/71a0c2c1-6037-4d3b-a838-394e469d6f52.root",
        "T2_UK_London_IC: davs://gfe02.grid.hep.ph.ic.ac.uk:2880/pnfs/hep.ph.ic.ac.uk/data/cms/store/mc/Run3Summer23NanoAODv12/WminusH_Hto2Mu_WtoAll_M-125_TuneCP5_13p6TeV_powheg-minlo-pythia8/NANOAODSIM/130X_mcRun3_2023_realistic_v15-v2/2820000/71a0c2c1-6037-4d3b-a838-394e469d6f52.root"
    ],
    "cms:/store/mc/Run3Summer23NanoAODv12/WminusH_Hto2Mu_WtoAll_M-125_TuneCP5_13p6TeV_powheg-minlo-pythia8/NANOAODSIM/130X_mcRun3_2023_realistic_v15-v2/2820000/a14c095e-0884-42af-bdad-5d9cc5135a6b.root": [
        "T2_DE_DESY: davs://dcache-cms-webdav-wan.desy.de:2880/pnfs/desy.de/cms/tier2/store/mc/Run3Summer23NanoAODv12/WminusH_Hto2Mu_WtoAll_M-125_TuneCP5_13p6TeV_powheg-minlo-pythia8/NANOAODSIM/130X_mcRun3_2023_realistic_v15-v2/2820000/a14c095e-0884-42af-bdad-5d9cc5135a6b.root",
        "T2_US_Wisconsin: davs://cmsxrootd.hep.wisc.edu:1094/store/mc/Run3Summer23NanoAODv12/WminusH_Hto2Mu_WtoAll_M-125_TuneCP5_13p6TeV_powheg-minlo-pythia8/NANOAODSIM/130X_mcRun3_2023_realistic_v15-v2/2820000/a14c095e-0884-42af-bdad-5d9cc5135a6b.root",
        "T2_US_Florida: davs://cmsio2.rc.ufl.edu:1094/store/mc/Run3Summer23NanoAODv12/WminusH_Hto2Mu_WtoAll_M-125_TuneCP5_13p6TeV_powheg-minlo-pythia8/NANOAODSIM/130X_mcRun3_2023_realistic_v15-v2/2820000/a14c095e-0884-42af-bdad-5d9cc5135a6b.root",
        "T2_US_Nebraska: davs://xrootd-local.unl.edu:1094/store/mc/Run3Summer23NanoAODv12/WminusH_Hto2Mu_WtoAll_M-125_TuneCP5_13p6TeV_powheg-minlo-pythia8/NANOAODSIM/130X_mcRun3_2023_realistic_v15-v2/2820000/a14c095e-0884-42af-bdad-5d9cc5135a6b.root",
        "T2_IT_Pisa: davs://stwebdav.pi.infn.it:8443/cms/store/mc/Run3Summer23NanoAODv12/WminusH_Hto2Mu_WtoAll_M-125_TuneCP5_13p6TeV_powheg-minlo-pythia8/NANOAODSIM/130X_mcRun3_2023_realistic_v15-v2/2820000/a14c095e-0884-42af-bdad-5d9cc5135a6b.root",
        "T1_RU_JINR_Disk: davs://se-wbdv.jinr-t1.ru:2880/pnfs/jinr-t1.ru/data/cms/store/mc/Run3Summer23NanoAODv12/WminusH_Hto2Mu_WtoAll_M-125_TuneCP5_13p6TeV_powheg-minlo-pythia8/NANOAODSIM/130X_mcRun3_2023_realistic_v15-v2/2820000/a14c095e-0884-42af-bdad-5d9cc5135a6b.root",
        "T2_UK_London_IC: davs://gfe02.grid.hep.ph.ic.ac.uk:2880/pnfs/hep.ph.ic.ac.uk/data/cms/store/mc/Run3Summer23NanoAODv12/WminusH_Hto2Mu_WtoAll_M-125_TuneCP5_13p6TeV_powheg-minlo-pythia8/NANOAODSIM/130X_mcRun3_2023_realistic_v15-v2/2820000/a14c095e-0884-42af-bdad-5d9cc5135a6b.root"
    ],
    "cms:/store/mc/Run3Summer23NanoAODv12/WminusH_Hto2Mu_WtoAll_M-125_TuneCP5_13p6TeV_powheg-minlo-pythia8/NANOAODSIM/130X_mcRun3_2023_realistic_v15-v2/2820000/5e14f368-8831-44f1-9a3c-e4ff314545d1.root": [
        "T2_DE_DESY: davs://dcache-cms-webdav-wan.desy.de:2880/pnfs/desy.de/cms/tier2/store/mc/Run3Summer23NanoAODv12/WminusH_Hto2Mu_WtoAll_M-125_TuneCP5_13p6TeV_powheg-minlo-pythia8/NANOAODSIM/130X_mcRun3_2023_realistic_v15-v2/2820000/5e14f368-8831-44f1-9a3c-e4ff314545d1.root",
        "T1_UK_RAL_Disk: davs://rdr.echo.stfc.ac.uk:1094/store/mc/Run3Summer23NanoAODv12/WminusH_Hto2Mu_WtoAll_M-125_TuneCP5_13p6TeV_powheg-minlo-pythia8/NANOAODSIM/130X_mcRun3_2023_realistic_v15-v2/2820000/5e14f368-8831-44f1-9a3c-e4ff314545d1.root",
        "T2_US_Wisconsin: davs://cmsxrootd.hep.wisc.edu:1094/store/mc/Run3Summer23NanoAODv12/WminusH_Hto2Mu_WtoAll_M-125_TuneCP5_13p6TeV_powheg-minlo-pythia8/NANOAODSIM/130X_mcRun3_2023_realistic_v15-v2/2820000/5e14f368-8831-44f1-9a3c-e4ff314545d1.root",
        "T2_US_Florida: davs://cmsio2.rc.ufl.edu:1094/store/mc/Run3Summer23NanoAODv12/WminusH_Hto2Mu_WtoAll_M-125_TuneCP5_13p6TeV_powheg-minlo-pythia8/NANOAODSIM/130X_mcRun3_2023_realistic_v15-v2/2820000/5e14f368-8831-44f1-9a3c-e4ff314545d1.root",
        "T2_US_Caltech: davs://k8s-redir-stageout.ultralight.org:1094/store/mc/Run3Summer23NanoAODv12/WminusH_Hto2Mu_WtoAll_M-125_TuneCP5_13p6TeV_powheg-minlo-pythia8/NANOAODSIM/130X_mcRun3_2023_realistic_v15-v2/2820000/5e14f368-8831-44f1-9a3c-e4ff314545d1.root",
        "T2_IT_Pisa: davs://stwebdav.pi.infn.it:8443/cms/store/mc/Run3Summer23NanoAODv12/WminusH_Hto2Mu_WtoAll_M-125_TuneCP5_13p6TeV_powheg-minlo-pythia8/NANOAODSIM/130X_mcRun3_2023_realistic_v15-v2/2820000/5e14f368-8831-44f1-9a3c-e4ff314545d1.root",
        "T1_RU_JINR_Disk: davs://se-wbdv.jinr-t1.ru:2880/pnfs/jinr-t1.ru/data/cms/store/mc/Run3Summer23NanoAODv12/WminusH_Hto2Mu_WtoAll_M-125_TuneCP5_13p6TeV_powheg-minlo-pythia8/NANOAODSIM/130X_mcRun3_2023_realistic_v15-v2/2820000/5e14f368-8831-44f1-9a3c-e4ff314545d1.root",
        "T2_UK_London_IC: davs://gfe02.grid.hep.ph.ic.ac.uk:2880/pnfs/hep.ph.ic.ac.uk/data/cms/store/mc/Run3Summer23NanoAODv12/WminusH_Hto2Mu_WtoAll_M-125_TuneCP5_13p6TeV_powheg-minlo-pythia8/NANOAODSIM/130X_mcRun3_2023_realistic_v15-v2/2820000/5e14f368-8831-44f1-9a3c-e4ff314545d1.root"
    ],
    "cms:/store/mc/Run3Summer23NanoAODv12/WminusH_Hto2Mu_WtoAll_M-125_TuneCP5_13p6TeV_powheg-minlo-pythia8/NANOAODSIM/130X_mcRun3_2023_realistic_v15-v2/2820000/97ec5d7b-6fba-44a0-9364-8ad69153886b.root": [
        "T2_DE_DESY: davs://dcache-cms-webdav-wan.desy.de:2880/pnfs/desy.de/cms/tier2/store/mc/Run3Summer23NanoAODv12/WminusH_Hto2Mu_WtoAll_M-125_TuneCP5_13p6TeV_powheg-minlo-pythia8/NANOAODSIM/130X_mcRun3_2023_realistic_v15-v2/2820000/97ec5d7b-6fba-44a0-9364-8ad69153886b.root",
        "T1_UK_RAL_Disk: davs://rdr.echo.stfc.ac.uk:1094/store/mc/Run3Summer23NanoAODv12/WminusH_Hto2Mu_WtoAll_M-125_TuneCP5_13p6TeV_powheg-minlo-pythia8/NANOAODSIM/130X_mcRun3_2023_realistic_v15-v2/2820000/97ec5d7b-6fba-44a0-9364-8ad69153886b.root",
        "T2_US_Wisconsin: davs://cmsxrootd.hep.wisc.edu:1094/store/mc/Run3Summer23NanoAODv12/WminusH_Hto2Mu_WtoAll_M-125_TuneCP5_13p6TeV_powheg-minlo-pythia8/NANOAODSIM/130X_mcRun3_2023_realistic_v15-v2/2820000/97ec5d7b-6fba-44a0-9364-8ad69153886b.root",
        "T2_US_Florida: davs://cmsio2.rc.ufl.edu:1094/store/mc/Run3Summer23NanoAODv12/WminusH_Hto2Mu_WtoAll_M-125_TuneCP5_13p6TeV_powheg-minlo-pythia8/NANOAODSIM/130X_mcRun3_2023_realistic_v15-v2/2820000/97ec5d7b-6fba-44a0-9364-8ad69153886b.root",
        "T2_US_Caltech: davs://k8s-redir-stageout.ultralight.org:1094/store/mc/Run3Summer23NanoAODv12/WminusH_Hto2Mu_WtoAll_M-125_TuneCP5_13p6TeV_powheg-minlo-pythia8/NANOAODSIM/130X_mcRun3_2023_realistic_v15-v2/2820000/97ec5d7b-6fba-44a0-9364-8ad69153886b.root",
        "T2_IT_Pisa: davs://stwebdav.pi.infn.it:8443/cms/store/mc/Run3Summer23NanoAODv12/WminusH_Hto2Mu_WtoAll_M-125_TuneCP5_13p6TeV_powheg-minlo-pythia8/NANOAODSIM/130X_mcRun3_2023_realistic_v15-v2/2820000/97ec5d7b-6fba-44a0-9364-8ad69153886b.root",
        "T1_RU_JINR_Disk: davs://se-wbdv.jinr-t1.ru:2880/pnfs/jinr-t1.ru/data/cms/store/mc/Run3Summer23NanoAODv12/WminusH_Hto2Mu_WtoAll_M-125_TuneCP5_13p6TeV_powheg-minlo-pythia8/NANOAODSIM/130X_mcRun3_2023_realistic_v15-v2/2820000/97ec5d7b-6fba-44a0-9364-8ad69153886b.root",
        "T2_UK_London_IC: davs://gfe02.grid.hep.ph.ic.ac.uk:2880/pnfs/hep.ph.ic.ac.uk/data/cms/store/mc/Run3Summer23NanoAODv12/WminusH_Hto2Mu_WtoAll_M-125_TuneCP5_13p6TeV_powheg-minlo-pythia8/NANOAODSIM/130X_mcRun3_2023_realistic_v15-v2/2820000/97ec5d7b-6fba-44a0-9364-8ad69153886b.root"
    ],
    "cms:/store/mc/Run3Summer23NanoAODv12/WminusH_Hto2Mu_WtoAll_M-125_TuneCP5_13p6TeV_powheg-minlo-pythia8/NANOAODSIM/130X_mcRun3_2023_realistic_v15-v2/2820000/cc2fd7d1-1136-4cd3-a087-0eb5a46d18cf.root": [
        "T2_DE_DESY: davs://dcache-cms-webdav-wan.desy.de:2880/pnfs/desy.de/cms/tier2/store/mc/Run3Summer23NanoAODv12/WminusH_Hto2Mu_WtoAll_M-125_TuneCP5_13p6TeV_powheg-minlo-pythia8/NANOAODSIM/130X_mcRun3_2023_realistic_v15-v2/2820000/cc2fd7d1-1136-4cd3-a087-0eb5a46d18cf.root",
        "T2_US_Vanderbilt: davs://xrootd-vanderbilt.sites.opensciencegrid.org:1094/store/mc/Run3Summer23NanoAODv12/WminusH_Hto2Mu_WtoAll_M-125_TuneCP5_13p6TeV_powheg-minlo-pythia8/NANOAODSIM/130X_mcRun3_2023_realistic_v15-v2/2820000/cc2fd7d1-1136-4cd3-a087-0eb5a46d18cf.root",
        "T2_US_Wisconsin: davs://cmsxrootd.hep.wisc.edu:1094/store/mc/Run3Summer23NanoAODv12/WminusH_Hto2Mu_WtoAll_M-125_TuneCP5_13p6TeV_powheg-minlo-pythia8/NANOAODSIM/130X_mcRun3_2023_realistic_v15-v2/2820000/cc2fd7d1-1136-4cd3-a087-0eb5a46d18cf.root",
        "T2_US_Florida: davs://cmsio2.rc.ufl.edu:1094/store/mc/Run3Summer23NanoAODv12/WminusH_Hto2Mu_WtoAll_M-125_TuneCP5_13p6TeV_powheg-minlo-pythia8/NANOAODSIM/130X_mcRun3_2023_realistic_v15-v2/2820000/cc2fd7d1-1136-4cd3-a087-0eb5a46d18cf.root",
        "T2_IT_Pisa: davs://stwebdav.pi.infn.it:8443/cms/store/mc/Run3Summer23NanoAODv12/WminusH_Hto2Mu_WtoAll_M-125_TuneCP5_13p6TeV_powheg-minlo-pythia8/NANOAODSIM/130X_mcRun3_2023_realistic_v15-v2/2820000/cc2fd7d1-1136-4cd3-a087-0eb5a46d18cf.root",
        "T2_BE_IIHE: davs://maite.iihe.ac.be:2880/pnfs/iihe/cms/ph/sc4/store/mc/Run3Summer23NanoAODv12/WminusH_Hto2Mu_WtoAll_M-125_TuneCP5_13p6TeV_powheg-minlo-pythia8/NANOAODSIM/130X_mcRun3_2023_realistic_v15-v2/2820000/cc2fd7d1-1136-4cd3-a087-0eb5a46d18cf.root",
        "T1_RU_JINR_Disk: davs://se-wbdv.jinr-t1.ru:2880/pnfs/jinr-t1.ru/data/cms/store/mc/Run3Summer23NanoAODv12/WminusH_Hto2Mu_WtoAll_M-125_TuneCP5_13p6TeV_powheg-minlo-pythia8/NANOAODSIM/130X_mcRun3_2023_realistic_v15-v2/2820000/cc2fd7d1-1136-4cd3-a087-0eb5a46d18cf.root",
        "T2_UK_London_IC: davs://gfe02.grid.hep.ph.ic.ac.uk:2880/pnfs/hep.ph.ic.ac.uk/data/cms/store/mc/Run3Summer23NanoAODv12/WminusH_Hto2Mu_WtoAll_M-125_TuneCP5_13p6TeV_powheg-minlo-pythia8/NANOAODSIM/130X_mcRun3_2023_realistic_v15-v2/2820000/cc2fd7d1-1136-4cd3-a087-0eb5a46d18cf.root"
    ],
    "cms:/store/mc/Run3Summer23NanoAODv12/WminusH_Hto2Mu_WtoAll_M-125_TuneCP5_13p6TeV_powheg-minlo-pythia8/NANOAODSIM/130X_mcRun3_2023_realistic_v15-v2/2820000/74c79f79-86a6-46c0-b450-14178ea7efda.root": [
        "T2_DE_DESY: davs://dcache-cms-webdav-wan.desy.de:2880/pnfs/desy.de/cms/tier2/store/mc/Run3Summer23NanoAODv12/WminusH_Hto2Mu_WtoAll_M-125_TuneCP5_13p6TeV_powheg-minlo-pythia8/NANOAODSIM/130X_mcRun3_2023_realistic_v15-v2/2820000/74c79f79-86a6-46c0-b450-14178ea7efda.root",
        "T2_US_Vanderbilt: davs://xrootd-vanderbilt.sites.opensciencegrid.org:1094/store/mc/Run3Summer23NanoAODv12/WminusH_Hto2Mu_WtoAll_M-125_TuneCP5_13p6TeV_powheg-minlo-pythia8/NANOAODSIM/130X_mcRun3_2023_realistic_v15-v2/2820000/74c79f79-86a6-46c0-b450-14178ea7efda.root",
        "T2_US_Wisconsin: davs://cmsxrootd.hep.wisc.edu:1094/store/mc/Run3Summer23NanoAODv12/WminusH_Hto2Mu_WtoAll_M-125_TuneCP5_13p6TeV_powheg-minlo-pythia8/NANOAODSIM/130X_mcRun3_2023_realistic_v15-v2/2820000/74c79f79-86a6-46c0-b450-14178ea7efda.root",
        "T2_US_Florida: davs://cmsio2.rc.ufl.edu:1094/store/mc/Run3Summer23NanoAODv12/WminusH_Hto2Mu_WtoAll_M-125_TuneCP5_13p6TeV_powheg-minlo-pythia8/NANOAODSIM/130X_mcRun3_2023_realistic_v15-v2/2820000/74c79f79-86a6-46c0-b450-14178ea7efda.root",
        "T2_RU_JINR: davs://lcgsedr08.jinr.ru:2880/pnfs/jinr.ru/data/cms/store/mc/Run3Summer23NanoAODv12/WminusH_Hto2Mu_WtoAll_M-125_TuneCP5_13p6TeV_powheg-minlo-pythia8/NANOAODSIM/130X_mcRun3_2023_realistic_v15-v2/2820000/74c79f79-86a6-46c0-b450-14178ea7efda.root",
        "T2_IT_Pisa: davs://stwebdav.pi.infn.it:8443/cms/store/mc/Run3Summer23NanoAODv12/WminusH_Hto2Mu_WtoAll_M-125_TuneCP5_13p6TeV_powheg-minlo-pythia8/NANOAODSIM/130X_mcRun3_2023_realistic_v15-v2/2820000/74c79f79-86a6-46c0-b450-14178ea7efda.root",
        "T1_RU_JINR_Disk: davs://se-wbdv.jinr-t1.ru:2880/pnfs/jinr-t1.ru/data/cms/store/mc/Run3Summer23NanoAODv12/WminusH_Hto2Mu_WtoAll_M-125_TuneCP5_13p6TeV_powheg-minlo-pythia8/NANOAODSIM/130X_mcRun3_2023_realistic_v15-v2/2820000/74c79f79-86a6-46c0-b450-14178ea7efda.root",
        "T2_UK_London_IC: davs://gfe02.grid.hep.ph.ic.ac.uk:2880/pnfs/hep.ph.ic.ac.uk/data/cms/store/mc/Run3Summer23NanoAODv12/WminusH_Hto2Mu_WtoAll_M-125_TuneCP5_13p6TeV_powheg-minlo-pythia8/NANOAODSIM/130X_mcRun3_2023_realistic_v15-v2/2820000/74c79f79-86a6-46c0-b450-14178ea7efda.root"
    ],
    "cms:/store/mc/Run3Summer23NanoAODv12/WminusH_Hto2Mu_WtoAll_M-125_TuneCP5_13p6TeV_powheg-minlo-pythia8/NANOAODSIM/130X_mcRun3_2023_realistic_v15-v2/2820000/4aa561ef-ec93-4802-9102-a91bbb3339e0.root": [
        "T2_DE_DESY: davs://dcache-cms-webdav-wan.desy.de:2880/pnfs/desy.de/cms/tier2/store/mc/Run3Summer23NanoAODv12/WminusH_Hto2Mu_WtoAll_M-125_TuneCP5_13p6TeV_powheg-minlo-pythia8/NANOAODSIM/130X_mcRun3_2023_realistic_v15-v2/2820000/4aa561ef-ec93-4802-9102-a91bbb3339e0.root",
        "T2_CH_CSCS: davs://storage01.lcg.cscs.ch:2880/pnfs/lcg.cscs.ch/cms/trivcat/store/mc/Run3Summer23NanoAODv12/WminusH_Hto2Mu_WtoAll_M-125_TuneCP5_13p6TeV_powheg-minlo-pythia8/NANOAODSIM/130X_mcRun3_2023_realistic_v15-v2/2820000/4aa561ef-ec93-4802-9102-a91bbb3339e0.root",
        "T2_US_Wisconsin: davs://cmsxrootd.hep.wisc.edu:1094/store/mc/Run3Summer23NanoAODv12/WminusH_Hto2Mu_WtoAll_M-125_TuneCP5_13p6TeV_powheg-minlo-pythia8/NANOAODSIM/130X_mcRun3_2023_realistic_v15-v2/2820000/4aa561ef-ec93-4802-9102-a91bbb3339e0.root",
        "T2_US_Florida: davs://cmsio2.rc.ufl.edu:1094/store/mc/Run3Summer23NanoAODv12/WminusH_Hto2Mu_WtoAll_M-125_TuneCP5_13p6TeV_powheg-minlo-pythia8/NANOAODSIM/130X_mcRun3_2023_realistic_v15-v2/2820000/4aa561ef-ec93-4802-9102-a91bbb3339e0.root",
        "T2_EE_Estonia: davs://xrootd.hep.kbfi.ee:1094/store/mc/Run3Summer23NanoAODv12/WminusH_Hto2Mu_WtoAll_M-125_TuneCP5_13p6TeV_powheg-minlo-pythia8/NANOAODSIM/130X_mcRun3_2023_realistic_v15-v2/2820000/4aa561ef-ec93-4802-9102-a91bbb3339e0.root",
        "T2_IT_Pisa: davs://stwebdav.pi.infn.it:8443/cms/store/mc/Run3Summer23NanoAODv12/WminusH_Hto2Mu_WtoAll_M-125_TuneCP5_13p6TeV_powheg-minlo-pythia8/NANOAODSIM/130X_mcRun3_2023_realistic_v15-v2/2820000/4aa561ef-ec93-4802-9102-a91bbb3339e0.root",
        "T1_RU_JINR_Disk: davs://se-wbdv.jinr-t1.ru:2880/pnfs/jinr-t1.ru/data/cms/store/mc/Run3Summer23NanoAODv12/WminusH_Hto2Mu_WtoAll_M-125_TuneCP5_13p6TeV_powheg-minlo-pythia8/NANOAODSIM/130X_mcRun3_2023_realistic_v15-v2/2820000/4aa561ef-ec93-4802-9102-a91bbb3339e0.root",
        "T2_UK_London_IC: davs://gfe02.grid.hep.ph.ic.ac.uk:2880/pnfs/hep.ph.ic.ac.uk/data/cms/store/mc/Run3Summer23NanoAODv12/WminusH_Hto2Mu_WtoAll_M-125_TuneCP5_13p6TeV_powheg-minlo-pythia8/NANOAODSIM/130X_mcRun3_2023_realistic_v15-v2/2820000/4aa561ef-ec93-4802-9102-a91bbb3339e0.root"
    ],
    "cms:/store/mc/Run3Summer23NanoAODv12/WminusH_Hto2Mu_WtoAll_M-125_TuneCP5_13p6TeV_powheg-minlo-pythia8/NANOAODSIM/130X_mcRun3_2023_realistic_v15-v2/2820000/dba499f9-41af-4d99-a794-2272974b72c2.root": [
        "T2_DE_DESY: davs://dcache-cms-webdav-wan.desy.de:2880/pnfs/desy.de/cms/tier2/store/mc/Run3Summer23NanoAODv12/WminusH_Hto2Mu_WtoAll_M-125_TuneCP5_13p6TeV_powheg-minlo-pythia8/NANOAODSIM/130X_mcRun3_2023_realistic_v15-v2/2820000/dba499f9-41af-4d99-a794-2272974b72c2.root",
        "T2_BR_SPRACE: davs://osg-se.sprace.org.br:1094/store/mc/Run3Summer23NanoAODv12/WminusH_Hto2Mu_WtoAll_M-125_TuneCP5_13p6TeV_powheg-minlo-pythia8/NANOAODSIM/130X_mcRun3_2023_realistic_v15-v2/2820000/dba499f9-41af-4d99-a794-2272974b72c2.root",
        "T2_US_Wisconsin: davs://cmsxrootd.hep.wisc.edu:1094/store/mc/Run3Summer23NanoAODv12/WminusH_Hto2Mu_WtoAll_M-125_TuneCP5_13p6TeV_powheg-minlo-pythia8/NANOAODSIM/130X_mcRun3_2023_realistic_v15-v2/2820000/dba499f9-41af-4d99-a794-2272974b72c2.root",
        "T2_US_Florida: davs://cmsio2.rc.ufl.edu:1094/store/mc/Run3Summer23NanoAODv12/WminusH_Hto2Mu_WtoAll_M-125_TuneCP5_13p6TeV_powheg-minlo-pythia8/NANOAODSIM/130X_mcRun3_2023_realistic_v15-v2/2820000/dba499f9-41af-4d99-a794-2272974b72c2.root",
        "T2_RU_ITEP: davs://se3.itep.ru:2880/pnfs/itep.ru/data/cms/store/mc/Run3Summer23NanoAODv12/WminusH_Hto2Mu_WtoAll_M-125_TuneCP5_13p6TeV_powheg-minlo-pythia8/NANOAODSIM/130X_mcRun3_2023_realistic_v15-v2/2820000/dba499f9-41af-4d99-a794-2272974b72c2.root",
        "T2_IT_Pisa: davs://stwebdav.pi.infn.it:8443/cms/store/mc/Run3Summer23NanoAODv12/WminusH_Hto2Mu_WtoAll_M-125_TuneCP5_13p6TeV_powheg-minlo-pythia8/NANOAODSIM/130X_mcRun3_2023_realistic_v15-v2/2820000/dba499f9-41af-4d99-a794-2272974b72c2.root",
        "T1_RU_JINR_Disk: davs://se-wbdv.jinr-t1.ru:2880/pnfs/jinr-t1.ru/data/cms/store/mc/Run3Summer23NanoAODv12/WminusH_Hto2Mu_WtoAll_M-125_TuneCP5_13p6TeV_powheg-minlo-pythia8/NANOAODSIM/130X_mcRun3_2023_realistic_v15-v2/2820000/dba499f9-41af-4d99-a794-2272974b72c2.root",
        "T2_UK_London_IC: davs://gfe02.grid.hep.ph.ic.ac.uk:2880/pnfs/hep.ph.ic.ac.uk/data/cms/store/mc/Run3Summer23NanoAODv12/WminusH_Hto2Mu_WtoAll_M-125_TuneCP5_13p6TeV_powheg-minlo-pythia8/NANOAODSIM/130X_mcRun3_2023_realistic_v15-v2/2820000/dba499f9-41af-4d99-a794-2272974b72c2.root"
    ],
    "cms:/store/mc/Run3Summer23NanoAODv12/WminusH_Hto2Mu_WtoAll_M-125_TuneCP5_13p6TeV_powheg-minlo-pythia8/NANOAODSIM/130X_mcRun3_2023_realistic_v15-v2/2820000/885355ff-10d2-4e2f-951c-2669fc3b2115.root": [
        "T2_DE_DESY: davs://dcache-cms-webdav-wan.desy.de:2880/pnfs/desy.de/cms/tier2/store/mc/Run3Summer23NanoAODv12/WminusH_Hto2Mu_WtoAll_M-125_TuneCP5_13p6TeV_powheg-minlo-pythia8/NANOAODSIM/130X_mcRun3_2023_realistic_v15-v2/2820000/885355ff-10d2-4e2f-951c-2669fc3b2115.root",
        "T2_US_MIT: davs://xrootd.cmsaf.mit.edu:1094/store/mc/Run3Summer23NanoAODv12/WminusH_Hto2Mu_WtoAll_M-125_TuneCP5_13p6TeV_powheg-minlo-pythia8/NANOAODSIM/130X_mcRun3_2023_realistic_v15-v2/2820000/885355ff-10d2-4e2f-951c-2669fc3b2115.root",
        "T2_US_Wisconsin: davs://cmsxrootd.hep.wisc.edu:1094/store/mc/Run3Summer23NanoAODv12/WminusH_Hto2Mu_WtoAll_M-125_TuneCP5_13p6TeV_powheg-minlo-pythia8/NANOAODSIM/130X_mcRun3_2023_realistic_v15-v2/2820000/885355ff-10d2-4e2f-951c-2669fc3b2115.root",
        "T2_US_Florida: davs://cmsio2.rc.ufl.edu:1094/store/mc/Run3Summer23NanoAODv12/WminusH_Hto2Mu_WtoAll_M-125_TuneCP5_13p6TeV_powheg-minlo-pythia8/NANOAODSIM/130X_mcRun3_2023_realistic_v15-v2/2820000/885355ff-10d2-4e2f-951c-2669fc3b2115.root",
        "T2_US_Nebraska: davs://xrootd-local.unl.edu:1094/store/mc/Run3Summer23NanoAODv12/WminusH_Hto2Mu_WtoAll_M-125_TuneCP5_13p6TeV_powheg-minlo-pythia8/NANOAODSIM/130X_mcRun3_2023_realistic_v15-v2/2820000/885355ff-10d2-4e2f-951c-2669fc3b2115.root",
        "T2_IT_Pisa: davs://stwebdav.pi.infn.it:8443/cms/store/mc/Run3Summer23NanoAODv12/WminusH_Hto2Mu_WtoAll_M-125_TuneCP5_13p6TeV_powheg-minlo-pythia8/NANOAODSIM/130X_mcRun3_2023_realistic_v15-v2/2820000/885355ff-10d2-4e2f-951c-2669fc3b2115.root",
        "T1_RU_JINR_Disk: davs://se-wbdv.jinr-t1.ru:2880/pnfs/jinr-t1.ru/data/cms/store/mc/Run3Summer23NanoAODv12/WminusH_Hto2Mu_WtoAll_M-125_TuneCP5_13p6TeV_powheg-minlo-pythia8/NANOAODSIM/130X_mcRun3_2023_realistic_v15-v2/2820000/885355ff-10d2-4e2f-951c-2669fc3b2115.root",
        "T2_UK_London_IC: davs://gfe02.grid.hep.ph.ic.ac.uk:2880/pnfs/hep.ph.ic.ac.uk/data/cms/store/mc/Run3Summer23NanoAODv12/WminusH_Hto2Mu_WtoAll_M-125_TuneCP5_13p6TeV_powheg-minlo-pythia8/NANOAODSIM/130X_mcRun3_2023_realistic_v15-v2/2820000/885355ff-10d2-4e2f-951c-2669fc3b2115.root"
    ],
    "cms:/store/mc/Run3Summer23NanoAODv12/WminusH_Hto2Mu_WtoAll_M-125_TuneCP5_13p6TeV_powheg-minlo-pythia8/NANOAODSIM/130X_mcRun3_2023_realistic_v15-v2/2820000/70a822a3-33fd-4ef8-a757-ea200a17bf0a.root": [
        "T2_DE_DESY: davs://dcache-cms-webdav-wan.desy.de:2880/pnfs/desy.de/cms/tier2/store/mc/Run3Summer23NanoAODv12/WminusH_Hto2Mu_WtoAll_M-125_TuneCP5_13p6TeV_powheg-minlo-pythia8/NANOAODSIM/130X_mcRun3_2023_realistic_v15-v2/2820000/70a822a3-33fd-4ef8-a757-ea200a17bf0a.root",
        "T2_FR_GRIF: davs://eos.grif.fr:11000/eos/grif/cms/grif/store/mc/Run3Summer23NanoAODv12/WminusH_Hto2Mu_WtoAll_M-125_TuneCP5_13p6TeV_powheg-minlo-pythia8/NANOAODSIM/130X_mcRun3_2023_realistic_v15-v2/2820000/70a822a3-33fd-4ef8-a757-ea200a17bf0a.root",
        "T3_US_Colorado: davs://hepxrd01-colorado.sites.opensciencegrid.org:1094/store/mc/Run3Summer23NanoAODv12/WminusH_Hto2Mu_WtoAll_M-125_TuneCP5_13p6TeV_powheg-minlo-pythia8/NANOAODSIM/130X_mcRun3_2023_realistic_v15-v2/2820000/70a822a3-33fd-4ef8-a757-ea200a17bf0a.root",
        "T1_ES_PIC_Disk: davs://webdav-cms.pic.es:8459/pnfs/pic.es/data/cms/disk/store/mc/Run3Summer23NanoAODv12/WminusH_Hto2Mu_WtoAll_M-125_TuneCP5_13p6TeV_powheg-minlo-pythia8/NANOAODSIM/130X_mcRun3_2023_realistic_v15-v2/2820000/70a822a3-33fd-4ef8-a757-ea200a17bf0a.root",
        "T2_US_Wisconsin: davs://cmsxrootd.hep.wisc.edu:1094/store/mc/Run3Summer23NanoAODv12/WminusH_Hto2Mu_WtoAll_M-125_TuneCP5_13p6TeV_powheg-minlo-pythia8/NANOAODSIM/130X_mcRun3_2023_realistic_v15-v2/2820000/70a822a3-33fd-4ef8-a757-ea200a17bf0a.root",
        "T2_US_Florida: davs://cmsio2.rc.ufl.edu:1094/store/mc/Run3Summer23NanoAODv12/WminusH_Hto2Mu_WtoAll_M-125_TuneCP5_13p6TeV_powheg-minlo-pythia8/NANOAODSIM/130X_mcRun3_2023_realistic_v15-v2/2820000/70a822a3-33fd-4ef8-a757-ea200a17bf0a.root",
        "T2_IT_Pisa: davs://stwebdav.pi.infn.it:8443/cms/store/mc/Run3Summer23NanoAODv12/WminusH_Hto2Mu_WtoAll_M-125_TuneCP5_13p6TeV_powheg-minlo-pythia8/NANOAODSIM/130X_mcRun3_2023_realistic_v15-v2/2820000/70a822a3-33fd-4ef8-a757-ea200a17bf0a.root",
        "T1_RU_JINR_Disk: davs://se-wbdv.jinr-t1.ru:2880/pnfs/jinr-t1.ru/data/cms/store/mc/Run3Summer23NanoAODv12/WminusH_Hto2Mu_WtoAll_M-125_TuneCP5_13p6TeV_powheg-minlo-pythia8/NANOAODSIM/130X_mcRun3_2023_realistic_v15-v2/2820000/70a822a3-33fd-4ef8-a757-ea200a17bf0a.root",
        "T2_UK_London_IC: davs://gfe02.grid.hep.ph.ic.ac.uk:2880/pnfs/hep.ph.ic.ac.uk/data/cms/store/mc/Run3Summer23NanoAODv12/WminusH_Hto2Mu_WtoAll_M-125_TuneCP5_13p6TeV_powheg-minlo-pythia8/NANOAODSIM/130X_mcRun3_2023_realistic_v15-v2/2820000/70a822a3-33fd-4ef8-a757-ea200a17bf0a.root"
    ]
}