+----------------------------------------------------------------------------------------------------------------------------------------------------------------------------------------------+--------+-------------+------------+----------+
| SCOPE:NAME                                                                                                                                                                                   | GUID   | ADLER32     | FILESIZE   | EVENTS   |
|----------------------------------------------------------------------------------------------------------------------------------------------------------------------------------------------+--------+-------------+------------+----------|
| cms:/store/mc/Run3Summer23NanoAODv12/WminusH_Hto2B_Wto2Q_M-125_TuneCP5_13p6TeV_powheg-pythia8/NANOAODSIM/130X_mcRun3_2023_realistic_v14-v3/2820000/0ebf6e70-1e5d-4438-83d7-c0123d898cbf.root | (None) | ad:346cd8fa | 29.547 MB  |          |
| cms:/store/mc/Run3Summer23NanoAODv12/WminusH_Hto2B_Wto2Q_M-125_TuneCP5_13p6TeV_powheg-pythia8/NANOAODSIM/130X_mcRun3_2023_realistic_v14-v3/2820000/92931e46-9f95-4217-b840-215063bee75a.root | (None) | ad:50bb6233 | 42.976 MB  |          |
| cms:/store/mc/Run3Summer23NanoAODv12/WminusH_Hto2B_Wto2Q_M-125_TuneCP5_13p6TeV_powheg-pythia8/NANOAODSIM/130X_mcRun3_2023_realistic_v14-v3/2820000/31c29cfc-f33b-4d2f-8430-ac5fe9c6a428.root | (None) | ad:c7e1c4a5 | 122.208 MB |          |
| cms:/store/mc/Run3Summer23NanoAODv12/WminusH_Hto2B_Wto2Q_M-125_TuneCP5_13p6TeV_powheg-pythia8/NANOAODSIM/130X_mcRun3_2023_realistic_v14-v3/2820000/52b35777-18ee-4b55-b48b-f21b7364af85.root | (None) | ad:269cf6f2 | 118.521 MB |          |
| cms:/store/mc/Run3Summer23NanoAODv12/WminusH_Hto2B_Wto2Q_M-125_TuneCP5_13p6TeV_powheg-pythia8/NANOAODSIM/130X_mcRun3_2023_realistic_v14-v3/2820000/a4257e96-d5a4-4706-91e2-86dc911ceeb4.root | (None) | ad:0d8370fe | 56.446 MB  |          |
| cms:/store/mc/Run3Summer23NanoAODv12/WminusH_Hto2B_Wto2Q_M-125_TuneCP5_13p6TeV_powheg-pythia8/NANOAODSIM/130X_mcRun3_2023_realistic_v14-v3/30000/9f5926d3-9e5d-401b-90d9-08179c68fc35.root   | (None) | ad:a2745a0d | 101.634 MB |          |
| cms:/store/mc/Run3Summer23NanoAODv12/WminusH_Hto2B_Wto2Q_M-125_TuneCP5_13p6TeV_powheg-pythia8/NANOAODSIM/130X_mcRun3_2023_realistic_v14-v3/30000/a57bf921-8458-44fa-bde0-4a4006adb700.root   | (None) | ad:1990d486 | 118.558 MB |          |
| cms:/store/mc/Run3Summer23NanoAODv12/WminusH_Hto2B_Wto2Q_M-125_TuneCP5_13p6TeV_powheg-pythia8/NANOAODSIM/130X_mcRun3_2023_realistic_v14-v3/30000/af608cec-cdf0-4a37-b283-fbc111680fe9.root   | (None) | ad:1601f6d1 | 121.385 MB |          |
| cms:/store/mc/Run3Summer23NanoAODv12/WminusH_Hto2B_Wto2Q_M-125_TuneCP5_13p6TeV_powheg-pythia8/NANOAODSIM/130X_mcRun3_2023_realistic_v14-v3/30000/0c47349b-1bfb-4f7a-84f3-6ee222851730.root   | (None) | ad:73738184 | 7.649 MB   |          |
| cms:/store/mc/Run3Summer23NanoAODv12/WminusH_Hto2B_Wto2Q_M-125_TuneCP5_13p6TeV_powheg-pythia8/NANOAODSIM/130X_mcRun3_2023_realistic_v14-v3/2810000/0f7d0a74-4e54-47dd-b449-fd87f71e8f6c.root | (None) | ad:9eee9174 | 119.377 MB |          |
| cms:/store/mc/Run3Summer23NanoAODv12/WminusH_Hto2B_Wto2Q_M-125_TuneCP5_13p6TeV_powheg-pythia8/NANOAODSIM/130X_mcRun3_2023_realistic_v14-v3/2810000/3d5fdaa0-7d21-4f81-9495-8e24ab2c9b04.root | (None) | ad:6e35a431 | 23.922 MB  |          |
| cms:/store/mc/Run3Summer23NanoAODv12/WminusH_Hto2B_Wto2Q_M-125_TuneCP5_13p6TeV_powheg-pythia8/NANOAODSIM/130X_mcRun3_2023_realistic_v14-v3/2810000/965fb989-3329-4f98-914d-caccedd14354.root | (None) | ad:afc41efc | 63.721 MB  |          |
| cms:/store/mc/Run3Summer23NanoAODv12/WminusH_Hto2B_Wto2Q_M-125_TuneCP5_13p6TeV_powheg-pythia8/NANOAODSIM/130X_mcRun3_2023_realistic_v14-v3/40000/23bb5e01-4a6a-4d34-aceb-fe06566f7d11.root   | (None) | ad:fd86ac04 | 3.927 MB   |          |
| cms:/store/mc/Run3Summer23NanoAODv12/WminusH_Hto2B_Wto2Q_M-125_TuneCP5_13p6TeV_powheg-pythia8/NANOAODSIM/130X_mcRun3_2023_realistic_v14-v3/40000/40c5555e-1f05-4e03-98e8-5f3f7cbfcb33.root   | (None) | ad:9f3164e4 | 24.290 MB  |          |
| cms:/store/mc/Run3Summer23NanoAODv12/WminusH_Hto2B_Wto2Q_M-125_TuneCP5_13p6TeV_powheg-pythia8/NANOAODSIM/130X_mcRun3_2023_realistic_v14-v3/40000/eca1f76c-f07f-45b2-a777-080fcd052818.root   | (None) | ad:a592b1e6 | 24.545 MB  |          |
| cms:/store/mc/Run3Summer23NanoAODv12/WminusH_Hto2B_Wto2Q_M-125_TuneCP5_13p6TeV_powheg-pythia8/NANOAODSIM/130X_mcRun3_2023_realistic_v14-v3/30000/1e172e78-f7e9-4d8e-a0ed-d953cbffe936.root   | (None) | ad:3ef1986a | 15.142 MB  |          |
| cms:/store/mc/Run3Summer23NanoAODv12/WminusH_Hto2B_Wto2Q_M-125_TuneCP5_13p6TeV_powheg-pythia8/NANOAODSIM/130X_mcRun3_2023_realistic_v14-v3/30000/71b1025b-9060-4d46-93f0-b8e899de1d5d.root   | (None) | ad:071cb2a6 | 3.267 MB   |          |
| cms:/store/mc/Run3Summer23NanoAODv12/WminusH_Hto2B_Wto2Q_M-125_TuneCP5_13p6TeV_powheg-pythia8/NANOAODSIM/130X_mcRun3_2023_realistic_v14-v3/30000/7d4436ed-a720-454f-87a9-137a5a0d94bb.root   | (None) | ad:e75aa27b | 10.443 MB  |          |
| cms:/store/mc/Run3Summer23NanoAODv12/WminusH_Hto2B_Wto2Q_M-125_TuneCP5_13p6TeV_powheg-pythia8/NANOAODSIM/130X_mcRun3_2023_realistic_v14-v3/2810000/4ab5cb6c-d563-4d57-9726-b79ee6e7bb25.root | (None) | ad:31172cb0 | 38.486 MB  |          |
| cms:/store/mc/Run3Summer23NanoAODv12/WminusH_Hto2B_Wto2Q_M-125_TuneCP5_13p6TeV_powheg-pythia8/NANOAODSIM/130X_mcRun3_2023_realistic_v14-v3/2810000/c3393ece-e705-4887-9c79-e3f42b4addd7.root | (None) | ad:caed8711 | 119.029 MB |          |
| cms:/store/mc/Run3Summer23NanoAODv12/WminusH_Hto2B_Wto2Q_M-125_TuneCP5_13p6TeV_powheg-pythia8/NANOAODSIM/130X_mcRun3_2023_realistic_v14-v3/30000/1a6ededb-1558-4cab-b262-01f0dda5620e.root   | (None) | ad:2737e8ed | 62.925 MB  |          |
| cms:/store/mc/Run3Summer23NanoAODv12/WminusH_Hto2B_Wto2Q_M-125_TuneCP5_13p6TeV_powheg-pythia8/NANOAODSIM/130X_mcRun3_2023_realistic_v14-v3/30000/2c1e8bb2-9b5e-41bc-99f6-3ad6b9c1f1f9.root   | (None) | ad:923d48c9 | 11.910 MB  |          |
| cms:/store/mc/Run3Summer23NanoAODv12/WminusH_Hto2B_Wto2Q_M-125_TuneCP5_13p6TeV_powheg-pythia8/NANOAODSIM/130X_mcRun3_2023_realistic_v14-v3/30000/d17801d5-0dab-4fe3-b35d-356d1cccb288.root   | (None) | ad:616d5308 | 3.027 MB   |          |
| cms:/store/mc/Run3Summer23NanoAODv12/WminusH_Hto2B_Wto2Q_M-125_TuneCP5_13p6TeV_powheg-pythia8/NANOAODSIM/130X_mcRun3_2023_realistic_v14-v3/2810000/30d0338c-ad01-44fb-983c-ad01717dc984.root | (None) | ad:8fbf18fc | 67.919 MB  |          |
| cms:/store/mc/Run3Summer23NanoAODv12/WminusH_Hto2B_Wto2Q_M-125_TuneCP5_13p6TeV_powheg-pythia8/NANOAODSIM/130X_mcRun3_2023_realistic_v14-v3/2810000/ff4d9814-322b-4abf-818c-763322f29653.root | (None) | ad:ade400c1 | 65.336 MB  |          |
| cms:/store/mc/Run3Summer23NanoAODv12/WminusH_Hto2B_Wto2Q_M-125_TuneCP5_13p6TeV_powheg-pythia8/NANOAODSIM/130X_mcRun3_2023_realistic_v14-v3/2810000/457b745c-c984-4b39-b9b3-22f275cfbb7a.root | (None) | ad:c6efe6ac | 41.913 MB  |          |
| cms:/store/mc/Run3Summer23NanoAODv12/WminusH_Hto2B_Wto2Q_M-125_TuneCP5_13p6TeV_powheg-pythia8/NANOAODSIM/130X_mcRun3_2023_realistic_v14-v3/2810000/884886fd-f11b-46ec-bdf0-66ddacaa1e18.root | (None) | ad:2b5d755f | 126.753 MB |          |
| cms:/store/mc/Run3Summer23NanoAODv12/WminusH_Hto2B_Wto2Q_M-125_TuneCP5_13p6TeV_powheg-pythia8/NANOAODSIM/130X_mcRun3_2023_realistic_v14-v3/2810000/90d1101c-0d73-456e-af78-25a3c03add20.root | (None) | ad:bcd8dc00 | 47.484 MB  |          |
| cms:/store/mc/Run3Summer23NanoAODv12/WminusH_Hto2B_Wto2Q_M-125_TuneCP5_13p6TeV_powheg-pythia8/NANOAODSIM/130X_mcRun3_2023_realistic_v14-v3/2810000/03e6bb7e-7aa7-4760-8cfe-a86b8f0b0fe6.root | (None) | ad:4a443f4c | 3.260 MB   |          |
| cms:/store/mc/Run3Summer23NanoAODv12/WminusH_Hto2B_Wto2Q_M-125_TuneCP5_13p6TeV_powheg-pythia8/NANOAODSIM/130X_mcRun3_2023_realistic_v14-v3/2810000/5c1fad02-f149-407b-be40-3d3a4645db6b.root | (None) | ad:07939211 | 3.287 MB   |          |
| cms:/store/mc/Run3Summer23NanoAODv12/WminusH_Hto2B_Wto2Q_M-125_TuneCP5_13p6TeV_powheg-pythia8/NANOAODSIM/130X_mcRun3_2023_realistic_v14-v3/30000/130cf5e8-f523-43a6-8492-cd43068e9cca.root   | (None) | ad:f4d165cb | 4.556 MB   |          |
| cms:/store/mc/Run3Summer23NanoAODv12/WminusH_Hto2B_Wto2Q_M-125_TuneCP5_13p6TeV_powheg-pythia8/NANOAODSIM/130X_mcRun3_2023_realistic_v14-v3/2820000/63d0cf0b-e54c-43f1-b86c-41537941d3ea.root | (None) | ad:b7257aa3 | 65.480 MB  |          |
| cms:/store/mc/Run3Summer23NanoAODv12/WminusH_Hto2B_Wto2Q_M-125_TuneCP5_13p6TeV_powheg-pythia8/NANOAODSIM/130X_mcRun3_2023_realistic_v14-v3/2820000/64886973-f07d-472f-91e0-e08c047fd639.root | (None) | ad:103bc2ed | 49.115 MB  |          |
| cms:/store/mc/Run3Summer23NanoAODv12/WminusH_Hto2B_Wto2Q_M-125_TuneCP5_13p6TeV_powheg-pythia8/NANOAODSIM/130X_mcRun3_2023_realistic_v14-v3/2810000/4dfad1f7-99a5-474c-a9bc-183024bddf58.root | (None) | ad:dba0a7d2 | 25.658 MB  |          |
| cms:/store/mc/Run3Summer23NanoAODv12/WminusH_Hto2B_Wto2Q_M-125_TuneCP5_13p6TeV_powheg-pythia8/NANOAODSIM/130X_mcRun3_2023_realistic_v14-v3/2820000/cbf1b52e-44c2-4ef9-bb38-5d6655a76642.root | (None) | ad:abf9adde | 3.264 MB   |          |
| cms:/store/mc/Run3Summer23NanoAODv12/WminusH_Hto2B_Wto2Q_M-125_TuneCP5_13p6TeV_powheg-pythia8/NANOAODSIM/130X_mcRun3_2023_realistic_v14-v3/2820000/27e4284d-9037-4999-a41c-e21498ec6fd9.root | (None) | ad:4286af6a | 3.259 MB   |          |
| cms:/store/mc/Run3Summer23NanoAODv12/WminusH_Hto2B_Wto2Q_M-125_TuneCP5_13p6TeV_powheg-pythia8/NANOAODSIM/130X_mcRun3_2023_realistic_v14-v3/2810000/0a3e2932-dd08-42b1-b288-3537715e91d4.root | (None) | ad:7df26307 | 12.738 MB  |          |
| cms:/store/mc/Run3Summer23NanoAODv12/WminusH_Hto2B_Wto2Q_M-125_TuneCP5_13p6TeV_powheg-pythia8/NANOAODSIM/130X_mcRun3_2023_realistic_v14-v3/2810000/0b758ef8-99c2-4640-83cb-7bcd0de606d4.root | (None) | ad:27a86225 | 34.487 MB  |          |
| cms:/store/mc/Run3Summer23NanoAODv12/WminusH_Hto2B_Wto2Q_M-125_TuneCP5_13p6TeV_powheg-pythia8/NANOAODSIM/130X_mcRun3_2023_realistic_v14-v3/40000/249828e2-8d17-4679-913b-9af6be54ba20.root   | (None) | ad:486a4e94 | 43.453 MB  |          |
| cms:/store/mc/Run3Summer23NanoAODv12/WminusH_Hto2B_Wto2Q_M-125_TuneCP5_13p6TeV_powheg-pythia8/NANOAODSIM/130X_mcRun3_2023_realistic_v14-v3/40000/41ea8aeb-c591-47b1-9b53-84c5a01bc696.root   | (None) | ad:6666b270 | 3.499 MB   |          |
| cms:/store/mc/Run3Summer23NanoAODv12/WminusH_Hto2B_Wto2Q_M-125_TuneCP5_13p6TeV_powheg-pythia8/NANOAODSIM/130X_mcRun3_2023_realistic_v14-v3/40000/f2e16999-d3e7-4574-a0ee-0af5abe621e2.root   | (None) | ad:2b6b9cb8 | 20.636 MB  |          |
| cms:/store/mc/Run3Summer23NanoAODv12/WminusH_Hto2B_Wto2Q_M-125_TuneCP5_13p6TeV_powheg-pythia8/NANOAODSIM/130X_mcRun3_2023_realistic_v14-v3/30000/02931517-20e3-48e6-b37e-5d15a1c3c024.root   | (None) | ad:c55cac51 | 12.717 MB  |          |
| cms:/store/mc/Run3Summer23NanoAODv12/WminusH_Hto2B_Wto2Q_M-125_TuneCP5_13p6TeV_powheg-pythia8/NANOAODSIM/130X_mcRun3_2023_realistic_v14-v3/30000/178d90d5-e0df-4c03-b294-707fe8cfaa69.root   | (None) | ad:61a08f39 | 21.149 MB  |          |
| cms:/store/mc/Run3Summer23NanoAODv12/WminusH_Hto2B_Wto2Q_M-125_TuneCP5_13p6TeV_powheg-pythia8/NANOAODSIM/130X_mcRun3_2023_realistic_v14-v3/30000/da510b80-9d76-4e93-afa1-bd0accaf5098.root   | (None) | ad:018680b4 | 20.690 MB  |          |
| cms:/store/mc/Run3Summer23NanoAODv12/WminusH_Hto2B_Wto2Q_M-125_TuneCP5_13p6TeV_powheg-pythia8/NANOAODSIM/130X_mcRun3_2023_realistic_v14-v3/30000/8ca0c364-d8f0-4554-b247-17b407244af0.root   | (None) | ad:97666b89 | 5.835 MB   |          |
| cms:/store/mc/Run3Summer23NanoAODv12/WminusH_Hto2B_Wto2Q_M-125_TuneCP5_13p6TeV_powheg-pythia8/NANOAODSIM/130X_mcRun3_2023_realistic_v14-v3/30000/ee5b99d0-6004-4a0a-8186-47c035c412f0.root   | (None) | ad:c62362ab | 15.701 MB  |          |
| cms:/store/mc/Run3Summer23NanoAODv12/WminusH_Hto2B_Wto2Q_M-125_TuneCP5_13p6TeV_powheg-pythia8/NANOAODSIM/130X_mcRun3_2023_realistic_v14-v3/2820000/7aa34529-91a7-41f4-85e0-db9ae7393b01.root | (None) | ad:d4d3c8ca | 119.722 MB |          |
| cms:/store/mc/Run3Summer23NanoAODv12/WminusH_Hto2B_Wto2Q_M-125_TuneCP5_13p6TeV_powheg-pythia8/NANOAODSIM/130X_mcRun3_2023_realistic_v14-v3/30000/7c24572a-d3c0-46e3-8d9f-3ce2c797eeaf.root   | (None) | ad:dcb07f0d | 14.976 MB  |          |
| cms:/store/mc/Run3Summer23NanoAODv12/WminusH_Hto2B_Wto2Q_M-125_TuneCP5_13p6TeV_powheg-pythia8/NANOAODSIM/130X_mcRun3_2023_realistic_v14-v3/30000/a104661a-0627-468e-8f24-ccb2a9e68368.root   | (None) | ad:d19c0bcc | 9.038 MB   |          |
| cms:/store/mc/Run3Summer23NanoAODv12/WminusH_Hto2B_Wto2Q_M-125_TuneCP5_13p6TeV_powheg-pythia8/NANOAODSIM/130X_mcRun3_2023_realistic_v14-v3/2810000/20197057-7cc1-4dbb-baf8-a334ca4f1436.root | (None) | ad:8328234f | 13.337 MB  |          |
| cms:/store/mc/Run3Summer23NanoAODv12/WminusH_Hto2B_Wto2Q_M-125_TuneCP5_13p6TeV_powheg-pythia8/NANOAODSIM/130X_mcRun3_2023_realistic_v14-v3/2810000/51a29a27-400c-4c04-8d08-172cc77e1a70.root | (None) | ad:7ab08ae5 | 99.109 MB  |          |
| cms:/store/mc/Run3Summer23NanoAODv12/WminusH_Hto2B_Wto2Q_M-125_TuneCP5_13p6TeV_powheg-pythia8/NANOAODSIM/130X_mcRun3_2023_realistic_v14-v3/2810000/ba5cb700-25b7-429f-b31e-dd8f901fe2c8.root | (None) | ad:fe0aee51 | 33.869 MB  |          |
| cms:/store/mc/Run3Summer23NanoAODv12/WminusH_Hto2B_Wto2Q_M-125_TuneCP5_13p6TeV_powheg-pythia8/NANOAODSIM/130X_mcRun3_2023_realistic_v14-v3/2810000/6b18feb5-5e59-4422-b31f-9a1406d43cd0.root | (None) | ad:4b2776ed | 5.812 MB   |          |
| cms:/store/mc/Run3Summer23NanoAODv12/WminusH_Hto2B_Wto2Q_M-125_TuneCP5_13p6TeV_powheg-pythia8/NANOAODSIM/130X_mcRun3_2023_realistic_v14-v3/2810000/9a0fe6fc-1d53-487f-bc32-8dc4c2e4da2b.root | (None) | ad:cc95514f | 7.456 MB   |          |
| cms:/store/mc/Run3Summer23NanoAODv12/WminusH_Hto2B_Wto2Q_M-125_TuneCP5_13p6TeV_powheg-pythia8/NANOAODSIM/130X_mcRun3_2023_realistic_v14-v3/2810000/bb4ae7a8-909f-4bef-a27a-96a74fc1b976.root | (None) | ad:a5912e58 | 29.012 MB  |          |
| cms:/store/mc/Run3Summer23NanoAODv12/WminusH_Hto2B_Wto2Q_M-125_TuneCP5_13p6TeV_powheg-pythia8/NANOAODSIM/130X_mcRun3_2023_realistic_v14-v3/40000/72235ee2-f690-494f-93dd-f38d3bb8027b.root   | (None) | ad:769cec41 | 15.374 MB  |          |
| cms:/store/mc/Run3Summer23NanoAODv12/WminusH_Hto2B_Wto2Q_M-125_TuneCP5_13p6TeV_powheg-pythia8/NANOAODSIM/130X_mcRun3_2023_realistic_v14-v3/40000/bec7c2ed-a8b7-4867-8042-3054ba52573f.root   | (None) | ad:9297db4c | 23.037 MB  |          |
| cms:/store/mc/Run3Summer23NanoAODv12/WminusH_Hto2B_Wto2Q_M-125_TuneCP5_13p6TeV_powheg-pythia8/NANOAODSIM/130X_mcRun3_2023_realistic_v14-v3/40000/d0245b6a-8fdc-4bf8-bf11-8cf3f65e6df0.root   | (None) | ad:916b2909 | 3.706 MB   |          |
| cms:/store/mc/Run3Summer23NanoAODv12/WminusH_Hto2B_Wto2Q_M-125_TuneCP5_13p6TeV_powheg-pythia8/NANOAODSIM/130X_mcRun3_2023_realistic_v14-v3/30000/b93fc044-ad52-4b96-b4df-52387d27bb6c.root   | (None) | ad:f3a6ba97 | 18.380 MB  |          |
| cms:/store/mc/Run3Summer23NanoAODv12/WminusH_Hto2B_Wto2Q_M-125_TuneCP5_13p6TeV_powheg-pythia8/NANOAODSIM/130X_mcRun3_2023_realistic_v14-v3/2810000/519a57df-86b3-4dfb-b3aa-e2e4bd925508.root | (None) | ad:c48c4128 | 118.471 MB |          |
| cms:/store/mc/Run3Summer23NanoAODv12/WminusH_Hto2B_Wto2Q_M-125_TuneCP5_13p6TeV_powheg-pythia8/NANOAODSIM/130X_mcRun3_2023_realistic_v14-v3/2810000/556fa017-a771-4fd7-b4ba-72ef5e0f93b9.root | (None) | ad:87f4de40 | 120.449 MB |          |
| cms:/store/mc/Run3Summer23NanoAODv12/WminusH_Hto2B_Wto2Q_M-125_TuneCP5_13p6TeV_powheg-pythia8/NANOAODSIM/130X_mcRun3_2023_realistic_v14-v3/2810000/943987c1-39fb-47a2-84a0-90aec8141ffc.root | (None) | ad:3ee7e559 | 119.543 MB |          |
| cms:/store/mc/Run3Summer23NanoAODv12/WminusH_Hto2B_Wto2Q_M-125_TuneCP5_13p6TeV_powheg-pythia8/NANOAODSIM/130X_mcRun3_2023_realistic_v14-v3/2810000/9a2dcebb-9000-4387-93c4-3b6319a225ac.root | (None) | ad:53c048da | 118.557 MB |          |
| cms:/store/mc/Run3Summer23NanoAODv12/WminusH_Hto2B_Wto2Q_M-125_TuneCP5_13p6TeV_powheg-pythia8/NANOAODSIM/130X_mcRun3_2023_realistic_v14-v3/2810000/e54163f1-0b62-44e9-9602-ac06b4bbba80.root | (None) | ad:90300048 | 119.581 MB |          |
| cms:/store/mc/Run3Summer23NanoAODv12/WminusH_Hto2B_Wto2Q_M-125_TuneCP5_13p6TeV_powheg-pythia8/NANOAODSIM/130X_mcRun3_2023_realistic_v14-v3/2820000/02848219-24fc-476b-b2e4-9d80630c450c.root | (None) | ad:e6372302 | 3.500 MB   |          |
| cms:/store/mc/Run3Summer23NanoAODv12/WminusH_Hto2B_Wto2Q_M-125_TuneCP5_13p6TeV_powheg-pythia8/NANOAODSIM/130X_mcRun3_2023_realistic_v14-v3/2810000/c43c87de-0c61-4a2d-9f9e-789316a51570.root | (None) | ad:229b4b59 | 13.537 MB  |          |
| cms:/store/mc/Run3Summer23NanoAODv12/WminusH_Hto2B_Wto2Q_M-125_TuneCP5_13p6TeV_powheg-pythia8/NANOAODSIM/130X_mcRun3_2023_realistic_v14-v3/2810000/cf4a9f60-83f9-4859-b5e1-3f37cd8ec967.root | (None) | ad:3c3cb082 | 20.696 MB  |          |
| cms:/store/mc/Run3Summer23NanoAODv12/WminusH_Hto2B_Wto2Q_M-125_TuneCP5_13p6TeV_powheg-pythia8/NANOAODSIM/130X_mcRun3_2023_realistic_v14-v3/30000/092a49e2-95b3-4349-9e5d-dd8a3e5b7339.root   | (None) | ad:7bedde64 | 119.945 MB |          |
| cms:/store/mc/Run3Summer23NanoAODv12/WminusH_Hto2B_Wto2Q_M-125_TuneCP5_13p6TeV_powheg-pythia8/NANOAODSIM/130X_mcRun3_2023_realistic_v14-v3/30000/57b6b38b-7d47-45d7-90be-964881e16c7d.root   | (None) | ad:d73e17c2 | 118.928 MB |          |
| cms:/store/mc/Run3Summer23NanoAODv12/WminusH_Hto2B_Wto2Q_M-125_TuneCP5_13p6TeV_powheg-pythia8/NANOAODSIM/130X_mcRun3_2023_realistic_v14-v3/30000/d91c0e84-d660-499d-875e-d094728ed04b.root   | (None) | ad:c90415dc | 126.193 MB |          |
| cms:/store/mc/Run3Summer23NanoAODv12/WminusH_Hto2B_Wto2Q_M-125_TuneCP5_13p6TeV_powheg-pythia8/NANOAODSIM/130X_mcRun3_2023_realistic_v14-v3/30000/e8301960-e30e-4511-b046-e3be12641701.root   | (None) | ad:24eedc4a | 39.560 MB  |          |
| cms:/store/mc/Run3Summer23NanoAODv12/WminusH_Hto2B_Wto2Q_M-125_TuneCP5_13p6TeV_powheg-pythia8/NANOAODSIM/130X_mcRun3_2023_realistic_v14-v3/30000/ee90a9b7-39f0-4a3b-8c16-8c4addb47def.root   | (None) | ad:548517b4 | 121.149 MB |          |
| cms:/store/mc/Run3Summer23NanoAODv12/WminusH_Hto2B_Wto2Q_M-125_TuneCP5_13p6TeV_powheg-pythia8/NANOAODSIM/130X_mcRun3_2023_realistic_v14-v3/2810000/0d8de214-51b8-48da-92a9-fbd295d1eb13.root | (None) | ad:552c1e59 | 15.142 MB  |          |
| cms:/store/mc/Run3Summer23NanoAODv12/WminusH_Hto2B_Wto2Q_M-125_TuneCP5_13p6TeV_powheg-pythia8/NANOAODSIM/130X_mcRun3_2023_realistic_v14-v3/2810000/52905a9a-8290-49ab-88cd-e1c5eedbd3e5.root | (None) | ad:c4606d8d | 3.025 MB   |          |
| cms:/store/mc/Run3Summer23NanoAODv12/WminusH_Hto2B_Wto2Q_M-125_TuneCP5_13p6TeV_powheg-pythia8/NANOAODSIM/130X_mcRun3_2023_realistic_v14-v3/2810000/bee52520-2382-4e42-84f3-be191043b0fc.root | (None) | ad:e0d87e4d | 20.728 MB  |          |
| cms:/store/mc/Run3Summer23NanoAODv12/WminusH_Hto2B_Wto2Q_M-125_TuneCP5_13p6TeV_powheg-pythia8/NANOAODSIM/130X_mcRun3_2023_realistic_v14-v3/2820000/007629aa-2cdd-4dd4-833f-42d3185d5637.root | (None) | ad:2d7d4ed4 | 119.125 MB |          |
| cms:/store/mc/Run3Summer23NanoAODv12/WminusH_Hto2B_Wto2Q_M-125_TuneCP5_13p6TeV_powheg-pythia8/NANOAODSIM/130X_mcRun3_2023_realistic_v14-v3/2820000/208a4fbb-c068-4264-af76-290f357a2b5c.root | (None) | ad:f48bfa6c | 120.348 MB |          |
| cms:/store/mc/Run3Summer23NanoAODv12/WminusH_Hto2B_Wto2Q_M-125_TuneCP5_13p6TeV_powheg-pythia8/NANOAODSIM/130X_mcRun3_2023_realistic_v14-v3/2820000/209c6ac4-baf7-4592-876c-3216a88dce6d.root | (None) | ad:18ad6594 | 122.651 MB |          |
| cms:/store/mc/Run3Summer23NanoAODv12/WminusH_Hto2B_Wto2Q_M-125_TuneCP5_13p6TeV_powheg-pythia8/NANOAODSIM/130X_mcRun3_2023_realistic_v14-v3/2820000/38e8caba-5390-4589-9fa0-faeddd96278d.root | (None) | ad:1326a999 | 118.855 MB |          |
| cms:/store/mc/Run3Summer23NanoAODv12/WminusH_Hto2B_Wto2Q_M-125_TuneCP5_13p6TeV_powheg-pythia8/NANOAODSIM/130X_mcRun3_2023_realistic_v14-v3/2820000/81e4c391-6934-4942-bedd-842f79afcb6f.root | (None) | ad:f13f2672 | 124.910 MB |          |
| cms:/store/mc/Run3Summer23NanoAODv12/WminusH_Hto2B_Wto2Q_M-125_TuneCP5_13p6TeV_powheg-pythia8/NANOAODSIM/130X_mcRun3_2023_realistic_v14-v3/30000/9b3cef87-4b10-40a6-a362-dbd78b954b28.root   | (None) | ad:35551011 | 16.557 MB  |          |
| cms:/store/mc/Run3Summer23NanoAODv12/WminusH_Hto2B_Wto2Q_M-125_TuneCP5_13p6TeV_powheg-pythia8/NANOAODSIM/130X_mcRun3_2023_realistic_v14-v3/30000/da1ff087-e1ee-4cdd-a56c-b2c46027d73c.root   | (None) | ad:80c316c5 | 6.234 MB   |          |
| cms:/store/mc/Run3Summer23NanoAODv12/WminusH_Hto2B_Wto2Q_M-125_TuneCP5_13p6TeV_powheg-pythia8/NANOAODSIM/130X_mcRun3_2023_realistic_v14-v3/30000/57be1353-d889-4fba-98f9-fcaad5136b4f.root   | (None) | ad:858d1be3 | 71.810 MB  |          |
| cms:/store/mc/Run3Summer23NanoAODv12/WminusH_Hto2B_Wto2Q_M-125_TuneCP5_13p6TeV_powheg-pythia8/NANOAODSIM/130X_mcRun3_2023_realistic_v14-v3/30000/a2475807-dfc2-47bd-83b3-be17984beb0d.root   | (None) | ad:5ce61d6f | 76.684 MB  |          |
| cms:/store/mc/Run3Summer23NanoAODv12/WminusH_Hto2B_Wto2Q_M-125_TuneCP5_13p6TeV_powheg-pythia8/NANOAODSIM/130X_mcRun3_2023_realistic_v14-v3/2810000/938bedb4-3c5c-4396-8e76-304bfd20315e.root | (None) | ad:786d0008 | 14.796 MB  |          |
| cms:/store/mc/Run3Summer23NanoAODv12/WminusH_Hto2B_Wto2Q_M-125_TuneCP5_13p6TeV_powheg-pythia8/NANOAODSIM/130X_mcRun3_2023_realistic_v14-v3/30000/8ee0ff51-fe75-40dc-a114-2835c77d847f.root   | (None) | ad:7ae80bf5 | 9.718 MB   |          |
| cms:/store/mc/Run3Summer23NanoAODv12/WminusH_Hto2B_Wto2Q_M-125_TuneCP5_13p6TeV_powheg-pythia8/NANOAODSIM/130X_mcRun3_2023_realistic_v14-v3/40000/0b24f611-ac98-4b2a-a5cb-a9820a12af1a.root   | (None) | ad:c4a5f99b | 9.055 MB   |          |
| cms:/store/mc/Run3Summer23NanoAODv12/WminusH_Hto2B_Wto2Q_M-125_TuneCP5_13p6TeV_powheg-pythia8/NANOAODSIM/130X_mcRun3_2023_realistic_v14-v3/40000/39c9c641-9f7d-4b21-a064-f0dd9d4a330e.root   | (None) | ad:043633ba | 3.499 MB   |          |
| cms:/store/mc/Run3Summer23NanoAODv12/WminusH_Hto2B_Wto2Q_M-125_TuneCP5_13p6TeV_powheg-pythia8/NANOAODSIM/130X_mcRun3_2023_realistic_v14-v3/40000/9e9722d5-41ff-4e6d-b93d-45f2a5197e31.root   | (None) | ad:e03935a2 | 66.540 MB  |          |
| cms:/store/mc/Run3Summer23NanoAODv12/WminusH_Hto2B_Wto2Q_M-125_TuneCP5_13p6TeV_powheg-pythia8/NANOAODSIM/130X_mcRun3_2023_realistic_v14-v3/40000/c889bed7-061c-4711-891a-ade3c6cd5425.root   | (None) | ad:afd73679 | 86.032 MB  |          |
| cms:/store/mc/Run3Summer23NanoAODv12/WminusH_Hto2B_Wto2Q_M-125_TuneCP5_13p6TeV_powheg-pythia8/NANOAODSIM/130X_mcRun3_2023_realistic_v14-v3/40000/1450bd95-426d-43e9-81f2-a453cd632ad5.root   | (None) | ad:941f1ce6 | 133.528 MB |          |
| cms:/store/mc/Run3Summer23NanoAODv12/WminusH_Hto2B_Wto2Q_M-125_TuneCP5_13p6TeV_powheg-pythia8/NANOAODSIM/130X_mcRun3_2023_realistic_v14-v3/40000/2bb94b36-4ef1-463a-a054-4e1f82c54508.root   | (None) | ad:5d616702 | 120.141 MB |          |
| cms:/store/mc/Run3Summer23NanoAODv12/WminusH_Hto2B_Wto2Q_M-125_TuneCP5_13p6TeV_powheg-pythia8/NANOAODSIM/130X_mcRun3_2023_realistic_v14-v3/40000/34ddc38f-ed76-4b93-9ec2-b4ebd7048655.root   | (None) | ad:b865ae4c | 134.037 MB |          |
| cms:/store/mc/Run3Summer23NanoAODv12/WminusH_Hto2B_Wto2Q_M-125_TuneCP5_13p6TeV_powheg-pythia8/NANOAODSIM/130X_mcRun3_2023_realistic_v14-v3/40000/3e204653-cfe6-46af-92e1-bfd011b044fa.root   | (None) | ad:149ad0c3 | 118.709 MB |          |
| cms:/store/mc/Run3Summer23NanoAODv12/WminusH_Hto2B_Wto2Q_M-125_TuneCP5_13p6TeV_powheg-pythia8/NANOAODSIM/130X_mcRun3_2023_realistic_v14-v3/40000/46fbd788-8286-4c23-bd03-44cc01099c0c.root   | (None) | ad:187889d9 | 121.570 MB |          |
| cms:/store/mc/Run3Summer23NanoAODv12/WminusH_Hto2B_Wto2Q_M-125_TuneCP5_13p6TeV_powheg-pythia8/NANOAODSIM/130X_mcRun3_2023_realistic_v14-v3/40000/4ee5b8b9-41d1-4bb3-bbca-66b7de029fc7.root   | (None) | ad:dd166b12 | 134.263 MB |          |
| cms:/store/mc/Run3Summer23NanoAODv12/WminusH_Hto2B_Wto2Q_M-125_TuneCP5_13p6TeV_powheg-pythia8/NANOAODSIM/130X_mcRun3_2023_realistic_v14-v3/40000/5906d7c9-1184-49e4-a797-d16d6d719c58.root   | (None) | ad:ba48d402 | 147.105 MB |          |
| cms:/store/mc/Run3Summer23NanoAODv12/WminusH_Hto2B_Wto2Q_M-125_TuneCP5_13p6TeV_powheg-pythia8/NANOAODSIM/130X_mcRun3_2023_realistic_v14-v3/40000/712bc770-04d4-40db-aa07-6817ef0f0113.root   | (None) | ad:dbffab51 | 121.162 MB |          |
| cms:/store/mc/Run3Summer23NanoAODv12/WminusH_Hto2B_Wto2Q_M-125_TuneCP5_13p6TeV_powheg-pythia8/NANOAODSIM/130X_mcRun3_2023_realistic_v14-v3/40000/792103b8-af1c-49db-8f36-0dd268aeed52.root   | (None) | ad:966e2fae | 119.290 MB |          |
| cms:/store/mc/Run3Summer23NanoAODv12/WminusH_Hto2B_Wto2Q_M-125_TuneCP5_13p6TeV_powheg-pythia8/NANOAODSIM/130X_mcRun3_2023_realistic_v14-v3/40000/8033b8c1-4b3f-402c-a29a-ea95693c113f.root   | (None) | ad:0e6f1f13 | 126.023 MB |          |
| cms:/store/mc/Run3Summer23NanoAODv12/WminusH_Hto2B_Wto2Q_M-125_TuneCP5_13p6TeV_powheg-pythia8/NANOAODSIM/130X_mcRun3_2023_realistic_v14-v3/40000/9910b340-d949-4719-bc6b-48df60bd7181.root   | (None) | ad:9cbca7c8 | 133.204 MB |          |
| cms:/store/mc/Run3Summer23NanoAODv12/WminusH_Hto2B_Wto2Q_M-125_TuneCP5_13p6TeV_powheg-pythia8/NANOAODSIM/130X_mcRun3_2023_realistic_v14-v3/40000/993514bb-2ccc-41d7-9ec8-e67213a2c41d.root   | (None) | ad:e992d9d9 | 136.134 MB |          |
| cms:/store/mc/Run3Summer23NanoAODv12/WminusH_Hto2B_Wto2Q_M-125_TuneCP5_13p6TeV_powheg-pythia8/NANOAODSIM/130X_mcRun3_2023_realistic_v14-v3/40000/9ad28756-2041-46b0-8bf3-4bd3cf719563.root   | (None) | ad:7651fae2 | 131.982 MB |          |
| cms:/store/mc/Run3Summer23NanoAODv12/WminusH_Hto2B_Wto2Q_M-125_TuneCP5_13p6TeV_powheg-pythia8/NANOAODSIM/130X_mcRun3_2023_realistic_v14-v3/40000/9fd0c560-226a-4d72-bd71-273d5e7254a2.root   | (None) | ad:b9890e50 | 124.619 MB |          |
| cms:/store/mc/Run3Summer23NanoAODv12/WminusH_Hto2B_Wto2Q_M-125_TuneCP5_13p6TeV_powheg-pythia8/NANOAODSIM/130X_mcRun3_2023_realistic_v14-v3/40000/a1d1e739-40a8-4feb-ba91-072fa2177d3f.root   | (None) | ad:797e25c7 | 119.156 MB |          |
| cms:/store/mc/Run3Summer23NanoAODv12/WminusH_Hto2B_Wto2Q_M-125_TuneCP5_13p6TeV_powheg-pythia8/NANOAODSIM/130X_mcRun3_2023_realistic_v14-v3/40000/ac5007fc-443f-488e-bb83-eae20c5ac497.root   | (None) | ad:68474dc7 | 123.638 MB |          |
| cms:/store/mc/Run3Summer23NanoAODv12/WminusH_Hto2B_Wto2Q_M-125_TuneCP5_13p6TeV_powheg-pythia8/NANOAODSIM/130X_mcRun3_2023_realistic_v14-v3/40000/badd9d9e-0fa4-4705-b99a-83db5f9be8b6.root   | (None) | ad:7c3f8ec9 | 121.077 MB |          |
| cms:/store/mc/Run3Summer23NanoAODv12/WminusH_Hto2B_Wto2Q_M-125_TuneCP5_13p6TeV_powheg-pythia8/NANOAODSIM/130X_mcRun3_2023_realistic_v14-v3/40000/c1808947-d6aa-4adc-bfe4-f60ad64dde1d.root   | (None) | ad:2aeea62c | 140.103 MB |          |
| cms:/store/mc/Run3Summer23NanoAODv12/WminusH_Hto2B_Wto2Q_M-125_TuneCP5_13p6TeV_powheg-pythia8/NANOAODSIM/130X_mcRun3_2023_realistic_v14-v3/40000/c3fd23ba-2926-4e63-9828-63df417c8621.root   | (None) | ad:dfdce9f0 | 130.482 MB |          |
| cms:/store/mc/Run3Summer23NanoAODv12/WminusH_Hto2B_Wto2Q_M-125_TuneCP5_13p6TeV_powheg-pythia8/NANOAODSIM/130X_mcRun3_2023_realistic_v14-v3/40000/c6670d1f-c378-446a-8a80-0504e397f803.root   | (None) | ad:0c71f37b | 124.632 MB |          |
| cms:/store/mc/Run3Summer23NanoAODv12/WminusH_Hto2B_Wto2Q_M-125_TuneCP5_13p6TeV_powheg-pythia8/NANOAODSIM/130X_mcRun3_2023_realistic_v14-v3/40000/d8edce2c-34af-4263-94ef-0327758bb90f.root   | (None) | ad:24f197ce | 121.402 MB |          |
| cms:/store/mc/Run3Summer23NanoAODv12/WminusH_Hto2B_Wto2Q_M-125_TuneCP5_13p6TeV_powheg-pythia8/NANOAODSIM/130X_mcRun3_2023_realistic_v14-v3/40000/ea1e7e3d-42e1-41e6-831b-db93e6a3af68.root   | (None) | ad:cb7362c8 | 128.712 MB |          |
| cms:/store/mc/Run3Summer23NanoAODv12/WminusH_Hto2B_Wto2Q_M-125_TuneCP5_13p6TeV_powheg-pythia8/NANOAODSIM/130X_mcRun3_2023_realistic_v14-v3/40000/eb05e65a-4008-4ab5-8ec5-89dcf4f13bce.root   | (None) | ad:de7f788e | 121.610 MB |          |
| cms:/store/mc/Run3Summer23NanoAODv12/WminusH_Hto2B_Wto2Q_M-125_TuneCP5_13p6TeV_powheg-pythia8/NANOAODSIM/130X_mcRun3_2023_realistic_v14-v3/40000/fbefea1d-ce26-4836-bb26-c8e7790546fe.root   | (None) | ad:af3a8f8e | 123.608 MB |          |
| cms:/store/mc/Run3Summer23NanoAODv12/WminusH_Hto2B_Wto2Q_M-125_TuneCP5_13p6TeV_powheg-pythia8/NANOAODSIM/130X_mcRun3_2023_realistic_v14-v3/2810000/63e1a2c0-b992-499e-aebc-045f484d6611.root | (None) | ad:3a6c8e46 | 16.178 MB  |          |
| cms:/store/mc/Run3Summer23NanoAODv12/WminusH_Hto2B_Wto2Q_M-125_TuneCP5_13p6TeV_powheg-pythia8/NANOAODSIM/130X_mcRun3_2023_realistic_v14-v3/2810000/97f68b86-d98f-4949-9aad-89c8abadd434.root | (None) | ad:3f20cfe6 | 118.497 MB |          |
| cms:/store/mc/Run3Summer23NanoAODv12/WminusH_Hto2B_Wto2Q_M-125_TuneCP5_13p6TeV_powheg-pythia8/NANOAODSIM/130X_mcRun3_2023_realistic_v14-v3/2810000/e9ea81d4-2b50-4dfb-9a71-d51247ec551d.root | (None) | ad:a41c19f4 | 41.208 MB  |          |
| cms:/store/mc/Run3Summer23NanoAODv12/WminusH_Hto2B_Wto2Q_M-125_TuneCP5_13p6TeV_powheg-pythia8/NANOAODSIM/130X_mcRun3_2023_realistic_v14-v3/2810000/93616cd1-e7bf-465e-bedf-1cd63fe96703.root | (None) | ad:14ba2277 | 30.581 MB  |          |
| cms:/store/mc/Run3Summer23NanoAODv12/WminusH_Hto2B_Wto2Q_M-125_TuneCP5_13p6TeV_powheg-pythia8/NANOAODSIM/130X_mcRun3_2023_realistic_v14-v3/2810000/3c8165c3-49d6-4bc6-a70d-200a1f82ed54.root | (None) | ad:20dd2a10 | 53.968 MB  |          |
| cms:/store/mc/Run3Summer23NanoAODv12/WminusH_Hto2B_Wto2Q_M-125_TuneCP5_13p6TeV_powheg-pythia8/NANOAODSIM/130X_mcRun3_2023_realistic_v14-v3/2810000/7840099e-9414-4952-a2ca-0d1c31e7179e.root | (None) | ad:90b6a485 | 22.022 MB  |          |
| cms:/store/mc/Run3Summer23NanoAODv12/WminusH_Hto2B_Wto2Q_M-125_TuneCP5_13p6TeV_powheg-pythia8/NANOAODSIM/130X_mcRun3_2023_realistic_v14-v3/2820000/7f17f322-2fa4-4bf6-a0e4-6875571e4afc.root | (None) | ad:396f1cab | 115.044 MB |          |
| cms:/store/mc/Run3Summer23NanoAODv12/WminusH_Hto2B_Wto2Q_M-125_TuneCP5_13p6TeV_powheg-pythia8/NANOAODSIM/130X_mcRun3_2023_realistic_v14-v3/2820000/b5aea5ea-9bd7-4be2-9c8e-05fffdcc3fe9.root | (None) | ad:70d6fa2f | 108.258 MB |          |
| cms:/store/mc/Run3Summer23NanoAODv12/WminusH_Hto2B_Wto2Q_M-125_TuneCP5_13p6TeV_powheg-pythia8/NANOAODSIM/130X_mcRun3_2023_realistic_v14-v3/40000/724ba149-ff73-4f01-8ff4-aee6e6f1997a.root   | (None) | ad:15e1094f | 4.153 MB   |          |
| cms:/store/mc/Run3Summer23NanoAODv12/WminusH_Hto2B_Wto2Q_M-125_TuneCP5_13p6TeV_powheg-pythia8/NANOAODSIM/130X_mcRun3_2023_realistic_v14-v3/30000/63414a74-3ab3-4937-b768-9d6d1e3e41eb.root   | (None) | ad:d346cfa9 | 10.882 MB  |          |
| cms:/store/mc/Run3Summer23NanoAODv12/WminusH_Hto2B_Wto2Q_M-125_TuneCP5_13p6TeV_powheg-pythia8/NANOAODSIM/130X_mcRun3_2023_realistic_v14-v3/30000/929b18e5-892c-4c26-96ab-ac62fd89f945.root   | (None) | ad:afb937e7 | 3.026 MB   |          |
| cms:/store/mc/Run3Summer23NanoAODv12/WminusH_Hto2B_Wto2Q_M-125_TuneCP5_13p6TeV_powheg-pythia8/NANOAODSIM/130X_mcRun3_2023_realistic_v14-v3/2820000/8dffd78d-7f16-482f-8465-eafb99da1909.root | (None) | ad:1cb3f202 | 91.819 MB  |          |
| cms:/store/mc/Run3Summer23NanoAODv12/WminusH_Hto2B_Wto2Q_M-125_TuneCP5_13p6TeV_powheg-pythia8/NANOAODSIM/130X_mcRun3_2023_realistic_v14-v3/2820000/9097d460-4c78-462d-a121-d2d3af13fbfb.root | (None) | ad:0e7b25a6 | 47.640 MB  |          |
| cms:/store/mc/Run3Summer23NanoAODv12/WminusH_Hto2B_Wto2Q_M-125_TuneCP5_13p6TeV_powheg-pythia8/NANOAODSIM/130X_mcRun3_2023_realistic_v14-v3/30000/41e97457-3197-4db6-ba8a-f08f900c2e7d.root   | (None) | ad:ccae9af6 | 7.478 MB   |          |
| cms:/store/mc/Run3Summer23NanoAODv12/WminusH_Hto2B_Wto2Q_M-125_TuneCP5_13p6TeV_powheg-pythia8/NANOAODSIM/130X_mcRun3_2023_realistic_v14-v3/40000/09fc04e3-8a4c-4598-959d-0c8243a5dc30.root   | (None) | ad:da89c458 | 4.375 MB   |          |
| cms:/store/mc/Run3Summer23NanoAODv12/WminusH_Hto2B_Wto2Q_M-125_TuneCP5_13p6TeV_powheg-pythia8/NANOAODSIM/130X_mcRun3_2023_realistic_v14-v3/40000/908af8a8-c4d8-4d2a-8af7-7b7f2fb134d8.root   | (None) | ad:087bfa33 | 38.523 MB  |          |
| cms:/store/mc/Run3Summer23NanoAODv12/WminusH_Hto2B_Wto2Q_M-125_TuneCP5_13p6TeV_powheg-pythia8/NANOAODSIM/130X_mcRun3_2023_realistic_v14-v3/30000/705f84de-e00b-4e33-a224-ae0eb7e9f52f.root   | (None) | ad:078050b5 | 16.132 MB  |          |
| cms:/store/mc/Run3Summer23NanoAODv12/WminusH_Hto2B_Wto2Q_M-125_TuneCP5_13p6TeV_powheg-pythia8/NANOAODSIM/130X_mcRun3_2023_realistic_v14-v3/40000/5dd5ac67-7a97-40c5-a7f7-b66220bdc955.root   | (None) | ad:2047da37 | 8.477 MB   |          |
| cms:/store/mc/Run3Summer23NanoAODv12/WminusH_Hto2B_Wto2Q_M-125_TuneCP5_13p6TeV_powheg-pythia8/NANOAODSIM/130X_mcRun3_2023_realistic_v14-v3/40000/ddf4aba4-802f-468c-ba50-276579d2f008.root   | (None) | ad:ca71d9d3 | 8.852 MB   |          |
| cms:/store/mc/Run3Summer23NanoAODv12/WminusH_Hto2B_Wto2Q_M-125_TuneCP5_13p6TeV_powheg-pythia8/NANOAODSIM/130X_mcRun3_2023_realistic_v14-v3/2820000/055139f5-ac3a-445e-92f8-3e430e73f273.root | (None) | ad:3e54fdf9 | 6.663 MB   |          |
| cms:/store/mc/Run3Summer23NanoAODv12/WminusH_Hto2B_Wto2Q_M-125_TuneCP5_13p6TeV_powheg-pythia8/NANOAODSIM/130X_mcRun3_2023_realistic_v14-v3/2820000/07f2933d-e4d0-49c4-b0ad-5270f80b4a72.root | (None) | ad:37a96e4d | 119.375 MB |          |
| cms:/store/mc/Run3Summer23NanoAODv12/WminusH_Hto2B_Wto2Q_M-125_TuneCP5_13p6TeV_powheg-pythia8/NANOAODSIM/130X_mcRun3_2023_realistic_v14-v3/2820000/c5f20621-2f30-4cf9-8f2a-f32b5d777860.root | (None) | ad:f5c88a86 | 50.252 MB  |          |
| cms:/store/mc/Run3Summer23NanoAODv12/WminusH_Hto2B_Wto2Q_M-125_TuneCP5_13p6TeV_powheg-pythia8/NANOAODSIM/130X_mcRun3_2023_realistic_v14-v3/2820000/db0ba757-994d-45be-be85-11738fb6350b.root | (None) | ad:35849123 | 4.147 MB   |          |
| cms:/store/mc/Run3Summer23NanoAODv12/WminusH_Hto2B_Wto2Q_M-125_TuneCP5_13p6TeV_powheg-pythia8/NANOAODSIM/130X_mcRun3_2023_realistic_v14-v3/2810000/cff4543e-03ec-4ee5-b70b-765152ed0031.root | (None) | ad:394f88c6 | 6.034 MB   |          |
| cms:/store/mc/Run3Summer23NanoAODv12/WminusH_Hto2B_Wto2Q_M-125_TuneCP5_13p6TeV_powheg-pythia8/NANOAODSIM/130X_mcRun3_2023_realistic_v14-v3/30000/265be204-8a77-4d4e-a779-9a9ee51f3bcd.root   | (None) | ad:3a945a9a | 8.283 MB   |          |
| cms:/store/mc/Run3Summer23NanoAODv12/WminusH_Hto2B_Wto2Q_M-125_TuneCP5_13p6TeV_powheg-pythia8/NANOAODSIM/130X_mcRun3_2023_realistic_v14-v3/30000/85226ed7-493a-4a7f-bd3d-ed07eacb84f1.root   | (None) | ad:81340181 | 16.387 MB  |          |
| cms:/store/mc/Run3Summer23NanoAODv12/WminusH_Hto2B_Wto2Q_M-125_TuneCP5_13p6TeV_powheg-pythia8/NANOAODSIM/130X_mcRun3_2023_realistic_v14-v3/2810000/6cb22acc-8a22-4194-a2aa-c81f39c96576.root | (None) | ad:1e15df5d | 16.567 MB  |          |
| cms:/store/mc/Run3Summer23NanoAODv12/WminusH_Hto2B_Wto2Q_M-125_TuneCP5_13p6TeV_powheg-pythia8/NANOAODSIM/130X_mcRun3_2023_realistic_v14-v3/30000/7637bc9f-801f-408d-be4d-6e9a9f350319.root   | (None) | ad:0db479ce | 3.721 MB   |          |
| cms:/store/mc/Run3Summer23NanoAODv12/WminusH_Hto2B_Wto2Q_M-125_TuneCP5_13p6TeV_powheg-pythia8/NANOAODSIM/130X_mcRun3_2023_realistic_v14-v3/40000/5b75a444-cf11-48a5-83db-50994bea3232.root   | (None) | ad:c6af1a0b | 30.727 MB  |          |
| cms:/store/mc/Run3Summer23NanoAODv12/WminusH_Hto2B_Wto2Q_M-125_TuneCP5_13p6TeV_powheg-pythia8/NANOAODSIM/130X_mcRun3_2023_realistic_v14-v3/40000/82acdd9f-6e33-4eee-9f3d-231ef13c948a.root   | (None) | ad:3b02fd76 | 26.950 MB  |          |
| cms:/store/mc/Run3Summer23NanoAODv12/WminusH_Hto2B_Wto2Q_M-125_TuneCP5_13p6TeV_powheg-pythia8/NANOAODSIM/130X_mcRun3_2023_realistic_v14-v3/40000/e62824e6-3f04-4223-8588-0104c4cec00c.root   | (None) | ad:63098687 | 3.482 MB   |          |
| cms:/store/mc/Run3Summer23NanoAODv12/WminusH_Hto2B_Wto2Q_M-125_TuneCP5_13p6TeV_powheg-pythia8/NANOAODSIM/130X_mcRun3_2023_realistic_v14-v3/2820000/8bba32d9-b6ca-4cec-ae9e-1b17c79e97d4.root | (None) | ad:fd38073a | 13.677 MB  |          |
| cms:/store/mc/Run3Summer23NanoAODv12/WminusH_Hto2B_Wto2Q_M-125_TuneCP5_13p6TeV_powheg-pythia8/NANOAODSIM/130X_mcRun3_2023_realistic_v14-v3/2820000/befce5e1-cccf-472b-95c1-894d1164f4ff.root | (None) | ad:cfe0d37a | 38.862 MB  |          |
| cms:/store/mc/Run3Summer23NanoAODv12/WminusH_Hto2B_Wto2Q_M-125_TuneCP5_13p6TeV_powheg-pythia8/NANOAODSIM/130X_mcRun3_2023_realistic_v14-v3/2810000/73be8a47-0249-4aa9-a3ed-347befc4c1b5.root | (None) | ad:8821f980 | 122.961 MB |          |
| cms:/store/mc/Run3Summer23NanoAODv12/WminusH_Hto2B_Wto2Q_M-125_TuneCP5_13p6TeV_powheg-pythia8/NANOAODSIM/130X_mcRun3_2023_realistic_v14-v3/2810000/916e03d1-8f3d-4771-80a0-213e8b360a8c.root | (None) | ad:ea91f241 | 118.748 MB |          |
| cms:/store/mc/Run3Summer23NanoAODv12/WminusH_Hto2B_Wto2Q_M-125_TuneCP5_13p6TeV_powheg-pythia8/NANOAODSIM/130X_mcRun3_2023_realistic_v14-v3/2810000/9a25a6d7-ad3e-498a-a0e8-4ad40e616ad4.root | (None) | ad:ec77adb8 | 104.141 MB |          |
| cms:/store/mc/Run3Summer23NanoAODv12/WminusH_Hto2B_Wto2Q_M-125_TuneCP5_13p6TeV_powheg-pythia8/NANOAODSIM/130X_mcRun3_2023_realistic_v14-v3/30000/fff2c5e7-7e07-4f00-95ee-d40349cbdf36.root   | (None) | ad:dbf7e420 | 85.419 MB  |          |
| cms:/store/mc/Run3Summer23NanoAODv12/WminusH_Hto2B_Wto2Q_M-125_TuneCP5_13p6TeV_powheg-pythia8/NANOAODSIM/130X_mcRun3_2023_realistic_v14-v3/40000/d7e9f7c7-b822-437b-9514-8498e5d57a3d.root   | (None) | ad:07339413 | 13.729 MB  |          |
| cms:/store/mc/Run3Summer23NanoAODv12/WminusH_Hto2B_Wto2Q_M-125_TuneCP5_13p6TeV_powheg-pythia8/NANOAODSIM/130X_mcRun3_2023_realistic_v14-v3/2810000/19c67c0a-7283-4f6f-a264-53827b395075.root | (None) | ad:f222013a | 74.449 MB  |          |
| cms:/store/mc/Run3Summer23NanoAODv12/WminusH_Hto2B_Wto2Q_M-125_TuneCP5_13p6TeV_powheg-pythia8/NANOAODSIM/130X_mcRun3_2023_realistic_v14-v3/2810000/8199fa0a-c1fb-4fbd-8985-9623431328f8.root | (None) | ad:3a0134c1 | 15.381 MB  |          |
| cms:/store/mc/Run3Summer23NanoAODv12/WminusH_Hto2B_Wto2Q_M-125_TuneCP5_13p6TeV_powheg-pythia8/NANOAODSIM/130X_mcRun3_2023_realistic_v14-v3/30000/29c95d07-0ed7-460b-a2f2-fda3c1445d0f.root   | (None) | ad:e708f384 | 119.118 MB |          |
| cms:/store/mc/Run3Summer23NanoAODv12/WminusH_Hto2B_Wto2Q_M-125_TuneCP5_13p6TeV_powheg-pythia8/NANOAODSIM/130X_mcRun3_2023_realistic_v14-v3/2820000/34ff1941-4424-4df0-bed5-b30e597a2e64.root | (None) | ad:e7bd3e3f | 27.349 MB  |          |
| cms:/store/mc/Run3Summer23NanoAODv12/WminusH_Hto2B_Wto2Q_M-125_TuneCP5_13p6TeV_powheg-pythia8/NANOAODSIM/130X_mcRun3_2023_realistic_v14-v3/2820000/d8e20374-0759-4588-b86e-2fbf62f25017.root | (None) | ad:34d9d85e | 30.066 MB  |          |
| cms:/store/mc/Run3Summer23NanoAODv12/WminusH_Hto2B_Wto2Q_M-125_TuneCP5_13p6TeV_powheg-pythia8/NANOAODSIM/130X_mcRun3_2023_realistic_v14-v3/40000/a352f2c7-d09d-4522-b164-31b4ce532707.root   | (None) | ad:2be7cad5 | 6.233 MB   |          |
| cms:/store/mc/Run3Summer23NanoAODv12/WminusH_Hto2B_Wto2Q_M-125_TuneCP5_13p6TeV_powheg-pythia8/NANOAODSIM/130X_mcRun3_2023_realistic_v14-v3/40000/d6643a71-b1b0-4a3d-a494-b8fabb3ed5ea.root   | (None) | ad:0df133b0 | 4.385 MB   |          |
| cms:/store/mc/Run3Summer23NanoAODv12/WminusH_Hto2B_Wto2Q_M-125_TuneCP5_13p6TeV_powheg-pythia8/NANOAODSIM/130X_mcRun3_2023_realistic_v14-v3/2820000/463634ef-8dc1-4945-b1fd-a53bbd05432a.root | (None) | ad:8a7634e3 | 35.621 MB  |          |
| cms:/store/mc/Run3Summer23NanoAODv12/WminusH_Hto2B_Wto2Q_M-125_TuneCP5_13p6TeV_powheg-pythia8/NANOAODSIM/130X_mcRun3_2023_realistic_v14-v3/2820000/c3a31d45-d031-4f19-b557-91d2b3186eae.root | (None) | ad:5843a167 | 35.626 MB  |          |
| cms:/store/mc/Run3Summer23NanoAODv12/WminusH_Hto2B_Wto2Q_M-125_TuneCP5_13p6TeV_powheg-pythia8/NANOAODSIM/130X_mcRun3_2023_realistic_v14-v3/2820000/64d72224-3dc2-4fa2-ae45-78347ddac633.root | (None) | ad:88661876 | 3.027 MB   |          |
| cms:/store/mc/Run3Summer23NanoAODv12/WminusH_Hto2B_Wto2Q_M-125_TuneCP5_13p6TeV_powheg-pythia8/NANOAODSIM/130X_mcRun3_2023_realistic_v14-v3/2820000/515c6ba9-15e9-49c6-8d52-e87e86a68600.root | (None) | ad:746c7b7c | 6.025 MB   |          |
| cms:/store/mc/Run3Summer23NanoAODv12/WminusH_Hto2B_Wto2Q_M-125_TuneCP5_13p6TeV_powheg-pythia8/NANOAODSIM/130X_mcRun3_2023_realistic_v14-v3/2820000/5a97bbcb-7b61-4632-85ad-41a14ace6347.root | (None) | ad:dad139da | 3.030 MB   |          |
| cms:/store/mc/Run3Summer23NanoAODv12/WminusH_Hto2B_Wto2Q_M-125_TuneCP5_13p6TeV_powheg-pythia8/NANOAODSIM/130X_mcRun3_2023_realistic_v14-v3/2820000/899f906f-5f22-4df7-8923-e05b711e95f1.root | (None) | ad:1ed1e266 | 13.901 MB  |          |
| cms:/store/mc/Run3Summer23NanoAODv12/WminusH_Hto2B_Wto2Q_M-125_TuneCP5_13p6TeV_powheg-pythia8/NANOAODSIM/130X_mcRun3_2023_realistic_v14-v3/2820000/91a88c0b-cb87-40f8-9127-c97d85ca6146.root | (None) | ad:c40d2c0f | 19.379 MB  |          |
| cms:/store/mc/Run3Summer23NanoAODv12/WminusH_Hto2B_Wto2Q_M-125_TuneCP5_13p6TeV_powheg-pythia8/NANOAODSIM/130X_mcRun3_2023_realistic_v14-v3/2820000/1a3dc67c-5546-4696-b596-d0b5424e78b6.root | (None) | ad:cda7bbd7 | 31.749 MB  |          |
| cms:/store/mc/Run3Summer23NanoAODv12/WminusH_Hto2B_Wto2Q_M-125_TuneCP5_13p6TeV_powheg-pythia8/NANOAODSIM/130X_mcRun3_2023_realistic_v14-v3/2820000/7fe8e062-a0b0-469f-852b-4fb9433173d4.root | (None) | ad:a47cc8a9 | 8.080 MB   |          |
| cms:/store/mc/Run3Summer23NanoAODv12/WminusH_Hto2B_Wto2Q_M-125_TuneCP5_13p6TeV_powheg-pythia8/NANOAODSIM/130X_mcRun3_2023_realistic_v14-v3/30000/76489799-cc5d-406d-b5e8-f1d7e69fbb72.root   | (None) | ad:0cba7434 | 3.033 MB   |          |
| cms:/store/mc/Run3Summer23NanoAODv12/WminusH_Hto2B_Wto2Q_M-125_TuneCP5_13p6TeV_powheg-pythia8/NANOAODSIM/130X_mcRun3_2023_realistic_v14-v3/2820000/9b18ac55-bb08-459d-8fcf-bb79d65045ef.root | (None) | ad:3fc7a664 | 12.693 MB  |          |
| cms:/store/mc/Run3Summer23NanoAODv12/WminusH_Hto2B_Wto2Q_M-125_TuneCP5_13p6TeV_powheg-pythia8/NANOAODSIM/130X_mcRun3_2023_realistic_v14-v3/2820000/c89bf70f-e228-4c53-9422-8ce36e423595.root | (None) | ad:3b592a92 | 23.938 MB  |          |
| cms:/store/mc/Run3Summer23NanoAODv12/WminusH_Hto2B_Wto2Q_M-125_TuneCP5_13p6TeV_powheg-pythia8/NANOAODSIM/130X_mcRun3_2023_realistic_v14-v3/40000/62c83c6c-16be-4f0c-a776-d3a9b42ccafe.root   | (None) | ad:8ad1b480 | 5.793 MB   |          |
| cms:/store/mc/Run3Summer23NanoAODv12/WminusH_Hto2B_Wto2Q_M-125_TuneCP5_13p6TeV_powheg-pythia8/NANOAODSIM/130X_mcRun3_2023_realistic_v14-v3/40000/ca5ac3db-ba2a-4eed-a2c1-8feb3284e5bc.root   | (None) | ad:e5883a0a | 24.682 MB  |          |
| cms:/store/mc/Run3Summer23NanoAODv12/WminusH_Hto2B_Wto2Q_M-125_TuneCP5_13p6TeV_powheg-pythia8/NANOAODSIM/130X_mcRun3_2023_realistic_v14-v3/2820000/3bfcc0f0-a986-4b71-b03f-fd2c0bcd1e51.root | (None) | ad:4eef536c | 104.198 MB |          |
| cms:/store/mc/Run3Summer23NanoAODv12/WminusH_Hto2B_Wto2Q_M-125_TuneCP5_13p6TeV_powheg-pythia8/NANOAODSIM/130X_mcRun3_2023_realistic_v14-v3/2820000/b2698ec3-2a5a-46c6-aa91-ff0d11db44b2.root | (None) | ad:a180bf81 | 65.418 MB  |          |
| cms:/store/mc/Run3Summer23NanoAODv12/WminusH_Hto2B_Wto2Q_M-125_TuneCP5_13p6TeV_powheg-pythia8/NANOAODSIM/130X_mcRun3_2023_realistic_v14-v3/2820000/c4865124-f9f7-4b6b-ab56-035a9784ba7a.root | (None) | ad:1bf22429 | 5.378 MB   |          |
| cms:/store/mc/Run3Summer23NanoAODv12/WminusH_Hto2B_Wto2Q_M-125_TuneCP5_13p6TeV_powheg-pythia8/NANOAODSIM/130X_mcRun3_2023_realistic_v14-v3/2820000/974e8d91-95c0-4834-845e-b4e611fd05fe.root | (None) | ad:a2cf9c05 | 16.126 MB  |          |
| cms:/store/mc/Run3Summer23NanoAODv12/WminusH_Hto2B_Wto2Q_M-125_TuneCP5_13p6TeV_powheg-pythia8/NANOAODSIM/130X_mcRun3_2023_realistic_v14-v3/2820000/af0bbe1b-b8ad-40b5-8a6c-57135412f603.root | (None) | ad:7f0c0d69 | 38.710 MB  |          |
| cms:/store/mc/Run3Summer23NanoAODv12/WminusH_Hto2B_Wto2Q_M-125_TuneCP5_13p6TeV_powheg-pythia8/NANOAODSIM/130X_mcRun3_2023_realistic_v14-v3/30000/46d7990f-6491-4391-a20b-ca277f172b01.root   | (None) | ad:891a2661 | 3.702 MB   |          |
| cms:/store/mc/Run3Summer23NanoAODv12/WminusH_Hto2B_Wto2Q_M-125_TuneCP5_13p6TeV_powheg-pythia8/NANOAODSIM/130X_mcRun3_2023_realistic_v14-v3/30000/4181e0fd-f9e7-45b6-ad4d-966260c34956.root   | (None) | ad:2980895e | 8.863 MB   |          |
| cms:/store/mc/Run3Summer23NanoAODv12/WminusH_Hto2B_Wto2Q_M-125_TuneCP5_13p6TeV_powheg-pythia8/NANOAODSIM/130X_mcRun3_2023_realistic_v14-v3/30000/ca49a0e0-c466-427e-a930-afad3103755f.root   | (None) | ad:5b873e32 | 3.023 MB   |          |
| cms:/store/mc/Run3Summer23NanoAODv12/WminusH_Hto2B_Wto2Q_M-125_TuneCP5_13p6TeV_powheg-pythia8/NANOAODSIM/130X_mcRun3_2023_realistic_v14-v3/30000/fab21e34-9a5e-47f8-a2f9-8022e88a2e2a.root   | (None) | ad:34935c1d | 6.420 MB   |          |
| cms:/store/mc/Run3Summer23NanoAODv12/WminusH_Hto2B_Wto2Q_M-125_TuneCP5_13p6TeV_powheg-pythia8/NANOAODSIM/130X_mcRun3_2023_realistic_v14-v3/2820000/099feebe-c36b-4170-a123-841bd99cc378.root | (None) | ad:b98bb13e | 122.671 MB |          |
| cms:/store/mc/Run3Summer23NanoAODv12/WminusH_Hto2B_Wto2Q_M-125_TuneCP5_13p6TeV_powheg-pythia8/NANOAODSIM/130X_mcRun3_2023_realistic_v14-v3/2820000/32cfc4e8-055d-490e-8d07-0a596265592c.root | (None) | ad:342ca657 | 122.380 MB |          |
| cms:/store/mc/Run3Summer23NanoAODv12/WminusH_Hto2B_Wto2Q_M-125_TuneCP5_13p6TeV_powheg-pythia8/NANOAODSIM/130X_mcRun3_2023_realistic_v14-v3/2820000/37ddc497-cddc-438c-a72c-56a20f199dcd.root | (None) | ad:869e9568 | 123.476 MB |          |
| cms:/store/mc/Run3Summer23NanoAODv12/WminusH_Hto2B_Wto2Q_M-125_TuneCP5_13p6TeV_powheg-pythia8/NANOAODSIM/130X_mcRun3_2023_realistic_v14-v3/2820000/695b9feb-2c2f-4c03-b845-bd771bade45d.root | (None) | ad:1c031ceb | 119.780 MB |          |
| cms:/store/mc/Run3Summer23NanoAODv12/WminusH_Hto2B_Wto2Q_M-125_TuneCP5_13p6TeV_powheg-pythia8/NANOAODSIM/130X_mcRun3_2023_realistic_v14-v3/30000/0e538972-0dfd-45c3-889e-f8cbb3cdeb23.root   | (None) | ad:b1e83afa | 12.501 MB  |          |
| cms:/store/mc/Run3Summer23NanoAODv12/WminusH_Hto2B_Wto2Q_M-125_TuneCP5_13p6TeV_powheg-pythia8/NANOAODSIM/130X_mcRun3_2023_realistic_v14-v3/30000/327ca1ef-2bf4-4a1a-b032-060353f7a68f.root   | (None) | ad:036a5ae0 | 9.520 MB   |          |
| cms:/store/mc/Run3Summer23NanoAODv12/WminusH_Hto2B_Wto2Q_M-125_TuneCP5_13p6TeV_powheg-pythia8/NANOAODSIM/130X_mcRun3_2023_realistic_v14-v3/2810000/0f7480cc-0eff-42f3-812a-a5f42a446af5.root | (None) | ad:1e4cb99c | 104.501 MB |          |
| cms:/store/mc/Run3Summer23NanoAODv12/WminusH_Hto2B_Wto2Q_M-125_TuneCP5_13p6TeV_powheg-pythia8/NANOAODSIM/130X_mcRun3_2023_realistic_v14-v3/2810000/7411c66d-7e05-4210-95aa-831718a3ad91.root | (None) | ad:bc9d0fca | 70.097 MB  |          |
| cms:/store/mc/Run3Summer23NanoAODv12/WminusH_Hto2B_Wto2Q_M-125_TuneCP5_13p6TeV_powheg-pythia8/NANOAODSIM/130X_mcRun3_2023_realistic_v14-v3/30000/0f6246ce-bc66-496c-9911-3b4e469db2a4.root   | (None) | ad:07dbea03 | 42.814 MB  |          |
| cms:/store/mc/Run3Summer23NanoAODv12/WminusH_Hto2B_Wto2Q_M-125_TuneCP5_13p6TeV_powheg-pythia8/NANOAODSIM/130X_mcRun3_2023_realistic_v14-v3/30000/84484e5f-fa61-4629-937d-ae3db6baf4a6.root   | (None) | ad:e7462940 | 9.494 MB   |          |
| cms:/store/mc/Run3Summer23NanoAODv12/WminusH_Hto2B_Wto2Q_M-125_TuneCP5_13p6TeV_powheg-pythia8/NANOAODSIM/130X_mcRun3_2023_realistic_v14-v3/30000/dc443065-870f-4bf0-9f73-234e8360060c.root   | (None) | ad:d8fdf35d | 45.726 MB  |          |
| cms:/store/mc/Run3Summer23NanoAODv12/WminusH_Hto2B_Wto2Q_M-125_TuneCP5_13p6TeV_powheg-pythia8/NANOAODSIM/130X_mcRun3_2023_realistic_v14-v3/30000/13894946-baf2-44a4-8074-67d789ba6738.root   | (None) | ad:76136670 | 132.111 MB |          |
| cms:/store/mc/Run3Summer23NanoAODv12/WminusH_Hto2B_Wto2Q_M-125_TuneCP5_13p6TeV_powheg-pythia8/NANOAODSIM/130X_mcRun3_2023_realistic_v14-v3/30000/1e76ad91-d61c-4ae9-88d2-824a6d27d660.root   | (None) | ad:f1759fb3 | 127.062 MB |          |
| cms:/store/mc/Run3Summer23NanoAODv12/WminusH_Hto2B_Wto2Q_M-125_TuneCP5_13p6TeV_powheg-pythia8/NANOAODSIM/130X_mcRun3_2023_realistic_v14-v3/30000/29538dce-67ea-4cd6-bd13-09faa129ce12.root   | (None) | ad:701c6574 | 123.448 MB |          |
| cms:/store/mc/Run3Summer23NanoAODv12/WminusH_Hto2B_Wto2Q_M-125_TuneCP5_13p6TeV_powheg-pythia8/NANOAODSIM/130X_mcRun3_2023_realistic_v14-v3/30000/2a6cb9f8-6bf7-48a0-97a5-ca1d93338869.root   | (None) | ad:b79d3506 | 120.372 MB |          |
| cms:/store/mc/Run3Summer23NanoAODv12/WminusH_Hto2B_Wto2Q_M-125_TuneCP5_13p6TeV_powheg-pythia8/NANOAODSIM/130X_mcRun3_2023_realistic_v14-v3/30000/2bf63f3e-2bfa-4491-b2d4-f5ea36644e1c.root   | (None) | ad:990f93d4 | 124.415 MB |          |
| cms:/store/mc/Run3Summer23NanoAODv12/WminusH_Hto2B_Wto2Q_M-125_TuneCP5_13p6TeV_powheg-pythia8/NANOAODSIM/130X_mcRun3_2023_realistic_v14-v3/30000/2d65535b-5633-4145-9d57-e22597c5814d.root   | (None) | ad:40ff3e90 | 219.487 MB |          |
| cms:/store/mc/Run3Summer23NanoAODv12/WminusH_Hto2B_Wto2Q_M-125_TuneCP5_13p6TeV_powheg-pythia8/NANOAODSIM/130X_mcRun3_2023_realistic_v14-v3/30000/3531a94e-a437-4c1b-8546-2baf0a311383.root   | (None) | ad:719e89b1 | 153.526 MB |          |
| cms:/store/mc/Run3Summer23NanoAODv12/WminusH_Hto2B_Wto2Q_M-125_TuneCP5_13p6TeV_powheg-pythia8/NANOAODSIM/130X_mcRun3_2023_realistic_v14-v3/30000/419278c4-a4ed-40e2-b5b1-a59ee8e8373a.root   | (None) | ad:a8e50859 | 157.573 MB |          |
| cms:/store/mc/Run3Summer23NanoAODv12/WminusH_Hto2B_Wto2Q_M-125_TuneCP5_13p6TeV_powheg-pythia8/NANOAODSIM/130X_mcRun3_2023_realistic_v14-v3/30000/64824cd8-e2c9-44bf-9294-1a2dc532ee13.root   | (None) | ad:17bb30fa | 153.522 MB |          |
| cms:/store/mc/Run3Summer23NanoAODv12/WminusH_Hto2B_Wto2Q_M-125_TuneCP5_13p6TeV_powheg-pythia8/NANOAODSIM/130X_mcRun3_2023_realistic_v14-v3/30000/6c10d5ba-664f-49a3-a128-d513e4413823.root   | (None) | ad:715574c0 | 209.312 MB |          |
| cms:/store/mc/Run3Summer23NanoAODv12/WminusH_Hto2B_Wto2Q_M-125_TuneCP5_13p6TeV_powheg-pythia8/NANOAODSIM/130X_mcRun3_2023_realistic_v14-v3/30000/6c7696c7-149e-4a2c-9423-6aad62e4ce1a.root   | (None) | ad:89bb389e | 170.142 MB |          |
| cms:/store/mc/Run3Summer23NanoAODv12/WminusH_Hto2B_Wto2Q_M-125_TuneCP5_13p6TeV_powheg-pythia8/NANOAODSIM/130X_mcRun3_2023_realistic_v14-v3/30000/758699ab-87b5-447c-9dd0-af7f5bb06ec2.root   | (None) | ad:b401bd39 | 194.323 MB |          |
| cms:/store/mc/Run3Summer23NanoAODv12/WminusH_Hto2B_Wto2Q_M-125_TuneCP5_13p6TeV_powheg-pythia8/NANOAODSIM/130X_mcRun3_2023_realistic_v14-v3/30000/89ce7e99-f7fb-45a3-82b4-7c75a226ccbd.root   | (None) | ad:99c1b7fb | 147.567 MB |          |
| cms:/store/mc/Run3Summer23NanoAODv12/WminusH_Hto2B_Wto2Q_M-125_TuneCP5_13p6TeV_powheg-pythia8/NANOAODSIM/130X_mcRun3_2023_realistic_v14-v3/30000/99c43a53-cc8c-44cc-a3b8-9b372cc294fd.root   | (None) | ad:3ce6dff6 | 127.935 MB |          |
| cms:/store/mc/Run3Summer23NanoAODv12/WminusH_Hto2B_Wto2Q_M-125_TuneCP5_13p6TeV_powheg-pythia8/NANOAODSIM/130X_mcRun3_2023_realistic_v14-v3/30000/b67503b9-b460-400c-9251-ed962a4435d9.root   | (None) | ad:588a5f31 | 234.261 MB |          |
| cms:/store/mc/Run3Summer23NanoAODv12/WminusH_Hto2B_Wto2Q_M-125_TuneCP5_13p6TeV_powheg-pythia8/NANOAODSIM/130X_mcRun3_2023_realistic_v14-v3/30000/b7775229-0f1f-4c4e-b988-c836eb741d9f.root   | (None) | ad:3539266e | 219.418 MB |          |
| cms:/store/mc/Run3Summer23NanoAODv12/WminusH_Hto2B_Wto2Q_M-125_TuneCP5_13p6TeV_powheg-pythia8/NANOAODSIM/130X_mcRun3_2023_realistic_v14-v3/30000/b9754fe8-134a-43ef-90d7-280b579e9dfc.root   | (None) | ad:e88b57f5 | 132.031 MB |          |
| cms:/store/mc/Run3Summer23NanoAODv12/WminusH_Hto2B_Wto2Q_M-125_TuneCP5_13p6TeV_powheg-pythia8/NANOAODSIM/130X_mcRun3_2023_realistic_v14-v3/30000/bf2ad4f9-6280-44a4-b342-a5407134a7d9.root   | (None) | ad:5965bede | 182.455 MB |          |
| cms:/store/mc/Run3Summer23NanoAODv12/WminusH_Hto2B_Wto2Q_M-125_TuneCP5_13p6TeV_powheg-pythia8/NANOAODSIM/130X_mcRun3_2023_realistic_v14-v3/30000/ce728a37-bc31-492c-8dfd-06717230e2ba.root   | (None) | ad:7288ed69 | 118.610 MB |          |
| cms:/store/mc/Run3Summer23NanoAODv12/WminusH_Hto2B_Wto2Q_M-125_TuneCP5_13p6TeV_powheg-pythia8/NANOAODSIM/130X_mcRun3_2023_realistic_v14-v3/30000/e4b053a0-2acc-47b3-b78b-292fb21311cd.root   | (None) | ad:4a4c58e7 | 131.721 MB |          |
| cms:/store/mc/Run3Summer23NanoAODv12/WminusH_Hto2B_Wto2Q_M-125_TuneCP5_13p6TeV_powheg-pythia8/NANOAODSIM/130X_mcRun3_2023_realistic_v14-v3/30000/e7da7929-52a5-49a2-b5c4-5a9e9ff9c728.root   | (None) | ad:876f441c | 169.968 MB |          |
| cms:/store/mc/Run3Summer23NanoAODv12/WminusH_Hto2B_Wto2Q_M-125_TuneCP5_13p6TeV_powheg-pythia8/NANOAODSIM/130X_mcRun3_2023_realistic_v14-v3/30000/eb1c3cdd-16b3-4628-a882-fcc505c7d2f9.root   | (None) | ad:2d0685ac | 234.346 MB |          |
| cms:/store/mc/Run3Summer23NanoAODv12/WminusH_Hto2B_Wto2Q_M-125_TuneCP5_13p6TeV_powheg-pythia8/NANOAODSIM/130X_mcRun3_2023_realistic_v14-v3/30000/eb963089-fd20-4b63-a7e4-ab4282563cc0.root   | (None) | ad:f1bd4d9b | 121.502 MB |          |
| cms:/store/mc/Run3Summer23NanoAODv12/WminusH_Hto2B_Wto2Q_M-125_TuneCP5_13p6TeV_powheg-pythia8/NANOAODSIM/130X_mcRun3_2023_realistic_v14-v3/30000/edfa7df3-d83f-46cf-a00f-12ab504c8340.root   | (None) | ad:23423c65 | 121.959 MB |          |
| cms:/store/mc/Run3Summer23NanoAODv12/WminusH_Hto2B_Wto2Q_M-125_TuneCP5_13p6TeV_powheg-pythia8/NANOAODSIM/130X_mcRun3_2023_realistic_v14-v3/30000/ef4f7f47-7a39-4cc7-a1fa-589fc7b10c30.root   | (None) | ad:2c6c37d4 | 127.171 MB |          |
| cms:/store/mc/Run3Summer23NanoAODv12/WminusH_Hto2B_Wto2Q_M-125_TuneCP5_13p6TeV_powheg-pythia8/NANOAODSIM/130X_mcRun3_2023_realistic_v14-v3/2820000/82558afc-57ba-4eb4-96ea-ddd7b2f92166.root | (None) | ad:f82b2b03 | 4.352 MB   |          |
| cms:/store/mc/Run3Summer23NanoAODv12/WminusH_Hto2B_Wto2Q_M-125_TuneCP5_13p6TeV_powheg-pythia8/NANOAODSIM/130X_mcRun3_2023_realistic_v14-v3/2810000/5f9fa496-f39d-49cc-bf44-1e476a78f2b6.root | (None) | ad:434ad35d | 21.909 MB  |          |
| cms:/store/mc/Run3Summer23NanoAODv12/WminusH_Hto2B_Wto2Q_M-125_TuneCP5_13p6TeV_powheg-pythia8/NANOAODSIM/130X_mcRun3_2023_realistic_v14-v3/2820000/082a200c-4583-4aa1-ba23-9225ab7db54f.root | (None) | ad:8dbeb550 | 119.567 MB |          |
| cms:/store/mc/Run3Summer23NanoAODv12/WminusH_Hto2B_Wto2Q_M-125_TuneCP5_13p6TeV_powheg-pythia8/NANOAODSIM/130X_mcRun3_2023_realistic_v14-v3/2820000/2765223a-c07d-49a1-98a9-abb8f21fe2a9.root | (None) | ad:4a1f2012 | 52.054 MB  |          |
| cms:/store/mc/Run3Summer23NanoAODv12/WminusH_Hto2B_Wto2Q_M-125_TuneCP5_13p6TeV_powheg-pythia8/NANOAODSIM/130X_mcRun3_2023_realistic_v14-v3/2820000/36729e13-7b88-4775-8ff6-59692b01276b.root | (None) | ad:d5cdad48 | 119.063 MB |          |
| cms:/store/mc/Run3Summer23NanoAODv12/WminusH_Hto2B_Wto2Q_M-125_TuneCP5_13p6TeV_powheg-pythia8/NANOAODSIM/130X_mcRun3_2023_realistic_v14-v3/40000/18efa8ae-92a0-4b61-93c2-5b2b85379e1f.root   | (None) | ad:7cdea465 | 16.457 MB  |          |
| cms:/store/mc/Run3Summer23NanoAODv12/WminusH_Hto2B_Wto2Q_M-125_TuneCP5_13p6TeV_powheg-pythia8/NANOAODSIM/130X_mcRun3_2023_realistic_v14-v3/40000/5686d453-627b-4e6f-ad30-09e4778f49b0.root   | (None) | ad:d495bf43 | 5.820 MB   |          |
| cms:/store/mc/Run3Summer23NanoAODv12/WminusH_Hto2B_Wto2Q_M-125_TuneCP5_13p6TeV_powheg-pythia8/NANOAODSIM/130X_mcRun3_2023_realistic_v14-v3/2820000/44cec11c-2222-4047-8275-29fc78de901d.root | (None) | ad:b864a6f6 | 3.283 MB   |          |
| cms:/store/mc/Run3Summer23NanoAODv12/WminusH_Hto2B_Wto2Q_M-125_TuneCP5_13p6TeV_powheg-pythia8/NANOAODSIM/130X_mcRun3_2023_realistic_v14-v3/40000/3c6a9abe-5f48-44b9-a26c-32056ed8d044.root   | (None) | ad:8511dde0 | 101.130 MB |          |
| cms:/store/mc/Run3Summer23NanoAODv12/WminusH_Hto2B_Wto2Q_M-125_TuneCP5_13p6TeV_powheg-pythia8/NANOAODSIM/130X_mcRun3_2023_realistic_v14-v3/40000/522138f5-25ce-4eb3-a5c6-574f0d498459.root   | (None) | ad:1c76d6cb | 5.131 MB   |          |
| cms:/store/mc/Run3Summer23NanoAODv12/WminusH_Hto2B_Wto2Q_M-125_TuneCP5_13p6TeV_powheg-pythia8/NANOAODSIM/130X_mcRun3_2023_realistic_v14-v3/40000/8c99746f-4421-4ce5-92a9-3c898dfb8bd7.root   | (None) | ad:57916146 | 69.105 MB  |          |
| cms:/store/mc/Run3Summer23NanoAODv12/WminusH_Hto2B_Wto2Q_M-125_TuneCP5_13p6TeV_powheg-pythia8/NANOAODSIM/130X_mcRun3_2023_realistic_v14-v3/40000/57d0708b-d7bd-4702-9c86-6bc2e3bc0e8f.root   | (None) | ad:e227aacd | 10.509 MB  |          |
| cms:/store/mc/Run3Summer23NanoAODv12/WminusH_Hto2B_Wto2Q_M-125_TuneCP5_13p6TeV_powheg-pythia8/NANOAODSIM/130X_mcRun3_2023_realistic_v14-v3/40000/b7ad5180-1b4e-4503-a6a9-fba748d0e643.root   | (None) | ad:d8062ec0 | 22.386 MB  |          |
| cms:/store/mc/Run3Summer23NanoAODv12/WminusH_Hto2B_Wto2Q_M-125_TuneCP5_13p6TeV_powheg-pythia8/NANOAODSIM/130X_mcRun3_2023_realistic_v14-v3/40000/3392210b-97c8-409c-94de-6454bd5f9d40.root   | (None) | ad:bc8d0ed4 | 52.584 MB  |          |
| cms:/store/mc/Run3Summer23NanoAODv12/WminusH_Hto2B_Wto2Q_M-125_TuneCP5_13p6TeV_powheg-pythia8/NANOAODSIM/130X_mcRun3_2023_realistic_v14-v3/40000/8b059652-607f-463b-ba1a-bf1c29b736db.root   | (None) | ad:a54098bf | 93.644 MB  |          |
| cms:/store/mc/Run3Summer23NanoAODv12/WminusH_Hto2B_Wto2Q_M-125_TuneCP5_13p6TeV_powheg-pythia8/NANOAODSIM/130X_mcRun3_2023_realistic_v14-v3/40000/c2cb52e0-5cd4-407a-81c3-a2579e2b3c7d.root   | (None) | ad:87016bb2 | 4.596 MB   |          |
| cms:/store/mc/Run3Summer23NanoAODv12/WminusH_Hto2B_Wto2Q_M-125_TuneCP5_13p6TeV_powheg-pythia8/NANOAODSIM/130X_mcRun3_2023_realistic_v14-v3/2820000/27ff1461-8275-4d83-aa1d-3dd6d0399448.root | (None) | ad:4c8afed4 | 6.226 MB   |          |
| cms:/store/mc/Run3Summer23NanoAODv12/WminusH_Hto2B_Wto2Q_M-125_TuneCP5_13p6TeV_powheg-pythia8/NANOAODSIM/130X_mcRun3_2023_realistic_v14-v3/30000/6b7776d0-9972-45b6-9368-ce9a22e96e98.root   | (None) | ad:5f46ba38 | 57.254 MB  |          |
| cms:/store/mc/Run3Summer23NanoAODv12/WminusH_Hto2B_Wto2Q_M-125_TuneCP5_13p6TeV_powheg-pythia8/NANOAODSIM/130X_mcRun3_2023_realistic_v14-v3/30000/8b3bea03-9af4-4761-98ac-91289e5bdc55.root   | (None) | ad:e96d4e7c | 66.968 MB  |          |
| cms:/store/mc/Run3Summer23NanoAODv12/WminusH_Hto2B_Wto2Q_M-125_TuneCP5_13p6TeV_powheg-pythia8/NANOAODSIM/130X_mcRun3_2023_realistic_v14-v3/40000/8e37e6ec-3a9a-4206-9212-8f4a2b344eb3.root   | (None) | ad:f14ec972 | 10.494 MB  |          |
| cms:/store/mc/Run3Summer23NanoAODv12/WminusH_Hto2B_Wto2Q_M-125_TuneCP5_13p6TeV_powheg-pythia8/NANOAODSIM/130X_mcRun3_2023_realistic_v14-v3/40000/e8ef6dfb-2561-41af-96d6-fef07efc6464.root   | (None) | ad:d5d21e35 | 8.891 MB   |          |
| cms:/store/mc/Run3Summer23NanoAODv12/WminusH_Hto2B_Wto2Q_M-125_TuneCP5_13p6TeV_powheg-pythia8/NANOAODSIM/130X_mcRun3_2023_realistic_v14-v3/2810000/0e5fb567-c15c-42be-a782-9fb08ff9267e.root | (None) | ad:e391daa4 | 3.725 MB   |          |
| cms:/store/mc/Run3Summer23NanoAODv12/WminusH_Hto2B_Wto2Q_M-125_TuneCP5_13p6TeV_powheg-pythia8/NANOAODSIM/130X_mcRun3_2023_realistic_v14-v3/2820000/41d642aa-d3a6-461e-ad97-f0dbd0e02ada.root | (None) | ad:3c31b90f | 106.698 MB |          |
| cms:/store/mc/Run3Summer23NanoAODv12/WminusH_Hto2B_Wto2Q_M-125_TuneCP5_13p6TeV_powheg-pythia8/NANOAODSIM/130X_mcRun3_2023_realistic_v14-v3/40000/047c91bc-7099-4f17-920a-999bf1345890.root   | (None) | ad:e383cca4 | 29.574 MB  |          |
| cms:/store/mc/Run3Summer23NanoAODv12/WminusH_Hto2B_Wto2Q_M-125_TuneCP5_13p6TeV_powheg-pythia8/NANOAODSIM/130X_mcRun3_2023_realistic_v14-v3/30000/0365665b-dffa-4028-9625-cf67f7c3f535.root   | (None) | ad:a291e44e | 6.428 MB   |          |
| cms:/store/mc/Run3Summer23NanoAODv12/WminusH_Hto2B_Wto2Q_M-125_TuneCP5_13p6TeV_powheg-pythia8/NANOAODSIM/130X_mcRun3_2023_realistic_v14-v3/40000/24d73680-a15c-4810-a8d5-861c4ae65665.root   | (None) | ad:ed3b5eaf | 5.816 MB   |          |
| cms:/store/mc/Run3Summer23NanoAODv12/WminusH_Hto2B_Wto2Q_M-125_TuneCP5_13p6TeV_powheg-pythia8/NANOAODSIM/130X_mcRun3_2023_realistic_v14-v3/40000/c640e7e5-efb7-41a8-bb11-248ea9b6cfbb.root   | (None) | ad:e8a1bda0 | 3.492 MB   |          |
| cms:/store/mc/Run3Summer23NanoAODv12/WminusH_Hto2B_Wto2Q_M-125_TuneCP5_13p6TeV_powheg-pythia8/NANOAODSIM/130X_mcRun3_2023_realistic_v14-v3/2810000/42cfff14-88d7-4413-bdb7-2659d092c4fd.root | (None) | ad:e1072090 | 7.057 MB   |          |
| cms:/store/mc/Run3Summer23NanoAODv12/WminusH_Hto2B_Wto2Q_M-125_TuneCP5_13p6TeV_powheg-pythia8/NANOAODSIM/130X_mcRun3_2023_realistic_v14-v3/2810000/95f12631-85cb-4ac5-89ec-2a2ee96096bb.root | (None) | ad:80d69ed5 | 38.796 MB  |          |
| cms:/store/mc/Run3Summer23NanoAODv12/WminusH_Hto2B_Wto2Q_M-125_TuneCP5_13p6TeV_powheg-pythia8/NANOAODSIM/130X_mcRun3_2023_realistic_v14-v3/2810000/b9b3e63f-acaf-40b6-9c8a-90f38a345561.root | (None) | ad:5f5f675a | 22.871 MB  |          |
| cms:/store/mc/Run3Summer23NanoAODv12/WminusH_Hto2B_Wto2Q_M-125_TuneCP5_13p6TeV_powheg-pythia8/NANOAODSIM/130X_mcRun3_2023_realistic_v14-v3/40000/b8b678cb-ec27-4da9-9b0d-8de1bf4b66c4.root   | (None) | ad:9ea93d28 | 12.295 MB  |          |
| cms:/store/mc/Run3Summer23NanoAODv12/WminusH_Hto2B_Wto2Q_M-125_TuneCP5_13p6TeV_powheg-pythia8/NANOAODSIM/130X_mcRun3_2023_realistic_v14-v3/40000/ccbb2cc1-3edc-41c3-9d08-0925b3b65882.root   | (None) | ad:f66d6707 | 3.716 MB   |          |
| cms:/store/mc/Run3Summer23NanoAODv12/WminusH_Hto2B_Wto2Q_M-125_TuneCP5_13p6TeV_powheg-pythia8/NANOAODSIM/130X_mcRun3_2023_realistic_v14-v3/30000/1a1b06c1-5f57-4e7b-b63f-cc0f133b6c01.root   | (None) | ad:1243b5ed | 60.044 MB  |          |
| cms:/store/mc/Run3Summer23NanoAODv12/WminusH_Hto2B_Wto2Q_M-125_TuneCP5_13p6TeV_powheg-pythia8/NANOAODSIM/130X_mcRun3_2023_realistic_v14-v3/30000/d9be40d3-6d36-4df9-a769-8a382509b78d.root   | (None) | ad:784320a7 | 30.031 MB  |          |
| cms:/store/mc/Run3Summer23NanoAODv12/WminusH_Hto2B_Wto2Q_M-125_TuneCP5_13p6TeV_powheg-pythia8/NANOAODSIM/130X_mcRun3_2023_realistic_v14-v3/2820000/caf8b161-a3c1-49d1-a114-4dad413a097a.root | (None) | ad:69462797 | 5.786 MB   |          |
| cms:/store/mc/Run3Summer23NanoAODv12/WminusH_Hto2B_Wto2Q_M-125_TuneCP5_13p6TeV_powheg-pythia8/NANOAODSIM/130X_mcRun3_2023_realistic_v14-v3/2820000/36eea01e-5f0d-47cd-b11e-6471c5c18601.root | (None) | ad:7a0f0be2 | 56.673 MB  |          |
| cms:/store/mc/Run3Summer23NanoAODv12/WminusH_Hto2B_Wto2Q_M-125_TuneCP5_13p6TeV_powheg-pythia8/NANOAODSIM/130X_mcRun3_2023_realistic_v14-v3/2820000/40c73e8c-2811-48b1-9f49-a626e85d8248.root | (None) | ad:b6cc702c | 75.055 MB  |          |
| cms:/store/mc/Run3Summer23NanoAODv12/WminusH_Hto2B_Wto2Q_M-125_TuneCP5_13p6TeV_powheg-pythia8/NANOAODSIM/130X_mcRun3_2023_realistic_v14-v3/30000/6f3158ec-9a39-46f8-a253-498c4b9a2b5e.root   | (None) | ad:77a014b1 | 3.031 MB   |          |
| cms:/store/mc/Run3Summer23NanoAODv12/WminusH_Hto2B_Wto2Q_M-125_TuneCP5_13p6TeV_powheg-pythia8/NANOAODSIM/130X_mcRun3_2023_realistic_v14-v3/2810000/86504cd0-3b8e-4cc3-ba2f-23552cba6965.root | (None) | ad:4bb4bd93 | 7.506 MB   |          |
| cms:/store/mc/Run3Summer23NanoAODv12/WminusH_Hto2B_Wto2Q_M-125_TuneCP5_13p6TeV_powheg-pythia8/NANOAODSIM/130X_mcRun3_2023_realistic_v14-v3/2810000/8d62f5ff-d05b-42c6-bd13-19386b1bf3d7.root | (None) | ad:a2a3c84c | 8.041 MB   |          |
| cms:/store/mc/Run3Summer23NanoAODv12/WminusH_Hto2B_Wto2Q_M-125_TuneCP5_13p6TeV_powheg-pythia8/NANOAODSIM/130X_mcRun3_2023_realistic_v14-v3/40000/8ee5ada3-b55a-4623-88e0-1fcbf1120b51.root   | (None) | ad:f6fbdbba | 24.979 MB  |          |
| cms:/store/mc/Run3Summer23NanoAODv12/WminusH_Hto2B_Wto2Q_M-125_TuneCP5_13p6TeV_powheg-pythia8/NANOAODSIM/130X_mcRun3_2023_realistic_v14-v3/40000/b06f9c5d-509d-4bf1-b1c3-cb2a4e8d253c.root   | (None) | ad:22883c92 | 3.708 MB   |          |
| cms:/store/mc/Run3Summer23NanoAODv12/WminusH_Hto2B_Wto2Q_M-125_TuneCP5_13p6TeV_powheg-pythia8/NANOAODSIM/130X_mcRun3_2023_realistic_v14-v3/40000/e4beb464-b49c-422a-b064-3823b89499ed.root   | (None) | ad:9a70541c | 16.562 MB  |          |
| cms:/store/mc/Run3Summer23NanoAODv12/WminusH_Hto2B_Wto2Q_M-125_TuneCP5_13p6TeV_powheg-pythia8/NANOAODSIM/130X_mcRun3_2023_realistic_v14-v3/40000/be5461b2-ea7b-401e-99d7-e67d5a556c58.root   | (None) | ad:7d346315 | 16.146 MB  |          |
| cms:/store/mc/Run3Summer23NanoAODv12/WminusH_Hto2B_Wto2Q_M-125_TuneCP5_13p6TeV_powheg-pythia8/NANOAODSIM/130X_mcRun3_2023_realistic_v14-v3/40000/efe90391-5d49-4278-ac42-f04da97ff5c8.root   | (None) | ad:c18a398a | 10.472 MB  |          |
| cms:/store/mc/Run3Summer23NanoAODv12/WminusH_Hto2B_Wto2Q_M-125_TuneCP5_13p6TeV_powheg-pythia8/NANOAODSIM/130X_mcRun3_2023_realistic_v14-v3/40000/0d02e560-15cf-47c1-9637-b366d973c4df.root   | (None) | ad:f3fa60d3 | 12.676 MB  |          |
| cms:/store/mc/Run3Summer23NanoAODv12/WminusH_Hto2B_Wto2Q_M-125_TuneCP5_13p6TeV_powheg-pythia8/NANOAODSIM/130X_mcRun3_2023_realistic_v14-v3/40000/1ed5052c-e872-4379-8d74-f60a9efc92ae.root   | (None) | ad:afdb44b3 | 11.183 MB  |          |
| cms:/store/mc/Run3Summer23NanoAODv12/WminusH_Hto2B_Wto2Q_M-125_TuneCP5_13p6TeV_powheg-pythia8/NANOAODSIM/130X_mcRun3_2023_realistic_v14-v3/2820000/bfb7048f-9614-46df-8906-765f2381fff9.root | (None) | ad:66d49ae6 | 3.913 MB   |          |
| cms:/store/mc/Run3Summer23NanoAODv12/WminusH_Hto2B_Wto2Q_M-125_TuneCP5_13p6TeV_powheg-pythia8/NANOAODSIM/130X_mcRun3_2023_realistic_v14-v3/2810000/bef6f3b3-f97c-435d-87e1-0dc297596628.root | (None) | ad:9acc9bae | 84.935 MB  |          |
| cms:/store/mc/Run3Summer23NanoAODv12/WminusH_Hto2B_Wto2Q_M-125_TuneCP5_13p6TeV_powheg-pythia8/NANOAODSIM/130X_mcRun3_2023_realistic_v14-v3/2810000/f0af8faa-b12d-4f11-85c4-52f28f3936f0.root | (None) | ad:0eaa56bf | 51.366 MB  |          |
| cms:/store/mc/Run3Summer23NanoAODv12/WminusH_Hto2B_Wto2Q_M-125_TuneCP5_13p6TeV_powheg-pythia8/NANOAODSIM/130X_mcRun3_2023_realistic_v14-v3/2820000/adcfc307-8be3-481b-a272-7a4e92b93e47.root | (None) | ad:71362aba | 3.258 MB   |          |
| cms:/store/mc/Run3Summer23NanoAODv12/WminusH_Hto2B_Wto2Q_M-125_TuneCP5_13p6TeV_powheg-pythia8/NANOAODSIM/130X_mcRun3_2023_realistic_v14-v3/30000/86a6aab4-694d-4808-a03a-1623bf6f67a5.root   | (None) | ad:cfb806d1 | 3.491 MB   |          |
| cms:/store/mc/Run3Summer23NanoAODv12/WminusH_Hto2B_Wto2Q_M-125_TuneCP5_13p6TeV_powheg-pythia8/NANOAODSIM/130X_mcRun3_2023_realistic_v14-v3/40000/070efc8e-10f8-43a5-86fe-f73d74d5c3d6.root   | (None) | ad:3405440b | 3.508 MB   |          |
| cms:/store/mc/Run3Summer23NanoAODv12/WminusH_Hto2B_Wto2Q_M-125_TuneCP5_13p6TeV_powheg-pythia8/NANOAODSIM/130X_mcRun3_2023_realistic_v14-v3/40000/3a0d6114-1a39-4fef-a1a9-fac5688ebf9a.root   | (None) | ad:45926bd0 | 16.122 MB  |          |
| cms:/store/mc/Run3Summer23NanoAODv12/WminusH_Hto2B_Wto2Q_M-125_TuneCP5_13p6TeV_powheg-pythia8/NANOAODSIM/130X_mcRun3_2023_realistic_v14-v3/40000/dc2c1820-763a-4b98-9384-342f7cb63f66.root   | (None) | ad:a4e43261 | 10.470 MB  |          |
| cms:/store/mc/Run3Summer23NanoAODv12/WminusH_Hto2B_Wto2Q_M-125_TuneCP5_13p6TeV_powheg-pythia8/NANOAODSIM/130X_mcRun3_2023_realistic_v14-v3/2810000/f18221f1-5d67-488d-b997-b1571a925b33.root | (None) | ad:609df24b | 4.557 MB   |          |
| cms:/store/mc/Run3Summer23NanoAODv12/WminusH_Hto2B_Wto2Q_M-125_TuneCP5_13p6TeV_powheg-pythia8/NANOAODSIM/130X_mcRun3_2023_realistic_v14-v3/2810000/f18bf1d9-b032-4d7a-a2a1-fc7dbcace508.root | (None) | ad:210e6824 | 4.131 MB   |          |
| cms:/store/mc/Run3Summer23NanoAODv12/WminusH_Hto2B_Wto2Q_M-125_TuneCP5_13p6TeV_powheg-pythia8/NANOAODSIM/130X_mcRun3_2023_realistic_v14-v3/2820000/87c6a07a-8d73-43b6-a383-3688b1dbd364.root | (None) | ad:4d836d2a | 3.036 MB   |          |
| cms:/store/mc/Run3Summer23NanoAODv12/WminusH_Hto2B_Wto2Q_M-125_TuneCP5_13p6TeV_powheg-pythia8/NANOAODSIM/130X_mcRun3_2023_realistic_v14-v3/2820000/0ce5843c-7c43-4c1a-a11d-d29b9aca375a.root | (None) | ad:17410076 | 122.031 MB |          |
| cms:/store/mc/Run3Summer23NanoAODv12/WminusH_Hto2B_Wto2Q_M-125_TuneCP5_13p6TeV_powheg-pythia8/NANOAODSIM/130X_mcRun3_2023_realistic_v14-v3/2820000/0e2df24b-8f00-40b1-abb0-3067c4314b50.root | (None) | ad:939f8f16 | 119.117 MB |          |
| cms:/store/mc/Run3Summer23NanoAODv12/WminusH_Hto2B_Wto2Q_M-125_TuneCP5_13p6TeV_powheg-pythia8/NANOAODSIM/130X_mcRun3_2023_realistic_v14-v3/2820000/3a9e0c96-95a1-4d8b-b6c7-6b3a270b4707.root | (None) | ad:c1e4851d | 118.869 MB |          |
| cms:/store/mc/Run3Summer23NanoAODv12/WminusH_Hto2B_Wto2Q_M-125_TuneCP5_13p6TeV_powheg-pythia8/NANOAODSIM/130X_mcRun3_2023_realistic_v14-v3/2820000/3f8d5015-fa11-42ad-a688-9b8ed53621cf.root | (None) | ad:13e91ffa | 40.980 MB  |          |
| cms:/store/mc/Run3Summer23NanoAODv12/WminusH_Hto2B_Wto2Q_M-125_TuneCP5_13p6TeV_powheg-pythia8/NANOAODSIM/130X_mcRun3_2023_realistic_v14-v3/2820000/7993968c-aa46-4f50-9b33-891bfe3e6d3c.root | (None) | ad:ff8f4345 | 98.822 MB  |          |
| cms:/store/mc/Run3Summer23NanoAODv12/WminusH_Hto2B_Wto2Q_M-125_TuneCP5_13p6TeV_powheg-pythia8/NANOAODSIM/130X_mcRun3_2023_realistic_v14-v3/2820000/ab009c41-bd12-4cd5-aafe-5cd46bc65495.root | (None) | ad:35737e64 | 120.745 MB |          |
| cms:/store/mc/Run3Summer23NanoAODv12/WminusH_Hto2B_Wto2Q_M-125_TuneCP5_13p6TeV_powheg-pythia8/NANOAODSIM/130X_mcRun3_2023_realistic_v14-v3/2820000/c69a7110-01ab-4d7e-bcef-4b011576aa34.root | (None) | ad:8c25b11f | 122.467 MB |          |
| cms:/store/mc/Run3Summer23NanoAODv12/WminusH_Hto2B_Wto2Q_M-125_TuneCP5_13p6TeV_powheg-pythia8/NANOAODSIM/130X_mcRun3_2023_realistic_v14-v3/30000/594dd1ca-e9d3-42d4-a357-6c5946af32c0.root   | (None) | ad:32b706dc | 63.013 MB  |          |
| cms:/store/mc/Run3Summer23NanoAODv12/WminusH_Hto2B_Wto2Q_M-125_TuneCP5_13p6TeV_powheg-pythia8/NANOAODSIM/130X_mcRun3_2023_realistic_v14-v3/30000/7e80583a-8c71-4fcd-b69d-b83e97555412.root   | (None) | ad:b910ddc9 | 66.569 MB  |          |
| cms:/store/mc/Run3Summer23NanoAODv12/WminusH_Hto2B_Wto2Q_M-125_TuneCP5_13p6TeV_powheg-pythia8/NANOAODSIM/130X_mcRun3_2023_realistic_v14-v3/2810000/c93390c1-c22b-4165-b66e-38ed1baad6a8.root | (None) | ad:f05caab7 | 13.755 MB  |          |
| cms:/store/mc/Run3Summer23NanoAODv12/WminusH_Hto2B_Wto2Q_M-125_TuneCP5_13p6TeV_powheg-pythia8/NANOAODSIM/130X_mcRun3_2023_realistic_v14-v3/2810000/f67e8acc-499c-4d42-8e62-6382af04fdf7.root | (None) | ad:671b30ca | 54.765 MB  |          |
| cms:/store/mc/Run3Summer23NanoAODv12/WminusH_Hto2B_Wto2Q_M-125_TuneCP5_13p6TeV_powheg-pythia8/NANOAODSIM/130X_mcRun3_2023_realistic_v14-v3/2820000/26ab19e5-2577-4f8e-87aa-4668607683a5.root | (None) | ad:e88e2384 | 7.073 MB   |          |
| cms:/store/mc/Run3Summer23NanoAODv12/WminusH_Hto2B_Wto2Q_M-125_TuneCP5_13p6TeV_powheg-pythia8/NANOAODSIM/130X_mcRun3_2023_realistic_v14-v3/2820000/8434bed2-ee06-46db-a843-0ac29a22b6b7.root | (None) | ad:ba10ef48 | 4.546 MB   |          |
| cms:/store/mc/Run3Summer23NanoAODv12/WminusH_Hto2B_Wto2Q_M-125_TuneCP5_13p6TeV_powheg-pythia8/NANOAODSIM/130X_mcRun3_2023_realistic_v14-v3/30000/193d7927-4981-4cdb-b8ea-d03f8faf78d9.root   | (None) | ad:abd71d7d | 26.444 MB  |          |
| cms:/store/mc/Run3Summer23NanoAODv12/WminusH_Hto2B_Wto2Q_M-125_TuneCP5_13p6TeV_powheg-pythia8/NANOAODSIM/130X_mcRun3_2023_realistic_v14-v3/30000/2754f02f-fb5f-4295-a07b-e658f315e170.root   | (None) | ad:f2018dec | 15.722 MB  |          |
| cms:/store/mc/Run3Summer23NanoAODv12/WminusH_Hto2B_Wto2Q_M-125_TuneCP5_13p6TeV_powheg-pythia8/NANOAODSIM/130X_mcRun3_2023_realistic_v14-v3/30000/15e3bfed-0d64-4fd8-9bb4-a0552acdda2c.root   | (None) | ad:0aefbac0 | 57.466 MB  |          |
| cms:/store/mc/Run3Summer23NanoAODv12/WminusH_Hto2B_Wto2Q_M-125_TuneCP5_13p6TeV_powheg-pythia8/NANOAODSIM/130X_mcRun3_2023_realistic_v14-v3/30000/3a3bb931-b2d6-4d11-b13f-e1644e95df9c.root   | (None) | ad:8fdb8d5a | 21.690 MB  |          |
| cms:/store/mc/Run3Summer23NanoAODv12/WminusH_Hto2B_Wto2Q_M-125_TuneCP5_13p6TeV_powheg-pythia8/NANOAODSIM/130X_mcRun3_2023_realistic_v14-v3/2820000/18e49ee8-cfe6-4076-a9af-456a293d573d.root | (None) | ad:8624003e | 25.574 MB  |          |
| cms:/store/mc/Run3Summer23NanoAODv12/WminusH_Hto2B_Wto2Q_M-125_TuneCP5_13p6TeV_powheg-pythia8/NANOAODSIM/130X_mcRun3_2023_realistic_v14-v3/2820000/81b8e1f7-36a0-428f-aed3-35f08b7498cd.root | (None) | ad:ce1a6b30 | 76.037 MB  |          |
| cms:/store/mc/Run3Summer23NanoAODv12/WminusH_Hto2B_Wto2Q_M-125_TuneCP5_13p6TeV_powheg-pythia8/NANOAODSIM/130X_mcRun3_2023_realistic_v14-v3/2820000/35d77032-4649-4170-b050-b3d7a89d4bb1.root | (None) | ad:ebedf14f | 33.703 MB  |          |
| cms:/store/mc/Run3Summer23NanoAODv12/WminusH_Hto2B_Wto2Q_M-125_TuneCP5_13p6TeV_powheg-pythia8/NANOAODSIM/130X_mcRun3_2023_realistic_v14-v3/2820000/b1735c05-8579-44f1-946d-1e342bcd5e65.root | (None) | ad:947e5f29 | 3.711 MB   |          |
| cms:/store/mc/Run3Summer23NanoAODv12/WminusH_Hto2B_Wto2Q_M-125_TuneCP5_13p6TeV_powheg-pythia8/NANOAODSIM/130X_mcRun3_2023_realistic_v14-v3/2820000/d63e6703-3527-480f-a336-663f79505f3c.root | (None) | ad:a2377acf | 43.715 MB  |          |
| cms:/store/mc/Run3Summer23NanoAODv12/WminusH_Hto2B_Wto2Q_M-125_TuneCP5_13p6TeV_powheg-pythia8/NANOAODSIM/130X_mcRun3_2023_realistic_v14-v3/40000/047c81b3-dcc4-42d8-9b9e-1733db75b9cd.root   | (None) | ad:a8603c7b | 7.684 MB   |          |
| cms:/store/mc/Run3Summer23NanoAODv12/WminusH_Hto2B_Wto2Q_M-125_TuneCP5_13p6TeV_powheg-pythia8/NANOAODSIM/130X_mcRun3_2023_realistic_v14-v3/40000/3f54411e-bdbe-4f2d-8249-10ce2924941b.root   | (None) | ad:91b31ab7 | 6.042 MB   |          |
| cms:/store/mc/Run3Summer23NanoAODv12/WminusH_Hto2B_Wto2Q_M-125_TuneCP5_13p6TeV_powheg-pythia8/NANOAODSIM/130X_mcRun3_2023_realistic_v14-v3/40000/6bade52a-d914-424e-a7a9-cd738f2d0e32.root   | (None) | ad:4428435c | 3.033 MB   |          |
| cms:/store/mc/Run3Summer23NanoAODv12/WminusH_Hto2B_Wto2Q_M-125_TuneCP5_13p6TeV_powheg-pythia8/NANOAODSIM/130X_mcRun3_2023_realistic_v14-v3/2810000/9a0e1c1c-7753-46ef-b637-a6b459bd00da.root | (None) | ad:27db8055 | 22.732 MB  |          |
| cms:/store/mc/Run3Summer23NanoAODv12/WminusH_Hto2B_Wto2Q_M-125_TuneCP5_13p6TeV_powheg-pythia8/NANOAODSIM/130X_mcRun3_2023_realistic_v14-v3/30000/9cbb8d48-af3f-44fb-99c8-e1d75c9783f7.root   | (None) | ad:e6fcfb60 | 7.936 MB   |          |
| cms:/store/mc/Run3Summer23NanoAODv12/WminusH_Hto2B_Wto2Q_M-125_TuneCP5_13p6TeV_powheg-pythia8/NANOAODSIM/130X_mcRun3_2023_realistic_v14-v3/30000/4d07d7f2-2aec-421d-8103-9df7c11573c8.root   | (None) | ad:bcae1e3d | 56.314 MB  |          |
| cms:/store/mc/Run3Summer23NanoAODv12/WminusH_Hto2B_Wto2Q_M-125_TuneCP5_13p6TeV_powheg-pythia8/NANOAODSIM/130X_mcRun3_2023_realistic_v14-v3/30000/fe68bd83-e9c9-49ea-b531-aca1d3333bfd.root   | (None) | ad:fbae6c11 | 28.153 MB  |          |
| cms:/store/mc/Run3Summer23NanoAODv12/WminusH_Hto2B_Wto2Q_M-125_TuneCP5_13p6TeV_powheg-pythia8/NANOAODSIM/130X_mcRun3_2023_realistic_v14-v3/2810000/76c4f54a-edaf-4ed3-acb3-9a392b6877f6.root | (None) | ad:8a2349b0 | 3.024 MB   |          |
| cms:/store/mc/Run3Summer23NanoAODv12/WminusH_Hto2B_Wto2Q_M-125_TuneCP5_13p6TeV_powheg-pythia8/NANOAODSIM/130X_mcRun3_2023_realistic_v14-v3/2820000/c78479f2-acde-49a8-b038-3d4f737a14cb.root | (None) | ad:94d6405c | 3.025 MB   |          |
| cms:/store/mc/Run3Summer23NanoAODv12/WminusH_Hto2B_Wto2Q_M-125_TuneCP5_13p6TeV_powheg-pythia8/NANOAODSIM/130X_mcRun3_2023_realistic_v14-v3/2810000/1c2612f7-406b-4fa6-aaf1-0e046aa31df3.root | (None) | ad:da980dba | 11.596 MB  |          |
| cms:/store/mc/Run3Summer23NanoAODv12/WminusH_Hto2B_Wto2Q_M-125_TuneCP5_13p6TeV_powheg-pythia8/NANOAODSIM/130X_mcRun3_2023_realistic_v14-v3/2810000/37605e23-e6e6-4624-81b0-48b37a75da5b.root | (None) | ad:9185558a | 14.699 MB  |          |
| cms:/store/mc/Run3Summer23NanoAODv12/WminusH_Hto2B_Wto2Q_M-125_TuneCP5_13p6TeV_powheg-pythia8/NANOAODSIM/130X_mcRun3_2023_realistic_v14-v3/2810000/79cbb3f3-18c9-43ce-9f3c-fbabe8f34131.root | (None) | ad:8ee823ae | 79.306 MB  |          |
| cms:/store/mc/Run3Summer23NanoAODv12/WminusH_Hto2B_Wto2Q_M-125_TuneCP5_13p6TeV_powheg-pythia8/NANOAODSIM/130X_mcRun3_2023_realistic_v14-v3/30000/18afd84c-dee8-4909-b7ea-271b5ee8b9c5.root   | (None) | ad:851d7f0b | 6.649 MB   |          |
| cms:/store/mc/Run3Summer23NanoAODv12/WminusH_Hto2B_Wto2Q_M-125_TuneCP5_13p6TeV_powheg-pythia8/NANOAODSIM/130X_mcRun3_2023_realistic_v14-v3/30000/9c872e08-7145-4741-95e7-8ac89bfa34ba.root   | (None) | ad:9bf23bdb | 3.714 MB   |          |
| cms:/store/mc/Run3Summer23NanoAODv12/WminusH_Hto2B_Wto2Q_M-125_TuneCP5_13p6TeV_powheg-pythia8/NANOAODSIM/130X_mcRun3_2023_realistic_v14-v3/30000/35da24d1-069d-4e71-bccc-e8f578cea139.root   | (None) | ad:451070e3 | 9.480 MB   |          |
| cms:/store/mc/Run3Summer23NanoAODv12/WminusH_Hto2B_Wto2Q_M-125_TuneCP5_13p6TeV_powheg-pythia8/NANOAODSIM/130X_mcRun3_2023_realistic_v14-v3/30000/d874a99c-07a2-49ad-8742-36ba634504b2.root   | (None) | ad:a31f6c3d | 8.843 MB   |          |
| cms:/store/mc/Run3Summer23NanoAODv12/WminusH_Hto2B_Wto2Q_M-125_TuneCP5_13p6TeV_powheg-pythia8/NANOAODSIM/130X_mcRun3_2023_realistic_v14-v3/30000/32927d29-0814-4224-bf04-5902693389c1.root   | (None) | ad:8822f1fa | 11.061 MB  |          |
| cms:/store/mc/Run3Summer23NanoAODv12/WminusH_Hto2B_Wto2Q_M-125_TuneCP5_13p6TeV_powheg-pythia8/NANOAODSIM/130X_mcRun3_2023_realistic_v14-v3/30000/54c8f0e2-444d-4978-b579-ca5527763456.root   | (None) | ad:a9775f42 | 17.183 MB  |          |
| cms:/store/mc/Run3Summer23NanoAODv12/WminusH_Hto2B_Wto2Q_M-125_TuneCP5_13p6TeV_powheg-pythia8/NANOAODSIM/130X_mcRun3_2023_realistic_v14-v3/40000/b51c6964-6c18-421f-aa6b-e6c3a3e900a7.root   | (None) | ad:f2faa914 | 18.174 MB  |          |
| cms:/store/mc/Run3Summer23NanoAODv12/WminusH_Hto2B_Wto2Q_M-125_TuneCP5_13p6TeV_powheg-pythia8/NANOAODSIM/130X_mcRun3_2023_realistic_v14-v3/40000/ffa7489f-2620-4cbe-a863-77867a2195f6.root   | (None) | ad:d5fac7c3 | 4.558 MB   |          |
| cms:/store/mc/Run3Summer23NanoAODv12/WminusH_Hto2B_Wto2Q_M-125_TuneCP5_13p6TeV_powheg-pythia8/NANOAODSIM/130X_mcRun3_2023_realistic_v14-v3/40000/387cbcea-9d08-4623-a8b6-d4c2ecb303d0.root   | (None) | ad:01e7cab5 | 25.585 MB  |          |
| cms:/store/mc/Run3Summer23NanoAODv12/WminusH_Hto2B_Wto2Q_M-125_TuneCP5_13p6TeV_powheg-pythia8/NANOAODSIM/130X_mcRun3_2023_realistic_v14-v3/40000/e0752ca1-61d4-44c6-8963-287a2aca2dc0.root   | (None) | ad:f4f7ee0d | 17.497 MB  |          |
| cms:/store/mc/Run3Summer23NanoAODv12/WminusH_Hto2B_Wto2Q_M-125_TuneCP5_13p6TeV_powheg-pythia8/NANOAODSIM/130X_mcRun3_2023_realistic_v14-v3/2820000/8b770f2c-b6c8-46f2-8012-045be5f4690e.root | (None) | ad:a7bc8f97 | 5.377 MB   |          |
| cms:/store/mc/Run3Summer23NanoAODv12/WminusH_Hto2B_Wto2Q_M-125_TuneCP5_13p6TeV_powheg-pythia8/NANOAODSIM/130X_mcRun3_2023_realistic_v14-v3/30000/16710bb5-65de-413f-9df9-bf9007e79081.root   | (None) | ad:28e3fc27 | 21.764 MB  |          |
| cms:/store/mc/Run3Summer23NanoAODv12/WminusH_Hto2B_Wto2Q_M-125_TuneCP5_13p6TeV_powheg-pythia8/NANOAODSIM/130X_mcRun3_2023_realistic_v14-v3/30000/f01dea2e-95c6-412d-b09b-6d95f61062e5.root   | (None) | ad:757474b1 | 15.994 MB  |          |
| cms:/store/mc/Run3Summer23NanoAODv12/WminusH_Hto2B_Wto2Q_M-125_TuneCP5_13p6TeV_powheg-pythia8/NANOAODSIM/130X_mcRun3_2023_realistic_v14-v3/30000/7b085711-e264-4385-bbc3-70df847f81ac.root   | (None) | ad:240fb9b9 | 21.449 MB  |          |
| cms:/store/mc/Run3Summer23NanoAODv12/WminusH_Hto2B_Wto2Q_M-125_TuneCP5_13p6TeV_powheg-pythia8/NANOAODSIM/130X_mcRun3_2023_realistic_v14-v3/30000/c8be439d-a9b7-447c-a493-47a23f2e20dd.root   | (None) | ad:d9b0c98b | 15.335 MB  |          |
| cms:/store/mc/Run3Summer23NanoAODv12/WminusH_Hto2B_Wto2Q_M-125_TuneCP5_13p6TeV_powheg-pythia8/NANOAODSIM/130X_mcRun3_2023_realistic_v14-v3/40000/0661c641-e770-4a83-b312-158cabe91c96.root   | (None) | ad:7f404738 | 3.275 MB   |          |
| cms:/store/mc/Run3Summer23NanoAODv12/WminusH_Hto2B_Wto2Q_M-125_TuneCP5_13p6TeV_powheg-pythia8/NANOAODSIM/130X_mcRun3_2023_realistic_v14-v3/40000/6529d4a8-de65-4fe8-9b2a-6eb0cfd15416.root   | (None) | ad:9d7e3f28 | 12.298 MB  |          |
| cms:/store/mc/Run3Summer23NanoAODv12/WminusH_Hto2B_Wto2Q_M-125_TuneCP5_13p6TeV_powheg-pythia8/NANOAODSIM/130X_mcRun3_2023_realistic_v14-v3/40000/a4f091ea-f163-453d-97b8-2af3c4cb91a5.root   | (None) | ad:70ce8ca2 | 8.474 MB   |          |
| cms:/store/mc/Run3Summer23NanoAODv12/WminusH_Hto2B_Wto2Q_M-125_TuneCP5_13p6TeV_powheg-pythia8/NANOAODSIM/130X_mcRun3_2023_realistic_v14-v3/2820000/7331fc9c-9554-4711-8e0d-6614eb85a43f.root | (None) | ad:42b21f3d | 3.041 MB   |          |
| cms:/store/mc/Run3Summer23NanoAODv12/WminusH_Hto2B_Wto2Q_M-125_TuneCP5_13p6TeV_powheg-pythia8/NANOAODSIM/130X_mcRun3_2023_realistic_v14-v3/2820000/9c268f94-9b8b-496f-beae-c15310700ab9.root | (None) | ad:f57aec07 | 65.047 MB  |          |
| cms:/store/mc/Run3Summer23NanoAODv12/WminusH_Hto2B_Wto2Q_M-125_TuneCP5_13p6TeV_powheg-pythia8/NANOAODSIM/130X_mcRun3_2023_realistic_v14-v3/2820000/6686ddcc-c42a-4655-b3e5-44ef8d653dc4.root | (None) | ad:86d3512e | 3.021 MB   |          |
| cms:/store/mc/Run3Summer23NanoAODv12/WminusH_Hto2B_Wto2Q_M-125_TuneCP5_13p6TeV_powheg-pythia8/NANOAODSIM/130X_mcRun3_2023_realistic_v14-v3/30000/07e0ab9c-ca88-477c-8320-a86b06f0a76a.root   | (None) | ad:4ff2a91f | 86.429 MB  |          |
| cms:/store/mc/Run3Summer23NanoAODv12/WminusH_Hto2B_Wto2Q_M-125_TuneCP5_13p6TeV_powheg-pythia8/NANOAODSIM/130X_mcRun3_2023_realistic_v14-v3/30000/2dcbd235-74a3-41ed-aa9a-70b046934fa5.root   | (None) | ad:e0c6cf68 | 118.938 MB |          |
| cms:/store/mc/Run3Summer23NanoAODv12/WminusH_Hto2B_Wto2Q_M-125_TuneCP5_13p6TeV_powheg-pythia8/NANOAODSIM/130X_mcRun3_2023_realistic_v14-v3/30000/9529600b-a6bd-426e-90f3-92a456f1db55.root   | (None) | ad:6a23c648 | 145.870 MB |          |
| cms:/store/mc/Run3Summer23NanoAODv12/WminusH_Hto2B_Wto2Q_M-125_TuneCP5_13p6TeV_powheg-pythia8/NANOAODSIM/130X_mcRun3_2023_realistic_v14-v3/2810000/058961eb-2515-4c3b-ae05-ec67e9e37c72.root | (None) | ad:9e9e2851 | 120.571 MB |          |
| cms:/store/mc/Run3Summer23NanoAODv12/WminusH_Hto2B_Wto2Q_M-125_TuneCP5_13p6TeV_powheg-pythia8/NANOAODSIM/130X_mcRun3_2023_realistic_v14-v3/2810000/0ad08051-edcd-44ff-9f54-1a05a9900da7.root | (None) | ad:26ede5b7 | 75.120 MB  |          |
| cms:/store/mc/Run3Summer23NanoAODv12/WminusH_Hto2B_Wto2Q_M-125_TuneCP5_13p6TeV_powheg-pythia8/NANOAODSIM/130X_mcRun3_2023_realistic_v14-v3/2810000/e8ef6568-f7b1-4c33-a816-10c4f46688cf.root | (None) | ad:ddc70c0d | 36.683 MB  |          |
| cms:/store/mc/Run3Summer23NanoAODv12/WminusH_Hto2B_Wto2Q_M-125_TuneCP5_13p6TeV_powheg-pythia8/NANOAODSIM/130X_mcRun3_2023_realistic_v14-v3/40000/19dfa2c9-e1fd-40c3-8167-a09a397ffb54.root   | (None) | ad:fe215247 | 15.899 MB  |          |
| cms:/store/mc/Run3Summer23NanoAODv12/WminusH_Hto2B_Wto2Q_M-125_TuneCP5_13p6TeV_powheg-pythia8/NANOAODSIM/130X_mcRun3_2023_realistic_v14-v3/40000/f35ba410-b00d-4b8d-bdf1-453db19b7c84.root   | (None) | ad:b25ff3ff | 4.143 MB   |          |
| cms:/store/mc/Run3Summer23NanoAODv12/WminusH_Hto2B_Wto2Q_M-125_TuneCP5_13p6TeV_powheg-pythia8/NANOAODSIM/130X_mcRun3_2023_realistic_v14-v3/2810000/1eb6db70-b60c-4a77-a277-28ec54935c8e.root | (None) | ad:269184d4 | 3.699 MB   |          |
| cms:/store/mc/Run3Summer23NanoAODv12/WminusH_Hto2B_Wto2Q_M-125_TuneCP5_13p6TeV_powheg-pythia8/NANOAODSIM/130X_mcRun3_2023_realistic_v14-v3/2810000/90fe2884-54bd-48f5-80bf-b2398088002e.root | (None) | ad:df4ca9a8 | 8.057 MB   |          |
| cms:/store/mc/Run3Summer23NanoAODv12/WminusH_Hto2B_Wto2Q_M-125_TuneCP5_13p6TeV_powheg-pythia8/NANOAODSIM/130X_mcRun3_2023_realistic_v14-v3/2820000/04a24914-2f0f-46b2-8350-42decd418b8f.root | (None) | ad:6630b807 | 123.367 MB |          |
| cms:/store/mc/Run3Summer23NanoAODv12/WminusH_Hto2B_Wto2Q_M-125_TuneCP5_13p6TeV_powheg-pythia8/NANOAODSIM/130X_mcRun3_2023_realistic_v14-v3/2820000/1cfedb38-9d27-4793-aaba-3de5c572d876.root | (None) | ad:5f0a53aa | 118.874 MB |          |
| cms:/store/mc/Run3Summer23NanoAODv12/WminusH_Hto2B_Wto2Q_M-125_TuneCP5_13p6TeV_powheg-pythia8/NANOAODSIM/130X_mcRun3_2023_realistic_v14-v3/2820000/a5e7fc37-aac3-4fec-94b4-9cd25b6129d7.root | (None) | ad:e943f950 | 104.242 MB |          |
| cms:/store/mc/Run3Summer23NanoAODv12/WminusH_Hto2B_Wto2Q_M-125_TuneCP5_13p6TeV_powheg-pythia8/NANOAODSIM/130X_mcRun3_2023_realistic_v14-v3/2810000/a6d3e345-9341-468a-8b82-250a2b12cca2.root | (None) | ad:6b3276ea | 41.646 MB  |          |
| cms:/store/mc/Run3Summer23NanoAODv12/WminusH_Hto2B_Wto2Q_M-125_TuneCP5_13p6TeV_powheg-pythia8/NANOAODSIM/130X_mcRun3_2023_realistic_v14-v3/2820000/4ed8d21c-e756-45d1-8218-8e61b205e823.root | (None) | ad:6d9f16c3 | 118.325 MB |          |
| cms:/store/mc/Run3Summer23NanoAODv12/WminusH_Hto2B_Wto2Q_M-125_TuneCP5_13p6TeV_powheg-pythia8/NANOAODSIM/130X_mcRun3_2023_realistic_v14-v3/2820000/51e2eb2f-d7f7-4612-8215-e40d596477f2.root | (None) | ad:9cab7282 | 118.630 MB |          |
| cms:/store/mc/Run3Summer23NanoAODv12/WminusH_Hto2B_Wto2Q_M-125_TuneCP5_13p6TeV_powheg-pythia8/NANOAODSIM/130X_mcRun3_2023_realistic_v14-v3/2820000/72fdfbc8-23fa-487b-a36a-6d24bf7503dd.root | (None) | ad:4dc07316 | 121.788 MB |          |
| cms:/store/mc/Run3Summer23NanoAODv12/WminusH_Hto2B_Wto2Q_M-125_TuneCP5_13p6TeV_powheg-pythia8/NANOAODSIM/130X_mcRun3_2023_realistic_v14-v3/2820000/19c6cd1b-2fd4-464b-94b5-b9dee0990266.root | (None) | ad:65511518 | 25.916 MB  |          |
| cms:/store/mc/Run3Summer23NanoAODv12/WminusH_Hto2B_Wto2Q_M-125_TuneCP5_13p6TeV_powheg-pythia8/NANOAODSIM/130X_mcRun3_2023_realistic_v14-v3/2820000/bdbe429c-5096-4233-aa2e-1be6c9c8f74f.root | (None) | ad:cd8dab7e | 40.410 MB  |          |
| cms:/store/mc/Run3Summer23NanoAODv12/WminusH_Hto2B_Wto2Q_M-125_TuneCP5_13p6TeV_powheg-pythia8/NANOAODSIM/130X_mcRun3_2023_realistic_v14-v3/2820000/823090f8-7caf-422e-9e4c-470d84e5e6e6.root | (None) | ad:466e6af0 | 3.262 MB   |          |
| cms:/store/mc/Run3Summer23NanoAODv12/WminusH_Hto2B_Wto2Q_M-125_TuneCP5_13p6TeV_powheg-pythia8/NANOAODSIM/130X_mcRun3_2023_realistic_v14-v3/2820000/9c6282e5-814a-4c4b-b2d2-be2b55354dce.root | (None) | ad:9f540c57 | 18.372 MB  |          |
| cms:/store/mc/Run3Summer23NanoAODv12/WminusH_Hto2B_Wto2Q_M-125_TuneCP5_13p6TeV_powheg-pythia8/NANOAODSIM/130X_mcRun3_2023_realistic_v14-v3/30000/19136060-2411-4a3e-bebf-cdef8d67b3d3.root   | (None) | ad:1b7b7619 | 10.273 MB  |          |
| cms:/store/mc/Run3Summer23NanoAODv12/WminusH_Hto2B_Wto2Q_M-125_TuneCP5_13p6TeV_powheg-pythia8/NANOAODSIM/130X_mcRun3_2023_realistic_v14-v3/30000/8c87251c-7a8d-40a7-8593-3339304e9e3a.root   | (None) | ad:92e3f11b | 22.950 MB  |          |
| cms:/store/mc/Run3Summer23NanoAODv12/WminusH_Hto2B_Wto2Q_M-125_TuneCP5_13p6TeV_powheg-pythia8/NANOAODSIM/130X_mcRun3_2023_realistic_v14-v3/40000/2eddb438-e0f4-4b4c-8a5d-998cc168c7e9.root   | (None) | ad:106ef8c0 | 3.014 MB   |          |
| cms:/store/mc/Run3Summer23NanoAODv12/WminusH_Hto2B_Wto2Q_M-125_TuneCP5_13p6TeV_powheg-pythia8/NANOAODSIM/130X_mcRun3_2023_realistic_v14-v3/40000/b30902ed-e1b7-4c87-a927-0a7ed6c4dbfc.root   | (None) | ad:cc3fcbd6 | 4.594 MB   |          |
| cms:/store/mc/Run3Summer23NanoAODv12/WminusH_Hto2B_Wto2Q_M-125_TuneCP5_13p6TeV_powheg-pythia8/NANOAODSIM/130X_mcRun3_2023_realistic_v14-v3/40000/b938b09f-6c1e-471d-8a74-0f935e9042eb.root   | (None) | ad:8152a5b0 | 6.388 MB   |          |
| cms:/store/mc/Run3Summer23NanoAODv12/WminusH_Hto2B_Wto2Q_M-125_TuneCP5_13p6TeV_powheg-pythia8/NANOAODSIM/130X_mcRun3_2023_realistic_v14-v3/30000/ae47b38c-2f4b-4928-976e-858b79f35f5d.root   | (None) | ad:c341755b | 4.548 MB   |          |
| cms:/store/mc/Run3Summer23NanoAODv12/WminusH_Hto2B_Wto2Q_M-125_TuneCP5_13p6TeV_powheg-pythia8/NANOAODSIM/130X_mcRun3_2023_realistic_v14-v3/30000/691d8a4b-c2e4-405e-a04a-953d42470d5d.root   | (None) | ad:a10f6e00 | 19.434 MB  |          |
| cms:/store/mc/Run3Summer23NanoAODv12/WminusH_Hto2B_Wto2Q_M-125_TuneCP5_13p6TeV_powheg-pythia8/NANOAODSIM/130X_mcRun3_2023_realistic_v14-v3/30000/fa165efd-27cf-45db-b549-87bf829a4414.root   | (None) | ad:95f78fc7 | 35.368 MB  |          |
| cms:/store/mc/Run3Summer23NanoAODv12/WminusH_Hto2B_Wto2Q_M-125_TuneCP5_13p6TeV_powheg-pythia8/NANOAODSIM/130X_mcRun3_2023_realistic_v14-v3/30000/c54a9a9f-81ba-4ee8-8172-0a6e14b59fa0.root   | (None) | ad:f3c31451 | 6.415 MB   |          |
| cms:/store/mc/Run3Summer23NanoAODv12/WminusH_Hto2B_Wto2Q_M-125_TuneCP5_13p6TeV_powheg-pythia8/NANOAODSIM/130X_mcRun3_2023_realistic_v14-v3/2820000/ce790d3c-dc84-4cc1-a931-3d4d2581e1af.root | (None) | ad:a70f92bd | 3.032 MB   |          |
| cms:/store/mc/Run3Summer23NanoAODv12/WminusH_Hto2B_Wto2Q_M-125_TuneCP5_13p6TeV_powheg-pythia8/NANOAODSIM/130X_mcRun3_2023_realistic_v14-v3/2820000/eb8163bb-1337-4c4c-bad2-5309a400228a.root | (None) | ad:207a36e3 | 27.659 MB  |          |
| cms:/store/mc/Run3Summer23NanoAODv12/WminusH_Hto2B_Wto2Q_M-125_TuneCP5_13p6TeV_powheg-pythia8/NANOAODSIM/130X_mcRun3_2023_realistic_v14-v3/2820000/488f0e51-6f88-479d-bfbe-05acc10b9b10.root | (None) | ad:90ccdc53 | 123.679 MB |          |
| cms:/store/mc/Run3Summer23NanoAODv12/WminusH_Hto2B_Wto2Q_M-125_TuneCP5_13p6TeV_powheg-pythia8/NANOAODSIM/130X_mcRun3_2023_realistic_v14-v3/2820000/e2176441-3816-4f73-8c5a-f9b6bb3c59ed.root | (None) | ad:509fbb18 | 43.531 MB  |          |
| cms:/store/mc/Run3Summer23NanoAODv12/WminusH_Hto2B_Wto2Q_M-125_TuneCP5_13p6TeV_powheg-pythia8/NANOAODSIM/130X_mcRun3_2023_realistic_v14-v3/2820000/eafd4f41-d692-4ec1-981e-87bcd7950572.root | (None) | ad:372c717a | 80.283 MB  |          |
| cms:/store/mc/Run3Summer23NanoAODv12/WminusH_Hto2B_Wto2Q_M-125_TuneCP5_13p6TeV_powheg-pythia8/NANOAODSIM/130X_mcRun3_2023_realistic_v14-v3/2810000/6603bb72-0b21-4138-8bd4-b7d63963748e.root | (None) | ad:b8683efd | 31.708 MB  |          |
| cms:/store/mc/Run3Summer23NanoAODv12/WminusH_Hto2B_Wto2Q_M-125_TuneCP5_13p6TeV_powheg-pythia8/NANOAODSIM/130X_mcRun3_2023_realistic_v14-v3/2810000/724ca2c7-fe0a-401e-b983-58ca57dda3e2.root | (None) | ad:c552b9f2 | 38.324 MB  |          |
| cms:/store/mc/Run3Summer23NanoAODv12/WminusH_Hto2B_Wto2Q_M-125_TuneCP5_13p6TeV_powheg-pythia8/NANOAODSIM/130X_mcRun3_2023_realistic_v14-v3/2810000/7ee014ff-d575-42f6-94f8-c9e894c23e79.root | (None) | ad:619e42fe | 124.227 MB |          |
| cms:/store/mc/Run3Summer23NanoAODv12/WminusH_Hto2B_Wto2Q_M-125_TuneCP5_13p6TeV_powheg-pythia8/NANOAODSIM/130X_mcRun3_2023_realistic_v14-v3/2810000/b19fed88-38b9-4a11-b9fb-348461a38fff.root | (None) | ad:e5843937 | 70.910 MB  |          |
| cms:/store/mc/Run3Summer23NanoAODv12/WminusH_Hto2B_Wto2Q_M-125_TuneCP5_13p6TeV_powheg-pythia8/NANOAODSIM/130X_mcRun3_2023_realistic_v14-v3/2820000/c5783ab8-2224-4a03-9f6a-471662fb319d.root | (None) | ad:f2929edb | 3.027 MB   |          |
| cms:/store/mc/Run3Summer23NanoAODv12/WminusH_Hto2B_Wto2Q_M-125_TuneCP5_13p6TeV_powheg-pythia8/NANOAODSIM/130X_mcRun3_2023_realistic_v14-v3/2810000/0d572962-a980-4090-9704-81f3ec44da34.root | (None) | ad:47cebd1f | 17.967 MB  |          |
| cms:/store/mc/Run3Summer23NanoAODv12/WminusH_Hto2B_Wto2Q_M-125_TuneCP5_13p6TeV_powheg-pythia8/NANOAODSIM/130X_mcRun3_2023_realistic_v14-v3/2810000/6ad9dcd1-92ce-4bc8-820b-57c7f277f882.root | (None) | ad:1d1f7e7f | 3.038 MB   |          |
| cms:/store/mc/Run3Summer23NanoAODv12/WminusH_Hto2B_Wto2Q_M-125_TuneCP5_13p6TeV_powheg-pythia8/NANOAODSIM/130X_mcRun3_2023_realistic_v14-v3/2810000/ce69d8e9-c235-486d-9860-a43d9020b1f4.root | (None) | ad:3837d0bf | 9.280 MB   |          |
| cms:/store/mc/Run3Summer23NanoAODv12/WminusH_Hto2B_Wto2Q_M-125_TuneCP5_13p6TeV_powheg-pythia8/NANOAODSIM/130X_mcRun3_2023_realistic_v14-v3/30000/63940c60-b6d6-4e62-bb49-935298597eef.root   | (None) | ad:865d8e71 | 3.268 MB   |          |
| cms:/store/mc/Run3Summer23NanoAODv12/WminusH_Hto2B_Wto2Q_M-125_TuneCP5_13p6TeV_powheg-pythia8/NANOAODSIM/130X_mcRun3_2023_realistic_v14-v3/30000/ead7b344-2859-4114-8309-5f5dd12a3fe9.root   | (None) | ad:644e5cb5 | 5.598 MB   |          |
| cms:/store/mc/Run3Summer23NanoAODv12/WminusH_Hto2B_Wto2Q_M-125_TuneCP5_13p6TeV_powheg-pythia8/NANOAODSIM/130X_mcRun3_2023_realistic_v14-v3/2810000/f8250735-0bb0-40f1-ade5-ba7dae1228dd.root | (None) | ad:10435874 | 39.068 MB  |          |
| cms:/store/mc/Run3Summer23NanoAODv12/WminusH_Hto2B_Wto2Q_M-125_TuneCP5_13p6TeV_powheg-pythia8/NANOAODSIM/130X_mcRun3_2023_realistic_v14-v3/2810000/3caffc68-8abf-4a36-b715-c1bde30a8219.root | (None) | ad:9262a852 | 19.766 MB  |          |
| cms:/store/mc/Run3Summer23NanoAODv12/WminusH_Hto2B_Wto2Q_M-125_TuneCP5_13p6TeV_powheg-pythia8/NANOAODSIM/130X_mcRun3_2023_realistic_v14-v3/2810000/3cf2a394-c757-4818-b360-5633f444079f.root | (None) | ad:81624125 | 126.678 MB |          |
| cms:/store/mc/Run3Summer23NanoAODv12/WminusH_Hto2B_Wto2Q_M-125_TuneCP5_13p6TeV_powheg-pythia8/NANOAODSIM/130X_mcRun3_2023_realistic_v14-v3/2810000/5d79ab93-8e11-472d-89ce-3c75318330ca.root | (None) | ad:374b4612 | 119.815 MB |          |
| cms:/store/mc/Run3Summer23NanoAODv12/WminusH_Hto2B_Wto2Q_M-125_TuneCP5_13p6TeV_powheg-pythia8/NANOAODSIM/130X_mcRun3_2023_realistic_v14-v3/2810000/c5e7116c-5e40-4c75-8ff3-16de367ef43b.root | (None) | ad:535c2e66 | 74.087 MB  |          |
| cms:/store/mc/Run3Summer23NanoAODv12/WminusH_Hto2B_Wto2Q_M-125_TuneCP5_13p6TeV_powheg-pythia8/NANOAODSIM/130X_mcRun3_2023_realistic_v14-v3/30000/193173e6-d205-400a-acef-64eb85481ad0.root   | (None) | ad:0cf69aaa | 65.730 MB  |          |
| cms:/store/mc/Run3Summer23NanoAODv12/WminusH_Hto2B_Wto2Q_M-125_TuneCP5_13p6TeV_powheg-pythia8/NANOAODSIM/130X_mcRun3_2023_realistic_v14-v3/30000/1da699a5-2068-4a8f-b458-a78ef43fd235.root   | (None) | ad:a8759067 | 65.199 MB  |          |
| cms:/store/mc/Run3Summer23NanoAODv12/WminusH_Hto2B_Wto2Q_M-125_TuneCP5_13p6TeV_powheg-pythia8/NANOAODSIM/130X_mcRun3_2023_realistic_v14-v3/30000/0e068eae-2d5a-408a-b8fb-6b3d01d9a21c.root   | (None) | ad:3fe001f4 | 4.563 MB   |          |
| cms:/store/mc/Run3Summer23NanoAODv12/WminusH_Hto2B_Wto2Q_M-125_TuneCP5_13p6TeV_powheg-pythia8/NANOAODSIM/130X_mcRun3_2023_realistic_v14-v3/30000/a2c72532-71fd-44b1-91b6-200ab9ac58f1.root   | (None) | ad:34ea2b36 | 41.307 MB  |          |
| cms:/store/mc/Run3Summer23NanoAODv12/WminusH_Hto2B_Wto2Q_M-125_TuneCP5_13p6TeV_powheg-pythia8/NANOAODSIM/130X_mcRun3_2023_realistic_v14-v3/30000/6ecd42c5-762c-4e71-898b-fee62a101991.root   | (None) | ad:54a3f7f1 | 10.646 MB  |          |
| cms:/store/mc/Run3Summer23NanoAODv12/WminusH_Hto2B_Wto2Q_M-125_TuneCP5_13p6TeV_powheg-pythia8/NANOAODSIM/130X_mcRun3_2023_realistic_v14-v3/30000/f0ad31c0-b031-45ea-a82d-bd05669f0a02.root   | (None) | ad:4114237c | 8.254 MB   |          |
| cms:/store/mc/Run3Summer23NanoAODv12/WminusH_Hto2B_Wto2Q_M-125_TuneCP5_13p6TeV_powheg-pythia8/NANOAODSIM/130X_mcRun3_2023_realistic_v14-v3/2820000/6fbf6ac4-006d-4400-b81c-f0f41ee91645.root | (None) | ad:fe58aa43 | 3.030 MB   |          |
| cms:/store/mc/Run3Summer23NanoAODv12/WminusH_Hto2B_Wto2Q_M-125_TuneCP5_13p6TeV_powheg-pythia8/NANOAODSIM/130X_mcRun3_2023_realistic_v14-v3/30000/ebe0c569-0027-4e94-a1b4-32108fd7452c.root   | (None) | ad:25e1254b | 3.719 MB   |          |
| cms:/store/mc/Run3Summer23NanoAODv12/WminusH_Hto2B_Wto2Q_M-125_TuneCP5_13p6TeV_powheg-pythia8/NANOAODSIM/130X_mcRun3_2023_realistic_v14-v3/2810000/a56ca267-93c2-4717-8c48-ed2feef21777.root | (None) | ad:ac813d44 | 37.014 MB  |          |
| cms:/store/mc/Run3Summer23NanoAODv12/WminusH_Hto2B_Wto2Q_M-125_TuneCP5_13p6TeV_powheg-pythia8/NANOAODSIM/130X_mcRun3_2023_realistic_v14-v3/2810000/e3781154-4def-4c47-afdb-fb124257659a.root | (None) | ad:9093e8f8 | 45.211 MB  |          |
| cms:/store/mc/Run3Summer23NanoAODv12/WminusH_Hto2B_Wto2Q_M-125_TuneCP5_13p6TeV_powheg-pythia8/NANOAODSIM/130X_mcRun3_2023_realistic_v14-v3/40000/433334a2-726e-47d7-a260-f03d8e71bf8a.root   | (None) | ad:fe9fced6 | 3.263 MB   |          |
| cms:/store/mc/Run3Summer23NanoAODv12/WminusH_Hto2B_Wto2Q_M-125_TuneCP5_13p6TeV_powheg-pythia8/NANOAODSIM/130X_mcRun3_2023_realistic_v14-v3/40000/8995dc95-df7f-4bdc-bb22-2143b53e1e34.root   | (None) | ad:c5c6bc5d | 31.105 MB  |          |
| cms:/store/mc/Run3Summer23NanoAODv12/WminusH_Hto2B_Wto2Q_M-125_TuneCP5_13p6TeV_powheg-pythia8/NANOAODSIM/130X_mcRun3_2023_realistic_v14-v3/40000/d4831566-fc9f-471b-a18a-60be7c47d119.root   | (None) | ad:5fe2e02e | 24.214 MB  |          |
| cms:/store/mc/Run3Summer23NanoAODv12/WminusH_Hto2B_Wto2Q_M-125_TuneCP5_13p6TeV_powheg-pythia8/NANOAODSIM/130X_mcRun3_2023_realistic_v14-v3/2810000/599e17f9-f658-4eab-b7ed-934fff4beb08.root | (None) | ad:6d0d8eac | 121.265 MB |          |
| cms:/store/mc/Run3Summer23NanoAODv12/WminusH_Hto2B_Wto2Q_M-125_TuneCP5_13p6TeV_powheg-pythia8/NANOAODSIM/130X_mcRun3_2023_realistic_v14-v3/2810000/ac09fa3d-501c-412b-8571-29ab6007da50.root | (None) | ad:b5209cc0 | 33.663 MB  |          |
| cms:/store/mc/Run3Summer23NanoAODv12/WminusH_Hto2B_Wto2Q_M-125_TuneCP5_13p6TeV_powheg-pythia8/NANOAODSIM/130X_mcRun3_2023_realistic_v14-v3/2810000/f4039ad4-c58f-4a21-bb9b-b518ae3f4ce4.root | (None) | ad:0437b8c5 | 76.590 MB  |          |
| cms:/store/mc/Run3Summer23NanoAODv12/WminusH_Hto2B_Wto2Q_M-125_TuneCP5_13p6TeV_powheg-pythia8/NANOAODSIM/130X_mcRun3_2023_realistic_v14-v3/2810000/262538ff-d5c8-4d09-b656-07b4b39ab994.root | (None) | ad:7848f87a | 18.023 MB  |          |
| cms:/store/mc/Run3Summer23NanoAODv12/WminusH_Hto2B_Wto2Q_M-125_TuneCP5_13p6TeV_powheg-pythia8/NANOAODSIM/130X_mcRun3_2023_realistic_v14-v3/2810000/bc284941-1d93-4627-9503-f583e46e8c95.root | (None) | ad:487cc60e | 5.396 MB   |          |
| cms:/store/mc/Run3Summer23NanoAODv12/WminusH_Hto2B_Wto2Q_M-125_TuneCP5_13p6TeV_powheg-pythia8/NANOAODSIM/130X_mcRun3_2023_realistic_v14-v3/2810000/dd506f1c-5a01-4010-ad78-157bde97859e.root | (None) | ad:6bbf5a32 | 17.758 MB  |          |
| cms:/store/mc/Run3Summer23NanoAODv12/WminusH_Hto2B_Wto2Q_M-125_TuneCP5_13p6TeV_powheg-pythia8/NANOAODSIM/130X_mcRun3_2023_realistic_v14-v3/2810000/f95e9983-234f-41f4-ad8e-0bef74a0255e.root | (None) | ad:0b41c2e7 | 9.658 MB   |          |
| cms:/store/mc/Run3Summer23NanoAODv12/WminusH_Hto2B_Wto2Q_M-125_TuneCP5_13p6TeV_powheg-pythia8/NANOAODSIM/130X_mcRun3_2023_realistic_v14-v3/40000/301d6204-5c20-444e-9a58-c501aa578df9.root   | (None) | ad:b1da36c8 | 3.490 MB   |          |
| cms:/store/mc/Run3Summer23NanoAODv12/WminusH_Hto2B_Wto2Q_M-125_TuneCP5_13p6TeV_powheg-pythia8/NANOAODSIM/130X_mcRun3_2023_realistic_v14-v3/40000/e2a51006-fa0a-4622-83d3-baa10a822d4d.root   | (None) | ad:f4dffd82 | 10.516 MB  |          |
| cms:/store/mc/Run3Summer23NanoAODv12/WminusH_Hto2B_Wto2Q_M-125_TuneCP5_13p6TeV_powheg-pythia8/NANOAODSIM/130X_mcRun3_2023_realistic_v14-v3/40000/3ea02688-a677-4d6c-9410-284f949c5451.root   | (None) | ad:3cede68f | 13.930 MB  |          |
+----------------------------------------------------------------------------------------------------------------------------------------------------------------------------------------------+--------+-------------+------------+----------+
Total files : 404
Total size : 21.188 GB
