{
    "cms:/store/mc/Run3Summer23NanoAODv12/WplusH_Hto2Mu_WtoAll_M-125_TuneCP5_13p6TeV_powheg-minlo-pythia8/NANOAODSIM/130X_mcRun3_2023_realistic_v15-v2/2820000/0a80e182-ba9e-42b9-bb33-7ef159b43328.root": [
        "T2_DE_DESY: davs://dcache-cms-webdav-wan.desy.de:2880/pnfs/desy.de/cms/tier2/store/mc/Run3Summer23NanoAODv12/WplusH_Hto2Mu_WtoAll_M-125_TuneCP5_13p6TeV_powheg-minlo-pythia8/NANOAODSIM/130X_mcRun3_2023_realistic_v15-v2/2820000/0a80e182-ba9e-42b9-bb33-7ef159b43328.root",
        "T2_CH_CSCS: davs://storage01.lcg.cscs.ch:2880/pnfs/lcg.cscs.ch/cms/trivcat/store/mc/Run3Summer23NanoAODv12/WplusH_Hto2Mu_WtoAll_M-125_TuneCP5_13p6TeV_powheg-minlo-pythia8/NANOAODSIM/130X_mcRun3_2023_realistic_v15-v2/2820000/0a80e182-ba9e-42b9-bb33-7ef159b43328.root",
        "T2_CN_Beijing: davs://cceos.ihep.ac.cn:9000/eos/ihep/cms/store/mc/Run3Summer23NanoAODv12/WplusH_Hto2Mu_WtoAll_M-125_TuneCP5_13p6TeV_powheg-minlo-pythia8/NANOAODSIM/130X_mcRun3_2023_realistic_v15-v2/2820000/0a80e182-ba9e-42b9-bb33-7ef159b43328.root",
        "T1_UK_RAL_Tape: davs://antares.stfc.ac.uk:9000/eos/antares/prod/cms/store/mc/Run3Summer23NanoAODv12/WplusH_Hto2Mu_WtoAll_M-125_TuneCP5_13p6TeV_powheg-minlo-pythia8/NANOAODSIM/130X_mcRun3_2023_realistic_v15-v2/2820000/0a80e182-ba9e-42b9-bb33-7ef159b43328.root",
        "T2_US_Vanderbilt: davs://xrootd-vanderbilt.sites.opensciencegrid.org:1094/store/mc/Run3Summer23NanoAODv12/WplusH_Hto2Mu_WtoAll_M-125_TuneCP5_13p6TeV_powheg-minlo-pythia8/NANOAODSIM/130X_mcRun3_2023_realistic_v15-v2/2820000/0a80e182-ba9e-42b9-bb33-7ef159b43328.root",
        "T1_UK_RAL_Disk: davs://rdr.echo.stfc.ac.uk:1094/store/mc/Run3Summer23NanoAODv12/WplusH_Hto2Mu_WtoAll_M-125_TuneCP5_13p6TeV_powheg-minlo-pythia8/NANOAODSIM/130X_mcRun3_2023_realistic_v15-v2/2820000/0a80e182-ba9e-42b9-bb33-7ef159b43328.root",
        "T1_ES_PIC_Disk: davs://webdav-cms.pic.es:8459/pnfs/pic.es/data/cms/disk/store/mc/Run3Summer23NanoAODv12/WplusH_Hto2Mu_WtoAll_M-125_TuneCP5_13p6TeV_powheg-minlo-pythia8/NANOAODSIM/130X_mcRun3_2023_realistic_v15-v2/2820000/0a80e182-ba9e-42b9-bb33-7ef159b43328.root",
        "T2_US_Wisconsin: davs://cmsxrootd.hep.wisc.edu:1094/store/mc/Run3Summer23NanoAODv12/WplusH_Hto2Mu_WtoAll_M-125_TuneCP5_13p6TeV_powheg-minlo-pythia8/NANOAODSIM/130X_mcRun3_2023_realistic_v15-v2/2820000/0a80e182-ba9e-42b9-bb33-7ef159b43328.root",
        "T2_US_Nebraska: davs://xrootd-local.unl.edu:1094/store/mc/Run3Summer23NanoAODv12/WplusH_Hto2Mu_WtoAll_M-125_TuneCP5_13p6TeV_powheg-minlo-pythia8/NANOAODSIM/130X_mcRun3_2023_realistic_v15-v2/2820000/0a80e182-ba9e-42b9-bb33-7ef159b43328.root",
        "T2_UK_London_IC: davs://gfe02.grid.hep.ph.ic.ac.uk:2880/pnfs/hep.ph.ic.ac.uk/data/cms/store/mc/Run3Summer23NanoAODv12/WplusH_Hto2Mu_WtoAll_M-125_TuneCP5_13p6TeV_powheg-minlo-pythia8/NANOAODSIM/130X_mcRun3_2023_realistic_v15-v2/2820000/0a80e182-ba9e-42b9-bb33-7ef159b43328.root"
    ],
    "cms:/store/mc/Run3Summer23NanoAODv12/WplusH_Hto2Mu_WtoAll_M-125_TuneCP5_13p6TeV_powheg-minlo-pythia8/NANOAODSIM/130X_mcRun3_2023_realistic_v15-v2/2820000/eb7300a3-76df-4b05-b468-ae59cc48e354.root": [
        "T2_CH_CSCS: davs://storage01.lcg.cscs.ch:2880/pnfs/lcg.cscs.ch/cms/trivcat/store/mc/Run3Summer23NanoAODv12/WplusH_Hto2Mu_WtoAll_M-125_TuneCP5_13p6TeV_powheg-minlo-pythia8/NANOAODSIM/130X_mcRun3_2023_realistic_v15-v2/2820000/eb7300a3-76df-4b05-b468-ae59cc48e354.root",
        "T2_CN_Beijing: davs://cceos.ihep.ac.cn:9000/eos/ihep/cms/store/mc/Run3Summer23NanoAODv12/WplusH_Hto2Mu_WtoAll_M-125_TuneCP5_13p6TeV_powheg-minlo-pythia8/NANOAODSIM/130X_mcRun3_2023_realistic_v15-v2/2820000/eb7300a3-76df-4b05-b468-ae59cc48e354.root",
        "T1_UK_RAL_Tape: davs://antares.stfc.ac.uk:9000/eos/antares/prod/cms/store/mc/Run3Summer23NanoAODv12/WplusH_Hto2Mu_WtoAll_M-125_TuneCP5_13p6TeV_powheg-minlo-pythia8/NANOAODSIM/130X_mcRun3_2023_realistic_v15-v2/2820000/eb7300a3-76df-4b05-b468-ae59cc48e354.root",
        "T2_IT_Bari: davs://webdav.recas.ba.infn.it:8443/cms/store/mc/Run3Summer23NanoAODv12/WplusH_Hto2Mu_WtoAll_M-125_TuneCP5_13p6TeV_powheg-minlo-pythia8/NANOAODSIM/130X_mcRun3_2023_realistic_v15-v2/2820000/eb7300a3-76df-4b05-b468-ae59cc48e354.root",
        "T2_US_Vanderbilt: davs://xrootd-vanderbilt.sites.opensciencegrid.org:1094/store/mc/Run3Summer23NanoAODv12/WplusH_Hto2Mu_WtoAll_M-125_TuneCP5_13p6TeV_powheg-minlo-pythia8/NANOAODSIM/130X_mcRun3_2023_realistic_v15-v2/2820000/eb7300a3-76df-4b05-b468-ae59cc48e354.root",
        "T1_UK_RAL_Disk: davs://rdr.echo.stfc.ac.uk:1094/store/mc/Run3Summer23NanoAODv12/WplusH_Hto2Mu_WtoAll_M-125_TuneCP5_13p6TeV_powheg-minlo-pythia8/NANOAODSIM/130X_mcRun3_2023_realistic_v15-v2/2820000/eb7300a3-76df-4b05-b468-ae59cc48e354.root",
        "T1_ES_PIC_Disk: davs://webdav-cms.pic.es:8459/pnfs/pic.es/data/cms/disk/store/mc/Run3Summer23NanoAODv12/WplusH_Hto2Mu_WtoAll_M-125_TuneCP5_13p6TeV_powheg-minlo-pythia8/NANOAODSIM/130X_mcRun3_2023_realistic_v15-v2/2820000/eb7300a3-76df-4b05-b468-ae59cc48e354.root",
        "T2_US_Nebraska: davs://xrootd-local.unl.edu:1094/store/mc/Run3Summer23NanoAODv12/WplusH_Hto2Mu_WtoAll_M-125_TuneCP5_13p6TeV_powheg-minlo-pythia8/NANOAODSIM/130X_mcRun3_2023_realistic_v15-v2/2820000/eb7300a3-76df-4b05-b468-ae59cc48e354.root",
        "T2_BE_IIHE: davs://maite.iihe.ac.be:2880/pnfs/iihe/cms/ph/sc4/store/mc/Run3Summer23NanoAODv12/WplusH_Hto2Mu_WtoAll_M-125_TuneCP5_13p6TeV_powheg-minlo-pythia8/NANOAODSIM/130X_mcRun3_2023_realistic_v15-v2/2820000/eb7300a3-76df-4b05-b468-ae59cc48e354.root",
        "T2_UK_London_IC: davs://gfe02.grid.hep.ph.ic.ac.uk:2880/pnfs/hep.ph.ic.ac.uk/data/cms/store/mc/Run3Summer23NanoAODv12/WplusH_Hto2Mu_WtoAll_M-125_TuneCP5_13p6TeV_powheg-minlo-pythia8/NANOAODSIM/130X_mcRun3_2023_realistic_v15-v2/2820000/eb7300a3-76df-4b05-b468-ae59cc48e354.root"
    ],
    "cms:/store/mc/Run3Summer23NanoAODv12/WplusH_Hto2Mu_WtoAll_M-125_TuneCP5_13p6TeV_powheg-minlo-pythia8/NANOAODSIM/130X_mcRun3_2023_realistic_v15-v2/2820000/80648cb0-f5df-4d43-a57e-a50d4c2186bf.root": [
        "T2_CH_CSCS: davs://storage01.lcg.cscs.ch:2880/pnfs/lcg.cscs.ch/cms/trivcat/store/mc/Run3Summer23NanoAODv12/WplusH_Hto2Mu_WtoAll_M-125_TuneCP5_13p6TeV_powheg-minlo-pythia8/NANOAODSIM/130X_mcRun3_2023_realistic_v15-v2/2820000/80648cb0-f5df-4d43-a57e-a50d4c2186bf.root",
        "T1_DE_KIT_Disk: davs://cmsdcache-kit-disk.gridka.de:2880/pnfs/gridka.de/cms/disk-only/store/mc/Run3Summer23NanoAODv12/WplusH_Hto2Mu_WtoAll_M-125_TuneCP5_13p6TeV_powheg-minlo-pythia8/NANOAODSIM/130X_mcRun3_2023_realistic_v15-v2/2820000/80648cb0-f5df-4d43-a57e-a50d4c2186bf.root",
        "T2_CN_Beijing: davs://cceos.ihep.ac.cn:9000/eos/ihep/cms/store/mc/Run3Summer23NanoAODv12/WplusH_Hto2Mu_WtoAll_M-125_TuneCP5_13p6TeV_powheg-minlo-pythia8/NANOAODSIM/130X_mcRun3_2023_realistic_v15-v2/2820000/80648cb0-f5df-4d43-a57e-a50d4c2186bf.root",
        "T1_UK_RAL_Tape: davs://antares.stfc.ac.uk:9000/eos/antares/prod/cms/store/mc/Run3Summer23NanoAODv12/WplusH_Hto2Mu_WtoAll_M-125_TuneCP5_13p6TeV_powheg-minlo-pythia8/NANOAODSIM/130X_mcRun3_2023_realistic_v15-v2/2820000/80648cb0-f5df-4d43-a57e-a50d4c2186bf.root",
        "T2_US_Vanderbilt: davs://xrootd-vanderbilt.sites.opensciencegrid.org:1094/store/mc/Run3Summer23NanoAODv12/WplusH_Hto2Mu_WtoAll_M-125_TuneCP5_13p6TeV_powheg-minlo-pythia8/NANOAODSIM/130X_mcRun3_2023_realistic_v15-v2/2820000/80648cb0-f5df-4d43-a57e-a50d4c2186bf.root",
        "T1_UK_RAL_Disk: davs://rdr.echo.stfc.ac.uk:1094/store/mc/Run3Summer23NanoAODv12/WplusH_Hto2Mu_WtoAll_M-125_TuneCP5_13p6TeV_powheg-minlo-pythia8/NANOAODSIM/130X_mcRun3_2023_realistic_v15-v2/2820000/80648cb0-f5df-4d43-a57e-a50d4c2186bf.root",
        "T1_ES_PIC_Disk: davs://webdav-cms.pic.es:8459/pnfs/pic.es/data/cms/disk/store/mc/Run3Summer23NanoAODv12/WplusH_Hto2Mu_WtoAll_M-125_TuneCP5_13p6TeV_powheg-minlo-pythia8/NANOAODSIM/130X_mcRun3_2023_realistic_v15-v2/2820000/80648cb0-f5df-4d43-a57e-a50d4c2186bf.root",
        "T2_US_Nebraska: davs://xrootd-local.unl.edu:1094/store/mc/Run3Summer23NanoAODv12/WplusH_Hto2Mu_WtoAll_M-125_TuneCP5_13p6TeV_powheg-minlo-pythia8/NANOAODSIM/130X_mcRun3_2023_realistic_v15-v2/2820000/80648cb0-f5df-4d43-a57e-a50d4c2186bf.root",
        "T2_UK_London_IC: davs://gfe02.grid.hep.ph.ic.ac.uk:2880/pnfs/hep.ph.ic.ac.uk/data/cms/store/mc/Run3Summer23NanoAODv12/WplusH_Hto2Mu_WtoAll_M-125_TuneCP5_13p6TeV_powheg-minlo-pythia8/NANOAODSIM/130X_mcRun3_2023_realistic_v15-v2/2820000/80648cb0-f5df-4d43-a57e-a50d4c2186bf.root"
    ],
    "cms:/store/mc/Run3Summer23NanoAODv12/WplusH_Hto2Mu_WtoAll_M-125_TuneCP5_13p6TeV_powheg-minlo-pythia8/NANOAODSIM/130X_mcRun3_2023_realistic_v15-v2/2820000/d6d6ef06-0ca4-44d0-b360-54a2ed5fe8fd.root": [
        "T2_CH_CSCS: davs://storage01.lcg.cscs.ch:2880/pnfs/lcg.cscs.ch/cms/trivcat/store/mc/Run3Summer23NanoAODv12/WplusH_Hto2Mu_WtoAll_M-125_TuneCP5_13p6TeV_powheg-minlo-pythia8/NANOAODSIM/130X_mcRun3_2023_realistic_v15-v2/2820000/d6d6ef06-0ca4-44d0-b360-54a2ed5fe8fd.root",
        "T1_DE_KIT_Disk: davs://cmsdcache-kit-disk.gridka.de:2880/pnfs/gridka.de/cms/disk-only/store/mc/Run3Summer23NanoAODv12/WplusH_Hto2Mu_WtoAll_M-125_TuneCP5_13p6TeV_powheg-minlo-pythia8/NANOAODSIM/130X_mcRun3_2023_realistic_v15-v2/2820000/d6d6ef06-0ca4-44d0-b360-54a2ed5fe8fd.root",
        "T2_CN_Beijing: davs://cceos.ihep.ac.cn:9000/eos/ihep/cms/store/mc/Run3Summer23NanoAODv12/WplusH_Hto2Mu_WtoAll_M-125_TuneCP5_13p6TeV_powheg-minlo-pythia8/NANOAODSIM/130X_mcRun3_2023_realistic_v15-v2/2820000/d6d6ef06-0ca4-44d0-b360-54a2ed5fe8fd.root",
        "T1_UK_RAL_Tape: davs://antares.stfc.ac.uk:9000/eos/antares/prod/cms/store/mc/Run3Summer23NanoAODv12/WplusH_Hto2Mu_WtoAll_M-125_TuneCP5_13p6TeV_powheg-minlo-pythia8/NANOAODSIM/130X_mcRun3_2023_realistic_v15-v2/2820000/d6d6ef06-0ca4-44d0-b360-54a2ed5fe8fd.root",
        "T2_US_Vanderbilt: davs://xrootd-vanderbilt.sites.opensciencegrid.org:1094/store/mc/Run3Summer23NanoAODv12/WplusH_Hto2Mu_WtoAll_M-125_TuneCP5_13p6TeV_powheg-minlo-pythia8/NANOAODSIM/130X_mcRun3_2023_realistic_v15-v2/2820000/d6d6ef06-0ca4-44d0-b360-54a2ed5fe8fd.root",
        "T1_UK_RAL_Disk: davs://rdr.echo.stfc.ac.uk:1094/store/mc/Run3Summer23NanoAODv12/WplusH_Hto2Mu_WtoAll_M-125_TuneCP5_13p6TeV_powheg-minlo-pythia8/NANOAODSIM/130X_mcRun3_2023_realistic_v15-v2/2820000/d6d6ef06-0ca4-44d0-b360-54a2ed5fe8fd.root",
        "T1_ES_PIC_Disk: davs://webdav-cms.pic.es:8459/pnfs/pic.es/data/cms/disk/store/mc/Run3Summer23NanoAODv12/WplusH_Hto2Mu_WtoAll_M-125_TuneCP5_13p6TeV_powheg-minlo-pythia8/NANOAODSIM/130X_mcRun3_2023_realistic_v15-v2/2820000/d6d6ef06-0ca4-44d0-b360-54a2ed5fe8fd.root",
        "T2_US_Nebraska: davs://xrootd-local.unl.edu:1094/store/mc/Run3Summer23NanoAODv12/WplusH_Hto2Mu_WtoAll_M-125_TuneCP5_13p6TeV_powheg-minlo-pythia8/NANOAODSIM/130X_mcRun3_2023_realistic_v15-v2/2820000/d6d6ef06-0ca4-44d0-b360-54a2ed5fe8fd.root",
        "T2_UK_London_IC: davs://gfe02.grid.hep.ph.ic.ac.uk:2880/pnfs/hep.ph.ic.ac.uk/data/cms/store/mc/Run3Summer23NanoAODv12/WplusH_Hto2Mu_WtoAll_M-125_TuneCP5_13p6TeV_powheg-minlo-pythia8/NANOAODSIM/130X_mcRun3_2023_realistic_v15-v2/2820000/d6d6ef06-0ca4-44d0-b360-54a2ed5fe8fd.root"
    ],
    "cms:/store/mc/Run3Summer23NanoAODv12/WplusH_Hto2Mu_WtoAll_M-125_TuneCP5_13p6TeV_powheg-minlo-pythia8/NANOAODSIM/130X_mcRun3_2023_realistic_v15-v2/2820000/c1780c07-ffb0-4936-9ad5-aad3fc80675d.root": [
        "T2_CH_CSCS: davs://storage01.lcg.cscs.ch:2880/pnfs/lcg.cscs.ch/cms/trivcat/store/mc/Run3Summer23NanoAODv12/WplusH_Hto2Mu_WtoAll_M-125_TuneCP5_13p6TeV_powheg-minlo-pythia8/NANOAODSIM/130X_mcRun3_2023_realistic_v15-v2/2820000/c1780c07-ffb0-4936-9ad5-aad3fc80675d.root",
        "T2_CN_Beijing: davs://cceos.ihep.ac.cn:9000/eos/ihep/cms/store/mc/Run3Summer23NanoAODv12/WplusH_Hto2Mu_WtoAll_M-125_TuneCP5_13p6TeV_powheg-minlo-pythia8/NANOAODSIM/130X_mcRun3_2023_realistic_v15-v2/2820000/c1780c07-ffb0-4936-9ad5-aad3fc80675d.root",
        "T1_UK_RAL_Tape: davs://antares.stfc.ac.uk:9000/eos/antares/prod/cms/store/mc/Run3Summer23NanoAODv12/WplusH_Hto2Mu_WtoAll_M-125_TuneCP5_13p6TeV_powheg-minlo-pythia8/NANOAODSIM/130X_mcRun3_2023_realistic_v15-v2/2820000/c1780c07-ffb0-4936-9ad5-aad3fc80675d.root",
        "T2_US_Vanderbilt: davs://xrootd-vanderbilt.sites.opensciencegrid.org:1094/store/mc/Run3Summer23NanoAODv12/WplusH_Hto2Mu_WtoAll_M-125_TuneCP5_13p6TeV_powheg-minlo-pythia8/NANOAODSIM/130X_mcRun3_2023_realistic_v15-v2/2820000/c1780c07-ffb0-4936-9ad5-aad3fc80675d.root",
        "T1_UK_RAL_Disk: davs://rdr.echo.stfc.ac.uk:1094/store/mc/Run3Summer23NanoAODv12/WplusH_Hto2Mu_WtoAll_M-125_TuneCP5_13p6TeV_powheg-minlo-pythia8/NANOAODSIM/130X_mcRun3_2023_realistic_v15-v2/2820000/c1780c07-ffb0-4936-9ad5-aad3fc80675d.root",
        "T1_ES_PIC_Disk: davs://webdav-cms.pic.es:8459/pnfs/pic.es/data/cms/disk/store/mc/Run3Summer23NanoAODv12/WplusH_Hto2Mu_WtoAll_M-125_TuneCP5_13p6TeV_powheg-minlo-pythia8/NANOAODSIM/130X_mcRun3_2023_realistic_v15-v2/2820000/c1780c07-ffb0-4936-9ad5-aad3fc80675d.root",
        "T2_US_Nebraska: davs://xrootd-local.unl.edu:1094/store/mc/Run3Summer23NanoAODv12/WplusH_Hto2Mu_WtoAll_M-125_TuneCP5_13p6TeV_powheg-minlo-pythia8/NANOAODSIM/130X_mcRun3_2023_realistic_v15-v2/2820000/c1780c07-ffb0-4936-9ad5-aad3fc80675d.root",
        "T2_EE_Estonia: davs://xrootd.hep.kbfi.ee:1094/store/mc/Run3Summer23NanoAODv12/WplusH_Hto2Mu_WtoAll_M-125_TuneCP5_13p6TeV_powheg-minlo-pythia8/NANOAODSIM/130X_mcRun3_2023_realistic_v15-v2/2820000/c1780c07-ffb0-4936-9ad5-aad3fc80675d.root",
        "T2_ES_CIEMAT: davs://srm.ciemat.es:2880/pnfs/ciemat.es/data/cms/prod/store/mc/Run3Summer23NanoAODv12/WplusH_Hto2Mu_WtoAll_M-125_TuneCP5_13p6TeV_powheg-minlo-pythia8/NANOAODSIM/130X_mcRun3_2023_realistic_v15-v2/2820000/c1780c07-ffb0-4936-9ad5-aad3fc80675d.root",
        "T2_UK_London_IC: davs://gfe02.grid.hep.ph.ic.ac.uk:2880/pnfs/hep.ph.ic.ac.uk/data/cms/store/mc/Run3Summer23NanoAODv12/WplusH_Hto2Mu_WtoAll_M-125_TuneCP5_13p6TeV_powheg-minlo-pythia8/NANOAODSIM/130X_mcRun3_2023_realistic_v15-v2/2820000/c1780c07-ffb0-4936-9ad5-aad3fc80675d.root"
    ],
    "cms:/store/mc/Run3Summer23NanoAODv12/WplusH_Hto2Mu_WtoAll_M-125_TuneCP5_13p6TeV_powheg-minlo-pythia8/NANOAODSIM/130X_mcRun3_2023_realistic_v15-v2/2820000/a0bb895d-3f3a-4cce-97c3-aaef2dcda888.root": [
        "T2_CH_CSCS: davs://storage01.lcg.cscs.ch:2880/pnfs/lcg.cscs.ch/cms/trivcat/store/mc/Run3Summer23NanoAODv12/WplusH_Hto2Mu_WtoAll_M-125_TuneCP5_13p6TeV_powheg-minlo-pythia8/NANOAODSIM/130X_mcRun3_2023_realistic_v15-v2/2820000/a0bb895d-3f3a-4cce-97c3-aaef2dcda888.root",
        "T2_CN_Beijing: davs://cceos.ihep.ac.cn:9000/eos/ihep/cms/store/mc/Run3Summer23NanoAODv12/WplusH_Hto2Mu_WtoAll_M-125_TuneCP5_13p6TeV_powheg-minlo-pythia8/NANOAODSIM/130X_mcRun3_2023_realistic_v15-v2/2820000/a0bb895d-3f3a-4cce-97c3-aaef2dcda888.root",
        "T1_UK_RAL_Tape: davs://antares.stfc.ac.uk:9000/eos/antares/prod/cms/store/mc/Run3Summer23NanoAODv12/WplusH_Hto2Mu_WtoAll_M-125_TuneCP5_13p6TeV_powheg-minlo-pythia8/NANOAODSIM/130X_mcRun3_2023_realistic_v15-v2/2820000/a0bb895d-3f3a-4cce-97c3-aaef2dcda888.root",
        "T2_US_Vanderbilt: davs://xrootd-vanderbilt.sites.opensciencegrid.org:1094/store/mc/Run3Summer23NanoAODv12/WplusH_Hto2Mu_WtoAll_M-125_TuneCP5_13p6TeV_powheg-minlo-pythia8/NANOAODSIM/130X_mcRun3_2023_realistic_v15-v2/2820000/a0bb895d-3f3a-4cce-97c3-aaef2dcda888.root",
        "T1_UK_RAL_Disk: davs://rdr.echo.stfc.ac.uk:1094/store/mc/Run3Summer23NanoAODv12/WplusH_Hto2Mu_WtoAll_M-125_TuneCP5_13p6TeV_powheg-minlo-pythia8/NANOAODSIM/130X_mcRun3_2023_realistic_v15-v2/2820000/a0bb895d-3f3a-4cce-97c3-aaef2dcda888.root",
        "T1_ES_PIC_Disk: davs://webdav-cms.pic.es:8459/pnfs/pic.es/data/cms/disk/store/mc/Run3Summer23NanoAODv12/WplusH_Hto2Mu_WtoAll_M-125_TuneCP5_13p6TeV_powheg-minlo-pythia8/NANOAODSIM/130X_mcRun3_2023_realistic_v15-v2/2820000/a0bb895d-3f3a-4cce-97c3-aaef2dcda888.root",
        "T2_KR_KISTI: davs://cms-t2-se01.sdfarm.kr:2880/store/mc/Run3Summer23NanoAODv12/WplusH_Hto2Mu_WtoAll_M-125_TuneCP5_13p6TeV_powheg-minlo-pythia8/NANOAODSIM/130X_mcRun3_2023_realistic_v15-v2/2820000/a0bb895d-3f3a-4cce-97c3-aaef2dcda888.root",
        "T3_US_Baylor: davs://kodiak-se.baylor.edu:1094/store/mc/Run3Summer23NanoAODv12/WplusH_Hto2Mu_WtoAll_M-125_TuneCP5_13p6TeV_powheg-minlo-pythia8/NANOAODSIM/130X_mcRun3_2023_realistic_v15-v2/2820000/a0bb895d-3f3a-4cce-97c3-aaef2dcda888.root",
        "T2_US_Nebraska: davs://xrootd-local.unl.edu:1094/store/mc/Run3Summer23NanoAODv12/WplusH_Hto2Mu_WtoAll_M-125_TuneCP5_13p6TeV_powheg-minlo-pythia8/NANOAODSIM/130X_mcRun3_2023_realistic_v15-v2/2820000/a0bb895d-3f3a-4cce-97c3-aaef2dcda888.root",
        "T1_RU_JINR_Disk: davs://se-wbdv.jinr-t1.ru:2880/pnfs/jinr-t1.ru/data/cms/store/mc/Run3Summer23NanoAODv12/WplusH_Hto2Mu_WtoAll_M-125_TuneCP5_13p6TeV_powheg-minlo-pythia8/NANOAODSIM/130X_mcRun3_2023_realistic_v15-v2/2820000/a0bb895d-3f3a-4cce-97c3-aaef2dcda888.root",
        "T2_UK_London_IC: davs://gfe02.grid.hep.ph.ic.ac.uk:2880/pnfs/hep.ph.ic.ac.uk/data/cms/store/mc/Run3Summer23NanoAODv12/WplusH_Hto2Mu_WtoAll_M-125_TuneCP5_13p6TeV_powheg-minlo-pythia8/NANOAODSIM/130X_mcRun3_2023_realistic_v15-v2/2820000/a0bb895d-3f3a-4cce-97c3-aaef2dcda888.root"
    ],
    "cms:/store/mc/Run3Summer23NanoAODv12/WplusH_Hto2Mu_WtoAll_M-125_TuneCP5_13p6TeV_powheg-minlo-pythia8/NANOAODSIM/130X_mcRun3_2023_realistic_v15-v2/2820000/e22ed17e-3a45-43db-a281-bdb59fd82872.root": [
        "T2_CH_CSCS: davs://storage01.lcg.cscs.ch:2880/pnfs/lcg.cscs.ch/cms/trivcat/store/mc/Run3Summer23NanoAODv12/WplusH_Hto2Mu_WtoAll_M-125_TuneCP5_13p6TeV_powheg-minlo-pythia8/NANOAODSIM/130X_mcRun3_2023_realistic_v15-v2/2820000/e22ed17e-3a45-43db-a281-bdb59fd82872.root",
        "T2_CN_Beijing: davs://cceos.ihep.ac.cn:9000/eos/ihep/cms/store/mc/Run3Summer23NanoAODv12/WplusH_Hto2Mu_WtoAll_M-125_TuneCP5_13p6TeV_powheg-minlo-pythia8/NANOAODSIM/130X_mcRun3_2023_realistic_v15-v2/2820000/e22ed17e-3a45-43db-a281-bdb59fd82872.root",
        "T1_UK_RAL_Tape: davs://antares.stfc.ac.uk:9000/eos/antares/prod/cms/store/mc/Run3Summer23NanoAODv12/WplusH_Hto2Mu_WtoAll_M-125_TuneCP5_13p6TeV_powheg-minlo-pythia8/NANOAODSIM/130X_mcRun3_2023_realistic_v15-v2/2820000/e22ed17e-3a45-43db-a281-bdb59fd82872.root",
        "T2_US_Vanderbilt: davs://xrootd-vanderbilt.sites.opensciencegrid.org:1094/store/mc/Run3Summer23NanoAODv12/WplusH_Hto2Mu_WtoAll_M-125_TuneCP5_13p6TeV_powheg-minlo-pythia8/NANOAODSIM/130X_mcRun3_2023_realistic_v15-v2/2820000/e22ed17e-3a45-43db-a281-bdb59fd82872.root",
        "T1_UK_RAL_Disk: davs://rdr.echo.stfc.ac.uk:1094/store/mc/Run3Summer23NanoAODv12/WplusH_Hto2Mu_WtoAll_M-125_TuneCP5_13p6TeV_powheg-minlo-pythia8/NANOAODSIM/130X_mcRun3_2023_realistic_v15-v2/2820000/e22ed17e-3a45-43db-a281-bdb59fd82872.root",
        "T1_ES_PIC_Disk: davs://webdav-cms.pic.es:8459/pnfs/pic.es/data/cms/disk/store/mc/Run3Summer23NanoAODv12/WplusH_Hto2Mu_WtoAll_M-125_TuneCP5_13p6TeV_powheg-minlo-pythia8/NANOAODSIM/130X_mcRun3_2023_realistic_v15-v2/2820000/e22ed17e-3a45-43db-a281-bdb59fd82872.root",
        "T2_BR_SPRACE: davs://osg-se.sprace.org.br:1094/store/mc/Run3Summer23NanoAODv12/WplusH_Hto2Mu_WtoAll_M-125_TuneCP5_13p6TeV_powheg-minlo-pythia8/NANOAODSIM/130X_mcRun3_2023_realistic_v15-v2/2820000/e22ed17e-3a45-43db-a281-bdb59fd82872.root",
        "T2_US_Nebraska: davs://xrootd-local.unl.edu:1094/store/mc/Run3Summer23NanoAODv12/WplusH_Hto2Mu_WtoAll_M-125_TuneCP5_13p6TeV_powheg-minlo-pythia8/NANOAODSIM/130X_mcRun3_2023_realistic_v15-v2/2820000/e22ed17e-3a45-43db-a281-bdb59fd82872.root",
        "T2_RU_JINR: davs://lcgsedr08.jinr.ru:2880/pnfs/jinr.ru/data/cms/store/mc/Run3Summer23NanoAODv12/WplusH_Hto2Mu_WtoAll_M-125_TuneCP5_13p6TeV_powheg-minlo-pythia8/NANOAODSIM/130X_mcRun3_2023_realistic_v15-v2/2820000/e22ed17e-3a45-43db-a281-bdb59fd82872.root",
        "T2_UK_London_IC: davs://gfe02.grid.hep.ph.ic.ac.uk:2880/pnfs/hep.ph.ic.ac.uk/data/cms/store/mc/Run3Summer23NanoAODv12/WplusH_Hto2Mu_WtoAll_M-125_TuneCP5_13p6TeV_powheg-minlo-pythia8/NANOAODSIM/130X_mcRun3_2023_realistic_v15-v2/2820000/e22ed17e-3a45-43db-a281-bdb59fd82872.root"
    ],
    "cms:/store/mc/Run3Summer23NanoAODv12/WplusH_Hto2Mu_WtoAll_M-125_TuneCP5_13p6TeV_powheg-minlo-pythia8/NANOAODSIM/130X_mcRun3_2023_realistic_v15-v2/2820000/55644a62-e488-4dc1-b896-f01ce33471f7.root": [
        "T2_CH_CSCS: davs://storage01.lcg.cscs.ch:2880/pnfs/lcg.cscs.ch/cms/trivcat/store/mc/Run3Summer23NanoAODv12/WplusH_Hto2Mu_WtoAll_M-125_TuneCP5_13p6TeV_powheg-minlo-pythia8/NANOAODSIM/130X_mcRun3_2023_realistic_v15-v2/2820000/55644a62-e488-4dc1-b896-f01ce33471f7.root",
        "T2_CN_Beijing: davs://cceos.ihep.ac.cn:9000/eos/ihep/cms/store/mc/Run3Summer23NanoAODv12/WplusH_Hto2Mu_WtoAll_M-125_TuneCP5_13p6TeV_powheg-minlo-pythia8/NANOAODSIM/130X_mcRun3_2023_realistic_v15-v2/2820000/55644a62-e488-4dc1-b896-f01ce33471f7.root",
        "T1_UK_RAL_Tape: davs://antares.stfc.ac.uk:9000/eos/antares/prod/cms/store/mc/Run3Summer23NanoAODv12/WplusH_Hto2Mu_WtoAll_M-125_TuneCP5_13p6TeV_powheg-minlo-pythia8/NANOAODSIM/130X_mcRun3_2023_realistic_v15-v2/2820000/55644a62-e488-4dc1-b896-f01ce33471f7.root",
        "T2_US_Vanderbilt: davs://xrootd-vanderbilt.sites.opensciencegrid.org:1094/store/mc/Run3Summer23NanoAODv12/WplusH_Hto2Mu_WtoAll_M-125_TuneCP5_13p6TeV_powheg-minlo-pythia8/NANOAODSIM/130X_mcRun3_2023_realistic_v15-v2/2820000/55644a62-e488-4dc1-b896-f01ce33471f7.root",
        "T1_UK_RAL_Disk: davs://rdr.echo.stfc.ac.uk:1094/store/mc/Run3Summer23NanoAODv12/WplusH_Hto2Mu_WtoAll_M-125_TuneCP5_13p6TeV_powheg-minlo-pythia8/NANOAODSIM/130X_mcRun3_2023_realistic_v15-v2/2820000/55644a62-e488-4dc1-b896-f01ce33471f7.root",
        "T1_ES_PIC_Disk: davs://webdav-cms.pic.es:8459/pnfs/pic.es/data/cms/disk/store/mc/Run3Summer23NanoAODv12/WplusH_Hto2Mu_WtoAll_M-125_TuneCP5_13p6TeV_powheg-minlo-pythia8/NANOAODSIM/130X_mcRun3_2023_realistic_v15-v2/2820000/55644a62-e488-4dc1-b896-f01ce33471f7.root",
        "T2_US_Nebraska: davs://xrootd-local.unl.edu:1094/store/mc/Run3Summer23NanoAODv12/WplusH_Hto2Mu_WtoAll_M-125_TuneCP5_13p6TeV_powheg-minlo-pythia8/NANOAODSIM/130X_mcRun3_2023_realistic_v15-v2/2820000/55644a62-e488-4dc1-b896-f01ce33471f7.root",
        "T2_IT_Rome: davs://cmsrm-xrootd01.roma1.infn.it:2880//mc/Run3Summer23NanoAODv12/WplusH_Hto2Mu_WtoAll_M-125_TuneCP5_13p6TeV_powheg-minlo-pythia8/NANOAODSIM/130X_mcRun3_2023_realistic_v15-v2/2820000/55644a62-e488-4dc1-b896-f01ce33471f7.root",
        "T2_ES_CIEMAT: davs://srm.ciemat.es:2880/pnfs/ciemat.es/data/cms/prod/store/mc/Run3Summer23NanoAODv12/WplusH_Hto2Mu_WtoAll_M-125_TuneCP5_13p6TeV_powheg-minlo-pythia8/NANOAODSIM/130X_mcRun3_2023_realistic_v15-v2/2820000/55644a62-e488-4dc1-b896-f01ce33471f7.root",
        "T2_UK_London_IC: davs://gfe02.grid.hep.ph.ic.ac.uk:2880/pnfs/hep.ph.ic.ac.uk/data/cms/store/mc/Run3Summer23NanoAODv12/WplusH_Hto2Mu_WtoAll_M-125_TuneCP5_13p6TeV_powheg-minlo-pythia8/NANOAODSIM/130X_mcRun3_2023_realistic_v15-v2/2820000/55644a62-e488-4dc1-b896-f01ce33471f7.root"
    ],
    "cms:/store/mc/Run3Summer23NanoAODv12/WplusH_Hto2Mu_WtoAll_M-125_TuneCP5_13p6TeV_powheg-minlo-pythia8/NANOAODSIM/130X_mcRun3_2023_realistic_v15-v2/2820000/84b09716-10e9-45d2-bdd5-f71b6ece176c.root": [
        "T2_DE_DESY: davs://dcache-cms-webdav-wan.desy.de:2880/pnfs/desy.de/cms/tier2/store/mc/Run3Summer23NanoAODv12/WplusH_Hto2Mu_WtoAll_M-125_TuneCP5_13p6TeV_powheg-minlo-pythia8/NANOAODSIM/130X_mcRun3_2023_realistic_v15-v2/2820000/84b09716-10e9-45d2-bdd5-f71b6ece176c.root",
        "T2_CH_CSCS: davs://storage01.lcg.cscs.ch:2880/pnfs/lcg.cscs.ch/cms/trivcat/store/mc/Run3Summer23NanoAODv12/WplusH_Hto2Mu_WtoAll_M-125_TuneCP5_13p6TeV_powheg-minlo-pythia8/NANOAODSIM/130X_mcRun3_2023_realistic_v15-v2/2820000/84b09716-10e9-45d2-bdd5-f71b6ece176c.root",
        "T2_CN_Beijing: davs://cceos.ihep.ac.cn:9000/eos/ihep/cms/store/mc/Run3Summer23NanoAODv12/WplusH_Hto2Mu_WtoAll_M-125_TuneCP5_13p6TeV_powheg-minlo-pythia8/NANOAODSIM/130X_mcRun3_2023_realistic_v15-v2/2820000/84b09716-10e9-45d2-bdd5-f71b6ece176c.root",
        "T1_UK_RAL_Tape: davs://antares.stfc.ac.uk:9000/eos/antares/prod/cms/store/mc/Run3Summer23NanoAODv12/WplusH_Hto2Mu_WtoAll_M-125_TuneCP5_13p6TeV_powheg-minlo-pythia8/NANOAODSIM/130X_mcRun3_2023_realistic_v15-v2/2820000/84b09716-10e9-45d2-bdd5-f71b6ece176c.root",
        "T2_US_Vanderbilt: davs://xrootd-vanderbilt.sites.opensciencegrid.org:1094/store/mc/Run3Summer23NanoAODv12/WplusH_Hto2Mu_WtoAll_M-125_TuneCP5_13p6TeV_powheg-minlo-pythia8/NANOAODSIM/130X_mcRun3_2023_realistic_v15-v2/2820000/84b09716-10e9-45d2-bdd5-f71b6ece176c.root",
        "T1_UK_RAL_Disk: davs://rdr.echo.stfc.ac.uk:1094/store/mc/Run3Summer23NanoAODv12/WplusH_Hto2Mu_WtoAll_M-125_TuneCP5_13p6TeV_powheg-minlo-pythia8/NANOAODSIM/130X_mcRun3_2023_realistic_v15-v2/2820000/84b09716-10e9-45d2-bdd5-f71b6ece176c.root",
        "T1_ES_PIC_Disk: davs://webdav-cms.pic.es:8459/pnfs/pic.es/data/cms/disk/store/mc/Run3Summer23NanoAODv12/WplusH_Hto2Mu_WtoAll_M-125_TuneCP5_13p6TeV_powheg-minlo-pythia8/NANOAODSIM/130X_mcRun3_2023_realistic_v15-v2/2820000/84b09716-10e9-45d2-bdd5-f71b6ece176c.root",
        "T2_US_Caltech: davs://k8s-redir-stageout.ultralight.org:1094/store/mc/Run3Summer23NanoAODv12/WplusH_Hto2Mu_WtoAll_M-125_TuneCP5_13p6TeV_powheg-minlo-pythia8/NANOAODSIM/130X_mcRun3_2023_realistic_v15-v2/2820000/84b09716-10e9-45d2-bdd5-f71b6ece176c.root",
        "T2_US_Nebraska: davs://xrootd-local.unl.edu:1094/store/mc/Run3Summer23NanoAODv12/WplusH_Hto2Mu_WtoAll_M-125_TuneCP5_13p6TeV_powheg-minlo-pythia8/NANOAODSIM/130X_mcRun3_2023_realistic_v15-v2/2820000/84b09716-10e9-45d2-bdd5-f71b6ece176c.root",
        "T2_UK_London_IC: davs://gfe02.grid.hep.ph.ic.ac.uk:2880/pnfs/hep.ph.ic.ac.uk/data/cms/store/mc/Run3Summer23NanoAODv12/WplusH_Hto2Mu_WtoAll_M-125_TuneCP5_13p6TeV_powheg-minlo-pythia8/NANOAODSIM/130X_mcRun3_2023_realistic_v15-v2/2820000/84b09716-10e9-45d2-bdd5-f71b6ece176c.root"
    ],
    "cms:/store/mc/Run3Summer23NanoAODv12/WplusH_Hto2Mu_WtoAll_M-125_TuneCP5_13p6TeV_powheg-minlo-pythia8/NANOAODSIM/130X_mcRun3_2023_realistic_v15-v2/2820000/1ec26e14-7a02-442e-8869-e8b1af75b8fa.root": [
        "T2_DE_DESY: davs://dcache-cms-webdav-wan.desy.de:2880/pnfs/desy.de/cms/tier2/store/mc/Run3Summer23NanoAODv12/WplusH_Hto2Mu_WtoAll_M-125_TuneCP5_13p6TeV_powheg-minlo-pythia8/NANOAODSIM/130X_mcRun3_2023_realistic_v15-v2/2820000/1ec26e14-7a02-442e-8869-e8b1af75b8fa.root",
        "T2_CH_CSCS: davs://storage01.lcg.cscs.ch:2880/pnfs/lcg.cscs.ch/cms/trivcat/store/mc/Run3Summer23NanoAODv12/WplusH_Hto2Mu_WtoAll_M-125_TuneCP5_13p6TeV_powheg-minlo-pythia8/NANOAODSIM/130X_mcRun3_2023_realistic_v15-v2/2820000/1ec26e14-7a02-442e-8869-e8b1af75b8fa.root",
        "T1_DE_KIT_Disk: davs://cmsdcache-kit-disk.gridka.de:2880/pnfs/gridka.de/cms/disk-only/store/mc/Run3Summer23NanoAODv12/WplusH_Hto2Mu_WtoAll_M-125_TuneCP5_13p6TeV_powheg-minlo-pythia8/NANOAODSIM/130X_mcRun3_2023_realistic_v15-v2/2820000/1ec26e14-7a02-442e-8869-e8b1af75b8fa.root",
        "T2_CN_Beijing: davs://cceos.ihep.ac.cn:9000/eos/ihep/cms/store/mc/Run3Summer23NanoAODv12/WplusH_Hto2Mu_WtoAll_M-125_TuneCP5_13p6TeV_powheg-minlo-pythia8/NANOAODSIM/130X_mcRun3_2023_realistic_v15-v2/2820000/1ec26e14-7a02-442e-8869-e8b1af75b8fa.root",
        "T1_UK_RAL_Tape: davs://antares.stfc.ac.uk:9000/eos/antares/prod/cms/store/mc/Run3Summer23NanoAODv12/WplusH_Hto2Mu_WtoAll_M-125_TuneCP5_13p6TeV_powheg-minlo-pythia8/NANOAODSIM/130X_mcRun3_2023_realistic_v15-v2/2820000/1ec26e14-7a02-442e-8869-e8b1af75b8fa.root",
        "T2_US_Vanderbilt: davs://xrootd-vanderbilt.sites.opensciencegrid.org:1094/store/mc/Run3Summer23NanoAODv12/WplusH_Hto2Mu_WtoAll_M-125_TuneCP5_13p6TeV_powheg-minlo-pythia8/NANOAODSIM/130X_mcRun3_2023_realistic_v15-v2/2820000/1ec26e14-7a02-442e-8869-e8b1af75b8fa.root",
        "T1_UK_RAL_Disk: davs://rdr.echo.stfc.ac.uk:1094/store/mc/Run3Summer23NanoAODv12/WplusH_Hto2Mu_WtoAll_M-125_TuneCP5_13p6TeV_powheg-minlo-pythia8/NANOAODSIM/130X_mcRun3_2023_realistic_v15-v2/2820000/1ec26e14-7a02-442e-8869-e8b1af75b8fa.root",
        "T1_ES_PIC_Disk: davs://webdav-cms.pic.es:8459/pnfs/pic.es/data/cms/disk/store/mc/Run3Summer23NanoAODv12/WplusH_Hto2Mu_WtoAll_M-125_TuneCP5_13p6TeV_powheg-minlo-pythia8/NANOAODSIM/130X_mcRun3_2023_realistic_v15-v2/2820000/1ec26e14-7a02-442e-8869-e8b1af75b8fa.root",
        "T2_US_Nebraska: davs://xrootd-local.unl.edu:1094/store/mc/Run3Summer23NanoAODv12/WplusH_Hto2Mu_WtoAll_M-125_TuneCP5_13p6TeV_powheg-minlo-pythia8/NANOAODSIM/130X_mcRun3_2023_realistic_v15-v2/2820000/1ec26e14-7a02-442e-8869-e8b1af75b8fa.root",
        "T2_UK_London_IC: davs://gfe02.grid.hep.ph.ic.ac.uk:2880/pnfs/hep.ph.ic.ac.uk/data/cms/store/mc/Run3Summer23NanoAODv12/WplusH_Hto2Mu_WtoAll_M-125_TuneCP5_13p6TeV_powheg-minlo-pythia8/NANOAODSIM/130X_mcRun3_2023_realistic_v15-v2/2820000/1ec26e14-7a02-442e-8869-e8b1af75b8fa.root"
    ],
    "cms:/store/mc/Run3Summer23NanoAODv12/WplusH_Hto2Mu_WtoAll_M-125_TuneCP5_13p6TeV_powheg-minlo-pythia8/NANOAODSIM/130X_mcRun3_2023_realistic_v15-v2/2820000/29d2baaf-5a11-46b9-a17a-d183eb2733d8.root": [
        "T2_CH_CSCS: davs://storage01.lcg.cscs.ch:2880/pnfs/lcg.cscs.ch/cms/trivcat/store/mc/Run3Summer23NanoAODv12/WplusH_Hto2Mu_WtoAll_M-125_TuneCP5_13p6TeV_powheg-minlo-pythia8/NANOAODSIM/130X_mcRun3_2023_realistic_v15-v2/2820000/29d2baaf-5a11-46b9-a17a-d183eb2733d8.root",
        "T2_CN_Beijing: davs://cceos.ihep.ac.cn:9000/eos/ihep/cms/store/mc/Run3Summer23NanoAODv12/WplusH_Hto2Mu_WtoAll_M-125_TuneCP5_13p6TeV_powheg-minlo-pythia8/NANOAODSIM/130X_mcRun3_2023_realistic_v15-v2/2820000/29d2baaf-5a11-46b9-a17a-d183eb2733d8.root",
        "T1_UK_RAL_Tape: davs://antares.stfc.ac.uk:9000/eos/antares/prod/cms/store/mc/Run3Summer23NanoAODv12/WplusH_Hto2Mu_WtoAll_M-125_TuneCP5_13p6TeV_powheg-minlo-pythia8/NANOAODSIM/130X_mcRun3_2023_realistic_v15-v2/2820000/29d2baaf-5a11-46b9-a17a-d183eb2733d8.root",
        "T2_US_Vanderbilt: davs://xrootd-vanderbilt.sites.opensciencegrid.org:1094/store/mc/Run3Summer23NanoAODv12/WplusH_Hto2Mu_WtoAll_M-125_TuneCP5_13p6TeV_powheg-minlo-pythia8/NANOAODSIM/130X_mcRun3_2023_realistic_v15-v2/2820000/29d2baaf-5a11-46b9-a17a-d183eb2733d8.root",
        "T1_UK_RAL_Disk: davs://rdr.echo.stfc.ac.uk:1094/store/mc/Run3Summer23NanoAODv12/WplusH_Hto2Mu_WtoAll_M-125_TuneCP5_13p6TeV_powheg-minlo-pythia8/NANOAODSIM/130X_mcRun3_2023_realistic_v15-v2/2820000/29d2baaf-5a11-46b9-a17a-d183eb2733d8.root",
        "T1_ES_PIC_Disk: davs://webdav-cms.pic.es:8459/pnfs/pic.es/data/cms/disk/store/mc/Run3Summer23NanoAODv12/WplusH_Hto2Mu_WtoAll_M-125_TuneCP5_13p6TeV_powheg-minlo-pythia8/NANOAODSIM/130X_mcRun3_2023_realistic_v15-v2/2820000/29d2baaf-5a11-46b9-a17a-d183eb2733d8.root",
        "T2_US_Nebraska: davs://xrootd-local.unl.edu:1094/store/mc/Run3Summer23NanoAODv12/WplusH_Hto2Mu_WtoAll_M-125_TuneCP5_13p6TeV_powheg-minlo-pythia8/NANOAODSIM/130X_mcRun3_2023_realistic_v15-v2/2820000/29d2baaf-5a11-46b9-a17a-d183eb2733d8.root",
        "T2_UK_London_IC: davs://gfe02.grid.hep.ph.ic.ac.uk:2880/pnfs/hep.ph.ic.ac.uk/data/cms/store/mc/Run3Summer23NanoAODv12/WplusH_Hto2Mu_WtoAll_M-125_TuneCP5_13p6TeV_powheg-minlo-pythia8/NANOAODSIM/130X_mcRun3_2023_realistic_v15-v2/2820000/29d2baaf-5a11-46b9-a17a-d183eb2733d8.root"
    ],
    "cms:/store/mc/Run3Summer23NanoAODv12/WplusH_Hto2Mu_WtoAll_M-125_TuneCP5_13p6TeV_powheg-minlo-pythia8/NANOAODSIM/130X_mcRun3_2023_realistic_v15-v2/2820000/87aca27e-0d2c-4d35-b42b-d75204e7f313.root": [
        "T2_CH_CSCS: davs://storage01.lcg.cscs.ch:2880/pnfs/lcg.cscs.ch/cms/trivcat/store/mc/Run3Summer23NanoAODv12/WplusH_Hto2Mu_WtoAll_M-125_TuneCP5_13p6TeV_powheg-minlo-pythia8/NANOAODSIM/130X_mcRun3_2023_realistic_v15-v2/2820000/87aca27e-0d2c-4d35-b42b-d75204e7f313.root",
        "T1_FR_CCIN2P3_Disk: davs://ccdavcms.in2p3.fr:2880/disk/data/store/mc/Run3Summer23NanoAODv12/WplusH_Hto2Mu_WtoAll_M-125_TuneCP5_13p6TeV_powheg-minlo-pythia8/NANOAODSIM/130X_mcRun3_2023_realistic_v15-v2/2820000/87aca27e-0d2c-4d35-b42b-d75204e7f313.root",
        "T2_CN_Beijing: davs://cceos.ihep.ac.cn:9000/eos/ihep/cms/store/mc/Run3Summer23NanoAODv12/WplusH_Hto2Mu_WtoAll_M-125_TuneCP5_13p6TeV_powheg-minlo-pythia8/NANOAODSIM/130X_mcRun3_2023_realistic_v15-v2/2820000/87aca27e-0d2c-4d35-b42b-d75204e7f313.root",
        "T1_UK_RAL_Tape: davs://antares.stfc.ac.uk:9000/eos/antares/prod/cms/store/mc/Run3Summer23NanoAODv12/WplusH_Hto2Mu_WtoAll_M-125_TuneCP5_13p6TeV_powheg-minlo-pythia8/NANOAODSIM/130X_mcRun3_2023_realistic_v15-v2/2820000/87aca27e-0d2c-4d35-b42b-d75204e7f313.root",
        "T2_US_Vanderbilt: davs://xrootd-vanderbilt.sites.opensciencegrid.org:1094/store/mc/Run3Summer23NanoAODv12/WplusH_Hto2Mu_WtoAll_M-125_TuneCP5_13p6TeV_powheg-minlo-pythia8/NANOAODSIM/130X_mcRun3_2023_realistic_v15-v2/2820000/87aca27e-0d2c-4d35-b42b-d75204e7f313.root",
        "T1_UK_RAL_Disk: davs://rdr.echo.stfc.ac.uk:1094/store/mc/Run3Summer23NanoAODv12/WplusH_Hto2Mu_WtoAll_M-125_TuneCP5_13p6TeV_powheg-minlo-pythia8/NANOAODSIM/130X_mcRun3_2023_realistic_v15-v2/2820000/87aca27e-0d2c-4d35-b42b-d75204e7f313.root",
        "T1_ES_PIC_Disk: davs://webdav-cms.pic.es:8459/pnfs/pic.es/data/cms/disk/store/mc/Run3Summer23NanoAODv12/WplusH_Hto2Mu_WtoAll_M-125_TuneCP5_13p6TeV_powheg-minlo-pythia8/NANOAODSIM/130X_mcRun3_2023_realistic_v15-v2/2820000/87aca27e-0d2c-4d35-b42b-d75204e7f313.root",
        "T2_BR_SPRACE: davs://osg-se.sprace.org.br:1094/store/mc/Run3Summer23NanoAODv12/WplusH_Hto2Mu_WtoAll_M-125_TuneCP5_13p6TeV_powheg-minlo-pythia8/NANOAODSIM/130X_mcRun3_2023_realistic_v15-v2/2820000/87aca27e-0d2c-4d35-b42b-d75204e7f313.root",
        "T2_US_Nebraska: davs://xrootd-local.unl.edu:1094/store/mc/Run3Summer23NanoAODv12/WplusH_Hto2Mu_WtoAll_M-125_TuneCP5_13p6TeV_powheg-minlo-pythia8/NANOAODSIM/130X_mcRun3_2023_realistic_v15-v2/2820000/87aca27e-0d2c-4d35-b42b-d75204e7f313.root",
        "T2_UK_London_IC: davs://gfe02.grid.hep.ph.ic.ac.uk:2880/pnfs/hep.ph.ic.ac.uk/data/cms/store/mc/Run3Summer23NanoAODv12/WplusH_Hto2Mu_WtoAll_M-125_TuneCP5_13p6TeV_powheg-minlo-pythia8/NANOAODSIM/130X_mcRun3_2023_realistic_v15-v2/2820000/87aca27e-0d2c-4d35-b42b-d75204e7f313.root"
    ],
    "cms:/store/mc/Run3Summer23NanoAODv12/WplusH_Hto2Mu_WtoAll_M-125_TuneCP5_13p6TeV_powheg-minlo-pythia8/NANOAODSIM/130X_mcRun3_2023_realistic_v15-v2/2820000/776987a0-bc9b-4525-94cd-a8e9ac1d777a.root": [
        "T2_CH_CSCS: davs://storage01.lcg.cscs.ch:2880/pnfs/lcg.cscs.ch/cms/trivcat/store/mc/Run3Summer23NanoAODv12/WplusH_Hto2Mu_WtoAll_M-125_TuneCP5_13p6TeV_powheg-minlo-pythia8/NANOAODSIM/130X_mcRun3_2023_realistic_v15-v2/2820000/776987a0-bc9b-4525-94cd-a8e9ac1d777a.root",
        "T2_CN_Beijing: davs://cceos.ihep.ac.cn:9000/eos/ihep/cms/store/mc/Run3Summer23NanoAODv12/WplusH_Hto2Mu_WtoAll_M-125_TuneCP5_13p6TeV_powheg-minlo-pythia8/NANOAODSIM/130X_mcRun3_2023_realistic_v15-v2/2820000/776987a0-bc9b-4525-94cd-a8e9ac1d777a.root",
        "T1_UK_RAL_Tape: davs://antares.stfc.ac.uk:9000/eos/antares/prod/cms/store/mc/Run3Summer23NanoAODv12/WplusH_Hto2Mu_WtoAll_M-125_TuneCP5_13p6TeV_powheg-minlo-pythia8/NANOAODSIM/130X_mcRun3_2023_realistic_v15-v2/2820000/776987a0-bc9b-4525-94cd-a8e9ac1d777a.root",
        "T2_US_Vanderbilt: davs://xrootd-vanderbilt.sites.opensciencegrid.org:1094/store/mc/Run3Summer23NanoAODv12/WplusH_Hto2Mu_WtoAll_M-125_TuneCP5_13p6TeV_powheg-minlo-pythia8/NANOAODSIM/130X_mcRun3_2023_realistic_v15-v2/2820000/776987a0-bc9b-4525-94cd-a8e9ac1d777a.root",
        "T1_UK_RAL_Disk: davs://rdr.echo.stfc.ac.uk:1094/store/mc/Run3Summer23NanoAODv12/WplusH_Hto2Mu_WtoAll_M-125_TuneCP5_13p6TeV_powheg-minlo-pythia8/NANOAODSIM/130X_mcRun3_2023_realistic_v15-v2/2820000/776987a0-bc9b-4525-94cd-a8e9ac1d777a.root",
        "T1_ES_PIC_Disk: davs://webdav-cms.pic.es:8459/pnfs/pic.es/data/cms/disk/store/mc/Run3Summer23NanoAODv12/WplusH_Hto2Mu_WtoAll_M-125_TuneCP5_13p6TeV_powheg-minlo-pythia8/NANOAODSIM/130X_mcRun3_2023_realistic_v15-v2/2820000/776987a0-bc9b-4525-94cd-a8e9ac1d777a.root",
        "T2_US_Nebraska: davs://xrootd-local.unl.edu:1094/store/mc/Run3Summer23NanoAODv12/WplusH_Hto2Mu_WtoAll_M-125_TuneCP5_13p6TeV_powheg-minlo-pythia8/NANOAODSIM/130X_mcRun3_2023_realistic_v15-v2/2820000/776987a0-bc9b-4525-94cd-a8e9ac1d777a.root",
        "T2_ES_CIEMAT: davs://srm.ciemat.es:2880/pnfs/ciemat.es/data/cms/prod/store/mc/Run3Summer23NanoAODv12/WplusH_Hto2Mu_WtoAll_M-125_TuneCP5_13p6TeV_powheg-minlo-pythia8/NANOAODSIM/130X_mcRun3_2023_realistic_v15-v2/2820000/776987a0-bc9b-4525-94cd-a8e9ac1d777a.root",
        "T2_UK_London_IC: davs://gfe02.grid.hep.ph.ic.ac.uk:2880/pnfs/hep.ph.ic.ac.uk/data/cms/store/mc/Run3Summer23NanoAODv12/WplusH_Hto2Mu_WtoAll_M-125_TuneCP5_13p6TeV_powheg-minlo-pythia8/NANOAODSIM/130X_mcRun3_2023_realistic_v15-v2/2820000/776987a0-bc9b-4525-94cd-a8e9ac1d777a.root",
        "T2_DE_RWTH: davs://grid-webdav.physik.rwth-aachen.de:2889/store/mc/Run3Summer23NanoAODv12/WplusH_Hto2Mu_WtoAll_M-125_TuneCP5_13p6TeV_powheg-minlo-pythia8/NANOAODSIM/130X_mcRun3_2023_realistic_v15-v2/2820000/776987a0-bc9b-4525-94cd-a8e9ac1d777a.root"
    ],
    "cms:/store/mc/Run3Summer23NanoAODv12/WplusH_Hto2Mu_WtoAll_M-125_TuneCP5_13p6TeV_powheg-minlo-pythia8/NANOAODSIM/130X_mcRun3_2023_realistic_v15-v2/120000/f23ef881-7bfc-469e-a83c-5492c57b09cf.root": [
        "T2_CH_CSCS: davs://storage01.lcg.cscs.ch:2880/pnfs/lcg.cscs.ch/cms/trivcat/store/mc/Run3Summer23NanoAODv12/WplusH_Hto2Mu_WtoAll_M-125_TuneCP5_13p6TeV_powheg-minlo-pythia8/NANOAODSIM/130X_mcRun3_2023_realistic_v15-v2/120000/f23ef881-7bfc-469e-a83c-5492c57b09cf.root",
        "T2_CN_Beijing: davs://cceos.ihep.ac.cn:9000/eos/ihep/cms/store/mc/Run3Summer23NanoAODv12/WplusH_Hto2Mu_WtoAll_M-125_TuneCP5_13p6TeV_powheg-minlo-pythia8/NANOAODSIM/130X_mcRun3_2023_realistic_v15-v2/120000/f23ef881-7bfc-469e-a83c-5492c57b09cf.root",
        "T1_UK_RAL_Tape: davs://antares.stfc.ac.uk:9000/eos/antares/prod/cms/store/mc/Run3Summer23NanoAODv12/WplusH_Hto2Mu_WtoAll_M-125_TuneCP5_13p6TeV_powheg-minlo-pythia8/NANOAODSIM/130X_mcRun3_2023_realistic_v15-v2/120000/f23ef881-7bfc-469e-a83c-5492c57b09cf.root",
        "T2_US_Vanderbilt: davs://xrootd-vanderbilt.sites.opensciencegrid.org:1094/store/mc/Run3Summer23NanoAODv12/WplusH_Hto2Mu_WtoAll_M-125_TuneCP5_13p6TeV_powheg-minlo-pythia8/NANOAODSIM/130X_mcRun3_2023_realistic_v15-v2/120000/f23ef881-7bfc-469e-a83c-5492c57b09cf.root",
        "T1_UK_RAL_Disk: davs://rdr.echo.stfc.ac.uk:1094/store/mc/Run3Summer23NanoAODv12/WplusH_Hto2Mu_WtoAll_M-125_TuneCP5_13p6TeV_powheg-minlo-pythia8/NANOAODSIM/130X_mcRun3_2023_realistic_v15-v2/120000/f23ef881-7bfc-469e-a83c-5492c57b09cf.root",
        "T1_ES_PIC_Disk: davs://webdav-cms.pic.es:8459/pnfs/pic.es/data/cms/disk/store/mc/Run3Summer23NanoAODv12/WplusH_Hto2Mu_WtoAll_M-125_TuneCP5_13p6TeV_powheg-minlo-pythia8/NANOAODSIM/130X_mcRun3_2023_realistic_v15-v2/120000/f23ef881-7bfc-469e-a83c-5492c57b09cf.root",
        "T2_US_Nebraska: davs://xrootd-local.unl.edu:1094/store/mc/Run3Summer23NanoAODv12/WplusH_Hto2Mu_WtoAll_M-125_TuneCP5_13p6TeV_powheg-minlo-pythia8/NANOAODSIM/130X_mcRun3_2023_realistic_v15-v2/120000/f23ef881-7bfc-469e-a83c-5492c57b09cf.root",
        "T2_EE_Estonia: davs://xrootd.hep.kbfi.ee:1094/store/mc/Run3Summer23NanoAODv12/WplusH_Hto2Mu_WtoAll_M-125_TuneCP5_13p6TeV_powheg-minlo-pythia8/NANOAODSIM/130X_mcRun3_2023_realistic_v15-v2/120000/f23ef881-7bfc-469e-a83c-5492c57b09cf.root",
        "T2_ES_CIEMAT: davs://srm.ciemat.es:2880/pnfs/ciemat.es/data/cms/prod/store/mc/Run3Summer23NanoAODv12/WplusH_Hto2Mu_WtoAll_M-125_TuneCP5_13p6TeV_powheg-minlo-pythia8/NANOAODSIM/130X_mcRun3_2023_realistic_v15-v2/120000/f23ef881-7bfc-469e-a83c-5492c57b09cf.root",
        "T2_UK_London_IC: davs://gfe02.grid.hep.ph.ic.ac.uk:2880/pnfs/hep.ph.ic.ac.uk/data/cms/store/mc/Run3Summer23NanoAODv12/WplusH_Hto2Mu_WtoAll_M-125_TuneCP5_13p6TeV_powheg-minlo-pythia8/NANOAODSIM/130X_mcRun3_2023_realistic_v15-v2/120000/f23ef881-7bfc-469e-a83c-5492c57b09cf.root"
    ],
    "cms:/store/mc/Run3Summer23NanoAODv12/WplusH_Hto2Mu_WtoAll_M-125_TuneCP5_13p6TeV_powheg-minlo-pythia8/NANOAODSIM/130X_mcRun3_2023_realistic_v15-v2/2820000/1798ff19-6285-4ce8-a021-074923f3c3a1.root": [
        "T2_CH_CSCS: davs://storage01.lcg.cscs.ch:2880/pnfs/lcg.cscs.ch/cms/trivcat/store/mc/Run3Summer23NanoAODv12/WplusH_Hto2Mu_WtoAll_M-125_TuneCP5_13p6TeV_powheg-minlo-pythia8/NANOAODSIM/130X_mcRun3_2023_realistic_v15-v2/2820000/1798ff19-6285-4ce8-a021-074923f3c3a1.root",
        "T2_UK_SGrid_RALPP: davs://mover.pp.rl.ac.uk:2880/pnfs/pp.rl.ac.uk/data/cms/store/mc/Run3Summer23NanoAODv12/WplusH_Hto2Mu_WtoAll_M-125_TuneCP5_13p6TeV_powheg-minlo-pythia8/NANOAODSIM/130X_mcRun3_2023_realistic_v15-v2/2820000/1798ff19-6285-4ce8-a021-074923f3c3a1.root",
        "T2_CN_Beijing: davs://cceos.ihep.ac.cn:9000/eos/ihep/cms/store/mc/Run3Summer23NanoAODv12/WplusH_Hto2Mu_WtoAll_M-125_TuneCP5_13p6TeV_powheg-minlo-pythia8/NANOAODSIM/130X_mcRun3_2023_realistic_v15-v2/2820000/1798ff19-6285-4ce8-a021-074923f3c3a1.root",
        "T1_UK_RAL_Tape: davs://antares.stfc.ac.uk:9000/eos/antares/prod/cms/store/mc/Run3Summer23NanoAODv12/WplusH_Hto2Mu_WtoAll_M-125_TuneCP5_13p6TeV_powheg-minlo-pythia8/NANOAODSIM/130X_mcRun3_2023_realistic_v15-v2/2820000/1798ff19-6285-4ce8-a021-074923f3c3a1.root",
        "T2_US_Vanderbilt: davs://xrootd-vanderbilt.sites.opensciencegrid.org:1094/store/mc/Run3Summer23NanoAODv12/WplusH_Hto2Mu_WtoAll_M-125_TuneCP5_13p6TeV_powheg-minlo-pythia8/NANOAODSIM/130X_mcRun3_2023_realistic_v15-v2/2820000/1798ff19-6285-4ce8-a021-074923f3c3a1.root",
        "T1_UK_RAL_Disk: davs://rdr.echo.stfc.ac.uk:1094/store/mc/Run3Summer23NanoAODv12/WplusH_Hto2Mu_WtoAll_M-125_TuneCP5_13p6TeV_powheg-minlo-pythia8/NANOAODSIM/130X_mcRun3_2023_realistic_v15-v2/2820000/1798ff19-6285-4ce8-a021-074923f3c3a1.root",
        "T1_ES_PIC_Disk: davs://webdav-cms.pic.es:8459/pnfs/pic.es/data/cms/disk/store/mc/Run3Summer23NanoAODv12/WplusH_Hto2Mu_WtoAll_M-125_TuneCP5_13p6TeV_powheg-minlo-pythia8/NANOAODSIM/130X_mcRun3_2023_realistic_v15-v2/2820000/1798ff19-6285-4ce8-a021-074923f3c3a1.root",
        "T2_US_Nebraska: davs://xrootd-local.unl.edu:1094/store/mc/Run3Summer23NanoAODv12/WplusH_Hto2Mu_WtoAll_M-125_TuneCP5_13p6TeV_powheg-minlo-pythia8/NANOAODSIM/130X_mcRun3_2023_realistic_v15-v2/2820000/1798ff19-6285-4ce8-a021-074923f3c3a1.root",
        "T2_UK_London_IC: davs://gfe02.grid.hep.ph.ic.ac.uk:2880/pnfs/hep.ph.ic.ac.uk/data/cms/store/mc/Run3Summer23NanoAODv12/WplusH_Hto2Mu_WtoAll_M-125_TuneCP5_13p6TeV_powheg-minlo-pythia8/NANOAODSIM/130X_mcRun3_2023_realistic_v15-v2/2820000/1798ff19-6285-4ce8-a021-074923f3c3a1.root"
    ],
    "cms:/store/mc/Run3Summer23NanoAODv12/WplusH_Hto2Mu_WtoAll_M-125_TuneCP5_13p6TeV_powheg-minlo-pythia8/NANOAODSIM/130X_mcRun3_2023_realistic_v15-v2/2820000/1671bfda-65c5-419d-baa4-b4ad8c8b5006.root": [
        "T2_CH_CSCS: davs://storage01.lcg.cscs.ch:2880/pnfs/lcg.cscs.ch/cms/trivcat/store/mc/Run3Summer23NanoAODv12/WplusH_Hto2Mu_WtoAll_M-125_TuneCP5_13p6TeV_powheg-minlo-pythia8/NANOAODSIM/130X_mcRun3_2023_realistic_v15-v2/2820000/1671bfda-65c5-419d-baa4-b4ad8c8b5006.root",
        "T2_UK_SGrid_RALPP: davs://mover.pp.rl.ac.uk:2880/pnfs/pp.rl.ac.uk/data/cms/store/mc/Run3Summer23NanoAODv12/WplusH_Hto2Mu_WtoAll_M-125_TuneCP5_13p6TeV_powheg-minlo-pythia8/NANOAODSIM/130X_mcRun3_2023_realistic_v15-v2/2820000/1671bfda-65c5-419d-baa4-b4ad8c8b5006.root",
        "T2_CN_Beijing: davs://cceos.ihep.ac.cn:9000/eos/ihep/cms/store/mc/Run3Summer23NanoAODv12/WplusH_Hto2Mu_WtoAll_M-125_TuneCP5_13p6TeV_powheg-minlo-pythia8/NANOAODSIM/130X_mcRun3_2023_realistic_v15-v2/2820000/1671bfda-65c5-419d-baa4-b4ad8c8b5006.root",
        "T1_UK_RAL_Tape: davs://antares.stfc.ac.uk:9000/eos/antares/prod/cms/store/mc/Run3Summer23NanoAODv12/WplusH_Hto2Mu_WtoAll_M-125_TuneCP5_13p6TeV_powheg-minlo-pythia8/NANOAODSIM/130X_mcRun3_2023_realistic_v15-v2/2820000/1671bfda-65c5-419d-baa4-b4ad8c8b5006.root",
        "T2_US_Vanderbilt: davs://xrootd-vanderbilt.sites.opensciencegrid.org:1094/store/mc/Run3Summer23NanoAODv12/WplusH_Hto2Mu_WtoAll_M-125_TuneCP5_13p6TeV_powheg-minlo-pythia8/NANOAODSIM/130X_mcRun3_2023_realistic_v15-v2/2820000/1671bfda-65c5-419d-baa4-b4ad8c8b5006.root",
        "T1_UK_RAL_Disk: davs://rdr.echo.stfc.ac.uk:1094/store/mc/Run3Summer23NanoAODv12/WplusH_Hto2Mu_WtoAll_M-125_TuneCP5_13p6TeV_powheg-minlo-pythia8/NANOAODSIM/130X_mcRun3_2023_realistic_v15-v2/2820000/1671bfda-65c5-419d-baa4-b4ad8c8b5006.root",
        "T1_ES_PIC_Disk: davs://webdav-cms.pic.es:8459/pnfs/pic.es/data/cms/disk/store/mc/Run3Summer23NanoAODv12/WplusH_Hto2Mu_WtoAll_M-125_TuneCP5_13p6TeV_powheg-minlo-pythia8/NANOAODSIM/130X_mcRun3_2023_realistic_v15-v2/2820000/1671bfda-65c5-419d-baa4-b4ad8c8b5006.root",
        "T2_US_Nebraska: davs://xrootd-local.unl.edu:1094/store/mc/Run3Summer23NanoAODv12/WplusH_Hto2Mu_WtoAll_M-125_TuneCP5_13p6TeV_powheg-minlo-pythia8/NANOAODSIM/130X_mcRun3_2023_realistic_v15-v2/2820000/1671bfda-65c5-419d-baa4-b4ad8c8b5006.root",
        "T2_IT_Pisa: davs://stwebdav.pi.infn.it:8443/cms/store/mc/Run3Summer23NanoAODv12/WplusH_Hto2Mu_WtoAll_M-125_TuneCP5_13p6TeV_powheg-minlo-pythia8/NANOAODSIM/130X_mcRun3_2023_realistic_v15-v2/2820000/1671bfda-65c5-419d-baa4-b4ad8c8b5006.root",
        "T2_UK_London_IC: davs://gfe02.grid.hep.ph.ic.ac.uk:2880/pnfs/hep.ph.ic.ac.uk/data/cms/store/mc/Run3Summer23NanoAODv12/WplusH_Hto2Mu_WtoAll_M-125_TuneCP5_13p6TeV_powheg-minlo-pythia8/NANOAODSIM/130X_mcRun3_2023_realistic_v15-v2/2820000/1671bfda-65c5-419d-baa4-b4ad8c8b5006.root"
    ],
    "cms:/store/mc/Run3Summer23NanoAODv12/WplusH_Hto2Mu_WtoAll_M-125_TuneCP5_13p6TeV_powheg-minlo-pythia8/NANOAODSIM/130X_mcRun3_2023_realistic_v15-v2/2820000/dd1ff34f-0bb2-49fc-943e-129dc955371f.root": [
        "T2_CH_CSCS: davs://storage01.lcg.cscs.ch:2880/pnfs/lcg.cscs.ch/cms/trivcat/store/mc/Run3Summer23NanoAODv12/WplusH_Hto2Mu_WtoAll_M-125_TuneCP5_13p6TeV_powheg-minlo-pythia8/NANOAODSIM/130X_mcRun3_2023_realistic_v15-v2/2820000/dd1ff34f-0bb2-49fc-943e-129dc955371f.root",
        "T2_CN_Beijing: davs://cceos.ihep.ac.cn:9000/eos/ihep/cms/store/mc/Run3Summer23NanoAODv12/WplusH_Hto2Mu_WtoAll_M-125_TuneCP5_13p6TeV_powheg-minlo-pythia8/NANOAODSIM/130X_mcRun3_2023_realistic_v15-v2/2820000/dd1ff34f-0bb2-49fc-943e-129dc955371f.root",
        "T1_UK_RAL_Tape: davs://antares.stfc.ac.uk:9000/eos/antares/prod/cms/store/mc/Run3Summer23NanoAODv12/WplusH_Hto2Mu_WtoAll_M-125_TuneCP5_13p6TeV_powheg-minlo-pythia8/NANOAODSIM/130X_mcRun3_2023_realistic_v15-v2/2820000/dd1ff34f-0bb2-49fc-943e-129dc955371f.root",
        "T2_US_Vanderbilt: davs://xrootd-vanderbilt.sites.opensciencegrid.org:1094/store/mc/Run3Summer23NanoAODv12/WplusH_Hto2Mu_WtoAll_M-125_TuneCP5_13p6TeV_powheg-minlo-pythia8/NANOAODSIM/130X_mcRun3_2023_realistic_v15-v2/2820000/dd1ff34f-0bb2-49fc-943e-129dc955371f.root",
        "T1_UK_RAL_Disk: davs://rdr.echo.stfc.ac.uk:1094/store/mc/Run3Summer23NanoAODv12/WplusH_Hto2Mu_WtoAll_M-125_TuneCP5_13p6TeV_powheg-minlo-pythia8/NANOAODSIM/130X_mcRun3_2023_realistic_v15-v2/2820000/dd1ff34f-0bb2-49fc-943e-129dc955371f.root",
        "T1_ES_PIC_Disk: davs://webdav-cms.pic.es:8459/pnfs/pic.es/data/cms/disk/store/mc/Run3Summer23NanoAODv12/WplusH_Hto2Mu_WtoAll_M-125_TuneCP5_13p6TeV_powheg-minlo-pythia8/NANOAODSIM/130X_mcRun3_2023_realistic_v15-v2/2820000/dd1ff34f-0bb2-49fc-943e-129dc955371f.root",
        "T2_US_Nebraska: davs://xrootd-local.unl.edu:1094/store/mc/Run3Summer23NanoAODv12/WplusH_Hto2Mu_WtoAll_M-125_TuneCP5_13p6TeV_powheg-minlo-pythia8/NANOAODSIM/130X_mcRun3_2023_realistic_v15-v2/2820000/dd1ff34f-0bb2-49fc-943e-129dc955371f.root",
        "T2_EE_Estonia: davs://xrootd.hep.kbfi.ee:1094/store/mc/Run3Summer23NanoAODv12/WplusH_Hto2Mu_WtoAll_M-125_TuneCP5_13p6TeV_powheg-minlo-pythia8/NANOAODSIM/130X_mcRun3_2023_realistic_v15-v2/2820000/dd1ff34f-0bb2-49fc-943e-129dc955371f.root",
        "T1_RU_JINR_Disk: davs://se-wbdv.jinr-t1.ru:2880/pnfs/jinr-t1.ru/data/cms/store/mc/Run3Summer23NanoAODv12/WplusH_Hto2Mu_WtoAll_M-125_TuneCP5_13p6TeV_powheg-minlo-pythia8/NANOAODSIM/130X_mcRun3_2023_realistic_v15-v2/2820000/dd1ff34f-0bb2-49fc-943e-129dc955371f.root",
        "T2_UK_London_IC: davs://gfe02.grid.hep.ph.ic.ac.uk:2880/pnfs/hep.ph.ic.ac.uk/data/cms/store/mc/Run3Summer23NanoAODv12/WplusH_Hto2Mu_WtoAll_M-125_TuneCP5_13p6TeV_powheg-minlo-pythia8/NANOAODSIM/130X_mcRun3_2023_realistic_v15-v2/2820000/dd1ff34f-0bb2-49fc-943e-129dc955371f.root"
    ],
    "cms:/store/mc/Run3Summer23NanoAODv12/WplusH_Hto2Mu_WtoAll_M-125_TuneCP5_13p6TeV_powheg-minlo-pythia8/NANOAODSIM/130X_mcRun3_2023_realistic_v15-v2/2820000/c10e360c-99fe-41bf-925d-203f280f78e8.root": [
        "T2_DE_DESY: davs://dcache-cms-webdav-wan.desy.de:2880/pnfs/desy.de/cms/tier2/store/mc/Run3Summer23NanoAODv12/WplusH_Hto2Mu_WtoAll_M-125_TuneCP5_13p6TeV_powheg-minlo-pythia8/NANOAODSIM/130X_mcRun3_2023_realistic_v15-v2/2820000/c10e360c-99fe-41bf-925d-203f280f78e8.root",
        "T2_CH_CSCS: davs://storage01.lcg.cscs.ch:2880/pnfs/lcg.cscs.ch/cms/trivcat/store/mc/Run3Summer23NanoAODv12/WplusH_Hto2Mu_WtoAll_M-125_TuneCP5_13p6TeV_powheg-minlo-pythia8/NANOAODSIM/130X_mcRun3_2023_realistic_v15-v2/2820000/c10e360c-99fe-41bf-925d-203f280f78e8.root",
        "T2_CN_Beijing: davs://cceos.ihep.ac.cn:9000/eos/ihep/cms/store/mc/Run3Summer23NanoAODv12/WplusH_Hto2Mu_WtoAll_M-125_TuneCP5_13p6TeV_powheg-minlo-pythia8/NANOAODSIM/130X_mcRun3_2023_realistic_v15-v2/2820000/c10e360c-99fe-41bf-925d-203f280f78e8.root",
        "T1_UK_RAL_Tape: davs://antares.stfc.ac.uk:9000/eos/antares/prod/cms/store/mc/Run3Summer23NanoAODv12/WplusH_Hto2Mu_WtoAll_M-125_TuneCP5_13p6TeV_powheg-minlo-pythia8/NANOAODSIM/130X_mcRun3_2023_realistic_v15-v2/2820000/c10e360c-99fe-41bf-925d-203f280f78e8.root",
        "T2_US_Vanderbilt: davs://xrootd-vanderbilt.sites.opensciencegrid.org:1094/store/mc/Run3Summer23NanoAODv12/WplusH_Hto2Mu_WtoAll_M-125_TuneCP5_13p6TeV_powheg-minlo-pythia8/NANOAODSIM/130X_mcRun3_2023_realistic_v15-v2/2820000/c10e360c-99fe-41bf-925d-203f280f78e8.root",
        "T1_UK_RAL_Disk: davs://rdr.echo.stfc.ac.uk:1094/store/mc/Run3Summer23NanoAODv12/WplusH_Hto2Mu_WtoAll_M-125_TuneCP5_13p6TeV_powheg-minlo-pythia8/NANOAODSIM/130X_mcRun3_2023_realistic_v15-v2/2820000/c10e360c-99fe-41bf-925d-203f280f78e8.root",
        "T1_ES_PIC_Disk: davs://webdav-cms.pic.es:8459/pnfs/pic.es/data/cms/disk/store/mc/Run3Summer23NanoAODv12/WplusH_Hto2Mu_WtoAll_M-125_TuneCP5_13p6TeV_powheg-minlo-pythia8/NANOAODSIM/130X_mcRun3_2023_realistic_v15-v2/2820000/c10e360c-99fe-41bf-925d-203f280f78e8.root",
        "T2_US_Nebraska: davs://xrootd-local.unl.edu:1094/store/mc/Run3Summer23NanoAODv12/WplusH_Hto2Mu_WtoAll_M-125_TuneCP5_13p6TeV_powheg-minlo-pythia8/NANOAODSIM/130X_mcRun3_2023_realistic_v15-v2/2820000/c10e360c-99fe-41bf-925d-203f280f78e8.root",
        "T2_UK_London_IC: davs://gfe02.grid.hep.ph.ic.ac.uk:2880/pnfs/hep.ph.ic.ac.uk/data/cms/store/mc/Run3Summer23NanoAODv12/WplusH_Hto2Mu_WtoAll_M-125_TuneCP5_13p6TeV_powheg-minlo-pythia8/NANOAODSIM/130X_mcRun3_2023_realistic_v15-v2/2820000/c10e360c-99fe-41bf-925d-203f280f78e8.root"
    ],
    "cms:/store/mc/Run3Summer23NanoAODv12/WplusH_Hto2Mu_WtoAll_M-125_TuneCP5_13p6TeV_powheg-minlo-pythia8/NANOAODSIM/130X_mcRun3_2023_realistic_v15-v2/1310000/0093201d-0cd8-495b-8b4e-1ac365b3752a.root": [
        "T2_CH_CSCS: davs://storage01.lcg.cscs.ch:2880/pnfs/lcg.cscs.ch/cms/trivcat/store/mc/Run3Summer23NanoAODv12/WplusH_Hto2Mu_WtoAll_M-125_TuneCP5_13p6TeV_powheg-minlo-pythia8/NANOAODSIM/130X_mcRun3_2023_realistic_v15-v2/1310000/0093201d-0cd8-495b-8b4e-1ac365b3752a.root",
        "T2_CN_Beijing: davs://cceos.ihep.ac.cn:9000/eos/ihep/cms/store/mc/Run3Summer23NanoAODv12/WplusH_Hto2Mu_WtoAll_M-125_TuneCP5_13p6TeV_powheg-minlo-pythia8/NANOAODSIM/130X_mcRun3_2023_realistic_v15-v2/1310000/0093201d-0cd8-495b-8b4e-1ac365b3752a.root",
        "T1_UK_RAL_Tape: davs://antares.stfc.ac.uk:9000/eos/antares/prod/cms/store/mc/Run3Summer23NanoAODv12/WplusH_Hto2Mu_WtoAll_M-125_TuneCP5_13p6TeV_powheg-minlo-pythia8/NANOAODSIM/130X_mcRun3_2023_realistic_v15-v2/1310000/0093201d-0cd8-495b-8b4e-1ac365b3752a.root",
        "T2_US_Vanderbilt: davs://xrootd-vanderbilt.sites.opensciencegrid.org:1094/store/mc/Run3Summer23NanoAODv12/WplusH_Hto2Mu_WtoAll_M-125_TuneCP5_13p6TeV_powheg-minlo-pythia8/NANOAODSIM/130X_mcRun3_2023_realistic_v15-v2/1310000/0093201d-0cd8-495b-8b4e-1ac365b3752a.root",
        "T1_UK_RAL_Disk: davs://rdr.echo.stfc.ac.uk:1094/store/mc/Run3Summer23NanoAODv12/WplusH_Hto2Mu_WtoAll_M-125_TuneCP5_13p6TeV_powheg-minlo-pythia8/NANOAODSIM/130X_mcRun3_2023_realistic_v15-v2/1310000/0093201d-0cd8-495b-8b4e-1ac365b3752a.root",
        "T1_ES_PIC_Disk: davs://webdav-cms.pic.es:8459/pnfs/pic.es/data/cms/disk/store/mc/Run3Summer23NanoAODv12/WplusH_Hto2Mu_WtoAll_M-125_TuneCP5_13p6TeV_powheg-minlo-pythia8/NANOAODSIM/130X_mcRun3_2023_realistic_v15-v2/1310000/0093201d-0cd8-495b-8b4e-1ac365b3752a.root",
        "T2_US_Florida: davs://cmsio2.rc.ufl.edu:1094/store/mc/Run3Summer23NanoAODv12/WplusH_Hto2Mu_WtoAll_M-125_TuneCP5_13p6TeV_powheg-minlo-pythia8/NANOAODSIM/130X_mcRun3_2023_realistic_v15-v2/1310000/0093201d-0cd8-495b-8b4e-1ac365b3752a.root",
        "T2_US_Nebraska: davs://xrootd-local.unl.edu:1094/store/mc/Run3Summer23NanoAODv12/WplusH_Hto2Mu_WtoAll_M-125_TuneCP5_13p6TeV_powheg-minlo-pythia8/NANOAODSIM/130X_mcRun3_2023_realistic_v15-v2/1310000/0093201d-0cd8-495b-8b4e-1ac365b3752a.root",
        "T2_RU_JINR: davs://lcgsedr08.jinr.ru:2880/pnfs/jinr.ru/data/cms/store/mc/Run3Summer23NanoAODv12/WplusH_Hto2Mu_WtoAll_M-125_TuneCP5_13p6TeV_powheg-minlo-pythia8/NANOAODSIM/130X_mcRun3_2023_realistic_v15-v2/1310000/0093201d-0cd8-495b-8b4e-1ac365b3752a.root",
        "T2_UK_London_IC: davs://gfe02.grid.hep.ph.ic.ac.uk:2880/pnfs/hep.ph.ic.ac.uk/data/cms/store/mc/Run3Summer23NanoAODv12/WplusH_Hto2Mu_WtoAll_M-125_TuneCP5_13p6TeV_powheg-minlo-pythia8/NANOAODSIM/130X_mcRun3_2023_realistic_v15-v2/1310000/0093201d-0cd8-495b-8b4e-1ac365b3752a.root"
    ],
    "cms:/store/mc/Run3Summer23NanoAODv12/WplusH_Hto2Mu_WtoAll_M-125_TuneCP5_13p6TeV_powheg-minlo-pythia8/NANOAODSIM/130X_mcRun3_2023_realistic_v15-v2/2820000/b6bc4e8f-f453-4c65-bb8f-4bb01faebe0b.root": [
        "T2_CH_CSCS: davs://storage01.lcg.cscs.ch:2880/pnfs/lcg.cscs.ch/cms/trivcat/store/mc/Run3Summer23NanoAODv12/WplusH_Hto2Mu_WtoAll_M-125_TuneCP5_13p6TeV_powheg-minlo-pythia8/NANOAODSIM/130X_mcRun3_2023_realistic_v15-v2/2820000/b6bc4e8f-f453-4c65-bb8f-4bb01faebe0b.root",
        "T2_CN_Beijing: davs://cceos.ihep.ac.cn:9000/eos/ihep/cms/store/mc/Run3Summer23NanoAODv12/WplusH_Hto2Mu_WtoAll_M-125_TuneCP5_13p6TeV_powheg-minlo-pythia8/NANOAODSIM/130X_mcRun3_2023_realistic_v15-v2/2820000/b6bc4e8f-f453-4c65-bb8f-4bb01faebe0b.root",
        "T1_UK_RAL_Tape: davs://antares.stfc.ac.uk:9000/eos/antares/prod/cms/store/mc/Run3Summer23NanoAODv12/WplusH_Hto2Mu_WtoAll_M-125_TuneCP5_13p6TeV_powheg-minlo-pythia8/NANOAODSIM/130X_mcRun3_2023_realistic_v15-v2/2820000/b6bc4e8f-f453-4c65-bb8f-4bb01faebe0b.root",
        "T2_US_Vanderbilt: davs://xrootd-vanderbilt.sites.opensciencegrid.org:1094/store/mc/Run3Summer23NanoAODv12/WplusH_Hto2Mu_WtoAll_M-125_TuneCP5_13p6TeV_powheg-minlo-pythia8/NANOAODSIM/130X_mcRun3_2023_realistic_v15-v2/2820000/b6bc4e8f-f453-4c65-bb8f-4bb01faebe0b.root",
        "T1_UK_RAL_Disk: davs://rdr.echo.stfc.ac.uk:1094/store/mc/Run3Summer23NanoAODv12/WplusH_Hto2Mu_WtoAll_M-125_TuneCP5_13p6TeV_powheg-minlo-pythia8/NANOAODSIM/130X_mcRun3_2023_realistic_v15-v2/2820000/b6bc4e8f-f453-4c65-bb8f-4bb01faebe0b.root",
        "T1_ES_PIC_Disk: davs://webdav-cms.pic.es:8459/pnfs/pic.es/data/cms/disk/store/mc/Run3Summer23NanoAODv12/WplusH_Hto2Mu_WtoAll_M-125_TuneCP5_13p6TeV_powheg-minlo-pythia8/NANOAODSIM/130X_mcRun3_2023_realistic_v15-v2/2820000/b6bc4e8f-f453-4c65-bb8f-4bb01faebe0b.root",
        "T2_US_Wisconsin: davs://cmsxrootd.hep.wisc.edu:1094/store/mc/Run3Summer23NanoAODv12/WplusH_Hto2Mu_WtoAll_M-125_TuneCP5_13p6TeV_powheg-minlo-pythia8/NANOAODSIM/130X_mcRun3_2023_realistic_v15-v2/2820000/b6bc4e8f-f453-4c65-bb8f-4bb01faebe0b.root",
        "T2_US_Nebraska: davs://xrootd-local.unl.edu:1094/store/mc/Run3Summer23NanoAODv12/WplusH_Hto2Mu_WtoAll_M-125_TuneCP5_13p6TeV_powheg-minlo-pythia8/NANOAODSIM/130X_mcRun3_2023_realistic_v15-v2/2820000/b6bc4e8f-f453-4c65-bb8f-4bb01faebe0b.root",
        "T2_US_Purdue: davs://eos.cms.rcac.purdue.edu:9000/store/mc/Run3Summer23NanoAODv12/WplusH_Hto2Mu_WtoAll_M-125_TuneCP5_13p6TeV_powheg-minlo-pythia8/NANOAODSIM/130X_mcRun3_2023_realistic_v15-v2/2820000/b6bc4e8f-f453-4c65-bb8f-4bb01faebe0b.root",
        "T2_UK_London_IC: davs://gfe02.grid.hep.ph.ic.ac.uk:2880/pnfs/hep.ph.ic.ac.uk/data/cms/store/mc/Run3Summer23NanoAODv12/WplusH_Hto2Mu_WtoAll_M-125_TuneCP5_13p6TeV_powheg-minlo-pythia8/NANOAODSIM/130X_mcRun3_2023_realistic_v15-v2/2820000/b6bc4e8f-f453-4c65-bb8f-4bb01faebe0b.root"
    ],
    "cms:/store/mc/Run3Summer23NanoAODv12/WplusH_Hto2Mu_WtoAll_M-125_TuneCP5_13p6TeV_powheg-minlo-pythia8/NANOAODSIM/130X_mcRun3_2023_realistic_v15-v2/2820000/15bb3020-64bc-4aab-98ab-de2a2f120f82.root": [
        "T2_CH_CSCS: davs://storage01.lcg.cscs.ch:2880/pnfs/lcg.cscs.ch/cms/trivcat/store/mc/Run3Summer23NanoAODv12/WplusH_Hto2Mu_WtoAll_M-125_TuneCP5_13p6TeV_powheg-minlo-pythia8/NANOAODSIM/130X_mcRun3_2023_realistic_v15-v2/2820000/15bb3020-64bc-4aab-98ab-de2a2f120f82.root",
        "T2_CN_Beijing: davs://cceos.ihep.ac.cn:9000/eos/ihep/cms/store/mc/Run3Summer23NanoAODv12/WplusH_Hto2Mu_WtoAll_M-125_TuneCP5_13p6TeV_powheg-minlo-pythia8/NANOAODSIM/130X_mcRun3_2023_realistic_v15-v2/2820000/15bb3020-64bc-4aab-98ab-de2a2f120f82.root",
        "T1_UK_RAL_Tape: davs://antares.stfc.ac.uk:9000/eos/antares/prod/cms/store/mc/Run3Summer23NanoAODv12/WplusH_Hto2Mu_WtoAll_M-125_TuneCP5_13p6TeV_powheg-minlo-pythia8/NANOAODSIM/130X_mcRun3_2023_realistic_v15-v2/2820000/15bb3020-64bc-4aab-98ab-de2a2f120f82.root",
        "T2_US_Vanderbilt: davs://xrootd-vanderbilt.sites.opensciencegrid.org:1094/store/mc/Run3Summer23NanoAODv12/WplusH_Hto2Mu_WtoAll_M-125_TuneCP5_13p6TeV_powheg-minlo-pythia8/NANOAODSIM/130X_mcRun3_2023_realistic_v15-v2/2820000/15bb3020-64bc-4aab-98ab-de2a2f120f82.root",
        "T1_UK_RAL_Disk: davs://rdr.echo.stfc.ac.uk:1094/store/mc/Run3Summer23NanoAODv12/WplusH_Hto2Mu_WtoAll_M-125_TuneCP5_13p6TeV_powheg-minlo-pythia8/NANOAODSIM/130X_mcRun3_2023_realistic_v15-v2/2820000/15bb3020-64bc-4aab-98ab-de2a2f120f82.root",
        "T1_ES_PIC_Disk: davs://webdav-cms.pic.es:8459/pnfs/pic.es/data/cms/disk/store/mc/Run3Summer23NanoAODv12/WplusH_Hto2Mu_WtoAll_M-125_TuneCP5_13p6TeV_powheg-minlo-pythia8/NANOAODSIM/130X_mcRun3_2023_realistic_v15-v2/2820000/15bb3020-64bc-4aab-98ab-de2a2f120f82.root",
        "T2_US_Nebraska: davs://xrootd-local.unl.edu:1094/store/mc/Run3Summer23NanoAODv12/WplusH_Hto2Mu_WtoAll_M-125_TuneCP5_13p6TeV_powheg-minlo-pythia8/NANOAODSIM/130X_mcRun3_2023_realistic_v15-v2/2820000/15bb3020-64bc-4aab-98ab-de2a2f120f82.root",
        "T2_UK_London_IC: davs://gfe02.grid.hep.ph.ic.ac.uk:2880/pnfs/hep.ph.ic.ac.uk/data/cms/store/mc/Run3Summer23NanoAODv12/WplusH_Hto2Mu_WtoAll_M-125_TuneCP5_13p6TeV_powheg-minlo-pythia8/NANOAODSIM/130X_mcRun3_2023_realistic_v15-v2/2820000/15bb3020-64bc-4aab-98ab-de2a2f120f82.root"
    ],
    "cms:/store/mc/Run3Summer23NanoAODv12/WplusH_Hto2Mu_WtoAll_M-125_TuneCP5_13p6TeV_powheg-minlo-pythia8/NANOAODSIM/130X_mcRun3_2023_realistic_v15-v2/2820000/1e76c49e-6e60-48d8-8ade-2a69c5740f00.root": [
        "T2_CH_CSCS: davs://storage01.lcg.cscs.ch:2880/pnfs/lcg.cscs.ch/cms/trivcat/store/mc/Run3Summer23NanoAODv12/WplusH_Hto2Mu_WtoAll_M-125_TuneCP5_13p6TeV_powheg-minlo-pythia8/NANOAODSIM/130X_mcRun3_2023_realistic_v15-v2/2820000/1e76c49e-6e60-48d8-8ade-2a69c5740f00.root",
        "T1_DE_KIT_Disk: davs://cmsdcache-kit-disk.gridka.de:2880/pnfs/gridka.de/cms/disk-only/store/mc/Run3Summer23NanoAODv12/WplusH_Hto2Mu_WtoAll_M-125_TuneCP5_13p6TeV_powheg-minlo-pythia8/NANOAODSIM/130X_mcRun3_2023_realistic_v15-v2/2820000/1e76c49e-6e60-48d8-8ade-2a69c5740f00.root",
        "T2_CN_Beijing: davs://cceos.ihep.ac.cn:9000/eos/ihep/cms/store/mc/Run3Summer23NanoAODv12/WplusH_Hto2Mu_WtoAll_M-125_TuneCP5_13p6TeV_powheg-minlo-pythia8/NANOAODSIM/130X_mcRun3_2023_realistic_v15-v2/2820000/1e76c49e-6e60-48d8-8ade-2a69c5740f00.root",
        "T1_UK_RAL_Tape: davs://antares.stfc.ac.uk:9000/eos/antares/prod/cms/store/mc/Run3Summer23NanoAODv12/WplusH_Hto2Mu_WtoAll_M-125_TuneCP5_13p6TeV_powheg-minlo-pythia8/NANOAODSIM/130X_mcRun3_2023_realistic_v15-v2/2820000/1e76c49e-6e60-48d8-8ade-2a69c5740f00.root",
        "T2_US_Vanderbilt: davs://xrootd-vanderbilt.sites.opensciencegrid.org:1094/store/mc/Run3Summer23NanoAODv12/WplusH_Hto2Mu_WtoAll_M-125_TuneCP5_13p6TeV_powheg-minlo-pythia8/NANOAODSIM/130X_mcRun3_2023_realistic_v15-v2/2820000/1e76c49e-6e60-48d8-8ade-2a69c5740f00.root",
        "T2_US_UCSD: davs://redirector.t2.ucsd.edu:1095/store/mc/Run3Summer23NanoAODv12/WplusH_Hto2Mu_WtoAll_M-125_TuneCP5_13p6TeV_powheg-minlo-pythia8/NANOAODSIM/130X_mcRun3_2023_realistic_v15-v2/2820000/1e76c49e-6e60-48d8-8ade-2a69c5740f00.root",
        "T1_UK_RAL_Disk: davs://rdr.echo.stfc.ac.uk:1094/store/mc/Run3Summer23NanoAODv12/WplusH_Hto2Mu_WtoAll_M-125_TuneCP5_13p6TeV_powheg-minlo-pythia8/NANOAODSIM/130X_mcRun3_2023_realistic_v15-v2/2820000/1e76c49e-6e60-48d8-8ade-2a69c5740f00.root",
        "T1_ES_PIC_Disk: davs://webdav-cms.pic.es:8459/pnfs/pic.es/data/cms/disk/store/mc/Run3Summer23NanoAODv12/WplusH_Hto2Mu_WtoAll_M-125_TuneCP5_13p6TeV_powheg-minlo-pythia8/NANOAODSIM/130X_mcRun3_2023_realistic_v15-v2/2820000/1e76c49e-6e60-48d8-8ade-2a69c5740f00.root",
        "T2_US_Nebraska: davs://xrootd-local.unl.edu:1094/store/mc/Run3Summer23NanoAODv12/WplusH_Hto2Mu_WtoAll_M-125_TuneCP5_13p6TeV_powheg-minlo-pythia8/NANOAODSIM/130X_mcRun3_2023_realistic_v15-v2/2820000/1e76c49e-6e60-48d8-8ade-2a69c5740f00.root",
        "T2_UK_London_IC: davs://gfe02.grid.hep.ph.ic.ac.uk:2880/pnfs/hep.ph.ic.ac.uk/data/cms/store/mc/Run3Summer23NanoAODv12/WplusH_Hto2Mu_WtoAll_M-125_TuneCP5_13p6TeV_powheg-minlo-pythia8/NANOAODSIM/130X_mcRun3_2023_realistic_v15-v2/2820000/1e76c49e-6e60-48d8-8ade-2a69c5740f00.root"
    ],
    "cms:/store/mc/Run3Summer23NanoAODv12/WplusH_Hto2Mu_WtoAll_M-125_TuneCP5_13p6TeV_powheg-minlo-pythia8/NANOAODSIM/130X_mcRun3_2023_realistic_v15-v2/120000/04b54b5e-68ec-4b4c-beb2-0a202cb1d545.root": [
        "T2_DE_DESY: davs://dcache-cms-webdav-wan.desy.de:2880/pnfs/desy.de/cms/tier2/store/mc/Run3Summer23NanoAODv12/WplusH_Hto2Mu_WtoAll_M-125_TuneCP5_13p6TeV_powheg-minlo-pythia8/NANOAODSIM/130X_mcRun3_2023_realistic_v15-v2/120000/04b54b5e-68ec-4b4c-beb2-0a202cb1d545.root",
        "T2_CH_CSCS: davs://storage01.lcg.cscs.ch:2880/pnfs/lcg.cscs.ch/cms/trivcat/store/mc/Run3Summer23NanoAODv12/WplusH_Hto2Mu_WtoAll_M-125_TuneCP5_13p6TeV_powheg-minlo-pythia8/NANOAODSIM/130X_mcRun3_2023_realistic_v15-v2/120000/04b54b5e-68ec-4b4c-beb2-0a202cb1d545.root",
        "T2_CN_Beijing: davs://cceos.ihep.ac.cn:9000/eos/ihep/cms/store/mc/Run3Summer23NanoAODv12/WplusH_Hto2Mu_WtoAll_M-125_TuneCP5_13p6TeV_powheg-minlo-pythia8/NANOAODSIM/130X_mcRun3_2023_realistic_v15-v2/120000/04b54b5e-68ec-4b4c-beb2-0a202cb1d545.root",
        "T1_UK_RAL_Tape: davs://antares.stfc.ac.uk:9000/eos/antares/prod/cms/store/mc/Run3Summer23NanoAODv12/WplusH_Hto2Mu_WtoAll_M-125_TuneCP5_13p6TeV_powheg-minlo-pythia8/NANOAODSIM/130X_mcRun3_2023_realistic_v15-v2/120000/04b54b5e-68ec-4b4c-beb2-0a202cb1d545.root",
        "T2_US_Vanderbilt: davs://xrootd-vanderbilt.sites.opensciencegrid.org:1094/store/mc/Run3Summer23NanoAODv12/WplusH_Hto2Mu_WtoAll_M-125_TuneCP5_13p6TeV_powheg-minlo-pythia8/NANOAODSIM/130X_mcRun3_2023_realistic_v15-v2/120000/04b54b5e-68ec-4b4c-beb2-0a202cb1d545.root",
        "T1_UK_RAL_Disk: davs://rdr.echo.stfc.ac.uk:1094/store/mc/Run3Summer23NanoAODv12/WplusH_Hto2Mu_WtoAll_M-125_TuneCP5_13p6TeV_powheg-minlo-pythia8/NANOAODSIM/130X_mcRun3_2023_realistic_v15-v2/120000/04b54b5e-68ec-4b4c-beb2-0a202cb1d545.root",
        "T1_ES_PIC_Disk: davs://webdav-cms.pic.es:8459/pnfs/pic.es/data/cms/disk/store/mc/Run3Summer23NanoAODv12/WplusH_Hto2Mu_WtoAll_M-125_TuneCP5_13p6TeV_powheg-minlo-pythia8/NANOAODSIM/130X_mcRun3_2023_realistic_v15-v2/120000/04b54b5e-68ec-4b4c-beb2-0a202cb1d545.root",
        "T2_US_Nebraska: davs://xrootd-local.unl.edu:1094/store/mc/Run3Summer23NanoAODv12/WplusH_Hto2Mu_WtoAll_M-125_TuneCP5_13p6TeV_powheg-minlo-pythia8/NANOAODSIM/130X_mcRun3_2023_realistic_v15-v2/120000/04b54b5e-68ec-4b4c-beb2-0a202cb1d545.root",
        "T2_US_Purdue: davs://eos.cms.rcac.purdue.edu:9000/store/mc/Run3Summer23NanoAODv12/WplusH_Hto2Mu_WtoAll_M-125_TuneCP5_13p6TeV_powheg-minlo-pythia8/NANOAODSIM/130X_mcRun3_2023_realistic_v15-v2/120000/04b54b5e-68ec-4b4c-beb2-0a202cb1d545.root",
        "T2_UK_London_IC: davs://gfe02.grid.hep.ph.ic.ac.uk:2880/pnfs/hep.ph.ic.ac.uk/data/cms/store/mc/Run3Summer23NanoAODv12/WplusH_Hto2Mu_WtoAll_M-125_TuneCP5_13p6TeV_powheg-minlo-pythia8/NANOAODSIM/130X_mcRun3_2023_realistic_v15-v2/120000/04b54b5e-68ec-4b4c-beb2-0a202cb1d545.root"
    ],
    "cms:/store/mc/Run3Summer23NanoAODv12/WplusH_Hto2Mu_WtoAll_M-125_TuneCP5_13p6TeV_powheg-minlo-pythia8/NANOAODSIM/130X_mcRun3_2023_realistic_v15-v2/2820000/c70ac3ad-777a-40fe-9c7d-7b0cff1038f3.root": [
        "T2_CH_CSCS: davs://storage01.lcg.cscs.ch:2880/pnfs/lcg.cscs.ch/cms/trivcat/store/mc/Run3Summer23NanoAODv12/WplusH_Hto2Mu_WtoAll_M-125_TuneCP5_13p6TeV_powheg-minlo-pythia8/NANOAODSIM/130X_mcRun3_2023_realistic_v15-v2/2820000/c70ac3ad-777a-40fe-9c7d-7b0cff1038f3.root",
        "T2_CN_Beijing: davs://cceos.ihep.ac.cn:9000/eos/ihep/cms/store/mc/Run3Summer23NanoAODv12/WplusH_Hto2Mu_WtoAll_M-125_TuneCP5_13p6TeV_powheg-minlo-pythia8/NANOAODSIM/130X_mcRun3_2023_realistic_v15-v2/2820000/c70ac3ad-777a-40fe-9c7d-7b0cff1038f3.root",
        "T1_UK_RAL_Tape: davs://antares.stfc.ac.uk:9000/eos/antares/prod/cms/store/mc/Run3Summer23NanoAODv12/WplusH_Hto2Mu_WtoAll_M-125_TuneCP5_13p6TeV_powheg-minlo-pythia8/NANOAODSIM/130X_mcRun3_2023_realistic_v15-v2/2820000/c70ac3ad-777a-40fe-9c7d-7b0cff1038f3.root",
        "T2_US_Vanderbilt: davs://xrootd-vanderbilt.sites.opensciencegrid.org:1094/store/mc/Run3Summer23NanoAODv12/WplusH_Hto2Mu_WtoAll_M-125_TuneCP5_13p6TeV_powheg-minlo-pythia8/NANOAODSIM/130X_mcRun3_2023_realistic_v15-v2/2820000/c70ac3ad-777a-40fe-9c7d-7b0cff1038f3.root",
        "T1_UK_RAL_Disk: davs://rdr.echo.stfc.ac.uk:1094/store/mc/Run3Summer23NanoAODv12/WplusH_Hto2Mu_WtoAll_M-125_TuneCP5_13p6TeV_powheg-minlo-pythia8/NANOAODSIM/130X_mcRun3_2023_realistic_v15-v2/2820000/c70ac3ad-777a-40fe-9c7d-7b0cff1038f3.root",
        "T1_ES_PIC_Disk: davs://webdav-cms.pic.es:8459/pnfs/pic.es/data/cms/disk/store/mc/Run3Summer23NanoAODv12/WplusH_Hto2Mu_WtoAll_M-125_TuneCP5_13p6TeV_powheg-minlo-pythia8/NANOAODSIM/130X_mcRun3_2023_realistic_v15-v2/2820000/c70ac3ad-777a-40fe-9c7d-7b0cff1038f3.root",
        "T2_US_Nebraska: davs://xrootd-local.unl.edu:1094/store/mc/Run3Summer23NanoAODv12/WplusH_Hto2Mu_WtoAll_M-125_TuneCP5_13p6TeV_powheg-minlo-pythia8/NANOAODSIM/130X_mcRun3_2023_realistic_v15-v2/2820000/c70ac3ad-777a-40fe-9c7d-7b0cff1038f3.root",
        "T2_BE_IIHE: davs://maite.iihe.ac.be:2880/pnfs/iihe/cms/ph/sc4/store/mc/Run3Summer23NanoAODv12/WplusH_Hto2Mu_WtoAll_M-125_TuneCP5_13p6TeV_powheg-minlo-pythia8/NANOAODSIM/130X_mcRun3_2023_realistic_v15-v2/2820000/c70ac3ad-777a-40fe-9c7d-7b0cff1038f3.root",
        "T2_UK_London_IC: davs://gfe02.grid.hep.ph.ic.ac.uk:2880/pnfs/hep.ph.ic.ac.uk/data/cms/store/mc/Run3Summer23NanoAODv12/WplusH_Hto2Mu_WtoAll_M-125_TuneCP5_13p6TeV_powheg-minlo-pythia8/NANOAODSIM/130X_mcRun3_2023_realistic_v15-v2/2820000/c70ac3ad-777a-40fe-9c7d-7b0cff1038f3.root"
    ],
    "cms:/store/mc/Run3Summer23NanoAODv12/WplusH_Hto2Mu_WtoAll_M-125_TuneCP5_13p6TeV_powheg-minlo-pythia8/NANOAODSIM/130X_mcRun3_2023_realistic_v15-v2/2820000/1f8589a0-017d-487c-803a-a2f3ca265484.root": [
        "T1_US_FNAL_Disk: davs://cmsdcadisk.fnal.gov:2880/dcache/uscmsdisk/store/mc/Run3Summer23NanoAODv12/WplusH_Hto2Mu_WtoAll_M-125_TuneCP5_13p6TeV_powheg-minlo-pythia8/NANOAODSIM/130X_mcRun3_2023_realistic_v15-v2/2820000/1f8589a0-017d-487c-803a-a2f3ca265484.root",
        "T2_CH_CSCS: davs://storage01.lcg.cscs.ch:2880/pnfs/lcg.cscs.ch/cms/trivcat/store/mc/Run3Summer23NanoAODv12/WplusH_Hto2Mu_WtoAll_M-125_TuneCP5_13p6TeV_powheg-minlo-pythia8/NANOAODSIM/130X_mcRun3_2023_realistic_v15-v2/2820000/1f8589a0-017d-487c-803a-a2f3ca265484.root",
        "T2_CN_Beijing: davs://cceos.ihep.ac.cn:9000/eos/ihep/cms/store/mc/Run3Summer23NanoAODv12/WplusH_Hto2Mu_WtoAll_M-125_TuneCP5_13p6TeV_powheg-minlo-pythia8/NANOAODSIM/130X_mcRun3_2023_realistic_v15-v2/2820000/1f8589a0-017d-487c-803a-a2f3ca265484.root",
        "T1_UK_RAL_Tape: davs://antares.stfc.ac.uk:9000/eos/antares/prod/cms/store/mc/Run3Summer23NanoAODv12/WplusH_Hto2Mu_WtoAll_M-125_TuneCP5_13p6TeV_powheg-minlo-pythia8/NANOAODSIM/130X_mcRun3_2023_realistic_v15-v2/2820000/1f8589a0-017d-487c-803a-a2f3ca265484.root",
        "T2_IT_Bari: davs://webdav.recas.ba.infn.it:8443/cms/store/mc/Run3Summer23NanoAODv12/WplusH_Hto2Mu_WtoAll_M-125_TuneCP5_13p6TeV_powheg-minlo-pythia8/NANOAODSIM/130X_mcRun3_2023_realistic_v15-v2/2820000/1f8589a0-017d-487c-803a-a2f3ca265484.root",
        "T2_US_Vanderbilt: davs://xrootd-vanderbilt.sites.opensciencegrid.org:1094/store/mc/Run3Summer23NanoAODv12/WplusH_Hto2Mu_WtoAll_M-125_TuneCP5_13p6TeV_powheg-minlo-pythia8/NANOAODSIM/130X_mcRun3_2023_realistic_v15-v2/2820000/1f8589a0-017d-487c-803a-a2f3ca265484.root",
        "T1_UK_RAL_Disk: davs://rdr.echo.stfc.ac.uk:1094/store/mc/Run3Summer23NanoAODv12/WplusH_Hto2Mu_WtoAll_M-125_TuneCP5_13p6TeV_powheg-minlo-pythia8/NANOAODSIM/130X_mcRun3_2023_realistic_v15-v2/2820000/1f8589a0-017d-487c-803a-a2f3ca265484.root",
        "T1_ES_PIC_Disk: davs://webdav-cms.pic.es:8459/pnfs/pic.es/data/cms/disk/store/mc/Run3Summer23NanoAODv12/WplusH_Hto2Mu_WtoAll_M-125_TuneCP5_13p6TeV_powheg-minlo-pythia8/NANOAODSIM/130X_mcRun3_2023_realistic_v15-v2/2820000/1f8589a0-017d-487c-803a-a2f3ca265484.root",
        "T2_US_Nebraska: davs://xrootd-local.unl.edu:1094/store/mc/Run3Summer23NanoAODv12/WplusH_Hto2Mu_WtoAll_M-125_TuneCP5_13p6TeV_powheg-minlo-pythia8/NANOAODSIM/130X_mcRun3_2023_realistic_v15-v2/2820000/1f8589a0-017d-487c-803a-a2f3ca265484.root",
        "T2_UK_London_IC: davs://gfe02.grid.hep.ph.ic.ac.uk:2880/pnfs/hep.ph.ic.ac.uk/data/cms/store/mc/Run3Summer23NanoAODv12/WplusH_Hto2Mu_WtoAll_M-125_TuneCP5_13p6TeV_powheg-minlo-pythia8/NANOAODSIM/130X_mcRun3_2023_realistic_v15-v2/2820000/1f8589a0-017d-487c-803a-a2f3ca265484.root"
    ]
}