{
    "cms:/store/mc/Run3Summer22EENanoAODv12/WplusH_Hto2B_Wto2Q_M-125_TuneCP5_13p6TeV_powheg-pythia8/NANOAODSIM/130X_mcRun3_2022_realistic_postEE_v6-v2/60000/d4152bfa-e88c-4e99-9ad4-ad646a9cf319.root": [
        "T1_US_FNAL_Disk: davs://cmsdcadisk.fnal.gov:2880/dcache/uscmsdisk/store/mc/Run3Summer22EENanoAODv12/WplusH_Hto2B_Wto2Q_M-125_TuneCP5_13p6TeV_powheg-pythia8/NANOAODSIM/130X_mcRun3_2022_realistic_postEE_v6-v2/60000/d4152bfa-e88c-4e99-9ad4-ad646a9cf319.root",
        "T2_US_MIT: davs://xrootd.cmsaf.mit.edu:1094/store/mc/Run3Summer22EENanoAODv12/WplusH_Hto2B_Wto2Q_M-125_TuneCP5_13p6TeV_powheg-pythia8/NANOAODSIM/130X_mcRun3_2022_realistic_postEE_v6-v2/60000/d4152bfa-e88c-4e99-9ad4-ad646a9cf319.root",
        "T2_IT_Legnaro: davs://t2-xrdcms.lnl.infn.it:2880/pnfs/lnl.infn.it/data/cms/store/mc/Run3Summer22EENanoAODv12/WplusH_Hto2B_Wto2Q_M-125_TuneCP5_13p6TeV_powheg-pythia8/NANOAODSIM/130X_mcRun3_2022_realistic_postEE_v6-v2/60000/d4152bfa-e88c-4e99-9ad4-ad646a9cf319.root",
        "T2_IT_Bari: davs://webdav.recas.ba.infn.it:8443/cms/store/mc/Run3Summer22EENanoAODv12/WplusH_Hto2B_Wto2Q_M-125_TuneCP5_13p6TeV_powheg-pythia8/NANOAODSIM/130X_mcRun3_2022_realistic_postEE_v6-v2/60000/d4152bfa-e88c-4e99-9ad4-ad646a9cf319.root",
        "T2_PL_Swierk: davs://se.cis.gov.pl:2880/grid/cms/store/mc/Run3Summer22EENanoAODv12/WplusH_Hto2B_Wto2Q_M-125_TuneCP5_13p6TeV_powheg-pythia8/NANOAODSIM/130X_mcRun3_2022_realistic_postEE_v6-v2/60000/d4152bfa-e88c-4e99-9ad4-ad646a9cf319.root",
        "T2_BR_SPRACE: davs://osg-se.sprace.org.br:1094/store/mc/Run3Summer22EENanoAODv12/WplusH_Hto2B_Wto2Q_M-125_TuneCP5_13p6TeV_powheg-pythia8/NANOAODSIM/130X_mcRun3_2022_realistic_postEE_v6-v2/60000/d4152bfa-e88c-4e99-9ad4-ad646a9cf319.root",
        "T2_HU_Budapest: davs://grid143.kfki.hu:443/dpm/kfki.hu/home/cms/phedex/store/mc/Run3Summer22EENanoAODv12/WplusH_Hto2B_Wto2Q_M-125_TuneCP5_13p6TeV_powheg-pythia8/NANOAODSIM/130X_mcRun3_2022_realistic_postEE_v6-v2/60000/d4152bfa-e88c-4e99-9ad4-ad646a9cf319.root",
        "T0_CH_CERN_Tape: root://eosctacms.cern.ch:1094//eos/ctacms/archive/cms//store/mc/Run3Summer22EENanoAODv12/WplusH_Hto2B_Wto2Q_M-125_TuneCP5_13p6TeV_powheg-pythia8/NANOAODSIM/130X_mcRun3_2022_realistic_postEE_v6-v2/60000/d4152bfa-e88c-4e99-9ad4-ad646a9cf319.root"
    ],
    "cms:/store/mc/Run3Summer22EENanoAODv12/WplusH_Hto2B_Wto2Q_M-125_TuneCP5_13p6TeV_powheg-pythia8/NANOAODSIM/130X_mcRun3_2022_realistic_postEE_v6-v2/60000/7554b72f-d401-4ab8-a111-e565d263bf53.root": [
        "T1_US_FNAL_Disk: davs://cmsdcadisk.fnal.gov:2880/dcache/uscmsdisk/store/mc/Run3Summer22EENanoAODv12/WplusH_Hto2B_Wto2Q_M-125_TuneCP5_13p6TeV_powheg-pythia8/NANOAODSIM/130X_mcRun3_2022_realistic_postEE_v6-v2/60000/7554b72f-d401-4ab8-a111-e565d263bf53.root",
        "T1_DE_KIT_Disk: davs://cmswebdav-kit-disk.gridka.de:2880/pnfs/gridka.de/cms/disk-only/store/mc/Run3Summer22EENanoAODv12/WplusH_Hto2B_Wto2Q_M-125_TuneCP5_13p6TeV_powheg-pythia8/NANOAODSIM/130X_mcRun3_2022_realistic_postEE_v6-v2/60000/7554b72f-d401-4ab8-a111-e565d263bf53.root",
        "T2_US_MIT: davs://xrootd.cmsaf.mit.edu:1094/store/mc/Run3Summer22EENanoAODv12/WplusH_Hto2B_Wto2Q_M-125_TuneCP5_13p6TeV_powheg-pythia8/NANOAODSIM/130X_mcRun3_2022_realistic_postEE_v6-v2/60000/7554b72f-d401-4ab8-a111-e565d263bf53.root",
        "T2_IT_Legnaro: davs://t2-xrdcms.lnl.infn.it:2880/pnfs/lnl.infn.it/data/cms/store/mc/Run3Summer22EENanoAODv12/WplusH_Hto2B_Wto2Q_M-125_TuneCP5_13p6TeV_powheg-pythia8/NANOAODSIM/130X_mcRun3_2022_realistic_postEE_v6-v2/60000/7554b72f-d401-4ab8-a111-e565d263bf53.root",
        "T2_IT_Bari: davs://webdav.recas.ba.infn.it:8443/cms/store/mc/Run3Summer22EENanoAODv12/WplusH_Hto2B_Wto2Q_M-125_TuneCP5_13p6TeV_powheg-pythia8/NANOAODSIM/130X_mcRun3_2022_realistic_postEE_v6-v2/60000/7554b72f-d401-4ab8-a111-e565d263bf53.root",
        "T2_PL_Swierk: davs://se.cis.gov.pl:2880/grid/cms/store/mc/Run3Summer22EENanoAODv12/WplusH_Hto2B_Wto2Q_M-125_TuneCP5_13p6TeV_powheg-pythia8/NANOAODSIM/130X_mcRun3_2022_realistic_postEE_v6-v2/60000/7554b72f-d401-4ab8-a111-e565d263bf53.root",
        "T2_BR_SPRACE: davs://osg-se.sprace.org.br:1094/store/mc/Run3Summer22EENanoAODv12/WplusH_Hto2B_Wto2Q_M-125_TuneCP5_13p6TeV_powheg-pythia8/NANOAODSIM/130X_mcRun3_2022_realistic_postEE_v6-v2/60000/7554b72f-d401-4ab8-a111-e565d263bf53.root",
        "T2_HU_Budapest: davs://grid143.kfki.hu:443/dpm/kfki.hu/home/cms/phedex/store/mc/Run3Summer22EENanoAODv12/WplusH_Hto2B_Wto2Q_M-125_TuneCP5_13p6TeV_powheg-pythia8/NANOAODSIM/130X_mcRun3_2022_realistic_postEE_v6-v2/60000/7554b72f-d401-4ab8-a111-e565d263bf53.root",
        "T0_CH_CERN_Tape: root://eosctacms.cern.ch:1094//eos/ctacms/archive/cms//store/mc/Run3Summer22EENanoAODv12/WplusH_Hto2B_Wto2Q_M-125_TuneCP5_13p6TeV_powheg-pythia8/NANOAODSIM/130X_mcRun3_2022_realistic_postEE_v6-v2/60000/7554b72f-d401-4ab8-a111-e565d263bf53.root"
    ],
    "cms:/store/mc/Run3Summer22EENanoAODv12/WplusH_Hto2B_Wto2Q_M-125_TuneCP5_13p6TeV_powheg-pythia8/NANOAODSIM/130X_mcRun3_2022_realistic_postEE_v6-v2/60000/b4b06008-0ad4-44d2-9524-6bde65e26d98.root": [
        "T1_US_FNAL_Disk: davs://cmsdcadisk.fnal.gov:2880/dcache/uscmsdisk/store/mc/Run3Summer22EENanoAODv12/WplusH_Hto2B_Wto2Q_M-125_TuneCP5_13p6TeV_powheg-pythia8/NANOAODSIM/130X_mcRun3_2022_realistic_postEE_v6-v2/60000/b4b06008-0ad4-44d2-9524-6bde65e26d98.root",
        "T1_DE_KIT_Disk: davs://cmswebdav-kit-disk.gridka.de:2880/pnfs/gridka.de/cms/disk-only/store/mc/Run3Summer22EENanoAODv12/WplusH_Hto2B_Wto2Q_M-125_TuneCP5_13p6TeV_powheg-pythia8/NANOAODSIM/130X_mcRun3_2022_realistic_postEE_v6-v2/60000/b4b06008-0ad4-44d2-9524-6bde65e26d98.root",
        "T2_US_MIT: davs://xrootd.cmsaf.mit.edu:1094/store/mc/Run3Summer22EENanoAODv12/WplusH_Hto2B_Wto2Q_M-125_TuneCP5_13p6TeV_powheg-pythia8/NANOAODSIM/130X_mcRun3_2022_realistic_postEE_v6-v2/60000/b4b06008-0ad4-44d2-9524-6bde65e26d98.root",
        "T2_IT_Legnaro: davs://t2-xrdcms.lnl.infn.it:2880/pnfs/lnl.infn.it/data/cms/store/mc/Run3Summer22EENanoAODv12/WplusH_Hto2B_Wto2Q_M-125_TuneCP5_13p6TeV_powheg-pythia8/NANOAODSIM/130X_mcRun3_2022_realistic_postEE_v6-v2/60000/b4b06008-0ad4-44d2-9524-6bde65e26d98.root",
        "T2_IT_Bari: davs://webdav.recas.ba.infn.it:8443/cms/store/mc/Run3Summer22EENanoAODv12/WplusH_Hto2B_Wto2Q_M-125_TuneCP5_13p6TeV_powheg-pythia8/NANOAODSIM/130X_mcRun3_2022_realistic_postEE_v6-v2/60000/b4b06008-0ad4-44d2-9524-6bde65e26d98.root",
        "T2_PL_Swierk: davs://se.cis.gov.pl:2880/grid/cms/store/mc/Run3Summer22EENanoAODv12/WplusH_Hto2B_Wto2Q_M-125_TuneCP5_13p6TeV_powheg-pythia8/NANOAODSIM/130X_mcRun3_2022_realistic_postEE_v6-v2/60000/b4b06008-0ad4-44d2-9524-6bde65e26d98.root",
        "T2_BR_SPRACE: davs://osg-se.sprace.org.br:1094/store/mc/Run3Summer22EENanoAODv12/WplusH_Hto2B_Wto2Q_M-125_TuneCP5_13p6TeV_powheg-pythia8/NANOAODSIM/130X_mcRun3_2022_realistic_postEE_v6-v2/60000/b4b06008-0ad4-44d2-9524-6bde65e26d98.root",
        "T2_HU_Budapest: davs://grid143.kfki.hu:443/dpm/kfki.hu/home/cms/phedex/store/mc/Run3Summer22EENanoAODv12/WplusH_Hto2B_Wto2Q_M-125_TuneCP5_13p6TeV_powheg-pythia8/NANOAODSIM/130X_mcRun3_2022_realistic_postEE_v6-v2/60000/b4b06008-0ad4-44d2-9524-6bde65e26d98.root",
        "T0_CH_CERN_Tape: root://eosctacms.cern.ch:1094//eos/ctacms/archive/cms//store/mc/Run3Summer22EENanoAODv12/WplusH_Hto2B_Wto2Q_M-125_TuneCP5_13p6TeV_powheg-pythia8/NANOAODSIM/130X_mcRun3_2022_realistic_postEE_v6-v2/60000/b4b06008-0ad4-44d2-9524-6bde65e26d98.root"
    ],
    "cms:/store/mc/Run3Summer22EENanoAODv12/WplusH_Hto2B_Wto2Q_M-125_TuneCP5_13p6TeV_powheg-pythia8/NANOAODSIM/130X_mcRun3_2022_realistic_postEE_v6-v2/60000/45b60609-3272-4fe8-b953-94291a1cda86.root": [
        "T1_US_FNAL_Disk: davs://cmsdcadisk.fnal.gov:2880/dcache/uscmsdisk/store/mc/Run3Summer22EENanoAODv12/WplusH_Hto2B_Wto2Q_M-125_TuneCP5_13p6TeV_powheg-pythia8/NANOAODSIM/130X_mcRun3_2022_realistic_postEE_v6-v2/60000/45b60609-3272-4fe8-b953-94291a1cda86.root",
        "T2_CH_CSCS: davs://storage01.lcg.cscs.ch:2880/pnfs/lcg.cscs.ch/cms/trivcat/store/mc/Run3Summer22EENanoAODv12/WplusH_Hto2B_Wto2Q_M-125_TuneCP5_13p6TeV_powheg-pythia8/NANOAODSIM/130X_mcRun3_2022_realistic_postEE_v6-v2/60000/45b60609-3272-4fe8-b953-94291a1cda86.root",
        "T2_US_MIT: davs://xrootd.cmsaf.mit.edu:1094/store/mc/Run3Summer22EENanoAODv12/WplusH_Hto2B_Wto2Q_M-125_TuneCP5_13p6TeV_powheg-pythia8/NANOAODSIM/130X_mcRun3_2022_realistic_postEE_v6-v2/60000/45b60609-3272-4fe8-b953-94291a1cda86.root",
        "T2_IT_Legnaro: davs://t2-xrdcms.lnl.infn.it:2880/pnfs/lnl.infn.it/data/cms/store/mc/Run3Summer22EENanoAODv12/WplusH_Hto2B_Wto2Q_M-125_TuneCP5_13p6TeV_powheg-pythia8/NANOAODSIM/130X_mcRun3_2022_realistic_postEE_v6-v2/60000/45b60609-3272-4fe8-b953-94291a1cda86.root",
        "T2_IT_Bari: davs://webdav.recas.ba.infn.it:8443/cms/store/mc/Run3Summer22EENanoAODv12/WplusH_Hto2B_Wto2Q_M-125_TuneCP5_13p6TeV_powheg-pythia8/NANOAODSIM/130X_mcRun3_2022_realistic_postEE_v6-v2/60000/45b60609-3272-4fe8-b953-94291a1cda86.root",
        "T2_PL_Swierk: davs://se.cis.gov.pl:2880/grid/cms/store/mc/Run3Summer22EENanoAODv12/WplusH_Hto2B_Wto2Q_M-125_TuneCP5_13p6TeV_powheg-pythia8/NANOAODSIM/130X_mcRun3_2022_realistic_postEE_v6-v2/60000/45b60609-3272-4fe8-b953-94291a1cda86.root",
        "T2_BR_SPRACE: davs://osg-se.sprace.org.br:1094/store/mc/Run3Summer22EENanoAODv12/WplusH_Hto2B_Wto2Q_M-125_TuneCP5_13p6TeV_powheg-pythia8/NANOAODSIM/130X_mcRun3_2022_realistic_postEE_v6-v2/60000/45b60609-3272-4fe8-b953-94291a1cda86.root",
        "T2_HU_Budapest: davs://grid143.kfki.hu:443/dpm/kfki.hu/home/cms/phedex/store/mc/Run3Summer22EENanoAODv12/WplusH_Hto2B_Wto2Q_M-125_TuneCP5_13p6TeV_powheg-pythia8/NANOAODSIM/130X_mcRun3_2022_realistic_postEE_v6-v2/60000/45b60609-3272-4fe8-b953-94291a1cda86.root",
        "T0_CH_CERN_Tape: root://eosctacms.cern.ch:1094//eos/ctacms/archive/cms//store/mc/Run3Summer22EENanoAODv12/WplusH_Hto2B_Wto2Q_M-125_TuneCP5_13p6TeV_powheg-pythia8/NANOAODSIM/130X_mcRun3_2022_realistic_postEE_v6-v2/60000/45b60609-3272-4fe8-b953-94291a1cda86.root"
    ],
    "cms:/store/mc/Run3Summer22EENanoAODv12/WplusH_Hto2B_Wto2Q_M-125_TuneCP5_13p6TeV_powheg-pythia8/NANOAODSIM/130X_mcRun3_2022_realistic_postEE_v6-v2/60000/cd92407a-1b91-4198-88ef-b74854380dd7.root": [
        "T1_US_FNAL_Disk: davs://cmsdcadisk.fnal.gov:2880/dcache/uscmsdisk/store/mc/Run3Summer22EENanoAODv12/WplusH_Hto2B_Wto2Q_M-125_TuneCP5_13p6TeV_powheg-pythia8/NANOAODSIM/130X_mcRun3_2022_realistic_postEE_v6-v2/60000/cd92407a-1b91-4198-88ef-b74854380dd7.root",
        "T2_US_MIT: davs://xrootd.cmsaf.mit.edu:1094/store/mc/Run3Summer22EENanoAODv12/WplusH_Hto2B_Wto2Q_M-125_TuneCP5_13p6TeV_powheg-pythia8/NANOAODSIM/130X_mcRun3_2022_realistic_postEE_v6-v2/60000/cd92407a-1b91-4198-88ef-b74854380dd7.root",
        "T2_IT_Legnaro: davs://t2-xrdcms.lnl.infn.it:2880/pnfs/lnl.infn.it/data/cms/store/mc/Run3Summer22EENanoAODv12/WplusH_Hto2B_Wto2Q_M-125_TuneCP5_13p6TeV_powheg-pythia8/NANOAODSIM/130X_mcRun3_2022_realistic_postEE_v6-v2/60000/cd92407a-1b91-4198-88ef-b74854380dd7.root",
        "T2_IT_Bari: davs://webdav.recas.ba.infn.it:8443/cms/store/mc/Run3Summer22EENanoAODv12/WplusH_Hto2B_Wto2Q_M-125_TuneCP5_13p6TeV_powheg-pythia8/NANOAODSIM/130X_mcRun3_2022_realistic_postEE_v6-v2/60000/cd92407a-1b91-4198-88ef-b74854380dd7.root",
        "T2_PL_Swierk: davs://se.cis.gov.pl:2880/grid/cms/store/mc/Run3Summer22EENanoAODv12/WplusH_Hto2B_Wto2Q_M-125_TuneCP5_13p6TeV_powheg-pythia8/NANOAODSIM/130X_mcRun3_2022_realistic_postEE_v6-v2/60000/cd92407a-1b91-4198-88ef-b74854380dd7.root",
        "T2_BR_SPRACE: davs://osg-se.sprace.org.br:1094/store/mc/Run3Summer22EENanoAODv12/WplusH_Hto2B_Wto2Q_M-125_TuneCP5_13p6TeV_powheg-pythia8/NANOAODSIM/130X_mcRun3_2022_realistic_postEE_v6-v2/60000/cd92407a-1b91-4198-88ef-b74854380dd7.root",
        "T2_HU_Budapest: davs://grid143.kfki.hu:443/dpm/kfki.hu/home/cms/phedex/store/mc/Run3Summer22EENanoAODv12/WplusH_Hto2B_Wto2Q_M-125_TuneCP5_13p6TeV_powheg-pythia8/NANOAODSIM/130X_mcRun3_2022_realistic_postEE_v6-v2/60000/cd92407a-1b91-4198-88ef-b74854380dd7.root",
        "T2_US_Nebraska: davs://xrootd-local.unl.edu:1094/store/mc/Run3Summer22EENanoAODv12/WplusH_Hto2B_Wto2Q_M-125_TuneCP5_13p6TeV_powheg-pythia8/NANOAODSIM/130X_mcRun3_2022_realistic_postEE_v6-v2/60000/cd92407a-1b91-4198-88ef-b74854380dd7.root",
        "T0_CH_CERN_Tape: root://eosctacms.cern.ch:1094//eos/ctacms/archive/cms//store/mc/Run3Summer22EENanoAODv12/WplusH_Hto2B_Wto2Q_M-125_TuneCP5_13p6TeV_powheg-pythia8/NANOAODSIM/130X_mcRun3_2022_realistic_postEE_v6-v2/60000/cd92407a-1b91-4198-88ef-b74854380dd7.root"
    ],
    "cms:/store/mc/Run3Summer22EENanoAODv12/WplusH_Hto2B_Wto2Q_M-125_TuneCP5_13p6TeV_powheg-pythia8/NANOAODSIM/130X_mcRun3_2022_realistic_postEE_v6-v2/60000/df810f56-a1b7-4a31-90cb-6abbfaeb17f6.root": [
        "T1_US_FNAL_Disk: davs://cmsdcadisk.fnal.gov:2880/dcache/uscmsdisk/store/mc/Run3Summer22EENanoAODv12/WplusH_Hto2B_Wto2Q_M-125_TuneCP5_13p6TeV_powheg-pythia8/NANOAODSIM/130X_mcRun3_2022_realistic_postEE_v6-v2/60000/df810f56-a1b7-4a31-90cb-6abbfaeb17f6.root",
        "T2_US_MIT: davs://xrootd.cmsaf.mit.edu:1094/store/mc/Run3Summer22EENanoAODv12/WplusH_Hto2B_Wto2Q_M-125_TuneCP5_13p6TeV_powheg-pythia8/NANOAODSIM/130X_mcRun3_2022_realistic_postEE_v6-v2/60000/df810f56-a1b7-4a31-90cb-6abbfaeb17f6.root",
        "T2_IT_Legnaro: davs://t2-xrdcms.lnl.infn.it:2880/pnfs/lnl.infn.it/data/cms/store/mc/Run3Summer22EENanoAODv12/WplusH_Hto2B_Wto2Q_M-125_TuneCP5_13p6TeV_powheg-pythia8/NANOAODSIM/130X_mcRun3_2022_realistic_postEE_v6-v2/60000/df810f56-a1b7-4a31-90cb-6abbfaeb17f6.root",
        "T2_IT_Bari: davs://webdav.recas.ba.infn.it:8443/cms/store/mc/Run3Summer22EENanoAODv12/WplusH_Hto2B_Wto2Q_M-125_TuneCP5_13p6TeV_powheg-pythia8/NANOAODSIM/130X_mcRun3_2022_realistic_postEE_v6-v2/60000/df810f56-a1b7-4a31-90cb-6abbfaeb17f6.root",
        "T2_PL_Swierk: davs://se.cis.gov.pl:2880/grid/cms/store/mc/Run3Summer22EENanoAODv12/WplusH_Hto2B_Wto2Q_M-125_TuneCP5_13p6TeV_powheg-pythia8/NANOAODSIM/130X_mcRun3_2022_realistic_postEE_v6-v2/60000/df810f56-a1b7-4a31-90cb-6abbfaeb17f6.root",
        "T2_BR_SPRACE: davs://osg-se.sprace.org.br:1094/store/mc/Run3Summer22EENanoAODv12/WplusH_Hto2B_Wto2Q_M-125_TuneCP5_13p6TeV_powheg-pythia8/NANOAODSIM/130X_mcRun3_2022_realistic_postEE_v6-v2/60000/df810f56-a1b7-4a31-90cb-6abbfaeb17f6.root",
        "T2_HU_Budapest: davs://grid143.kfki.hu:443/dpm/kfki.hu/home/cms/phedex/store/mc/Run3Summer22EENanoAODv12/WplusH_Hto2B_Wto2Q_M-125_TuneCP5_13p6TeV_powheg-pythia8/NANOAODSIM/130X_mcRun3_2022_realistic_postEE_v6-v2/60000/df810f56-a1b7-4a31-90cb-6abbfaeb17f6.root",
        "T1_IT_CNAF_Disk: davs://xfer-cms.cr.cnaf.infn.it:8443/cmsdisk/store/mc/Run3Summer22EENanoAODv12/WplusH_Hto2B_Wto2Q_M-125_TuneCP5_13p6TeV_powheg-pythia8/NANOAODSIM/130X_mcRun3_2022_realistic_postEE_v6-v2/60000/df810f56-a1b7-4a31-90cb-6abbfaeb17f6.root",
        "T0_CH_CERN_Tape: root://eosctacms.cern.ch:1094//eos/ctacms/archive/cms//store/mc/Run3Summer22EENanoAODv12/WplusH_Hto2B_Wto2Q_M-125_TuneCP5_13p6TeV_powheg-pythia8/NANOAODSIM/130X_mcRun3_2022_realistic_postEE_v6-v2/60000/df810f56-a1b7-4a31-90cb-6abbfaeb17f6.root"
    ],
    "cms:/store/mc/Run3Summer22EENanoAODv12/WplusH_Hto2B_Wto2Q_M-125_TuneCP5_13p6TeV_powheg-pythia8/NANOAODSIM/130X_mcRun3_2022_realistic_postEE_v6-v2/60000/afc3b3b2-5aa5-4612-a033-f1834906ed8e.root": [
        "T1_US_FNAL_Disk: davs://cmsdcadisk.fnal.gov:2880/dcache/uscmsdisk/store/mc/Run3Summer22EENanoAODv12/WplusH_Hto2B_Wto2Q_M-125_TuneCP5_13p6TeV_powheg-pythia8/NANOAODSIM/130X_mcRun3_2022_realistic_postEE_v6-v2/60000/afc3b3b2-5aa5-4612-a033-f1834906ed8e.root",
        "T2_US_MIT: davs://xrootd.cmsaf.mit.edu:1094/store/mc/Run3Summer22EENanoAODv12/WplusH_Hto2B_Wto2Q_M-125_TuneCP5_13p6TeV_powheg-pythia8/NANOAODSIM/130X_mcRun3_2022_realistic_postEE_v6-v2/60000/afc3b3b2-5aa5-4612-a033-f1834906ed8e.root",
        "T2_IT_Legnaro: davs://t2-xrdcms.lnl.infn.it:2880/pnfs/lnl.infn.it/data/cms/store/mc/Run3Summer22EENanoAODv12/WplusH_Hto2B_Wto2Q_M-125_TuneCP5_13p6TeV_powheg-pythia8/NANOAODSIM/130X_mcRun3_2022_realistic_postEE_v6-v2/60000/afc3b3b2-5aa5-4612-a033-f1834906ed8e.root",
        "T2_IT_Bari: davs://webdav.recas.ba.infn.it:8443/cms/store/mc/Run3Summer22EENanoAODv12/WplusH_Hto2B_Wto2Q_M-125_TuneCP5_13p6TeV_powheg-pythia8/NANOAODSIM/130X_mcRun3_2022_realistic_postEE_v6-v2/60000/afc3b3b2-5aa5-4612-a033-f1834906ed8e.root",
        "T2_PL_Swierk: davs://se.cis.gov.pl:2880/grid/cms/store/mc/Run3Summer22EENanoAODv12/WplusH_Hto2B_Wto2Q_M-125_TuneCP5_13p6TeV_powheg-pythia8/NANOAODSIM/130X_mcRun3_2022_realistic_postEE_v6-v2/60000/afc3b3b2-5aa5-4612-a033-f1834906ed8e.root",
        "T2_BR_SPRACE: davs://osg-se.sprace.org.br:1094/store/mc/Run3Summer22EENanoAODv12/WplusH_Hto2B_Wto2Q_M-125_TuneCP5_13p6TeV_powheg-pythia8/NANOAODSIM/130X_mcRun3_2022_realistic_postEE_v6-v2/60000/afc3b3b2-5aa5-4612-a033-f1834906ed8e.root",
        "T2_HU_Budapest: davs://grid143.kfki.hu:443/dpm/kfki.hu/home/cms/phedex/store/mc/Run3Summer22EENanoAODv12/WplusH_Hto2B_Wto2Q_M-125_TuneCP5_13p6TeV_powheg-pythia8/NANOAODSIM/130X_mcRun3_2022_realistic_postEE_v6-v2/60000/afc3b3b2-5aa5-4612-a033-f1834906ed8e.root",
        "T0_CH_CERN_Tape: root://eosctacms.cern.ch:1094//eos/ctacms/archive/cms//store/mc/Run3Summer22EENanoAODv12/WplusH_Hto2B_Wto2Q_M-125_TuneCP5_13p6TeV_powheg-pythia8/NANOAODSIM/130X_mcRun3_2022_realistic_postEE_v6-v2/60000/afc3b3b2-5aa5-4612-a033-f1834906ed8e.root"
    ],
    "cms:/store/mc/Run3Summer22EENanoAODv12/WplusH_Hto2B_Wto2Q_M-125_TuneCP5_13p6TeV_powheg-pythia8/NANOAODSIM/130X_mcRun3_2022_realistic_postEE_v6-v2/60000/0ce377cb-edfb-42b6-9c7e-70f774d911c2.root": [
        "T1_US_FNAL_Disk: davs://cmsdcadisk.fnal.gov:2880/dcache/uscmsdisk/store/mc/Run3Summer22EENanoAODv12/WplusH_Hto2B_Wto2Q_M-125_TuneCP5_13p6TeV_powheg-pythia8/NANOAODSIM/130X_mcRun3_2022_realistic_postEE_v6-v2/60000/0ce377cb-edfb-42b6-9c7e-70f774d911c2.root",
        "T2_US_MIT: davs://xrootd.cmsaf.mit.edu:1094/store/mc/Run3Summer22EENanoAODv12/WplusH_Hto2B_Wto2Q_M-125_TuneCP5_13p6TeV_powheg-pythia8/NANOAODSIM/130X_mcRun3_2022_realistic_postEE_v6-v2/60000/0ce377cb-edfb-42b6-9c7e-70f774d911c2.root",
        "T2_IT_Legnaro: davs://t2-xrdcms.lnl.infn.it:2880/pnfs/lnl.infn.it/data/cms/store/mc/Run3Summer22EENanoAODv12/WplusH_Hto2B_Wto2Q_M-125_TuneCP5_13p6TeV_powheg-pythia8/NANOAODSIM/130X_mcRun3_2022_realistic_postEE_v6-v2/60000/0ce377cb-edfb-42b6-9c7e-70f774d911c2.root",
        "T2_IT_Bari: davs://webdav.recas.ba.infn.it:8443/cms/store/mc/Run3Summer22EENanoAODv12/WplusH_Hto2B_Wto2Q_M-125_TuneCP5_13p6TeV_powheg-pythia8/NANOAODSIM/130X_mcRun3_2022_realistic_postEE_v6-v2/60000/0ce377cb-edfb-42b6-9c7e-70f774d911c2.root",
        "T2_PL_Swierk: davs://se.cis.gov.pl:2880/grid/cms/store/mc/Run3Summer22EENanoAODv12/WplusH_Hto2B_Wto2Q_M-125_TuneCP5_13p6TeV_powheg-pythia8/NANOAODSIM/130X_mcRun3_2022_realistic_postEE_v6-v2/60000/0ce377cb-edfb-42b6-9c7e-70f774d911c2.root",
        "T2_BR_SPRACE: davs://osg-se.sprace.org.br:1094/store/mc/Run3Summer22EENanoAODv12/WplusH_Hto2B_Wto2Q_M-125_TuneCP5_13p6TeV_powheg-pythia8/NANOAODSIM/130X_mcRun3_2022_realistic_postEE_v6-v2/60000/0ce377cb-edfb-42b6-9c7e-70f774d911c2.root",
        "T2_HU_Budapest: davs://grid143.kfki.hu:443/dpm/kfki.hu/home/cms/phedex/store/mc/Run3Summer22EENanoAODv12/WplusH_Hto2B_Wto2Q_M-125_TuneCP5_13p6TeV_powheg-pythia8/NANOAODSIM/130X_mcRun3_2022_realistic_postEE_v6-v2/60000/0ce377cb-edfb-42b6-9c7e-70f774d911c2.root",
        "T2_ES_CIEMAT: davs://srm.ciemat.es:2880/pnfs/ciemat.es/data/cms/prod/store/mc/Run3Summer22EENanoAODv12/WplusH_Hto2B_Wto2Q_M-125_TuneCP5_13p6TeV_powheg-pythia8/NANOAODSIM/130X_mcRun3_2022_realistic_postEE_v6-v2/60000/0ce377cb-edfb-42b6-9c7e-70f774d911c2.root",
        "T0_CH_CERN_Tape: root://eosctacms.cern.ch:1094//eos/ctacms/archive/cms//store/mc/Run3Summer22EENanoAODv12/WplusH_Hto2B_Wto2Q_M-125_TuneCP5_13p6TeV_powheg-pythia8/NANOAODSIM/130X_mcRun3_2022_realistic_postEE_v6-v2/60000/0ce377cb-edfb-42b6-9c7e-70f774d911c2.root"
    ],
    "cms:/store/mc/Run3Summer22EENanoAODv12/WplusH_Hto2B_Wto2Q_M-125_TuneCP5_13p6TeV_powheg-pythia8/NANOAODSIM/130X_mcRun3_2022_realistic_postEE_v6-v2/60000/5c051d1b-5bc8-470f-8d7a-180221553e11.root": [
        "T1_US_FNAL_Disk: davs://cmsdcadisk.fnal.gov:2880/dcache/uscmsdisk/store/mc/Run3Summer22EENanoAODv12/WplusH_Hto2B_Wto2Q_M-125_TuneCP5_13p6TeV_powheg-pythia8/NANOAODSIM/130X_mcRun3_2022_realistic_postEE_v6-v2/60000/5c051d1b-5bc8-470f-8d7a-180221553e11.root",
        "T2_US_MIT: davs://xrootd.cmsaf.mit.edu:1094/store/mc/Run3Summer22EENanoAODv12/WplusH_Hto2B_Wto2Q_M-125_TuneCP5_13p6TeV_powheg-pythia8/NANOAODSIM/130X_mcRun3_2022_realistic_postEE_v6-v2/60000/5c051d1b-5bc8-470f-8d7a-180221553e11.root",
        "T2_IT_Legnaro: davs://t2-xrdcms.lnl.infn.it:2880/pnfs/lnl.infn.it/data/cms/store/mc/Run3Summer22EENanoAODv12/WplusH_Hto2B_Wto2Q_M-125_TuneCP5_13p6TeV_powheg-pythia8/NANOAODSIM/130X_mcRun3_2022_realistic_postEE_v6-v2/60000/5c051d1b-5bc8-470f-8d7a-180221553e11.root",
        "T2_IT_Bari: davs://webdav.recas.ba.infn.it:8443/cms/store/mc/Run3Summer22EENanoAODv12/WplusH_Hto2B_Wto2Q_M-125_TuneCP5_13p6TeV_powheg-pythia8/NANOAODSIM/130X_mcRun3_2022_realistic_postEE_v6-v2/60000/5c051d1b-5bc8-470f-8d7a-180221553e11.root",
        "T2_PL_Swierk: davs://se.cis.gov.pl:2880/grid/cms/store/mc/Run3Summer22EENanoAODv12/WplusH_Hto2B_Wto2Q_M-125_TuneCP5_13p6TeV_powheg-pythia8/NANOAODSIM/130X_mcRun3_2022_realistic_postEE_v6-v2/60000/5c051d1b-5bc8-470f-8d7a-180221553e11.root",
        "T2_BR_SPRACE: davs://osg-se.sprace.org.br:1094/store/mc/Run3Summer22EENanoAODv12/WplusH_Hto2B_Wto2Q_M-125_TuneCP5_13p6TeV_powheg-pythia8/NANOAODSIM/130X_mcRun3_2022_realistic_postEE_v6-v2/60000/5c051d1b-5bc8-470f-8d7a-180221553e11.root",
        "T2_HU_Budapest: davs://grid143.kfki.hu:443/dpm/kfki.hu/home/cms/phedex/store/mc/Run3Summer22EENanoAODv12/WplusH_Hto2B_Wto2Q_M-125_TuneCP5_13p6TeV_powheg-pythia8/NANOAODSIM/130X_mcRun3_2022_realistic_postEE_v6-v2/60000/5c051d1b-5bc8-470f-8d7a-180221553e11.root",
        "T0_CH_CERN_Tape: root://eosctacms.cern.ch:1094//eos/ctacms/archive/cms//store/mc/Run3Summer22EENanoAODv12/WplusH_Hto2B_Wto2Q_M-125_TuneCP5_13p6TeV_powheg-pythia8/NANOAODSIM/130X_mcRun3_2022_realistic_postEE_v6-v2/60000/5c051d1b-5bc8-470f-8d7a-180221553e11.root"
    ],
    "cms:/store/mc/Run3Summer22EENanoAODv12/WplusH_Hto2B_Wto2Q_M-125_TuneCP5_13p6TeV_powheg-pythia8/NANOAODSIM/130X_mcRun3_2022_realistic_postEE_v6-v2/70000/66f887b8-52b8-4429-9ae4-da28740d646a.root": [
        "T1_US_FNAL_Disk: davs://cmsdcadisk.fnal.gov:2880/dcache/uscmsdisk/store/mc/Run3Summer22EENanoAODv12/WplusH_Hto2B_Wto2Q_M-125_TuneCP5_13p6TeV_powheg-pythia8/NANOAODSIM/130X_mcRun3_2022_realistic_postEE_v6-v2/70000/66f887b8-52b8-4429-9ae4-da28740d646a.root",
        "T2_US_MIT: davs://xrootd.cmsaf.mit.edu:1094/store/mc/Run3Summer22EENanoAODv12/WplusH_Hto2B_Wto2Q_M-125_TuneCP5_13p6TeV_powheg-pythia8/NANOAODSIM/130X_mcRun3_2022_realistic_postEE_v6-v2/70000/66f887b8-52b8-4429-9ae4-da28740d646a.root",
        "T2_TW_NCHC: davs://se01.grid.nchc.org.tw:443//cms/store/mc/Run3Summer22EENanoAODv12/WplusH_Hto2B_Wto2Q_M-125_TuneCP5_13p6TeV_powheg-pythia8/NANOAODSIM/130X_mcRun3_2022_realistic_postEE_v6-v2/70000/66f887b8-52b8-4429-9ae4-da28740d646a.root",
        "T2_IT_Legnaro: davs://t2-xrdcms.lnl.infn.it:2880/pnfs/lnl.infn.it/data/cms/store/mc/Run3Summer22EENanoAODv12/WplusH_Hto2B_Wto2Q_M-125_TuneCP5_13p6TeV_powheg-pythia8/NANOAODSIM/130X_mcRun3_2022_realistic_postEE_v6-v2/70000/66f887b8-52b8-4429-9ae4-da28740d646a.root",
        "T2_IT_Bari: davs://webdav.recas.ba.infn.it:8443/cms/store/mc/Run3Summer22EENanoAODv12/WplusH_Hto2B_Wto2Q_M-125_TuneCP5_13p6TeV_powheg-pythia8/NANOAODSIM/130X_mcRun3_2022_realistic_postEE_v6-v2/70000/66f887b8-52b8-4429-9ae4-da28740d646a.root",
        "T2_PL_Swierk: davs://se.cis.gov.pl:2880/grid/cms/store/mc/Run3Summer22EENanoAODv12/WplusH_Hto2B_Wto2Q_M-125_TuneCP5_13p6TeV_powheg-pythia8/NANOAODSIM/130X_mcRun3_2022_realistic_postEE_v6-v2/70000/66f887b8-52b8-4429-9ae4-da28740d646a.root",
        "T2_BR_SPRACE: davs://osg-se.sprace.org.br:1094/store/mc/Run3Summer22EENanoAODv12/WplusH_Hto2B_Wto2Q_M-125_TuneCP5_13p6TeV_powheg-pythia8/NANOAODSIM/130X_mcRun3_2022_realistic_postEE_v6-v2/70000/66f887b8-52b8-4429-9ae4-da28740d646a.root",
        "T2_HU_Budapest: davs://grid143.kfki.hu:443/dpm/kfki.hu/home/cms/phedex/store/mc/Run3Summer22EENanoAODv12/WplusH_Hto2B_Wto2Q_M-125_TuneCP5_13p6TeV_powheg-pythia8/NANOAODSIM/130X_mcRun3_2022_realistic_postEE_v6-v2/70000/66f887b8-52b8-4429-9ae4-da28740d646a.root",
        "T0_CH_CERN_Tape: root://eosctacms.cern.ch:1094//eos/ctacms/archive/cms//store/mc/Run3Summer22EENanoAODv12/WplusH_Hto2B_Wto2Q_M-125_TuneCP5_13p6TeV_powheg-pythia8/NANOAODSIM/130X_mcRun3_2022_realistic_postEE_v6-v2/70000/66f887b8-52b8-4429-9ae4-da28740d646a.root"
    ],
    "cms:/store/mc/Run3Summer22EENanoAODv12/WplusH_Hto2B_Wto2Q_M-125_TuneCP5_13p6TeV_powheg-pythia8/NANOAODSIM/130X_mcRun3_2022_realistic_postEE_v6-v2/60000/2d0f6143-2347-4124-a9f8-eb1b6e0dd312.root": [
        "T1_US_FNAL_Disk: davs://cmsdcadisk.fnal.gov:2880/dcache/uscmsdisk/store/mc/Run3Summer22EENanoAODv12/WplusH_Hto2B_Wto2Q_M-125_TuneCP5_13p6TeV_powheg-pythia8/NANOAODSIM/130X_mcRun3_2022_realistic_postEE_v6-v2/60000/2d0f6143-2347-4124-a9f8-eb1b6e0dd312.root",
        "T2_US_MIT: davs://xrootd.cmsaf.mit.edu:1094/store/mc/Run3Summer22EENanoAODv12/WplusH_Hto2B_Wto2Q_M-125_TuneCP5_13p6TeV_powheg-pythia8/NANOAODSIM/130X_mcRun3_2022_realistic_postEE_v6-v2/60000/2d0f6143-2347-4124-a9f8-eb1b6e0dd312.root",
        "T2_IT_Legnaro: davs://t2-xrdcms.lnl.infn.it:2880/pnfs/lnl.infn.it/data/cms/store/mc/Run3Summer22EENanoAODv12/WplusH_Hto2B_Wto2Q_M-125_TuneCP5_13p6TeV_powheg-pythia8/NANOAODSIM/130X_mcRun3_2022_realistic_postEE_v6-v2/60000/2d0f6143-2347-4124-a9f8-eb1b6e0dd312.root",
        "T2_IT_Bari: davs://webdav.recas.ba.infn.it:8443/cms/store/mc/Run3Summer22EENanoAODv12/WplusH_Hto2B_Wto2Q_M-125_TuneCP5_13p6TeV_powheg-pythia8/NANOAODSIM/130X_mcRun3_2022_realistic_postEE_v6-v2/60000/2d0f6143-2347-4124-a9f8-eb1b6e0dd312.root",
        "T2_PL_Swierk: davs://se.cis.gov.pl:2880/grid/cms/store/mc/Run3Summer22EENanoAODv12/WplusH_Hto2B_Wto2Q_M-125_TuneCP5_13p6TeV_powheg-pythia8/NANOAODSIM/130X_mcRun3_2022_realistic_postEE_v6-v2/60000/2d0f6143-2347-4124-a9f8-eb1b6e0dd312.root",
        "T2_BR_SPRACE: davs://osg-se.sprace.org.br:1094/store/mc/Run3Summer22EENanoAODv12/WplusH_Hto2B_Wto2Q_M-125_TuneCP5_13p6TeV_powheg-pythia8/NANOAODSIM/130X_mcRun3_2022_realistic_postEE_v6-v2/60000/2d0f6143-2347-4124-a9f8-eb1b6e0dd312.root",
        "T2_HU_Budapest: davs://grid143.kfki.hu:443/dpm/kfki.hu/home/cms/phedex/store/mc/Run3Summer22EENanoAODv12/WplusH_Hto2B_Wto2Q_M-125_TuneCP5_13p6TeV_powheg-pythia8/NANOAODSIM/130X_mcRun3_2022_realistic_postEE_v6-v2/60000/2d0f6143-2347-4124-a9f8-eb1b6e0dd312.root",
        "T2_US_Purdue: davs://eos.cms.rcac.purdue.edu:9000/store/mc/Run3Summer22EENanoAODv12/WplusH_Hto2B_Wto2Q_M-125_TuneCP5_13p6TeV_powheg-pythia8/NANOAODSIM/130X_mcRun3_2022_realistic_postEE_v6-v2/60000/2d0f6143-2347-4124-a9f8-eb1b6e0dd312.root",
        "T0_CH_CERN_Tape: root://eosctacms.cern.ch:1094//eos/ctacms/archive/cms//store/mc/Run3Summer22EENanoAODv12/WplusH_Hto2B_Wto2Q_M-125_TuneCP5_13p6TeV_powheg-pythia8/NANOAODSIM/130X_mcRun3_2022_realistic_postEE_v6-v2/60000/2d0f6143-2347-4124-a9f8-eb1b6e0dd312.root"
    ],
    "cms:/store/mc/Run3Summer22EENanoAODv12/WplusH_Hto2B_Wto2Q_M-125_TuneCP5_13p6TeV_powheg-pythia8/NANOAODSIM/130X_mcRun3_2022_realistic_postEE_v6-v2/60000/3de94c30-9a27-42a4-9160-48906f75a6b8.root": [
        "T1_US_FNAL_Disk: davs://cmsdcadisk.fnal.gov:2880/dcache/uscmsdisk/store/mc/Run3Summer22EENanoAODv12/WplusH_Hto2B_Wto2Q_M-125_TuneCP5_13p6TeV_powheg-pythia8/NANOAODSIM/130X_mcRun3_2022_realistic_postEE_v6-v2/60000/3de94c30-9a27-42a4-9160-48906f75a6b8.root",
        "T2_US_MIT: davs://xrootd.cmsaf.mit.edu:1094/store/mc/Run3Summer22EENanoAODv12/WplusH_Hto2B_Wto2Q_M-125_TuneCP5_13p6TeV_powheg-pythia8/NANOAODSIM/130X_mcRun3_2022_realistic_postEE_v6-v2/60000/3de94c30-9a27-42a4-9160-48906f75a6b8.root",
        "T2_IT_Legnaro: davs://t2-xrdcms.lnl.infn.it:2880/pnfs/lnl.infn.it/data/cms/store/mc/Run3Summer22EENanoAODv12/WplusH_Hto2B_Wto2Q_M-125_TuneCP5_13p6TeV_powheg-pythia8/NANOAODSIM/130X_mcRun3_2022_realistic_postEE_v6-v2/60000/3de94c30-9a27-42a4-9160-48906f75a6b8.root",
        "T2_IT_Bari: davs://webdav.recas.ba.infn.it:8443/cms/store/mc/Run3Summer22EENanoAODv12/WplusH_Hto2B_Wto2Q_M-125_TuneCP5_13p6TeV_powheg-pythia8/NANOAODSIM/130X_mcRun3_2022_realistic_postEE_v6-v2/60000/3de94c30-9a27-42a4-9160-48906f75a6b8.root",
        "T2_PL_Swierk: davs://se.cis.gov.pl:2880/grid/cms/store/mc/Run3Summer22EENanoAODv12/WplusH_Hto2B_Wto2Q_M-125_TuneCP5_13p6TeV_powheg-pythia8/NANOAODSIM/130X_mcRun3_2022_realistic_postEE_v6-v2/60000/3de94c30-9a27-42a4-9160-48906f75a6b8.root",
        "T2_BR_SPRACE: davs://osg-se.sprace.org.br:1094/store/mc/Run3Summer22EENanoAODv12/WplusH_Hto2B_Wto2Q_M-125_TuneCP5_13p6TeV_powheg-pythia8/NANOAODSIM/130X_mcRun3_2022_realistic_postEE_v6-v2/60000/3de94c30-9a27-42a4-9160-48906f75a6b8.root",
        "T2_HU_Budapest: davs://grid143.kfki.hu:443/dpm/kfki.hu/home/cms/phedex/store/mc/Run3Summer22EENanoAODv12/WplusH_Hto2B_Wto2Q_M-125_TuneCP5_13p6TeV_powheg-pythia8/NANOAODSIM/130X_mcRun3_2022_realistic_postEE_v6-v2/60000/3de94c30-9a27-42a4-9160-48906f75a6b8.root",
        "T1_RU_JINR_Disk: davs://se-wbdv.jinr-t1.ru:2880/pnfs/jinr-t1.ru/data/cms/store/mc/Run3Summer22EENanoAODv12/WplusH_Hto2B_Wto2Q_M-125_TuneCP5_13p6TeV_powheg-pythia8/NANOAODSIM/130X_mcRun3_2022_realistic_postEE_v6-v2/60000/3de94c30-9a27-42a4-9160-48906f75a6b8.root",
        "T0_CH_CERN_Tape: root://eosctacms.cern.ch:1094//eos/ctacms/archive/cms//store/mc/Run3Summer22EENanoAODv12/WplusH_Hto2B_Wto2Q_M-125_TuneCP5_13p6TeV_powheg-pythia8/NANOAODSIM/130X_mcRun3_2022_realistic_postEE_v6-v2/60000/3de94c30-9a27-42a4-9160-48906f75a6b8.root"
    ],
    "cms:/store/mc/Run3Summer22EENanoAODv12/WplusH_Hto2B_Wto2Q_M-125_TuneCP5_13p6TeV_powheg-pythia8/NANOAODSIM/130X_mcRun3_2022_realistic_postEE_v6-v2/2550000/8c317f57-3a56-4c76-a500-18de0b09fb05.root": [
        "T1_US_FNAL_Disk: davs://cmsdcadisk.fnal.gov:2880/dcache/uscmsdisk/store/mc/Run3Summer22EENanoAODv12/WplusH_Hto2B_Wto2Q_M-125_TuneCP5_13p6TeV_powheg-pythia8/NANOAODSIM/130X_mcRun3_2022_realistic_postEE_v6-v2/2550000/8c317f57-3a56-4c76-a500-18de0b09fb05.root",
        "T2_US_MIT: davs://xrootd.cmsaf.mit.edu:1094/store/mc/Run3Summer22EENanoAODv12/WplusH_Hto2B_Wto2Q_M-125_TuneCP5_13p6TeV_powheg-pythia8/NANOAODSIM/130X_mcRun3_2022_realistic_postEE_v6-v2/2550000/8c317f57-3a56-4c76-a500-18de0b09fb05.root",
        "T2_TW_NCHC: davs://se01.grid.nchc.org.tw:443//cms/store/mc/Run3Summer22EENanoAODv12/WplusH_Hto2B_Wto2Q_M-125_TuneCP5_13p6TeV_powheg-pythia8/NANOAODSIM/130X_mcRun3_2022_realistic_postEE_v6-v2/2550000/8c317f57-3a56-4c76-a500-18de0b09fb05.root",
        "T2_IT_Legnaro: davs://t2-xrdcms.lnl.infn.it:2880/pnfs/lnl.infn.it/data/cms/store/mc/Run3Summer22EENanoAODv12/WplusH_Hto2B_Wto2Q_M-125_TuneCP5_13p6TeV_powheg-pythia8/NANOAODSIM/130X_mcRun3_2022_realistic_postEE_v6-v2/2550000/8c317f57-3a56-4c76-a500-18de0b09fb05.root",
        "T2_IT_Bari: davs://webdav.recas.ba.infn.it:8443/cms/store/mc/Run3Summer22EENanoAODv12/WplusH_Hto2B_Wto2Q_M-125_TuneCP5_13p6TeV_powheg-pythia8/NANOAODSIM/130X_mcRun3_2022_realistic_postEE_v6-v2/2550000/8c317f57-3a56-4c76-a500-18de0b09fb05.root",
        "T2_PL_Swierk: davs://se.cis.gov.pl:2880/grid/cms/store/mc/Run3Summer22EENanoAODv12/WplusH_Hto2B_Wto2Q_M-125_TuneCP5_13p6TeV_powheg-pythia8/NANOAODSIM/130X_mcRun3_2022_realistic_postEE_v6-v2/2550000/8c317f57-3a56-4c76-a500-18de0b09fb05.root",
        "T2_BR_SPRACE: davs://osg-se.sprace.org.br:1094/store/mc/Run3Summer22EENanoAODv12/WplusH_Hto2B_Wto2Q_M-125_TuneCP5_13p6TeV_powheg-pythia8/NANOAODSIM/130X_mcRun3_2022_realistic_postEE_v6-v2/2550000/8c317f57-3a56-4c76-a500-18de0b09fb05.root",
        "T2_HU_Budapest: davs://grid143.kfki.hu:443/dpm/kfki.hu/home/cms/phedex/store/mc/Run3Summer22EENanoAODv12/WplusH_Hto2B_Wto2Q_M-125_TuneCP5_13p6TeV_powheg-pythia8/NANOAODSIM/130X_mcRun3_2022_realistic_postEE_v6-v2/2550000/8c317f57-3a56-4c76-a500-18de0b09fb05.root",
        "T0_CH_CERN_Tape: root://eosctacms.cern.ch:1094//eos/ctacms/archive/cms//store/mc/Run3Summer22EENanoAODv12/WplusH_Hto2B_Wto2Q_M-125_TuneCP5_13p6TeV_powheg-pythia8/NANOAODSIM/130X_mcRun3_2022_realistic_postEE_v6-v2/2550000/8c317f57-3a56-4c76-a500-18de0b09fb05.root"
    ],
    "cms:/store/mc/Run3Summer22EENanoAODv12/WplusH_Hto2B_Wto2Q_M-125_TuneCP5_13p6TeV_powheg-pythia8/NANOAODSIM/130X_mcRun3_2022_realistic_postEE_v6-v2/60000/1c5e6bdc-6917-4b50-9a2b-a7196019e5be.root": [
        "T1_US_FNAL_Disk: davs://cmsdcadisk.fnal.gov:2880/dcache/uscmsdisk/store/mc/Run3Summer22EENanoAODv12/WplusH_Hto2B_Wto2Q_M-125_TuneCP5_13p6TeV_powheg-pythia8/NANOAODSIM/130X_mcRun3_2022_realistic_postEE_v6-v2/60000/1c5e6bdc-6917-4b50-9a2b-a7196019e5be.root",
        "T2_US_MIT: davs://xrootd.cmsaf.mit.edu:1094/store/mc/Run3Summer22EENanoAODv12/WplusH_Hto2B_Wto2Q_M-125_TuneCP5_13p6TeV_powheg-pythia8/NANOAODSIM/130X_mcRun3_2022_realistic_postEE_v6-v2/60000/1c5e6bdc-6917-4b50-9a2b-a7196019e5be.root",
        "T2_IT_Legnaro: davs://t2-xrdcms.lnl.infn.it:2880/pnfs/lnl.infn.it/data/cms/store/mc/Run3Summer22EENanoAODv12/WplusH_Hto2B_Wto2Q_M-125_TuneCP5_13p6TeV_powheg-pythia8/NANOAODSIM/130X_mcRun3_2022_realistic_postEE_v6-v2/60000/1c5e6bdc-6917-4b50-9a2b-a7196019e5be.root",
        "T2_IT_Bari: davs://webdav.recas.ba.infn.it:8443/cms/store/mc/Run3Summer22EENanoAODv12/WplusH_Hto2B_Wto2Q_M-125_TuneCP5_13p6TeV_powheg-pythia8/NANOAODSIM/130X_mcRun3_2022_realistic_postEE_v6-v2/60000/1c5e6bdc-6917-4b50-9a2b-a7196019e5be.root",
        "T2_PL_Swierk: davs://se.cis.gov.pl:2880/grid/cms/store/mc/Run3Summer22EENanoAODv12/WplusH_Hto2B_Wto2Q_M-125_TuneCP5_13p6TeV_powheg-pythia8/NANOAODSIM/130X_mcRun3_2022_realistic_postEE_v6-v2/60000/1c5e6bdc-6917-4b50-9a2b-a7196019e5be.root",
        "T2_BR_SPRACE: davs://osg-se.sprace.org.br:1094/store/mc/Run3Summer22EENanoAODv12/WplusH_Hto2B_Wto2Q_M-125_TuneCP5_13p6TeV_powheg-pythia8/NANOAODSIM/130X_mcRun3_2022_realistic_postEE_v6-v2/60000/1c5e6bdc-6917-4b50-9a2b-a7196019e5be.root",
        "T2_HU_Budapest: davs://grid143.kfki.hu:443/dpm/kfki.hu/home/cms/phedex/store/mc/Run3Summer22EENanoAODv12/WplusH_Hto2B_Wto2Q_M-125_TuneCP5_13p6TeV_powheg-pythia8/NANOAODSIM/130X_mcRun3_2022_realistic_postEE_v6-v2/60000/1c5e6bdc-6917-4b50-9a2b-a7196019e5be.root",
        "T2_BE_IIHE: davs://maite.iihe.ac.be:2880/pnfs/iihe/cms/ph/sc4/store/mc/Run3Summer22EENanoAODv12/WplusH_Hto2B_Wto2Q_M-125_TuneCP5_13p6TeV_powheg-pythia8/NANOAODSIM/130X_mcRun3_2022_realistic_postEE_v6-v2/60000/1c5e6bdc-6917-4b50-9a2b-a7196019e5be.root",
        "T0_CH_CERN_Tape: root://eosctacms.cern.ch:1094//eos/ctacms/archive/cms//store/mc/Run3Summer22EENanoAODv12/WplusH_Hto2B_Wto2Q_M-125_TuneCP5_13p6TeV_powheg-pythia8/NANOAODSIM/130X_mcRun3_2022_realistic_postEE_v6-v2/60000/1c5e6bdc-6917-4b50-9a2b-a7196019e5be.root"
    ],
    "cms:/store/mc/Run3Summer22EENanoAODv12/WplusH_Hto2B_Wto2Q_M-125_TuneCP5_13p6TeV_powheg-pythia8/NANOAODSIM/130X_mcRun3_2022_realistic_postEE_v6-v2/60000/fa28f506-9546-4d28-8738-a2c7e66958b7.root": [
        "T1_US_FNAL_Disk: davs://cmsdcadisk.fnal.gov:2880/dcache/uscmsdisk/store/mc/Run3Summer22EENanoAODv12/WplusH_Hto2B_Wto2Q_M-125_TuneCP5_13p6TeV_powheg-pythia8/NANOAODSIM/130X_mcRun3_2022_realistic_postEE_v6-v2/60000/fa28f506-9546-4d28-8738-a2c7e66958b7.root",
        "T2_US_MIT: davs://xrootd.cmsaf.mit.edu:1094/store/mc/Run3Summer22EENanoAODv12/WplusH_Hto2B_Wto2Q_M-125_TuneCP5_13p6TeV_powheg-pythia8/NANOAODSIM/130X_mcRun3_2022_realistic_postEE_v6-v2/60000/fa28f506-9546-4d28-8738-a2c7e66958b7.root",
        "T2_IT_Legnaro: davs://t2-xrdcms.lnl.infn.it:2880/pnfs/lnl.infn.it/data/cms/store/mc/Run3Summer22EENanoAODv12/WplusH_Hto2B_Wto2Q_M-125_TuneCP5_13p6TeV_powheg-pythia8/NANOAODSIM/130X_mcRun3_2022_realistic_postEE_v6-v2/60000/fa28f506-9546-4d28-8738-a2c7e66958b7.root",
        "T2_IT_Bari: davs://webdav.recas.ba.infn.it:8443/cms/store/mc/Run3Summer22EENanoAODv12/WplusH_Hto2B_Wto2Q_M-125_TuneCP5_13p6TeV_powheg-pythia8/NANOAODSIM/130X_mcRun3_2022_realistic_postEE_v6-v2/60000/fa28f506-9546-4d28-8738-a2c7e66958b7.root",
        "T2_PL_Swierk: davs://se.cis.gov.pl:2880/grid/cms/store/mc/Run3Summer22EENanoAODv12/WplusH_Hto2B_Wto2Q_M-125_TuneCP5_13p6TeV_powheg-pythia8/NANOAODSIM/130X_mcRun3_2022_realistic_postEE_v6-v2/60000/fa28f506-9546-4d28-8738-a2c7e66958b7.root",
        "T2_BE_UCL: davs://ingrid-se02.cism.ucl.ac.be:1094/store/mc/Run3Summer22EENanoAODv12/WplusH_Hto2B_Wto2Q_M-125_TuneCP5_13p6TeV_powheg-pythia8/NANOAODSIM/130X_mcRun3_2022_realistic_postEE_v6-v2/60000/fa28f506-9546-4d28-8738-a2c7e66958b7.root",
        "T2_BR_SPRACE: davs://osg-se.sprace.org.br:1094/store/mc/Run3Summer22EENanoAODv12/WplusH_Hto2B_Wto2Q_M-125_TuneCP5_13p6TeV_powheg-pythia8/NANOAODSIM/130X_mcRun3_2022_realistic_postEE_v6-v2/60000/fa28f506-9546-4d28-8738-a2c7e66958b7.root",
        "T2_HU_Budapest: davs://grid143.kfki.hu:443/dpm/kfki.hu/home/cms/phedex/store/mc/Run3Summer22EENanoAODv12/WplusH_Hto2B_Wto2Q_M-125_TuneCP5_13p6TeV_powheg-pythia8/NANOAODSIM/130X_mcRun3_2022_realistic_postEE_v6-v2/60000/fa28f506-9546-4d28-8738-a2c7e66958b7.root",
        "T0_CH_CERN_Tape: root://eosctacms.cern.ch:1094//eos/ctacms/archive/cms//store/mc/Run3Summer22EENanoAODv12/WplusH_Hto2B_Wto2Q_M-125_TuneCP5_13p6TeV_powheg-pythia8/NANOAODSIM/130X_mcRun3_2022_realistic_postEE_v6-v2/60000/fa28f506-9546-4d28-8738-a2c7e66958b7.root"
    ],
    "cms:/store/mc/Run3Summer22EENanoAODv12/WplusH_Hto2B_Wto2Q_M-125_TuneCP5_13p6TeV_powheg-pythia8/NANOAODSIM/130X_mcRun3_2022_realistic_postEE_v6-v2/60000/02bbbff0-75ce-4f54-abb0-6cb26af4c7c0.root": [
        "T1_US_FNAL_Disk: davs://cmsdcadisk.fnal.gov:2880/dcache/uscmsdisk/store/mc/Run3Summer22EENanoAODv12/WplusH_Hto2B_Wto2Q_M-125_TuneCP5_13p6TeV_powheg-pythia8/NANOAODSIM/130X_mcRun3_2022_realistic_postEE_v6-v2/60000/02bbbff0-75ce-4f54-abb0-6cb26af4c7c0.root",
        "T2_US_MIT: davs://xrootd.cmsaf.mit.edu:1094/store/mc/Run3Summer22EENanoAODv12/WplusH_Hto2B_Wto2Q_M-125_TuneCP5_13p6TeV_powheg-pythia8/NANOAODSIM/130X_mcRun3_2022_realistic_postEE_v6-v2/60000/02bbbff0-75ce-4f54-abb0-6cb26af4c7c0.root",
        "T2_IT_Legnaro: davs://t2-xrdcms.lnl.infn.it:2880/pnfs/lnl.infn.it/data/cms/store/mc/Run3Summer22EENanoAODv12/WplusH_Hto2B_Wto2Q_M-125_TuneCP5_13p6TeV_powheg-pythia8/NANOAODSIM/130X_mcRun3_2022_realistic_postEE_v6-v2/60000/02bbbff0-75ce-4f54-abb0-6cb26af4c7c0.root",
        "T2_IT_Bari: davs://webdav.recas.ba.infn.it:8443/cms/store/mc/Run3Summer22EENanoAODv12/WplusH_Hto2B_Wto2Q_M-125_TuneCP5_13p6TeV_powheg-pythia8/NANOAODSIM/130X_mcRun3_2022_realistic_postEE_v6-v2/60000/02bbbff0-75ce-4f54-abb0-6cb26af4c7c0.root",
        "T2_PL_Swierk: davs://se.cis.gov.pl:2880/grid/cms/store/mc/Run3Summer22EENanoAODv12/WplusH_Hto2B_Wto2Q_M-125_TuneCP5_13p6TeV_powheg-pythia8/NANOAODSIM/130X_mcRun3_2022_realistic_postEE_v6-v2/60000/02bbbff0-75ce-4f54-abb0-6cb26af4c7c0.root",
        "T2_BR_SPRACE: davs://osg-se.sprace.org.br:1094/store/mc/Run3Summer22EENanoAODv12/WplusH_Hto2B_Wto2Q_M-125_TuneCP5_13p6TeV_powheg-pythia8/NANOAODSIM/130X_mcRun3_2022_realistic_postEE_v6-v2/60000/02bbbff0-75ce-4f54-abb0-6cb26af4c7c0.root",
        "T2_HU_Budapest: davs://grid143.kfki.hu:443/dpm/kfki.hu/home/cms/phedex/store/mc/Run3Summer22EENanoAODv12/WplusH_Hto2B_Wto2Q_M-125_TuneCP5_13p6TeV_powheg-pythia8/NANOAODSIM/130X_mcRun3_2022_realistic_postEE_v6-v2/60000/02bbbff0-75ce-4f54-abb0-6cb26af4c7c0.root",
        "T2_UK_London_IC: davs://gfe02.grid.hep.ph.ic.ac.uk:2880/pnfs/hep.ph.ic.ac.uk/data/cms/store/mc/Run3Summer22EENanoAODv12/WplusH_Hto2B_Wto2Q_M-125_TuneCP5_13p6TeV_powheg-pythia8/NANOAODSIM/130X_mcRun3_2022_realistic_postEE_v6-v2/60000/02bbbff0-75ce-4f54-abb0-6cb26af4c7c0.root",
        "T0_CH_CERN_Tape: root://eosctacms.cern.ch:1094//eos/ctacms/archive/cms//store/mc/Run3Summer22EENanoAODv12/WplusH_Hto2B_Wto2Q_M-125_TuneCP5_13p6TeV_powheg-pythia8/NANOAODSIM/130X_mcRun3_2022_realistic_postEE_v6-v2/60000/02bbbff0-75ce-4f54-abb0-6cb26af4c7c0.root"
    ],
    "cms:/store/mc/Run3Summer22EENanoAODv12/WplusH_Hto2B_Wto2Q_M-125_TuneCP5_13p6TeV_powheg-pythia8/NANOAODSIM/130X_mcRun3_2022_realistic_postEE_v6-v2/60000/0284797e-f63d-4d5b-84b1-f124501947e6.root": [
        "T1_US_FNAL_Disk: davs://cmsdcadisk.fnal.gov:2880/dcache/uscmsdisk/store/mc/Run3Summer22EENanoAODv12/WplusH_Hto2B_Wto2Q_M-125_TuneCP5_13p6TeV_powheg-pythia8/NANOAODSIM/130X_mcRun3_2022_realistic_postEE_v6-v2/60000/0284797e-f63d-4d5b-84b1-f124501947e6.root",
        "T2_DE_DESY: davs://dcache-cms-webdav-wan.desy.de:2880/pnfs/desy.de/cms/tier2/store/mc/Run3Summer22EENanoAODv12/WplusH_Hto2B_Wto2Q_M-125_TuneCP5_13p6TeV_powheg-pythia8/NANOAODSIM/130X_mcRun3_2022_realistic_postEE_v6-v2/60000/0284797e-f63d-4d5b-84b1-f124501947e6.root",
        "T2_US_MIT: davs://xrootd.cmsaf.mit.edu:1094/store/mc/Run3Summer22EENanoAODv12/WplusH_Hto2B_Wto2Q_M-125_TuneCP5_13p6TeV_powheg-pythia8/NANOAODSIM/130X_mcRun3_2022_realistic_postEE_v6-v2/60000/0284797e-f63d-4d5b-84b1-f124501947e6.root",
        "T2_IT_Legnaro: davs://t2-xrdcms.lnl.infn.it:2880/pnfs/lnl.infn.it/data/cms/store/mc/Run3Summer22EENanoAODv12/WplusH_Hto2B_Wto2Q_M-125_TuneCP5_13p6TeV_powheg-pythia8/NANOAODSIM/130X_mcRun3_2022_realistic_postEE_v6-v2/60000/0284797e-f63d-4d5b-84b1-f124501947e6.root",
        "T2_IT_Bari: davs://webdav.recas.ba.infn.it:8443/cms/store/mc/Run3Summer22EENanoAODv12/WplusH_Hto2B_Wto2Q_M-125_TuneCP5_13p6TeV_powheg-pythia8/NANOAODSIM/130X_mcRun3_2022_realistic_postEE_v6-v2/60000/0284797e-f63d-4d5b-84b1-f124501947e6.root",
        "T2_PL_Swierk: davs://se.cis.gov.pl:2880/grid/cms/store/mc/Run3Summer22EENanoAODv12/WplusH_Hto2B_Wto2Q_M-125_TuneCP5_13p6TeV_powheg-pythia8/NANOAODSIM/130X_mcRun3_2022_realistic_postEE_v6-v2/60000/0284797e-f63d-4d5b-84b1-f124501947e6.root",
        "T2_BR_SPRACE: davs://osg-se.sprace.org.br:1094/store/mc/Run3Summer22EENanoAODv12/WplusH_Hto2B_Wto2Q_M-125_TuneCP5_13p6TeV_powheg-pythia8/NANOAODSIM/130X_mcRun3_2022_realistic_postEE_v6-v2/60000/0284797e-f63d-4d5b-84b1-f124501947e6.root",
        "T2_HU_Budapest: davs://grid143.kfki.hu:443/dpm/kfki.hu/home/cms/phedex/store/mc/Run3Summer22EENanoAODv12/WplusH_Hto2B_Wto2Q_M-125_TuneCP5_13p6TeV_powheg-pythia8/NANOAODSIM/130X_mcRun3_2022_realistic_postEE_v6-v2/60000/0284797e-f63d-4d5b-84b1-f124501947e6.root",
        "T0_CH_CERN_Tape: root://eosctacms.cern.ch:1094//eos/ctacms/archive/cms//store/mc/Run3Summer22EENanoAODv12/WplusH_Hto2B_Wto2Q_M-125_TuneCP5_13p6TeV_powheg-pythia8/NANOAODSIM/130X_mcRun3_2022_realistic_postEE_v6-v2/60000/0284797e-f63d-4d5b-84b1-f124501947e6.root"
    ],
    "cms:/store/mc/Run3Summer22EENanoAODv12/WplusH_Hto2B_Wto2Q_M-125_TuneCP5_13p6TeV_powheg-pythia8/NANOAODSIM/130X_mcRun3_2022_realistic_postEE_v6-v2/60000/9c5b8623-c871-4ce8-afe7-6dc55f06efea.root": [
        "T1_US_FNAL_Disk: davs://cmsdcadisk.fnal.gov:2880/dcache/uscmsdisk/store/mc/Run3Summer22EENanoAODv12/WplusH_Hto2B_Wto2Q_M-125_TuneCP5_13p6TeV_powheg-pythia8/NANOAODSIM/130X_mcRun3_2022_realistic_postEE_v6-v2/60000/9c5b8623-c871-4ce8-afe7-6dc55f06efea.root",
        "T2_US_MIT: davs://xrootd.cmsaf.mit.edu:1094/store/mc/Run3Summer22EENanoAODv12/WplusH_Hto2B_Wto2Q_M-125_TuneCP5_13p6TeV_powheg-pythia8/NANOAODSIM/130X_mcRun3_2022_realistic_postEE_v6-v2/60000/9c5b8623-c871-4ce8-afe7-6dc55f06efea.root",
        "T2_IT_Legnaro: davs://t2-xrdcms.lnl.infn.it:2880/pnfs/lnl.infn.it/data/cms/store/mc/Run3Summer22EENanoAODv12/WplusH_Hto2B_Wto2Q_M-125_TuneCP5_13p6TeV_powheg-pythia8/NANOAODSIM/130X_mcRun3_2022_realistic_postEE_v6-v2/60000/9c5b8623-c871-4ce8-afe7-6dc55f06efea.root",
        "T2_IT_Bari: davs://webdav.recas.ba.infn.it:8443/cms/store/mc/Run3Summer22EENanoAODv12/WplusH_Hto2B_Wto2Q_M-125_TuneCP5_13p6TeV_powheg-pythia8/NANOAODSIM/130X_mcRun3_2022_realistic_postEE_v6-v2/60000/9c5b8623-c871-4ce8-afe7-6dc55f06efea.root",
        "T2_PL_Swierk: davs://se.cis.gov.pl:2880/grid/cms/store/mc/Run3Summer22EENanoAODv12/WplusH_Hto2B_Wto2Q_M-125_TuneCP5_13p6TeV_powheg-pythia8/NANOAODSIM/130X_mcRun3_2022_realistic_postEE_v6-v2/60000/9c5b8623-c871-4ce8-afe7-6dc55f06efea.root",
        "T1_UK_RAL_Disk: davs://rdr.echo.stfc.ac.uk:1094/store/mc/Run3Summer22EENanoAODv12/WplusH_Hto2B_Wto2Q_M-125_TuneCP5_13p6TeV_powheg-pythia8/NANOAODSIM/130X_mcRun3_2022_realistic_postEE_v6-v2/60000/9c5b8623-c871-4ce8-afe7-6dc55f06efea.root",
        "T2_BR_SPRACE: davs://osg-se.sprace.org.br:1094/store/mc/Run3Summer22EENanoAODv12/WplusH_Hto2B_Wto2Q_M-125_TuneCP5_13p6TeV_powheg-pythia8/NANOAODSIM/130X_mcRun3_2022_realistic_postEE_v6-v2/60000/9c5b8623-c871-4ce8-afe7-6dc55f06efea.root",
        "T2_HU_Budapest: davs://grid143.kfki.hu:443/dpm/kfki.hu/home/cms/phedex/store/mc/Run3Summer22EENanoAODv12/WplusH_Hto2B_Wto2Q_M-125_TuneCP5_13p6TeV_powheg-pythia8/NANOAODSIM/130X_mcRun3_2022_realistic_postEE_v6-v2/60000/9c5b8623-c871-4ce8-afe7-6dc55f06efea.root",
        "T0_CH_CERN_Tape: root://eosctacms.cern.ch:1094//eos/ctacms/archive/cms//store/mc/Run3Summer22EENanoAODv12/WplusH_Hto2B_Wto2Q_M-125_TuneCP5_13p6TeV_powheg-pythia8/NANOAODSIM/130X_mcRun3_2022_realistic_postEE_v6-v2/60000/9c5b8623-c871-4ce8-afe7-6dc55f06efea.root"
    ],
    "cms:/store/mc/Run3Summer22EENanoAODv12/WplusH_Hto2B_Wto2Q_M-125_TuneCP5_13p6TeV_powheg-pythia8/NANOAODSIM/130X_mcRun3_2022_realistic_postEE_v6-v2/60000/fa4828d4-dd00-4975-a859-c27ca3d06689.root": [
        "T1_US_FNAL_Disk: davs://cmsdcadisk.fnal.gov:2880/dcache/uscmsdisk/store/mc/Run3Summer22EENanoAODv12/WplusH_Hto2B_Wto2Q_M-125_TuneCP5_13p6TeV_powheg-pythia8/NANOAODSIM/130X_mcRun3_2022_realistic_postEE_v6-v2/60000/fa4828d4-dd00-4975-a859-c27ca3d06689.root",
        "T2_US_MIT: davs://xrootd.cmsaf.mit.edu:1094/store/mc/Run3Summer22EENanoAODv12/WplusH_Hto2B_Wto2Q_M-125_TuneCP5_13p6TeV_powheg-pythia8/NANOAODSIM/130X_mcRun3_2022_realistic_postEE_v6-v2/60000/fa4828d4-dd00-4975-a859-c27ca3d06689.root",
        "T2_IT_Legnaro: davs://t2-xrdcms.lnl.infn.it:2880/pnfs/lnl.infn.it/data/cms/store/mc/Run3Summer22EENanoAODv12/WplusH_Hto2B_Wto2Q_M-125_TuneCP5_13p6TeV_powheg-pythia8/NANOAODSIM/130X_mcRun3_2022_realistic_postEE_v6-v2/60000/fa4828d4-dd00-4975-a859-c27ca3d06689.root",
        "T2_IT_Bari: davs://webdav.recas.ba.infn.it:8443/cms/store/mc/Run3Summer22EENanoAODv12/WplusH_Hto2B_Wto2Q_M-125_TuneCP5_13p6TeV_powheg-pythia8/NANOAODSIM/130X_mcRun3_2022_realistic_postEE_v6-v2/60000/fa4828d4-dd00-4975-a859-c27ca3d06689.root",
        "T2_PL_Swierk: davs://se.cis.gov.pl:2880/grid/cms/store/mc/Run3Summer22EENanoAODv12/WplusH_Hto2B_Wto2Q_M-125_TuneCP5_13p6TeV_powheg-pythia8/NANOAODSIM/130X_mcRun3_2022_realistic_postEE_v6-v2/60000/fa4828d4-dd00-4975-a859-c27ca3d06689.root",
        "T1_UK_RAL_Disk: davs://rdr.echo.stfc.ac.uk:1094/store/mc/Run3Summer22EENanoAODv12/WplusH_Hto2B_Wto2Q_M-125_TuneCP5_13p6TeV_powheg-pythia8/NANOAODSIM/130X_mcRun3_2022_realistic_postEE_v6-v2/60000/fa4828d4-dd00-4975-a859-c27ca3d06689.root",
        "T2_BR_SPRACE: davs://osg-se.sprace.org.br:1094/store/mc/Run3Summer22EENanoAODv12/WplusH_Hto2B_Wto2Q_M-125_TuneCP5_13p6TeV_powheg-pythia8/NANOAODSIM/130X_mcRun3_2022_realistic_postEE_v6-v2/60000/fa4828d4-dd00-4975-a859-c27ca3d06689.root",
        "T2_HU_Budapest: davs://grid143.kfki.hu:443/dpm/kfki.hu/home/cms/phedex/store/mc/Run3Summer22EENanoAODv12/WplusH_Hto2B_Wto2Q_M-125_TuneCP5_13p6TeV_powheg-pythia8/NANOAODSIM/130X_mcRun3_2022_realistic_postEE_v6-v2/60000/fa4828d4-dd00-4975-a859-c27ca3d06689.root",
        "T0_CH_CERN_Tape: root://eosctacms.cern.ch:1094//eos/ctacms/archive/cms//store/mc/Run3Summer22EENanoAODv12/WplusH_Hto2B_Wto2Q_M-125_TuneCP5_13p6TeV_powheg-pythia8/NANOAODSIM/130X_mcRun3_2022_realistic_postEE_v6-v2/60000/fa4828d4-dd00-4975-a859-c27ca3d06689.root"
    ],
    "cms:/store/mc/Run3Summer22EENanoAODv12/WplusH_Hto2B_Wto2Q_M-125_TuneCP5_13p6TeV_powheg-pythia8/NANOAODSIM/130X_mcRun3_2022_realistic_postEE_v6-v2/60000/7144c062-26c2-47a6-967e-0681c19ecd1d.root": [
        "T1_US_FNAL_Disk: davs://cmsdcadisk.fnal.gov:2880/dcache/uscmsdisk/store/mc/Run3Summer22EENanoAODv12/WplusH_Hto2B_Wto2Q_M-125_TuneCP5_13p6TeV_powheg-pythia8/NANOAODSIM/130X_mcRun3_2022_realistic_postEE_v6-v2/60000/7144c062-26c2-47a6-967e-0681c19ecd1d.root",
        "T2_US_MIT: davs://xrootd.cmsaf.mit.edu:1094/store/mc/Run3Summer22EENanoAODv12/WplusH_Hto2B_Wto2Q_M-125_TuneCP5_13p6TeV_powheg-pythia8/NANOAODSIM/130X_mcRun3_2022_realistic_postEE_v6-v2/60000/7144c062-26c2-47a6-967e-0681c19ecd1d.root",
        "T2_IT_Legnaro: davs://t2-xrdcms.lnl.infn.it:2880/pnfs/lnl.infn.it/data/cms/store/mc/Run3Summer22EENanoAODv12/WplusH_Hto2B_Wto2Q_M-125_TuneCP5_13p6TeV_powheg-pythia8/NANOAODSIM/130X_mcRun3_2022_realistic_postEE_v6-v2/60000/7144c062-26c2-47a6-967e-0681c19ecd1d.root",
        "T2_IT_Bari: davs://webdav.recas.ba.infn.it:8443/cms/store/mc/Run3Summer22EENanoAODv12/WplusH_Hto2B_Wto2Q_M-125_TuneCP5_13p6TeV_powheg-pythia8/NANOAODSIM/130X_mcRun3_2022_realistic_postEE_v6-v2/60000/7144c062-26c2-47a6-967e-0681c19ecd1d.root",
        "T2_PL_Swierk: davs://se.cis.gov.pl:2880/grid/cms/store/mc/Run3Summer22EENanoAODv12/WplusH_Hto2B_Wto2Q_M-125_TuneCP5_13p6TeV_powheg-pythia8/NANOAODSIM/130X_mcRun3_2022_realistic_postEE_v6-v2/60000/7144c062-26c2-47a6-967e-0681c19ecd1d.root",
        "T2_BR_SPRACE: davs://osg-se.sprace.org.br:1094/store/mc/Run3Summer22EENanoAODv12/WplusH_Hto2B_Wto2Q_M-125_TuneCP5_13p6TeV_powheg-pythia8/NANOAODSIM/130X_mcRun3_2022_realistic_postEE_v6-v2/60000/7144c062-26c2-47a6-967e-0681c19ecd1d.root",
        "T2_HU_Budapest: davs://grid143.kfki.hu:443/dpm/kfki.hu/home/cms/phedex/store/mc/Run3Summer22EENanoAODv12/WplusH_Hto2B_Wto2Q_M-125_TuneCP5_13p6TeV_powheg-pythia8/NANOAODSIM/130X_mcRun3_2022_realistic_postEE_v6-v2/60000/7144c062-26c2-47a6-967e-0681c19ecd1d.root",
        "T0_CH_CERN_Tape: root://eosctacms.cern.ch:1094//eos/ctacms/archive/cms//store/mc/Run3Summer22EENanoAODv12/WplusH_Hto2B_Wto2Q_M-125_TuneCP5_13p6TeV_powheg-pythia8/NANOAODSIM/130X_mcRun3_2022_realistic_postEE_v6-v2/60000/7144c062-26c2-47a6-967e-0681c19ecd1d.root"
    ],
    "cms:/store/mc/Run3Summer22EENanoAODv12/WplusH_Hto2B_Wto2Q_M-125_TuneCP5_13p6TeV_powheg-pythia8/NANOAODSIM/130X_mcRun3_2022_realistic_postEE_v6-v2/60000/d86edd72-8123-4649-881f-e7a5cf9d1f58.root": [
        "T1_US_FNAL_Disk: davs://cmsdcadisk.fnal.gov:2880/dcache/uscmsdisk/store/mc/Run3Summer22EENanoAODv12/WplusH_Hto2B_Wto2Q_M-125_TuneCP5_13p6TeV_powheg-pythia8/NANOAODSIM/130X_mcRun3_2022_realistic_postEE_v6-v2/60000/d86edd72-8123-4649-881f-e7a5cf9d1f58.root",
        "T2_US_MIT: davs://xrootd.cmsaf.mit.edu:1094/store/mc/Run3Summer22EENanoAODv12/WplusH_Hto2B_Wto2Q_M-125_TuneCP5_13p6TeV_powheg-pythia8/NANOAODSIM/130X_mcRun3_2022_realistic_postEE_v6-v2/60000/d86edd72-8123-4649-881f-e7a5cf9d1f58.root",
        "T2_IT_Legnaro: davs://t2-xrdcms.lnl.infn.it:2880/pnfs/lnl.infn.it/data/cms/store/mc/Run3Summer22EENanoAODv12/WplusH_Hto2B_Wto2Q_M-125_TuneCP5_13p6TeV_powheg-pythia8/NANOAODSIM/130X_mcRun3_2022_realistic_postEE_v6-v2/60000/d86edd72-8123-4649-881f-e7a5cf9d1f58.root",
        "T2_IT_Bari: davs://webdav.recas.ba.infn.it:8443/cms/store/mc/Run3Summer22EENanoAODv12/WplusH_Hto2B_Wto2Q_M-125_TuneCP5_13p6TeV_powheg-pythia8/NANOAODSIM/130X_mcRun3_2022_realistic_postEE_v6-v2/60000/d86edd72-8123-4649-881f-e7a5cf9d1f58.root",
        "T2_PL_Swierk: davs://se.cis.gov.pl:2880/grid/cms/store/mc/Run3Summer22EENanoAODv12/WplusH_Hto2B_Wto2Q_M-125_TuneCP5_13p6TeV_powheg-pythia8/NANOAODSIM/130X_mcRun3_2022_realistic_postEE_v6-v2/60000/d86edd72-8123-4649-881f-e7a5cf9d1f58.root",
        "T2_BR_SPRACE: davs://osg-se.sprace.org.br:1094/store/mc/Run3Summer22EENanoAODv12/WplusH_Hto2B_Wto2Q_M-125_TuneCP5_13p6TeV_powheg-pythia8/NANOAODSIM/130X_mcRun3_2022_realistic_postEE_v6-v2/60000/d86edd72-8123-4649-881f-e7a5cf9d1f58.root",
        "T2_HU_Budapest: davs://grid143.kfki.hu:443/dpm/kfki.hu/home/cms/phedex/store/mc/Run3Summer22EENanoAODv12/WplusH_Hto2B_Wto2Q_M-125_TuneCP5_13p6TeV_powheg-pythia8/NANOAODSIM/130X_mcRun3_2022_realistic_postEE_v6-v2/60000/d86edd72-8123-4649-881f-e7a5cf9d1f58.root",
        "T0_CH_CERN_Tape: root://eosctacms.cern.ch:1094//eos/ctacms/archive/cms//store/mc/Run3Summer22EENanoAODv12/WplusH_Hto2B_Wto2Q_M-125_TuneCP5_13p6TeV_powheg-pythia8/NANOAODSIM/130X_mcRun3_2022_realistic_postEE_v6-v2/60000/d86edd72-8123-4649-881f-e7a5cf9d1f58.root"
    ]
}