+------------------------------------------------------------------------------------------------------------------------------------------------------------------------------------------------+--------+-------------+------------+----------+
| SCOPE:NAME                                                                                                                                                                                     | GUID   | ADLER32     | FILESIZE   | EVENTS   |
|------------------------------------------------------------------------------------------------------------------------------------------------------------------------------------------------+--------+-------------+------------+----------|
| cms:/store/mc/Run3Summer22NanoAODv12/Wto2Q-3Jets_HT-200to400_TuneCP5_13p6TeV_madgraphMLM-pythia8/NANOAODSIM/130X_mcRun3_2022_realistic_v5-v2/30000/0116b348-4272-4bd8-803c-f9c475de9197.root   | (None) | ad:4fa74b9c | 26.333 MB  |          |
| cms:/store/mc/Run3Summer22NanoAODv12/Wto2Q-3Jets_HT-200to400_TuneCP5_13p6TeV_madgraphMLM-pythia8/NANOAODSIM/130X_mcRun3_2022_realistic_v5-v2/30000/0c16947f-9c3c-4f0a-bccc-dec9313c379e.root   | (None) | ad:5475b830 | 136.350 MB |          |
| cms:/store/mc/Run3Summer22NanoAODv12/Wto2Q-3Jets_HT-200to400_TuneCP5_13p6TeV_madgraphMLM-pythia8/NANOAODSIM/130X_mcRun3_2022_realistic_v5-v2/2530000/dae06401-a1a6-4e69-805a-68b94b2b149a.root | (None) | ad:5f3267c3 | 23.012 MB  |          |
| cms:/store/mc/Run3Summer22NanoAODv12/Wto2Q-3Jets_HT-200to400_TuneCP5_13p6TeV_madgraphMLM-pythia8/NANOAODSIM/130X_mcRun3_2022_realistic_v5-v2/40000/52ae1f3b-c910-4692-9165-ecbbc0cc3dcc.root   | (None) | ad:06f12a90 | 15.874 MB  |          |
| cms:/store/mc/Run3Summer22NanoAODv12/Wto2Q-3Jets_HT-200to400_TuneCP5_13p6TeV_madgraphMLM-pythia8/NANOAODSIM/130X_mcRun3_2022_realistic_v5-v2/30000/28aa0ff8-1316-4b83-83c2-d0bd0e13726f.root   | (None) | ad:78521b33 | 59.494 MB  |          |
| cms:/store/mc/Run3Summer22NanoAODv12/Wto2Q-3Jets_HT-200to400_TuneCP5_13p6TeV_madgraphMLM-pythia8/NANOAODSIM/130X_mcRun3_2022_realistic_v5-v2/2520000/af4bc990-9ba1-4d5b-b197-4b76c9d6ab74.root | (None) | ad:118d0d2c | 52.804 MB  |          |
| cms:/store/mc/Run3Summer22NanoAODv12/Wto2Q-3Jets_HT-200to400_TuneCP5_13p6TeV_madgraphMLM-pythia8/NANOAODSIM/130X_mcRun3_2022_realistic_v5-v2/30000/abba1c43-14bd-48b1-af5e-e75cbe3ad6ff.root   | (None) | ad:7a4c0e32 | 274.575 MB |          |
| cms:/store/mc/Run3Summer22NanoAODv12/Wto2Q-3Jets_HT-200to400_TuneCP5_13p6TeV_madgraphMLM-pythia8/NANOAODSIM/130X_mcRun3_2022_realistic_v5-v2/30000/4fca9f54-30a9-472a-bd3e-e6f9415f06ba.root   | (None) | ad:015289d0 | 58.594 MB  |          |
| cms:/store/mc/Run3Summer22NanoAODv12/Wto2Q-3Jets_HT-200to400_TuneCP5_13p6TeV_madgraphMLM-pythia8/NANOAODSIM/130X_mcRun3_2022_realistic_v5-v2/2540000/586620d7-d372-42bb-9437-64b064d09626.root | (None) | ad:da593e2a | 37.218 MB  |          |
| cms:/store/mc/Run3Summer22NanoAODv12/Wto2Q-3Jets_HT-200to400_TuneCP5_13p6TeV_madgraphMLM-pythia8/NANOAODSIM/130X_mcRun3_2022_realistic_v5-v2/2530000/020c5452-3973-471b-99b1-ac648cc6e584.root | (None) | ad:641bb8ac | 5.408 MB   |          |
| cms:/store/mc/Run3Summer22NanoAODv12/Wto2Q-3Jets_HT-200to400_TuneCP5_13p6TeV_madgraphMLM-pythia8/NANOAODSIM/130X_mcRun3_2022_realistic_v5-v2/40000/24ec5507-6bf6-46e0-a5e5-7d101061a9af.root   | (None) | ad:ea3a1b41 | 7.317 MB   |          |
| cms:/store/mc/Run3Summer22NanoAODv12/Wto2Q-3Jets_HT-200to400_TuneCP5_13p6TeV_madgraphMLM-pythia8/NANOAODSIM/130X_mcRun3_2022_realistic_v5-v2/30000/8019b21c-888d-431d-b359-fac9b6885a62.root   | (None) | ad:135750e4 | 12.865 MB  |          |
| cms:/store/mc/Run3Summer22NanoAODv12/Wto2Q-3Jets_HT-200to400_TuneCP5_13p6TeV_madgraphMLM-pythia8/NANOAODSIM/130X_mcRun3_2022_realistic_v5-v2/2540000/af58e9dc-dbeb-464f-be30-6d4c28d0e12e.root | (None) | ad:4da6d346 | 172.907 MB |          |
| cms:/store/mc/Run3Summer22NanoAODv12/Wto2Q-3Jets_HT-200to400_TuneCP5_13p6TeV_madgraphMLM-pythia8/NANOAODSIM/130X_mcRun3_2022_realistic_v5-v2/2530000/d28388ed-7521-4708-8c6c-59bf312b4ddf.root | (None) | ad:362e5083 | 15.789 MB  |          |
| cms:/store/mc/Run3Summer22NanoAODv12/Wto2Q-3Jets_HT-200to400_TuneCP5_13p6TeV_madgraphMLM-pythia8/NANOAODSIM/130X_mcRun3_2022_realistic_v5-v2/50000/79c65426-b2b0-4620-a01d-6e0d4d378451.root   | (None) | ad:756c82f2 | 49.002 MB  |          |
| cms:/store/mc/Run3Summer22NanoAODv12/Wto2Q-3Jets_HT-200to400_TuneCP5_13p6TeV_madgraphMLM-pythia8/NANOAODSIM/130X_mcRun3_2022_realistic_v5-v2/50000/175630a0-8112-4ce9-a36e-d2843615ec22.root   | (None) | ad:6501ba7b | 15.793 MB  |          |
| cms:/store/mc/Run3Summer22NanoAODv12/Wto2Q-3Jets_HT-200to400_TuneCP5_13p6TeV_madgraphMLM-pythia8/NANOAODSIM/130X_mcRun3_2022_realistic_v5-v2/50000/c59bd7a2-eee3-4586-b641-1bd27686d8d4.root   | (None) | ad:40f7b0a5 | 49.621 MB  |          |
| cms:/store/mc/Run3Summer22NanoAODv12/Wto2Q-3Jets_HT-200to400_TuneCP5_13p6TeV_madgraphMLM-pythia8/NANOAODSIM/130X_mcRun3_2022_realistic_v5-v2/40000/610a5b74-27e9-48dd-b96a-fbb436ad78b0.root   | (None) | ad:8f26f729 | 44.768 MB  |          |
| cms:/store/mc/Run3Summer22NanoAODv12/Wto2Q-3Jets_HT-200to400_TuneCP5_13p6TeV_madgraphMLM-pythia8/NANOAODSIM/130X_mcRun3_2022_realistic_v5-v2/40000/087a525d-d530-4346-82f2-907b41a4ffd9.root   | (None) | ad:6e6b4e89 | 21.160 MB  |          |
| cms:/store/mc/Run3Summer22NanoAODv12/Wto2Q-3Jets_HT-200to400_TuneCP5_13p6TeV_madgraphMLM-pythia8/NANOAODSIM/130X_mcRun3_2022_realistic_v5-v2/2520000/351b2cc8-f730-4dcf-bf74-a395d4db8904.root | (None) | ad:c2192668 | 12.909 MB  |          |
+------------------------------------------------------------------------------------------------------------------------------------------------------------------------------------------------+--------+-------------+------------+----------+
Total files : 20
Total size : 1.092 GB
