{
    "cms:/store/mc/Run3Summer22NanoAODv12/Wto2Q-3Jets_HT-600to800_TuneCP5_13p6TeV_madgraphMLM-pythia8/NANOAODSIM/130X_mcRun3_2022_realistic_v5-v2/40000/c6e23892-12c7-4ea9-84c9-89456e161eb4.root": [
        "T1_US_FNAL_Disk: davs://cmsdcadisk.fnal.gov:2880/dcache/uscmsdisk/store/mc/Run3Summer22NanoAODv12/Wto2Q-3Jets_HT-600to800_TuneCP5_13p6TeV_madgraphMLM-pythia8/NANOAODSIM/130X_mcRun3_2022_realistic_v5-v2/40000/c6e23892-12c7-4ea9-84c9-89456e161eb4.root",
        "T2_CH_CSCS: davs://storage01.lcg.cscs.ch:2880/pnfs/lcg.cscs.ch/cms/trivcat/store/mc/Run3Summer22NanoAODv12/Wto2Q-3Jets_HT-600to800_TuneCP5_13p6TeV_madgraphMLM-pythia8/NANOAODSIM/130X_mcRun3_2022_realistic_v5-v2/40000/c6e23892-12c7-4ea9-84c9-89456e161eb4.root",
        "T1_DE_KIT_Disk: davs://cmsdcache-kit-disk.gridka.de:2880/pnfs/gridka.de/cms/disk-only/store/mc/Run3Summer22NanoAODv12/Wto2Q-3Jets_HT-600to800_TuneCP5_13p6TeV_madgraphMLM-pythia8/NANOAODSIM/130X_mcRun3_2022_realistic_v5-v2/40000/c6e23892-12c7-4ea9-84c9-89456e161eb4.root",
        "T2_US_MIT: davs://xrootd.cmsaf.mit.edu:1094/store/mc/Run3Summer22NanoAODv12/Wto2Q-3Jets_HT-600to800_TuneCP5_13p6TeV_madgraphMLM-pythia8/NANOAODSIM/130X_mcRun3_2022_realistic_v5-v2/40000/c6e23892-12c7-4ea9-84c9-89456e161eb4.root",
        "T1_FR_CCIN2P3_Tape: davs://ccdavcms-tape.in2p3.fr:2880/data/store/mc/Run3Summer22NanoAODv12/Wto2Q-3Jets_HT-600to800_TuneCP5_13p6TeV_madgraphMLM-pythia8/NANOAODSIM/130X_mcRun3_2022_realistic_v5-v2/40000/c6e23892-12c7-4ea9-84c9-89456e161eb4.root",
        "T2_US_Vanderbilt: davs://xrootd-vanderbilt.sites.opensciencegrid.org:1094/store/mc/Run3Summer22NanoAODv12/Wto2Q-3Jets_HT-600to800_TuneCP5_13p6TeV_madgraphMLM-pythia8/NANOAODSIM/130X_mcRun3_2022_realistic_v5-v2/40000/c6e23892-12c7-4ea9-84c9-89456e161eb4.root",
        "T2_BE_UCL: davs://ingrid-se02.cism.ucl.ac.be:1094/store/mc/Run3Summer22NanoAODv12/Wto2Q-3Jets_HT-600to800_TuneCP5_13p6TeV_madgraphMLM-pythia8/NANOAODSIM/130X_mcRun3_2022_realistic_v5-v2/40000/c6e23892-12c7-4ea9-84c9-89456e161eb4.root",
        "T1_RU_JINR_Disk: davs://se-wbdv.jinr-t1.ru:2880/pnfs/jinr-t1.ru/data/cms/store/mc/Run3Summer22NanoAODv12/Wto2Q-3Jets_HT-600to800_TuneCP5_13p6TeV_madgraphMLM-pythia8/NANOAODSIM/130X_mcRun3_2022_realistic_v5-v2/40000/c6e23892-12c7-4ea9-84c9-89456e161eb4.root"
    ],
    "cms:/store/mc/Run3Summer22NanoAODv12/Wto2Q-3Jets_HT-600to800_TuneCP5_13p6TeV_madgraphMLM-pythia8/NANOAODSIM/130X_mcRun3_2022_realistic_v5-v2/40000/c705630e-14b4-4a55-9bf4-235a320a4d1a.root": [
        "T1_US_FNAL_Disk: davs://cmsdcadisk.fnal.gov:2880/dcache/uscmsdisk/store/mc/Run3Summer22NanoAODv12/Wto2Q-3Jets_HT-600to800_TuneCP5_13p6TeV_madgraphMLM-pythia8/NANOAODSIM/130X_mcRun3_2022_realistic_v5-v2/40000/c705630e-14b4-4a55-9bf4-235a320a4d1a.root",
        "T2_CH_CSCS: davs://storage01.lcg.cscs.ch:2880/pnfs/lcg.cscs.ch/cms/trivcat/store/mc/Run3Summer22NanoAODv12/Wto2Q-3Jets_HT-600to800_TuneCP5_13p6TeV_madgraphMLM-pythia8/NANOAODSIM/130X_mcRun3_2022_realistic_v5-v2/40000/c705630e-14b4-4a55-9bf4-235a320a4d1a.root",
        "T1_DE_KIT_Disk: davs://cmsdcache-kit-disk.gridka.de:2880/pnfs/gridka.de/cms/disk-only/store/mc/Run3Summer22NanoAODv12/Wto2Q-3Jets_HT-600to800_TuneCP5_13p6TeV_madgraphMLM-pythia8/NANOAODSIM/130X_mcRun3_2022_realistic_v5-v2/40000/c705630e-14b4-4a55-9bf4-235a320a4d1a.root",
        "T2_US_MIT: davs://xrootd.cmsaf.mit.edu:1094/store/mc/Run3Summer22NanoAODv12/Wto2Q-3Jets_HT-600to800_TuneCP5_13p6TeV_madgraphMLM-pythia8/NANOAODSIM/130X_mcRun3_2022_realistic_v5-v2/40000/c705630e-14b4-4a55-9bf4-235a320a4d1a.root",
        "T1_FR_CCIN2P3_Tape: davs://ccdavcms-tape.in2p3.fr:2880/data/store/mc/Run3Summer22NanoAODv12/Wto2Q-3Jets_HT-600to800_TuneCP5_13p6TeV_madgraphMLM-pythia8/NANOAODSIM/130X_mcRun3_2022_realistic_v5-v2/40000/c705630e-14b4-4a55-9bf4-235a320a4d1a.root",
        "T2_US_Vanderbilt: davs://xrootd-vanderbilt.sites.opensciencegrid.org:1094/store/mc/Run3Summer22NanoAODv12/Wto2Q-3Jets_HT-600to800_TuneCP5_13p6TeV_madgraphMLM-pythia8/NANOAODSIM/130X_mcRun3_2022_realistic_v5-v2/40000/c705630e-14b4-4a55-9bf4-235a320a4d1a.root",
        "T2_BE_UCL: davs://ingrid-se02.cism.ucl.ac.be:1094/store/mc/Run3Summer22NanoAODv12/Wto2Q-3Jets_HT-600to800_TuneCP5_13p6TeV_madgraphMLM-pythia8/NANOAODSIM/130X_mcRun3_2022_realistic_v5-v2/40000/c705630e-14b4-4a55-9bf4-235a320a4d1a.root",
        "T2_IT_Pisa: davs://stwebdav.pi.infn.it:8443/cms/store/mc/Run3Summer22NanoAODv12/Wto2Q-3Jets_HT-600to800_TuneCP5_13p6TeV_madgraphMLM-pythia8/NANOAODSIM/130X_mcRun3_2022_realistic_v5-v2/40000/c705630e-14b4-4a55-9bf4-235a320a4d1a.root",
        "T1_RU_JINR_Disk: davs://se-wbdv.jinr-t1.ru:2880/pnfs/jinr-t1.ru/data/cms/store/mc/Run3Summer22NanoAODv12/Wto2Q-3Jets_HT-600to800_TuneCP5_13p6TeV_madgraphMLM-pythia8/NANOAODSIM/130X_mcRun3_2022_realistic_v5-v2/40000/c705630e-14b4-4a55-9bf4-235a320a4d1a.root"
    ],
    "cms:/store/mc/Run3Summer22NanoAODv12/Wto2Q-3Jets_HT-600to800_TuneCP5_13p6TeV_madgraphMLM-pythia8/NANOAODSIM/130X_mcRun3_2022_realistic_v5-v2/30000/706fed71-bd85-4421-b4ae-0524b16e0cf2.root": [
        "T1_US_FNAL_Disk: davs://cmsdcadisk.fnal.gov:2880/dcache/uscmsdisk/store/mc/Run3Summer22NanoAODv12/Wto2Q-3Jets_HT-600to800_TuneCP5_13p6TeV_madgraphMLM-pythia8/NANOAODSIM/130X_mcRun3_2022_realistic_v5-v2/30000/706fed71-bd85-4421-b4ae-0524b16e0cf2.root",
        "T2_CH_CSCS: davs://storage01.lcg.cscs.ch:2880/pnfs/lcg.cscs.ch/cms/trivcat/store/mc/Run3Summer22NanoAODv12/Wto2Q-3Jets_HT-600to800_TuneCP5_13p6TeV_madgraphMLM-pythia8/NANOAODSIM/130X_mcRun3_2022_realistic_v5-v2/30000/706fed71-bd85-4421-b4ae-0524b16e0cf2.root",
        "T1_DE_KIT_Disk: davs://cmsdcache-kit-disk.gridka.de:2880/pnfs/gridka.de/cms/disk-only/store/mc/Run3Summer22NanoAODv12/Wto2Q-3Jets_HT-600to800_TuneCP5_13p6TeV_madgraphMLM-pythia8/NANOAODSIM/130X_mcRun3_2022_realistic_v5-v2/30000/706fed71-bd85-4421-b4ae-0524b16e0cf2.root",
        "T2_US_MIT: davs://xrootd.cmsaf.mit.edu:1094/store/mc/Run3Summer22NanoAODv12/Wto2Q-3Jets_HT-600to800_TuneCP5_13p6TeV_madgraphMLM-pythia8/NANOAODSIM/130X_mcRun3_2022_realistic_v5-v2/30000/706fed71-bd85-4421-b4ae-0524b16e0cf2.root",
        "T1_FR_CCIN2P3_Tape: davs://ccdavcms-tape.in2p3.fr:2880/data/store/mc/Run3Summer22NanoAODv12/Wto2Q-3Jets_HT-600to800_TuneCP5_13p6TeV_madgraphMLM-pythia8/NANOAODSIM/130X_mcRun3_2022_realistic_v5-v2/30000/706fed71-bd85-4421-b4ae-0524b16e0cf2.root",
        "T2_US_Vanderbilt: davs://xrootd-vanderbilt.sites.opensciencegrid.org:1094/store/mc/Run3Summer22NanoAODv12/Wto2Q-3Jets_HT-600to800_TuneCP5_13p6TeV_madgraphMLM-pythia8/NANOAODSIM/130X_mcRun3_2022_realistic_v5-v2/30000/706fed71-bd85-4421-b4ae-0524b16e0cf2.root",
        "T2_BE_UCL: davs://ingrid-se02.cism.ucl.ac.be:1094/store/mc/Run3Summer22NanoAODv12/Wto2Q-3Jets_HT-600to800_TuneCP5_13p6TeV_madgraphMLM-pythia8/NANOAODSIM/130X_mcRun3_2022_realistic_v5-v2/30000/706fed71-bd85-4421-b4ae-0524b16e0cf2.root",
        "T1_RU_JINR_Disk: davs://se-wbdv.jinr-t1.ru:2880/pnfs/jinr-t1.ru/data/cms/store/mc/Run3Summer22NanoAODv12/Wto2Q-3Jets_HT-600to800_TuneCP5_13p6TeV_madgraphMLM-pythia8/NANOAODSIM/130X_mcRun3_2022_realistic_v5-v2/30000/706fed71-bd85-4421-b4ae-0524b16e0cf2.root"
    ],
    "cms:/store/mc/Run3Summer22NanoAODv12/Wto2Q-3Jets_HT-600to800_TuneCP5_13p6TeV_madgraphMLM-pythia8/NANOAODSIM/130X_mcRun3_2022_realistic_v5-v2/40000/a94f66ad-5aff-4f01-ab93-3548b7df8730.root": [
        "T2_CH_CSCS: davs://storage01.lcg.cscs.ch:2880/pnfs/lcg.cscs.ch/cms/trivcat/store/mc/Run3Summer22NanoAODv12/Wto2Q-3Jets_HT-600to800_TuneCP5_13p6TeV_madgraphMLM-pythia8/NANOAODSIM/130X_mcRun3_2022_realistic_v5-v2/40000/a94f66ad-5aff-4f01-ab93-3548b7df8730.root",
        "T1_DE_KIT_Disk: davs://cmsdcache-kit-disk.gridka.de:2880/pnfs/gridka.de/cms/disk-only/store/mc/Run3Summer22NanoAODv12/Wto2Q-3Jets_HT-600to800_TuneCP5_13p6TeV_madgraphMLM-pythia8/NANOAODSIM/130X_mcRun3_2022_realistic_v5-v2/40000/a94f66ad-5aff-4f01-ab93-3548b7df8730.root",
        "T2_US_MIT: davs://xrootd.cmsaf.mit.edu:1094/store/mc/Run3Summer22NanoAODv12/Wto2Q-3Jets_HT-600to800_TuneCP5_13p6TeV_madgraphMLM-pythia8/NANOAODSIM/130X_mcRun3_2022_realistic_v5-v2/40000/a94f66ad-5aff-4f01-ab93-3548b7df8730.root",
        "T1_FR_CCIN2P3_Tape: davs://ccdavcms-tape.in2p3.fr:2880/data/store/mc/Run3Summer22NanoAODv12/Wto2Q-3Jets_HT-600to800_TuneCP5_13p6TeV_madgraphMLM-pythia8/NANOAODSIM/130X_mcRun3_2022_realistic_v5-v2/40000/a94f66ad-5aff-4f01-ab93-3548b7df8730.root",
        "T2_US_Vanderbilt: davs://xrootd-vanderbilt.sites.opensciencegrid.org:1094/store/mc/Run3Summer22NanoAODv12/Wto2Q-3Jets_HT-600to800_TuneCP5_13p6TeV_madgraphMLM-pythia8/NANOAODSIM/130X_mcRun3_2022_realistic_v5-v2/40000/a94f66ad-5aff-4f01-ab93-3548b7df8730.root",
        "T2_BE_UCL: davs://ingrid-se02.cism.ucl.ac.be:1094/store/mc/Run3Summer22NanoAODv12/Wto2Q-3Jets_HT-600to800_TuneCP5_13p6TeV_madgraphMLM-pythia8/NANOAODSIM/130X_mcRun3_2022_realistic_v5-v2/40000/a94f66ad-5aff-4f01-ab93-3548b7df8730.root",
        "T1_RU_JINR_Disk: davs://se-wbdv.jinr-t1.ru:2880/pnfs/jinr-t1.ru/data/cms/store/mc/Run3Summer22NanoAODv12/Wto2Q-3Jets_HT-600to800_TuneCP5_13p6TeV_madgraphMLM-pythia8/NANOAODSIM/130X_mcRun3_2022_realistic_v5-v2/40000/a94f66ad-5aff-4f01-ab93-3548b7df8730.root"
    ],
    "cms:/store/mc/Run3Summer22NanoAODv12/Wto2Q-3Jets_HT-600to800_TuneCP5_13p6TeV_madgraphMLM-pythia8/NANOAODSIM/130X_mcRun3_2022_realistic_v5-v2/30000/e6654d49-e9dc-45a4-a959-d44e43963f80.root": [
        "T1_US_FNAL_Disk: davs://cmsdcadisk.fnal.gov:2880/dcache/uscmsdisk/store/mc/Run3Summer22NanoAODv12/Wto2Q-3Jets_HT-600to800_TuneCP5_13p6TeV_madgraphMLM-pythia8/NANOAODSIM/130X_mcRun3_2022_realistic_v5-v2/30000/e6654d49-e9dc-45a4-a959-d44e43963f80.root",
        "T2_CH_CSCS: davs://storage01.lcg.cscs.ch:2880/pnfs/lcg.cscs.ch/cms/trivcat/store/mc/Run3Summer22NanoAODv12/Wto2Q-3Jets_HT-600to800_TuneCP5_13p6TeV_madgraphMLM-pythia8/NANOAODSIM/130X_mcRun3_2022_realistic_v5-v2/30000/e6654d49-e9dc-45a4-a959-d44e43963f80.root",
        "T1_DE_KIT_Disk: davs://cmsdcache-kit-disk.gridka.de:2880/pnfs/gridka.de/cms/disk-only/store/mc/Run3Summer22NanoAODv12/Wto2Q-3Jets_HT-600to800_TuneCP5_13p6TeV_madgraphMLM-pythia8/NANOAODSIM/130X_mcRun3_2022_realistic_v5-v2/30000/e6654d49-e9dc-45a4-a959-d44e43963f80.root",
        "T2_US_MIT: davs://xrootd.cmsaf.mit.edu:1094/store/mc/Run3Summer22NanoAODv12/Wto2Q-3Jets_HT-600to800_TuneCP5_13p6TeV_madgraphMLM-pythia8/NANOAODSIM/130X_mcRun3_2022_realistic_v5-v2/30000/e6654d49-e9dc-45a4-a959-d44e43963f80.root",
        "T1_FR_CCIN2P3_Tape: davs://ccdavcms-tape.in2p3.fr:2880/data/store/mc/Run3Summer22NanoAODv12/Wto2Q-3Jets_HT-600to800_TuneCP5_13p6TeV_madgraphMLM-pythia8/NANOAODSIM/130X_mcRun3_2022_realistic_v5-v2/30000/e6654d49-e9dc-45a4-a959-d44e43963f80.root",
        "T2_US_Vanderbilt: davs://xrootd-vanderbilt.sites.opensciencegrid.org:1094/store/mc/Run3Summer22NanoAODv12/Wto2Q-3Jets_HT-600to800_TuneCP5_13p6TeV_madgraphMLM-pythia8/NANOAODSIM/130X_mcRun3_2022_realistic_v5-v2/30000/e6654d49-e9dc-45a4-a959-d44e43963f80.root",
        "T2_BE_UCL: davs://ingrid-se02.cism.ucl.ac.be:1094/store/mc/Run3Summer22NanoAODv12/Wto2Q-3Jets_HT-600to800_TuneCP5_13p6TeV_madgraphMLM-pythia8/NANOAODSIM/130X_mcRun3_2022_realistic_v5-v2/30000/e6654d49-e9dc-45a4-a959-d44e43963f80.root",
        "T1_RU_JINR_Disk: davs://se-wbdv.jinr-t1.ru:2880/pnfs/jinr-t1.ru/data/cms/store/mc/Run3Summer22NanoAODv12/Wto2Q-3Jets_HT-600to800_TuneCP5_13p6TeV_madgraphMLM-pythia8/NANOAODSIM/130X_mcRun3_2022_realistic_v5-v2/30000/e6654d49-e9dc-45a4-a959-d44e43963f80.root"
    ],
    "cms:/store/mc/Run3Summer22NanoAODv12/Wto2Q-3Jets_HT-600to800_TuneCP5_13p6TeV_madgraphMLM-pythia8/NANOAODSIM/130X_mcRun3_2022_realistic_v5-v2/30000/78c101e6-2d6c-4ef8-98e9-2eb03921eed1.root": [
        "T1_US_FNAL_Disk: davs://cmsdcadisk.fnal.gov:2880/dcache/uscmsdisk/store/mc/Run3Summer22NanoAODv12/Wto2Q-3Jets_HT-600to800_TuneCP5_13p6TeV_madgraphMLM-pythia8/NANOAODSIM/130X_mcRun3_2022_realistic_v5-v2/30000/78c101e6-2d6c-4ef8-98e9-2eb03921eed1.root",
        "T2_CH_CSCS: davs://storage01.lcg.cscs.ch:2880/pnfs/lcg.cscs.ch/cms/trivcat/store/mc/Run3Summer22NanoAODv12/Wto2Q-3Jets_HT-600to800_TuneCP5_13p6TeV_madgraphMLM-pythia8/NANOAODSIM/130X_mcRun3_2022_realistic_v5-v2/30000/78c101e6-2d6c-4ef8-98e9-2eb03921eed1.root",
        "T1_DE_KIT_Disk: davs://cmsdcache-kit-disk.gridka.de:2880/pnfs/gridka.de/cms/disk-only/store/mc/Run3Summer22NanoAODv12/Wto2Q-3Jets_HT-600to800_TuneCP5_13p6TeV_madgraphMLM-pythia8/NANOAODSIM/130X_mcRun3_2022_realistic_v5-v2/30000/78c101e6-2d6c-4ef8-98e9-2eb03921eed1.root",
        "T2_US_MIT: davs://xrootd.cmsaf.mit.edu:1094/store/mc/Run3Summer22NanoAODv12/Wto2Q-3Jets_HT-600to800_TuneCP5_13p6TeV_madgraphMLM-pythia8/NANOAODSIM/130X_mcRun3_2022_realistic_v5-v2/30000/78c101e6-2d6c-4ef8-98e9-2eb03921eed1.root",
        "T1_FR_CCIN2P3_Tape: davs://ccdavcms-tape.in2p3.fr:2880/data/store/mc/Run3Summer22NanoAODv12/Wto2Q-3Jets_HT-600to800_TuneCP5_13p6TeV_madgraphMLM-pythia8/NANOAODSIM/130X_mcRun3_2022_realistic_v5-v2/30000/78c101e6-2d6c-4ef8-98e9-2eb03921eed1.root",
        "T2_US_Vanderbilt: davs://xrootd-vanderbilt.sites.opensciencegrid.org:1094/store/mc/Run3Summer22NanoAODv12/Wto2Q-3Jets_HT-600to800_TuneCP5_13p6TeV_madgraphMLM-pythia8/NANOAODSIM/130X_mcRun3_2022_realistic_v5-v2/30000/78c101e6-2d6c-4ef8-98e9-2eb03921eed1.root",
        "T2_BE_UCL: davs://ingrid-se02.cism.ucl.ac.be:1094/store/mc/Run3Summer22NanoAODv12/Wto2Q-3Jets_HT-600to800_TuneCP5_13p6TeV_madgraphMLM-pythia8/NANOAODSIM/130X_mcRun3_2022_realistic_v5-v2/30000/78c101e6-2d6c-4ef8-98e9-2eb03921eed1.root",
        "T1_RU_JINR_Disk: davs://se-wbdv.jinr-t1.ru:2880/pnfs/jinr-t1.ru/data/cms/store/mc/Run3Summer22NanoAODv12/Wto2Q-3Jets_HT-600to800_TuneCP5_13p6TeV_madgraphMLM-pythia8/NANOAODSIM/130X_mcRun3_2022_realistic_v5-v2/30000/78c101e6-2d6c-4ef8-98e9-2eb03921eed1.root"
    ],
    "cms:/store/mc/Run3Summer22NanoAODv12/Wto2Q-3Jets_HT-600to800_TuneCP5_13p6TeV_madgraphMLM-pythia8/NANOAODSIM/130X_mcRun3_2022_realistic_v5-v2/30000/6ae08b9b-825f-4123-93a6-274dda0db42f.root": [
        "T1_US_FNAL_Disk: davs://cmsdcadisk.fnal.gov:2880/dcache/uscmsdisk/store/mc/Run3Summer22NanoAODv12/Wto2Q-3Jets_HT-600to800_TuneCP5_13p6TeV_madgraphMLM-pythia8/NANOAODSIM/130X_mcRun3_2022_realistic_v5-v2/30000/6ae08b9b-825f-4123-93a6-274dda0db42f.root",
        "T2_CH_CSCS: davs://storage01.lcg.cscs.ch:2880/pnfs/lcg.cscs.ch/cms/trivcat/store/mc/Run3Summer22NanoAODv12/Wto2Q-3Jets_HT-600to800_TuneCP5_13p6TeV_madgraphMLM-pythia8/NANOAODSIM/130X_mcRun3_2022_realistic_v5-v2/30000/6ae08b9b-825f-4123-93a6-274dda0db42f.root",
        "T1_DE_KIT_Disk: davs://cmsdcache-kit-disk.gridka.de:2880/pnfs/gridka.de/cms/disk-only/store/mc/Run3Summer22NanoAODv12/Wto2Q-3Jets_HT-600to800_TuneCP5_13p6TeV_madgraphMLM-pythia8/NANOAODSIM/130X_mcRun3_2022_realistic_v5-v2/30000/6ae08b9b-825f-4123-93a6-274dda0db42f.root",
        "T2_US_MIT: davs://xrootd.cmsaf.mit.edu:1094/store/mc/Run3Summer22NanoAODv12/Wto2Q-3Jets_HT-600to800_TuneCP5_13p6TeV_madgraphMLM-pythia8/NANOAODSIM/130X_mcRun3_2022_realistic_v5-v2/30000/6ae08b9b-825f-4123-93a6-274dda0db42f.root",
        "T1_FR_CCIN2P3_Tape: davs://ccdavcms-tape.in2p3.fr:2880/data/store/mc/Run3Summer22NanoAODv12/Wto2Q-3Jets_HT-600to800_TuneCP5_13p6TeV_madgraphMLM-pythia8/NANOAODSIM/130X_mcRun3_2022_realistic_v5-v2/30000/6ae08b9b-825f-4123-93a6-274dda0db42f.root",
        "T2_US_Vanderbilt: davs://xrootd-vanderbilt.sites.opensciencegrid.org:1094/store/mc/Run3Summer22NanoAODv12/Wto2Q-3Jets_HT-600to800_TuneCP5_13p6TeV_madgraphMLM-pythia8/NANOAODSIM/130X_mcRun3_2022_realistic_v5-v2/30000/6ae08b9b-825f-4123-93a6-274dda0db42f.root",
        "T2_BE_UCL: davs://ingrid-se02.cism.ucl.ac.be:1094/store/mc/Run3Summer22NanoAODv12/Wto2Q-3Jets_HT-600to800_TuneCP5_13p6TeV_madgraphMLM-pythia8/NANOAODSIM/130X_mcRun3_2022_realistic_v5-v2/30000/6ae08b9b-825f-4123-93a6-274dda0db42f.root",
        "T1_RU_JINR_Disk: davs://se-wbdv.jinr-t1.ru:2880/pnfs/jinr-t1.ru/data/cms/store/mc/Run3Summer22NanoAODv12/Wto2Q-3Jets_HT-600to800_TuneCP5_13p6TeV_madgraphMLM-pythia8/NANOAODSIM/130X_mcRun3_2022_realistic_v5-v2/30000/6ae08b9b-825f-4123-93a6-274dda0db42f.root"
    ],
    "cms:/store/mc/Run3Summer22NanoAODv12/Wto2Q-3Jets_HT-600to800_TuneCP5_13p6TeV_madgraphMLM-pythia8/NANOAODSIM/130X_mcRun3_2022_realistic_v5-v2/30000/2c702632-408c-42b5-bf5c-17589aa34faf.root": [
        "T1_US_FNAL_Disk: davs://cmsdcadisk.fnal.gov:2880/dcache/uscmsdisk/store/mc/Run3Summer22NanoAODv12/Wto2Q-3Jets_HT-600to800_TuneCP5_13p6TeV_madgraphMLM-pythia8/NANOAODSIM/130X_mcRun3_2022_realistic_v5-v2/30000/2c702632-408c-42b5-bf5c-17589aa34faf.root",
        "T2_CH_CSCS: davs://storage01.lcg.cscs.ch:2880/pnfs/lcg.cscs.ch/cms/trivcat/store/mc/Run3Summer22NanoAODv12/Wto2Q-3Jets_HT-600to800_TuneCP5_13p6TeV_madgraphMLM-pythia8/NANOAODSIM/130X_mcRun3_2022_realistic_v5-v2/30000/2c702632-408c-42b5-bf5c-17589aa34faf.root",
        "T1_DE_KIT_Disk: davs://cmsdcache-kit-disk.gridka.de:2880/pnfs/gridka.de/cms/disk-only/store/mc/Run3Summer22NanoAODv12/Wto2Q-3Jets_HT-600to800_TuneCP5_13p6TeV_madgraphMLM-pythia8/NANOAODSIM/130X_mcRun3_2022_realistic_v5-v2/30000/2c702632-408c-42b5-bf5c-17589aa34faf.root",
        "T2_US_MIT: davs://xrootd.cmsaf.mit.edu:1094/store/mc/Run3Summer22NanoAODv12/Wto2Q-3Jets_HT-600to800_TuneCP5_13p6TeV_madgraphMLM-pythia8/NANOAODSIM/130X_mcRun3_2022_realistic_v5-v2/30000/2c702632-408c-42b5-bf5c-17589aa34faf.root",
        "T1_FR_CCIN2P3_Tape: davs://ccdavcms-tape.in2p3.fr:2880/data/store/mc/Run3Summer22NanoAODv12/Wto2Q-3Jets_HT-600to800_TuneCP5_13p6TeV_madgraphMLM-pythia8/NANOAODSIM/130X_mcRun3_2022_realistic_v5-v2/30000/2c702632-408c-42b5-bf5c-17589aa34faf.root",
        "T2_US_Vanderbilt: davs://xrootd-vanderbilt.sites.opensciencegrid.org:1094/store/mc/Run3Summer22NanoAODv12/Wto2Q-3Jets_HT-600to800_TuneCP5_13p6TeV_madgraphMLM-pythia8/NANOAODSIM/130X_mcRun3_2022_realistic_v5-v2/30000/2c702632-408c-42b5-bf5c-17589aa34faf.root",
        "T2_BE_UCL: davs://ingrid-se02.cism.ucl.ac.be:1094/store/mc/Run3Summer22NanoAODv12/Wto2Q-3Jets_HT-600to800_TuneCP5_13p6TeV_madgraphMLM-pythia8/NANOAODSIM/130X_mcRun3_2022_realistic_v5-v2/30000/2c702632-408c-42b5-bf5c-17589aa34faf.root",
        "T1_RU_JINR_Disk: davs://se-wbdv.jinr-t1.ru:2880/pnfs/jinr-t1.ru/data/cms/store/mc/Run3Summer22NanoAODv12/Wto2Q-3Jets_HT-600to800_TuneCP5_13p6TeV_madgraphMLM-pythia8/NANOAODSIM/130X_mcRun3_2022_realistic_v5-v2/30000/2c702632-408c-42b5-bf5c-17589aa34faf.root"
    ],
    "cms:/store/mc/Run3Summer22NanoAODv12/Wto2Q-3Jets_HT-600to800_TuneCP5_13p6TeV_madgraphMLM-pythia8/NANOAODSIM/130X_mcRun3_2022_realistic_v5-v2/30000/8bfb39cc-05b4-46a3-afb2-688c9c9929f4.root": [
        "T1_US_FNAL_Disk: davs://cmsdcadisk.fnal.gov:2880/dcache/uscmsdisk/store/mc/Run3Summer22NanoAODv12/Wto2Q-3Jets_HT-600to800_TuneCP5_13p6TeV_madgraphMLM-pythia8/NANOAODSIM/130X_mcRun3_2022_realistic_v5-v2/30000/8bfb39cc-05b4-46a3-afb2-688c9c9929f4.root",
        "T2_CH_CSCS: davs://storage01.lcg.cscs.ch:2880/pnfs/lcg.cscs.ch/cms/trivcat/store/mc/Run3Summer22NanoAODv12/Wto2Q-3Jets_HT-600to800_TuneCP5_13p6TeV_madgraphMLM-pythia8/NANOAODSIM/130X_mcRun3_2022_realistic_v5-v2/30000/8bfb39cc-05b4-46a3-afb2-688c9c9929f4.root",
        "T1_DE_KIT_Disk: davs://cmsdcache-kit-disk.gridka.de:2880/pnfs/gridka.de/cms/disk-only/store/mc/Run3Summer22NanoAODv12/Wto2Q-3Jets_HT-600to800_TuneCP5_13p6TeV_madgraphMLM-pythia8/NANOAODSIM/130X_mcRun3_2022_realistic_v5-v2/30000/8bfb39cc-05b4-46a3-afb2-688c9c9929f4.root",
        "T2_US_MIT: davs://xrootd.cmsaf.mit.edu:1094/store/mc/Run3Summer22NanoAODv12/Wto2Q-3Jets_HT-600to800_TuneCP5_13p6TeV_madgraphMLM-pythia8/NANOAODSIM/130X_mcRun3_2022_realistic_v5-v2/30000/8bfb39cc-05b4-46a3-afb2-688c9c9929f4.root",
        "T1_FR_CCIN2P3_Tape: davs://ccdavcms-tape.in2p3.fr:2880/data/store/mc/Run3Summer22NanoAODv12/Wto2Q-3Jets_HT-600to800_TuneCP5_13p6TeV_madgraphMLM-pythia8/NANOAODSIM/130X_mcRun3_2022_realistic_v5-v2/30000/8bfb39cc-05b4-46a3-afb2-688c9c9929f4.root",
        "T2_US_Vanderbilt: davs://xrootd-vanderbilt.sites.opensciencegrid.org:1094/store/mc/Run3Summer22NanoAODv12/Wto2Q-3Jets_HT-600to800_TuneCP5_13p6TeV_madgraphMLM-pythia8/NANOAODSIM/130X_mcRun3_2022_realistic_v5-v2/30000/8bfb39cc-05b4-46a3-afb2-688c9c9929f4.root",
        "T2_BE_UCL: davs://ingrid-se02.cism.ucl.ac.be:1094/store/mc/Run3Summer22NanoAODv12/Wto2Q-3Jets_HT-600to800_TuneCP5_13p6TeV_madgraphMLM-pythia8/NANOAODSIM/130X_mcRun3_2022_realistic_v5-v2/30000/8bfb39cc-05b4-46a3-afb2-688c9c9929f4.root",
        "T1_RU_JINR_Disk: davs://se-wbdv.jinr-t1.ru:2880/pnfs/jinr-t1.ru/data/cms/store/mc/Run3Summer22NanoAODv12/Wto2Q-3Jets_HT-600to800_TuneCP5_13p6TeV_madgraphMLM-pythia8/NANOAODSIM/130X_mcRun3_2022_realistic_v5-v2/30000/8bfb39cc-05b4-46a3-afb2-688c9c9929f4.root"
    ],
    "cms:/store/mc/Run3Summer22NanoAODv12/Wto2Q-3Jets_HT-600to800_TuneCP5_13p6TeV_madgraphMLM-pythia8/NANOAODSIM/130X_mcRun3_2022_realistic_v5-v2/30000/b95ab8cc-7f38-4e57-b61e-42e504374d0c.root": [
        "T1_US_FNAL_Disk: davs://cmsdcadisk.fnal.gov:2880/dcache/uscmsdisk/store/mc/Run3Summer22NanoAODv12/Wto2Q-3Jets_HT-600to800_TuneCP5_13p6TeV_madgraphMLM-pythia8/NANOAODSIM/130X_mcRun3_2022_realistic_v5-v2/30000/b95ab8cc-7f38-4e57-b61e-42e504374d0c.root",
        "T2_CH_CSCS: davs://storage01.lcg.cscs.ch:2880/pnfs/lcg.cscs.ch/cms/trivcat/store/mc/Run3Summer22NanoAODv12/Wto2Q-3Jets_HT-600to800_TuneCP5_13p6TeV_madgraphMLM-pythia8/NANOAODSIM/130X_mcRun3_2022_realistic_v5-v2/30000/b95ab8cc-7f38-4e57-b61e-42e504374d0c.root",
        "T1_DE_KIT_Disk: davs://cmsdcache-kit-disk.gridka.de:2880/pnfs/gridka.de/cms/disk-only/store/mc/Run3Summer22NanoAODv12/Wto2Q-3Jets_HT-600to800_TuneCP5_13p6TeV_madgraphMLM-pythia8/NANOAODSIM/130X_mcRun3_2022_realistic_v5-v2/30000/b95ab8cc-7f38-4e57-b61e-42e504374d0c.root",
        "T2_US_MIT: davs://xrootd.cmsaf.mit.edu:1094/store/mc/Run3Summer22NanoAODv12/Wto2Q-3Jets_HT-600to800_TuneCP5_13p6TeV_madgraphMLM-pythia8/NANOAODSIM/130X_mcRun3_2022_realistic_v5-v2/30000/b95ab8cc-7f38-4e57-b61e-42e504374d0c.root",
        "T1_FR_CCIN2P3_Tape: davs://ccdavcms-tape.in2p3.fr:2880/data/store/mc/Run3Summer22NanoAODv12/Wto2Q-3Jets_HT-600to800_TuneCP5_13p6TeV_madgraphMLM-pythia8/NANOAODSIM/130X_mcRun3_2022_realistic_v5-v2/30000/b95ab8cc-7f38-4e57-b61e-42e504374d0c.root",
        "T2_US_Vanderbilt: davs://xrootd-vanderbilt.sites.opensciencegrid.org:1094/store/mc/Run3Summer22NanoAODv12/Wto2Q-3Jets_HT-600to800_TuneCP5_13p6TeV_madgraphMLM-pythia8/NANOAODSIM/130X_mcRun3_2022_realistic_v5-v2/30000/b95ab8cc-7f38-4e57-b61e-42e504374d0c.root",
        "T2_BE_UCL: davs://ingrid-se02.cism.ucl.ac.be:1094/store/mc/Run3Summer22NanoAODv12/Wto2Q-3Jets_HT-600to800_TuneCP5_13p6TeV_madgraphMLM-pythia8/NANOAODSIM/130X_mcRun3_2022_realistic_v5-v2/30000/b95ab8cc-7f38-4e57-b61e-42e504374d0c.root",
        "T1_RU_JINR_Disk: davs://se-wbdv.jinr-t1.ru:2880/pnfs/jinr-t1.ru/data/cms/store/mc/Run3Summer22NanoAODv12/Wto2Q-3Jets_HT-600to800_TuneCP5_13p6TeV_madgraphMLM-pythia8/NANOAODSIM/130X_mcRun3_2022_realistic_v5-v2/30000/b95ab8cc-7f38-4e57-b61e-42e504374d0c.root"
    ],
    "cms:/store/mc/Run3Summer22NanoAODv12/Wto2Q-3Jets_HT-600to800_TuneCP5_13p6TeV_madgraphMLM-pythia8/NANOAODSIM/130X_mcRun3_2022_realistic_v5-v2/30000/743f84bc-3079-4791-9d94-2f0089c25a53.root": [
        "T1_US_FNAL_Disk: davs://cmsdcadisk.fnal.gov:2880/dcache/uscmsdisk/store/mc/Run3Summer22NanoAODv12/Wto2Q-3Jets_HT-600to800_TuneCP5_13p6TeV_madgraphMLM-pythia8/NANOAODSIM/130X_mcRun3_2022_realistic_v5-v2/30000/743f84bc-3079-4791-9d94-2f0089c25a53.root",
        "T2_DE_DESY: davs://dcache-cms-webdav-wan.desy.de:2880/pnfs/desy.de/cms/tier2/store/mc/Run3Summer22NanoAODv12/Wto2Q-3Jets_HT-600to800_TuneCP5_13p6TeV_madgraphMLM-pythia8/NANOAODSIM/130X_mcRun3_2022_realistic_v5-v2/30000/743f84bc-3079-4791-9d94-2f0089c25a53.root",
        "T2_CH_CSCS: davs://storage01.lcg.cscs.ch:2880/pnfs/lcg.cscs.ch/cms/trivcat/store/mc/Run3Summer22NanoAODv12/Wto2Q-3Jets_HT-600to800_TuneCP5_13p6TeV_madgraphMLM-pythia8/NANOAODSIM/130X_mcRun3_2022_realistic_v5-v2/30000/743f84bc-3079-4791-9d94-2f0089c25a53.root",
        "T1_DE_KIT_Disk: davs://cmsdcache-kit-disk.gridka.de:2880/pnfs/gridka.de/cms/disk-only/store/mc/Run3Summer22NanoAODv12/Wto2Q-3Jets_HT-600to800_TuneCP5_13p6TeV_madgraphMLM-pythia8/NANOAODSIM/130X_mcRun3_2022_realistic_v5-v2/30000/743f84bc-3079-4791-9d94-2f0089c25a53.root",
        "T2_US_MIT: davs://xrootd.cmsaf.mit.edu:1094/store/mc/Run3Summer22NanoAODv12/Wto2Q-3Jets_HT-600to800_TuneCP5_13p6TeV_madgraphMLM-pythia8/NANOAODSIM/130X_mcRun3_2022_realistic_v5-v2/30000/743f84bc-3079-4791-9d94-2f0089c25a53.root",
        "T1_FR_CCIN2P3_Tape: davs://ccdavcms-tape.in2p3.fr:2880/data/store/mc/Run3Summer22NanoAODv12/Wto2Q-3Jets_HT-600to800_TuneCP5_13p6TeV_madgraphMLM-pythia8/NANOAODSIM/130X_mcRun3_2022_realistic_v5-v2/30000/743f84bc-3079-4791-9d94-2f0089c25a53.root",
        "T2_US_Vanderbilt: davs://xrootd-vanderbilt.sites.opensciencegrid.org:1094/store/mc/Run3Summer22NanoAODv12/Wto2Q-3Jets_HT-600to800_TuneCP5_13p6TeV_madgraphMLM-pythia8/NANOAODSIM/130X_mcRun3_2022_realistic_v5-v2/30000/743f84bc-3079-4791-9d94-2f0089c25a53.root",
        "T2_BE_UCL: davs://ingrid-se02.cism.ucl.ac.be:1094/store/mc/Run3Summer22NanoAODv12/Wto2Q-3Jets_HT-600to800_TuneCP5_13p6TeV_madgraphMLM-pythia8/NANOAODSIM/130X_mcRun3_2022_realistic_v5-v2/30000/743f84bc-3079-4791-9d94-2f0089c25a53.root",
        "T1_RU_JINR_Disk: davs://se-wbdv.jinr-t1.ru:2880/pnfs/jinr-t1.ru/data/cms/store/mc/Run3Summer22NanoAODv12/Wto2Q-3Jets_HT-600to800_TuneCP5_13p6TeV_madgraphMLM-pythia8/NANOAODSIM/130X_mcRun3_2022_realistic_v5-v2/30000/743f84bc-3079-4791-9d94-2f0089c25a53.root"
    ],
    "cms:/store/mc/Run3Summer22NanoAODv12/Wto2Q-3Jets_HT-600to800_TuneCP5_13p6TeV_madgraphMLM-pythia8/NANOAODSIM/130X_mcRun3_2022_realistic_v5-v2/30000/cd4765e5-a6e3-470e-949f-6c812e942030.root": [
        "T1_US_FNAL_Disk: davs://cmsdcadisk.fnal.gov:2880/dcache/uscmsdisk/store/mc/Run3Summer22NanoAODv12/Wto2Q-3Jets_HT-600to800_TuneCP5_13p6TeV_madgraphMLM-pythia8/NANOAODSIM/130X_mcRun3_2022_realistic_v5-v2/30000/cd4765e5-a6e3-470e-949f-6c812e942030.root",
        "T2_CH_CSCS: davs://storage01.lcg.cscs.ch:2880/pnfs/lcg.cscs.ch/cms/trivcat/store/mc/Run3Summer22NanoAODv12/Wto2Q-3Jets_HT-600to800_TuneCP5_13p6TeV_madgraphMLM-pythia8/NANOAODSIM/130X_mcRun3_2022_realistic_v5-v2/30000/cd4765e5-a6e3-470e-949f-6c812e942030.root",
        "T1_DE_KIT_Disk: davs://cmsdcache-kit-disk.gridka.de:2880/pnfs/gridka.de/cms/disk-only/store/mc/Run3Summer22NanoAODv12/Wto2Q-3Jets_HT-600to800_TuneCP5_13p6TeV_madgraphMLM-pythia8/NANOAODSIM/130X_mcRun3_2022_realistic_v5-v2/30000/cd4765e5-a6e3-470e-949f-6c812e942030.root",
        "T2_US_MIT: davs://xrootd.cmsaf.mit.edu:1094/store/mc/Run3Summer22NanoAODv12/Wto2Q-3Jets_HT-600to800_TuneCP5_13p6TeV_madgraphMLM-pythia8/NANOAODSIM/130X_mcRun3_2022_realistic_v5-v2/30000/cd4765e5-a6e3-470e-949f-6c812e942030.root",
        "T1_FR_CCIN2P3_Tape: davs://ccdavcms-tape.in2p3.fr:2880/data/store/mc/Run3Summer22NanoAODv12/Wto2Q-3Jets_HT-600to800_TuneCP5_13p6TeV_madgraphMLM-pythia8/NANOAODSIM/130X_mcRun3_2022_realistic_v5-v2/30000/cd4765e5-a6e3-470e-949f-6c812e942030.root",
        "T2_US_Vanderbilt: davs://xrootd-vanderbilt.sites.opensciencegrid.org:1094/store/mc/Run3Summer22NanoAODv12/Wto2Q-3Jets_HT-600to800_TuneCP5_13p6TeV_madgraphMLM-pythia8/NANOAODSIM/130X_mcRun3_2022_realistic_v5-v2/30000/cd4765e5-a6e3-470e-949f-6c812e942030.root",
        "T2_BE_UCL: davs://ingrid-se02.cism.ucl.ac.be:1094/store/mc/Run3Summer22NanoAODv12/Wto2Q-3Jets_HT-600to800_TuneCP5_13p6TeV_madgraphMLM-pythia8/NANOAODSIM/130X_mcRun3_2022_realistic_v5-v2/30000/cd4765e5-a6e3-470e-949f-6c812e942030.root",
        "T1_RU_JINR_Disk: davs://se-wbdv.jinr-t1.ru:2880/pnfs/jinr-t1.ru/data/cms/store/mc/Run3Summer22NanoAODv12/Wto2Q-3Jets_HT-600to800_TuneCP5_13p6TeV_madgraphMLM-pythia8/NANOAODSIM/130X_mcRun3_2022_realistic_v5-v2/30000/cd4765e5-a6e3-470e-949f-6c812e942030.root"
    ],
    "cms:/store/mc/Run3Summer22NanoAODv12/Wto2Q-3Jets_HT-600to800_TuneCP5_13p6TeV_madgraphMLM-pythia8/NANOAODSIM/130X_mcRun3_2022_realistic_v5-v2/2540000/e15a0133-a116-44c9-a0e1-7b88878a5425.root": [
        "T1_US_FNAL_Disk: davs://cmsdcadisk.fnal.gov:2880/dcache/uscmsdisk/store/mc/Run3Summer22NanoAODv12/Wto2Q-3Jets_HT-600to800_TuneCP5_13p6TeV_madgraphMLM-pythia8/NANOAODSIM/130X_mcRun3_2022_realistic_v5-v2/2540000/e15a0133-a116-44c9-a0e1-7b88878a5425.root",
        "T2_CH_CSCS: davs://storage01.lcg.cscs.ch:2880/pnfs/lcg.cscs.ch/cms/trivcat/store/mc/Run3Summer22NanoAODv12/Wto2Q-3Jets_HT-600to800_TuneCP5_13p6TeV_madgraphMLM-pythia8/NANOAODSIM/130X_mcRun3_2022_realistic_v5-v2/2540000/e15a0133-a116-44c9-a0e1-7b88878a5425.root",
        "T1_DE_KIT_Disk: davs://cmsdcache-kit-disk.gridka.de:2880/pnfs/gridka.de/cms/disk-only/store/mc/Run3Summer22NanoAODv12/Wto2Q-3Jets_HT-600to800_TuneCP5_13p6TeV_madgraphMLM-pythia8/NANOAODSIM/130X_mcRun3_2022_realistic_v5-v2/2540000/e15a0133-a116-44c9-a0e1-7b88878a5425.root",
        "T2_US_MIT: davs://xrootd.cmsaf.mit.edu:1094/store/mc/Run3Summer22NanoAODv12/Wto2Q-3Jets_HT-600to800_TuneCP5_13p6TeV_madgraphMLM-pythia8/NANOAODSIM/130X_mcRun3_2022_realistic_v5-v2/2540000/e15a0133-a116-44c9-a0e1-7b88878a5425.root",
        "T1_FR_CCIN2P3_Tape: davs://ccdavcms-tape.in2p3.fr:2880/data/store/mc/Run3Summer22NanoAODv12/Wto2Q-3Jets_HT-600to800_TuneCP5_13p6TeV_madgraphMLM-pythia8/NANOAODSIM/130X_mcRun3_2022_realistic_v5-v2/2540000/e15a0133-a116-44c9-a0e1-7b88878a5425.root",
        "T2_US_Vanderbilt: davs://xrootd-vanderbilt.sites.opensciencegrid.org:1094/store/mc/Run3Summer22NanoAODv12/Wto2Q-3Jets_HT-600to800_TuneCP5_13p6TeV_madgraphMLM-pythia8/NANOAODSIM/130X_mcRun3_2022_realistic_v5-v2/2540000/e15a0133-a116-44c9-a0e1-7b88878a5425.root",
        "T2_BE_UCL: davs://ingrid-se02.cism.ucl.ac.be:1094/store/mc/Run3Summer22NanoAODv12/Wto2Q-3Jets_HT-600to800_TuneCP5_13p6TeV_madgraphMLM-pythia8/NANOAODSIM/130X_mcRun3_2022_realistic_v5-v2/2540000/e15a0133-a116-44c9-a0e1-7b88878a5425.root",
        "T1_RU_JINR_Disk: davs://se-wbdv.jinr-t1.ru:2880/pnfs/jinr-t1.ru/data/cms/store/mc/Run3Summer22NanoAODv12/Wto2Q-3Jets_HT-600to800_TuneCP5_13p6TeV_madgraphMLM-pythia8/NANOAODSIM/130X_mcRun3_2022_realistic_v5-v2/2540000/e15a0133-a116-44c9-a0e1-7b88878a5425.root"
    ],
    "cms:/store/mc/Run3Summer22NanoAODv12/Wto2Q-3Jets_HT-600to800_TuneCP5_13p6TeV_madgraphMLM-pythia8/NANOAODSIM/130X_mcRun3_2022_realistic_v5-v2/40000/4da18354-c7aa-486b-a702-f54a8d56db1a.root": [
        "T1_US_FNAL_Disk: davs://cmsdcadisk.fnal.gov:2880/dcache/uscmsdisk/store/mc/Run3Summer22NanoAODv12/Wto2Q-3Jets_HT-600to800_TuneCP5_13p6TeV_madgraphMLM-pythia8/NANOAODSIM/130X_mcRun3_2022_realistic_v5-v2/40000/4da18354-c7aa-486b-a702-f54a8d56db1a.root",
        "T2_CH_CSCS: davs://storage01.lcg.cscs.ch:2880/pnfs/lcg.cscs.ch/cms/trivcat/store/mc/Run3Summer22NanoAODv12/Wto2Q-3Jets_HT-600to800_TuneCP5_13p6TeV_madgraphMLM-pythia8/NANOAODSIM/130X_mcRun3_2022_realistic_v5-v2/40000/4da18354-c7aa-486b-a702-f54a8d56db1a.root",
        "T1_DE_KIT_Disk: davs://cmsdcache-kit-disk.gridka.de:2880/pnfs/gridka.de/cms/disk-only/store/mc/Run3Summer22NanoAODv12/Wto2Q-3Jets_HT-600to800_TuneCP5_13p6TeV_madgraphMLM-pythia8/NANOAODSIM/130X_mcRun3_2022_realistic_v5-v2/40000/4da18354-c7aa-486b-a702-f54a8d56db1a.root",
        "T2_US_MIT: davs://xrootd.cmsaf.mit.edu:1094/store/mc/Run3Summer22NanoAODv12/Wto2Q-3Jets_HT-600to800_TuneCP5_13p6TeV_madgraphMLM-pythia8/NANOAODSIM/130X_mcRun3_2022_realistic_v5-v2/40000/4da18354-c7aa-486b-a702-f54a8d56db1a.root",
        "T1_FR_CCIN2P3_Tape: davs://ccdavcms-tape.in2p3.fr:2880/data/store/mc/Run3Summer22NanoAODv12/Wto2Q-3Jets_HT-600to800_TuneCP5_13p6TeV_madgraphMLM-pythia8/NANOAODSIM/130X_mcRun3_2022_realistic_v5-v2/40000/4da18354-c7aa-486b-a702-f54a8d56db1a.root",
        "T2_US_Vanderbilt: davs://xrootd-vanderbilt.sites.opensciencegrid.org:1094/store/mc/Run3Summer22NanoAODv12/Wto2Q-3Jets_HT-600to800_TuneCP5_13p6TeV_madgraphMLM-pythia8/NANOAODSIM/130X_mcRun3_2022_realistic_v5-v2/40000/4da18354-c7aa-486b-a702-f54a8d56db1a.root",
        "T2_BE_UCL: davs://ingrid-se02.cism.ucl.ac.be:1094/store/mc/Run3Summer22NanoAODv12/Wto2Q-3Jets_HT-600to800_TuneCP5_13p6TeV_madgraphMLM-pythia8/NANOAODSIM/130X_mcRun3_2022_realistic_v5-v2/40000/4da18354-c7aa-486b-a702-f54a8d56db1a.root",
        "T1_RU_JINR_Disk: davs://se-wbdv.jinr-t1.ru:2880/pnfs/jinr-t1.ru/data/cms/store/mc/Run3Summer22NanoAODv12/Wto2Q-3Jets_HT-600to800_TuneCP5_13p6TeV_madgraphMLM-pythia8/NANOAODSIM/130X_mcRun3_2022_realistic_v5-v2/40000/4da18354-c7aa-486b-a702-f54a8d56db1a.root",
        "T1_IT_CNAF_Disk: davs://xfer-cms.cr.cnaf.infn.it:8443/cmsdisk/store/mc/Run3Summer22NanoAODv12/Wto2Q-3Jets_HT-600to800_TuneCP5_13p6TeV_madgraphMLM-pythia8/NANOAODSIM/130X_mcRun3_2022_realistic_v5-v2/40000/4da18354-c7aa-486b-a702-f54a8d56db1a.root"
    ],
    "cms:/store/mc/Run3Summer22NanoAODv12/Wto2Q-3Jets_HT-600to800_TuneCP5_13p6TeV_madgraphMLM-pythia8/NANOAODSIM/130X_mcRun3_2022_realistic_v5-v2/30000/7b896db2-5c32-4862-b1d7-df75bf25315a.root": [
        "T1_US_FNAL_Disk: davs://cmsdcadisk.fnal.gov:2880/dcache/uscmsdisk/store/mc/Run3Summer22NanoAODv12/Wto2Q-3Jets_HT-600to800_TuneCP5_13p6TeV_madgraphMLM-pythia8/NANOAODSIM/130X_mcRun3_2022_realistic_v5-v2/30000/7b896db2-5c32-4862-b1d7-df75bf25315a.root",
        "T2_CH_CSCS: davs://storage01.lcg.cscs.ch:2880/pnfs/lcg.cscs.ch/cms/trivcat/store/mc/Run3Summer22NanoAODv12/Wto2Q-3Jets_HT-600to800_TuneCP5_13p6TeV_madgraphMLM-pythia8/NANOAODSIM/130X_mcRun3_2022_realistic_v5-v2/30000/7b896db2-5c32-4862-b1d7-df75bf25315a.root",
        "T1_DE_KIT_Disk: davs://cmsdcache-kit-disk.gridka.de:2880/pnfs/gridka.de/cms/disk-only/store/mc/Run3Summer22NanoAODv12/Wto2Q-3Jets_HT-600to800_TuneCP5_13p6TeV_madgraphMLM-pythia8/NANOAODSIM/130X_mcRun3_2022_realistic_v5-v2/30000/7b896db2-5c32-4862-b1d7-df75bf25315a.root",
        "T2_US_MIT: davs://xrootd.cmsaf.mit.edu:1094/store/mc/Run3Summer22NanoAODv12/Wto2Q-3Jets_HT-600to800_TuneCP5_13p6TeV_madgraphMLM-pythia8/NANOAODSIM/130X_mcRun3_2022_realistic_v5-v2/30000/7b896db2-5c32-4862-b1d7-df75bf25315a.root",
        "T1_FR_CCIN2P3_Tape: davs://ccdavcms-tape.in2p3.fr:2880/data/store/mc/Run3Summer22NanoAODv12/Wto2Q-3Jets_HT-600to800_TuneCP5_13p6TeV_madgraphMLM-pythia8/NANOAODSIM/130X_mcRun3_2022_realistic_v5-v2/30000/7b896db2-5c32-4862-b1d7-df75bf25315a.root",
        "T2_US_Vanderbilt: davs://xrootd-vanderbilt.sites.opensciencegrid.org:1094/store/mc/Run3Summer22NanoAODv12/Wto2Q-3Jets_HT-600to800_TuneCP5_13p6TeV_madgraphMLM-pythia8/NANOAODSIM/130X_mcRun3_2022_realistic_v5-v2/30000/7b896db2-5c32-4862-b1d7-df75bf25315a.root",
        "T2_BE_UCL: davs://ingrid-se02.cism.ucl.ac.be:1094/store/mc/Run3Summer22NanoAODv12/Wto2Q-3Jets_HT-600to800_TuneCP5_13p6TeV_madgraphMLM-pythia8/NANOAODSIM/130X_mcRun3_2022_realistic_v5-v2/30000/7b896db2-5c32-4862-b1d7-df75bf25315a.root",
        "T1_RU_JINR_Disk: davs://se-wbdv.jinr-t1.ru:2880/pnfs/jinr-t1.ru/data/cms/store/mc/Run3Summer22NanoAODv12/Wto2Q-3Jets_HT-600to800_TuneCP5_13p6TeV_madgraphMLM-pythia8/NANOAODSIM/130X_mcRun3_2022_realistic_v5-v2/30000/7b896db2-5c32-4862-b1d7-df75bf25315a.root",
        "T1_IT_CNAF_Disk: davs://xfer-cms.cr.cnaf.infn.it:8443/cmsdisk/store/mc/Run3Summer22NanoAODv12/Wto2Q-3Jets_HT-600to800_TuneCP5_13p6TeV_madgraphMLM-pythia8/NANOAODSIM/130X_mcRun3_2022_realistic_v5-v2/30000/7b896db2-5c32-4862-b1d7-df75bf25315a.root"
    ],
    "cms:/store/mc/Run3Summer22NanoAODv12/Wto2Q-3Jets_HT-600to800_TuneCP5_13p6TeV_madgraphMLM-pythia8/NANOAODSIM/130X_mcRun3_2022_realistic_v5-v2/30000/0809c62a-8e2d-4e0a-b5b1-38f96ef30d1b.root": [
        "T1_US_FNAL_Disk: davs://cmsdcadisk.fnal.gov:2880/dcache/uscmsdisk/store/mc/Run3Summer22NanoAODv12/Wto2Q-3Jets_HT-600to800_TuneCP5_13p6TeV_madgraphMLM-pythia8/NANOAODSIM/130X_mcRun3_2022_realistic_v5-v2/30000/0809c62a-8e2d-4e0a-b5b1-38f96ef30d1b.root",
        "T2_CH_CSCS: davs://storage01.lcg.cscs.ch:2880/pnfs/lcg.cscs.ch/cms/trivcat/store/mc/Run3Summer22NanoAODv12/Wto2Q-3Jets_HT-600to800_TuneCP5_13p6TeV_madgraphMLM-pythia8/NANOAODSIM/130X_mcRun3_2022_realistic_v5-v2/30000/0809c62a-8e2d-4e0a-b5b1-38f96ef30d1b.root",
        "T1_DE_KIT_Disk: davs://cmsdcache-kit-disk.gridka.de:2880/pnfs/gridka.de/cms/disk-only/store/mc/Run3Summer22NanoAODv12/Wto2Q-3Jets_HT-600to800_TuneCP5_13p6TeV_madgraphMLM-pythia8/NANOAODSIM/130X_mcRun3_2022_realistic_v5-v2/30000/0809c62a-8e2d-4e0a-b5b1-38f96ef30d1b.root",
        "T2_US_MIT: davs://xrootd.cmsaf.mit.edu:1094/store/mc/Run3Summer22NanoAODv12/Wto2Q-3Jets_HT-600to800_TuneCP5_13p6TeV_madgraphMLM-pythia8/NANOAODSIM/130X_mcRun3_2022_realistic_v5-v2/30000/0809c62a-8e2d-4e0a-b5b1-38f96ef30d1b.root",
        "T1_FR_CCIN2P3_Tape: davs://ccdavcms-tape.in2p3.fr:2880/data/store/mc/Run3Summer22NanoAODv12/Wto2Q-3Jets_HT-600to800_TuneCP5_13p6TeV_madgraphMLM-pythia8/NANOAODSIM/130X_mcRun3_2022_realistic_v5-v2/30000/0809c62a-8e2d-4e0a-b5b1-38f96ef30d1b.root",
        "T2_US_Vanderbilt: davs://xrootd-vanderbilt.sites.opensciencegrid.org:1094/store/mc/Run3Summer22NanoAODv12/Wto2Q-3Jets_HT-600to800_TuneCP5_13p6TeV_madgraphMLM-pythia8/NANOAODSIM/130X_mcRun3_2022_realistic_v5-v2/30000/0809c62a-8e2d-4e0a-b5b1-38f96ef30d1b.root",
        "T2_BE_UCL: davs://ingrid-se02.cism.ucl.ac.be:1094/store/mc/Run3Summer22NanoAODv12/Wto2Q-3Jets_HT-600to800_TuneCP5_13p6TeV_madgraphMLM-pythia8/NANOAODSIM/130X_mcRun3_2022_realistic_v5-v2/30000/0809c62a-8e2d-4e0a-b5b1-38f96ef30d1b.root",
        "T2_IT_Pisa: davs://stwebdav.pi.infn.it:8443/cms/store/mc/Run3Summer22NanoAODv12/Wto2Q-3Jets_HT-600to800_TuneCP5_13p6TeV_madgraphMLM-pythia8/NANOAODSIM/130X_mcRun3_2022_realistic_v5-v2/30000/0809c62a-8e2d-4e0a-b5b1-38f96ef30d1b.root",
        "T1_RU_JINR_Disk: davs://se-wbdv.jinr-t1.ru:2880/pnfs/jinr-t1.ru/data/cms/store/mc/Run3Summer22NanoAODv12/Wto2Q-3Jets_HT-600to800_TuneCP5_13p6TeV_madgraphMLM-pythia8/NANOAODSIM/130X_mcRun3_2022_realistic_v5-v2/30000/0809c62a-8e2d-4e0a-b5b1-38f96ef30d1b.root"
    ],
    "cms:/store/mc/Run3Summer22NanoAODv12/Wto2Q-3Jets_HT-600to800_TuneCP5_13p6TeV_madgraphMLM-pythia8/NANOAODSIM/130X_mcRun3_2022_realistic_v5-v2/30000/23a67c94-bdb3-4206-b309-8eebb34d1d48.root": [
        "T1_US_FNAL_Disk: davs://cmsdcadisk.fnal.gov:2880/dcache/uscmsdisk/store/mc/Run3Summer22NanoAODv12/Wto2Q-3Jets_HT-600to800_TuneCP5_13p6TeV_madgraphMLM-pythia8/NANOAODSIM/130X_mcRun3_2022_realistic_v5-v2/30000/23a67c94-bdb3-4206-b309-8eebb34d1d48.root",
        "T2_CH_CSCS: davs://storage01.lcg.cscs.ch:2880/pnfs/lcg.cscs.ch/cms/trivcat/store/mc/Run3Summer22NanoAODv12/Wto2Q-3Jets_HT-600to800_TuneCP5_13p6TeV_madgraphMLM-pythia8/NANOAODSIM/130X_mcRun3_2022_realistic_v5-v2/30000/23a67c94-bdb3-4206-b309-8eebb34d1d48.root",
        "T1_DE_KIT_Disk: davs://cmsdcache-kit-disk.gridka.de:2880/pnfs/gridka.de/cms/disk-only/store/mc/Run3Summer22NanoAODv12/Wto2Q-3Jets_HT-600to800_TuneCP5_13p6TeV_madgraphMLM-pythia8/NANOAODSIM/130X_mcRun3_2022_realistic_v5-v2/30000/23a67c94-bdb3-4206-b309-8eebb34d1d48.root",
        "T2_US_MIT: davs://xrootd.cmsaf.mit.edu:1094/store/mc/Run3Summer22NanoAODv12/Wto2Q-3Jets_HT-600to800_TuneCP5_13p6TeV_madgraphMLM-pythia8/NANOAODSIM/130X_mcRun3_2022_realistic_v5-v2/30000/23a67c94-bdb3-4206-b309-8eebb34d1d48.root",
        "T1_FR_CCIN2P3_Tape: davs://ccdavcms-tape.in2p3.fr:2880/data/store/mc/Run3Summer22NanoAODv12/Wto2Q-3Jets_HT-600to800_TuneCP5_13p6TeV_madgraphMLM-pythia8/NANOAODSIM/130X_mcRun3_2022_realistic_v5-v2/30000/23a67c94-bdb3-4206-b309-8eebb34d1d48.root",
        "T2_US_Vanderbilt: davs://xrootd-vanderbilt.sites.opensciencegrid.org:1094/store/mc/Run3Summer22NanoAODv12/Wto2Q-3Jets_HT-600to800_TuneCP5_13p6TeV_madgraphMLM-pythia8/NANOAODSIM/130X_mcRun3_2022_realistic_v5-v2/30000/23a67c94-bdb3-4206-b309-8eebb34d1d48.root",
        "T2_BE_UCL: davs://ingrid-se02.cism.ucl.ac.be:1094/store/mc/Run3Summer22NanoAODv12/Wto2Q-3Jets_HT-600to800_TuneCP5_13p6TeV_madgraphMLM-pythia8/NANOAODSIM/130X_mcRun3_2022_realistic_v5-v2/30000/23a67c94-bdb3-4206-b309-8eebb34d1d48.root",
        "T1_RU_JINR_Disk: davs://se-wbdv.jinr-t1.ru:2880/pnfs/jinr-t1.ru/data/cms/store/mc/Run3Summer22NanoAODv12/Wto2Q-3Jets_HT-600to800_TuneCP5_13p6TeV_madgraphMLM-pythia8/NANOAODSIM/130X_mcRun3_2022_realistic_v5-v2/30000/23a67c94-bdb3-4206-b309-8eebb34d1d48.root"
    ],
    "cms:/store/mc/Run3Summer22NanoAODv12/Wto2Q-3Jets_HT-600to800_TuneCP5_13p6TeV_madgraphMLM-pythia8/NANOAODSIM/130X_mcRun3_2022_realistic_v5-v2/30000/95306e44-c9a8-4384-86be-19e0fe3cf03c.root": [
        "T1_US_FNAL_Disk: davs://cmsdcadisk.fnal.gov:2880/dcache/uscmsdisk/store/mc/Run3Summer22NanoAODv12/Wto2Q-3Jets_HT-600to800_TuneCP5_13p6TeV_madgraphMLM-pythia8/NANOAODSIM/130X_mcRun3_2022_realistic_v5-v2/30000/95306e44-c9a8-4384-86be-19e0fe3cf03c.root",
        "T2_DE_DESY: davs://dcache-cms-webdav-wan.desy.de:2880/pnfs/desy.de/cms/tier2/store/mc/Run3Summer22NanoAODv12/Wto2Q-3Jets_HT-600to800_TuneCP5_13p6TeV_madgraphMLM-pythia8/NANOAODSIM/130X_mcRun3_2022_realistic_v5-v2/30000/95306e44-c9a8-4384-86be-19e0fe3cf03c.root",
        "T2_CH_CSCS: davs://storage01.lcg.cscs.ch:2880/pnfs/lcg.cscs.ch/cms/trivcat/store/mc/Run3Summer22NanoAODv12/Wto2Q-3Jets_HT-600to800_TuneCP5_13p6TeV_madgraphMLM-pythia8/NANOAODSIM/130X_mcRun3_2022_realistic_v5-v2/30000/95306e44-c9a8-4384-86be-19e0fe3cf03c.root",
        "T1_DE_KIT_Disk: davs://cmsdcache-kit-disk.gridka.de:2880/pnfs/gridka.de/cms/disk-only/store/mc/Run3Summer22NanoAODv12/Wto2Q-3Jets_HT-600to800_TuneCP5_13p6TeV_madgraphMLM-pythia8/NANOAODSIM/130X_mcRun3_2022_realistic_v5-v2/30000/95306e44-c9a8-4384-86be-19e0fe3cf03c.root",
        "T2_US_MIT: davs://xrootd.cmsaf.mit.edu:1094/store/mc/Run3Summer22NanoAODv12/Wto2Q-3Jets_HT-600to800_TuneCP5_13p6TeV_madgraphMLM-pythia8/NANOAODSIM/130X_mcRun3_2022_realistic_v5-v2/30000/95306e44-c9a8-4384-86be-19e0fe3cf03c.root",
        "T1_FR_CCIN2P3_Tape: davs://ccdavcms-tape.in2p3.fr:2880/data/store/mc/Run3Summer22NanoAODv12/Wto2Q-3Jets_HT-600to800_TuneCP5_13p6TeV_madgraphMLM-pythia8/NANOAODSIM/130X_mcRun3_2022_realistic_v5-v2/30000/95306e44-c9a8-4384-86be-19e0fe3cf03c.root",
        "T2_US_Vanderbilt: davs://xrootd-vanderbilt.sites.opensciencegrid.org:1094/store/mc/Run3Summer22NanoAODv12/Wto2Q-3Jets_HT-600to800_TuneCP5_13p6TeV_madgraphMLM-pythia8/NANOAODSIM/130X_mcRun3_2022_realistic_v5-v2/30000/95306e44-c9a8-4384-86be-19e0fe3cf03c.root",
        "T2_BE_UCL: davs://ingrid-se02.cism.ucl.ac.be:1094/store/mc/Run3Summer22NanoAODv12/Wto2Q-3Jets_HT-600to800_TuneCP5_13p6TeV_madgraphMLM-pythia8/NANOAODSIM/130X_mcRun3_2022_realistic_v5-v2/30000/95306e44-c9a8-4384-86be-19e0fe3cf03c.root",
        "T1_RU_JINR_Disk: davs://se-wbdv.jinr-t1.ru:2880/pnfs/jinr-t1.ru/data/cms/store/mc/Run3Summer22NanoAODv12/Wto2Q-3Jets_HT-600to800_TuneCP5_13p6TeV_madgraphMLM-pythia8/NANOAODSIM/130X_mcRun3_2022_realistic_v5-v2/30000/95306e44-c9a8-4384-86be-19e0fe3cf03c.root"
    ],
    "cms:/store/mc/Run3Summer22NanoAODv12/Wto2Q-3Jets_HT-600to800_TuneCP5_13p6TeV_madgraphMLM-pythia8/NANOAODSIM/130X_mcRun3_2022_realistic_v5-v2/30000/fecdd875-0053-49fa-8d31-07b4541b2194.root": [
        "T1_US_FNAL_Disk: davs://cmsdcadisk.fnal.gov:2880/dcache/uscmsdisk/store/mc/Run3Summer22NanoAODv12/Wto2Q-3Jets_HT-600to800_TuneCP5_13p6TeV_madgraphMLM-pythia8/NANOAODSIM/130X_mcRun3_2022_realistic_v5-v2/30000/fecdd875-0053-49fa-8d31-07b4541b2194.root",
        "T2_CH_CSCS: davs://storage01.lcg.cscs.ch:2880/pnfs/lcg.cscs.ch/cms/trivcat/store/mc/Run3Summer22NanoAODv12/Wto2Q-3Jets_HT-600to800_TuneCP5_13p6TeV_madgraphMLM-pythia8/NANOAODSIM/130X_mcRun3_2022_realistic_v5-v2/30000/fecdd875-0053-49fa-8d31-07b4541b2194.root",
        "T1_DE_KIT_Disk: davs://cmsdcache-kit-disk.gridka.de:2880/pnfs/gridka.de/cms/disk-only/store/mc/Run3Summer22NanoAODv12/Wto2Q-3Jets_HT-600to800_TuneCP5_13p6TeV_madgraphMLM-pythia8/NANOAODSIM/130X_mcRun3_2022_realistic_v5-v2/30000/fecdd875-0053-49fa-8d31-07b4541b2194.root",
        "T2_US_MIT: davs://xrootd.cmsaf.mit.edu:1094/store/mc/Run3Summer22NanoAODv12/Wto2Q-3Jets_HT-600to800_TuneCP5_13p6TeV_madgraphMLM-pythia8/NANOAODSIM/130X_mcRun3_2022_realistic_v5-v2/30000/fecdd875-0053-49fa-8d31-07b4541b2194.root",
        "T1_FR_CCIN2P3_Tape: davs://ccdavcms-tape.in2p3.fr:2880/data/store/mc/Run3Summer22NanoAODv12/Wto2Q-3Jets_HT-600to800_TuneCP5_13p6TeV_madgraphMLM-pythia8/NANOAODSIM/130X_mcRun3_2022_realistic_v5-v2/30000/fecdd875-0053-49fa-8d31-07b4541b2194.root",
        "T2_US_Vanderbilt: davs://xrootd-vanderbilt.sites.opensciencegrid.org:1094/store/mc/Run3Summer22NanoAODv12/Wto2Q-3Jets_HT-600to800_TuneCP5_13p6TeV_madgraphMLM-pythia8/NANOAODSIM/130X_mcRun3_2022_realistic_v5-v2/30000/fecdd875-0053-49fa-8d31-07b4541b2194.root",
        "T2_BE_UCL: davs://ingrid-se02.cism.ucl.ac.be:1094/store/mc/Run3Summer22NanoAODv12/Wto2Q-3Jets_HT-600to800_TuneCP5_13p6TeV_madgraphMLM-pythia8/NANOAODSIM/130X_mcRun3_2022_realistic_v5-v2/30000/fecdd875-0053-49fa-8d31-07b4541b2194.root",
        "T1_RU_JINR_Disk: davs://se-wbdv.jinr-t1.ru:2880/pnfs/jinr-t1.ru/data/cms/store/mc/Run3Summer22NanoAODv12/Wto2Q-3Jets_HT-600to800_TuneCP5_13p6TeV_madgraphMLM-pythia8/NANOAODSIM/130X_mcRun3_2022_realistic_v5-v2/30000/fecdd875-0053-49fa-8d31-07b4541b2194.root"
    ],
    "cms:/store/mc/Run3Summer22NanoAODv12/Wto2Q-3Jets_HT-600to800_TuneCP5_13p6TeV_madgraphMLM-pythia8/NANOAODSIM/130X_mcRun3_2022_realistic_v5-v2/50000/cabcec29-fad1-4447-8b8f-bbfc3e451993.root": [
        "T1_US_FNAL_Disk: davs://cmsdcadisk.fnal.gov:2880/dcache/uscmsdisk/store/mc/Run3Summer22NanoAODv12/Wto2Q-3Jets_HT-600to800_TuneCP5_13p6TeV_madgraphMLM-pythia8/NANOAODSIM/130X_mcRun3_2022_realistic_v5-v2/50000/cabcec29-fad1-4447-8b8f-bbfc3e451993.root",
        "T2_CH_CSCS: davs://storage01.lcg.cscs.ch:2880/pnfs/lcg.cscs.ch/cms/trivcat/store/mc/Run3Summer22NanoAODv12/Wto2Q-3Jets_HT-600to800_TuneCP5_13p6TeV_madgraphMLM-pythia8/NANOAODSIM/130X_mcRun3_2022_realistic_v5-v2/50000/cabcec29-fad1-4447-8b8f-bbfc3e451993.root",
        "T1_DE_KIT_Disk: davs://cmsdcache-kit-disk.gridka.de:2880/pnfs/gridka.de/cms/disk-only/store/mc/Run3Summer22NanoAODv12/Wto2Q-3Jets_HT-600to800_TuneCP5_13p6TeV_madgraphMLM-pythia8/NANOAODSIM/130X_mcRun3_2022_realistic_v5-v2/50000/cabcec29-fad1-4447-8b8f-bbfc3e451993.root",
        "T2_US_MIT: davs://xrootd.cmsaf.mit.edu:1094/store/mc/Run3Summer22NanoAODv12/Wto2Q-3Jets_HT-600to800_TuneCP5_13p6TeV_madgraphMLM-pythia8/NANOAODSIM/130X_mcRun3_2022_realistic_v5-v2/50000/cabcec29-fad1-4447-8b8f-bbfc3e451993.root",
        "T1_FR_CCIN2P3_Tape: davs://ccdavcms-tape.in2p3.fr:2880/data/store/mc/Run3Summer22NanoAODv12/Wto2Q-3Jets_HT-600to800_TuneCP5_13p6TeV_madgraphMLM-pythia8/NANOAODSIM/130X_mcRun3_2022_realistic_v5-v2/50000/cabcec29-fad1-4447-8b8f-bbfc3e451993.root",
        "T2_US_Vanderbilt: davs://xrootd-vanderbilt.sites.opensciencegrid.org:1094/store/mc/Run3Summer22NanoAODv12/Wto2Q-3Jets_HT-600to800_TuneCP5_13p6TeV_madgraphMLM-pythia8/NANOAODSIM/130X_mcRun3_2022_realistic_v5-v2/50000/cabcec29-fad1-4447-8b8f-bbfc3e451993.root",
        "T2_BE_UCL: davs://ingrid-se02.cism.ucl.ac.be:1094/store/mc/Run3Summer22NanoAODv12/Wto2Q-3Jets_HT-600to800_TuneCP5_13p6TeV_madgraphMLM-pythia8/NANOAODSIM/130X_mcRun3_2022_realistic_v5-v2/50000/cabcec29-fad1-4447-8b8f-bbfc3e451993.root",
        "T1_RU_JINR_Disk: davs://se-wbdv.jinr-t1.ru:2880/pnfs/jinr-t1.ru/data/cms/store/mc/Run3Summer22NanoAODv12/Wto2Q-3Jets_HT-600to800_TuneCP5_13p6TeV_madgraphMLM-pythia8/NANOAODSIM/130X_mcRun3_2022_realistic_v5-v2/50000/cabcec29-fad1-4447-8b8f-bbfc3e451993.root",
        "T1_IT_CNAF_Disk: davs://xfer-cms.cr.cnaf.infn.it:8443/cmsdisk/store/mc/Run3Summer22NanoAODv12/Wto2Q-3Jets_HT-600to800_TuneCP5_13p6TeV_madgraphMLM-pythia8/NANOAODSIM/130X_mcRun3_2022_realistic_v5-v2/50000/cabcec29-fad1-4447-8b8f-bbfc3e451993.root"
    ],
    "cms:/store/mc/Run3Summer22NanoAODv12/Wto2Q-3Jets_HT-600to800_TuneCP5_13p6TeV_madgraphMLM-pythia8/NANOAODSIM/130X_mcRun3_2022_realistic_v5-v2/30000/77d78c64-be3d-4ee6-82ef-71fd2a9a83fd.root": [
        "T2_CH_CSCS: davs://storage01.lcg.cscs.ch:2880/pnfs/lcg.cscs.ch/cms/trivcat/store/mc/Run3Summer22NanoAODv12/Wto2Q-3Jets_HT-600to800_TuneCP5_13p6TeV_madgraphMLM-pythia8/NANOAODSIM/130X_mcRun3_2022_realistic_v5-v2/30000/77d78c64-be3d-4ee6-82ef-71fd2a9a83fd.root",
        "T1_DE_KIT_Disk: davs://cmsdcache-kit-disk.gridka.de:2880/pnfs/gridka.de/cms/disk-only/store/mc/Run3Summer22NanoAODv12/Wto2Q-3Jets_HT-600to800_TuneCP5_13p6TeV_madgraphMLM-pythia8/NANOAODSIM/130X_mcRun3_2022_realistic_v5-v2/30000/77d78c64-be3d-4ee6-82ef-71fd2a9a83fd.root",
        "T2_US_MIT: davs://xrootd.cmsaf.mit.edu:1094/store/mc/Run3Summer22NanoAODv12/Wto2Q-3Jets_HT-600to800_TuneCP5_13p6TeV_madgraphMLM-pythia8/NANOAODSIM/130X_mcRun3_2022_realistic_v5-v2/30000/77d78c64-be3d-4ee6-82ef-71fd2a9a83fd.root",
        "T1_FR_CCIN2P3_Tape: davs://ccdavcms-tape.in2p3.fr:2880/data/store/mc/Run3Summer22NanoAODv12/Wto2Q-3Jets_HT-600to800_TuneCP5_13p6TeV_madgraphMLM-pythia8/NANOAODSIM/130X_mcRun3_2022_realistic_v5-v2/30000/77d78c64-be3d-4ee6-82ef-71fd2a9a83fd.root",
        "T2_US_Vanderbilt: davs://xrootd-vanderbilt.sites.opensciencegrid.org:1094/store/mc/Run3Summer22NanoAODv12/Wto2Q-3Jets_HT-600to800_TuneCP5_13p6TeV_madgraphMLM-pythia8/NANOAODSIM/130X_mcRun3_2022_realistic_v5-v2/30000/77d78c64-be3d-4ee6-82ef-71fd2a9a83fd.root",
        "T2_BE_UCL: davs://ingrid-se02.cism.ucl.ac.be:1094/store/mc/Run3Summer22NanoAODv12/Wto2Q-3Jets_HT-600to800_TuneCP5_13p6TeV_madgraphMLM-pythia8/NANOAODSIM/130X_mcRun3_2022_realistic_v5-v2/30000/77d78c64-be3d-4ee6-82ef-71fd2a9a83fd.root",
        "T1_RU_JINR_Disk: davs://se-wbdv.jinr-t1.ru:2880/pnfs/jinr-t1.ru/data/cms/store/mc/Run3Summer22NanoAODv12/Wto2Q-3Jets_HT-600to800_TuneCP5_13p6TeV_madgraphMLM-pythia8/NANOAODSIM/130X_mcRun3_2022_realistic_v5-v2/30000/77d78c64-be3d-4ee6-82ef-71fd2a9a83fd.root"
    ],
    "cms:/store/mc/Run3Summer22NanoAODv12/Wto2Q-3Jets_HT-600to800_TuneCP5_13p6TeV_madgraphMLM-pythia8/NANOAODSIM/130X_mcRun3_2022_realistic_v5-v2/40000/39e6b83c-164e-4c93-affe-37b3e0a0ddb7.root": [
        "T1_US_FNAL_Disk: davs://cmsdcadisk.fnal.gov:2880/dcache/uscmsdisk/store/mc/Run3Summer22NanoAODv12/Wto2Q-3Jets_HT-600to800_TuneCP5_13p6TeV_madgraphMLM-pythia8/NANOAODSIM/130X_mcRun3_2022_realistic_v5-v2/40000/39e6b83c-164e-4c93-affe-37b3e0a0ddb7.root",
        "T2_DE_DESY: davs://dcache-cms-webdav-wan.desy.de:2880/pnfs/desy.de/cms/tier2/store/mc/Run3Summer22NanoAODv12/Wto2Q-3Jets_HT-600to800_TuneCP5_13p6TeV_madgraphMLM-pythia8/NANOAODSIM/130X_mcRun3_2022_realistic_v5-v2/40000/39e6b83c-164e-4c93-affe-37b3e0a0ddb7.root",
        "T2_CH_CSCS: davs://storage01.lcg.cscs.ch:2880/pnfs/lcg.cscs.ch/cms/trivcat/store/mc/Run3Summer22NanoAODv12/Wto2Q-3Jets_HT-600to800_TuneCP5_13p6TeV_madgraphMLM-pythia8/NANOAODSIM/130X_mcRun3_2022_realistic_v5-v2/40000/39e6b83c-164e-4c93-affe-37b3e0a0ddb7.root",
        "T1_DE_KIT_Disk: davs://cmsdcache-kit-disk.gridka.de:2880/pnfs/gridka.de/cms/disk-only/store/mc/Run3Summer22NanoAODv12/Wto2Q-3Jets_HT-600to800_TuneCP5_13p6TeV_madgraphMLM-pythia8/NANOAODSIM/130X_mcRun3_2022_realistic_v5-v2/40000/39e6b83c-164e-4c93-affe-37b3e0a0ddb7.root",
        "T2_US_MIT: davs://xrootd.cmsaf.mit.edu:1094/store/mc/Run3Summer22NanoAODv12/Wto2Q-3Jets_HT-600to800_TuneCP5_13p6TeV_madgraphMLM-pythia8/NANOAODSIM/130X_mcRun3_2022_realistic_v5-v2/40000/39e6b83c-164e-4c93-affe-37b3e0a0ddb7.root",
        "T1_FR_CCIN2P3_Tape: davs://ccdavcms-tape.in2p3.fr:2880/data/store/mc/Run3Summer22NanoAODv12/Wto2Q-3Jets_HT-600to800_TuneCP5_13p6TeV_madgraphMLM-pythia8/NANOAODSIM/130X_mcRun3_2022_realistic_v5-v2/40000/39e6b83c-164e-4c93-affe-37b3e0a0ddb7.root",
        "T2_US_Vanderbilt: davs://xrootd-vanderbilt.sites.opensciencegrid.org:1094/store/mc/Run3Summer22NanoAODv12/Wto2Q-3Jets_HT-600to800_TuneCP5_13p6TeV_madgraphMLM-pythia8/NANOAODSIM/130X_mcRun3_2022_realistic_v5-v2/40000/39e6b83c-164e-4c93-affe-37b3e0a0ddb7.root",
        "T2_BE_UCL: davs://ingrid-se02.cism.ucl.ac.be:1094/store/mc/Run3Summer22NanoAODv12/Wto2Q-3Jets_HT-600to800_TuneCP5_13p6TeV_madgraphMLM-pythia8/NANOAODSIM/130X_mcRun3_2022_realistic_v5-v2/40000/39e6b83c-164e-4c93-affe-37b3e0a0ddb7.root",
        "T1_RU_JINR_Disk: davs://se-wbdv.jinr-t1.ru:2880/pnfs/jinr-t1.ru/data/cms/store/mc/Run3Summer22NanoAODv12/Wto2Q-3Jets_HT-600to800_TuneCP5_13p6TeV_madgraphMLM-pythia8/NANOAODSIM/130X_mcRun3_2022_realistic_v5-v2/40000/39e6b83c-164e-4c93-affe-37b3e0a0ddb7.root"
    ],
    "cms:/store/mc/Run3Summer22NanoAODv12/Wto2Q-3Jets_HT-600to800_TuneCP5_13p6TeV_madgraphMLM-pythia8/NANOAODSIM/130X_mcRun3_2022_realistic_v5-v2/30000/e0e88163-e178-417f-ad17-20abed760b69.root": [
        "T1_US_FNAL_Disk: davs://cmsdcadisk.fnal.gov:2880/dcache/uscmsdisk/store/mc/Run3Summer22NanoAODv12/Wto2Q-3Jets_HT-600to800_TuneCP5_13p6TeV_madgraphMLM-pythia8/NANOAODSIM/130X_mcRun3_2022_realistic_v5-v2/30000/e0e88163-e178-417f-ad17-20abed760b69.root",
        "T2_CH_CSCS: davs://storage01.lcg.cscs.ch:2880/pnfs/lcg.cscs.ch/cms/trivcat/store/mc/Run3Summer22NanoAODv12/Wto2Q-3Jets_HT-600to800_TuneCP5_13p6TeV_madgraphMLM-pythia8/NANOAODSIM/130X_mcRun3_2022_realistic_v5-v2/30000/e0e88163-e178-417f-ad17-20abed760b69.root",
        "T1_DE_KIT_Disk: davs://cmsdcache-kit-disk.gridka.de:2880/pnfs/gridka.de/cms/disk-only/store/mc/Run3Summer22NanoAODv12/Wto2Q-3Jets_HT-600to800_TuneCP5_13p6TeV_madgraphMLM-pythia8/NANOAODSIM/130X_mcRun3_2022_realistic_v5-v2/30000/e0e88163-e178-417f-ad17-20abed760b69.root",
        "T2_US_MIT: davs://xrootd.cmsaf.mit.edu:1094/store/mc/Run3Summer22NanoAODv12/Wto2Q-3Jets_HT-600to800_TuneCP5_13p6TeV_madgraphMLM-pythia8/NANOAODSIM/130X_mcRun3_2022_realistic_v5-v2/30000/e0e88163-e178-417f-ad17-20abed760b69.root",
        "T1_FR_CCIN2P3_Tape: davs://ccdavcms-tape.in2p3.fr:2880/data/store/mc/Run3Summer22NanoAODv12/Wto2Q-3Jets_HT-600to800_TuneCP5_13p6TeV_madgraphMLM-pythia8/NANOAODSIM/130X_mcRun3_2022_realistic_v5-v2/30000/e0e88163-e178-417f-ad17-20abed760b69.root",
        "T2_US_Vanderbilt: davs://xrootd-vanderbilt.sites.opensciencegrid.org:1094/store/mc/Run3Summer22NanoAODv12/Wto2Q-3Jets_HT-600to800_TuneCP5_13p6TeV_madgraphMLM-pythia8/NANOAODSIM/130X_mcRun3_2022_realistic_v5-v2/30000/e0e88163-e178-417f-ad17-20abed760b69.root",
        "T2_BE_UCL: davs://ingrid-se02.cism.ucl.ac.be:1094/store/mc/Run3Summer22NanoAODv12/Wto2Q-3Jets_HT-600to800_TuneCP5_13p6TeV_madgraphMLM-pythia8/NANOAODSIM/130X_mcRun3_2022_realistic_v5-v2/30000/e0e88163-e178-417f-ad17-20abed760b69.root",
        "T1_RU_JINR_Disk: davs://se-wbdv.jinr-t1.ru:2880/pnfs/jinr-t1.ru/data/cms/store/mc/Run3Summer22NanoAODv12/Wto2Q-3Jets_HT-600to800_TuneCP5_13p6TeV_madgraphMLM-pythia8/NANOAODSIM/130X_mcRun3_2022_realistic_v5-v2/30000/e0e88163-e178-417f-ad17-20abed760b69.root"
    ],
    "cms:/store/mc/Run3Summer22NanoAODv12/Wto2Q-3Jets_HT-600to800_TuneCP5_13p6TeV_madgraphMLM-pythia8/NANOAODSIM/130X_mcRun3_2022_realistic_v5-v2/50000/1c0c448c-3773-47c0-a046-8361a85f2c02.root": [
        "T1_US_FNAL_Disk: davs://cmsdcadisk.fnal.gov:2880/dcache/uscmsdisk/store/mc/Run3Summer22NanoAODv12/Wto2Q-3Jets_HT-600to800_TuneCP5_13p6TeV_madgraphMLM-pythia8/NANOAODSIM/130X_mcRun3_2022_realistic_v5-v2/50000/1c0c448c-3773-47c0-a046-8361a85f2c02.root",
        "T2_CH_CSCS: davs://storage01.lcg.cscs.ch:2880/pnfs/lcg.cscs.ch/cms/trivcat/store/mc/Run3Summer22NanoAODv12/Wto2Q-3Jets_HT-600to800_TuneCP5_13p6TeV_madgraphMLM-pythia8/NANOAODSIM/130X_mcRun3_2022_realistic_v5-v2/50000/1c0c448c-3773-47c0-a046-8361a85f2c02.root",
        "T1_DE_KIT_Disk: davs://cmsdcache-kit-disk.gridka.de:2880/pnfs/gridka.de/cms/disk-only/store/mc/Run3Summer22NanoAODv12/Wto2Q-3Jets_HT-600to800_TuneCP5_13p6TeV_madgraphMLM-pythia8/NANOAODSIM/130X_mcRun3_2022_realistic_v5-v2/50000/1c0c448c-3773-47c0-a046-8361a85f2c02.root",
        "T2_US_MIT: davs://xrootd.cmsaf.mit.edu:1094/store/mc/Run3Summer22NanoAODv12/Wto2Q-3Jets_HT-600to800_TuneCP5_13p6TeV_madgraphMLM-pythia8/NANOAODSIM/130X_mcRun3_2022_realistic_v5-v2/50000/1c0c448c-3773-47c0-a046-8361a85f2c02.root",
        "T1_FR_CCIN2P3_Tape: davs://ccdavcms-tape.in2p3.fr:2880/data/store/mc/Run3Summer22NanoAODv12/Wto2Q-3Jets_HT-600to800_TuneCP5_13p6TeV_madgraphMLM-pythia8/NANOAODSIM/130X_mcRun3_2022_realistic_v5-v2/50000/1c0c448c-3773-47c0-a046-8361a85f2c02.root",
        "T2_US_Vanderbilt: davs://xrootd-vanderbilt.sites.opensciencegrid.org:1094/store/mc/Run3Summer22NanoAODv12/Wto2Q-3Jets_HT-600to800_TuneCP5_13p6TeV_madgraphMLM-pythia8/NANOAODSIM/130X_mcRun3_2022_realistic_v5-v2/50000/1c0c448c-3773-47c0-a046-8361a85f2c02.root",
        "T2_BE_UCL: davs://ingrid-se02.cism.ucl.ac.be:1094/store/mc/Run3Summer22NanoAODv12/Wto2Q-3Jets_HT-600to800_TuneCP5_13p6TeV_madgraphMLM-pythia8/NANOAODSIM/130X_mcRun3_2022_realistic_v5-v2/50000/1c0c448c-3773-47c0-a046-8361a85f2c02.root",
        "T1_RU_JINR_Disk: davs://se-wbdv.jinr-t1.ru:2880/pnfs/jinr-t1.ru/data/cms/store/mc/Run3Summer22NanoAODv12/Wto2Q-3Jets_HT-600to800_TuneCP5_13p6TeV_madgraphMLM-pythia8/NANOAODSIM/130X_mcRun3_2022_realistic_v5-v2/50000/1c0c448c-3773-47c0-a046-8361a85f2c02.root"
    ]
}