{
    "cms:/store/mc/Run3Summer23NanoAODv12/Wto2Q-3Jets_HT-200to400_TuneCP5_13p6TeV_madgraphMLM-pythia8/NANOAODSIM/130X_mcRun3_2023_realistic_v14-v2/40000/b5122af1-69be-4418-b545-2d089ccf982c.root": [
        "T1_US_FNAL_Disk: davs://cmsdcadisk.fnal.gov:2880/dcache/uscmsdisk/store/mc/Run3Summer23NanoAODv12/Wto2Q-3Jets_HT-200to400_TuneCP5_13p6TeV_madgraphMLM-pythia8/NANOAODSIM/130X_mcRun3_2023_realistic_v14-v2/40000/b5122af1-69be-4418-b545-2d089ccf982c.root",
        "T2_DE_DESY: davs://dcache-cms-webdav-wan.desy.de:2880/pnfs/desy.de/cms/tier2/store/mc/Run3Summer23NanoAODv12/Wto2Q-3Jets_HT-200to400_TuneCP5_13p6TeV_madgraphMLM-pythia8/NANOAODSIM/130X_mcRun3_2023_realistic_v14-v2/40000/b5122af1-69be-4418-b545-2d089ccf982c.root",
        "T2_UK_SGrid_RALPP: davs://mover.pp.rl.ac.uk:2880/pnfs/pp.rl.ac.uk/data/cms/store/mc/Run3Summer23NanoAODv12/Wto2Q-3Jets_HT-200to400_TuneCP5_13p6TeV_madgraphMLM-pythia8/NANOAODSIM/130X_mcRun3_2023_realistic_v14-v2/40000/b5122af1-69be-4418-b545-2d089ccf982c.root",
        "T2_US_Wisconsin: davs://cmsxrootd.hep.wisc.edu:1094/store/mc/Run3Summer23NanoAODv12/Wto2Q-3Jets_HT-200to400_TuneCP5_13p6TeV_madgraphMLM-pythia8/NANOAODSIM/130X_mcRun3_2023_realistic_v14-v2/40000/b5122af1-69be-4418-b545-2d089ccf982c.root",
        "T1_IT_CNAF_Tape: davs://xfer-cms.cr.cnaf.infn.it:8443/cmstape/store/mc/Run3Summer23NanoAODv12/Wto2Q-3Jets_HT-200to400_TuneCP5_13p6TeV_madgraphMLM-pythia8/NANOAODSIM/130X_mcRun3_2023_realistic_v14-v2/40000/b5122af1-69be-4418-b545-2d089ccf982c.root",
        "T2_US_Purdue: davs://eos.cms.rcac.purdue.edu:9000/store/mc/Run3Summer23NanoAODv12/Wto2Q-3Jets_HT-200to400_TuneCP5_13p6TeV_madgraphMLM-pythia8/NANOAODSIM/130X_mcRun3_2023_realistic_v14-v2/40000/b5122af1-69be-4418-b545-2d089ccf982c.root",
        "T1_RU_JINR_Disk: davs://se-wbdv.jinr-t1.ru:2880/pnfs/jinr-t1.ru/data/cms/store/mc/Run3Summer23NanoAODv12/Wto2Q-3Jets_HT-200to400_TuneCP5_13p6TeV_madgraphMLM-pythia8/NANOAODSIM/130X_mcRun3_2023_realistic_v14-v2/40000/b5122af1-69be-4418-b545-2d089ccf982c.root",
        "T1_IT_CNAF_Disk: davs://xfer-cms.cr.cnaf.infn.it:8443/cmsdisk/store/mc/Run3Summer23NanoAODv12/Wto2Q-3Jets_HT-200to400_TuneCP5_13p6TeV_madgraphMLM-pythia8/NANOAODSIM/130X_mcRun3_2023_realistic_v14-v2/40000/b5122af1-69be-4418-b545-2d089ccf982c.root"
    ],
    "cms:/store/mc/Run3Summer23NanoAODv12/Wto2Q-3Jets_HT-200to400_TuneCP5_13p6TeV_madgraphMLM-pythia8/NANOAODSIM/130X_mcRun3_2023_realistic_v14-v2/40000/ee49a4f5-163e-40ab-8de3-76c94d648692.root": [
        "T1_US_FNAL_Disk: davs://cmsdcadisk.fnal.gov:2880/dcache/uscmsdisk/store/mc/Run3Summer23NanoAODv12/Wto2Q-3Jets_HT-200to400_TuneCP5_13p6TeV_madgraphMLM-pythia8/NANOAODSIM/130X_mcRun3_2023_realistic_v14-v2/40000/ee49a4f5-163e-40ab-8de3-76c94d648692.root",
        "T2_DE_DESY: davs://dcache-cms-webdav-wan.desy.de:2880/pnfs/desy.de/cms/tier2/store/mc/Run3Summer23NanoAODv12/Wto2Q-3Jets_HT-200to400_TuneCP5_13p6TeV_madgraphMLM-pythia8/NANOAODSIM/130X_mcRun3_2023_realistic_v14-v2/40000/ee49a4f5-163e-40ab-8de3-76c94d648692.root",
        "T2_UK_SGrid_RALPP: davs://mover.pp.rl.ac.uk:2880/pnfs/pp.rl.ac.uk/data/cms/store/mc/Run3Summer23NanoAODv12/Wto2Q-3Jets_HT-200to400_TuneCP5_13p6TeV_madgraphMLM-pythia8/NANOAODSIM/130X_mcRun3_2023_realistic_v14-v2/40000/ee49a4f5-163e-40ab-8de3-76c94d648692.root",
        "T2_US_Wisconsin: davs://cmsxrootd.hep.wisc.edu:1094/store/mc/Run3Summer23NanoAODv12/Wto2Q-3Jets_HT-200to400_TuneCP5_13p6TeV_madgraphMLM-pythia8/NANOAODSIM/130X_mcRun3_2023_realistic_v14-v2/40000/ee49a4f5-163e-40ab-8de3-76c94d648692.root",
        "T1_IT_CNAF_Tape: davs://xfer-cms.cr.cnaf.infn.it:8443/cmstape/store/mc/Run3Summer23NanoAODv12/Wto2Q-3Jets_HT-200to400_TuneCP5_13p6TeV_madgraphMLM-pythia8/NANOAODSIM/130X_mcRun3_2023_realistic_v14-v2/40000/ee49a4f5-163e-40ab-8de3-76c94d648692.root",
        "T2_US_Purdue: davs://eos.cms.rcac.purdue.edu:9000/store/mc/Run3Summer23NanoAODv12/Wto2Q-3Jets_HT-200to400_TuneCP5_13p6TeV_madgraphMLM-pythia8/NANOAODSIM/130X_mcRun3_2023_realistic_v14-v2/40000/ee49a4f5-163e-40ab-8de3-76c94d648692.root",
        "T1_RU_JINR_Disk: davs://se-wbdv.jinr-t1.ru:2880/pnfs/jinr-t1.ru/data/cms/store/mc/Run3Summer23NanoAODv12/Wto2Q-3Jets_HT-200to400_TuneCP5_13p6TeV_madgraphMLM-pythia8/NANOAODSIM/130X_mcRun3_2023_realistic_v14-v2/40000/ee49a4f5-163e-40ab-8de3-76c94d648692.root",
        "T1_IT_CNAF_Disk: davs://xfer-cms.cr.cnaf.infn.it:8443/cmsdisk/store/mc/Run3Summer23NanoAODv12/Wto2Q-3Jets_HT-200to400_TuneCP5_13p6TeV_madgraphMLM-pythia8/NANOAODSIM/130X_mcRun3_2023_realistic_v14-v2/40000/ee49a4f5-163e-40ab-8de3-76c94d648692.root"
    ],
    "cms:/store/mc/Run3Summer23NanoAODv12/Wto2Q-3Jets_HT-200to400_TuneCP5_13p6TeV_madgraphMLM-pythia8/NANOAODSIM/130X_mcRun3_2023_realistic_v14-v2/40000/59af2782-2822-4da1-809d-3dfe1ce5e28a.root": [
        "T1_US_FNAL_Disk: davs://cmsdcadisk.fnal.gov:2880/dcache/uscmsdisk/store/mc/Run3Summer23NanoAODv12/Wto2Q-3Jets_HT-200to400_TuneCP5_13p6TeV_madgraphMLM-pythia8/NANOAODSIM/130X_mcRun3_2023_realistic_v14-v2/40000/59af2782-2822-4da1-809d-3dfe1ce5e28a.root",
        "T2_DE_DESY: davs://dcache-cms-webdav-wan.desy.de:2880/pnfs/desy.de/cms/tier2/store/mc/Run3Summer23NanoAODv12/Wto2Q-3Jets_HT-200to400_TuneCP5_13p6TeV_madgraphMLM-pythia8/NANOAODSIM/130X_mcRun3_2023_realistic_v14-v2/40000/59af2782-2822-4da1-809d-3dfe1ce5e28a.root",
        "T2_UK_SGrid_RALPP: davs://mover.pp.rl.ac.uk:2880/pnfs/pp.rl.ac.uk/data/cms/store/mc/Run3Summer23NanoAODv12/Wto2Q-3Jets_HT-200to400_TuneCP5_13p6TeV_madgraphMLM-pythia8/NANOAODSIM/130X_mcRun3_2023_realistic_v14-v2/40000/59af2782-2822-4da1-809d-3dfe1ce5e28a.root",
        "T2_US_Wisconsin: davs://cmsxrootd.hep.wisc.edu:1094/store/mc/Run3Summer23NanoAODv12/Wto2Q-3Jets_HT-200to400_TuneCP5_13p6TeV_madgraphMLM-pythia8/NANOAODSIM/130X_mcRun3_2023_realistic_v14-v2/40000/59af2782-2822-4da1-809d-3dfe1ce5e28a.root",
        "T1_IT_CNAF_Tape: davs://xfer-cms.cr.cnaf.infn.it:8443/cmstape/store/mc/Run3Summer23NanoAODv12/Wto2Q-3Jets_HT-200to400_TuneCP5_13p6TeV_madgraphMLM-pythia8/NANOAODSIM/130X_mcRun3_2023_realistic_v14-v2/40000/59af2782-2822-4da1-809d-3dfe1ce5e28a.root",
        "T2_US_Purdue: davs://eos.cms.rcac.purdue.edu:9000/store/mc/Run3Summer23NanoAODv12/Wto2Q-3Jets_HT-200to400_TuneCP5_13p6TeV_madgraphMLM-pythia8/NANOAODSIM/130X_mcRun3_2023_realistic_v14-v2/40000/59af2782-2822-4da1-809d-3dfe1ce5e28a.root",
        "T1_RU_JINR_Disk: davs://se-wbdv.jinr-t1.ru:2880/pnfs/jinr-t1.ru/data/cms/store/mc/Run3Summer23NanoAODv12/Wto2Q-3Jets_HT-200to400_TuneCP5_13p6TeV_madgraphMLM-pythia8/NANOAODSIM/130X_mcRun3_2023_realistic_v14-v2/40000/59af2782-2822-4da1-809d-3dfe1ce5e28a.root",
        "T1_IT_CNAF_Disk: davs://xfer-cms.cr.cnaf.infn.it:8443/cmsdisk/store/mc/Run3Summer23NanoAODv12/Wto2Q-3Jets_HT-200to400_TuneCP5_13p6TeV_madgraphMLM-pythia8/NANOAODSIM/130X_mcRun3_2023_realistic_v14-v2/40000/59af2782-2822-4da1-809d-3dfe1ce5e28a.root"
    ],
    "cms:/store/mc/Run3Summer23NanoAODv12/Wto2Q-3Jets_HT-200to400_TuneCP5_13p6TeV_madgraphMLM-pythia8/NANOAODSIM/130X_mcRun3_2023_realistic_v14-v2/60000/25a3d5e2-adf3-4c90-86df-b924c6b15b77.root": [
        "T1_US_FNAL_Disk: davs://cmsdcadisk.fnal.gov:2880/dcache/uscmsdisk/store/mc/Run3Summer23NanoAODv12/Wto2Q-3Jets_HT-200to400_TuneCP5_13p6TeV_madgraphMLM-pythia8/NANOAODSIM/130X_mcRun3_2023_realistic_v14-v2/60000/25a3d5e2-adf3-4c90-86df-b924c6b15b77.root",
        "T2_DE_DESY: davs://dcache-cms-webdav-wan.desy.de:2880/pnfs/desy.de/cms/tier2/store/mc/Run3Summer23NanoAODv12/Wto2Q-3Jets_HT-200to400_TuneCP5_13p6TeV_madgraphMLM-pythia8/NANOAODSIM/130X_mcRun3_2023_realistic_v14-v2/60000/25a3d5e2-adf3-4c90-86df-b924c6b15b77.root",
        "T2_UK_SGrid_RALPP: davs://mover.pp.rl.ac.uk:2880/pnfs/pp.rl.ac.uk/data/cms/store/mc/Run3Summer23NanoAODv12/Wto2Q-3Jets_HT-200to400_TuneCP5_13p6TeV_madgraphMLM-pythia8/NANOAODSIM/130X_mcRun3_2023_realistic_v14-v2/60000/25a3d5e2-adf3-4c90-86df-b924c6b15b77.root",
        "T2_US_Wisconsin: davs://cmsxrootd.hep.wisc.edu:1094/store/mc/Run3Summer23NanoAODv12/Wto2Q-3Jets_HT-200to400_TuneCP5_13p6TeV_madgraphMLM-pythia8/NANOAODSIM/130X_mcRun3_2023_realistic_v14-v2/60000/25a3d5e2-adf3-4c90-86df-b924c6b15b77.root",
        "T1_IT_CNAF_Tape: davs://xfer-cms.cr.cnaf.infn.it:8443/cmstape/store/mc/Run3Summer23NanoAODv12/Wto2Q-3Jets_HT-200to400_TuneCP5_13p6TeV_madgraphMLM-pythia8/NANOAODSIM/130X_mcRun3_2023_realistic_v14-v2/60000/25a3d5e2-adf3-4c90-86df-b924c6b15b77.root",
        "T2_US_Purdue: davs://eos.cms.rcac.purdue.edu:9000/store/mc/Run3Summer23NanoAODv12/Wto2Q-3Jets_HT-200to400_TuneCP5_13p6TeV_madgraphMLM-pythia8/NANOAODSIM/130X_mcRun3_2023_realistic_v14-v2/60000/25a3d5e2-adf3-4c90-86df-b924c6b15b77.root",
        "T1_RU_JINR_Disk: davs://se-wbdv.jinr-t1.ru:2880/pnfs/jinr-t1.ru/data/cms/store/mc/Run3Summer23NanoAODv12/Wto2Q-3Jets_HT-200to400_TuneCP5_13p6TeV_madgraphMLM-pythia8/NANOAODSIM/130X_mcRun3_2023_realistic_v14-v2/60000/25a3d5e2-adf3-4c90-86df-b924c6b15b77.root",
        "T1_IT_CNAF_Disk: davs://xfer-cms.cr.cnaf.infn.it:8443/cmsdisk/store/mc/Run3Summer23NanoAODv12/Wto2Q-3Jets_HT-200to400_TuneCP5_13p6TeV_madgraphMLM-pythia8/NANOAODSIM/130X_mcRun3_2023_realistic_v14-v2/60000/25a3d5e2-adf3-4c90-86df-b924c6b15b77.root"
    ],
    "cms:/store/mc/Run3Summer23NanoAODv12/Wto2Q-3Jets_HT-200to400_TuneCP5_13p6TeV_madgraphMLM-pythia8/NANOAODSIM/130X_mcRun3_2023_realistic_v14-v2/40000/2c9273b8-bbb2-4471-af20-daf91e83d87b.root": [
        "T1_US_FNAL_Disk: davs://cmsdcadisk.fnal.gov:2880/dcache/uscmsdisk/store/mc/Run3Summer23NanoAODv12/Wto2Q-3Jets_HT-200to400_TuneCP5_13p6TeV_madgraphMLM-pythia8/NANOAODSIM/130X_mcRun3_2023_realistic_v14-v2/40000/2c9273b8-bbb2-4471-af20-daf91e83d87b.root",
        "T2_DE_DESY: davs://dcache-cms-webdav-wan.desy.de:2880/pnfs/desy.de/cms/tier2/store/mc/Run3Summer23NanoAODv12/Wto2Q-3Jets_HT-200to400_TuneCP5_13p6TeV_madgraphMLM-pythia8/NANOAODSIM/130X_mcRun3_2023_realistic_v14-v2/40000/2c9273b8-bbb2-4471-af20-daf91e83d87b.root",
        "T2_UK_SGrid_RALPP: davs://mover.pp.rl.ac.uk:2880/pnfs/pp.rl.ac.uk/data/cms/store/mc/Run3Summer23NanoAODv12/Wto2Q-3Jets_HT-200to400_TuneCP5_13p6TeV_madgraphMLM-pythia8/NANOAODSIM/130X_mcRun3_2023_realistic_v14-v2/40000/2c9273b8-bbb2-4471-af20-daf91e83d87b.root",
        "T2_US_Wisconsin: davs://cmsxrootd.hep.wisc.edu:1094/store/mc/Run3Summer23NanoAODv12/Wto2Q-3Jets_HT-200to400_TuneCP5_13p6TeV_madgraphMLM-pythia8/NANOAODSIM/130X_mcRun3_2023_realistic_v14-v2/40000/2c9273b8-bbb2-4471-af20-daf91e83d87b.root",
        "T1_IT_CNAF_Tape: davs://xfer-cms.cr.cnaf.infn.it:8443/cmstape/store/mc/Run3Summer23NanoAODv12/Wto2Q-3Jets_HT-200to400_TuneCP5_13p6TeV_madgraphMLM-pythia8/NANOAODSIM/130X_mcRun3_2023_realistic_v14-v2/40000/2c9273b8-bbb2-4471-af20-daf91e83d87b.root",
        "T2_US_Purdue: davs://eos.cms.rcac.purdue.edu:9000/store/mc/Run3Summer23NanoAODv12/Wto2Q-3Jets_HT-200to400_TuneCP5_13p6TeV_madgraphMLM-pythia8/NANOAODSIM/130X_mcRun3_2023_realistic_v14-v2/40000/2c9273b8-bbb2-4471-af20-daf91e83d87b.root",
        "T1_RU_JINR_Disk: davs://se-wbdv.jinr-t1.ru:2880/pnfs/jinr-t1.ru/data/cms/store/mc/Run3Summer23NanoAODv12/Wto2Q-3Jets_HT-200to400_TuneCP5_13p6TeV_madgraphMLM-pythia8/NANOAODSIM/130X_mcRun3_2023_realistic_v14-v2/40000/2c9273b8-bbb2-4471-af20-daf91e83d87b.root",
        "T1_IT_CNAF_Disk: davs://xfer-cms.cr.cnaf.infn.it:8443/cmsdisk/store/mc/Run3Summer23NanoAODv12/Wto2Q-3Jets_HT-200to400_TuneCP5_13p6TeV_madgraphMLM-pythia8/NANOAODSIM/130X_mcRun3_2023_realistic_v14-v2/40000/2c9273b8-bbb2-4471-af20-daf91e83d87b.root"
    ],
    "cms:/store/mc/Run3Summer23NanoAODv12/Wto2Q-3Jets_HT-200to400_TuneCP5_13p6TeV_madgraphMLM-pythia8/NANOAODSIM/130X_mcRun3_2023_realistic_v14-v2/40000/f2c10450-962b-4bf8-83ac-db92d46ab760.root": [
        "T1_US_FNAL_Disk: davs://cmsdcadisk.fnal.gov:2880/dcache/uscmsdisk/store/mc/Run3Summer23NanoAODv12/Wto2Q-3Jets_HT-200to400_TuneCP5_13p6TeV_madgraphMLM-pythia8/NANOAODSIM/130X_mcRun3_2023_realistic_v14-v2/40000/f2c10450-962b-4bf8-83ac-db92d46ab760.root",
        "T2_DE_DESY: davs://dcache-cms-webdav-wan.desy.de:2880/pnfs/desy.de/cms/tier2/store/mc/Run3Summer23NanoAODv12/Wto2Q-3Jets_HT-200to400_TuneCP5_13p6TeV_madgraphMLM-pythia8/NANOAODSIM/130X_mcRun3_2023_realistic_v14-v2/40000/f2c10450-962b-4bf8-83ac-db92d46ab760.root",
        "T2_UK_SGrid_RALPP: davs://mover.pp.rl.ac.uk:2880/pnfs/pp.rl.ac.uk/data/cms/store/mc/Run3Summer23NanoAODv12/Wto2Q-3Jets_HT-200to400_TuneCP5_13p6TeV_madgraphMLM-pythia8/NANOAODSIM/130X_mcRun3_2023_realistic_v14-v2/40000/f2c10450-962b-4bf8-83ac-db92d46ab760.root",
        "T2_US_Wisconsin: davs://cmsxrootd.hep.wisc.edu:1094/store/mc/Run3Summer23NanoAODv12/Wto2Q-3Jets_HT-200to400_TuneCP5_13p6TeV_madgraphMLM-pythia8/NANOAODSIM/130X_mcRun3_2023_realistic_v14-v2/40000/f2c10450-962b-4bf8-83ac-db92d46ab760.root",
        "T1_IT_CNAF_Tape: davs://xfer-cms.cr.cnaf.infn.it:8443/cmstape/store/mc/Run3Summer23NanoAODv12/Wto2Q-3Jets_HT-200to400_TuneCP5_13p6TeV_madgraphMLM-pythia8/NANOAODSIM/130X_mcRun3_2023_realistic_v14-v2/40000/f2c10450-962b-4bf8-83ac-db92d46ab760.root",
        "T2_US_Purdue: davs://eos.cms.rcac.purdue.edu:9000/store/mc/Run3Summer23NanoAODv12/Wto2Q-3Jets_HT-200to400_TuneCP5_13p6TeV_madgraphMLM-pythia8/NANOAODSIM/130X_mcRun3_2023_realistic_v14-v2/40000/f2c10450-962b-4bf8-83ac-db92d46ab760.root",
        "T1_RU_JINR_Disk: davs://se-wbdv.jinr-t1.ru:2880/pnfs/jinr-t1.ru/data/cms/store/mc/Run3Summer23NanoAODv12/Wto2Q-3Jets_HT-200to400_TuneCP5_13p6TeV_madgraphMLM-pythia8/NANOAODSIM/130X_mcRun3_2023_realistic_v14-v2/40000/f2c10450-962b-4bf8-83ac-db92d46ab760.root",
        "T1_IT_CNAF_Disk: davs://xfer-cms.cr.cnaf.infn.it:8443/cmsdisk/store/mc/Run3Summer23NanoAODv12/Wto2Q-3Jets_HT-200to400_TuneCP5_13p6TeV_madgraphMLM-pythia8/NANOAODSIM/130X_mcRun3_2023_realistic_v14-v2/40000/f2c10450-962b-4bf8-83ac-db92d46ab760.root"
    ],
    "cms:/store/mc/Run3Summer23NanoAODv12/Wto2Q-3Jets_HT-200to400_TuneCP5_13p6TeV_madgraphMLM-pythia8/NANOAODSIM/130X_mcRun3_2023_realistic_v14-v2/60000/f9db8182-cd4a-474d-9328-3e2b0b453942.root": [
        "T1_US_FNAL_Disk: davs://cmsdcadisk.fnal.gov:2880/dcache/uscmsdisk/store/mc/Run3Summer23NanoAODv12/Wto2Q-3Jets_HT-200to400_TuneCP5_13p6TeV_madgraphMLM-pythia8/NANOAODSIM/130X_mcRun3_2023_realistic_v14-v2/60000/f9db8182-cd4a-474d-9328-3e2b0b453942.root",
        "T2_DE_DESY: davs://dcache-cms-webdav-wan.desy.de:2880/pnfs/desy.de/cms/tier2/store/mc/Run3Summer23NanoAODv12/Wto2Q-3Jets_HT-200to400_TuneCP5_13p6TeV_madgraphMLM-pythia8/NANOAODSIM/130X_mcRun3_2023_realistic_v14-v2/60000/f9db8182-cd4a-474d-9328-3e2b0b453942.root",
        "T2_UK_SGrid_RALPP: davs://mover.pp.rl.ac.uk:2880/pnfs/pp.rl.ac.uk/data/cms/store/mc/Run3Summer23NanoAODv12/Wto2Q-3Jets_HT-200to400_TuneCP5_13p6TeV_madgraphMLM-pythia8/NANOAODSIM/130X_mcRun3_2023_realistic_v14-v2/60000/f9db8182-cd4a-474d-9328-3e2b0b453942.root",
        "T2_US_Wisconsin: davs://cmsxrootd.hep.wisc.edu:1094/store/mc/Run3Summer23NanoAODv12/Wto2Q-3Jets_HT-200to400_TuneCP5_13p6TeV_madgraphMLM-pythia8/NANOAODSIM/130X_mcRun3_2023_realistic_v14-v2/60000/f9db8182-cd4a-474d-9328-3e2b0b453942.root",
        "T1_IT_CNAF_Tape: davs://xfer-cms.cr.cnaf.infn.it:8443/cmstape/store/mc/Run3Summer23NanoAODv12/Wto2Q-3Jets_HT-200to400_TuneCP5_13p6TeV_madgraphMLM-pythia8/NANOAODSIM/130X_mcRun3_2023_realistic_v14-v2/60000/f9db8182-cd4a-474d-9328-3e2b0b453942.root",
        "T2_US_Purdue: davs://eos.cms.rcac.purdue.edu:9000/store/mc/Run3Summer23NanoAODv12/Wto2Q-3Jets_HT-200to400_TuneCP5_13p6TeV_madgraphMLM-pythia8/NANOAODSIM/130X_mcRun3_2023_realistic_v14-v2/60000/f9db8182-cd4a-474d-9328-3e2b0b453942.root",
        "T1_RU_JINR_Disk: davs://se-wbdv.jinr-t1.ru:2880/pnfs/jinr-t1.ru/data/cms/store/mc/Run3Summer23NanoAODv12/Wto2Q-3Jets_HT-200to400_TuneCP5_13p6TeV_madgraphMLM-pythia8/NANOAODSIM/130X_mcRun3_2023_realistic_v14-v2/60000/f9db8182-cd4a-474d-9328-3e2b0b453942.root",
        "T1_IT_CNAF_Disk: davs://xfer-cms.cr.cnaf.infn.it:8443/cmsdisk/store/mc/Run3Summer23NanoAODv12/Wto2Q-3Jets_HT-200to400_TuneCP5_13p6TeV_madgraphMLM-pythia8/NANOAODSIM/130X_mcRun3_2023_realistic_v14-v2/60000/f9db8182-cd4a-474d-9328-3e2b0b453942.root"
    ],
    "cms:/store/mc/Run3Summer23NanoAODv12/Wto2Q-3Jets_HT-200to400_TuneCP5_13p6TeV_madgraphMLM-pythia8/NANOAODSIM/130X_mcRun3_2023_realistic_v14-v2/40000/f7428eb1-816b-473b-84e7-19fa357d921c.root": [
        "T1_US_FNAL_Disk: davs://cmsdcadisk.fnal.gov:2880/dcache/uscmsdisk/store/mc/Run3Summer23NanoAODv12/Wto2Q-3Jets_HT-200to400_TuneCP5_13p6TeV_madgraphMLM-pythia8/NANOAODSIM/130X_mcRun3_2023_realistic_v14-v2/40000/f7428eb1-816b-473b-84e7-19fa357d921c.root",
        "T2_DE_DESY: davs://dcache-cms-webdav-wan.desy.de:2880/pnfs/desy.de/cms/tier2/store/mc/Run3Summer23NanoAODv12/Wto2Q-3Jets_HT-200to400_TuneCP5_13p6TeV_madgraphMLM-pythia8/NANOAODSIM/130X_mcRun3_2023_realistic_v14-v2/40000/f7428eb1-816b-473b-84e7-19fa357d921c.root",
        "T2_UK_SGrid_RALPP: davs://mover.pp.rl.ac.uk:2880/pnfs/pp.rl.ac.uk/data/cms/store/mc/Run3Summer23NanoAODv12/Wto2Q-3Jets_HT-200to400_TuneCP5_13p6TeV_madgraphMLM-pythia8/NANOAODSIM/130X_mcRun3_2023_realistic_v14-v2/40000/f7428eb1-816b-473b-84e7-19fa357d921c.root",
        "T2_US_Wisconsin: davs://cmsxrootd.hep.wisc.edu:1094/store/mc/Run3Summer23NanoAODv12/Wto2Q-3Jets_HT-200to400_TuneCP5_13p6TeV_madgraphMLM-pythia8/NANOAODSIM/130X_mcRun3_2023_realistic_v14-v2/40000/f7428eb1-816b-473b-84e7-19fa357d921c.root",
        "T1_IT_CNAF_Tape: davs://xfer-cms.cr.cnaf.infn.it:8443/cmstape/store/mc/Run3Summer23NanoAODv12/Wto2Q-3Jets_HT-200to400_TuneCP5_13p6TeV_madgraphMLM-pythia8/NANOAODSIM/130X_mcRun3_2023_realistic_v14-v2/40000/f7428eb1-816b-473b-84e7-19fa357d921c.root",
        "T2_US_Purdue: davs://eos.cms.rcac.purdue.edu:9000/store/mc/Run3Summer23NanoAODv12/Wto2Q-3Jets_HT-200to400_TuneCP5_13p6TeV_madgraphMLM-pythia8/NANOAODSIM/130X_mcRun3_2023_realistic_v14-v2/40000/f7428eb1-816b-473b-84e7-19fa357d921c.root",
        "T1_RU_JINR_Disk: davs://se-wbdv.jinr-t1.ru:2880/pnfs/jinr-t1.ru/data/cms/store/mc/Run3Summer23NanoAODv12/Wto2Q-3Jets_HT-200to400_TuneCP5_13p6TeV_madgraphMLM-pythia8/NANOAODSIM/130X_mcRun3_2023_realistic_v14-v2/40000/f7428eb1-816b-473b-84e7-19fa357d921c.root",
        "T1_IT_CNAF_Disk: davs://xfer-cms.cr.cnaf.infn.it:8443/cmsdisk/store/mc/Run3Summer23NanoAODv12/Wto2Q-3Jets_HT-200to400_TuneCP5_13p6TeV_madgraphMLM-pythia8/NANOAODSIM/130X_mcRun3_2023_realistic_v14-v2/40000/f7428eb1-816b-473b-84e7-19fa357d921c.root"
    ],
    "cms:/store/mc/Run3Summer23NanoAODv12/Wto2Q-3Jets_HT-200to400_TuneCP5_13p6TeV_madgraphMLM-pythia8/NANOAODSIM/130X_mcRun3_2023_realistic_v14-v2/60000/76e90a9e-64a9-42ae-8175-84c8784940b9.root": [
        "T1_US_FNAL_Disk: davs://cmsdcadisk.fnal.gov:2880/dcache/uscmsdisk/store/mc/Run3Summer23NanoAODv12/Wto2Q-3Jets_HT-200to400_TuneCP5_13p6TeV_madgraphMLM-pythia8/NANOAODSIM/130X_mcRun3_2023_realistic_v14-v2/60000/76e90a9e-64a9-42ae-8175-84c8784940b9.root",
        "T2_DE_DESY: davs://dcache-cms-webdav-wan.desy.de:2880/pnfs/desy.de/cms/tier2/store/mc/Run3Summer23NanoAODv12/Wto2Q-3Jets_HT-200to400_TuneCP5_13p6TeV_madgraphMLM-pythia8/NANOAODSIM/130X_mcRun3_2023_realistic_v14-v2/60000/76e90a9e-64a9-42ae-8175-84c8784940b9.root",
        "T2_UK_SGrid_RALPP: davs://mover.pp.rl.ac.uk:2880/pnfs/pp.rl.ac.uk/data/cms/store/mc/Run3Summer23NanoAODv12/Wto2Q-3Jets_HT-200to400_TuneCP5_13p6TeV_madgraphMLM-pythia8/NANOAODSIM/130X_mcRun3_2023_realistic_v14-v2/60000/76e90a9e-64a9-42ae-8175-84c8784940b9.root",
        "T2_US_Wisconsin: davs://cmsxrootd.hep.wisc.edu:1094/store/mc/Run3Summer23NanoAODv12/Wto2Q-3Jets_HT-200to400_TuneCP5_13p6TeV_madgraphMLM-pythia8/NANOAODSIM/130X_mcRun3_2023_realistic_v14-v2/60000/76e90a9e-64a9-42ae-8175-84c8784940b9.root",
        "T1_IT_CNAF_Tape: davs://xfer-cms.cr.cnaf.infn.it:8443/cmstape/store/mc/Run3Summer23NanoAODv12/Wto2Q-3Jets_HT-200to400_TuneCP5_13p6TeV_madgraphMLM-pythia8/NANOAODSIM/130X_mcRun3_2023_realistic_v14-v2/60000/76e90a9e-64a9-42ae-8175-84c8784940b9.root",
        "T2_US_Purdue: davs://eos.cms.rcac.purdue.edu:9000/store/mc/Run3Summer23NanoAODv12/Wto2Q-3Jets_HT-200to400_TuneCP5_13p6TeV_madgraphMLM-pythia8/NANOAODSIM/130X_mcRun3_2023_realistic_v14-v2/60000/76e90a9e-64a9-42ae-8175-84c8784940b9.root",
        "T1_RU_JINR_Disk: davs://se-wbdv.jinr-t1.ru:2880/pnfs/jinr-t1.ru/data/cms/store/mc/Run3Summer23NanoAODv12/Wto2Q-3Jets_HT-200to400_TuneCP5_13p6TeV_madgraphMLM-pythia8/NANOAODSIM/130X_mcRun3_2023_realistic_v14-v2/60000/76e90a9e-64a9-42ae-8175-84c8784940b9.root",
        "T1_IT_CNAF_Disk: davs://xfer-cms.cr.cnaf.infn.it:8443/cmsdisk/store/mc/Run3Summer23NanoAODv12/Wto2Q-3Jets_HT-200to400_TuneCP5_13p6TeV_madgraphMLM-pythia8/NANOAODSIM/130X_mcRun3_2023_realistic_v14-v2/60000/76e90a9e-64a9-42ae-8175-84c8784940b9.root"
    ]
}