{
    "cms:/store/mc/Run3Summer23BPixNanoAODv12/WWW_4F_TuneCP5_13p6TeV_amcatnlo-madspin-pythia8/NANOAODSIM/130X_mcRun3_2023_realistic_postBPix_v2-v2/30000/3d8d268d-dd12-40cf-aac6-1dc4e54b842b.root": [
        "T2_DE_DESY: davs://dcache-cms-webdav-wan.desy.de:2880/pnfs/desy.de/cms/tier2/store/mc/Run3Summer23BPixNanoAODv12/WWW_4F_TuneCP5_13p6TeV_amcatnlo-madspin-pythia8/NANOAODSIM/130X_mcRun3_2023_realistic_postBPix_v2-v2/30000/3d8d268d-dd12-40cf-aac6-1dc4e54b842b.root",
        "T1_DE_KIT_Tape: davs://cmsdcache-kit-tape.gridka.de:2880/pnfs/gridka.de/cms/tape/store/mc/Run3Summer23BPixNanoAODv12/WWW_4F_TuneCP5_13p6TeV_amcatnlo-madspin-pythia8/NANOAODSIM/130X_mcRun3_2023_realistic_postBPix_v2-v2/30000/3d8d268d-dd12-40cf-aac6-1dc4e54b842b.root",
        "T2_FR_GRIF: davs://eos.grif.fr:11000/eos/grif/cms/grif/store/mc/Run3Summer23BPixNanoAODv12/WWW_4F_TuneCP5_13p6TeV_amcatnlo-madspin-pythia8/NANOAODSIM/130X_mcRun3_2023_realistic_postBPix_v2-v2/30000/3d8d268d-dd12-40cf-aac6-1dc4e54b842b.root",
        "T2_CH_CERN: davs://eoscms.cern.ch:443/eos/cms/store/mc/Run3Summer23BPixNanoAODv12/WWW_4F_TuneCP5_13p6TeV_amcatnlo-madspin-pythia8/NANOAODSIM/130X_mcRun3_2023_realistic_postBPix_v2-v2/30000/3d8d268d-dd12-40cf-aac6-1dc4e54b842b.root",
        "T2_US_UCSD: davs://redirector.t2.ucsd.edu:1095/store/mc/Run3Summer23BPixNanoAODv12/WWW_4F_TuneCP5_13p6TeV_amcatnlo-madspin-pythia8/NANOAODSIM/130X_mcRun3_2023_realistic_postBPix_v2-v2/30000/3d8d268d-dd12-40cf-aac6-1dc4e54b842b.root",
        "T2_BE_UCL: davs://ingrid-se02.cism.ucl.ac.be:1094/store/mc/Run3Summer23BPixNanoAODv12/WWW_4F_TuneCP5_13p6TeV_amcatnlo-madspin-pythia8/NANOAODSIM/130X_mcRun3_2023_realistic_postBPix_v2-v2/30000/3d8d268d-dd12-40cf-aac6-1dc4e54b842b.root",
        "T2_US_Caltech: davs://k8s-redir-stageout.ultralight.org:1094/store/mc/Run3Summer23BPixNanoAODv12/WWW_4F_TuneCP5_13p6TeV_amcatnlo-madspin-pythia8/NANOAODSIM/130X_mcRun3_2023_realistic_postBPix_v2-v2/30000/3d8d268d-dd12-40cf-aac6-1dc4e54b842b.root",
        "T2_BE_IIHE: davs://maite.iihe.ac.be:2880/pnfs/iihe/cms/ph/sc4/store/mc/Run3Summer23BPixNanoAODv12/WWW_4F_TuneCP5_13p6TeV_amcatnlo-madspin-pythia8/NANOAODSIM/130X_mcRun3_2023_realistic_postBPix_v2-v2/30000/3d8d268d-dd12-40cf-aac6-1dc4e54b842b.root",
        "T1_RU_JINR_Disk: davs://se-wbdv.jinr-t1.ru:2880/pnfs/jinr-t1.ru/data/cms/store/mc/Run3Summer23BPixNanoAODv12/WWW_4F_TuneCP5_13p6TeV_amcatnlo-madspin-pythia8/NANOAODSIM/130X_mcRun3_2023_realistic_postBPix_v2-v2/30000/3d8d268d-dd12-40cf-aac6-1dc4e54b842b.root",
        "T2_ES_CIEMAT: davs://srm.ciemat.es:2880/pnfs/ciemat.es/data/cms/prod/store/mc/Run3Summer23BPixNanoAODv12/WWW_4F_TuneCP5_13p6TeV_amcatnlo-madspin-pythia8/NANOAODSIM/130X_mcRun3_2023_realistic_postBPix_v2-v2/30000/3d8d268d-dd12-40cf-aac6-1dc4e54b842b.root"
    ],
    "cms:/store/mc/Run3Summer23BPixNanoAODv12/WWW_4F_TuneCP5_13p6TeV_amcatnlo-madspin-pythia8/NANOAODSIM/130X_mcRun3_2023_realistic_postBPix_v2-v2/30000/a68965b4-92ce-4333-8598-b3490058c6fc.root": [
        "T2_DE_DESY: davs://dcache-cms-webdav-wan.desy.de:2880/pnfs/desy.de/cms/tier2/store/mc/Run3Summer23BPixNanoAODv12/WWW_4F_TuneCP5_13p6TeV_amcatnlo-madspin-pythia8/NANOAODSIM/130X_mcRun3_2023_realistic_postBPix_v2-v2/30000/a68965b4-92ce-4333-8598-b3490058c6fc.root",
        "T1_DE_KIT_Tape: davs://cmsdcache-kit-tape.gridka.de:2880/pnfs/gridka.de/cms/tape/store/mc/Run3Summer23BPixNanoAODv12/WWW_4F_TuneCP5_13p6TeV_amcatnlo-madspin-pythia8/NANOAODSIM/130X_mcRun3_2023_realistic_postBPix_v2-v2/30000/a68965b4-92ce-4333-8598-b3490058c6fc.root",
        "T2_FR_GRIF: davs://eos.grif.fr:11000/eos/grif/cms/grif/store/mc/Run3Summer23BPixNanoAODv12/WWW_4F_TuneCP5_13p6TeV_amcatnlo-madspin-pythia8/NANOAODSIM/130X_mcRun3_2023_realistic_postBPix_v2-v2/30000/a68965b4-92ce-4333-8598-b3490058c6fc.root",
        "T2_CH_CERN: davs://eoscms.cern.ch:443/eos/cms/store/mc/Run3Summer23BPixNanoAODv12/WWW_4F_TuneCP5_13p6TeV_amcatnlo-madspin-pythia8/NANOAODSIM/130X_mcRun3_2023_realistic_postBPix_v2-v2/30000/a68965b4-92ce-4333-8598-b3490058c6fc.root",
        "T2_US_UCSD: davs://redirector.t2.ucsd.edu:1095/store/mc/Run3Summer23BPixNanoAODv12/WWW_4F_TuneCP5_13p6TeV_amcatnlo-madspin-pythia8/NANOAODSIM/130X_mcRun3_2023_realistic_postBPix_v2-v2/30000/a68965b4-92ce-4333-8598-b3490058c6fc.root",
        "T2_BE_UCL: davs://ingrid-se02.cism.ucl.ac.be:1094/store/mc/Run3Summer23BPixNanoAODv12/WWW_4F_TuneCP5_13p6TeV_amcatnlo-madspin-pythia8/NANOAODSIM/130X_mcRun3_2023_realistic_postBPix_v2-v2/30000/a68965b4-92ce-4333-8598-b3490058c6fc.root",
        "T2_US_Caltech: davs://k8s-redir-stageout.ultralight.org:1094/store/mc/Run3Summer23BPixNanoAODv12/WWW_4F_TuneCP5_13p6TeV_amcatnlo-madspin-pythia8/NANOAODSIM/130X_mcRun3_2023_realistic_postBPix_v2-v2/30000/a68965b4-92ce-4333-8598-b3490058c6fc.root",
        "T2_BE_IIHE: davs://maite.iihe.ac.be:2880/pnfs/iihe/cms/ph/sc4/store/mc/Run3Summer23BPixNanoAODv12/WWW_4F_TuneCP5_13p6TeV_amcatnlo-madspin-pythia8/NANOAODSIM/130X_mcRun3_2023_realistic_postBPix_v2-v2/30000/a68965b4-92ce-4333-8598-b3490058c6fc.root",
        "T1_RU_JINR_Disk: davs://se-wbdv.jinr-t1.ru:2880/pnfs/jinr-t1.ru/data/cms/store/mc/Run3Summer23BPixNanoAODv12/WWW_4F_TuneCP5_13p6TeV_amcatnlo-madspin-pythia8/NANOAODSIM/130X_mcRun3_2023_realistic_postBPix_v2-v2/30000/a68965b4-92ce-4333-8598-b3490058c6fc.root",
        "T2_ES_CIEMAT: davs://srm.ciemat.es:2880/pnfs/ciemat.es/data/cms/prod/store/mc/Run3Summer23BPixNanoAODv12/WWW_4F_TuneCP5_13p6TeV_amcatnlo-madspin-pythia8/NANOAODSIM/130X_mcRun3_2023_realistic_postBPix_v2-v2/30000/a68965b4-92ce-4333-8598-b3490058c6fc.root"
    ]
}