+---------------------------------------------------------------------------------------------------------------------------------------------------------------+--------+-------------+------------+----------+
| SCOPE:NAME                                                                                                                                                    | GUID   | ADLER32     | FILESIZE   | EVENTS   |
|---------------------------------------------------------------------------------------------------------------------------------------------------------------+--------+-------------+------------+----------|
| cms:/store/mc/Run3Summer22NanoAODv12/WZ_TuneCP5_13p6TeV_pythia8/NANOAODSIM/130X_mcRun3_2022_realistic_v5-v2/2540000/5f481f88-73f1-44ed-b357-a2cbdf895e1c.root | (None) | ad:8c85fae6 | 206.514 MB |          |
| cms:/store/mc/Run3Summer22NanoAODv12/WZ_TuneCP5_13p6TeV_pythia8/NANOAODSIM/130X_mcRun3_2022_realistic_v5-v2/2540000/ad5df4aa-5213-4ebd-aed4-152a3a4bba58.root | (None) | ad:428938e3 | 23.200 MB  |          |
| cms:/store/mc/Run3Summer22NanoAODv12/WZ_TuneCP5_13p6TeV_pythia8/NANOAODSIM/130X_mcRun3_2022_realistic_v5-v2/40000/8faba504-7ea4-4f8b-8c63-3a01cde91b44.root   | (None) | ad:ea01afd7 | 659.951 MB |          |
| cms:/store/mc/Run3Summer22NanoAODv12/WZ_TuneCP5_13p6TeV_pythia8/NANOAODSIM/130X_mcRun3_2022_realistic_v5-v2/2540000/7e7d9180-e56f-474d-b2d6-c0742ee2bd44.root | (None) | ad:4b0f606e | 87.328 MB  |          |
| cms:/store/mc/Run3Summer22NanoAODv12/WZ_TuneCP5_13p6TeV_pythia8/NANOAODSIM/130X_mcRun3_2022_realistic_v5-v2/2540000/34e409d9-fc51-444b-beff-90a08c1e7bba.root | (None) | ad:c7202154 | 435.744 MB |          |
| cms:/store/mc/Run3Summer22NanoAODv12/WZ_TuneCP5_13p6TeV_pythia8/NANOAODSIM/130X_mcRun3_2022_realistic_v5-v2/2520000/74a7ec6b-968f-4c72-89d9-8637e4d73321.root | (None) | ad:e3852aa6 | 295.894 MB |          |
| cms:/store/mc/Run3Summer22NanoAODv12/WZ_TuneCP5_13p6TeV_pythia8/NANOAODSIM/130X_mcRun3_2022_realistic_v5-v2/40000/d7d1b9e4-eb3e-4cee-a4da-d45e5afcbb98.root   | (None) | ad:4ae40686 | 203.395 MB |          |
| cms:/store/mc/Run3Summer22NanoAODv12/WZ_TuneCP5_13p6TeV_pythia8/NANOAODSIM/130X_mcRun3_2022_realistic_v5-v2/2540000/8d177f83-3e6d-44b6-9f18-75954e825361.root | (None) | ad:3c135264 | 36.179 MB  |          |
| cms:/store/mc/Run3Summer22NanoAODv12/WZ_TuneCP5_13p6TeV_pythia8/NANOAODSIM/130X_mcRun3_2022_realistic_v5-v2/2520000/fe9fa956-f1ea-4e46-a87e-afe5ac8c9eed.root | (None) | ad:57677ed4 | 32.318 MB  |          |
| cms:/store/mc/Run3Summer22NanoAODv12/WZ_TuneCP5_13p6TeV_pythia8/NANOAODSIM/130X_mcRun3_2022_realistic_v5-v2/2530000/f50be183-c826-4a6a-9f5e-cc0a5e9b053f.root | (None) | ad:252e855a | 329.861 MB |          |
| cms:/store/mc/Run3Summer22NanoAODv12/WZ_TuneCP5_13p6TeV_pythia8/NANOAODSIM/130X_mcRun3_2022_realistic_v5-v2/2530000/d3ef918f-c4f1-439a-a524-125b790721b8.root | (None) | ad:4380c1cc | 32.279 MB  |          |
| cms:/store/mc/Run3Summer22NanoAODv12/WZ_TuneCP5_13p6TeV_pythia8/NANOAODSIM/130X_mcRun3_2022_realistic_v5-v2/40000/6d3aeb3b-2704-46fd-aa61-762538276969.root   | (None) | ad:b67de138 | 260.644 MB |          |
| cms:/store/mc/Run3Summer22NanoAODv12/WZ_TuneCP5_13p6TeV_pythia8/NANOAODSIM/130X_mcRun3_2022_realistic_v5-v2/40000/911f4514-ac58-490d-b6b4-c971c9b6ce37.root   | (None) | ad:214decc6 | 117.242 MB |          |
| cms:/store/mc/Run3Summer22NanoAODv12/WZ_TuneCP5_13p6TeV_pythia8/NANOAODSIM/130X_mcRun3_2022_realistic_v5-v2/2540000/6fe343e1-88c7-4b2b-8b64-efc78a9d7f31.root | (None) | ad:4dd17f04 | 15.806 MB  |          |
| cms:/store/mc/Run3Summer22NanoAODv12/WZ_TuneCP5_13p6TeV_pythia8/NANOAODSIM/130X_mcRun3_2022_realistic_v5-v2/40000/633672d9-7958-4b6b-b949-935e5455e40e.root   | (None) | ad:8a849e6a | 141.296 MB |          |
| cms:/store/mc/Run3Summer22NanoAODv12/WZ_TuneCP5_13p6TeV_pythia8/NANOAODSIM/130X_mcRun3_2022_realistic_v5-v2/2540000/28957332-5eac-4db9-a3a7-baf08d8c2126.root | (None) | ad:83557986 | 937.448 MB |          |
| cms:/store/mc/Run3Summer22NanoAODv12/WZ_TuneCP5_13p6TeV_pythia8/NANOAODSIM/130X_mcRun3_2022_realistic_v5-v2/2540000/7e7c84c8-4f52-409c-ba99-660217ed2710.root | (None) | ad:4dcd494f | 162.106 MB |          |
| cms:/store/mc/Run3Summer22NanoAODv12/WZ_TuneCP5_13p6TeV_pythia8/NANOAODSIM/130X_mcRun3_2022_realistic_v5-v2/2520000/28b5eae9-efe2-43a4-9476-6297443c02d4.root | (None) | ad:ad970866 | 268.342 MB |          |
| cms:/store/mc/Run3Summer22NanoAODv12/WZ_TuneCP5_13p6TeV_pythia8/NANOAODSIM/130X_mcRun3_2022_realistic_v5-v2/2540000/3cb17a28-1bbd-49d0-8097-e7719c533a63.root | (None) | ad:a8feb95c | 83.519 MB  |          |
| cms:/store/mc/Run3Summer22NanoAODv12/WZ_TuneCP5_13p6TeV_pythia8/NANOAODSIM/130X_mcRun3_2022_realistic_v5-v2/2540000/24cf6d67-345c-417f-a36c-980085613ca0.root | (None) | ad:6bd0cbfd | 3.841 MB   |          |
| cms:/store/mc/Run3Summer22NanoAODv12/WZ_TuneCP5_13p6TeV_pythia8/NANOAODSIM/130X_mcRun3_2022_realistic_v5-v2/2530000/77708607-b160-4d91-bc61-83a043c9ee90.root | (None) | ad:a3df90c4 | 62.523 MB  |          |
| cms:/store/mc/Run3Summer22NanoAODv12/WZ_TuneCP5_13p6TeV_pythia8/NANOAODSIM/130X_mcRun3_2022_realistic_v5-v2/50000/e2611833-b33f-4f27-b35d-981817ef43f5.root   | (None) | ad:d9d2e305 | 6.882 MB   |          |
| cms:/store/mc/Run3Summer22NanoAODv12/WZ_TuneCP5_13p6TeV_pythia8/NANOAODSIM/130X_mcRun3_2022_realistic_v5-v2/40000/b2136444-aada-4668-9429-7ffc84610c80.root   | (None) | ad:18a68add | 37.032 MB  |          |
| cms:/store/mc/Run3Summer22NanoAODv12/WZ_TuneCP5_13p6TeV_pythia8/NANOAODSIM/130X_mcRun3_2022_realistic_v5-v2/2540000/62e0d0af-0614-4240-a4fa-e905a12f7b5a.root | (None) | ad:dd1b17a7 | 234.060 MB |          |
| cms:/store/mc/Run3Summer22NanoAODv12/WZ_TuneCP5_13p6TeV_pythia8/NANOAODSIM/130X_mcRun3_2022_realistic_v5-v2/2540000/76909b7e-5ffb-4779-a6ab-2713ed9a5424.root | (None) | ad:3bd027da | 5.138 MB   |          |
| cms:/store/mc/Run3Summer22NanoAODv12/WZ_TuneCP5_13p6TeV_pythia8/NANOAODSIM/130X_mcRun3_2022_realistic_v5-v2/50000/a1b5b83d-8bf2-496b-814a-9624897c1ab3.root   | (None) | ad:d6d1ae40 | 211.800 MB |          |
| cms:/store/mc/Run3Summer22NanoAODv12/WZ_TuneCP5_13p6TeV_pythia8/NANOAODSIM/130X_mcRun3_2022_realistic_v5-v2/2550000/e19d8ea8-79c6-4458-9249-61dc6b60ca0b.root | (None) | ad:9cce4ae4 | 352.446 MB |          |
| cms:/store/mc/Run3Summer22NanoAODv12/WZ_TuneCP5_13p6TeV_pythia8/NANOAODSIM/130X_mcRun3_2022_realistic_v5-v2/2520000/ed9d1460-0e7c-4443-865e-d295350004db.root | (None) | ad:d8851b93 | 183.532 MB |          |
| cms:/store/mc/Run3Summer22NanoAODv12/WZ_TuneCP5_13p6TeV_pythia8/NANOAODSIM/130X_mcRun3_2022_realistic_v5-v2/40000/548f4293-86ae-4167-8888-dbddf2315b38.root   | (None) | ad:ec04112d | 6.008 MB   |          |
| cms:/store/mc/Run3Summer22NanoAODv12/WZ_TuneCP5_13p6TeV_pythia8/NANOAODSIM/130X_mcRun3_2022_realistic_v5-v2/2540000/34a92fad-5875-4889-8506-7f367654616d.root | (None) | ad:8eb793cf | 23.972 MB  |          |
| cms:/store/mc/Run3Summer22NanoAODv12/WZ_TuneCP5_13p6TeV_pythia8/NANOAODSIM/130X_mcRun3_2022_realistic_v5-v2/2520000/49862380-7f48-4164-b7ea-4f308bfae992.root | (None) | ad:24a4e634 | 24.014 MB  |          |
| cms:/store/mc/Run3Summer22NanoAODv12/WZ_TuneCP5_13p6TeV_pythia8/NANOAODSIM/130X_mcRun3_2022_realistic_v5-v2/2520000/d65cd531-0b65-442f-8b08-2555050a7445.root | (None) | ad:6b2ce266 | 1.064 GB   |          |
| cms:/store/mc/Run3Summer22NanoAODv12/WZ_TuneCP5_13p6TeV_pythia8/NANOAODSIM/130X_mcRun3_2022_realistic_v5-v2/2520000/d80fa0e5-51ae-4a0e-8cad-a40fd6396c02.root | (None) | ad:bd7aa7a8 | 1.134 GB   |          |
| cms:/store/mc/Run3Summer22NanoAODv12/WZ_TuneCP5_13p6TeV_pythia8/NANOAODSIM/130X_mcRun3_2022_realistic_v5-v2/40000/ee2ab3a6-a8b4-420a-8d99-75d0c60cfd0d.root   | (None) | ad:c01b75db | 338.875 MB |          |
| cms:/store/mc/Run3Summer22NanoAODv12/WZ_TuneCP5_13p6TeV_pythia8/NANOAODSIM/130X_mcRun3_2022_realistic_v5-v2/2540000/e9fe4499-fd51-4c88-9636-54d11fd31d87.root | (None) | ad:322858e4 | 116.487 MB |          |
| cms:/store/mc/Run3Summer22NanoAODv12/WZ_TuneCP5_13p6TeV_pythia8/NANOAODSIM/130X_mcRun3_2022_realistic_v5-v2/2540000/1d0f76ba-212e-4412-86fd-133278dac428.root | (None) | ad:4c22778b | 335.421 MB |          |
| cms:/store/mc/Run3Summer22NanoAODv12/WZ_TuneCP5_13p6TeV_pythia8/NANOAODSIM/130X_mcRun3_2022_realistic_v5-v2/30000/bd9615c4-5c42-4503-92f8-0b660c544c3a.root   | (None) | ad:c3ea8ae8 | 5.984 MB   |          |
| cms:/store/mc/Run3Summer22NanoAODv12/WZ_TuneCP5_13p6TeV_pythia8/NANOAODSIM/130X_mcRun3_2022_realistic_v5-v2/40000/4595b865-460f-43f2-a1fc-9ebf77515573.root   | (None) | ad:db1258ee | 78.982 MB  |          |
| cms:/store/mc/Run3Summer22NanoAODv12/WZ_TuneCP5_13p6TeV_pythia8/NANOAODSIM/130X_mcRun3_2022_realistic_v5-v2/40000/e04a1c8b-7f1e-4fec-93ea-5f992521c098.root   | (None) | ad:dd0536ab | 29.717 MB  |          |
| cms:/store/mc/Run3Summer22NanoAODv12/WZ_TuneCP5_13p6TeV_pythia8/NANOAODSIM/130X_mcRun3_2022_realistic_v5-v2/2540000/1226d0b9-f112-4c1d-bd92-773e4182fe2c.root | (None) | ad:357b3184 | 666.710 MB |          |
| cms:/store/mc/Run3Summer22NanoAODv12/WZ_TuneCP5_13p6TeV_pythia8/NANOAODSIM/130X_mcRun3_2022_realistic_v5-v2/2540000/957ad5cc-b4ab-49ea-aca4-e255cfb0bf92.root | (None) | ad:32ce2042 | 51.676 MB  |          |
| cms:/store/mc/Run3Summer22NanoAODv12/WZ_TuneCP5_13p6TeV_pythia8/NANOAODSIM/130X_mcRun3_2022_realistic_v5-v2/2520000/a5c1a368-15f2-469e-915a-f5ec74235b23.root | (None) | ad:65676ead | 62.526 MB  |          |
| cms:/store/mc/Run3Summer22NanoAODv12/WZ_TuneCP5_13p6TeV_pythia8/NANOAODSIM/130X_mcRun3_2022_realistic_v5-v2/2520000/a9f8c92d-24bd-4523-89f9-5e6dd8f9681a.root | (None) | ad:c8326cab | 109.135 MB |          |
| cms:/store/mc/Run3Summer22NanoAODv12/WZ_TuneCP5_13p6TeV_pythia8/NANOAODSIM/130X_mcRun3_2022_realistic_v5-v2/50000/4bca148a-9aba-490f-83bd-8e93b08f8867.root   | (None) | ad:557a2555 | 9.342 MB   |          |
| cms:/store/mc/Run3Summer22NanoAODv12/WZ_TuneCP5_13p6TeV_pythia8/NANOAODSIM/130X_mcRun3_2022_realistic_v5-v2/2540000/057f29d0-90af-49d5-9445-2a394ebdc01d.root | (None) | ad:c7efef83 | 51.671 MB  |          |
| cms:/store/mc/Run3Summer22NanoAODv12/WZ_TuneCP5_13p6TeV_pythia8/NANOAODSIM/130X_mcRun3_2022_realistic_v5-v2/2540000/f35b6bb9-4393-4824-99f6-b2ca4ad73c33.root | (None) | ad:8d4ee7ba | 29.765 MB  |          |
+---------------------------------------------------------------------------------------------------------------------------------------------------------------+--------+-------------+------------+----------+
Total files : 46
Total size : 9.565 GB
