+----------------------------------------------------------------------------------------------------------------------------------------------------------------------------------------------------+--------+-------------+------------+----------+
| SCOPE:NAME                                                                                                                                                                                         | GUID   | ADLER32     | FILESIZE   | EVENTS   |
|----------------------------------------------------------------------------------------------------------------------------------------------------------------------------------------------------+--------+-------------+------------+----------|
| cms:/store/mc/Run3Summer22EENanoAODv12/Zto2Q-4Jets_HT-800_TuneCP5_13p6TeV_madgraphMLM-pythia8/NANOAODSIM/130X_mcRun3_2022_realistic_postEE_v6-v2/50000/4b9d2bae-9bfe-4fe4-ae39-72a8a97bf2ad.root   | (None) | ad:9df06332 | 191.408 MB |          |
| cms:/store/mc/Run3Summer22EENanoAODv12/Zto2Q-4Jets_HT-800_TuneCP5_13p6TeV_madgraphMLM-pythia8/NANOAODSIM/130X_mcRun3_2022_realistic_postEE_v6-v2/2540000/742d9540-9088-4219-a37a-a469bee1a067.root | (None) | ad:74e1dd20 | 8.019 MB   |          |
| cms:/store/mc/Run3Summer22EENanoAODv12/Zto2Q-4Jets_HT-800_TuneCP5_13p6TeV_madgraphMLM-pythia8/NANOAODSIM/130X_mcRun3_2022_realistic_postEE_v6-v2/40000/185550df-ca5a-4a42-86ad-b7d8003d7ba6.root   | (None) | ad:d724989c | 4.420 MB   |          |
| cms:/store/mc/Run3Summer22EENanoAODv12/Zto2Q-4Jets_HT-800_TuneCP5_13p6TeV_madgraphMLM-pythia8/NANOAODSIM/130X_mcRun3_2022_realistic_postEE_v6-v2/40000/bd9c621e-b9dd-4fca-9b2f-7fdecdcbe5c4.root   | (None) | ad:c3b47136 | 496.222 MB |          |
| cms:/store/mc/Run3Summer22EENanoAODv12/Zto2Q-4Jets_HT-800_TuneCP5_13p6TeV_madgraphMLM-pythia8/NANOAODSIM/130X_mcRun3_2022_realistic_postEE_v6-v2/30000/ee09b760-27d6-4d31-811c-7040b3882940.root   | (None) | ad:1666a997 | 684.717 MB |          |
| cms:/store/mc/Run3Summer22EENanoAODv12/Zto2Q-4Jets_HT-800_TuneCP5_13p6TeV_madgraphMLM-pythia8/NANOAODSIM/130X_mcRun3_2022_realistic_postEE_v6-v2/40000/230e9865-1cac-4bda-90c7-a694fc6f03e2.root   | (None) | ad:774a4cb0 | 1.492 GB   |          |
| cms:/store/mc/Run3Summer22EENanoAODv12/Zto2Q-4Jets_HT-800_TuneCP5_13p6TeV_madgraphMLM-pythia8/NANOAODSIM/130X_mcRun3_2022_realistic_postEE_v6-v2/40000/edaa3d31-09f3-44f2-8e4d-2416989fe1fa.root   | (None) | ad:a53ac0a1 | 683.166 MB |          |
| cms:/store/mc/Run3Summer22EENanoAODv12/Zto2Q-4Jets_HT-800_TuneCP5_13p6TeV_madgraphMLM-pythia8/NANOAODSIM/130X_mcRun3_2022_realistic_postEE_v6-v2/50000/07705359-6af7-45ab-8102-30e6fbf1d494.root   | (None) | ad:102b0e8a | 1.594 GB   |          |
| cms:/store/mc/Run3Summer22EENanoAODv12/Zto2Q-4Jets_HT-800_TuneCP5_13p6TeV_madgraphMLM-pythia8/NANOAODSIM/130X_mcRun3_2022_realistic_postEE_v6-v2/50000/45f66ee9-f6ec-4471-8c2a-328f1231d4fb.root   | (None) | ad:3d6e85bf | 229.398 MB |          |
| cms:/store/mc/Run3Summer22EENanoAODv12/Zto2Q-4Jets_HT-800_TuneCP5_13p6TeV_madgraphMLM-pythia8/NANOAODSIM/130X_mcRun3_2022_realistic_postEE_v6-v2/50000/5f8222df-5d39-479b-bbaa-6491f1be0664.root   | (None) | ad:a91febe0 | 238.752 MB |          |
| cms:/store/mc/Run3Summer22EENanoAODv12/Zto2Q-4Jets_HT-800_TuneCP5_13p6TeV_madgraphMLM-pythia8/NANOAODSIM/130X_mcRun3_2022_realistic_postEE_v6-v2/50000/65fa898d-a7a8-46a9-ba08-972368432f04.root   | (None) | ad:e463789b | 1.291 GB   |          |
| cms:/store/mc/Run3Summer22EENanoAODv12/Zto2Q-4Jets_HT-800_TuneCP5_13p6TeV_madgraphMLM-pythia8/NANOAODSIM/130X_mcRun3_2022_realistic_postEE_v6-v2/50000/e64a5d9d-5cb2-421f-842f-900bc2e3bf85.root   | (None) | ad:3be40f1b | 229.864 MB |          |
| cms:/store/mc/Run3Summer22EENanoAODv12/Zto2Q-4Jets_HT-800_TuneCP5_13p6TeV_madgraphMLM-pythia8/NANOAODSIM/130X_mcRun3_2022_realistic_postEE_v6-v2/40000/1f9d4bed-204f-42de-b3c4-260888238144.root   | (None) | ad:a9221fac | 81.686 MB  |          |
| cms:/store/mc/Run3Summer22EENanoAODv12/Zto2Q-4Jets_HT-800_TuneCP5_13p6TeV_madgraphMLM-pythia8/NANOAODSIM/130X_mcRun3_2022_realistic_postEE_v6-v2/40000/b9c8ea44-af1c-4cb3-aece-c1e2b033890b.root   | (None) | ad:96d6c77a | 101.958 MB |          |
| cms:/store/mc/Run3Summer22EENanoAODv12/Zto2Q-4Jets_HT-800_TuneCP5_13p6TeV_madgraphMLM-pythia8/NANOAODSIM/130X_mcRun3_2022_realistic_postEE_v6-v2/30000/6db362a8-79f5-4bd3-951d-75e903e0b90e.root   | (None) | ad:29b99340 | 17.509 MB  |          |
| cms:/store/mc/Run3Summer22EENanoAODv12/Zto2Q-4Jets_HT-800_TuneCP5_13p6TeV_madgraphMLM-pythia8/NANOAODSIM/130X_mcRun3_2022_realistic_postEE_v6-v2/40000/1f924647-4ddc-4246-a992-d54f9a95a584.root   | (None) | ad:ec24048f | 8.146 MB   |          |
| cms:/store/mc/Run3Summer22EENanoAODv12/Zto2Q-4Jets_HT-800_TuneCP5_13p6TeV_madgraphMLM-pythia8/NANOAODSIM/130X_mcRun3_2022_realistic_postEE_v6-v2/30000/f1912817-c2dc-482f-9b39-14778bc51da8.root   | (None) | ad:27356d6f | 14.738 MB  |          |
| cms:/store/mc/Run3Summer22EENanoAODv12/Zto2Q-4Jets_HT-800_TuneCP5_13p6TeV_madgraphMLM-pythia8/NANOAODSIM/130X_mcRun3_2022_realistic_postEE_v6-v2/30000/8a8f048b-dce8-4442-b9c1-4f378649b196.root   | (None) | ad:ce3e53e1 | 343.420 MB |          |
| cms:/store/mc/Run3Summer22EENanoAODv12/Zto2Q-4Jets_HT-800_TuneCP5_13p6TeV_madgraphMLM-pythia8/NANOAODSIM/130X_mcRun3_2022_realistic_postEE_v6-v2/50000/75fe4a59-85a4-4c3e-9c65-8c86aac76bd8.root   | (None) | ad:0a3bec1b | 1.726 GB   |          |
| cms:/store/mc/Run3Summer22EENanoAODv12/Zto2Q-4Jets_HT-800_TuneCP5_13p6TeV_madgraphMLM-pythia8/NANOAODSIM/130X_mcRun3_2022_realistic_postEE_v6-v2/30000/5952c99c-3cb5-4b3b-bb7e-4a374b5d35ee.root   | (None) | ad:6f34c913 | 1.733 GB   |          |
| cms:/store/mc/Run3Summer22EENanoAODv12/Zto2Q-4Jets_HT-800_TuneCP5_13p6TeV_madgraphMLM-pythia8/NANOAODSIM/130X_mcRun3_2022_realistic_postEE_v6-v2/30000/d3ab38e7-6e8a-4d0c-80bb-56cc878a4baf.root   | (None) | ad:8bdbe8de | 626.233 MB |          |
| cms:/store/mc/Run3Summer22EENanoAODv12/Zto2Q-4Jets_HT-800_TuneCP5_13p6TeV_madgraphMLM-pythia8/NANOAODSIM/130X_mcRun3_2022_realistic_postEE_v6-v2/30000/ee557608-d584-4c52-87c1-ac23e7e763ac.root   | (None) | ad:32733675 | 1.306 GB   |          |
| cms:/store/mc/Run3Summer22EENanoAODv12/Zto2Q-4Jets_HT-800_TuneCP5_13p6TeV_madgraphMLM-pythia8/NANOAODSIM/130X_mcRun3_2022_realistic_postEE_v6-v2/2530000/a4fa9c1d-3571-406c-880c-b3a208ef5af5.root | (None) | ad:3ff17b68 | 17.508 MB  |          |
| cms:/store/mc/Run3Summer22EENanoAODv12/Zto2Q-4Jets_HT-800_TuneCP5_13p6TeV_madgraphMLM-pythia8/NANOAODSIM/130X_mcRun3_2022_realistic_postEE_v6-v2/40000/907da62d-7a64-4c12-8387-98ba60663378.root   | (None) | ad:0ba1db83 | 57.454 MB  |          |
| cms:/store/mc/Run3Summer22EENanoAODv12/Zto2Q-4Jets_HT-800_TuneCP5_13p6TeV_madgraphMLM-pythia8/NANOAODSIM/130X_mcRun3_2022_realistic_postEE_v6-v2/30000/bc42695d-d474-4130-b391-e106d6dd5c51.root   | (None) | ad:554b2b4d | 817.829 MB |          |
| cms:/store/mc/Run3Summer22EENanoAODv12/Zto2Q-4Jets_HT-800_TuneCP5_13p6TeV_madgraphMLM-pythia8/NANOAODSIM/130X_mcRun3_2022_realistic_postEE_v6-v2/40000/0d9711ee-6b17-4086-b9b7-5b234e11e143.root   | (None) | ad:cfe00c92 | 706.119 MB |          |
| cms:/store/mc/Run3Summer22EENanoAODv12/Zto2Q-4Jets_HT-800_TuneCP5_13p6TeV_madgraphMLM-pythia8/NANOAODSIM/130X_mcRun3_2022_realistic_postEE_v6-v2/30000/a0661990-20e2-4a08-8fcc-042a5c892e31.root   | (None) | ad:19d62453 | 729.951 MB |          |
| cms:/store/mc/Run3Summer22EENanoAODv12/Zto2Q-4Jets_HT-800_TuneCP5_13p6TeV_madgraphMLM-pythia8/NANOAODSIM/130X_mcRun3_2022_realistic_postEE_v6-v2/40000/c1093714-c1a0-4617-8867-66661e750b0f.root   | (None) | ad:6bd273ae | 257.607 MB |          |
| cms:/store/mc/Run3Summer22EENanoAODv12/Zto2Q-4Jets_HT-800_TuneCP5_13p6TeV_madgraphMLM-pythia8/NANOAODSIM/130X_mcRun3_2022_realistic_postEE_v6-v2/40000/f72596b3-c50a-4b6e-9722-0d00f5f4424c.root   | (None) | ad:2e659199 | 285.060 MB |          |
| cms:/store/mc/Run3Summer22EENanoAODv12/Zto2Q-4Jets_HT-800_TuneCP5_13p6TeV_madgraphMLM-pythia8/NANOAODSIM/130X_mcRun3_2022_realistic_postEE_v6-v2/2520000/4b99273c-c7df-4e7f-ada3-64d969248c01.root | (None) | ad:533fed68 | 110.900 MB |          |
| cms:/store/mc/Run3Summer22EENanoAODv12/Zto2Q-4Jets_HT-800_TuneCP5_13p6TeV_madgraphMLM-pythia8/NANOAODSIM/130X_mcRun3_2022_realistic_postEE_v6-v2/40000/e3ac25e5-c2dd-4f25-9cdc-3ca92804c360.root   | (None) | ad:3660fd8f | 260.964 MB |          |
| cms:/store/mc/Run3Summer22EENanoAODv12/Zto2Q-4Jets_HT-800_TuneCP5_13p6TeV_madgraphMLM-pythia8/NANOAODSIM/130X_mcRun3_2022_realistic_postEE_v6-v2/30000/93e777ea-7aad-45bc-a962-ac3a2c84e79e.root   | (None) | ad:6b80b536 | 206.298 MB |          |
| cms:/store/mc/Run3Summer22EENanoAODv12/Zto2Q-4Jets_HT-800_TuneCP5_13p6TeV_madgraphMLM-pythia8/NANOAODSIM/130X_mcRun3_2022_realistic_postEE_v6-v2/40000/f338e7ef-2819-492f-8b83-2218680e991e.root   | (None) | ad:03ff4d4b | 971.621 MB |          |
| cms:/store/mc/Run3Summer22EENanoAODv12/Zto2Q-4Jets_HT-800_TuneCP5_13p6TeV_madgraphMLM-pythia8/NANOAODSIM/130X_mcRun3_2022_realistic_postEE_v6-v2/40000/eef0f6f6-547f-423b-a550-06de4440b325.root   | (None) | ad:92eff70e | 855.688 MB |          |
| cms:/store/mc/Run3Summer22EENanoAODv12/Zto2Q-4Jets_HT-800_TuneCP5_13p6TeV_madgraphMLM-pythia8/NANOAODSIM/130X_mcRun3_2022_realistic_postEE_v6-v2/50000/fe822b91-e3e4-43cf-9e50-3fd8a37ddf25.root   | (None) | ad:faf1950c | 4.540 MB   |          |
| cms:/store/mc/Run3Summer22EENanoAODv12/Zto2Q-4Jets_HT-800_TuneCP5_13p6TeV_madgraphMLM-pythia8/NANOAODSIM/130X_mcRun3_2022_realistic_postEE_v6-v2/30000/e6107ac1-4ff7-4428-8b52-8e83e0619504.root   | (None) | ad:42993704 | 456.925 MB |          |
+----------------------------------------------------------------------------------------------------------------------------------------------------------------------------------------------------+--------+-------------+------------+----------+
Total files : 36
Total size : 18.839 GB
