+-----------------------------------------------------------------------------------------------------------------------------------------------------------------------------------------------+--------+-------------+------------+----------+
| SCOPE:NAME                                                                                                                                                                                    | GUID   | ADLER32     | FILESIZE   | EVENTS   |
|-----------------------------------------------------------------------------------------------------------------------------------------------------------------------------------------------+--------+-------------+------------+----------|
| cms:/store/mc/Run3Summer23NanoAODv12/Zto2Q-4Jets_HT-400to600_TuneCP5_13p6TeV_madgraphMLM-pythia8/NANOAODSIM/130X_mcRun3_2023_realistic_v14-v1/40000/56bc63c1-43de-41ac-916e-74f62c2546cd.root | (None) | ad:b4857243 | 166.556 MB |          |
| cms:/store/mc/Run3Summer23NanoAODv12/Zto2Q-4Jets_HT-400to600_TuneCP5_13p6TeV_madgraphMLM-pythia8/NANOAODSIM/130X_mcRun3_2023_realistic_v14-v1/40000/00abdc26-3534-464c-8176-684d96baee83.root | (None) | ad:127e5e21 | 131.205 MB |          |
| cms:/store/mc/Run3Summer23NanoAODv12/Zto2Q-4Jets_HT-400to600_TuneCP5_13p6TeV_madgraphMLM-pythia8/NANOAODSIM/130X_mcRun3_2023_realistic_v14-v1/30000/0d09a27d-3d6f-433e-8fbd-97fe2b7d1733.root | (None) | ad:cf9ff1ce | 174.415 MB |          |
| cms:/store/mc/Run3Summer23NanoAODv12/Zto2Q-4Jets_HT-400to600_TuneCP5_13p6TeV_madgraphMLM-pythia8/NANOAODSIM/130X_mcRun3_2023_realistic_v14-v1/30000/932184b4-32f0-4541-b213-f6f0b8d6befe.root | (None) | ad:6313d384 | 408.242 MB |          |
| cms:/store/mc/Run3Summer23NanoAODv12/Zto2Q-4Jets_HT-400to600_TuneCP5_13p6TeV_madgraphMLM-pythia8/NANOAODSIM/130X_mcRun3_2023_realistic_v14-v1/30000/ed3d5ffd-c1a6-4a13-8245-40a20a213524.root | (None) | ad:6d08e83e | 188.927 MB |          |
| cms:/store/mc/Run3Summer23NanoAODv12/Zto2Q-4Jets_HT-400to600_TuneCP5_13p6TeV_madgraphMLM-pythia8/NANOAODSIM/130X_mcRun3_2023_realistic_v14-v1/40000/bc961278-8739-499e-9ada-706d26fd86dc.root | (None) | ad:993e17ce | 204.044 MB |          |
| cms:/store/mc/Run3Summer23NanoAODv12/Zto2Q-4Jets_HT-400to600_TuneCP5_13p6TeV_madgraphMLM-pythia8/NANOAODSIM/130X_mcRun3_2023_realistic_v14-v1/30000/8250271d-0bec-4954-8903-5add419d0a02.root | (None) | ad:1dfcb32a | 13.724 MB  |          |
| cms:/store/mc/Run3Summer23NanoAODv12/Zto2Q-4Jets_HT-400to600_TuneCP5_13p6TeV_madgraphMLM-pythia8/NANOAODSIM/130X_mcRun3_2023_realistic_v14-v1/30000/79906a06-78d3-4035-a20c-9ca415188cc1.root | (None) | ad:ad4d746b | 124.897 MB |          |
| cms:/store/mc/Run3Summer23NanoAODv12/Zto2Q-4Jets_HT-400to600_TuneCP5_13p6TeV_madgraphMLM-pythia8/NANOAODSIM/130X_mcRun3_2023_realistic_v14-v1/40000/58ad328c-d3e9-4868-84c5-b6599683b839.root | (None) | ad:71f5d7b3 | 17.763 MB  |          |
| cms:/store/mc/Run3Summer23NanoAODv12/Zto2Q-4Jets_HT-400to600_TuneCP5_13p6TeV_madgraphMLM-pythia8/NANOAODSIM/130X_mcRun3_2023_realistic_v14-v1/40000/b1a38c8b-c8e2-4e17-9283-bbf4dd08c715.root | (None) | ad:b8512891 | 7.371 MB   |          |
| cms:/store/mc/Run3Summer23NanoAODv12/Zto2Q-4Jets_HT-400to600_TuneCP5_13p6TeV_madgraphMLM-pythia8/NANOAODSIM/130X_mcRun3_2023_realistic_v14-v1/40000/863cdb05-8529-46b7-bf98-3a9db2451335.root | (None) | ad:a940e5e8 | 38.649 MB  |          |
| cms:/store/mc/Run3Summer23NanoAODv12/Zto2Q-4Jets_HT-400to600_TuneCP5_13p6TeV_madgraphMLM-pythia8/NANOAODSIM/130X_mcRun3_2023_realistic_v14-v1/30000/bc572195-0b62-4d4d-a806-7a5167131bbc.root | (None) | ad:88d09425 | 63.105 MB  |          |
| cms:/store/mc/Run3Summer23NanoAODv12/Zto2Q-4Jets_HT-400to600_TuneCP5_13p6TeV_madgraphMLM-pythia8/NANOAODSIM/130X_mcRun3_2023_realistic_v14-v1/40000/9ceb9c51-dfad-46c3-8cd1-81a561bbd183.root | (None) | ad:e3676e52 | 48.745 MB  |          |
| cms:/store/mc/Run3Summer23NanoAODv12/Zto2Q-4Jets_HT-400to600_TuneCP5_13p6TeV_madgraphMLM-pythia8/NANOAODSIM/130X_mcRun3_2023_realistic_v14-v1/40000/0730cbcf-8840-4a2c-a726-a0a792419d4a.root | (None) | ad:bb220ea4 | 228.379 MB |          |
| cms:/store/mc/Run3Summer23NanoAODv12/Zto2Q-4Jets_HT-400to600_TuneCP5_13p6TeV_madgraphMLM-pythia8/NANOAODSIM/130X_mcRun3_2023_realistic_v14-v1/30000/66841167-48e6-40d8-b4c0-0073415d5dd9.root | (None) | ad:c0069625 | 160.219 MB |          |
| cms:/store/mc/Run3Summer23NanoAODv12/Zto2Q-4Jets_HT-400to600_TuneCP5_13p6TeV_madgraphMLM-pythia8/NANOAODSIM/130X_mcRun3_2023_realistic_v14-v1/40000/4669ac19-11a2-44a8-893a-94aafb097291.root | (None) | ad:d1ef3ee3 | 436.304 MB |          |
| cms:/store/mc/Run3Summer23NanoAODv12/Zto2Q-4Jets_HT-400to600_TuneCP5_13p6TeV_madgraphMLM-pythia8/NANOAODSIM/130X_mcRun3_2023_realistic_v14-v1/30000/987e46ea-f31d-487b-a73b-2ec0d5b24032.root | (None) | ad:c8d70ff5 | 19.169 MB  |          |
| cms:/store/mc/Run3Summer23NanoAODv12/Zto2Q-4Jets_HT-400to600_TuneCP5_13p6TeV_madgraphMLM-pythia8/NANOAODSIM/130X_mcRun3_2023_realistic_v14-v1/40000/b13b2c0c-546f-446e-ba51-6b7a3f9c979e.root | (None) | ad:0e1d3e93 | 28.029 MB  |          |
| cms:/store/mc/Run3Summer23NanoAODv12/Zto2Q-4Jets_HT-400to600_TuneCP5_13p6TeV_madgraphMLM-pythia8/NANOAODSIM/130X_mcRun3_2023_realistic_v14-v1/40000/327b8716-20c1-4a13-be1a-670074c19c66.root | (None) | ad:725b308b | 34.241 MB  |          |
| cms:/store/mc/Run3Summer23NanoAODv12/Zto2Q-4Jets_HT-400to600_TuneCP5_13p6TeV_madgraphMLM-pythia8/NANOAODSIM/130X_mcRun3_2023_realistic_v14-v1/40000/4fce8d05-0a0e-46b1-b8cf-004ae1d23d9a.root | (None) | ad:f30169da | 55.498 MB  |          |
| cms:/store/mc/Run3Summer23NanoAODv12/Zto2Q-4Jets_HT-400to600_TuneCP5_13p6TeV_madgraphMLM-pythia8/NANOAODSIM/130X_mcRun3_2023_realistic_v14-v1/40000/a9ecf302-f578-4af8-9600-5fe3b0d5f980.root | (None) | ad:20feef5d | 122.127 MB |          |
| cms:/store/mc/Run3Summer23NanoAODv12/Zto2Q-4Jets_HT-400to600_TuneCP5_13p6TeV_madgraphMLM-pythia8/NANOAODSIM/130X_mcRun3_2023_realistic_v14-v1/40000/1b0503a3-f73b-482c-804f-6d105f1be6c3.root | (None) | ad:06717d7a | 48.598 MB  |          |
| cms:/store/mc/Run3Summer23NanoAODv12/Zto2Q-4Jets_HT-400to600_TuneCP5_13p6TeV_madgraphMLM-pythia8/NANOAODSIM/130X_mcRun3_2023_realistic_v14-v1/40000/cfbf6d86-033c-4eb1-ac90-c2b15ae31d0c.root | (None) | ad:f9f7c840 | 199.213 MB |          |
| cms:/store/mc/Run3Summer23NanoAODv12/Zto2Q-4Jets_HT-400to600_TuneCP5_13p6TeV_madgraphMLM-pythia8/NANOAODSIM/130X_mcRun3_2023_realistic_v14-v1/40000/c89ef791-3ec9-4af5-9eb7-452f0d30ba50.root | (None) | ad:d59f0f91 | 11.627 MB  |          |
| cms:/store/mc/Run3Summer23NanoAODv12/Zto2Q-4Jets_HT-400to600_TuneCP5_13p6TeV_madgraphMLM-pythia8/NANOAODSIM/130X_mcRun3_2023_realistic_v14-v1/30000/f338411a-ce55-42c7-94a1-72c0f258b360.root | (None) | ad:c9ed2e90 | 38.683 MB  |          |
| cms:/store/mc/Run3Summer23NanoAODv12/Zto2Q-4Jets_HT-400to600_TuneCP5_13p6TeV_madgraphMLM-pythia8/NANOAODSIM/130X_mcRun3_2023_realistic_v14-v1/30000/57f0e9d8-7242-411c-bc98-6da97a9e4b2a.root | (None) | ad:08de8ace | 200.145 MB |          |
| cms:/store/mc/Run3Summer23NanoAODv12/Zto2Q-4Jets_HT-400to600_TuneCP5_13p6TeV_madgraphMLM-pythia8/NANOAODSIM/130X_mcRun3_2023_realistic_v14-v1/30000/5fd6eec7-69d5-479f-be1e-f3d1226354cf.root | (None) | ad:63a66760 | 96.456 MB  |          |
| cms:/store/mc/Run3Summer23NanoAODv12/Zto2Q-4Jets_HT-400to600_TuneCP5_13p6TeV_madgraphMLM-pythia8/NANOAODSIM/130X_mcRun3_2023_realistic_v14-v1/40000/ff9ce129-98b1-4781-8681-282260de7513.root | (None) | ad:731b165b | 4.925 MB   |          |
| cms:/store/mc/Run3Summer23NanoAODv12/Zto2Q-4Jets_HT-400to600_TuneCP5_13p6TeV_madgraphMLM-pythia8/NANOAODSIM/130X_mcRun3_2023_realistic_v14-v1/30000/5fe0f60a-b117-4943-9f1f-f9967dbb4a56.root | (None) | ad:1c1db2f5 | 217.170 MB |          |
| cms:/store/mc/Run3Summer23NanoAODv12/Zto2Q-4Jets_HT-400to600_TuneCP5_13p6TeV_madgraphMLM-pythia8/NANOAODSIM/130X_mcRun3_2023_realistic_v14-v1/30000/c53c6cff-2433-42ac-9bce-d2ea6ccc1ecc.root | (None) | ad:1a676371 | 63.738 MB  |          |
| cms:/store/mc/Run3Summer23NanoAODv12/Zto2Q-4Jets_HT-400to600_TuneCP5_13p6TeV_madgraphMLM-pythia8/NANOAODSIM/130X_mcRun3_2023_realistic_v14-v1/30000/a9e60d50-33a0-47be-ac37-66858acc836c.root | (None) | ad:877c1707 | 42.789 MB  |          |
| cms:/store/mc/Run3Summer23NanoAODv12/Zto2Q-4Jets_HT-400to600_TuneCP5_13p6TeV_madgraphMLM-pythia8/NANOAODSIM/130X_mcRun3_2023_realistic_v14-v1/30000/0b75ffe8-e3c3-49ec-9f3b-256dd8d3ef6b.root | (None) | ad:8e5c6911 | 40.507 MB  |          |
| cms:/store/mc/Run3Summer23NanoAODv12/Zto2Q-4Jets_HT-400to600_TuneCP5_13p6TeV_madgraphMLM-pythia8/NANOAODSIM/130X_mcRun3_2023_realistic_v14-v1/40000/f9779c3e-8f55-4a3e-88c9-59dfffcac7e8.root | (None) | ad:54ad90b5 | 97.912 MB  |          |
| cms:/store/mc/Run3Summer23NanoAODv12/Zto2Q-4Jets_HT-400to600_TuneCP5_13p6TeV_madgraphMLM-pythia8/NANOAODSIM/130X_mcRun3_2023_realistic_v14-v1/40000/6f44ae20-fba5-41cb-92b0-e5e92f885121.root | (None) | ad:43a7963b | 35.686 MB  |          |
| cms:/store/mc/Run3Summer23NanoAODv12/Zto2Q-4Jets_HT-400to600_TuneCP5_13p6TeV_madgraphMLM-pythia8/NANOAODSIM/130X_mcRun3_2023_realistic_v14-v1/30000/eb3f3ebd-a3f2-468c-b3c5-f93361fc14c2.root | (None) | ad:b54f5af3 | 13.569 MB  |          |
| cms:/store/mc/Run3Summer23NanoAODv12/Zto2Q-4Jets_HT-400to600_TuneCP5_13p6TeV_madgraphMLM-pythia8/NANOAODSIM/130X_mcRun3_2023_realistic_v14-v1/30000/184cbded-a9cc-4fbd-8b76-18cdefe54599.root | (None) | ad:eacf5e20 | 17.432 MB  |          |
| cms:/store/mc/Run3Summer23NanoAODv12/Zto2Q-4Jets_HT-400to600_TuneCP5_13p6TeV_madgraphMLM-pythia8/NANOAODSIM/130X_mcRun3_2023_realistic_v14-v1/40000/ccf991e0-e417-4ed3-ae80-b9a593425544.root | (None) | ad:366a794d | 5.032 MB   |          |
| cms:/store/mc/Run3Summer23NanoAODv12/Zto2Q-4Jets_HT-400to600_TuneCP5_13p6TeV_madgraphMLM-pythia8/NANOAODSIM/130X_mcRun3_2023_realistic_v14-v1/30000/254b790f-3558-402c-ae90-37636dacd368.root | (None) | ad:08f77339 | 90.530 MB  |          |
| cms:/store/mc/Run3Summer23NanoAODv12/Zto2Q-4Jets_HT-400to600_TuneCP5_13p6TeV_madgraphMLM-pythia8/NANOAODSIM/130X_mcRun3_2023_realistic_v14-v1/30000/ec8b5644-5354-4dc1-b906-f997366f487f.root | (None) | ad:6632ad56 | 188.573 MB |          |
| cms:/store/mc/Run3Summer23NanoAODv12/Zto2Q-4Jets_HT-400to600_TuneCP5_13p6TeV_madgraphMLM-pythia8/NANOAODSIM/130X_mcRun3_2023_realistic_v14-v1/30000/2e356ff7-6da1-419c-81fa-dea0f790ac85.root | (None) | ad:ade86186 | 9.311 MB   |          |
| cms:/store/mc/Run3Summer23NanoAODv12/Zto2Q-4Jets_HT-400to600_TuneCP5_13p6TeV_madgraphMLM-pythia8/NANOAODSIM/130X_mcRun3_2023_realistic_v14-v1/30000/e1091284-5e31-4984-9145-ff03446225d4.root | (None) | ad:37c4b820 | 65.700 MB  |          |
| cms:/store/mc/Run3Summer23NanoAODv12/Zto2Q-4Jets_HT-400to600_TuneCP5_13p6TeV_madgraphMLM-pythia8/NANOAODSIM/130X_mcRun3_2023_realistic_v14-v1/30000/20c22a87-997a-45b8-8a43-eae834b72c38.root | (None) | ad:93ee4fb3 | 1.480 GB   |          |
| cms:/store/mc/Run3Summer23NanoAODv12/Zto2Q-4Jets_HT-400to600_TuneCP5_13p6TeV_madgraphMLM-pythia8/NANOAODSIM/130X_mcRun3_2023_realistic_v14-v1/30000/56cde6c3-49e4-49dc-af87-b18b1791735a.root | (None) | ad:c0f8ff21 | 1.495 GB   |          |
| cms:/store/mc/Run3Summer23NanoAODv12/Zto2Q-4Jets_HT-400to600_TuneCP5_13p6TeV_madgraphMLM-pythia8/NANOAODSIM/130X_mcRun3_2023_realistic_v14-v1/30000/6cf3bdb6-36a5-4d6d-8621-2b6af5f01344.root | (None) | ad:ead06276 | 126.661 MB |          |
| cms:/store/mc/Run3Summer23NanoAODv12/Zto2Q-4Jets_HT-400to600_TuneCP5_13p6TeV_madgraphMLM-pythia8/NANOAODSIM/130X_mcRun3_2023_realistic_v14-v1/30000/8c567e03-d7b5-442a-a57c-2035ed53fd38.root | (None) | ad:6f6752a0 | 189.559 MB |          |
| cms:/store/mc/Run3Summer23NanoAODv12/Zto2Q-4Jets_HT-400to600_TuneCP5_13p6TeV_madgraphMLM-pythia8/NANOAODSIM/130X_mcRun3_2023_realistic_v14-v1/30000/d9f46771-5b5f-4805-933a-f7fd8d9bee28.root | (None) | ad:5c7323b9 | 622.071 MB |          |
| cms:/store/mc/Run3Summer23NanoAODv12/Zto2Q-4Jets_HT-400to600_TuneCP5_13p6TeV_madgraphMLM-pythia8/NANOAODSIM/130X_mcRun3_2023_realistic_v14-v1/30000/f63c6cec-6f14-4f2b-8523-ec3a80bdf71e.root | (None) | ad:db6eda38 | 13.589 MB  |          |
| cms:/store/mc/Run3Summer23NanoAODv12/Zto2Q-4Jets_HT-400to600_TuneCP5_13p6TeV_madgraphMLM-pythia8/NANOAODSIM/130X_mcRun3_2023_realistic_v14-v1/40000/58c20d4e-2332-4964-aa90-195baf895034.root | (None) | ad:ae82f31d | 98.409 MB  |          |
| cms:/store/mc/Run3Summer23NanoAODv12/Zto2Q-4Jets_HT-400to600_TuneCP5_13p6TeV_madgraphMLM-pythia8/NANOAODSIM/130X_mcRun3_2023_realistic_v14-v1/30000/ffc64545-aa74-46f9-bc7f-665257f0a878.root | (None) | ad:0e9e6007 | 113.204 MB |          |
| cms:/store/mc/Run3Summer23NanoAODv12/Zto2Q-4Jets_HT-400to600_TuneCP5_13p6TeV_madgraphMLM-pythia8/NANOAODSIM/130X_mcRun3_2023_realistic_v14-v1/30000/360c8cde-d8db-491f-a139-d338b95a92da.root | (None) | ad:94d7643e | 194.942 MB |          |
| cms:/store/mc/Run3Summer23NanoAODv12/Zto2Q-4Jets_HT-400to600_TuneCP5_13p6TeV_madgraphMLM-pythia8/NANOAODSIM/130X_mcRun3_2023_realistic_v14-v1/40000/25ff87dd-2128-48a3-a2e9-555b5e9534b3.root | (None) | ad:43f0df3e | 15.613 MB  |          |
| cms:/store/mc/Run3Summer23NanoAODv12/Zto2Q-4Jets_HT-400to600_TuneCP5_13p6TeV_madgraphMLM-pythia8/NANOAODSIM/130X_mcRun3_2023_realistic_v14-v1/40000/3c90a46b-82d4-41c8-95de-c580949f5117.root | (None) | ad:ee803f04 | 17.510 MB  |          |
| cms:/store/mc/Run3Summer23NanoAODv12/Zto2Q-4Jets_HT-400to600_TuneCP5_13p6TeV_madgraphMLM-pythia8/NANOAODSIM/130X_mcRun3_2023_realistic_v14-v1/30000/cc9b25fd-ab0e-40b6-94a9-87459cb45443.root | (None) | ad:96c2df55 | 4.973 MB   |          |
+-----------------------------------------------------------------------------------------------------------------------------------------------------------------------------------------------+--------+-------------+------------+----------+
Total files : 53
Total size : 8.530 GB
