+-------------------------------------------------------------------------------------------------------------------------------------------------------------------------------------------+--------+-------------+------------+----------+
| SCOPE:NAME                                                                                                                                                                                | GUID   | ADLER32     | FILESIZE   | EVENTS   |
|-------------------------------------------------------------------------------------------------------------------------------------------------------------------------------------------+--------+-------------+------------+----------|
| cms:/store/mc/Run3Summer22NanoAODv12/Zto2Q-4Jets_HT-800_TuneCP5_13p6TeV_madgraphMLM-pythia8/NANOAODSIM/130X_mcRun3_2022_realistic_v5-v2/2540000/5869e465-4187-4059-bdc5-74a46fa812ff.root | (None) | ad:56e58238 | 246.033 MB |          |
| cms:/store/mc/Run3Summer22NanoAODv12/Zto2Q-4Jets_HT-800_TuneCP5_13p6TeV_madgraphMLM-pythia8/NANOAODSIM/130X_mcRun3_2022_realistic_v5-v2/40000/2a6886e6-138a-4e68-b64b-f743aab9d862.root   | (None) | ad:b744d137 | 228.092 MB |          |
| cms:/store/mc/Run3Summer22NanoAODv12/Zto2Q-4Jets_HT-800_TuneCP5_13p6TeV_madgraphMLM-pythia8/NANOAODSIM/130X_mcRun3_2022_realistic_v5-v2/2530000/65ae9c42-65d9-4527-a256-733f1309f23b.root | (None) | ad:c795d6c1 | 404.289 MB |          |
| cms:/store/mc/Run3Summer22NanoAODv12/Zto2Q-4Jets_HT-800_TuneCP5_13p6TeV_madgraphMLM-pythia8/NANOAODSIM/130X_mcRun3_2022_realistic_v5-v2/50000/0ad660d6-cfb0-479a-8341-9f09d6344313.root   | (None) | ad:2e8c540b | 20.168 MB  |          |
| cms:/store/mc/Run3Summer22NanoAODv12/Zto2Q-4Jets_HT-800_TuneCP5_13p6TeV_madgraphMLM-pythia8/NANOAODSIM/130X_mcRun3_2022_realistic_v5-v2/40000/f0b07724-accf-4942-8774-bf0037b64c59.root   | (None) | ad:72e9f9d5 | 199.526 MB |          |
| cms:/store/mc/Run3Summer22NanoAODv12/Zto2Q-4Jets_HT-800_TuneCP5_13p6TeV_madgraphMLM-pythia8/NANOAODSIM/130X_mcRun3_2022_realistic_v5-v2/30000/74e024ec-dfd8-445e-af32-f253cb871a84.root   | (None) | ad:7857faba | 4.415 MB   |          |
| cms:/store/mc/Run3Summer22NanoAODv12/Zto2Q-4Jets_HT-800_TuneCP5_13p6TeV_madgraphMLM-pythia8/NANOAODSIM/130X_mcRun3_2022_realistic_v5-v2/30000/4a00f126-929b-4958-8588-f73358b3b90f.root   | (None) | ad:cb5b9bb7 | 71.211 MB  |          |
| cms:/store/mc/Run3Summer22NanoAODv12/Zto2Q-4Jets_HT-800_TuneCP5_13p6TeV_madgraphMLM-pythia8/NANOAODSIM/130X_mcRun3_2022_realistic_v5-v2/50000/34b0d8ad-073a-454c-bae9-53773d2e5cad.root   | (None) | ad:71a46259 | 33.066 MB  |          |
| cms:/store/mc/Run3Summer22NanoAODv12/Zto2Q-4Jets_HT-800_TuneCP5_13p6TeV_madgraphMLM-pythia8/NANOAODSIM/130X_mcRun3_2022_realistic_v5-v2/2530000/95635341-b12f-4b34-9908-a6f34aab27a9.root | (None) | ad:a82f0c7f | 211.602 MB |          |
| cms:/store/mc/Run3Summer22NanoAODv12/Zto2Q-4Jets_HT-800_TuneCP5_13p6TeV_madgraphMLM-pythia8/NANOAODSIM/130X_mcRun3_2022_realistic_v5-v2/30000/f599c227-ad84-4237-8061-0abf5088d629.root   | (None) | ad:500e991b | 1.059 GB   |          |
| cms:/store/mc/Run3Summer22NanoAODv12/Zto2Q-4Jets_HT-800_TuneCP5_13p6TeV_madgraphMLM-pythia8/NANOAODSIM/130X_mcRun3_2022_realistic_v5-v2/2540000/e6376dc3-4da6-4b28-9294-ec97bf200590.root | (None) | ad:c3582d82 | 45.360 MB  |          |
| cms:/store/mc/Run3Summer22NanoAODv12/Zto2Q-4Jets_HT-800_TuneCP5_13p6TeV_madgraphMLM-pythia8/NANOAODSIM/130X_mcRun3_2022_realistic_v5-v2/2530000/3f21d15a-4fcc-4a58-8675-5334f5a873a1.root | (None) | ad:0acf2baa | 345.613 MB |          |
| cms:/store/mc/Run3Summer22NanoAODv12/Zto2Q-4Jets_HT-800_TuneCP5_13p6TeV_madgraphMLM-pythia8/NANOAODSIM/130X_mcRun3_2022_realistic_v5-v2/30000/4972ebec-9575-43f8-994b-28583450c017.root   | (None) | ad:a7a40226 | 1.273 GB   |          |
| cms:/store/mc/Run3Summer22NanoAODv12/Zto2Q-4Jets_HT-800_TuneCP5_13p6TeV_madgraphMLM-pythia8/NANOAODSIM/130X_mcRun3_2022_realistic_v5-v2/30000/c40c3432-298a-45bb-8aa3-b0a90b880625.root   | (None) | ad:952ef80e | 173.844 MB |          |
| cms:/store/mc/Run3Summer22NanoAODv12/Zto2Q-4Jets_HT-800_TuneCP5_13p6TeV_madgraphMLM-pythia8/NANOAODSIM/130X_mcRun3_2022_realistic_v5-v2/30000/eee78960-10c6-4cc4-adc4-bb9830bea6b2.root   | (None) | ad:c1bdf60d | 17.154 MB  |          |
| cms:/store/mc/Run3Summer22NanoAODv12/Zto2Q-4Jets_HT-800_TuneCP5_13p6TeV_madgraphMLM-pythia8/NANOAODSIM/130X_mcRun3_2022_realistic_v5-v2/50000/07586794-18f0-4122-af62-58565696543b.root   | (None) | ad:ae7cccf8 | 166.364 MB |          |
| cms:/store/mc/Run3Summer22NanoAODv12/Zto2Q-4Jets_HT-800_TuneCP5_13p6TeV_madgraphMLM-pythia8/NANOAODSIM/130X_mcRun3_2022_realistic_v5-v2/50000/df423556-3ceb-4cc6-abab-ec5ea6a25a56.root   | (None) | ad:551979af | 263.259 MB |          |
| cms:/store/mc/Run3Summer22NanoAODv12/Zto2Q-4Jets_HT-800_TuneCP5_13p6TeV_madgraphMLM-pythia8/NANOAODSIM/130X_mcRun3_2022_realistic_v5-v2/40000/b265e897-c09e-40a9-9ac7-467be9e6723c.root   | (None) | ad:2585e0bf | 46.934 MB  |          |
| cms:/store/mc/Run3Summer22NanoAODv12/Zto2Q-4Jets_HT-800_TuneCP5_13p6TeV_madgraphMLM-pythia8/NANOAODSIM/130X_mcRun3_2022_realistic_v5-v2/2530000/b5f3de7c-8335-4240-98b8-f10761f6f7f4.root | (None) | ad:5c833f0e | 86.296 MB  |          |
| cms:/store/mc/Run3Summer22NanoAODv12/Zto2Q-4Jets_HT-800_TuneCP5_13p6TeV_madgraphMLM-pythia8/NANOAODSIM/130X_mcRun3_2022_realistic_v5-v2/2530000/f11d184b-4e47-4fe5-8cc1-821274afc493.root | (None) | ad:8ef21382 | 32.163 MB  |          |
| cms:/store/mc/Run3Summer22NanoAODv12/Zto2Q-4Jets_HT-800_TuneCP5_13p6TeV_madgraphMLM-pythia8/NANOAODSIM/130X_mcRun3_2022_realistic_v5-v2/50000/da026748-7d5e-4791-9d9c-7b2e4b1090c1.root   | (None) | ad:0ee3e956 | 245.211 MB |          |
| cms:/store/mc/Run3Summer22NanoAODv12/Zto2Q-4Jets_HT-800_TuneCP5_13p6TeV_madgraphMLM-pythia8/NANOAODSIM/130X_mcRun3_2022_realistic_v5-v2/2530000/3eff85f8-5a47-43a3-b20e-630e1ed12dda.root | (None) | ad:d74f4765 | 13.024 MB  |          |
| cms:/store/mc/Run3Summer22NanoAODv12/Zto2Q-4Jets_HT-800_TuneCP5_13p6TeV_madgraphMLM-pythia8/NANOAODSIM/130X_mcRun3_2022_realistic_v5-v2/2530000/10f309ec-0601-41e7-9480-da3aa182a258.root | (None) | ad:c378005b | 39.393 MB  |          |
| cms:/store/mc/Run3Summer22NanoAODv12/Zto2Q-4Jets_HT-800_TuneCP5_13p6TeV_madgraphMLM-pythia8/NANOAODSIM/130X_mcRun3_2022_realistic_v5-v2/2530000/88579156-8b03-44ef-a2a6-3c415bd18b2a.root | (None) | ad:c5fba2e9 | 95.533 MB  |          |
| cms:/store/mc/Run3Summer22NanoAODv12/Zto2Q-4Jets_HT-800_TuneCP5_13p6TeV_madgraphMLM-pythia8/NANOAODSIM/130X_mcRun3_2022_realistic_v5-v2/2530000/0a8a8132-252f-4fb5-b4ce-8ec820c1222e.root | (None) | ad:92c21b45 | 93.726 MB  |          |
+-------------------------------------------------------------------------------------------------------------------------------------------------------------------------------------------+--------+-------------+------------+----------+
Total files : 25
Total size : 5.415 GB
