+-----------------------------------------------------------------------------------------------------------------------------------------------------------------------------------------------+--------+-------------+------------+----------+
| SCOPE:NAME                                                                                                                                                                                    | GUID   | ADLER32     | FILESIZE   | EVENTS   |
|-----------------------------------------------------------------------------------------------------------------------------------------------------------------------------------------------+--------+-------------+------------+----------|
| cms:/store/mc/Run3Summer23NanoAODv12/Zto2Q-4Jets_HT-600to800_TuneCP5_13p6TeV_madgraphMLM-pythia8/NANOAODSIM/130X_mcRun3_2023_realistic_v14-v1/30000/5241a9ba-139b-4e00-9334-dc025f5a8e4e.root | (None) | ad:e4a171e3 | 128.114 MB |          |
| cms:/store/mc/Run3Summer23NanoAODv12/Zto2Q-4Jets_HT-600to800_TuneCP5_13p6TeV_madgraphMLM-pythia8/NANOAODSIM/130X_mcRun3_2023_realistic_v14-v1/30000/e476ae7d-ea78-41a5-b54b-c8f1d97fffbf.root | (None) | ad:2857b96b | 15.870 MB  |          |
| cms:/store/mc/Run3Summer23NanoAODv12/Zto2Q-4Jets_HT-600to800_TuneCP5_13p6TeV_madgraphMLM-pythia8/NANOAODSIM/130X_mcRun3_2023_realistic_v14-v1/60000/e68c379c-4a98-440c-a3a1-7fd3d3f620cb.root | (None) | ad:46f1d55a | 166.177 MB |          |
| cms:/store/mc/Run3Summer23NanoAODv12/Zto2Q-4Jets_HT-600to800_TuneCP5_13p6TeV_madgraphMLM-pythia8/NANOAODSIM/130X_mcRun3_2023_realistic_v14-v1/30000/d8f8a389-80b4-433b-ac65-fa50e748c7b9.root | (None) | ad:f308893d | 48.296 MB  |          |
| cms:/store/mc/Run3Summer23NanoAODv12/Zto2Q-4Jets_HT-600to800_TuneCP5_13p6TeV_madgraphMLM-pythia8/NANOAODSIM/130X_mcRun3_2023_realistic_v14-v1/30000/5b070d85-b757-450f-acb6-826e973981f9.root | (None) | ad:7d8edb90 | 49.889 MB  |          |
| cms:/store/mc/Run3Summer23NanoAODv12/Zto2Q-4Jets_HT-600to800_TuneCP5_13p6TeV_madgraphMLM-pythia8/NANOAODSIM/130X_mcRun3_2023_realistic_v14-v1/30000/a562843f-4b10-463d-8b4a-7293bf374feb.root | (None) | ad:c14ed326 | 49.796 MB  |          |
| cms:/store/mc/Run3Summer23NanoAODv12/Zto2Q-4Jets_HT-600to800_TuneCP5_13p6TeV_madgraphMLM-pythia8/NANOAODSIM/130X_mcRun3_2023_realistic_v14-v1/30000/88bfa235-23c1-4b6b-b6b4-61748a043806.root | (None) | ad:acc652a9 | 226.104 MB |          |
| cms:/store/mc/Run3Summer23NanoAODv12/Zto2Q-4Jets_HT-600to800_TuneCP5_13p6TeV_madgraphMLM-pythia8/NANOAODSIM/130X_mcRun3_2023_realistic_v14-v1/30000/bcd3fe09-abb5-4f43-b017-037d03d0a062.root | (None) | ad:ff206992 | 116.926 MB |          |
| cms:/store/mc/Run3Summer23NanoAODv12/Zto2Q-4Jets_HT-600to800_TuneCP5_13p6TeV_madgraphMLM-pythia8/NANOAODSIM/130X_mcRun3_2023_realistic_v14-v1/30000/62453e0f-8090-49ee-a05c-5e578aa0e9ea.root | (None) | ad:184d27fe | 26.013 MB  |          |
| cms:/store/mc/Run3Summer23NanoAODv12/Zto2Q-4Jets_HT-600to800_TuneCP5_13p6TeV_madgraphMLM-pythia8/NANOAODSIM/130X_mcRun3_2023_realistic_v14-v1/30000/26e702fc-5e9e-4258-aa69-d91d50f609ef.root | (None) | ad:f61459a3 | 1.492 GB   |          |
| cms:/store/mc/Run3Summer23NanoAODv12/Zto2Q-4Jets_HT-600to800_TuneCP5_13p6TeV_madgraphMLM-pythia8/NANOAODSIM/130X_mcRun3_2023_realistic_v14-v1/30000/4babf425-4069-426b-af25-9743a77f3435.root | (None) | ad:968675f7 | 343.483 MB |          |
| cms:/store/mc/Run3Summer23NanoAODv12/Zto2Q-4Jets_HT-600to800_TuneCP5_13p6TeV_madgraphMLM-pythia8/NANOAODSIM/130X_mcRun3_2023_realistic_v14-v1/30000/815710e9-169c-499b-9063-3de818831d63.root | (None) | ad:1387d34f | 1.876 GB   |          |
| cms:/store/mc/Run3Summer23NanoAODv12/Zto2Q-4Jets_HT-600to800_TuneCP5_13p6TeV_madgraphMLM-pythia8/NANOAODSIM/130X_mcRun3_2023_realistic_v14-v1/30000/98a2a698-7557-42c8-b380-0c1ea7fccd2e.root | (None) | ad:9a6697f9 | 210.874 MB |          |
| cms:/store/mc/Run3Summer23NanoAODv12/Zto2Q-4Jets_HT-600to800_TuneCP5_13p6TeV_madgraphMLM-pythia8/NANOAODSIM/130X_mcRun3_2023_realistic_v14-v1/30000/e43f0dd0-2a00-4e89-8f89-da4ee5683aa4.root | (None) | ad:4ab0d7af | 497.930 MB |          |
| cms:/store/mc/Run3Summer23NanoAODv12/Zto2Q-4Jets_HT-600to800_TuneCP5_13p6TeV_madgraphMLM-pythia8/NANOAODSIM/130X_mcRun3_2023_realistic_v14-v1/30000/fa326686-8b76-4b7a-9ea0-c7690cba2a47.root | (None) | ad:bbf5ba5b | 1.321 GB   |          |
| cms:/store/mc/Run3Summer23NanoAODv12/Zto2Q-4Jets_HT-600to800_TuneCP5_13p6TeV_madgraphMLM-pythia8/NANOAODSIM/130X_mcRun3_2023_realistic_v14-v1/30000/eee15dcc-5703-4244-9596-8b39e60edce6.root | (None) | ad:03ea0970 | 87.101 MB  |          |
| cms:/store/mc/Run3Summer23NanoAODv12/Zto2Q-4Jets_HT-600to800_TuneCP5_13p6TeV_madgraphMLM-pythia8/NANOAODSIM/130X_mcRun3_2023_realistic_v14-v1/30000/386b8936-5223-4887-82c7-4e79c1b6acaf.root | (None) | ad:ea580221 | 423.059 MB |          |
| cms:/store/mc/Run3Summer23NanoAODv12/Zto2Q-4Jets_HT-600to800_TuneCP5_13p6TeV_madgraphMLM-pythia8/NANOAODSIM/130X_mcRun3_2023_realistic_v14-v1/30000/0d5723f4-52da-4aaa-be17-65dd145f41e1.root | (None) | ad:a8bbf870 | 204.305 MB |          |
| cms:/store/mc/Run3Summer23NanoAODv12/Zto2Q-4Jets_HT-600to800_TuneCP5_13p6TeV_madgraphMLM-pythia8/NANOAODSIM/130X_mcRun3_2023_realistic_v14-v1/30000/a027b78a-36f7-4c65-82a5-245e464ac9fb.root | (None) | ad:c3e252ad | 124.538 MB |          |
| cms:/store/mc/Run3Summer23NanoAODv12/Zto2Q-4Jets_HT-600to800_TuneCP5_13p6TeV_madgraphMLM-pythia8/NANOAODSIM/130X_mcRun3_2023_realistic_v14-v1/30000/b8c6cff8-5d86-4442-b0bf-166fc7232dbf.root | (None) | ad:704b9b4e | 487.604 MB |          |
| cms:/store/mc/Run3Summer23NanoAODv12/Zto2Q-4Jets_HT-600to800_TuneCP5_13p6TeV_madgraphMLM-pythia8/NANOAODSIM/130X_mcRun3_2023_realistic_v14-v1/30000/1b469fb7-605a-4e65-b1e0-1619dd87a297.root | (None) | ad:dc48febc | 13.891 MB  |          |
| cms:/store/mc/Run3Summer23NanoAODv12/Zto2Q-4Jets_HT-600to800_TuneCP5_13p6TeV_madgraphMLM-pythia8/NANOAODSIM/130X_mcRun3_2023_realistic_v14-v1/60000/d8bc1368-f343-43b2-8c29-4424d8dcd075.root | (None) | ad:9f9dec88 | 26.342 MB  |          |
| cms:/store/mc/Run3Summer23NanoAODv12/Zto2Q-4Jets_HT-600to800_TuneCP5_13p6TeV_madgraphMLM-pythia8/NANOAODSIM/130X_mcRun3_2023_realistic_v14-v1/30000/67778673-b49b-4985-a05b-6b9a38a20673.root | (None) | ad:9ba093b7 | 243.773 MB |          |
| cms:/store/mc/Run3Summer23NanoAODv12/Zto2Q-4Jets_HT-600to800_TuneCP5_13p6TeV_madgraphMLM-pythia8/NANOAODSIM/130X_mcRun3_2023_realistic_v14-v1/30000/c808bacc-e1e8-4fc5-99ef-0586009bd71f.root | (None) | ad:2729bb6a | 214.587 MB |          |
| cms:/store/mc/Run3Summer23NanoAODv12/Zto2Q-4Jets_HT-600to800_TuneCP5_13p6TeV_madgraphMLM-pythia8/NANOAODSIM/130X_mcRun3_2023_realistic_v14-v1/30000/28b3d79a-2bcd-40d2-9c10-b134285155be.root | (None) | ad:d149c4e8 | 104.799 MB |          |
| cms:/store/mc/Run3Summer23NanoAODv12/Zto2Q-4Jets_HT-600to800_TuneCP5_13p6TeV_madgraphMLM-pythia8/NANOAODSIM/130X_mcRun3_2023_realistic_v14-v1/60000/aa57154f-fa3a-4875-af75-6311cb41c4ce.root | (None) | ad:46bdcb8a | 90.050 MB  |          |
| cms:/store/mc/Run3Summer23NanoAODv12/Zto2Q-4Jets_HT-600to800_TuneCP5_13p6TeV_madgraphMLM-pythia8/NANOAODSIM/130X_mcRun3_2023_realistic_v14-v1/30000/87e01f68-1b95-48af-b56b-b9da13465fea.root | (None) | ad:8579a8d9 | 212.961 MB |          |
| cms:/store/mc/Run3Summer23NanoAODv12/Zto2Q-4Jets_HT-600to800_TuneCP5_13p6TeV_madgraphMLM-pythia8/NANOAODSIM/130X_mcRun3_2023_realistic_v14-v1/30000/384d706a-dfd1-4950-a604-0fc7b621464b.root | (None) | ad:31dfd975 | 102.166 MB |          |
| cms:/store/mc/Run3Summer23NanoAODv12/Zto2Q-4Jets_HT-600to800_TuneCP5_13p6TeV_madgraphMLM-pythia8/NANOAODSIM/130X_mcRun3_2023_realistic_v14-v1/30000/294c2904-27be-49b9-ae4f-ec11bf562176.root | (None) | ad:55cf4321 | 225.367 MB |          |
| cms:/store/mc/Run3Summer23NanoAODv12/Zto2Q-4Jets_HT-600to800_TuneCP5_13p6TeV_madgraphMLM-pythia8/NANOAODSIM/130X_mcRun3_2023_realistic_v14-v1/30000/7be825d3-006e-422a-b6e8-bfff4feee469.root | (None) | ad:e8994404 | 49.418 MB  |          |
| cms:/store/mc/Run3Summer23NanoAODv12/Zto2Q-4Jets_HT-600to800_TuneCP5_13p6TeV_madgraphMLM-pythia8/NANOAODSIM/130X_mcRun3_2023_realistic_v14-v1/30000/c2e0bf76-4303-47fd-a598-73ef67f84f11.root | (None) | ad:60c887f6 | 213.531 MB |          |
| cms:/store/mc/Run3Summer23NanoAODv12/Zto2Q-4Jets_HT-600to800_TuneCP5_13p6TeV_madgraphMLM-pythia8/NANOAODSIM/130X_mcRun3_2023_realistic_v14-v1/30000/4ffc86ac-39f1-45fa-95a2-d2bed0a0a681.root | (None) | ad:169d2346 | 14.058 MB  |          |
| cms:/store/mc/Run3Summer23NanoAODv12/Zto2Q-4Jets_HT-600to800_TuneCP5_13p6TeV_madgraphMLM-pythia8/NANOAODSIM/130X_mcRun3_2023_realistic_v14-v1/30000/9e08abec-7bf0-4292-82f3-b548a8a4320f.root | (None) | ad:44f0467e | 170.977 MB |          |
| cms:/store/mc/Run3Summer23NanoAODv12/Zto2Q-4Jets_HT-600to800_TuneCP5_13p6TeV_madgraphMLM-pythia8/NANOAODSIM/130X_mcRun3_2023_realistic_v14-v1/30000/b09af243-78d4-46f2-9ca5-bcce36a7cd3c.root | (None) | ad:a6030134 | 161.353 MB |          |
| cms:/store/mc/Run3Summer23NanoAODv12/Zto2Q-4Jets_HT-600to800_TuneCP5_13p6TeV_madgraphMLM-pythia8/NANOAODSIM/130X_mcRun3_2023_realistic_v14-v1/30000/695e9344-cff0-4695-a49b-9542ad37036e.root | (None) | ad:76262a72 | 17.999 MB  |          |
| cms:/store/mc/Run3Summer23NanoAODv12/Zto2Q-4Jets_HT-600to800_TuneCP5_13p6TeV_madgraphMLM-pythia8/NANOAODSIM/130X_mcRun3_2023_realistic_v14-v1/30000/78cc834e-802b-4d68-b9fa-77591c8aa035.root | (None) | ad:807f3059 | 66.878 MB  |          |
| cms:/store/mc/Run3Summer23NanoAODv12/Zto2Q-4Jets_HT-600to800_TuneCP5_13p6TeV_madgraphMLM-pythia8/NANOAODSIM/130X_mcRun3_2023_realistic_v14-v1/30000/07f12d54-c099-4cfa-83c0-1717e95ed5fe.root | (None) | ad:a8f33cb1 | 145.328 MB |          |
| cms:/store/mc/Run3Summer23NanoAODv12/Zto2Q-4Jets_HT-600to800_TuneCP5_13p6TeV_madgraphMLM-pythia8/NANOAODSIM/130X_mcRun3_2023_realistic_v14-v1/70000/4614d4eb-2f27-473b-9847-5cc86377172f.root | (None) | ad:aa2242a5 | 213.735 MB |          |
| cms:/store/mc/Run3Summer23NanoAODv12/Zto2Q-4Jets_HT-600to800_TuneCP5_13p6TeV_madgraphMLM-pythia8/NANOAODSIM/130X_mcRun3_2023_realistic_v14-v1/30000/a81ef97f-0adc-4e92-b39e-3be927e54a3b.root | (None) | ad:228f0af8 | 104.562 MB |          |
+-----------------------------------------------------------------------------------------------------------------------------------------------------------------------------------------------+--------+-------------+------------+----------+
Total files : 39
Total size : 10.286 GB
