{
    "cms:/store/mc/Run3Summer22EENanoAODv12/ZZ_TuneCP5_13p6TeV_pythia8/NANOAODSIM/130X_mcRun3_2022_realistic_postEE_v6-v2/50000/8bd10534-c51f-4c52-9269-8b28c6c30fa6.root": [
        "T1_US_FNAL_Disk: davs://cmsdcadisk.fnal.gov:2880/dcache/uscmsdisk/store/mc/Run3Summer22EENanoAODv12/ZZ_TuneCP5_13p6TeV_pythia8/NANOAODSIM/130X_mcRun3_2022_realistic_postEE_v6-v2/50000/8bd10534-c51f-4c52-9269-8b28c6c30fa6.root",
        "T1_FR_CCIN2P3_Disk: davs://ccdavcms.in2p3.fr:2880/disk/data/store/mc/Run3Summer22EENanoAODv12/ZZ_TuneCP5_13p6TeV_pythia8/NANOAODSIM/130X_mcRun3_2022_realistic_postEE_v6-v2/50000/8bd10534-c51f-4c52-9269-8b28c6c30fa6.root",
        "T2_US_MIT: davs://xrootd.cmsaf.mit.edu:1094/store/mc/Run3Summer22EENanoAODv12/ZZ_TuneCP5_13p6TeV_pythia8/NANOAODSIM/130X_mcRun3_2022_realistic_postEE_v6-v2/50000/8bd10534-c51f-4c52-9269-8b28c6c30fa6.root",
        "T1_DE_KIT_Tape: davs://cmswebdav-kit-tape.gridka.de:2880/pnfs/gridka.de/cms/tape/store/mc/Run3Summer22EENanoAODv12/ZZ_TuneCP5_13p6TeV_pythia8/NANOAODSIM/130X_mcRun3_2022_realistic_postEE_v6-v2/50000/8bd10534-c51f-4c52-9269-8b28c6c30fa6.root",
        "T2_CN_Beijing: davs://cceos.ihep.ac.cn:9000/eos/ihep/cms/store/mc/Run3Summer22EENanoAODv12/ZZ_TuneCP5_13p6TeV_pythia8/NANOAODSIM/130X_mcRun3_2022_realistic_postEE_v6-v2/50000/8bd10534-c51f-4c52-9269-8b28c6c30fa6.root",
        "T2_BE_UCL: davs://ingrid-se02.cism.ucl.ac.be:1094/store/mc/Run3Summer22EENanoAODv12/ZZ_TuneCP5_13p6TeV_pythia8/NANOAODSIM/130X_mcRun3_2022_realistic_postEE_v6-v2/50000/8bd10534-c51f-4c52-9269-8b28c6c30fa6.root",
        "T2_HU_Budapest: davs://grid143.kfki.hu:443/dpm/kfki.hu/home/cms/phedex/store/mc/Run3Summer22EENanoAODv12/ZZ_TuneCP5_13p6TeV_pythia8/NANOAODSIM/130X_mcRun3_2022_realistic_postEE_v6-v2/50000/8bd10534-c51f-4c52-9269-8b28c6c30fa6.root",
        "T2_EE_Estonia: davs://xrootd.hep.kbfi.ee:1094/store/mc/Run3Summer22EENanoAODv12/ZZ_TuneCP5_13p6TeV_pythia8/NANOAODSIM/130X_mcRun3_2022_realistic_postEE_v6-v2/50000/8bd10534-c51f-4c52-9269-8b28c6c30fa6.root",
        "T2_US_Purdue: davs://eos.cms.rcac.purdue.edu:9000/store/mc/Run3Summer22EENanoAODv12/ZZ_TuneCP5_13p6TeV_pythia8/NANOAODSIM/130X_mcRun3_2022_realistic_postEE_v6-v2/50000/8bd10534-c51f-4c52-9269-8b28c6c30fa6.root",
        "T1_RU_JINR_Disk: davs://se-wbdv.jinr-t1.ru:2880/pnfs/jinr-t1.ru/data/cms/store/mc/Run3Summer22EENanoAODv12/ZZ_TuneCP5_13p6TeV_pythia8/NANOAODSIM/130X_mcRun3_2022_realistic_postEE_v6-v2/50000/8bd10534-c51f-4c52-9269-8b28c6c30fa6.root",
        "T1_IT_CNAF_Disk: davs://xfer-cms.cr.cnaf.infn.it:8443/cmsdisk/store/mc/Run3Summer22EENanoAODv12/ZZ_TuneCP5_13p6TeV_pythia8/NANOAODSIM/130X_mcRun3_2022_realistic_postEE_v6-v2/50000/8bd10534-c51f-4c52-9269-8b28c6c30fa6.root"
    ],
    "cms:/store/mc/Run3Summer22EENanoAODv12/ZZ_TuneCP5_13p6TeV_pythia8/NANOAODSIM/130X_mcRun3_2022_realistic_postEE_v6-v2/30000/583c9d5e-a4fd-4123-a285-13c329e94704.root": [
        "T1_US_FNAL_Disk: davs://cmsdcadisk.fnal.gov:2880/dcache/uscmsdisk/store/mc/Run3Summer22EENanoAODv12/ZZ_TuneCP5_13p6TeV_pythia8/NANOAODSIM/130X_mcRun3_2022_realistic_postEE_v6-v2/30000/583c9d5e-a4fd-4123-a285-13c329e94704.root",
        "T1_FR_CCIN2P3_Disk: davs://ccdavcms.in2p3.fr:2880/disk/data/store/mc/Run3Summer22EENanoAODv12/ZZ_TuneCP5_13p6TeV_pythia8/NANOAODSIM/130X_mcRun3_2022_realistic_postEE_v6-v2/30000/583c9d5e-a4fd-4123-a285-13c329e94704.root",
        "T2_US_MIT: davs://xrootd.cmsaf.mit.edu:1094/store/mc/Run3Summer22EENanoAODv12/ZZ_TuneCP5_13p6TeV_pythia8/NANOAODSIM/130X_mcRun3_2022_realistic_postEE_v6-v2/30000/583c9d5e-a4fd-4123-a285-13c329e94704.root",
        "T1_DE_KIT_Tape: davs://cmswebdav-kit-tape.gridka.de:2880/pnfs/gridka.de/cms/tape/store/mc/Run3Summer22EENanoAODv12/ZZ_TuneCP5_13p6TeV_pythia8/NANOAODSIM/130X_mcRun3_2022_realistic_postEE_v6-v2/30000/583c9d5e-a4fd-4123-a285-13c329e94704.root",
        "T2_CN_Beijing: davs://cceos.ihep.ac.cn:9000/eos/ihep/cms/store/mc/Run3Summer22EENanoAODv12/ZZ_TuneCP5_13p6TeV_pythia8/NANOAODSIM/130X_mcRun3_2022_realistic_postEE_v6-v2/30000/583c9d5e-a4fd-4123-a285-13c329e94704.root",
        "T2_BE_UCL: davs://ingrid-se02.cism.ucl.ac.be:1094/store/mc/Run3Summer22EENanoAODv12/ZZ_TuneCP5_13p6TeV_pythia8/NANOAODSIM/130X_mcRun3_2022_realistic_postEE_v6-v2/30000/583c9d5e-a4fd-4123-a285-13c329e94704.root",
        "T2_HU_Budapest: davs://grid143.kfki.hu:443/dpm/kfki.hu/home/cms/phedex/store/mc/Run3Summer22EENanoAODv12/ZZ_TuneCP5_13p6TeV_pythia8/NANOAODSIM/130X_mcRun3_2022_realistic_postEE_v6-v2/30000/583c9d5e-a4fd-4123-a285-13c329e94704.root",
        "T2_EE_Estonia: davs://xrootd.hep.kbfi.ee:1094/store/mc/Run3Summer22EENanoAODv12/ZZ_TuneCP5_13p6TeV_pythia8/NANOAODSIM/130X_mcRun3_2022_realistic_postEE_v6-v2/30000/583c9d5e-a4fd-4123-a285-13c329e94704.root",
        "T2_US_Purdue: davs://eos.cms.rcac.purdue.edu:9000/store/mc/Run3Summer22EENanoAODv12/ZZ_TuneCP5_13p6TeV_pythia8/NANOAODSIM/130X_mcRun3_2022_realistic_postEE_v6-v2/30000/583c9d5e-a4fd-4123-a285-13c329e94704.root",
        "T1_IT_CNAF_Disk: davs://xfer-cms.cr.cnaf.infn.it:8443/cmsdisk/store/mc/Run3Summer22EENanoAODv12/ZZ_TuneCP5_13p6TeV_pythia8/NANOAODSIM/130X_mcRun3_2022_realistic_postEE_v6-v2/30000/583c9d5e-a4fd-4123-a285-13c329e94704.root"
    ],
    "cms:/store/mc/Run3Summer22EENanoAODv12/ZZ_TuneCP5_13p6TeV_pythia8/NANOAODSIM/130X_mcRun3_2022_realistic_postEE_v6-v2/50000/99f9cb52-9331-46c3-ba71-cd3d28ef06ef.root": [
        "T1_US_FNAL_Disk: davs://cmsdcadisk.fnal.gov:2880/dcache/uscmsdisk/store/mc/Run3Summer22EENanoAODv12/ZZ_TuneCP5_13p6TeV_pythia8/NANOAODSIM/130X_mcRun3_2022_realistic_postEE_v6-v2/50000/99f9cb52-9331-46c3-ba71-cd3d28ef06ef.root",
        "T1_FR_CCIN2P3_Disk: davs://ccdavcms.in2p3.fr:2880/disk/data/store/mc/Run3Summer22EENanoAODv12/ZZ_TuneCP5_13p6TeV_pythia8/NANOAODSIM/130X_mcRun3_2022_realistic_postEE_v6-v2/50000/99f9cb52-9331-46c3-ba71-cd3d28ef06ef.root",
        "T2_US_MIT: davs://xrootd.cmsaf.mit.edu:1094/store/mc/Run3Summer22EENanoAODv12/ZZ_TuneCP5_13p6TeV_pythia8/NANOAODSIM/130X_mcRun3_2022_realistic_postEE_v6-v2/50000/99f9cb52-9331-46c3-ba71-cd3d28ef06ef.root",
        "T1_DE_KIT_Tape: davs://cmswebdav-kit-tape.gridka.de:2880/pnfs/gridka.de/cms/tape/store/mc/Run3Summer22EENanoAODv12/ZZ_TuneCP5_13p6TeV_pythia8/NANOAODSIM/130X_mcRun3_2022_realistic_postEE_v6-v2/50000/99f9cb52-9331-46c3-ba71-cd3d28ef06ef.root",
        "T2_CN_Beijing: davs://cceos.ihep.ac.cn:9000/eos/ihep/cms/store/mc/Run3Summer22EENanoAODv12/ZZ_TuneCP5_13p6TeV_pythia8/NANOAODSIM/130X_mcRun3_2022_realistic_postEE_v6-v2/50000/99f9cb52-9331-46c3-ba71-cd3d28ef06ef.root",
        "T2_BE_UCL: davs://ingrid-se02.cism.ucl.ac.be:1094/store/mc/Run3Summer22EENanoAODv12/ZZ_TuneCP5_13p6TeV_pythia8/NANOAODSIM/130X_mcRun3_2022_realistic_postEE_v6-v2/50000/99f9cb52-9331-46c3-ba71-cd3d28ef06ef.root",
        "T2_HU_Budapest: davs://grid143.kfki.hu:443/dpm/kfki.hu/home/cms/phedex/store/mc/Run3Summer22EENanoAODv12/ZZ_TuneCP5_13p6TeV_pythia8/NANOAODSIM/130X_mcRun3_2022_realistic_postEE_v6-v2/50000/99f9cb52-9331-46c3-ba71-cd3d28ef06ef.root",
        "T2_EE_Estonia: davs://xrootd.hep.kbfi.ee:1094/store/mc/Run3Summer22EENanoAODv12/ZZ_TuneCP5_13p6TeV_pythia8/NANOAODSIM/130X_mcRun3_2022_realistic_postEE_v6-v2/50000/99f9cb52-9331-46c3-ba71-cd3d28ef06ef.root",
        "T2_US_Purdue: davs://eos.cms.rcac.purdue.edu:9000/store/mc/Run3Summer22EENanoAODv12/ZZ_TuneCP5_13p6TeV_pythia8/NANOAODSIM/130X_mcRun3_2022_realistic_postEE_v6-v2/50000/99f9cb52-9331-46c3-ba71-cd3d28ef06ef.root",
        "T1_IT_CNAF_Disk: davs://xfer-cms.cr.cnaf.infn.it:8443/cmsdisk/store/mc/Run3Summer22EENanoAODv12/ZZ_TuneCP5_13p6TeV_pythia8/NANOAODSIM/130X_mcRun3_2022_realistic_postEE_v6-v2/50000/99f9cb52-9331-46c3-ba71-cd3d28ef06ef.root"
    ],
    "cms:/store/mc/Run3Summer22EENanoAODv12/ZZ_TuneCP5_13p6TeV_pythia8/NANOAODSIM/130X_mcRun3_2022_realistic_postEE_v6-v2/30000/afe6f93f-c034-4243-9919-52f332e5653a.root": [
        "T1_US_FNAL_Disk: davs://cmsdcadisk.fnal.gov:2880/dcache/uscmsdisk/store/mc/Run3Summer22EENanoAODv12/ZZ_TuneCP5_13p6TeV_pythia8/NANOAODSIM/130X_mcRun3_2022_realistic_postEE_v6-v2/30000/afe6f93f-c034-4243-9919-52f332e5653a.root",
        "T1_FR_CCIN2P3_Disk: davs://ccdavcms.in2p3.fr:2880/disk/data/store/mc/Run3Summer22EENanoAODv12/ZZ_TuneCP5_13p6TeV_pythia8/NANOAODSIM/130X_mcRun3_2022_realistic_postEE_v6-v2/30000/afe6f93f-c034-4243-9919-52f332e5653a.root",
        "T2_US_MIT: davs://xrootd.cmsaf.mit.edu:1094/store/mc/Run3Summer22EENanoAODv12/ZZ_TuneCP5_13p6TeV_pythia8/NANOAODSIM/130X_mcRun3_2022_realistic_postEE_v6-v2/30000/afe6f93f-c034-4243-9919-52f332e5653a.root",
        "T1_DE_KIT_Tape: davs://cmswebdav-kit-tape.gridka.de:2880/pnfs/gridka.de/cms/tape/store/mc/Run3Summer22EENanoAODv12/ZZ_TuneCP5_13p6TeV_pythia8/NANOAODSIM/130X_mcRun3_2022_realistic_postEE_v6-v2/30000/afe6f93f-c034-4243-9919-52f332e5653a.root",
        "T2_CN_Beijing: davs://cceos.ihep.ac.cn:9000/eos/ihep/cms/store/mc/Run3Summer22EENanoAODv12/ZZ_TuneCP5_13p6TeV_pythia8/NANOAODSIM/130X_mcRun3_2022_realistic_postEE_v6-v2/30000/afe6f93f-c034-4243-9919-52f332e5653a.root",
        "T2_BE_UCL: davs://ingrid-se02.cism.ucl.ac.be:1094/store/mc/Run3Summer22EENanoAODv12/ZZ_TuneCP5_13p6TeV_pythia8/NANOAODSIM/130X_mcRun3_2022_realistic_postEE_v6-v2/30000/afe6f93f-c034-4243-9919-52f332e5653a.root",
        "T2_HU_Budapest: davs://grid143.kfki.hu:443/dpm/kfki.hu/home/cms/phedex/store/mc/Run3Summer22EENanoAODv12/ZZ_TuneCP5_13p6TeV_pythia8/NANOAODSIM/130X_mcRun3_2022_realistic_postEE_v6-v2/30000/afe6f93f-c034-4243-9919-52f332e5653a.root",
        "T2_EE_Estonia: davs://xrootd.hep.kbfi.ee:1094/store/mc/Run3Summer22EENanoAODv12/ZZ_TuneCP5_13p6TeV_pythia8/NANOAODSIM/130X_mcRun3_2022_realistic_postEE_v6-v2/30000/afe6f93f-c034-4243-9919-52f332e5653a.root",
        "T2_US_Purdue: davs://eos.cms.rcac.purdue.edu:9000/store/mc/Run3Summer22EENanoAODv12/ZZ_TuneCP5_13p6TeV_pythia8/NANOAODSIM/130X_mcRun3_2022_realistic_postEE_v6-v2/30000/afe6f93f-c034-4243-9919-52f332e5653a.root",
        "T1_IT_CNAF_Disk: davs://xfer-cms.cr.cnaf.infn.it:8443/cmsdisk/store/mc/Run3Summer22EENanoAODv12/ZZ_TuneCP5_13p6TeV_pythia8/NANOAODSIM/130X_mcRun3_2022_realistic_postEE_v6-v2/30000/afe6f93f-c034-4243-9919-52f332e5653a.root"
    ],
    "cms:/store/mc/Run3Summer22EENanoAODv12/ZZ_TuneCP5_13p6TeV_pythia8/NANOAODSIM/130X_mcRun3_2022_realistic_postEE_v6-v2/40000/2b925ded-ae1a-4bbd-ac77-f0f806cf7265.root": [
        "T1_US_FNAL_Disk: davs://cmsdcadisk.fnal.gov:2880/dcache/uscmsdisk/store/mc/Run3Summer22EENanoAODv12/ZZ_TuneCP5_13p6TeV_pythia8/NANOAODSIM/130X_mcRun3_2022_realistic_postEE_v6-v2/40000/2b925ded-ae1a-4bbd-ac77-f0f806cf7265.root",
        "T1_FR_CCIN2P3_Disk: davs://ccdavcms.in2p3.fr:2880/disk/data/store/mc/Run3Summer22EENanoAODv12/ZZ_TuneCP5_13p6TeV_pythia8/NANOAODSIM/130X_mcRun3_2022_realistic_postEE_v6-v2/40000/2b925ded-ae1a-4bbd-ac77-f0f806cf7265.root",
        "T2_US_MIT: davs://xrootd.cmsaf.mit.edu:1094/store/mc/Run3Summer22EENanoAODv12/ZZ_TuneCP5_13p6TeV_pythia8/NANOAODSIM/130X_mcRun3_2022_realistic_postEE_v6-v2/40000/2b925ded-ae1a-4bbd-ac77-f0f806cf7265.root",
        "T1_DE_KIT_Tape: davs://cmswebdav-kit-tape.gridka.de:2880/pnfs/gridka.de/cms/tape/store/mc/Run3Summer22EENanoAODv12/ZZ_TuneCP5_13p6TeV_pythia8/NANOAODSIM/130X_mcRun3_2022_realistic_postEE_v6-v2/40000/2b925ded-ae1a-4bbd-ac77-f0f806cf7265.root",
        "T2_CN_Beijing: davs://cceos.ihep.ac.cn:9000/eos/ihep/cms/store/mc/Run3Summer22EENanoAODv12/ZZ_TuneCP5_13p6TeV_pythia8/NANOAODSIM/130X_mcRun3_2022_realistic_postEE_v6-v2/40000/2b925ded-ae1a-4bbd-ac77-f0f806cf7265.root",
        "T2_BE_UCL: davs://ingrid-se02.cism.ucl.ac.be:1094/store/mc/Run3Summer22EENanoAODv12/ZZ_TuneCP5_13p6TeV_pythia8/NANOAODSIM/130X_mcRun3_2022_realistic_postEE_v6-v2/40000/2b925ded-ae1a-4bbd-ac77-f0f806cf7265.root",
        "T2_HU_Budapest: davs://grid143.kfki.hu:443/dpm/kfki.hu/home/cms/phedex/store/mc/Run3Summer22EENanoAODv12/ZZ_TuneCP5_13p6TeV_pythia8/NANOAODSIM/130X_mcRun3_2022_realistic_postEE_v6-v2/40000/2b925ded-ae1a-4bbd-ac77-f0f806cf7265.root",
        "T2_EE_Estonia: davs://xrootd.hep.kbfi.ee:1094/store/mc/Run3Summer22EENanoAODv12/ZZ_TuneCP5_13p6TeV_pythia8/NANOAODSIM/130X_mcRun3_2022_realistic_postEE_v6-v2/40000/2b925ded-ae1a-4bbd-ac77-f0f806cf7265.root",
        "T2_US_Purdue: davs://eos.cms.rcac.purdue.edu:9000/store/mc/Run3Summer22EENanoAODv12/ZZ_TuneCP5_13p6TeV_pythia8/NANOAODSIM/130X_mcRun3_2022_realistic_postEE_v6-v2/40000/2b925ded-ae1a-4bbd-ac77-f0f806cf7265.root",
        "T2_ES_CIEMAT: davs://srm.ciemat.es:2880/pnfs/ciemat.es/data/cms/prod/store/mc/Run3Summer22EENanoAODv12/ZZ_TuneCP5_13p6TeV_pythia8/NANOAODSIM/130X_mcRun3_2022_realistic_postEE_v6-v2/40000/2b925ded-ae1a-4bbd-ac77-f0f806cf7265.root",
        "T1_IT_CNAF_Disk: davs://xfer-cms.cr.cnaf.infn.it:8443/cmsdisk/store/mc/Run3Summer22EENanoAODv12/ZZ_TuneCP5_13p6TeV_pythia8/NANOAODSIM/130X_mcRun3_2022_realistic_postEE_v6-v2/40000/2b925ded-ae1a-4bbd-ac77-f0f806cf7265.root"
    ],
    "cms:/store/mc/Run3Summer22EENanoAODv12/ZZ_TuneCP5_13p6TeV_pythia8/NANOAODSIM/130X_mcRun3_2022_realistic_postEE_v6-v2/2520000/82a94fc3-a986-474d-bd41-3131446f2b11.root": [
        "T1_US_FNAL_Disk: davs://cmsdcadisk.fnal.gov:2880/dcache/uscmsdisk/store/mc/Run3Summer22EENanoAODv12/ZZ_TuneCP5_13p6TeV_pythia8/NANOAODSIM/130X_mcRun3_2022_realistic_postEE_v6-v2/2520000/82a94fc3-a986-474d-bd41-3131446f2b11.root",
        "T1_FR_CCIN2P3_Disk: davs://ccdavcms.in2p3.fr:2880/disk/data/store/mc/Run3Summer22EENanoAODv12/ZZ_TuneCP5_13p6TeV_pythia8/NANOAODSIM/130X_mcRun3_2022_realistic_postEE_v6-v2/2520000/82a94fc3-a986-474d-bd41-3131446f2b11.root",
        "T2_US_MIT: davs://xrootd.cmsaf.mit.edu:1094/store/mc/Run3Summer22EENanoAODv12/ZZ_TuneCP5_13p6TeV_pythia8/NANOAODSIM/130X_mcRun3_2022_realistic_postEE_v6-v2/2520000/82a94fc3-a986-474d-bd41-3131446f2b11.root",
        "T1_DE_KIT_Tape: davs://cmswebdav-kit-tape.gridka.de:2880/pnfs/gridka.de/cms/tape/store/mc/Run3Summer22EENanoAODv12/ZZ_TuneCP5_13p6TeV_pythia8/NANOAODSIM/130X_mcRun3_2022_realistic_postEE_v6-v2/2520000/82a94fc3-a986-474d-bd41-3131446f2b11.root",
        "T2_CN_Beijing: davs://cceos.ihep.ac.cn:9000/eos/ihep/cms/store/mc/Run3Summer22EENanoAODv12/ZZ_TuneCP5_13p6TeV_pythia8/NANOAODSIM/130X_mcRun3_2022_realistic_postEE_v6-v2/2520000/82a94fc3-a986-474d-bd41-3131446f2b11.root",
        "T2_BE_UCL: davs://ingrid-se02.cism.ucl.ac.be:1094/store/mc/Run3Summer22EENanoAODv12/ZZ_TuneCP5_13p6TeV_pythia8/NANOAODSIM/130X_mcRun3_2022_realistic_postEE_v6-v2/2520000/82a94fc3-a986-474d-bd41-3131446f2b11.root",
        "T2_HU_Budapest: davs://grid143.kfki.hu:443/dpm/kfki.hu/home/cms/phedex/store/mc/Run3Summer22EENanoAODv12/ZZ_TuneCP5_13p6TeV_pythia8/NANOAODSIM/130X_mcRun3_2022_realistic_postEE_v6-v2/2520000/82a94fc3-a986-474d-bd41-3131446f2b11.root",
        "T2_EE_Estonia: davs://xrootd.hep.kbfi.ee:1094/store/mc/Run3Summer22EENanoAODv12/ZZ_TuneCP5_13p6TeV_pythia8/NANOAODSIM/130X_mcRun3_2022_realistic_postEE_v6-v2/2520000/82a94fc3-a986-474d-bd41-3131446f2b11.root",
        "T2_US_Purdue: davs://eos.cms.rcac.purdue.edu:9000/store/mc/Run3Summer22EENanoAODv12/ZZ_TuneCP5_13p6TeV_pythia8/NANOAODSIM/130X_mcRun3_2022_realistic_postEE_v6-v2/2520000/82a94fc3-a986-474d-bd41-3131446f2b11.root",
        "T1_RU_JINR_Disk: davs://se-wbdv.jinr-t1.ru:2880/pnfs/jinr-t1.ru/data/cms/store/mc/Run3Summer22EENanoAODv12/ZZ_TuneCP5_13p6TeV_pythia8/NANOAODSIM/130X_mcRun3_2022_realistic_postEE_v6-v2/2520000/82a94fc3-a986-474d-bd41-3131446f2b11.root",
        "T1_IT_CNAF_Disk: davs://xfer-cms.cr.cnaf.infn.it:8443/cmsdisk/store/mc/Run3Summer22EENanoAODv12/ZZ_TuneCP5_13p6TeV_pythia8/NANOAODSIM/130X_mcRun3_2022_realistic_postEE_v6-v2/2520000/82a94fc3-a986-474d-bd41-3131446f2b11.root"
    ],
    "cms:/store/mc/Run3Summer22EENanoAODv12/ZZ_TuneCP5_13p6TeV_pythia8/NANOAODSIM/130X_mcRun3_2022_realistic_postEE_v6-v2/2540000/fe3aff93-d945-4f73-b4b2-75c5ae40fbc0.root": [
        "T1_US_FNAL_Disk: davs://cmsdcadisk.fnal.gov:2880/dcache/uscmsdisk/store/mc/Run3Summer22EENanoAODv12/ZZ_TuneCP5_13p6TeV_pythia8/NANOAODSIM/130X_mcRun3_2022_realistic_postEE_v6-v2/2540000/fe3aff93-d945-4f73-b4b2-75c5ae40fbc0.root",
        "T1_FR_CCIN2P3_Disk: davs://ccdavcms.in2p3.fr:2880/disk/data/store/mc/Run3Summer22EENanoAODv12/ZZ_TuneCP5_13p6TeV_pythia8/NANOAODSIM/130X_mcRun3_2022_realistic_postEE_v6-v2/2540000/fe3aff93-d945-4f73-b4b2-75c5ae40fbc0.root",
        "T2_US_MIT: davs://xrootd.cmsaf.mit.edu:1094/store/mc/Run3Summer22EENanoAODv12/ZZ_TuneCP5_13p6TeV_pythia8/NANOAODSIM/130X_mcRun3_2022_realistic_postEE_v6-v2/2540000/fe3aff93-d945-4f73-b4b2-75c5ae40fbc0.root",
        "T1_DE_KIT_Tape: davs://cmswebdav-kit-tape.gridka.de:2880/pnfs/gridka.de/cms/tape/store/mc/Run3Summer22EENanoAODv12/ZZ_TuneCP5_13p6TeV_pythia8/NANOAODSIM/130X_mcRun3_2022_realistic_postEE_v6-v2/2540000/fe3aff93-d945-4f73-b4b2-75c5ae40fbc0.root",
        "T2_CN_Beijing: davs://cceos.ihep.ac.cn:9000/eos/ihep/cms/store/mc/Run3Summer22EENanoAODv12/ZZ_TuneCP5_13p6TeV_pythia8/NANOAODSIM/130X_mcRun3_2022_realistic_postEE_v6-v2/2540000/fe3aff93-d945-4f73-b4b2-75c5ae40fbc0.root",
        "T2_BE_UCL: davs://ingrid-se02.cism.ucl.ac.be:1094/store/mc/Run3Summer22EENanoAODv12/ZZ_TuneCP5_13p6TeV_pythia8/NANOAODSIM/130X_mcRun3_2022_realistic_postEE_v6-v2/2540000/fe3aff93-d945-4f73-b4b2-75c5ae40fbc0.root",
        "T2_HU_Budapest: davs://grid143.kfki.hu:443/dpm/kfki.hu/home/cms/phedex/store/mc/Run3Summer22EENanoAODv12/ZZ_TuneCP5_13p6TeV_pythia8/NANOAODSIM/130X_mcRun3_2022_realistic_postEE_v6-v2/2540000/fe3aff93-d945-4f73-b4b2-75c5ae40fbc0.root",
        "T2_EE_Estonia: davs://xrootd.hep.kbfi.ee:1094/store/mc/Run3Summer22EENanoAODv12/ZZ_TuneCP5_13p6TeV_pythia8/NANOAODSIM/130X_mcRun3_2022_realistic_postEE_v6-v2/2540000/fe3aff93-d945-4f73-b4b2-75c5ae40fbc0.root",
        "T2_US_Purdue: davs://eos.cms.rcac.purdue.edu:9000/store/mc/Run3Summer22EENanoAODv12/ZZ_TuneCP5_13p6TeV_pythia8/NANOAODSIM/130X_mcRun3_2022_realistic_postEE_v6-v2/2540000/fe3aff93-d945-4f73-b4b2-75c5ae40fbc0.root",
        "T1_IT_CNAF_Disk: davs://xfer-cms.cr.cnaf.infn.it:8443/cmsdisk/store/mc/Run3Summer22EENanoAODv12/ZZ_TuneCP5_13p6TeV_pythia8/NANOAODSIM/130X_mcRun3_2022_realistic_postEE_v6-v2/2540000/fe3aff93-d945-4f73-b4b2-75c5ae40fbc0.root"
    ],
    "cms:/store/mc/Run3Summer22EENanoAODv12/ZZ_TuneCP5_13p6TeV_pythia8/NANOAODSIM/130X_mcRun3_2022_realistic_postEE_v6-v2/30000/55d00a41-e604-49d6-a14c-628bd4d34112.root": [
        "T1_US_FNAL_Disk: davs://cmsdcadisk.fnal.gov:2880/dcache/uscmsdisk/store/mc/Run3Summer22EENanoAODv12/ZZ_TuneCP5_13p6TeV_pythia8/NANOAODSIM/130X_mcRun3_2022_realistic_postEE_v6-v2/30000/55d00a41-e604-49d6-a14c-628bd4d34112.root",
        "T1_FR_CCIN2P3_Disk: davs://ccdavcms.in2p3.fr:2880/disk/data/store/mc/Run3Summer22EENanoAODv12/ZZ_TuneCP5_13p6TeV_pythia8/NANOAODSIM/130X_mcRun3_2022_realistic_postEE_v6-v2/30000/55d00a41-e604-49d6-a14c-628bd4d34112.root",
        "T2_US_MIT: davs://xrootd.cmsaf.mit.edu:1094/store/mc/Run3Summer22EENanoAODv12/ZZ_TuneCP5_13p6TeV_pythia8/NANOAODSIM/130X_mcRun3_2022_realistic_postEE_v6-v2/30000/55d00a41-e604-49d6-a14c-628bd4d34112.root",
        "T1_DE_KIT_Tape: davs://cmswebdav-kit-tape.gridka.de:2880/pnfs/gridka.de/cms/tape/store/mc/Run3Summer22EENanoAODv12/ZZ_TuneCP5_13p6TeV_pythia8/NANOAODSIM/130X_mcRun3_2022_realistic_postEE_v6-v2/30000/55d00a41-e604-49d6-a14c-628bd4d34112.root",
        "T2_CN_Beijing: davs://cceos.ihep.ac.cn:9000/eos/ihep/cms/store/mc/Run3Summer22EENanoAODv12/ZZ_TuneCP5_13p6TeV_pythia8/NANOAODSIM/130X_mcRun3_2022_realistic_postEE_v6-v2/30000/55d00a41-e604-49d6-a14c-628bd4d34112.root",
        "T2_BE_UCL: davs://ingrid-se02.cism.ucl.ac.be:1094/store/mc/Run3Summer22EENanoAODv12/ZZ_TuneCP5_13p6TeV_pythia8/NANOAODSIM/130X_mcRun3_2022_realistic_postEE_v6-v2/30000/55d00a41-e604-49d6-a14c-628bd4d34112.root",
        "T2_HU_Budapest: davs://grid143.kfki.hu:443/dpm/kfki.hu/home/cms/phedex/store/mc/Run3Summer22EENanoAODv12/ZZ_TuneCP5_13p6TeV_pythia8/NANOAODSIM/130X_mcRun3_2022_realistic_postEE_v6-v2/30000/55d00a41-e604-49d6-a14c-628bd4d34112.root",
        "T2_EE_Estonia: davs://xrootd.hep.kbfi.ee:1094/store/mc/Run3Summer22EENanoAODv12/ZZ_TuneCP5_13p6TeV_pythia8/NANOAODSIM/130X_mcRun3_2022_realistic_postEE_v6-v2/30000/55d00a41-e604-49d6-a14c-628bd4d34112.root",
        "T2_US_Purdue: davs://eos.cms.rcac.purdue.edu:9000/store/mc/Run3Summer22EENanoAODv12/ZZ_TuneCP5_13p6TeV_pythia8/NANOAODSIM/130X_mcRun3_2022_realistic_postEE_v6-v2/30000/55d00a41-e604-49d6-a14c-628bd4d34112.root",
        "T1_IT_CNAF_Disk: davs://xfer-cms.cr.cnaf.infn.it:8443/cmsdisk/store/mc/Run3Summer22EENanoAODv12/ZZ_TuneCP5_13p6TeV_pythia8/NANOAODSIM/130X_mcRun3_2022_realistic_postEE_v6-v2/30000/55d00a41-e604-49d6-a14c-628bd4d34112.root"
    ],
    "cms:/store/mc/Run3Summer22EENanoAODv12/ZZ_TuneCP5_13p6TeV_pythia8/NANOAODSIM/130X_mcRun3_2022_realistic_postEE_v6-v2/30000/97de7080-51fb-43a2-834f-aff85dec91e9.root": [
        "T1_US_FNAL_Disk: davs://cmsdcadisk.fnal.gov:2880/dcache/uscmsdisk/store/mc/Run3Summer22EENanoAODv12/ZZ_TuneCP5_13p6TeV_pythia8/NANOAODSIM/130X_mcRun3_2022_realistic_postEE_v6-v2/30000/97de7080-51fb-43a2-834f-aff85dec91e9.root",
        "T1_FR_CCIN2P3_Disk: davs://ccdavcms.in2p3.fr:2880/disk/data/store/mc/Run3Summer22EENanoAODv12/ZZ_TuneCP5_13p6TeV_pythia8/NANOAODSIM/130X_mcRun3_2022_realistic_postEE_v6-v2/30000/97de7080-51fb-43a2-834f-aff85dec91e9.root",
        "T2_US_MIT: davs://xrootd.cmsaf.mit.edu:1094/store/mc/Run3Summer22EENanoAODv12/ZZ_TuneCP5_13p6TeV_pythia8/NANOAODSIM/130X_mcRun3_2022_realistic_postEE_v6-v2/30000/97de7080-51fb-43a2-834f-aff85dec91e9.root",
        "T1_DE_KIT_Tape: davs://cmswebdav-kit-tape.gridka.de:2880/pnfs/gridka.de/cms/tape/store/mc/Run3Summer22EENanoAODv12/ZZ_TuneCP5_13p6TeV_pythia8/NANOAODSIM/130X_mcRun3_2022_realistic_postEE_v6-v2/30000/97de7080-51fb-43a2-834f-aff85dec91e9.root",
        "T2_CN_Beijing: davs://cceos.ihep.ac.cn:9000/eos/ihep/cms/store/mc/Run3Summer22EENanoAODv12/ZZ_TuneCP5_13p6TeV_pythia8/NANOAODSIM/130X_mcRun3_2022_realistic_postEE_v6-v2/30000/97de7080-51fb-43a2-834f-aff85dec91e9.root",
        "T2_BE_UCL: davs://ingrid-se02.cism.ucl.ac.be:1094/store/mc/Run3Summer22EENanoAODv12/ZZ_TuneCP5_13p6TeV_pythia8/NANOAODSIM/130X_mcRun3_2022_realistic_postEE_v6-v2/30000/97de7080-51fb-43a2-834f-aff85dec91e9.root",
        "T2_HU_Budapest: davs://grid143.kfki.hu:443/dpm/kfki.hu/home/cms/phedex/store/mc/Run3Summer22EENanoAODv12/ZZ_TuneCP5_13p6TeV_pythia8/NANOAODSIM/130X_mcRun3_2022_realistic_postEE_v6-v2/30000/97de7080-51fb-43a2-834f-aff85dec91e9.root",
        "T2_EE_Estonia: davs://xrootd.hep.kbfi.ee:1094/store/mc/Run3Summer22EENanoAODv12/ZZ_TuneCP5_13p6TeV_pythia8/NANOAODSIM/130X_mcRun3_2022_realistic_postEE_v6-v2/30000/97de7080-51fb-43a2-834f-aff85dec91e9.root",
        "T2_US_Purdue: davs://eos.cms.rcac.purdue.edu:9000/store/mc/Run3Summer22EENanoAODv12/ZZ_TuneCP5_13p6TeV_pythia8/NANOAODSIM/130X_mcRun3_2022_realistic_postEE_v6-v2/30000/97de7080-51fb-43a2-834f-aff85dec91e9.root",
        "T1_IT_CNAF_Disk: davs://xfer-cms.cr.cnaf.infn.it:8443/cmsdisk/store/mc/Run3Summer22EENanoAODv12/ZZ_TuneCP5_13p6TeV_pythia8/NANOAODSIM/130X_mcRun3_2022_realistic_postEE_v6-v2/30000/97de7080-51fb-43a2-834f-aff85dec91e9.root"
    ],
    "cms:/store/mc/Run3Summer22EENanoAODv12/ZZ_TuneCP5_13p6TeV_pythia8/NANOAODSIM/130X_mcRun3_2022_realistic_postEE_v6-v2/30000/06c83f4c-22fc-4de6-bfd6-cb86ae654418.root": [
        "T1_US_FNAL_Disk: davs://cmsdcadisk.fnal.gov:2880/dcache/uscmsdisk/store/mc/Run3Summer22EENanoAODv12/ZZ_TuneCP5_13p6TeV_pythia8/NANOAODSIM/130X_mcRun3_2022_realistic_postEE_v6-v2/30000/06c83f4c-22fc-4de6-bfd6-cb86ae654418.root",
        "T1_FR_CCIN2P3_Disk: davs://ccdavcms.in2p3.fr:2880/disk/data/store/mc/Run3Summer22EENanoAODv12/ZZ_TuneCP5_13p6TeV_pythia8/NANOAODSIM/130X_mcRun3_2022_realistic_postEE_v6-v2/30000/06c83f4c-22fc-4de6-bfd6-cb86ae654418.root",
        "T2_US_MIT: davs://xrootd.cmsaf.mit.edu:1094/store/mc/Run3Summer22EENanoAODv12/ZZ_TuneCP5_13p6TeV_pythia8/NANOAODSIM/130X_mcRun3_2022_realistic_postEE_v6-v2/30000/06c83f4c-22fc-4de6-bfd6-cb86ae654418.root",
        "T1_DE_KIT_Tape: davs://cmswebdav-kit-tape.gridka.de:2880/pnfs/gridka.de/cms/tape/store/mc/Run3Summer22EENanoAODv12/ZZ_TuneCP5_13p6TeV_pythia8/NANOAODSIM/130X_mcRun3_2022_realistic_postEE_v6-v2/30000/06c83f4c-22fc-4de6-bfd6-cb86ae654418.root",
        "T2_CN_Beijing: davs://cceos.ihep.ac.cn:9000/eos/ihep/cms/store/mc/Run3Summer22EENanoAODv12/ZZ_TuneCP5_13p6TeV_pythia8/NANOAODSIM/130X_mcRun3_2022_realistic_postEE_v6-v2/30000/06c83f4c-22fc-4de6-bfd6-cb86ae654418.root",
        "T2_BE_UCL: davs://ingrid-se02.cism.ucl.ac.be:1094/store/mc/Run3Summer22EENanoAODv12/ZZ_TuneCP5_13p6TeV_pythia8/NANOAODSIM/130X_mcRun3_2022_realistic_postEE_v6-v2/30000/06c83f4c-22fc-4de6-bfd6-cb86ae654418.root",
        "T2_HU_Budapest: davs://grid143.kfki.hu:443/dpm/kfki.hu/home/cms/phedex/store/mc/Run3Summer22EENanoAODv12/ZZ_TuneCP5_13p6TeV_pythia8/NANOAODSIM/130X_mcRun3_2022_realistic_postEE_v6-v2/30000/06c83f4c-22fc-4de6-bfd6-cb86ae654418.root",
        "T2_EE_Estonia: davs://xrootd.hep.kbfi.ee:1094/store/mc/Run3Summer22EENanoAODv12/ZZ_TuneCP5_13p6TeV_pythia8/NANOAODSIM/130X_mcRun3_2022_realistic_postEE_v6-v2/30000/06c83f4c-22fc-4de6-bfd6-cb86ae654418.root",
        "T2_US_Purdue: davs://eos.cms.rcac.purdue.edu:9000/store/mc/Run3Summer22EENanoAODv12/ZZ_TuneCP5_13p6TeV_pythia8/NANOAODSIM/130X_mcRun3_2022_realistic_postEE_v6-v2/30000/06c83f4c-22fc-4de6-bfd6-cb86ae654418.root",
        "T1_IT_CNAF_Disk: davs://xfer-cms.cr.cnaf.infn.it:8443/cmsdisk/store/mc/Run3Summer22EENanoAODv12/ZZ_TuneCP5_13p6TeV_pythia8/NANOAODSIM/130X_mcRun3_2022_realistic_postEE_v6-v2/30000/06c83f4c-22fc-4de6-bfd6-cb86ae654418.root"
    ],
    "cms:/store/mc/Run3Summer22EENanoAODv12/ZZ_TuneCP5_13p6TeV_pythia8/NANOAODSIM/130X_mcRun3_2022_realistic_postEE_v6-v2/30000/c1f74d88-2064-43a5-a9f8-2a5efeb58c47.root": [
        "T1_US_FNAL_Disk: davs://cmsdcadisk.fnal.gov:2880/dcache/uscmsdisk/store/mc/Run3Summer22EENanoAODv12/ZZ_TuneCP5_13p6TeV_pythia8/NANOAODSIM/130X_mcRun3_2022_realistic_postEE_v6-v2/30000/c1f74d88-2064-43a5-a9f8-2a5efeb58c47.root",
        "T1_FR_CCIN2P3_Disk: davs://ccdavcms.in2p3.fr:2880/disk/data/store/mc/Run3Summer22EENanoAODv12/ZZ_TuneCP5_13p6TeV_pythia8/NANOAODSIM/130X_mcRun3_2022_realistic_postEE_v6-v2/30000/c1f74d88-2064-43a5-a9f8-2a5efeb58c47.root",
        "T2_US_MIT: davs://xrootd.cmsaf.mit.edu:1094/store/mc/Run3Summer22EENanoAODv12/ZZ_TuneCP5_13p6TeV_pythia8/NANOAODSIM/130X_mcRun3_2022_realistic_postEE_v6-v2/30000/c1f74d88-2064-43a5-a9f8-2a5efeb58c47.root",
        "T1_DE_KIT_Tape: davs://cmswebdav-kit-tape.gridka.de:2880/pnfs/gridka.de/cms/tape/store/mc/Run3Summer22EENanoAODv12/ZZ_TuneCP5_13p6TeV_pythia8/NANOAODSIM/130X_mcRun3_2022_realistic_postEE_v6-v2/30000/c1f74d88-2064-43a5-a9f8-2a5efeb58c47.root",
        "T2_CN_Beijing: davs://cceos.ihep.ac.cn:9000/eos/ihep/cms/store/mc/Run3Summer22EENanoAODv12/ZZ_TuneCP5_13p6TeV_pythia8/NANOAODSIM/130X_mcRun3_2022_realistic_postEE_v6-v2/30000/c1f74d88-2064-43a5-a9f8-2a5efeb58c47.root",
        "T2_BE_UCL: davs://ingrid-se02.cism.ucl.ac.be:1094/store/mc/Run3Summer22EENanoAODv12/ZZ_TuneCP5_13p6TeV_pythia8/NANOAODSIM/130X_mcRun3_2022_realistic_postEE_v6-v2/30000/c1f74d88-2064-43a5-a9f8-2a5efeb58c47.root",
        "T2_HU_Budapest: davs://grid143.kfki.hu:443/dpm/kfki.hu/home/cms/phedex/store/mc/Run3Summer22EENanoAODv12/ZZ_TuneCP5_13p6TeV_pythia8/NANOAODSIM/130X_mcRun3_2022_realistic_postEE_v6-v2/30000/c1f74d88-2064-43a5-a9f8-2a5efeb58c47.root",
        "T2_EE_Estonia: davs://xrootd.hep.kbfi.ee:1094/store/mc/Run3Summer22EENanoAODv12/ZZ_TuneCP5_13p6TeV_pythia8/NANOAODSIM/130X_mcRun3_2022_realistic_postEE_v6-v2/30000/c1f74d88-2064-43a5-a9f8-2a5efeb58c47.root",
        "T2_US_Purdue: davs://eos.cms.rcac.purdue.edu:9000/store/mc/Run3Summer22EENanoAODv12/ZZ_TuneCP5_13p6TeV_pythia8/NANOAODSIM/130X_mcRun3_2022_realistic_postEE_v6-v2/30000/c1f74d88-2064-43a5-a9f8-2a5efeb58c47.root",
        "T1_IT_CNAF_Disk: davs://xfer-cms.cr.cnaf.infn.it:8443/cmsdisk/store/mc/Run3Summer22EENanoAODv12/ZZ_TuneCP5_13p6TeV_pythia8/NANOAODSIM/130X_mcRun3_2022_realistic_postEE_v6-v2/30000/c1f74d88-2064-43a5-a9f8-2a5efeb58c47.root"
    ],
    "cms:/store/mc/Run3Summer22EENanoAODv12/ZZ_TuneCP5_13p6TeV_pythia8/NANOAODSIM/130X_mcRun3_2022_realistic_postEE_v6-v2/50000/606c1a19-07c4-40d0-bcd4-8cd3fb331c73.root": [
        "T1_US_FNAL_Disk: davs://cmsdcadisk.fnal.gov:2880/dcache/uscmsdisk/store/mc/Run3Summer22EENanoAODv12/ZZ_TuneCP5_13p6TeV_pythia8/NANOAODSIM/130X_mcRun3_2022_realistic_postEE_v6-v2/50000/606c1a19-07c4-40d0-bcd4-8cd3fb331c73.root",
        "T1_FR_CCIN2P3_Disk: davs://ccdavcms.in2p3.fr:2880/disk/data/store/mc/Run3Summer22EENanoAODv12/ZZ_TuneCP5_13p6TeV_pythia8/NANOAODSIM/130X_mcRun3_2022_realistic_postEE_v6-v2/50000/606c1a19-07c4-40d0-bcd4-8cd3fb331c73.root",
        "T2_US_MIT: davs://xrootd.cmsaf.mit.edu:1094/store/mc/Run3Summer22EENanoAODv12/ZZ_TuneCP5_13p6TeV_pythia8/NANOAODSIM/130X_mcRun3_2022_realistic_postEE_v6-v2/50000/606c1a19-07c4-40d0-bcd4-8cd3fb331c73.root",
        "T1_DE_KIT_Tape: davs://cmswebdav-kit-tape.gridka.de:2880/pnfs/gridka.de/cms/tape/store/mc/Run3Summer22EENanoAODv12/ZZ_TuneCP5_13p6TeV_pythia8/NANOAODSIM/130X_mcRun3_2022_realistic_postEE_v6-v2/50000/606c1a19-07c4-40d0-bcd4-8cd3fb331c73.root",
        "T2_CN_Beijing: davs://cceos.ihep.ac.cn:9000/eos/ihep/cms/store/mc/Run3Summer22EENanoAODv12/ZZ_TuneCP5_13p6TeV_pythia8/NANOAODSIM/130X_mcRun3_2022_realistic_postEE_v6-v2/50000/606c1a19-07c4-40d0-bcd4-8cd3fb331c73.root",
        "T2_BE_UCL: davs://ingrid-se02.cism.ucl.ac.be:1094/store/mc/Run3Summer22EENanoAODv12/ZZ_TuneCP5_13p6TeV_pythia8/NANOAODSIM/130X_mcRun3_2022_realistic_postEE_v6-v2/50000/606c1a19-07c4-40d0-bcd4-8cd3fb331c73.root",
        "T2_HU_Budapest: davs://grid143.kfki.hu:443/dpm/kfki.hu/home/cms/phedex/store/mc/Run3Summer22EENanoAODv12/ZZ_TuneCP5_13p6TeV_pythia8/NANOAODSIM/130X_mcRun3_2022_realistic_postEE_v6-v2/50000/606c1a19-07c4-40d0-bcd4-8cd3fb331c73.root",
        "T2_EE_Estonia: davs://xrootd.hep.kbfi.ee:1094/store/mc/Run3Summer22EENanoAODv12/ZZ_TuneCP5_13p6TeV_pythia8/NANOAODSIM/130X_mcRun3_2022_realistic_postEE_v6-v2/50000/606c1a19-07c4-40d0-bcd4-8cd3fb331c73.root",
        "T2_US_Purdue: davs://eos.cms.rcac.purdue.edu:9000/store/mc/Run3Summer22EENanoAODv12/ZZ_TuneCP5_13p6TeV_pythia8/NANOAODSIM/130X_mcRun3_2022_realistic_postEE_v6-v2/50000/606c1a19-07c4-40d0-bcd4-8cd3fb331c73.root",
        "T1_IT_CNAF_Disk: davs://xfer-cms.cr.cnaf.infn.it:8443/cmsdisk/store/mc/Run3Summer22EENanoAODv12/ZZ_TuneCP5_13p6TeV_pythia8/NANOAODSIM/130X_mcRun3_2022_realistic_postEE_v6-v2/50000/606c1a19-07c4-40d0-bcd4-8cd3fb331c73.root"
    ],
    "cms:/store/mc/Run3Summer22EENanoAODv12/ZZ_TuneCP5_13p6TeV_pythia8/NANOAODSIM/130X_mcRun3_2022_realistic_postEE_v6-v2/2540000/e6faeec8-3e04-43fd-a843-08db4937fb10.root": [
        "T1_US_FNAL_Disk: davs://cmsdcadisk.fnal.gov:2880/dcache/uscmsdisk/store/mc/Run3Summer22EENanoAODv12/ZZ_TuneCP5_13p6TeV_pythia8/NANOAODSIM/130X_mcRun3_2022_realistic_postEE_v6-v2/2540000/e6faeec8-3e04-43fd-a843-08db4937fb10.root",
        "T1_FR_CCIN2P3_Disk: davs://ccdavcms.in2p3.fr:2880/disk/data/store/mc/Run3Summer22EENanoAODv12/ZZ_TuneCP5_13p6TeV_pythia8/NANOAODSIM/130X_mcRun3_2022_realistic_postEE_v6-v2/2540000/e6faeec8-3e04-43fd-a843-08db4937fb10.root",
        "T2_US_MIT: davs://xrootd.cmsaf.mit.edu:1094/store/mc/Run3Summer22EENanoAODv12/ZZ_TuneCP5_13p6TeV_pythia8/NANOAODSIM/130X_mcRun3_2022_realistic_postEE_v6-v2/2540000/e6faeec8-3e04-43fd-a843-08db4937fb10.root",
        "T1_DE_KIT_Tape: davs://cmswebdav-kit-tape.gridka.de:2880/pnfs/gridka.de/cms/tape/store/mc/Run3Summer22EENanoAODv12/ZZ_TuneCP5_13p6TeV_pythia8/NANOAODSIM/130X_mcRun3_2022_realistic_postEE_v6-v2/2540000/e6faeec8-3e04-43fd-a843-08db4937fb10.root",
        "T2_CN_Beijing: davs://cceos.ihep.ac.cn:9000/eos/ihep/cms/store/mc/Run3Summer22EENanoAODv12/ZZ_TuneCP5_13p6TeV_pythia8/NANOAODSIM/130X_mcRun3_2022_realistic_postEE_v6-v2/2540000/e6faeec8-3e04-43fd-a843-08db4937fb10.root",
        "T2_BE_UCL: davs://ingrid-se02.cism.ucl.ac.be:1094/store/mc/Run3Summer22EENanoAODv12/ZZ_TuneCP5_13p6TeV_pythia8/NANOAODSIM/130X_mcRun3_2022_realistic_postEE_v6-v2/2540000/e6faeec8-3e04-43fd-a843-08db4937fb10.root",
        "T2_HU_Budapest: davs://grid143.kfki.hu:443/dpm/kfki.hu/home/cms/phedex/store/mc/Run3Summer22EENanoAODv12/ZZ_TuneCP5_13p6TeV_pythia8/NANOAODSIM/130X_mcRun3_2022_realistic_postEE_v6-v2/2540000/e6faeec8-3e04-43fd-a843-08db4937fb10.root",
        "T2_US_Nebraska: davs://xrootd-local.unl.edu:1094/store/mc/Run3Summer22EENanoAODv12/ZZ_TuneCP5_13p6TeV_pythia8/NANOAODSIM/130X_mcRun3_2022_realistic_postEE_v6-v2/2540000/e6faeec8-3e04-43fd-a843-08db4937fb10.root",
        "T2_EE_Estonia: davs://xrootd.hep.kbfi.ee:1094/store/mc/Run3Summer22EENanoAODv12/ZZ_TuneCP5_13p6TeV_pythia8/NANOAODSIM/130X_mcRun3_2022_realistic_postEE_v6-v2/2540000/e6faeec8-3e04-43fd-a843-08db4937fb10.root",
        "T2_US_Purdue: davs://eos.cms.rcac.purdue.edu:9000/store/mc/Run3Summer22EENanoAODv12/ZZ_TuneCP5_13p6TeV_pythia8/NANOAODSIM/130X_mcRun3_2022_realistic_postEE_v6-v2/2540000/e6faeec8-3e04-43fd-a843-08db4937fb10.root",
        "T1_IT_CNAF_Disk: davs://xfer-cms.cr.cnaf.infn.it:8443/cmsdisk/store/mc/Run3Summer22EENanoAODv12/ZZ_TuneCP5_13p6TeV_pythia8/NANOAODSIM/130X_mcRun3_2022_realistic_postEE_v6-v2/2540000/e6faeec8-3e04-43fd-a843-08db4937fb10.root"
    ],
    "cms:/store/mc/Run3Summer22EENanoAODv12/ZZ_TuneCP5_13p6TeV_pythia8/NANOAODSIM/130X_mcRun3_2022_realistic_postEE_v6-v2/2540000/0a2c754d-969c-472d-ae98-a802d5083b81.root": [
        "T1_US_FNAL_Disk: davs://cmsdcadisk.fnal.gov:2880/dcache/uscmsdisk/store/mc/Run3Summer22EENanoAODv12/ZZ_TuneCP5_13p6TeV_pythia8/NANOAODSIM/130X_mcRun3_2022_realistic_postEE_v6-v2/2540000/0a2c754d-969c-472d-ae98-a802d5083b81.root",
        "T1_FR_CCIN2P3_Disk: davs://ccdavcms.in2p3.fr:2880/disk/data/store/mc/Run3Summer22EENanoAODv12/ZZ_TuneCP5_13p6TeV_pythia8/NANOAODSIM/130X_mcRun3_2022_realistic_postEE_v6-v2/2540000/0a2c754d-969c-472d-ae98-a802d5083b81.root",
        "T2_US_MIT: davs://xrootd.cmsaf.mit.edu:1094/store/mc/Run3Summer22EENanoAODv12/ZZ_TuneCP5_13p6TeV_pythia8/NANOAODSIM/130X_mcRun3_2022_realistic_postEE_v6-v2/2540000/0a2c754d-969c-472d-ae98-a802d5083b81.root",
        "T1_DE_KIT_Tape: davs://cmswebdav-kit-tape.gridka.de:2880/pnfs/gridka.de/cms/tape/store/mc/Run3Summer22EENanoAODv12/ZZ_TuneCP5_13p6TeV_pythia8/NANOAODSIM/130X_mcRun3_2022_realistic_postEE_v6-v2/2540000/0a2c754d-969c-472d-ae98-a802d5083b81.root",
        "T2_CN_Beijing: davs://cceos.ihep.ac.cn:9000/eos/ihep/cms/store/mc/Run3Summer22EENanoAODv12/ZZ_TuneCP5_13p6TeV_pythia8/NANOAODSIM/130X_mcRun3_2022_realistic_postEE_v6-v2/2540000/0a2c754d-969c-472d-ae98-a802d5083b81.root",
        "T2_BE_UCL: davs://ingrid-se02.cism.ucl.ac.be:1094/store/mc/Run3Summer22EENanoAODv12/ZZ_TuneCP5_13p6TeV_pythia8/NANOAODSIM/130X_mcRun3_2022_realistic_postEE_v6-v2/2540000/0a2c754d-969c-472d-ae98-a802d5083b81.root",
        "T2_HU_Budapest: davs://grid143.kfki.hu:443/dpm/kfki.hu/home/cms/phedex/store/mc/Run3Summer22EENanoAODv12/ZZ_TuneCP5_13p6TeV_pythia8/NANOAODSIM/130X_mcRun3_2022_realistic_postEE_v6-v2/2540000/0a2c754d-969c-472d-ae98-a802d5083b81.root",
        "T2_EE_Estonia: davs://xrootd.hep.kbfi.ee:1094/store/mc/Run3Summer22EENanoAODv12/ZZ_TuneCP5_13p6TeV_pythia8/NANOAODSIM/130X_mcRun3_2022_realistic_postEE_v6-v2/2540000/0a2c754d-969c-472d-ae98-a802d5083b81.root",
        "T2_BE_IIHE: davs://maite.iihe.ac.be:2880/pnfs/iihe/cms/ph/sc4/store/mc/Run3Summer22EENanoAODv12/ZZ_TuneCP5_13p6TeV_pythia8/NANOAODSIM/130X_mcRun3_2022_realistic_postEE_v6-v2/2540000/0a2c754d-969c-472d-ae98-a802d5083b81.root",
        "T2_US_Purdue: davs://eos.cms.rcac.purdue.edu:9000/store/mc/Run3Summer22EENanoAODv12/ZZ_TuneCP5_13p6TeV_pythia8/NANOAODSIM/130X_mcRun3_2022_realistic_postEE_v6-v2/2540000/0a2c754d-969c-472d-ae98-a802d5083b81.root",
        "T1_IT_CNAF_Disk: davs://xfer-cms.cr.cnaf.infn.it:8443/cmsdisk/store/mc/Run3Summer22EENanoAODv12/ZZ_TuneCP5_13p6TeV_pythia8/NANOAODSIM/130X_mcRun3_2022_realistic_postEE_v6-v2/2540000/0a2c754d-969c-472d-ae98-a802d5083b81.root"
    ],
    "cms:/store/mc/Run3Summer22EENanoAODv12/ZZ_TuneCP5_13p6TeV_pythia8/NANOAODSIM/130X_mcRun3_2022_realistic_postEE_v6-v2/40000/999fc0b6-e5c0-4b5a-8322-008b3c6654cf.root": [
        "T1_US_FNAL_Disk: davs://cmsdcadisk.fnal.gov:2880/dcache/uscmsdisk/store/mc/Run3Summer22EENanoAODv12/ZZ_TuneCP5_13p6TeV_pythia8/NANOAODSIM/130X_mcRun3_2022_realistic_postEE_v6-v2/40000/999fc0b6-e5c0-4b5a-8322-008b3c6654cf.root",
        "T1_FR_CCIN2P3_Disk: davs://ccdavcms.in2p3.fr:2880/disk/data/store/mc/Run3Summer22EENanoAODv12/ZZ_TuneCP5_13p6TeV_pythia8/NANOAODSIM/130X_mcRun3_2022_realistic_postEE_v6-v2/40000/999fc0b6-e5c0-4b5a-8322-008b3c6654cf.root",
        "T2_US_MIT: davs://xrootd.cmsaf.mit.edu:1094/store/mc/Run3Summer22EENanoAODv12/ZZ_TuneCP5_13p6TeV_pythia8/NANOAODSIM/130X_mcRun3_2022_realistic_postEE_v6-v2/40000/999fc0b6-e5c0-4b5a-8322-008b3c6654cf.root",
        "T1_DE_KIT_Tape: davs://cmswebdav-kit-tape.gridka.de:2880/pnfs/gridka.de/cms/tape/store/mc/Run3Summer22EENanoAODv12/ZZ_TuneCP5_13p6TeV_pythia8/NANOAODSIM/130X_mcRun3_2022_realistic_postEE_v6-v2/40000/999fc0b6-e5c0-4b5a-8322-008b3c6654cf.root",
        "T2_CN_Beijing: davs://cceos.ihep.ac.cn:9000/eos/ihep/cms/store/mc/Run3Summer22EENanoAODv12/ZZ_TuneCP5_13p6TeV_pythia8/NANOAODSIM/130X_mcRun3_2022_realistic_postEE_v6-v2/40000/999fc0b6-e5c0-4b5a-8322-008b3c6654cf.root",
        "T2_BE_UCL: davs://ingrid-se02.cism.ucl.ac.be:1094/store/mc/Run3Summer22EENanoAODv12/ZZ_TuneCP5_13p6TeV_pythia8/NANOAODSIM/130X_mcRun3_2022_realistic_postEE_v6-v2/40000/999fc0b6-e5c0-4b5a-8322-008b3c6654cf.root",
        "T2_HU_Budapest: davs://grid143.kfki.hu:443/dpm/kfki.hu/home/cms/phedex/store/mc/Run3Summer22EENanoAODv12/ZZ_TuneCP5_13p6TeV_pythia8/NANOAODSIM/130X_mcRun3_2022_realistic_postEE_v6-v2/40000/999fc0b6-e5c0-4b5a-8322-008b3c6654cf.root",
        "T2_EE_Estonia: davs://xrootd.hep.kbfi.ee:1094/store/mc/Run3Summer22EENanoAODv12/ZZ_TuneCP5_13p6TeV_pythia8/NANOAODSIM/130X_mcRun3_2022_realistic_postEE_v6-v2/40000/999fc0b6-e5c0-4b5a-8322-008b3c6654cf.root",
        "T2_IT_Pisa: davs://stwebdav.pi.infn.it:8443/cms/store/mc/Run3Summer22EENanoAODv12/ZZ_TuneCP5_13p6TeV_pythia8/NANOAODSIM/130X_mcRun3_2022_realistic_postEE_v6-v2/40000/999fc0b6-e5c0-4b5a-8322-008b3c6654cf.root",
        "T2_US_Purdue: davs://eos.cms.rcac.purdue.edu:9000/store/mc/Run3Summer22EENanoAODv12/ZZ_TuneCP5_13p6TeV_pythia8/NANOAODSIM/130X_mcRun3_2022_realistic_postEE_v6-v2/40000/999fc0b6-e5c0-4b5a-8322-008b3c6654cf.root",
        "T1_IT_CNAF_Disk: davs://xfer-cms.cr.cnaf.infn.it:8443/cmsdisk/store/mc/Run3Summer22EENanoAODv12/ZZ_TuneCP5_13p6TeV_pythia8/NANOAODSIM/130X_mcRun3_2022_realistic_postEE_v6-v2/40000/999fc0b6-e5c0-4b5a-8322-008b3c6654cf.root"
    ],
    "cms:/store/mc/Run3Summer22EENanoAODv12/ZZ_TuneCP5_13p6TeV_pythia8/NANOAODSIM/130X_mcRun3_2022_realistic_postEE_v6-v2/30000/731a7a73-7cf5-4989-b7b2-d6ab940d7365.root": [
        "T1_US_FNAL_Disk: davs://cmsdcadisk.fnal.gov:2880/dcache/uscmsdisk/store/mc/Run3Summer22EENanoAODv12/ZZ_TuneCP5_13p6TeV_pythia8/NANOAODSIM/130X_mcRun3_2022_realistic_postEE_v6-v2/30000/731a7a73-7cf5-4989-b7b2-d6ab940d7365.root",
        "T1_FR_CCIN2P3_Disk: davs://ccdavcms.in2p3.fr:2880/disk/data/store/mc/Run3Summer22EENanoAODv12/ZZ_TuneCP5_13p6TeV_pythia8/NANOAODSIM/130X_mcRun3_2022_realistic_postEE_v6-v2/30000/731a7a73-7cf5-4989-b7b2-d6ab940d7365.root",
        "T2_US_MIT: davs://xrootd.cmsaf.mit.edu:1094/store/mc/Run3Summer22EENanoAODv12/ZZ_TuneCP5_13p6TeV_pythia8/NANOAODSIM/130X_mcRun3_2022_realistic_postEE_v6-v2/30000/731a7a73-7cf5-4989-b7b2-d6ab940d7365.root",
        "T1_DE_KIT_Tape: davs://cmswebdav-kit-tape.gridka.de:2880/pnfs/gridka.de/cms/tape/store/mc/Run3Summer22EENanoAODv12/ZZ_TuneCP5_13p6TeV_pythia8/NANOAODSIM/130X_mcRun3_2022_realistic_postEE_v6-v2/30000/731a7a73-7cf5-4989-b7b2-d6ab940d7365.root",
        "T2_CN_Beijing: davs://cceos.ihep.ac.cn:9000/eos/ihep/cms/store/mc/Run3Summer22EENanoAODv12/ZZ_TuneCP5_13p6TeV_pythia8/NANOAODSIM/130X_mcRun3_2022_realistic_postEE_v6-v2/30000/731a7a73-7cf5-4989-b7b2-d6ab940d7365.root",
        "T2_BE_UCL: davs://ingrid-se02.cism.ucl.ac.be:1094/store/mc/Run3Summer22EENanoAODv12/ZZ_TuneCP5_13p6TeV_pythia8/NANOAODSIM/130X_mcRun3_2022_realistic_postEE_v6-v2/30000/731a7a73-7cf5-4989-b7b2-d6ab940d7365.root",
        "T2_HU_Budapest: davs://grid143.kfki.hu:443/dpm/kfki.hu/home/cms/phedex/store/mc/Run3Summer22EENanoAODv12/ZZ_TuneCP5_13p6TeV_pythia8/NANOAODSIM/130X_mcRun3_2022_realistic_postEE_v6-v2/30000/731a7a73-7cf5-4989-b7b2-d6ab940d7365.root",
        "T2_EE_Estonia: davs://xrootd.hep.kbfi.ee:1094/store/mc/Run3Summer22EENanoAODv12/ZZ_TuneCP5_13p6TeV_pythia8/NANOAODSIM/130X_mcRun3_2022_realistic_postEE_v6-v2/30000/731a7a73-7cf5-4989-b7b2-d6ab940d7365.root",
        "T2_US_Purdue: davs://eos.cms.rcac.purdue.edu:9000/store/mc/Run3Summer22EENanoAODv12/ZZ_TuneCP5_13p6TeV_pythia8/NANOAODSIM/130X_mcRun3_2022_realistic_postEE_v6-v2/30000/731a7a73-7cf5-4989-b7b2-d6ab940d7365.root",
        "T1_IT_CNAF_Disk: davs://xfer-cms.cr.cnaf.infn.it:8443/cmsdisk/store/mc/Run3Summer22EENanoAODv12/ZZ_TuneCP5_13p6TeV_pythia8/NANOAODSIM/130X_mcRun3_2022_realistic_postEE_v6-v2/30000/731a7a73-7cf5-4989-b7b2-d6ab940d7365.root"
    ],
    "cms:/store/mc/Run3Summer22EENanoAODv12/ZZ_TuneCP5_13p6TeV_pythia8/NANOAODSIM/130X_mcRun3_2022_realistic_postEE_v6-v2/50000/5be0d7a3-e0d7-4dc5-a870-c0d186fc254b.root": [
        "T1_US_FNAL_Disk: davs://cmsdcadisk.fnal.gov:2880/dcache/uscmsdisk/store/mc/Run3Summer22EENanoAODv12/ZZ_TuneCP5_13p6TeV_pythia8/NANOAODSIM/130X_mcRun3_2022_realistic_postEE_v6-v2/50000/5be0d7a3-e0d7-4dc5-a870-c0d186fc254b.root",
        "T1_FR_CCIN2P3_Disk: davs://ccdavcms.in2p3.fr:2880/disk/data/store/mc/Run3Summer22EENanoAODv12/ZZ_TuneCP5_13p6TeV_pythia8/NANOAODSIM/130X_mcRun3_2022_realistic_postEE_v6-v2/50000/5be0d7a3-e0d7-4dc5-a870-c0d186fc254b.root",
        "T2_US_MIT: davs://xrootd.cmsaf.mit.edu:1094/store/mc/Run3Summer22EENanoAODv12/ZZ_TuneCP5_13p6TeV_pythia8/NANOAODSIM/130X_mcRun3_2022_realistic_postEE_v6-v2/50000/5be0d7a3-e0d7-4dc5-a870-c0d186fc254b.root",
        "T1_DE_KIT_Tape: davs://cmswebdav-kit-tape.gridka.de:2880/pnfs/gridka.de/cms/tape/store/mc/Run3Summer22EENanoAODv12/ZZ_TuneCP5_13p6TeV_pythia8/NANOAODSIM/130X_mcRun3_2022_realistic_postEE_v6-v2/50000/5be0d7a3-e0d7-4dc5-a870-c0d186fc254b.root",
        "T2_CN_Beijing: davs://cceos.ihep.ac.cn:9000/eos/ihep/cms/store/mc/Run3Summer22EENanoAODv12/ZZ_TuneCP5_13p6TeV_pythia8/NANOAODSIM/130X_mcRun3_2022_realistic_postEE_v6-v2/50000/5be0d7a3-e0d7-4dc5-a870-c0d186fc254b.root",
        "T2_BE_UCL: davs://ingrid-se02.cism.ucl.ac.be:1094/store/mc/Run3Summer22EENanoAODv12/ZZ_TuneCP5_13p6TeV_pythia8/NANOAODSIM/130X_mcRun3_2022_realistic_postEE_v6-v2/50000/5be0d7a3-e0d7-4dc5-a870-c0d186fc254b.root",
        "T2_HU_Budapest: davs://grid143.kfki.hu:443/dpm/kfki.hu/home/cms/phedex/store/mc/Run3Summer22EENanoAODv12/ZZ_TuneCP5_13p6TeV_pythia8/NANOAODSIM/130X_mcRun3_2022_realistic_postEE_v6-v2/50000/5be0d7a3-e0d7-4dc5-a870-c0d186fc254b.root",
        "T2_EE_Estonia: davs://xrootd.hep.kbfi.ee:1094/store/mc/Run3Summer22EENanoAODv12/ZZ_TuneCP5_13p6TeV_pythia8/NANOAODSIM/130X_mcRun3_2022_realistic_postEE_v6-v2/50000/5be0d7a3-e0d7-4dc5-a870-c0d186fc254b.root",
        "T2_US_Purdue: davs://eos.cms.rcac.purdue.edu:9000/store/mc/Run3Summer22EENanoAODv12/ZZ_TuneCP5_13p6TeV_pythia8/NANOAODSIM/130X_mcRun3_2022_realistic_postEE_v6-v2/50000/5be0d7a3-e0d7-4dc5-a870-c0d186fc254b.root",
        "T1_IT_CNAF_Disk: davs://xfer-cms.cr.cnaf.infn.it:8443/cmsdisk/store/mc/Run3Summer22EENanoAODv12/ZZ_TuneCP5_13p6TeV_pythia8/NANOAODSIM/130X_mcRun3_2022_realistic_postEE_v6-v2/50000/5be0d7a3-e0d7-4dc5-a870-c0d186fc254b.root"
    ],
    "cms:/store/mc/Run3Summer22EENanoAODv12/ZZ_TuneCP5_13p6TeV_pythia8/NANOAODSIM/130X_mcRun3_2022_realistic_postEE_v6-v2/50000/8f1ba032-87ef-4f57-a2cf-8afdf8a56e79.root": [
        "T1_US_FNAL_Disk: davs://cmsdcadisk.fnal.gov:2880/dcache/uscmsdisk/store/mc/Run3Summer22EENanoAODv12/ZZ_TuneCP5_13p6TeV_pythia8/NANOAODSIM/130X_mcRun3_2022_realistic_postEE_v6-v2/50000/8f1ba032-87ef-4f57-a2cf-8afdf8a56e79.root",
        "T1_FR_CCIN2P3_Disk: davs://ccdavcms.in2p3.fr:2880/disk/data/store/mc/Run3Summer22EENanoAODv12/ZZ_TuneCP5_13p6TeV_pythia8/NANOAODSIM/130X_mcRun3_2022_realistic_postEE_v6-v2/50000/8f1ba032-87ef-4f57-a2cf-8afdf8a56e79.root",
        "T2_US_MIT: davs://xrootd.cmsaf.mit.edu:1094/store/mc/Run3Summer22EENanoAODv12/ZZ_TuneCP5_13p6TeV_pythia8/NANOAODSIM/130X_mcRun3_2022_realistic_postEE_v6-v2/50000/8f1ba032-87ef-4f57-a2cf-8afdf8a56e79.root",
        "T1_DE_KIT_Tape: davs://cmswebdav-kit-tape.gridka.de:2880/pnfs/gridka.de/cms/tape/store/mc/Run3Summer22EENanoAODv12/ZZ_TuneCP5_13p6TeV_pythia8/NANOAODSIM/130X_mcRun3_2022_realistic_postEE_v6-v2/50000/8f1ba032-87ef-4f57-a2cf-8afdf8a56e79.root",
        "T2_CN_Beijing: davs://cceos.ihep.ac.cn:9000/eos/ihep/cms/store/mc/Run3Summer22EENanoAODv12/ZZ_TuneCP5_13p6TeV_pythia8/NANOAODSIM/130X_mcRun3_2022_realistic_postEE_v6-v2/50000/8f1ba032-87ef-4f57-a2cf-8afdf8a56e79.root",
        "T2_BE_UCL: davs://ingrid-se02.cism.ucl.ac.be:1094/store/mc/Run3Summer22EENanoAODv12/ZZ_TuneCP5_13p6TeV_pythia8/NANOAODSIM/130X_mcRun3_2022_realistic_postEE_v6-v2/50000/8f1ba032-87ef-4f57-a2cf-8afdf8a56e79.root",
        "T2_HU_Budapest: davs://grid143.kfki.hu:443/dpm/kfki.hu/home/cms/phedex/store/mc/Run3Summer22EENanoAODv12/ZZ_TuneCP5_13p6TeV_pythia8/NANOAODSIM/130X_mcRun3_2022_realistic_postEE_v6-v2/50000/8f1ba032-87ef-4f57-a2cf-8afdf8a56e79.root",
        "T2_EE_Estonia: davs://xrootd.hep.kbfi.ee:1094/store/mc/Run3Summer22EENanoAODv12/ZZ_TuneCP5_13p6TeV_pythia8/NANOAODSIM/130X_mcRun3_2022_realistic_postEE_v6-v2/50000/8f1ba032-87ef-4f57-a2cf-8afdf8a56e79.root",
        "T2_US_Purdue: davs://eos.cms.rcac.purdue.edu:9000/store/mc/Run3Summer22EENanoAODv12/ZZ_TuneCP5_13p6TeV_pythia8/NANOAODSIM/130X_mcRun3_2022_realistic_postEE_v6-v2/50000/8f1ba032-87ef-4f57-a2cf-8afdf8a56e79.root",
        "T1_IT_CNAF_Disk: davs://xfer-cms.cr.cnaf.infn.it:8443/cmsdisk/store/mc/Run3Summer22EENanoAODv12/ZZ_TuneCP5_13p6TeV_pythia8/NANOAODSIM/130X_mcRun3_2022_realistic_postEE_v6-v2/50000/8f1ba032-87ef-4f57-a2cf-8afdf8a56e79.root"
    ],
    "cms:/store/mc/Run3Summer22EENanoAODv12/ZZ_TuneCP5_13p6TeV_pythia8/NANOAODSIM/130X_mcRun3_2022_realistic_postEE_v6-v2/30000/34586c10-fc2a-4ece-a325-67f95c4529c7.root": [
        "T1_US_FNAL_Disk: davs://cmsdcadisk.fnal.gov:2880/dcache/uscmsdisk/store/mc/Run3Summer22EENanoAODv12/ZZ_TuneCP5_13p6TeV_pythia8/NANOAODSIM/130X_mcRun3_2022_realistic_postEE_v6-v2/30000/34586c10-fc2a-4ece-a325-67f95c4529c7.root",
        "T1_FR_CCIN2P3_Disk: davs://ccdavcms.in2p3.fr:2880/disk/data/store/mc/Run3Summer22EENanoAODv12/ZZ_TuneCP5_13p6TeV_pythia8/NANOAODSIM/130X_mcRun3_2022_realistic_postEE_v6-v2/30000/34586c10-fc2a-4ece-a325-67f95c4529c7.root",
        "T2_US_MIT: davs://xrootd.cmsaf.mit.edu:1094/store/mc/Run3Summer22EENanoAODv12/ZZ_TuneCP5_13p6TeV_pythia8/NANOAODSIM/130X_mcRun3_2022_realistic_postEE_v6-v2/30000/34586c10-fc2a-4ece-a325-67f95c4529c7.root",
        "T1_DE_KIT_Tape: davs://cmswebdav-kit-tape.gridka.de:2880/pnfs/gridka.de/cms/tape/store/mc/Run3Summer22EENanoAODv12/ZZ_TuneCP5_13p6TeV_pythia8/NANOAODSIM/130X_mcRun3_2022_realistic_postEE_v6-v2/30000/34586c10-fc2a-4ece-a325-67f95c4529c7.root",
        "T2_CN_Beijing: davs://cceos.ihep.ac.cn:9000/eos/ihep/cms/store/mc/Run3Summer22EENanoAODv12/ZZ_TuneCP5_13p6TeV_pythia8/NANOAODSIM/130X_mcRun3_2022_realistic_postEE_v6-v2/30000/34586c10-fc2a-4ece-a325-67f95c4529c7.root",
        "T2_BE_UCL: davs://ingrid-se02.cism.ucl.ac.be:1094/store/mc/Run3Summer22EENanoAODv12/ZZ_TuneCP5_13p6TeV_pythia8/NANOAODSIM/130X_mcRun3_2022_realistic_postEE_v6-v2/30000/34586c10-fc2a-4ece-a325-67f95c4529c7.root",
        "T2_HU_Budapest: davs://grid143.kfki.hu:443/dpm/kfki.hu/home/cms/phedex/store/mc/Run3Summer22EENanoAODv12/ZZ_TuneCP5_13p6TeV_pythia8/NANOAODSIM/130X_mcRun3_2022_realistic_postEE_v6-v2/30000/34586c10-fc2a-4ece-a325-67f95c4529c7.root",
        "T2_EE_Estonia: davs://xrootd.hep.kbfi.ee:1094/store/mc/Run3Summer22EENanoAODv12/ZZ_TuneCP5_13p6TeV_pythia8/NANOAODSIM/130X_mcRun3_2022_realistic_postEE_v6-v2/30000/34586c10-fc2a-4ece-a325-67f95c4529c7.root",
        "T2_US_Purdue: davs://eos.cms.rcac.purdue.edu:9000/store/mc/Run3Summer22EENanoAODv12/ZZ_TuneCP5_13p6TeV_pythia8/NANOAODSIM/130X_mcRun3_2022_realistic_postEE_v6-v2/30000/34586c10-fc2a-4ece-a325-67f95c4529c7.root",
        "T1_IT_CNAF_Disk: davs://xfer-cms.cr.cnaf.infn.it:8443/cmsdisk/store/mc/Run3Summer22EENanoAODv12/ZZ_TuneCP5_13p6TeV_pythia8/NANOAODSIM/130X_mcRun3_2022_realistic_postEE_v6-v2/30000/34586c10-fc2a-4ece-a325-67f95c4529c7.root"
    ],
    "cms:/store/mc/Run3Summer22EENanoAODv12/ZZ_TuneCP5_13p6TeV_pythia8/NANOAODSIM/130X_mcRun3_2022_realistic_postEE_v6-v2/50000/df31cb09-158c-4488-a1c3-646bb278b49f.root": [
        "T1_US_FNAL_Disk: davs://cmsdcadisk.fnal.gov:2880/dcache/uscmsdisk/store/mc/Run3Summer22EENanoAODv12/ZZ_TuneCP5_13p6TeV_pythia8/NANOAODSIM/130X_mcRun3_2022_realistic_postEE_v6-v2/50000/df31cb09-158c-4488-a1c3-646bb278b49f.root",
        "T1_FR_CCIN2P3_Disk: davs://ccdavcms.in2p3.fr:2880/disk/data/store/mc/Run3Summer22EENanoAODv12/ZZ_TuneCP5_13p6TeV_pythia8/NANOAODSIM/130X_mcRun3_2022_realistic_postEE_v6-v2/50000/df31cb09-158c-4488-a1c3-646bb278b49f.root",
        "T2_US_MIT: davs://xrootd.cmsaf.mit.edu:1094/store/mc/Run3Summer22EENanoAODv12/ZZ_TuneCP5_13p6TeV_pythia8/NANOAODSIM/130X_mcRun3_2022_realistic_postEE_v6-v2/50000/df31cb09-158c-4488-a1c3-646bb278b49f.root",
        "T2_IT_Legnaro: davs://t2-xrdcms.lnl.infn.it:2880/pnfs/lnl.infn.it/data/cms/store/mc/Run3Summer22EENanoAODv12/ZZ_TuneCP5_13p6TeV_pythia8/NANOAODSIM/130X_mcRun3_2022_realistic_postEE_v6-v2/50000/df31cb09-158c-4488-a1c3-646bb278b49f.root",
        "T1_DE_KIT_Tape: davs://cmswebdav-kit-tape.gridka.de:2880/pnfs/gridka.de/cms/tape/store/mc/Run3Summer22EENanoAODv12/ZZ_TuneCP5_13p6TeV_pythia8/NANOAODSIM/130X_mcRun3_2022_realistic_postEE_v6-v2/50000/df31cb09-158c-4488-a1c3-646bb278b49f.root",
        "T2_CN_Beijing: davs://cceos.ihep.ac.cn:9000/eos/ihep/cms/store/mc/Run3Summer22EENanoAODv12/ZZ_TuneCP5_13p6TeV_pythia8/NANOAODSIM/130X_mcRun3_2022_realistic_postEE_v6-v2/50000/df31cb09-158c-4488-a1c3-646bb278b49f.root",
        "T2_BE_UCL: davs://ingrid-se02.cism.ucl.ac.be:1094/store/mc/Run3Summer22EENanoAODv12/ZZ_TuneCP5_13p6TeV_pythia8/NANOAODSIM/130X_mcRun3_2022_realistic_postEE_v6-v2/50000/df31cb09-158c-4488-a1c3-646bb278b49f.root",
        "T2_HU_Budapest: davs://grid143.kfki.hu:443/dpm/kfki.hu/home/cms/phedex/store/mc/Run3Summer22EENanoAODv12/ZZ_TuneCP5_13p6TeV_pythia8/NANOAODSIM/130X_mcRun3_2022_realistic_postEE_v6-v2/50000/df31cb09-158c-4488-a1c3-646bb278b49f.root",
        "T2_EE_Estonia: davs://xrootd.hep.kbfi.ee:1094/store/mc/Run3Summer22EENanoAODv12/ZZ_TuneCP5_13p6TeV_pythia8/NANOAODSIM/130X_mcRun3_2022_realistic_postEE_v6-v2/50000/df31cb09-158c-4488-a1c3-646bb278b49f.root",
        "T2_US_Purdue: davs://eos.cms.rcac.purdue.edu:9000/store/mc/Run3Summer22EENanoAODv12/ZZ_TuneCP5_13p6TeV_pythia8/NANOAODSIM/130X_mcRun3_2022_realistic_postEE_v6-v2/50000/df31cb09-158c-4488-a1c3-646bb278b49f.root",
        "T1_IT_CNAF_Disk: davs://xfer-cms.cr.cnaf.infn.it:8443/cmsdisk/store/mc/Run3Summer22EENanoAODv12/ZZ_TuneCP5_13p6TeV_pythia8/NANOAODSIM/130X_mcRun3_2022_realistic_postEE_v6-v2/50000/df31cb09-158c-4488-a1c3-646bb278b49f.root"
    ],
    "cms:/store/mc/Run3Summer22EENanoAODv12/ZZ_TuneCP5_13p6TeV_pythia8/NANOAODSIM/130X_mcRun3_2022_realistic_postEE_v6-v2/30000/11959a2a-a8b9-4cff-8c12-aa5c2fa2b163.root": [
        "T1_US_FNAL_Disk: davs://cmsdcadisk.fnal.gov:2880/dcache/uscmsdisk/store/mc/Run3Summer22EENanoAODv12/ZZ_TuneCP5_13p6TeV_pythia8/NANOAODSIM/130X_mcRun3_2022_realistic_postEE_v6-v2/30000/11959a2a-a8b9-4cff-8c12-aa5c2fa2b163.root",
        "T1_FR_CCIN2P3_Disk: davs://ccdavcms.in2p3.fr:2880/disk/data/store/mc/Run3Summer22EENanoAODv12/ZZ_TuneCP5_13p6TeV_pythia8/NANOAODSIM/130X_mcRun3_2022_realistic_postEE_v6-v2/30000/11959a2a-a8b9-4cff-8c12-aa5c2fa2b163.root",
        "T2_US_MIT: davs://xrootd.cmsaf.mit.edu:1094/store/mc/Run3Summer22EENanoAODv12/ZZ_TuneCP5_13p6TeV_pythia8/NANOAODSIM/130X_mcRun3_2022_realistic_postEE_v6-v2/30000/11959a2a-a8b9-4cff-8c12-aa5c2fa2b163.root",
        "T1_DE_KIT_Tape: davs://cmswebdav-kit-tape.gridka.de:2880/pnfs/gridka.de/cms/tape/store/mc/Run3Summer22EENanoAODv12/ZZ_TuneCP5_13p6TeV_pythia8/NANOAODSIM/130X_mcRun3_2022_realistic_postEE_v6-v2/30000/11959a2a-a8b9-4cff-8c12-aa5c2fa2b163.root",
        "T2_CN_Beijing: davs://cceos.ihep.ac.cn:9000/eos/ihep/cms/store/mc/Run3Summer22EENanoAODv12/ZZ_TuneCP5_13p6TeV_pythia8/NANOAODSIM/130X_mcRun3_2022_realistic_postEE_v6-v2/30000/11959a2a-a8b9-4cff-8c12-aa5c2fa2b163.root",
        "T1_UK_RAL_Disk: davs://rdr.echo.stfc.ac.uk:1094/store/mc/Run3Summer22EENanoAODv12/ZZ_TuneCP5_13p6TeV_pythia8/NANOAODSIM/130X_mcRun3_2022_realistic_postEE_v6-v2/30000/11959a2a-a8b9-4cff-8c12-aa5c2fa2b163.root",
        "T2_BE_UCL: davs://ingrid-se02.cism.ucl.ac.be:1094/store/mc/Run3Summer22EENanoAODv12/ZZ_TuneCP5_13p6TeV_pythia8/NANOAODSIM/130X_mcRun3_2022_realistic_postEE_v6-v2/30000/11959a2a-a8b9-4cff-8c12-aa5c2fa2b163.root",
        "T2_HU_Budapest: davs://grid143.kfki.hu:443/dpm/kfki.hu/home/cms/phedex/store/mc/Run3Summer22EENanoAODv12/ZZ_TuneCP5_13p6TeV_pythia8/NANOAODSIM/130X_mcRun3_2022_realistic_postEE_v6-v2/30000/11959a2a-a8b9-4cff-8c12-aa5c2fa2b163.root",
        "T2_EE_Estonia: davs://xrootd.hep.kbfi.ee:1094/store/mc/Run3Summer22EENanoAODv12/ZZ_TuneCP5_13p6TeV_pythia8/NANOAODSIM/130X_mcRun3_2022_realistic_postEE_v6-v2/30000/11959a2a-a8b9-4cff-8c12-aa5c2fa2b163.root",
        "T2_US_Purdue: davs://eos.cms.rcac.purdue.edu:9000/store/mc/Run3Summer22EENanoAODv12/ZZ_TuneCP5_13p6TeV_pythia8/NANOAODSIM/130X_mcRun3_2022_realistic_postEE_v6-v2/30000/11959a2a-a8b9-4cff-8c12-aa5c2fa2b163.root",
        "T1_IT_CNAF_Disk: davs://xfer-cms.cr.cnaf.infn.it:8443/cmsdisk/store/mc/Run3Summer22EENanoAODv12/ZZ_TuneCP5_13p6TeV_pythia8/NANOAODSIM/130X_mcRun3_2022_realistic_postEE_v6-v2/30000/11959a2a-a8b9-4cff-8c12-aa5c2fa2b163.root"
    ],
    "cms:/store/mc/Run3Summer22EENanoAODv12/ZZ_TuneCP5_13p6TeV_pythia8/NANOAODSIM/130X_mcRun3_2022_realistic_postEE_v6-v2/40000/5a422024-90d0-46d0-b95c-54c80acd12e1.root": [
        "T1_US_FNAL_Disk: davs://cmsdcadisk.fnal.gov:2880/dcache/uscmsdisk/store/mc/Run3Summer22EENanoAODv12/ZZ_TuneCP5_13p6TeV_pythia8/NANOAODSIM/130X_mcRun3_2022_realistic_postEE_v6-v2/40000/5a422024-90d0-46d0-b95c-54c80acd12e1.root",
        "T1_FR_CCIN2P3_Disk: davs://ccdavcms.in2p3.fr:2880/disk/data/store/mc/Run3Summer22EENanoAODv12/ZZ_TuneCP5_13p6TeV_pythia8/NANOAODSIM/130X_mcRun3_2022_realistic_postEE_v6-v2/40000/5a422024-90d0-46d0-b95c-54c80acd12e1.root",
        "T2_US_MIT: davs://xrootd.cmsaf.mit.edu:1094/store/mc/Run3Summer22EENanoAODv12/ZZ_TuneCP5_13p6TeV_pythia8/NANOAODSIM/130X_mcRun3_2022_realistic_postEE_v6-v2/40000/5a422024-90d0-46d0-b95c-54c80acd12e1.root",
        "T1_DE_KIT_Tape: davs://cmswebdav-kit-tape.gridka.de:2880/pnfs/gridka.de/cms/tape/store/mc/Run3Summer22EENanoAODv12/ZZ_TuneCP5_13p6TeV_pythia8/NANOAODSIM/130X_mcRun3_2022_realistic_postEE_v6-v2/40000/5a422024-90d0-46d0-b95c-54c80acd12e1.root",
        "T2_CN_Beijing: davs://cceos.ihep.ac.cn:9000/eos/ihep/cms/store/mc/Run3Summer22EENanoAODv12/ZZ_TuneCP5_13p6TeV_pythia8/NANOAODSIM/130X_mcRun3_2022_realistic_postEE_v6-v2/40000/5a422024-90d0-46d0-b95c-54c80acd12e1.root",
        "T2_BE_UCL: davs://ingrid-se02.cism.ucl.ac.be:1094/store/mc/Run3Summer22EENanoAODv12/ZZ_TuneCP5_13p6TeV_pythia8/NANOAODSIM/130X_mcRun3_2022_realistic_postEE_v6-v2/40000/5a422024-90d0-46d0-b95c-54c80acd12e1.root",
        "T2_HU_Budapest: davs://grid143.kfki.hu:443/dpm/kfki.hu/home/cms/phedex/store/mc/Run3Summer22EENanoAODv12/ZZ_TuneCP5_13p6TeV_pythia8/NANOAODSIM/130X_mcRun3_2022_realistic_postEE_v6-v2/40000/5a422024-90d0-46d0-b95c-54c80acd12e1.root",
        "T2_EE_Estonia: davs://xrootd.hep.kbfi.ee:1094/store/mc/Run3Summer22EENanoAODv12/ZZ_TuneCP5_13p6TeV_pythia8/NANOAODSIM/130X_mcRun3_2022_realistic_postEE_v6-v2/40000/5a422024-90d0-46d0-b95c-54c80acd12e1.root",
        "T2_US_Purdue: davs://eos.cms.rcac.purdue.edu:9000/store/mc/Run3Summer22EENanoAODv12/ZZ_TuneCP5_13p6TeV_pythia8/NANOAODSIM/130X_mcRun3_2022_realistic_postEE_v6-v2/40000/5a422024-90d0-46d0-b95c-54c80acd12e1.root",
        "T1_IT_CNAF_Disk: davs://xfer-cms.cr.cnaf.infn.it:8443/cmsdisk/store/mc/Run3Summer22EENanoAODv12/ZZ_TuneCP5_13p6TeV_pythia8/NANOAODSIM/130X_mcRun3_2022_realistic_postEE_v6-v2/40000/5a422024-90d0-46d0-b95c-54c80acd12e1.root"
    ],
    "cms:/store/mc/Run3Summer22EENanoAODv12/ZZ_TuneCP5_13p6TeV_pythia8/NANOAODSIM/130X_mcRun3_2022_realistic_postEE_v6-v2/40000/dd9b4bc4-059d-494a-b78f-682e4a4250a0.root": [
        "T1_US_FNAL_Disk: davs://cmsdcadisk.fnal.gov:2880/dcache/uscmsdisk/store/mc/Run3Summer22EENanoAODv12/ZZ_TuneCP5_13p6TeV_pythia8/NANOAODSIM/130X_mcRun3_2022_realistic_postEE_v6-v2/40000/dd9b4bc4-059d-494a-b78f-682e4a4250a0.root",
        "T1_FR_CCIN2P3_Disk: davs://ccdavcms.in2p3.fr:2880/disk/data/store/mc/Run3Summer22EENanoAODv12/ZZ_TuneCP5_13p6TeV_pythia8/NANOAODSIM/130X_mcRun3_2022_realistic_postEE_v6-v2/40000/dd9b4bc4-059d-494a-b78f-682e4a4250a0.root",
        "T1_DE_KIT_Disk: davs://cmswebdav-kit-disk.gridka.de:2880/pnfs/gridka.de/cms/disk-only/store/mc/Run3Summer22EENanoAODv12/ZZ_TuneCP5_13p6TeV_pythia8/NANOAODSIM/130X_mcRun3_2022_realistic_postEE_v6-v2/40000/dd9b4bc4-059d-494a-b78f-682e4a4250a0.root",
        "T2_US_MIT: davs://xrootd.cmsaf.mit.edu:1094/store/mc/Run3Summer22EENanoAODv12/ZZ_TuneCP5_13p6TeV_pythia8/NANOAODSIM/130X_mcRun3_2022_realistic_postEE_v6-v2/40000/dd9b4bc4-059d-494a-b78f-682e4a4250a0.root",
        "T1_DE_KIT_Tape: davs://cmswebdav-kit-tape.gridka.de:2880/pnfs/gridka.de/cms/tape/store/mc/Run3Summer22EENanoAODv12/ZZ_TuneCP5_13p6TeV_pythia8/NANOAODSIM/130X_mcRun3_2022_realistic_postEE_v6-v2/40000/dd9b4bc4-059d-494a-b78f-682e4a4250a0.root",
        "T2_CN_Beijing: davs://cceos.ihep.ac.cn:9000/eos/ihep/cms/store/mc/Run3Summer22EENanoAODv12/ZZ_TuneCP5_13p6TeV_pythia8/NANOAODSIM/130X_mcRun3_2022_realistic_postEE_v6-v2/40000/dd9b4bc4-059d-494a-b78f-682e4a4250a0.root",
        "T2_BE_UCL: davs://ingrid-se02.cism.ucl.ac.be:1094/store/mc/Run3Summer22EENanoAODv12/ZZ_TuneCP5_13p6TeV_pythia8/NANOAODSIM/130X_mcRun3_2022_realistic_postEE_v6-v2/40000/dd9b4bc4-059d-494a-b78f-682e4a4250a0.root",
        "T2_HU_Budapest: davs://grid143.kfki.hu:443/dpm/kfki.hu/home/cms/phedex/store/mc/Run3Summer22EENanoAODv12/ZZ_TuneCP5_13p6TeV_pythia8/NANOAODSIM/130X_mcRun3_2022_realistic_postEE_v6-v2/40000/dd9b4bc4-059d-494a-b78f-682e4a4250a0.root",
        "T2_EE_Estonia: davs://xrootd.hep.kbfi.ee:1094/store/mc/Run3Summer22EENanoAODv12/ZZ_TuneCP5_13p6TeV_pythia8/NANOAODSIM/130X_mcRun3_2022_realistic_postEE_v6-v2/40000/dd9b4bc4-059d-494a-b78f-682e4a4250a0.root",
        "T2_US_Purdue: davs://eos.cms.rcac.purdue.edu:9000/store/mc/Run3Summer22EENanoAODv12/ZZ_TuneCP5_13p6TeV_pythia8/NANOAODSIM/130X_mcRun3_2022_realistic_postEE_v6-v2/40000/dd9b4bc4-059d-494a-b78f-682e4a4250a0.root",
        "T1_IT_CNAF_Disk: davs://xfer-cms.cr.cnaf.infn.it:8443/cmsdisk/store/mc/Run3Summer22EENanoAODv12/ZZ_TuneCP5_13p6TeV_pythia8/NANOAODSIM/130X_mcRun3_2022_realistic_postEE_v6-v2/40000/dd9b4bc4-059d-494a-b78f-682e4a4250a0.root"
    ],
    "cms:/store/mc/Run3Summer22EENanoAODv12/ZZ_TuneCP5_13p6TeV_pythia8/NANOAODSIM/130X_mcRun3_2022_realistic_postEE_v6-v2/40000/94c91f19-1c7e-429a-ade8-bd2132dfc672.root": [
        "T1_US_FNAL_Disk: davs://cmsdcadisk.fnal.gov:2880/dcache/uscmsdisk/store/mc/Run3Summer22EENanoAODv12/ZZ_TuneCP5_13p6TeV_pythia8/NANOAODSIM/130X_mcRun3_2022_realistic_postEE_v6-v2/40000/94c91f19-1c7e-429a-ade8-bd2132dfc672.root",
        "T1_FR_CCIN2P3_Disk: davs://ccdavcms.in2p3.fr:2880/disk/data/store/mc/Run3Summer22EENanoAODv12/ZZ_TuneCP5_13p6TeV_pythia8/NANOAODSIM/130X_mcRun3_2022_realistic_postEE_v6-v2/40000/94c91f19-1c7e-429a-ade8-bd2132dfc672.root",
        "T2_US_MIT: davs://xrootd.cmsaf.mit.edu:1094/store/mc/Run3Summer22EENanoAODv12/ZZ_TuneCP5_13p6TeV_pythia8/NANOAODSIM/130X_mcRun3_2022_realistic_postEE_v6-v2/40000/94c91f19-1c7e-429a-ade8-bd2132dfc672.root",
        "T1_DE_KIT_Tape: davs://cmswebdav-kit-tape.gridka.de:2880/pnfs/gridka.de/cms/tape/store/mc/Run3Summer22EENanoAODv12/ZZ_TuneCP5_13p6TeV_pythia8/NANOAODSIM/130X_mcRun3_2022_realistic_postEE_v6-v2/40000/94c91f19-1c7e-429a-ade8-bd2132dfc672.root",
        "T2_CN_Beijing: davs://cceos.ihep.ac.cn:9000/eos/ihep/cms/store/mc/Run3Summer22EENanoAODv12/ZZ_TuneCP5_13p6TeV_pythia8/NANOAODSIM/130X_mcRun3_2022_realistic_postEE_v6-v2/40000/94c91f19-1c7e-429a-ade8-bd2132dfc672.root",
        "T2_BE_UCL: davs://ingrid-se02.cism.ucl.ac.be:1094/store/mc/Run3Summer22EENanoAODv12/ZZ_TuneCP5_13p6TeV_pythia8/NANOAODSIM/130X_mcRun3_2022_realistic_postEE_v6-v2/40000/94c91f19-1c7e-429a-ade8-bd2132dfc672.root",
        "T2_HU_Budapest: davs://grid143.kfki.hu:443/dpm/kfki.hu/home/cms/phedex/store/mc/Run3Summer22EENanoAODv12/ZZ_TuneCP5_13p6TeV_pythia8/NANOAODSIM/130X_mcRun3_2022_realistic_postEE_v6-v2/40000/94c91f19-1c7e-429a-ade8-bd2132dfc672.root",
        "T2_EE_Estonia: davs://xrootd.hep.kbfi.ee:1094/store/mc/Run3Summer22EENanoAODv12/ZZ_TuneCP5_13p6TeV_pythia8/NANOAODSIM/130X_mcRun3_2022_realistic_postEE_v6-v2/40000/94c91f19-1c7e-429a-ade8-bd2132dfc672.root",
        "T2_US_Purdue: davs://eos.cms.rcac.purdue.edu:9000/store/mc/Run3Summer22EENanoAODv12/ZZ_TuneCP5_13p6TeV_pythia8/NANOAODSIM/130X_mcRun3_2022_realistic_postEE_v6-v2/40000/94c91f19-1c7e-429a-ade8-bd2132dfc672.root",
        "T1_IT_CNAF_Disk: davs://xfer-cms.cr.cnaf.infn.it:8443/cmsdisk/store/mc/Run3Summer22EENanoAODv12/ZZ_TuneCP5_13p6TeV_pythia8/NANOAODSIM/130X_mcRun3_2022_realistic_postEE_v6-v2/40000/94c91f19-1c7e-429a-ade8-bd2132dfc672.root"
    ],
    "cms:/store/mc/Run3Summer22EENanoAODv12/ZZ_TuneCP5_13p6TeV_pythia8/NANOAODSIM/130X_mcRun3_2022_realistic_postEE_v6-v2/2540000/0ff6f15a-ec68-4ed3-bfc5-2127e91eeb7b.root": [
        "T1_US_FNAL_Disk: davs://cmsdcadisk.fnal.gov:2880/dcache/uscmsdisk/store/mc/Run3Summer22EENanoAODv12/ZZ_TuneCP5_13p6TeV_pythia8/NANOAODSIM/130X_mcRun3_2022_realistic_postEE_v6-v2/2540000/0ff6f15a-ec68-4ed3-bfc5-2127e91eeb7b.root",
        "T1_FR_CCIN2P3_Disk: davs://ccdavcms.in2p3.fr:2880/disk/data/store/mc/Run3Summer22EENanoAODv12/ZZ_TuneCP5_13p6TeV_pythia8/NANOAODSIM/130X_mcRun3_2022_realistic_postEE_v6-v2/2540000/0ff6f15a-ec68-4ed3-bfc5-2127e91eeb7b.root",
        "T2_US_MIT: davs://xrootd.cmsaf.mit.edu:1094/store/mc/Run3Summer22EENanoAODv12/ZZ_TuneCP5_13p6TeV_pythia8/NANOAODSIM/130X_mcRun3_2022_realistic_postEE_v6-v2/2540000/0ff6f15a-ec68-4ed3-bfc5-2127e91eeb7b.root",
        "T2_IT_Legnaro: davs://t2-xrdcms.lnl.infn.it:2880/pnfs/lnl.infn.it/data/cms/store/mc/Run3Summer22EENanoAODv12/ZZ_TuneCP5_13p6TeV_pythia8/NANOAODSIM/130X_mcRun3_2022_realistic_postEE_v6-v2/2540000/0ff6f15a-ec68-4ed3-bfc5-2127e91eeb7b.root",
        "T1_DE_KIT_Tape: davs://cmswebdav-kit-tape.gridka.de:2880/pnfs/gridka.de/cms/tape/store/mc/Run3Summer22EENanoAODv12/ZZ_TuneCP5_13p6TeV_pythia8/NANOAODSIM/130X_mcRun3_2022_realistic_postEE_v6-v2/2540000/0ff6f15a-ec68-4ed3-bfc5-2127e91eeb7b.root",
        "T2_CN_Beijing: davs://cceos.ihep.ac.cn:9000/eos/ihep/cms/store/mc/Run3Summer22EENanoAODv12/ZZ_TuneCP5_13p6TeV_pythia8/NANOAODSIM/130X_mcRun3_2022_realistic_postEE_v6-v2/2540000/0ff6f15a-ec68-4ed3-bfc5-2127e91eeb7b.root",
        "T2_BE_UCL: davs://ingrid-se02.cism.ucl.ac.be:1094/store/mc/Run3Summer22EENanoAODv12/ZZ_TuneCP5_13p6TeV_pythia8/NANOAODSIM/130X_mcRun3_2022_realistic_postEE_v6-v2/2540000/0ff6f15a-ec68-4ed3-bfc5-2127e91eeb7b.root",
        "T2_HU_Budapest: davs://grid143.kfki.hu:443/dpm/kfki.hu/home/cms/phedex/store/mc/Run3Summer22EENanoAODv12/ZZ_TuneCP5_13p6TeV_pythia8/NANOAODSIM/130X_mcRun3_2022_realistic_postEE_v6-v2/2540000/0ff6f15a-ec68-4ed3-bfc5-2127e91eeb7b.root",
        "T2_EE_Estonia: davs://xrootd.hep.kbfi.ee:1094/store/mc/Run3Summer22EENanoAODv12/ZZ_TuneCP5_13p6TeV_pythia8/NANOAODSIM/130X_mcRun3_2022_realistic_postEE_v6-v2/2540000/0ff6f15a-ec68-4ed3-bfc5-2127e91eeb7b.root",
        "T2_US_Purdue: davs://eos.cms.rcac.purdue.edu:9000/store/mc/Run3Summer22EENanoAODv12/ZZ_TuneCP5_13p6TeV_pythia8/NANOAODSIM/130X_mcRun3_2022_realistic_postEE_v6-v2/2540000/0ff6f15a-ec68-4ed3-bfc5-2127e91eeb7b.root",
        "T1_IT_CNAF_Disk: davs://xfer-cms.cr.cnaf.infn.it:8443/cmsdisk/store/mc/Run3Summer22EENanoAODv12/ZZ_TuneCP5_13p6TeV_pythia8/NANOAODSIM/130X_mcRun3_2022_realistic_postEE_v6-v2/2540000/0ff6f15a-ec68-4ed3-bfc5-2127e91eeb7b.root"
    ],
    "cms:/store/mc/Run3Summer22EENanoAODv12/ZZ_TuneCP5_13p6TeV_pythia8/NANOAODSIM/130X_mcRun3_2022_realistic_postEE_v6-v2/2530000/6e730612-945b-4063-8daa-ef7778250eb9.root": [
        "T1_US_FNAL_Disk: davs://cmsdcadisk.fnal.gov:2880/dcache/uscmsdisk/store/mc/Run3Summer22EENanoAODv12/ZZ_TuneCP5_13p6TeV_pythia8/NANOAODSIM/130X_mcRun3_2022_realistic_postEE_v6-v2/2530000/6e730612-945b-4063-8daa-ef7778250eb9.root",
        "T1_FR_CCIN2P3_Disk: davs://ccdavcms.in2p3.fr:2880/disk/data/store/mc/Run3Summer22EENanoAODv12/ZZ_TuneCP5_13p6TeV_pythia8/NANOAODSIM/130X_mcRun3_2022_realistic_postEE_v6-v2/2530000/6e730612-945b-4063-8daa-ef7778250eb9.root",
        "T2_US_MIT: davs://xrootd.cmsaf.mit.edu:1094/store/mc/Run3Summer22EENanoAODv12/ZZ_TuneCP5_13p6TeV_pythia8/NANOAODSIM/130X_mcRun3_2022_realistic_postEE_v6-v2/2530000/6e730612-945b-4063-8daa-ef7778250eb9.root",
        "T1_DE_KIT_Tape: davs://cmswebdav-kit-tape.gridka.de:2880/pnfs/gridka.de/cms/tape/store/mc/Run3Summer22EENanoAODv12/ZZ_TuneCP5_13p6TeV_pythia8/NANOAODSIM/130X_mcRun3_2022_realistic_postEE_v6-v2/2530000/6e730612-945b-4063-8daa-ef7778250eb9.root",
        "T2_CN_Beijing: davs://cceos.ihep.ac.cn:9000/eos/ihep/cms/store/mc/Run3Summer22EENanoAODv12/ZZ_TuneCP5_13p6TeV_pythia8/NANOAODSIM/130X_mcRun3_2022_realistic_postEE_v6-v2/2530000/6e730612-945b-4063-8daa-ef7778250eb9.root",
        "T2_BE_UCL: davs://ingrid-se02.cism.ucl.ac.be:1094/store/mc/Run3Summer22EENanoAODv12/ZZ_TuneCP5_13p6TeV_pythia8/NANOAODSIM/130X_mcRun3_2022_realistic_postEE_v6-v2/2530000/6e730612-945b-4063-8daa-ef7778250eb9.root",
        "T2_HU_Budapest: davs://grid143.kfki.hu:443/dpm/kfki.hu/home/cms/phedex/store/mc/Run3Summer22EENanoAODv12/ZZ_TuneCP5_13p6TeV_pythia8/NANOAODSIM/130X_mcRun3_2022_realistic_postEE_v6-v2/2530000/6e730612-945b-4063-8daa-ef7778250eb9.root",
        "T2_EE_Estonia: davs://xrootd.hep.kbfi.ee:1094/store/mc/Run3Summer22EENanoAODv12/ZZ_TuneCP5_13p6TeV_pythia8/NANOAODSIM/130X_mcRun3_2022_realistic_postEE_v6-v2/2530000/6e730612-945b-4063-8daa-ef7778250eb9.root",
        "T2_US_Purdue: davs://eos.cms.rcac.purdue.edu:9000/store/mc/Run3Summer22EENanoAODv12/ZZ_TuneCP5_13p6TeV_pythia8/NANOAODSIM/130X_mcRun3_2022_realistic_postEE_v6-v2/2530000/6e730612-945b-4063-8daa-ef7778250eb9.root",
        "T1_IT_CNAF_Disk: davs://xfer-cms.cr.cnaf.infn.it:8443/cmsdisk/store/mc/Run3Summer22EENanoAODv12/ZZ_TuneCP5_13p6TeV_pythia8/NANOAODSIM/130X_mcRun3_2022_realistic_postEE_v6-v2/2530000/6e730612-945b-4063-8daa-ef7778250eb9.root"
    ],
    "cms:/store/mc/Run3Summer22EENanoAODv12/ZZ_TuneCP5_13p6TeV_pythia8/NANOAODSIM/130X_mcRun3_2022_realistic_postEE_v6-v2/30000/93aea6b2-0c36-4697-abba-29ea51052989.root": [
        "T1_US_FNAL_Disk: davs://cmsdcadisk.fnal.gov:2880/dcache/uscmsdisk/store/mc/Run3Summer22EENanoAODv12/ZZ_TuneCP5_13p6TeV_pythia8/NANOAODSIM/130X_mcRun3_2022_realistic_postEE_v6-v2/30000/93aea6b2-0c36-4697-abba-29ea51052989.root",
        "T1_FR_CCIN2P3_Disk: davs://ccdavcms.in2p3.fr:2880/disk/data/store/mc/Run3Summer22EENanoAODv12/ZZ_TuneCP5_13p6TeV_pythia8/NANOAODSIM/130X_mcRun3_2022_realistic_postEE_v6-v2/30000/93aea6b2-0c36-4697-abba-29ea51052989.root",
        "T2_US_MIT: davs://xrootd.cmsaf.mit.edu:1094/store/mc/Run3Summer22EENanoAODv12/ZZ_TuneCP5_13p6TeV_pythia8/NANOAODSIM/130X_mcRun3_2022_realistic_postEE_v6-v2/30000/93aea6b2-0c36-4697-abba-29ea51052989.root",
        "T1_DE_KIT_Tape: davs://cmswebdav-kit-tape.gridka.de:2880/pnfs/gridka.de/cms/tape/store/mc/Run3Summer22EENanoAODv12/ZZ_TuneCP5_13p6TeV_pythia8/NANOAODSIM/130X_mcRun3_2022_realistic_postEE_v6-v2/30000/93aea6b2-0c36-4697-abba-29ea51052989.root",
        "T2_CN_Beijing: davs://cceos.ihep.ac.cn:9000/eos/ihep/cms/store/mc/Run3Summer22EENanoAODv12/ZZ_TuneCP5_13p6TeV_pythia8/NANOAODSIM/130X_mcRun3_2022_realistic_postEE_v6-v2/30000/93aea6b2-0c36-4697-abba-29ea51052989.root",
        "T2_BE_UCL: davs://ingrid-se02.cism.ucl.ac.be:1094/store/mc/Run3Summer22EENanoAODv12/ZZ_TuneCP5_13p6TeV_pythia8/NANOAODSIM/130X_mcRun3_2022_realistic_postEE_v6-v2/30000/93aea6b2-0c36-4697-abba-29ea51052989.root",
        "T2_HU_Budapest: davs://grid143.kfki.hu:443/dpm/kfki.hu/home/cms/phedex/store/mc/Run3Summer22EENanoAODv12/ZZ_TuneCP5_13p6TeV_pythia8/NANOAODSIM/130X_mcRun3_2022_realistic_postEE_v6-v2/30000/93aea6b2-0c36-4697-abba-29ea51052989.root",
        "T2_EE_Estonia: davs://xrootd.hep.kbfi.ee:1094/store/mc/Run3Summer22EENanoAODv12/ZZ_TuneCP5_13p6TeV_pythia8/NANOAODSIM/130X_mcRun3_2022_realistic_postEE_v6-v2/30000/93aea6b2-0c36-4697-abba-29ea51052989.root",
        "T2_US_Purdue: davs://eos.cms.rcac.purdue.edu:9000/store/mc/Run3Summer22EENanoAODv12/ZZ_TuneCP5_13p6TeV_pythia8/NANOAODSIM/130X_mcRun3_2022_realistic_postEE_v6-v2/30000/93aea6b2-0c36-4697-abba-29ea51052989.root",
        "T1_IT_CNAF_Disk: davs://xfer-cms.cr.cnaf.infn.it:8443/cmsdisk/store/mc/Run3Summer22EENanoAODv12/ZZ_TuneCP5_13p6TeV_pythia8/NANOAODSIM/130X_mcRun3_2022_realistic_postEE_v6-v2/30000/93aea6b2-0c36-4697-abba-29ea51052989.root"
    ],
    "cms:/store/mc/Run3Summer22EENanoAODv12/ZZ_TuneCP5_13p6TeV_pythia8/NANOAODSIM/130X_mcRun3_2022_realistic_postEE_v6-v2/30000/bd04fe61-2961-4573-9be2-a056289b8a6f.root": [
        "T1_US_FNAL_Disk: davs://cmsdcadisk.fnal.gov:2880/dcache/uscmsdisk/store/mc/Run3Summer22EENanoAODv12/ZZ_TuneCP5_13p6TeV_pythia8/NANOAODSIM/130X_mcRun3_2022_realistic_postEE_v6-v2/30000/bd04fe61-2961-4573-9be2-a056289b8a6f.root",
        "T1_FR_CCIN2P3_Disk: davs://ccdavcms.in2p3.fr:2880/disk/data/store/mc/Run3Summer22EENanoAODv12/ZZ_TuneCP5_13p6TeV_pythia8/NANOAODSIM/130X_mcRun3_2022_realistic_postEE_v6-v2/30000/bd04fe61-2961-4573-9be2-a056289b8a6f.root",
        "T2_US_MIT: davs://xrootd.cmsaf.mit.edu:1094/store/mc/Run3Summer22EENanoAODv12/ZZ_TuneCP5_13p6TeV_pythia8/NANOAODSIM/130X_mcRun3_2022_realistic_postEE_v6-v2/30000/bd04fe61-2961-4573-9be2-a056289b8a6f.root",
        "T1_DE_KIT_Tape: davs://cmswebdav-kit-tape.gridka.de:2880/pnfs/gridka.de/cms/tape/store/mc/Run3Summer22EENanoAODv12/ZZ_TuneCP5_13p6TeV_pythia8/NANOAODSIM/130X_mcRun3_2022_realistic_postEE_v6-v2/30000/bd04fe61-2961-4573-9be2-a056289b8a6f.root",
        "T2_CN_Beijing: davs://cceos.ihep.ac.cn:9000/eos/ihep/cms/store/mc/Run3Summer22EENanoAODv12/ZZ_TuneCP5_13p6TeV_pythia8/NANOAODSIM/130X_mcRun3_2022_realistic_postEE_v6-v2/30000/bd04fe61-2961-4573-9be2-a056289b8a6f.root",
        "T2_BE_UCL: davs://ingrid-se02.cism.ucl.ac.be:1094/store/mc/Run3Summer22EENanoAODv12/ZZ_TuneCP5_13p6TeV_pythia8/NANOAODSIM/130X_mcRun3_2022_realistic_postEE_v6-v2/30000/bd04fe61-2961-4573-9be2-a056289b8a6f.root",
        "T2_HU_Budapest: davs://grid143.kfki.hu:443/dpm/kfki.hu/home/cms/phedex/store/mc/Run3Summer22EENanoAODv12/ZZ_TuneCP5_13p6TeV_pythia8/NANOAODSIM/130X_mcRun3_2022_realistic_postEE_v6-v2/30000/bd04fe61-2961-4573-9be2-a056289b8a6f.root",
        "T2_EE_Estonia: davs://xrootd.hep.kbfi.ee:1094/store/mc/Run3Summer22EENanoAODv12/ZZ_TuneCP5_13p6TeV_pythia8/NANOAODSIM/130X_mcRun3_2022_realistic_postEE_v6-v2/30000/bd04fe61-2961-4573-9be2-a056289b8a6f.root",
        "T2_US_Purdue: davs://eos.cms.rcac.purdue.edu:9000/store/mc/Run3Summer22EENanoAODv12/ZZ_TuneCP5_13p6TeV_pythia8/NANOAODSIM/130X_mcRun3_2022_realistic_postEE_v6-v2/30000/bd04fe61-2961-4573-9be2-a056289b8a6f.root",
        "T1_IT_CNAF_Disk: davs://xfer-cms.cr.cnaf.infn.it:8443/cmsdisk/store/mc/Run3Summer22EENanoAODv12/ZZ_TuneCP5_13p6TeV_pythia8/NANOAODSIM/130X_mcRun3_2022_realistic_postEE_v6-v2/30000/bd04fe61-2961-4573-9be2-a056289b8a6f.root"
    ],
    "cms:/store/mc/Run3Summer22EENanoAODv12/ZZ_TuneCP5_13p6TeV_pythia8/NANOAODSIM/130X_mcRun3_2022_realistic_postEE_v6-v2/40000/fed7e8bb-3586-4297-8129-0515c5d4f42c.root": [
        "T1_US_FNAL_Disk: davs://cmsdcadisk.fnal.gov:2880/dcache/uscmsdisk/store/mc/Run3Summer22EENanoAODv12/ZZ_TuneCP5_13p6TeV_pythia8/NANOAODSIM/130X_mcRun3_2022_realistic_postEE_v6-v2/40000/fed7e8bb-3586-4297-8129-0515c5d4f42c.root",
        "T1_FR_CCIN2P3_Disk: davs://ccdavcms.in2p3.fr:2880/disk/data/store/mc/Run3Summer22EENanoAODv12/ZZ_TuneCP5_13p6TeV_pythia8/NANOAODSIM/130X_mcRun3_2022_realistic_postEE_v6-v2/40000/fed7e8bb-3586-4297-8129-0515c5d4f42c.root",
        "T2_US_MIT: davs://xrootd.cmsaf.mit.edu:1094/store/mc/Run3Summer22EENanoAODv12/ZZ_TuneCP5_13p6TeV_pythia8/NANOAODSIM/130X_mcRun3_2022_realistic_postEE_v6-v2/40000/fed7e8bb-3586-4297-8129-0515c5d4f42c.root",
        "T1_DE_KIT_Tape: davs://cmswebdav-kit-tape.gridka.de:2880/pnfs/gridka.de/cms/tape/store/mc/Run3Summer22EENanoAODv12/ZZ_TuneCP5_13p6TeV_pythia8/NANOAODSIM/130X_mcRun3_2022_realistic_postEE_v6-v2/40000/fed7e8bb-3586-4297-8129-0515c5d4f42c.root",
        "T2_CN_Beijing: davs://cceos.ihep.ac.cn:9000/eos/ihep/cms/store/mc/Run3Summer22EENanoAODv12/ZZ_TuneCP5_13p6TeV_pythia8/NANOAODSIM/130X_mcRun3_2022_realistic_postEE_v6-v2/40000/fed7e8bb-3586-4297-8129-0515c5d4f42c.root",
        "T2_BE_UCL: davs://ingrid-se02.cism.ucl.ac.be:1094/store/mc/Run3Summer22EENanoAODv12/ZZ_TuneCP5_13p6TeV_pythia8/NANOAODSIM/130X_mcRun3_2022_realistic_postEE_v6-v2/40000/fed7e8bb-3586-4297-8129-0515c5d4f42c.root",
        "T2_HU_Budapest: davs://grid143.kfki.hu:443/dpm/kfki.hu/home/cms/phedex/store/mc/Run3Summer22EENanoAODv12/ZZ_TuneCP5_13p6TeV_pythia8/NANOAODSIM/130X_mcRun3_2022_realistic_postEE_v6-v2/40000/fed7e8bb-3586-4297-8129-0515c5d4f42c.root",
        "T2_EE_Estonia: davs://xrootd.hep.kbfi.ee:1094/store/mc/Run3Summer22EENanoAODv12/ZZ_TuneCP5_13p6TeV_pythia8/NANOAODSIM/130X_mcRun3_2022_realistic_postEE_v6-v2/40000/fed7e8bb-3586-4297-8129-0515c5d4f42c.root",
        "T2_US_Purdue: davs://eos.cms.rcac.purdue.edu:9000/store/mc/Run3Summer22EENanoAODv12/ZZ_TuneCP5_13p6TeV_pythia8/NANOAODSIM/130X_mcRun3_2022_realistic_postEE_v6-v2/40000/fed7e8bb-3586-4297-8129-0515c5d4f42c.root",
        "T1_IT_CNAF_Disk: davs://xfer-cms.cr.cnaf.infn.it:8443/cmsdisk/store/mc/Run3Summer22EENanoAODv12/ZZ_TuneCP5_13p6TeV_pythia8/NANOAODSIM/130X_mcRun3_2022_realistic_postEE_v6-v2/40000/fed7e8bb-3586-4297-8129-0515c5d4f42c.root"
    ],
    "cms:/store/mc/Run3Summer22EENanoAODv12/ZZ_TuneCP5_13p6TeV_pythia8/NANOAODSIM/130X_mcRun3_2022_realistic_postEE_v6-v2/40000/8af8b48b-8c45-4297-af4b-760081d571e2.root": [
        "T1_US_FNAL_Disk: davs://cmsdcadisk.fnal.gov:2880/dcache/uscmsdisk/store/mc/Run3Summer22EENanoAODv12/ZZ_TuneCP5_13p6TeV_pythia8/NANOAODSIM/130X_mcRun3_2022_realistic_postEE_v6-v2/40000/8af8b48b-8c45-4297-af4b-760081d571e2.root",
        "T1_FR_CCIN2P3_Disk: davs://ccdavcms.in2p3.fr:2880/disk/data/store/mc/Run3Summer22EENanoAODv12/ZZ_TuneCP5_13p6TeV_pythia8/NANOAODSIM/130X_mcRun3_2022_realistic_postEE_v6-v2/40000/8af8b48b-8c45-4297-af4b-760081d571e2.root",
        "T2_US_MIT: davs://xrootd.cmsaf.mit.edu:1094/store/mc/Run3Summer22EENanoAODv12/ZZ_TuneCP5_13p6TeV_pythia8/NANOAODSIM/130X_mcRun3_2022_realistic_postEE_v6-v2/40000/8af8b48b-8c45-4297-af4b-760081d571e2.root",
        "T2_IT_Legnaro: davs://t2-xrdcms.lnl.infn.it:2880/pnfs/lnl.infn.it/data/cms/store/mc/Run3Summer22EENanoAODv12/ZZ_TuneCP5_13p6TeV_pythia8/NANOAODSIM/130X_mcRun3_2022_realistic_postEE_v6-v2/40000/8af8b48b-8c45-4297-af4b-760081d571e2.root",
        "T1_DE_KIT_Tape: davs://cmswebdav-kit-tape.gridka.de:2880/pnfs/gridka.de/cms/tape/store/mc/Run3Summer22EENanoAODv12/ZZ_TuneCP5_13p6TeV_pythia8/NANOAODSIM/130X_mcRun3_2022_realistic_postEE_v6-v2/40000/8af8b48b-8c45-4297-af4b-760081d571e2.root",
        "T2_CN_Beijing: davs://cceos.ihep.ac.cn:9000/eos/ihep/cms/store/mc/Run3Summer22EENanoAODv12/ZZ_TuneCP5_13p6TeV_pythia8/NANOAODSIM/130X_mcRun3_2022_realistic_postEE_v6-v2/40000/8af8b48b-8c45-4297-af4b-760081d571e2.root",
        "T2_BE_UCL: davs://ingrid-se02.cism.ucl.ac.be:1094/store/mc/Run3Summer22EENanoAODv12/ZZ_TuneCP5_13p6TeV_pythia8/NANOAODSIM/130X_mcRun3_2022_realistic_postEE_v6-v2/40000/8af8b48b-8c45-4297-af4b-760081d571e2.root",
        "T2_HU_Budapest: davs://grid143.kfki.hu:443/dpm/kfki.hu/home/cms/phedex/store/mc/Run3Summer22EENanoAODv12/ZZ_TuneCP5_13p6TeV_pythia8/NANOAODSIM/130X_mcRun3_2022_realistic_postEE_v6-v2/40000/8af8b48b-8c45-4297-af4b-760081d571e2.root",
        "T2_EE_Estonia: davs://xrootd.hep.kbfi.ee:1094/store/mc/Run3Summer22EENanoAODv12/ZZ_TuneCP5_13p6TeV_pythia8/NANOAODSIM/130X_mcRun3_2022_realistic_postEE_v6-v2/40000/8af8b48b-8c45-4297-af4b-760081d571e2.root",
        "T2_US_Purdue: davs://eos.cms.rcac.purdue.edu:9000/store/mc/Run3Summer22EENanoAODv12/ZZ_TuneCP5_13p6TeV_pythia8/NANOAODSIM/130X_mcRun3_2022_realistic_postEE_v6-v2/40000/8af8b48b-8c45-4297-af4b-760081d571e2.root",
        "T1_IT_CNAF_Disk: davs://xfer-cms.cr.cnaf.infn.it:8443/cmsdisk/store/mc/Run3Summer22EENanoAODv12/ZZ_TuneCP5_13p6TeV_pythia8/NANOAODSIM/130X_mcRun3_2022_realistic_postEE_v6-v2/40000/8af8b48b-8c45-4297-af4b-760081d571e2.root"
    ],
    "cms:/store/mc/Run3Summer22EENanoAODv12/ZZ_TuneCP5_13p6TeV_pythia8/NANOAODSIM/130X_mcRun3_2022_realistic_postEE_v6-v2/50000/ddc6d412-92e7-4032-b016-a0a7ba465eb1.root": [
        "T1_US_FNAL_Disk: davs://cmsdcadisk.fnal.gov:2880/dcache/uscmsdisk/store/mc/Run3Summer22EENanoAODv12/ZZ_TuneCP5_13p6TeV_pythia8/NANOAODSIM/130X_mcRun3_2022_realistic_postEE_v6-v2/50000/ddc6d412-92e7-4032-b016-a0a7ba465eb1.root",
        "T1_FR_CCIN2P3_Disk: davs://ccdavcms.in2p3.fr:2880/disk/data/store/mc/Run3Summer22EENanoAODv12/ZZ_TuneCP5_13p6TeV_pythia8/NANOAODSIM/130X_mcRun3_2022_realistic_postEE_v6-v2/50000/ddc6d412-92e7-4032-b016-a0a7ba465eb1.root",
        "T2_US_MIT: davs://xrootd.cmsaf.mit.edu:1094/store/mc/Run3Summer22EENanoAODv12/ZZ_TuneCP5_13p6TeV_pythia8/NANOAODSIM/130X_mcRun3_2022_realistic_postEE_v6-v2/50000/ddc6d412-92e7-4032-b016-a0a7ba465eb1.root",
        "T1_DE_KIT_Tape: davs://cmswebdav-kit-tape.gridka.de:2880/pnfs/gridka.de/cms/tape/store/mc/Run3Summer22EENanoAODv12/ZZ_TuneCP5_13p6TeV_pythia8/NANOAODSIM/130X_mcRun3_2022_realistic_postEE_v6-v2/50000/ddc6d412-92e7-4032-b016-a0a7ba465eb1.root",
        "T2_CN_Beijing: davs://cceos.ihep.ac.cn:9000/eos/ihep/cms/store/mc/Run3Summer22EENanoAODv12/ZZ_TuneCP5_13p6TeV_pythia8/NANOAODSIM/130X_mcRun3_2022_realistic_postEE_v6-v2/50000/ddc6d412-92e7-4032-b016-a0a7ba465eb1.root",
        "T2_BE_UCL: davs://ingrid-se02.cism.ucl.ac.be:1094/store/mc/Run3Summer22EENanoAODv12/ZZ_TuneCP5_13p6TeV_pythia8/NANOAODSIM/130X_mcRun3_2022_realistic_postEE_v6-v2/50000/ddc6d412-92e7-4032-b016-a0a7ba465eb1.root",
        "T2_HU_Budapest: davs://grid143.kfki.hu:443/dpm/kfki.hu/home/cms/phedex/store/mc/Run3Summer22EENanoAODv12/ZZ_TuneCP5_13p6TeV_pythia8/NANOAODSIM/130X_mcRun3_2022_realistic_postEE_v6-v2/50000/ddc6d412-92e7-4032-b016-a0a7ba465eb1.root",
        "T2_EE_Estonia: davs://xrootd.hep.kbfi.ee:1094/store/mc/Run3Summer22EENanoAODv12/ZZ_TuneCP5_13p6TeV_pythia8/NANOAODSIM/130X_mcRun3_2022_realistic_postEE_v6-v2/50000/ddc6d412-92e7-4032-b016-a0a7ba465eb1.root",
        "T2_US_Purdue: davs://eos.cms.rcac.purdue.edu:9000/store/mc/Run3Summer22EENanoAODv12/ZZ_TuneCP5_13p6TeV_pythia8/NANOAODSIM/130X_mcRun3_2022_realistic_postEE_v6-v2/50000/ddc6d412-92e7-4032-b016-a0a7ba465eb1.root",
        "T1_IT_CNAF_Disk: davs://xfer-cms.cr.cnaf.infn.it:8443/cmsdisk/store/mc/Run3Summer22EENanoAODv12/ZZ_TuneCP5_13p6TeV_pythia8/NANOAODSIM/130X_mcRun3_2022_realistic_postEE_v6-v2/50000/ddc6d412-92e7-4032-b016-a0a7ba465eb1.root"
    ],
    "cms:/store/mc/Run3Summer22EENanoAODv12/ZZ_TuneCP5_13p6TeV_pythia8/NANOAODSIM/130X_mcRun3_2022_realistic_postEE_v6-v2/40000/d95ed84d-6592-42f9-92e0-d31176e97de8.root": [
        "T1_US_FNAL_Disk: davs://cmsdcadisk.fnal.gov:2880/dcache/uscmsdisk/store/mc/Run3Summer22EENanoAODv12/ZZ_TuneCP5_13p6TeV_pythia8/NANOAODSIM/130X_mcRun3_2022_realistic_postEE_v6-v2/40000/d95ed84d-6592-42f9-92e0-d31176e97de8.root",
        "T1_FR_CCIN2P3_Disk: davs://ccdavcms.in2p3.fr:2880/disk/data/store/mc/Run3Summer22EENanoAODv12/ZZ_TuneCP5_13p6TeV_pythia8/NANOAODSIM/130X_mcRun3_2022_realistic_postEE_v6-v2/40000/d95ed84d-6592-42f9-92e0-d31176e97de8.root",
        "T2_US_MIT: davs://xrootd.cmsaf.mit.edu:1094/store/mc/Run3Summer22EENanoAODv12/ZZ_TuneCP5_13p6TeV_pythia8/NANOAODSIM/130X_mcRun3_2022_realistic_postEE_v6-v2/40000/d95ed84d-6592-42f9-92e0-d31176e97de8.root",
        "T1_DE_KIT_Tape: davs://cmswebdav-kit-tape.gridka.de:2880/pnfs/gridka.de/cms/tape/store/mc/Run3Summer22EENanoAODv12/ZZ_TuneCP5_13p6TeV_pythia8/NANOAODSIM/130X_mcRun3_2022_realistic_postEE_v6-v2/40000/d95ed84d-6592-42f9-92e0-d31176e97de8.root",
        "T2_CN_Beijing: davs://cceos.ihep.ac.cn:9000/eos/ihep/cms/store/mc/Run3Summer22EENanoAODv12/ZZ_TuneCP5_13p6TeV_pythia8/NANOAODSIM/130X_mcRun3_2022_realistic_postEE_v6-v2/40000/d95ed84d-6592-42f9-92e0-d31176e97de8.root",
        "T2_BE_UCL: davs://ingrid-se02.cism.ucl.ac.be:1094/store/mc/Run3Summer22EENanoAODv12/ZZ_TuneCP5_13p6TeV_pythia8/NANOAODSIM/130X_mcRun3_2022_realistic_postEE_v6-v2/40000/d95ed84d-6592-42f9-92e0-d31176e97de8.root",
        "T2_HU_Budapest: davs://grid143.kfki.hu:443/dpm/kfki.hu/home/cms/phedex/store/mc/Run3Summer22EENanoAODv12/ZZ_TuneCP5_13p6TeV_pythia8/NANOAODSIM/130X_mcRun3_2022_realistic_postEE_v6-v2/40000/d95ed84d-6592-42f9-92e0-d31176e97de8.root",
        "T2_EE_Estonia: davs://xrootd.hep.kbfi.ee:1094/store/mc/Run3Summer22EENanoAODv12/ZZ_TuneCP5_13p6TeV_pythia8/NANOAODSIM/130X_mcRun3_2022_realistic_postEE_v6-v2/40000/d95ed84d-6592-42f9-92e0-d31176e97de8.root",
        "T2_US_Purdue: davs://eos.cms.rcac.purdue.edu:9000/store/mc/Run3Summer22EENanoAODv12/ZZ_TuneCP5_13p6TeV_pythia8/NANOAODSIM/130X_mcRun3_2022_realistic_postEE_v6-v2/40000/d95ed84d-6592-42f9-92e0-d31176e97de8.root",
        "T1_IT_CNAF_Disk: davs://xfer-cms.cr.cnaf.infn.it:8443/cmsdisk/store/mc/Run3Summer22EENanoAODv12/ZZ_TuneCP5_13p6TeV_pythia8/NANOAODSIM/130X_mcRun3_2022_realistic_postEE_v6-v2/40000/d95ed84d-6592-42f9-92e0-d31176e97de8.root"
    ],
    "cms:/store/mc/Run3Summer22EENanoAODv12/ZZ_TuneCP5_13p6TeV_pythia8/NANOAODSIM/130X_mcRun3_2022_realistic_postEE_v6-v2/40000/10297b20-35bb-492d-bfbd-fba9e26a5811.root": [
        "T1_US_FNAL_Disk: davs://cmsdcadisk.fnal.gov:2880/dcache/uscmsdisk/store/mc/Run3Summer22EENanoAODv12/ZZ_TuneCP5_13p6TeV_pythia8/NANOAODSIM/130X_mcRun3_2022_realistic_postEE_v6-v2/40000/10297b20-35bb-492d-bfbd-fba9e26a5811.root",
        "T2_CH_CSCS: davs://storage01.lcg.cscs.ch:2880/pnfs/lcg.cscs.ch/cms/trivcat/store/mc/Run3Summer22EENanoAODv12/ZZ_TuneCP5_13p6TeV_pythia8/NANOAODSIM/130X_mcRun3_2022_realistic_postEE_v6-v2/40000/10297b20-35bb-492d-bfbd-fba9e26a5811.root",
        "T1_FR_CCIN2P3_Disk: davs://ccdavcms.in2p3.fr:2880/disk/data/store/mc/Run3Summer22EENanoAODv12/ZZ_TuneCP5_13p6TeV_pythia8/NANOAODSIM/130X_mcRun3_2022_realistic_postEE_v6-v2/40000/10297b20-35bb-492d-bfbd-fba9e26a5811.root",
        "T2_US_MIT: davs://xrootd.cmsaf.mit.edu:1094/store/mc/Run3Summer22EENanoAODv12/ZZ_TuneCP5_13p6TeV_pythia8/NANOAODSIM/130X_mcRun3_2022_realistic_postEE_v6-v2/40000/10297b20-35bb-492d-bfbd-fba9e26a5811.root",
        "T1_DE_KIT_Tape: davs://cmswebdav-kit-tape.gridka.de:2880/pnfs/gridka.de/cms/tape/store/mc/Run3Summer22EENanoAODv12/ZZ_TuneCP5_13p6TeV_pythia8/NANOAODSIM/130X_mcRun3_2022_realistic_postEE_v6-v2/40000/10297b20-35bb-492d-bfbd-fba9e26a5811.root",
        "T2_CN_Beijing: davs://cceos.ihep.ac.cn:9000/eos/ihep/cms/store/mc/Run3Summer22EENanoAODv12/ZZ_TuneCP5_13p6TeV_pythia8/NANOAODSIM/130X_mcRun3_2022_realistic_postEE_v6-v2/40000/10297b20-35bb-492d-bfbd-fba9e26a5811.root",
        "T2_BE_UCL: davs://ingrid-se02.cism.ucl.ac.be:1094/store/mc/Run3Summer22EENanoAODv12/ZZ_TuneCP5_13p6TeV_pythia8/NANOAODSIM/130X_mcRun3_2022_realistic_postEE_v6-v2/40000/10297b20-35bb-492d-bfbd-fba9e26a5811.root",
        "T2_HU_Budapest: davs://grid143.kfki.hu:443/dpm/kfki.hu/home/cms/phedex/store/mc/Run3Summer22EENanoAODv12/ZZ_TuneCP5_13p6TeV_pythia8/NANOAODSIM/130X_mcRun3_2022_realistic_postEE_v6-v2/40000/10297b20-35bb-492d-bfbd-fba9e26a5811.root",
        "T2_EE_Estonia: davs://xrootd.hep.kbfi.ee:1094/store/mc/Run3Summer22EENanoAODv12/ZZ_TuneCP5_13p6TeV_pythia8/NANOAODSIM/130X_mcRun3_2022_realistic_postEE_v6-v2/40000/10297b20-35bb-492d-bfbd-fba9e26a5811.root",
        "T2_US_Purdue: davs://eos.cms.rcac.purdue.edu:9000/store/mc/Run3Summer22EENanoAODv12/ZZ_TuneCP5_13p6TeV_pythia8/NANOAODSIM/130X_mcRun3_2022_realistic_postEE_v6-v2/40000/10297b20-35bb-492d-bfbd-fba9e26a5811.root",
        "T1_IT_CNAF_Disk: davs://xfer-cms.cr.cnaf.infn.it:8443/cmsdisk/store/mc/Run3Summer22EENanoAODv12/ZZ_TuneCP5_13p6TeV_pythia8/NANOAODSIM/130X_mcRun3_2022_realistic_postEE_v6-v2/40000/10297b20-35bb-492d-bfbd-fba9e26a5811.root"
    ],
    "cms:/store/mc/Run3Summer22EENanoAODv12/ZZ_TuneCP5_13p6TeV_pythia8/NANOAODSIM/130X_mcRun3_2022_realistic_postEE_v6-v2/2520000/7b191621-cd46-477b-9ef1-842449d22eec.root": [
        "T1_US_FNAL_Disk: davs://cmsdcadisk.fnal.gov:2880/dcache/uscmsdisk/store/mc/Run3Summer22EENanoAODv12/ZZ_TuneCP5_13p6TeV_pythia8/NANOAODSIM/130X_mcRun3_2022_realistic_postEE_v6-v2/2520000/7b191621-cd46-477b-9ef1-842449d22eec.root",
        "T1_FR_CCIN2P3_Disk: davs://ccdavcms.in2p3.fr:2880/disk/data/store/mc/Run3Summer22EENanoAODv12/ZZ_TuneCP5_13p6TeV_pythia8/NANOAODSIM/130X_mcRun3_2022_realistic_postEE_v6-v2/2520000/7b191621-cd46-477b-9ef1-842449d22eec.root",
        "T2_US_MIT: davs://xrootd.cmsaf.mit.edu:1094/store/mc/Run3Summer22EENanoAODv12/ZZ_TuneCP5_13p6TeV_pythia8/NANOAODSIM/130X_mcRun3_2022_realistic_postEE_v6-v2/2520000/7b191621-cd46-477b-9ef1-842449d22eec.root",
        "T1_DE_KIT_Tape: davs://cmswebdav-kit-tape.gridka.de:2880/pnfs/gridka.de/cms/tape/store/mc/Run3Summer22EENanoAODv12/ZZ_TuneCP5_13p6TeV_pythia8/NANOAODSIM/130X_mcRun3_2022_realistic_postEE_v6-v2/2520000/7b191621-cd46-477b-9ef1-842449d22eec.root",
        "T2_CN_Beijing: davs://cceos.ihep.ac.cn:9000/eos/ihep/cms/store/mc/Run3Summer22EENanoAODv12/ZZ_TuneCP5_13p6TeV_pythia8/NANOAODSIM/130X_mcRun3_2022_realistic_postEE_v6-v2/2520000/7b191621-cd46-477b-9ef1-842449d22eec.root",
        "T2_BE_UCL: davs://ingrid-se02.cism.ucl.ac.be:1094/store/mc/Run3Summer22EENanoAODv12/ZZ_TuneCP5_13p6TeV_pythia8/NANOAODSIM/130X_mcRun3_2022_realistic_postEE_v6-v2/2520000/7b191621-cd46-477b-9ef1-842449d22eec.root",
        "T2_HU_Budapest: davs://grid143.kfki.hu:443/dpm/kfki.hu/home/cms/phedex/store/mc/Run3Summer22EENanoAODv12/ZZ_TuneCP5_13p6TeV_pythia8/NANOAODSIM/130X_mcRun3_2022_realistic_postEE_v6-v2/2520000/7b191621-cd46-477b-9ef1-842449d22eec.root",
        "T2_EE_Estonia: davs://xrootd.hep.kbfi.ee:1094/store/mc/Run3Summer22EENanoAODv12/ZZ_TuneCP5_13p6TeV_pythia8/NANOAODSIM/130X_mcRun3_2022_realistic_postEE_v6-v2/2520000/7b191621-cd46-477b-9ef1-842449d22eec.root",
        "T2_BE_IIHE: davs://maite.iihe.ac.be:2880/pnfs/iihe/cms/ph/sc4/store/mc/Run3Summer22EENanoAODv12/ZZ_TuneCP5_13p6TeV_pythia8/NANOAODSIM/130X_mcRun3_2022_realistic_postEE_v6-v2/2520000/7b191621-cd46-477b-9ef1-842449d22eec.root",
        "T2_US_Purdue: davs://eos.cms.rcac.purdue.edu:9000/store/mc/Run3Summer22EENanoAODv12/ZZ_TuneCP5_13p6TeV_pythia8/NANOAODSIM/130X_mcRun3_2022_realistic_postEE_v6-v2/2520000/7b191621-cd46-477b-9ef1-842449d22eec.root",
        "T1_IT_CNAF_Disk: davs://xfer-cms.cr.cnaf.infn.it:8443/cmsdisk/store/mc/Run3Summer22EENanoAODv12/ZZ_TuneCP5_13p6TeV_pythia8/NANOAODSIM/130X_mcRun3_2022_realistic_postEE_v6-v2/2520000/7b191621-cd46-477b-9ef1-842449d22eec.root"
    ],
    "cms:/store/mc/Run3Summer22EENanoAODv12/ZZ_TuneCP5_13p6TeV_pythia8/NANOAODSIM/130X_mcRun3_2022_realistic_postEE_v6-v2/40000/75011fa2-d675-4960-8fe2-100776545cee.root": [
        "T1_US_FNAL_Disk: davs://cmsdcadisk.fnal.gov:2880/dcache/uscmsdisk/store/mc/Run3Summer22EENanoAODv12/ZZ_TuneCP5_13p6TeV_pythia8/NANOAODSIM/130X_mcRun3_2022_realistic_postEE_v6-v2/40000/75011fa2-d675-4960-8fe2-100776545cee.root",
        "T1_FR_CCIN2P3_Disk: davs://ccdavcms.in2p3.fr:2880/disk/data/store/mc/Run3Summer22EENanoAODv12/ZZ_TuneCP5_13p6TeV_pythia8/NANOAODSIM/130X_mcRun3_2022_realistic_postEE_v6-v2/40000/75011fa2-d675-4960-8fe2-100776545cee.root",
        "T2_US_MIT: davs://xrootd.cmsaf.mit.edu:1094/store/mc/Run3Summer22EENanoAODv12/ZZ_TuneCP5_13p6TeV_pythia8/NANOAODSIM/130X_mcRun3_2022_realistic_postEE_v6-v2/40000/75011fa2-d675-4960-8fe2-100776545cee.root",
        "T1_DE_KIT_Tape: davs://cmswebdav-kit-tape.gridka.de:2880/pnfs/gridka.de/cms/tape/store/mc/Run3Summer22EENanoAODv12/ZZ_TuneCP5_13p6TeV_pythia8/NANOAODSIM/130X_mcRun3_2022_realistic_postEE_v6-v2/40000/75011fa2-d675-4960-8fe2-100776545cee.root",
        "T2_CN_Beijing: davs://cceos.ihep.ac.cn:9000/eos/ihep/cms/store/mc/Run3Summer22EENanoAODv12/ZZ_TuneCP5_13p6TeV_pythia8/NANOAODSIM/130X_mcRun3_2022_realistic_postEE_v6-v2/40000/75011fa2-d675-4960-8fe2-100776545cee.root",
        "T2_BE_UCL: davs://ingrid-se02.cism.ucl.ac.be:1094/store/mc/Run3Summer22EENanoAODv12/ZZ_TuneCP5_13p6TeV_pythia8/NANOAODSIM/130X_mcRun3_2022_realistic_postEE_v6-v2/40000/75011fa2-d675-4960-8fe2-100776545cee.root",
        "T2_HU_Budapest: davs://grid143.kfki.hu:443/dpm/kfki.hu/home/cms/phedex/store/mc/Run3Summer22EENanoAODv12/ZZ_TuneCP5_13p6TeV_pythia8/NANOAODSIM/130X_mcRun3_2022_realistic_postEE_v6-v2/40000/75011fa2-d675-4960-8fe2-100776545cee.root",
        "T2_EE_Estonia: davs://xrootd.hep.kbfi.ee:1094/store/mc/Run3Summer22EENanoAODv12/ZZ_TuneCP5_13p6TeV_pythia8/NANOAODSIM/130X_mcRun3_2022_realistic_postEE_v6-v2/40000/75011fa2-d675-4960-8fe2-100776545cee.root",
        "T2_BE_IIHE: davs://maite.iihe.ac.be:2880/pnfs/iihe/cms/ph/sc4/store/mc/Run3Summer22EENanoAODv12/ZZ_TuneCP5_13p6TeV_pythia8/NANOAODSIM/130X_mcRun3_2022_realistic_postEE_v6-v2/40000/75011fa2-d675-4960-8fe2-100776545cee.root",
        "T2_US_Purdue: davs://eos.cms.rcac.purdue.edu:9000/store/mc/Run3Summer22EENanoAODv12/ZZ_TuneCP5_13p6TeV_pythia8/NANOAODSIM/130X_mcRun3_2022_realistic_postEE_v6-v2/40000/75011fa2-d675-4960-8fe2-100776545cee.root",
        "T1_IT_CNAF_Disk: davs://xfer-cms.cr.cnaf.infn.it:8443/cmsdisk/store/mc/Run3Summer22EENanoAODv12/ZZ_TuneCP5_13p6TeV_pythia8/NANOAODSIM/130X_mcRun3_2022_realistic_postEE_v6-v2/40000/75011fa2-d675-4960-8fe2-100776545cee.root"
    ],
    "cms:/store/mc/Run3Summer22EENanoAODv12/ZZ_TuneCP5_13p6TeV_pythia8/NANOAODSIM/130X_mcRun3_2022_realistic_postEE_v6-v2/40000/037b8e7e-b4bb-4d45-8a5a-acf41e5a30bf.root": [
        "T1_US_FNAL_Disk: davs://cmsdcadisk.fnal.gov:2880/dcache/uscmsdisk/store/mc/Run3Summer22EENanoAODv12/ZZ_TuneCP5_13p6TeV_pythia8/NANOAODSIM/130X_mcRun3_2022_realistic_postEE_v6-v2/40000/037b8e7e-b4bb-4d45-8a5a-acf41e5a30bf.root",
        "T1_FR_CCIN2P3_Disk: davs://ccdavcms.in2p3.fr:2880/disk/data/store/mc/Run3Summer22EENanoAODv12/ZZ_TuneCP5_13p6TeV_pythia8/NANOAODSIM/130X_mcRun3_2022_realistic_postEE_v6-v2/40000/037b8e7e-b4bb-4d45-8a5a-acf41e5a30bf.root",
        "T2_US_MIT: davs://xrootd.cmsaf.mit.edu:1094/store/mc/Run3Summer22EENanoAODv12/ZZ_TuneCP5_13p6TeV_pythia8/NANOAODSIM/130X_mcRun3_2022_realistic_postEE_v6-v2/40000/037b8e7e-b4bb-4d45-8a5a-acf41e5a30bf.root",
        "T1_DE_KIT_Tape: davs://cmswebdav-kit-tape.gridka.de:2880/pnfs/gridka.de/cms/tape/store/mc/Run3Summer22EENanoAODv12/ZZ_TuneCP5_13p6TeV_pythia8/NANOAODSIM/130X_mcRun3_2022_realistic_postEE_v6-v2/40000/037b8e7e-b4bb-4d45-8a5a-acf41e5a30bf.root",
        "T2_CN_Beijing: davs://cceos.ihep.ac.cn:9000/eos/ihep/cms/store/mc/Run3Summer22EENanoAODv12/ZZ_TuneCP5_13p6TeV_pythia8/NANOAODSIM/130X_mcRun3_2022_realistic_postEE_v6-v2/40000/037b8e7e-b4bb-4d45-8a5a-acf41e5a30bf.root",
        "T2_BE_UCL: davs://ingrid-se02.cism.ucl.ac.be:1094/store/mc/Run3Summer22EENanoAODv12/ZZ_TuneCP5_13p6TeV_pythia8/NANOAODSIM/130X_mcRun3_2022_realistic_postEE_v6-v2/40000/037b8e7e-b4bb-4d45-8a5a-acf41e5a30bf.root",
        "T2_HU_Budapest: davs://grid143.kfki.hu:443/dpm/kfki.hu/home/cms/phedex/store/mc/Run3Summer22EENanoAODv12/ZZ_TuneCP5_13p6TeV_pythia8/NANOAODSIM/130X_mcRun3_2022_realistic_postEE_v6-v2/40000/037b8e7e-b4bb-4d45-8a5a-acf41e5a30bf.root",
        "T2_EE_Estonia: davs://xrootd.hep.kbfi.ee:1094/store/mc/Run3Summer22EENanoAODv12/ZZ_TuneCP5_13p6TeV_pythia8/NANOAODSIM/130X_mcRun3_2022_realistic_postEE_v6-v2/40000/037b8e7e-b4bb-4d45-8a5a-acf41e5a30bf.root",
        "T2_US_Purdue: davs://eos.cms.rcac.purdue.edu:9000/store/mc/Run3Summer22EENanoAODv12/ZZ_TuneCP5_13p6TeV_pythia8/NANOAODSIM/130X_mcRun3_2022_realistic_postEE_v6-v2/40000/037b8e7e-b4bb-4d45-8a5a-acf41e5a30bf.root",
        "T1_IT_CNAF_Disk: davs://xfer-cms.cr.cnaf.infn.it:8443/cmsdisk/store/mc/Run3Summer22EENanoAODv12/ZZ_TuneCP5_13p6TeV_pythia8/NANOAODSIM/130X_mcRun3_2022_realistic_postEE_v6-v2/40000/037b8e7e-b4bb-4d45-8a5a-acf41e5a30bf.root"
    ],
    "cms:/store/mc/Run3Summer22EENanoAODv12/ZZ_TuneCP5_13p6TeV_pythia8/NANOAODSIM/130X_mcRun3_2022_realistic_postEE_v6-v2/50000/e7428eb1-0a9d-42d0-be54-2fd3f05348ba.root": [
        "T1_US_FNAL_Disk: davs://cmsdcadisk.fnal.gov:2880/dcache/uscmsdisk/store/mc/Run3Summer22EENanoAODv12/ZZ_TuneCP5_13p6TeV_pythia8/NANOAODSIM/130X_mcRun3_2022_realistic_postEE_v6-v2/50000/e7428eb1-0a9d-42d0-be54-2fd3f05348ba.root",
        "T1_FR_CCIN2P3_Disk: davs://ccdavcms.in2p3.fr:2880/disk/data/store/mc/Run3Summer22EENanoAODv12/ZZ_TuneCP5_13p6TeV_pythia8/NANOAODSIM/130X_mcRun3_2022_realistic_postEE_v6-v2/50000/e7428eb1-0a9d-42d0-be54-2fd3f05348ba.root",
        "T2_US_MIT: davs://xrootd.cmsaf.mit.edu:1094/store/mc/Run3Summer22EENanoAODv12/ZZ_TuneCP5_13p6TeV_pythia8/NANOAODSIM/130X_mcRun3_2022_realistic_postEE_v6-v2/50000/e7428eb1-0a9d-42d0-be54-2fd3f05348ba.root",
        "T1_DE_KIT_Tape: davs://cmswebdav-kit-tape.gridka.de:2880/pnfs/gridka.de/cms/tape/store/mc/Run3Summer22EENanoAODv12/ZZ_TuneCP5_13p6TeV_pythia8/NANOAODSIM/130X_mcRun3_2022_realistic_postEE_v6-v2/50000/e7428eb1-0a9d-42d0-be54-2fd3f05348ba.root",
        "T2_CN_Beijing: davs://cceos.ihep.ac.cn:9000/eos/ihep/cms/store/mc/Run3Summer22EENanoAODv12/ZZ_TuneCP5_13p6TeV_pythia8/NANOAODSIM/130X_mcRun3_2022_realistic_postEE_v6-v2/50000/e7428eb1-0a9d-42d0-be54-2fd3f05348ba.root",
        "T2_BE_UCL: davs://ingrid-se02.cism.ucl.ac.be:1094/store/mc/Run3Summer22EENanoAODv12/ZZ_TuneCP5_13p6TeV_pythia8/NANOAODSIM/130X_mcRun3_2022_realistic_postEE_v6-v2/50000/e7428eb1-0a9d-42d0-be54-2fd3f05348ba.root",
        "T2_HU_Budapest: davs://grid143.kfki.hu:443/dpm/kfki.hu/home/cms/phedex/store/mc/Run3Summer22EENanoAODv12/ZZ_TuneCP5_13p6TeV_pythia8/NANOAODSIM/130X_mcRun3_2022_realistic_postEE_v6-v2/50000/e7428eb1-0a9d-42d0-be54-2fd3f05348ba.root",
        "T2_EE_Estonia: davs://xrootd.hep.kbfi.ee:1094/store/mc/Run3Summer22EENanoAODv12/ZZ_TuneCP5_13p6TeV_pythia8/NANOAODSIM/130X_mcRun3_2022_realistic_postEE_v6-v2/50000/e7428eb1-0a9d-42d0-be54-2fd3f05348ba.root",
        "T2_US_Purdue: davs://eos.cms.rcac.purdue.edu:9000/store/mc/Run3Summer22EENanoAODv12/ZZ_TuneCP5_13p6TeV_pythia8/NANOAODSIM/130X_mcRun3_2022_realistic_postEE_v6-v2/50000/e7428eb1-0a9d-42d0-be54-2fd3f05348ba.root",
        "T2_UK_London_IC: davs://gfe02.grid.hep.ph.ic.ac.uk:2880/pnfs/hep.ph.ic.ac.uk/data/cms/store/mc/Run3Summer22EENanoAODv12/ZZ_TuneCP5_13p6TeV_pythia8/NANOAODSIM/130X_mcRun3_2022_realistic_postEE_v6-v2/50000/e7428eb1-0a9d-42d0-be54-2fd3f05348ba.root",
        "T1_IT_CNAF_Disk: davs://xfer-cms.cr.cnaf.infn.it:8443/cmsdisk/store/mc/Run3Summer22EENanoAODv12/ZZ_TuneCP5_13p6TeV_pythia8/NANOAODSIM/130X_mcRun3_2022_realistic_postEE_v6-v2/50000/e7428eb1-0a9d-42d0-be54-2fd3f05348ba.root"
    ],
    "cms:/store/mc/Run3Summer22EENanoAODv12/ZZ_TuneCP5_13p6TeV_pythia8/NANOAODSIM/130X_mcRun3_2022_realistic_postEE_v6-v2/2540000/e23d0af6-8e02-4233-b546-65611ab781cb.root": [
        "T1_US_FNAL_Disk: davs://cmsdcadisk.fnal.gov:2880/dcache/uscmsdisk/store/mc/Run3Summer22EENanoAODv12/ZZ_TuneCP5_13p6TeV_pythia8/NANOAODSIM/130X_mcRun3_2022_realistic_postEE_v6-v2/2540000/e23d0af6-8e02-4233-b546-65611ab781cb.root",
        "T1_FR_CCIN2P3_Disk: davs://ccdavcms.in2p3.fr:2880/disk/data/store/mc/Run3Summer22EENanoAODv12/ZZ_TuneCP5_13p6TeV_pythia8/NANOAODSIM/130X_mcRun3_2022_realistic_postEE_v6-v2/2540000/e23d0af6-8e02-4233-b546-65611ab781cb.root",
        "T2_US_MIT: davs://xrootd.cmsaf.mit.edu:1094/store/mc/Run3Summer22EENanoAODv12/ZZ_TuneCP5_13p6TeV_pythia8/NANOAODSIM/130X_mcRun3_2022_realistic_postEE_v6-v2/2540000/e23d0af6-8e02-4233-b546-65611ab781cb.root",
        "T1_DE_KIT_Tape: davs://cmswebdav-kit-tape.gridka.de:2880/pnfs/gridka.de/cms/tape/store/mc/Run3Summer22EENanoAODv12/ZZ_TuneCP5_13p6TeV_pythia8/NANOAODSIM/130X_mcRun3_2022_realistic_postEE_v6-v2/2540000/e23d0af6-8e02-4233-b546-65611ab781cb.root",
        "T2_CN_Beijing: davs://cceos.ihep.ac.cn:9000/eos/ihep/cms/store/mc/Run3Summer22EENanoAODv12/ZZ_TuneCP5_13p6TeV_pythia8/NANOAODSIM/130X_mcRun3_2022_realistic_postEE_v6-v2/2540000/e23d0af6-8e02-4233-b546-65611ab781cb.root",
        "T2_BE_UCL: davs://ingrid-se02.cism.ucl.ac.be:1094/store/mc/Run3Summer22EENanoAODv12/ZZ_TuneCP5_13p6TeV_pythia8/NANOAODSIM/130X_mcRun3_2022_realistic_postEE_v6-v2/2540000/e23d0af6-8e02-4233-b546-65611ab781cb.root",
        "T2_HU_Budapest: davs://grid143.kfki.hu:443/dpm/kfki.hu/home/cms/phedex/store/mc/Run3Summer22EENanoAODv12/ZZ_TuneCP5_13p6TeV_pythia8/NANOAODSIM/130X_mcRun3_2022_realistic_postEE_v6-v2/2540000/e23d0af6-8e02-4233-b546-65611ab781cb.root",
        "T2_EE_Estonia: davs://xrootd.hep.kbfi.ee:1094/store/mc/Run3Summer22EENanoAODv12/ZZ_TuneCP5_13p6TeV_pythia8/NANOAODSIM/130X_mcRun3_2022_realistic_postEE_v6-v2/2540000/e23d0af6-8e02-4233-b546-65611ab781cb.root",
        "T2_US_Purdue: davs://eos.cms.rcac.purdue.edu:9000/store/mc/Run3Summer22EENanoAODv12/ZZ_TuneCP5_13p6TeV_pythia8/NANOAODSIM/130X_mcRun3_2022_realistic_postEE_v6-v2/2540000/e23d0af6-8e02-4233-b546-65611ab781cb.root",
        "T1_IT_CNAF_Disk: davs://xfer-cms.cr.cnaf.infn.it:8443/cmsdisk/store/mc/Run3Summer22EENanoAODv12/ZZ_TuneCP5_13p6TeV_pythia8/NANOAODSIM/130X_mcRun3_2022_realistic_postEE_v6-v2/2540000/e23d0af6-8e02-4233-b546-65611ab781cb.root"
    ]
}